{
  "_id": "qTKyPzhSxYna7qNv",
  "name": "Access card (black)",
  "type": "loot",
  "img": "systems/pf1/icons/items/inventory/bills.jpg",
  "system": {
    "description": {
      "value": "<p><strong>Source</strong> <em>Technology Guide pg. 39</em></p><h2>Statistics</h2></h2><p><strong>Slot</strong> none</p><p><strong>Capacity</strong> -; <strong>Usage</strong> -</p><h2>Description</h2><p>An access card is a small strip of stiff plastic with a colorcoded stripe on one side. Some access cards are further decorated with names or titles written in Androffan, or even photographs of long-dead crew members. An access card functions as a key-when swiped through an electronic lock (a move action), an access card unlocks any lock of its color code or a color code of a lower rating. Although access cards do not consume energy themselves, they work in only electronic locks that currently have power. Among certain societies in Numeria, access cards are also used as decorations, worn as affectations, and incorporated into ceremonial regalia.</p><p>Access cards must be encoded to specific locks before they can function. Often, all of the doors in a complex are keyed to a unique set of cards that don't work on doors found in other complexes, much like a skeleton key might open all the doors in one castle but none in another. Coding an access card for specific locks requires a lock coder (see page 44). Some access cards could be worth far more than the prices listed above if they're specifically encoded to locks that protect more valuable or significant contents.</p><h2>Construction</h2><p><strong>Craft</strong> DC 16 (black); <strong>Cost</strong> 5 gp (black)</p><p>Craft Technological Item, production lab</p>",
      "unidentified": ""
    },
    "tags": [],
    "quantity": 1,
    "weight": {
      "value": 0
    },
    "price": 10,
    "size": "med",
    "equipped": false,
    "resizing": false,
    "identified": true,
    "hp": {
      "max": 10,
      "value": 10
    },
    "broken": false,
    "hardness": 0,
    "carried": true,
    "unidentified": {
      "price": 0,
      "name": ""
    },
    "cl": 0,
    "aura": {
      "custom": false,
      "school": ""
    },
    "changes": [],
    "changeFlags": {
      "loseDexToAC": false,
      "noEncumbrance": false,
      "mediumArmorFullSpeed": false,
      "heavyArmorFullSpeed": false
    },
    "contextNotes": [],
    "links": {
      "children": []
    },
    "tag": "",
    "useCustomTag": false,
    "flags": {
      "boolean": {},
      "dictionary": {}
    },
    "scriptCalls": [],
    "subType": "gear",
    "extraType": "",
    "uses": {
      "value": 0,
      "max": 0
    }
  },
  "ownership": {
    "default": 0
  },
  "_stats": {
    "systemId": "pf1",
    "systemVersion": "9.2",
    "coreVersion": "11.306",
    "createdTime": 1665428387898,
    "modifiedTime": 1690283389219,
    "lastModifiedBy": "PIulO4wVa7BrTZWn"
  },
  "effects": [],
  "folder": "J04fmdLYZ0rufV2c",
  "sort": 200000,
  "flags": {},
  "_key": "!items!qTKyPzhSxYna7qNv"
}