{
  "_id": "fduPBCiR7VW0wRkA",
  "name": "Autograpnel",
  "type": "weapon",
  "img": "icons/weapons/guns/gun-blunderbuss-gold.webp",
  "system": {
    "description": {
      "value": "<p><strong>Source</strong> <em>Technology Guide pg. 21</em></p><h2>Statistics</h2></h2><p><strong>Type</strong> two-handed ranged; <strong>Proficiency</strong> exotic (firearms)</p><p><strong>Damage</strong> 1d6+6 (small), 1d8+6 (medium); <strong>Damage Type</strong> P; <strong>Critical</strong> x3</p><p><strong>Range</strong> 30 ft.; <strong>Capacity</strong> 20; <strong>Usage</strong> 1 charge; <strong>Special</strong> Grapple, slow-firing</p><h2>Description</h2><p>An autograpnel looks like a rifle with a small adamantine spike protruding from its barrel. When fired, an autograpnel launches the spike with a muffled bang. The spike trails an incredibly strong and thin metal cable behind it. An instant after the spike punches into a solid target, tiny spurs lance out of it, anchoring the spike in place. An autograpnel's cord is long enough to allow the grapnel to reach its maximum range of 300 feet, and the internal retraction motors are strong enough to hold up to 500 pounds of weight. If the grapnel misses its target, it can be rewound into the gun as a standard action; reattaching the grapnel to the gun barrel is a move action.</p><p>An autograpnel strikes with an effective Strength score of 22 for the purposes of determining damage. If it strikes a creature, it remains lodged in the target and connected to the rifle and its wielder by the metal cord. This cord has AC 12, hardness 10, and 20 hp. A successful DC 32 Strength check is required to snap the cord. If the wielder retracts the cord while it's attached to a creature, the autograpnel attempts a pull combat maneuver check with a CMB of +16. If used against objects, an autograpnel can pull an item that weighs 25 pounds or less back to the user as a full-round action, or it can pull a heavier object that weighs no more than 100 pounds back to the user at a speed of 20 feet.</p><p>When attached to a solid object, the gun's retraction rate can be set to maintain a taut line while the gun is attached to a harness worn to aid climbing checks.</p><h2>Construction</h2><p><strong>Craft</strong> DC 20; <strong>Cost</strong> 2,000 gp</p><p>Craft Technological Arms and Armor, military lab</p>",
      "unidentified": ""
    },
    "tags": [],
    "quantity": 1,
    "weight": {
      "value": 10
    },
    "price": 4000,
    "size": "med",
    "equipped": true,
    "resizing": false,
    "identified": true,
    "hp": {
      "max": 10,
      "value": 10
    },
    "broken": false,
    "hardness": 10,
    "carried": true,
    "unidentified": {
      "price": 0,
      "name": ""
    },
    "cl": 0,
    "aura": {
      "custom": false,
      "school": ""
    },
    "changes": [],
    "changeFlags": {
      "loseDexToAC": false,
      "noEncumbrance": false,
      "mediumArmorFullSpeed": false,
      "heavyArmorFullSpeed": false
    },
    "actions": [
      {
        "_id": "dx2lthbyhehphs32",
        "name": "Attack",
        "img": "icons/weapons/guns/gun-blunderbuss-gold.webp",
        "description": "",
        "tag": "autograpnel",
        "activation": {
          "cost": 1,
          "type": "attack",
          "unchained": {
            "cost": 1,
            "type": "passive"
          }
        },
        "duration": {
          "value": null,
          "units": "inst"
        },
        "target": {
          "value": ""
        },
        "range": {
          "value": "30",
          "units": "ft",
          "maxIncrements": 1,
          "minValue": null,
          "minUnits": ""
        },
        "uses": {
          "autoDeductChargesCost": "",
          "self": {
            "value": 0,
            "maxFormula": "",
            "per": null
          },
          "per": null,
          "value": 0,
          "maxFormula": "",
          "max": 0
        },
        "measureTemplate": {
          "type": "",
          "size": "",
          "overrideColor": false,
          "customColor": "",
          "overrideTexture": false,
          "customTexture": ""
        },
        "attackName": "",
        "actionType": "rwak",
        "attackBonus": "",
        "critConfirmBonus": "",
        "damage": {
          "parts": [
            {
              "formula": "1d8+6",
              "type": {
                "values": [
                  "piercing"
                ],
                "custom": ""
              }
            }
          ],
          "critParts": [],
          "nonCritParts": []
        },
        "attackParts": [],
        "formulaicAttacks": {
          "count": {
            "formula": "ceil(@attributes.bab.total / 5) - 1"
          },
          "bonus": {
            "formula": "@formulaicAttack * -5"
          },
          "label": null
        },
        "formula": "",
        "ability": {
          "attack": "dex",
          "damage": "str",
          "damageMult": 1,
          "critRange": "20",
          "critMult": "3"
        },
        "save": {
          "dc": 0,
          "type": "",
          "description": ""
        },
        "effectNotes": [],
        "attackNotes": [],
        "soundEffect": "",
        "powerAttack": {
          "multiplier": "",
          "damageBonus": 2,
          "critMultiplier": 1
        },
        "naturalAttack": {
          "primaryAttack": true,
          "secondary": {
            "attackBonus": "-5",
            "damageMult": 0.5
          }
        },
        "nonlethal": false,
        "touch": false,
        "usesAmmo": false,
        "spellEffect": "",
        "spellArea": "",
        "conditionals": [],
        "enh": {
          "value": null
        }
      }
    ],
    "uses": {
      "per": "",
      "value": 0,
      "maxFormula": "",
      "autoDeductChargesCost": "1",
      "max": 0
    },
    "attackNotes": [],
    "effectNotes": [],
    "contextNotes": [],
    "links": {
      "children": []
    },
    "tag": "autograpnel",
    "useCustomTag": false,
    "flags": {
      "boolean": {},
      "dictionary": {}
    },
    "scriptCalls": [],
    "masterwork": false,
    "enh": null,
    "proficient": true,
    "held": "normal",
    "baseTypes": [],
    "weaponGroups": {
      "value": [],
      "custom": ""
    },
    "subType": "exotic",
    "weaponSubtype": "ranged",
    "properties": {
      "blc": false,
      "brc": false,
      "dea": false,
      "dis": false,
      "dst": false,
      "dbl": false,
      "fin": false,
      "frg": false,
      "grp": false,
      "imp": false,
      "mnk": false,
      "nnl": false,
      "prf": false,
      "rch": false,
      "snd": false,
      "thr": false,
      "trp": false,
      "ato": false,
      "sct": false,
      "spc": false
    },
    "showInQuickbar": false,
    "ammoType": "",
    "bonus": {
      "value": 0,
      "_deprecated": true
    },
    "damage2": {
      "value": "",
      "_deprecated": true
    },
    "damage2Type": {
      "value": "",
      "_deprecated": true
    }
  },
  "ownership": {
    "default": 0
  },
  "_stats": {
    "systemId": "pf1",
    "systemVersion": "9.2",
    "coreVersion": "11.306",
    "createdTime": 1665428387832,
    "modifiedTime": 1690285021629,
    "lastModifiedBy": "PIulO4wVa7BrTZWn"
  },
  "effects": [],
  "folder": "07LmOqf2qBzm5RsK",
  "sort": 3600000,
  "flags": {},
  "_key": "!items!fduPBCiR7VW0wRkA"
}