{
  "_id": "42jLihT8mXdJKq8w",
  "name": "Beam cannon (zero cannon)",
  "type": "weapon",
  "img": "icons/skills/ranged/cannon-barrel-firing-orange.webp",
  "system": {
    "description": {
      "value": "<p><strong>Source</strong> <em>Pathfinder #89: Palace of Fallen Stars pg. 62</em></p><h2>Statistics</h2></h2><p><strong>Type</strong> two-handed ranged; <strong>Proficiency</strong> exotic (heavy weaponry)</p><p><strong>Damage</strong> 2d6 (small), 3d6 (medium); <strong>Damage Type</strong> C; <strong>Critical</strong> x2</p><p><strong>Range</strong> 300 ft.; <strong>Capacity</strong> 50; <strong>Usage</strong> 1 charge; <strong>Special</strong> Automatic, touch</p><h2>Description</h2><p>A beam cannon is an immense version of one of the six more common beam rifle types. Beam cannons are generally referred to by type as summarized below. In addition to the standard automatic firing mode options (<em>Pathfinder Campaign Setting: Technology Guide</em> 20), a beam cannon can be used to launch a devastating blast of energy. This is a full-round action, and these blasts can't be used to make iterative attacks. When a beam cannon is used to launch a blast, no attack roll is made-you simply target a 20-foot-radius spread within a maximum range of 300 feet. You must have line of effect to your target when you launch a blast; if the blast impacts a solid object before reaching the target area, it explodes at that point. All creatures caught in the blast radius take 6d6 points of damage of the energy type appropriate to the cannon (Reflex DC 14 half). Each blast also has an additional effect as determined by the type of cannon. Firing a blast from a beam cannon consumes 10 charges.</p><p><strong>Zero Cannon</strong>: A zero cannon deals cold damage. A creature that is critically hit by a zero cannon or fails its saving throw against the cannon's blast must succeed at a DC 15 Fortitude saving throw or become staggered for 1 round. A zero cannon costs 40,000 gp and has a Craft DC of 31.</p><h2>Construction</h2><p><strong>Craft</strong> DC 31; <strong>Cost</strong> 20,000 gp</p><p>Craft Technological Arms and Armor, military lab</p>",
      "unidentified": ""
    },
    "tags": [],
    "quantity": 1,
    "weight": {
      "value": 18
    },
    "price": 40000,
    "size": "med",
    "equipped": true,
    "resizing": false,
    "identified": true,
    "hp": {
      "max": 10,
      "value": 10
    },
    "broken": false,
    "hardness": 10,
    "carried": true,
    "unidentified": {
      "price": 0,
      "name": ""
    },
    "cl": 0,
    "aura": {
      "custom": false,
      "school": ""
    },
    "changes": [],
    "changeFlags": {
      "loseDexToAC": false,
      "noEncumbrance": false,
      "mediumArmorFullSpeed": false,
      "heavyArmorFullSpeed": false
    },
    "actions": [
      {
        "_id": "e04o4mt5hg9su67f",
        "name": "Attack",
        "img": "icons/skills/ranged/cannon-barrel-firing-orange.webp",
        "description": "",
        "tag": "beamCannonZeroCannon",
        "activation": {
          "cost": 1,
          "type": "attack",
          "unchained": {
            "cost": 1,
            "type": "passive"
          }
        },
        "duration": {
          "value": null,
          "units": "inst"
        },
        "target": {
          "value": ""
        },
        "range": {
          "value": "300",
          "units": "ft",
          "maxIncrements": 1,
          "minValue": null,
          "minUnits": ""
        },
        "uses": {
          "autoDeductChargesCost": "",
          "self": {
            "value": 0,
            "maxFormula": "",
            "per": null
          },
          "per": null,
          "value": 0,
          "maxFormula": "",
          "max": 0
        },
        "measureTemplate": {
          "type": "",
          "size": "",
          "overrideColor": false,
          "customColor": "",
          "overrideTexture": false,
          "customTexture": ""
        },
        "attackName": "",
        "actionType": "rwak",
        "attackBonus": "",
        "critConfirmBonus": "",
        "damage": {
          "parts": [
            {
              "formula": "sizeRoll(3, 6, @size)",
              "type": {
                "values": [
                  "cold"
                ],
                "custom": ""
              }
            }
          ],
          "critParts": [],
          "nonCritParts": []
        },
        "attackParts": [],
        "formulaicAttacks": {
          "count": {
            "formula": "ceil(@attributes.bab.total / 5) - 1"
          },
          "bonus": {
            "formula": "@formulaicAttack * -5"
          },
          "label": null
        },
        "formula": "",
        "ability": {
          "attack": "dex",
          "damage": "str",
          "damageMult": 1,
          "critRange": "20",
          "critMult": "2"
        },
        "save": {
          "dc": 0,
          "type": "",
          "description": ""
        },
        "effectNotes": [],
        "attackNotes": [],
        "soundEffect": "",
        "powerAttack": {
          "multiplier": "",
          "damageBonus": 2,
          "critMultiplier": 1
        },
        "naturalAttack": {
          "primaryAttack": true,
          "secondary": {
            "attackBonus": "-5",
            "damageMult": 0.5
          }
        },
        "nonlethal": false,
        "touch": false,
        "usesAmmo": false,
        "spellEffect": "",
        "spellArea": "",
        "conditionals": [],
        "enh": {
          "value": null
        }
      }
    ],
    "uses": {
      "per": null,
      "value": 0,
      "maxFormula": "",
      "autoDeductChargesCost": "1",
      "max": 0
    },
    "attackNotes": [],
    "effectNotes": [],
    "contextNotes": [],
    "links": {
      "children": []
    },
    "tag": "beamCannonZeroCannon",
    "useCustomTag": false,
    "flags": {
      "boolean": {},
      "dictionary": {}
    },
    "scriptCalls": [],
    "masterwork": false,
    "enh": null,
    "proficient": true,
    "held": "normal",
    "baseTypes": [],
    "weaponGroups": {
      "value": [],
      "custom": ""
    },
    "subType": "exotic",
    "weaponSubtype": "ranged",
    "properties": {
      "blc": false,
      "brc": false,
      "dea": false,
      "dis": false,
      "dst": false,
      "dbl": false,
      "fin": false,
      "frg": false,
      "grp": false,
      "imp": false,
      "mnk": false,
      "nnl": false,
      "prf": false,
      "rch": false,
      "snd": false,
      "thr": false,
      "trp": false
    },
    "showInQuickbar": false,
    "ammoType": "",
    "bonus": {
      "value": 0,
      "_deprecated": true
    },
    "damage2": {
      "value": "",
      "_deprecated": true
    },
    "damage2Type": {
      "value": "",
      "_deprecated": true
    }
  },
  "ownership": {
    "default": 0
  },
  "_stats": {
    "systemId": "pf1",
    "systemVersion": "9.2",
    "coreVersion": "11.306",
    "createdTime": 1665428387627,
    "modifiedTime": 1690285021629,
    "lastModifiedBy": "PIulO4wVa7BrTZWn"
  },
  "effects": [],
  "folder": "07LmOqf2qBzm5RsK",
  "sort": 3100000,
  "flags": {},
  "_key": "!items!42jLihT8mXdJKq8w"
}