{
  "_id": "mUBv0atChJCbI4NQ",
  "name": "Cybernetic Arm",
  "type": "equipment",
  "img": "icons/equipment/hand/gauntelet-tooled-blue.webp",
  "system": {
    "description": {
      "value": "<p><strong>Source</strong> <em>Technology Guide pg. 36</em></p><h2>Statistics</h2></h2><p><strong>Slot</strong> arm</p><p><strong>Install</strong> DC 28; <strong>Implantation</strong> 2</p><h2>Description</h2><p>A cybernetic arm completely replaces a normal arm, from the shoulder to the hand. It can take the place of an arm lost to a severing wound. The arm is fully functional and no different in appearance from a regular arm, although cyberart can be added to the arm at no additional cost. A cybernetic arm does not increase a user's Strength score. If a creature has two cybernetic arms, it can lift and carry double the normal maximum weight for that creature's Strength and size, and it gains a +5 circumstance bonus on Climb checks. A character who wields a onehanded or light weapon with a cybernetic arm gains a +5 bonus to CMD against disarm attempts; two cybernetic arms do not increase this bonus, but do allow the bonus to apply to two-handed weapons.</p><h2>Construction</h2><p><strong>Craft</strong> DC 25; <strong>Cost</strong> 2,375 gp</p><p>Craft Cybertech, cybernetics lab</p>",
      "unidentified": ""
    },
    "tags": [],
    "quantity": 1,
    "weight": {
      "value": 9
    },
    "price": 4750,
    "size": "med",
    "equipped": true,
    "resizing": false,
    "identified": true,
    "hp": {
      "max": 10,
      "value": 10
    },
    "broken": false,
    "hardness": 0,
    "carried": true,
    "unidentified": {
      "price": 0,
      "name": ""
    },
    "cl": 0,
    "aura": {
      "custom": false,
      "school": ""
    },
    "changes": [],
    "changeFlags": {
      "loseDexToAC": false,
      "noEncumbrance": false,
      "mediumArmorFullSpeed": false,
      "heavyArmorFullSpeed": false
    },
    "contextNotes": [],
    "actions": [
      {
        "_id": "wuqlnc8e1yh55ib6",
        "name": "Use",
        "img": "icons/equipment/hand/gauntelet-tooled-blue.webp",
        "description": "",
        "tag": "",
        "activation": {
          "cost": 1,
          "type": "passive",
          "unchained": {
            "cost": 1,
            "type": "passive"
          }
        },
        "duration": {
          "value": null,
          "units": ""
        },
        "target": {
          "value": ""
        },
        "range": {
          "units": "",
          "maxIncrements": 1,
          "minValue": null,
          "minUnits": ""
        },
        "uses": {
          "autoDeductChargesCost": "",
          "self": {
            "value": 0,
            "maxFormula": "",
            "per": null
          },
          "per": "",
          "value": 0,
          "maxFormula": "",
          "max": 0
        },
        "measureTemplate": {
          "type": "",
          "size": "",
          "overrideColor": false,
          "customColor": "",
          "overrideTexture": false,
          "customTexture": ""
        },
        "attackName": "",
        "actionType": "",
        "attackBonus": "",
        "critConfirmBonus": "",
        "damage": {
          "parts": [],
          "critParts": [],
          "nonCritParts": []
        },
        "attackParts": [],
        "formulaicAttacks": {
          "count": {
            "formula": "",
            "value": null
          },
          "bonus": {
            "formula": ""
          },
          "label": null
        },
        "formula": "",
        "ability": {
          "attack": null,
          "damage": "",
          "damageMult": 1,
          "critRange": 20,
          "critMult": 2
        },
        "save": {
          "dc": "0",
          "type": "",
          "description": ""
        },
        "effectNotes": [],
        "attackNotes": [],
        "soundEffect": "",
        "powerAttack": {
          "multiplier": "",
          "damageBonus": 2,
          "critMultiplier": 1
        },
        "naturalAttack": {
          "primaryAttack": true,
          "secondary": {
            "attackBonus": "-5",
            "damageMult": 0.5
          }
        },
        "nonlethal": false,
        "touch": false,
        "usesAmmo": false,
        "spellEffect": "",
        "spellArea": "",
        "conditionals": [],
        "enh": {
          "value": null
        }
      }
    ],
    "uses": {
      "per": "",
      "value": 0,
      "maxFormula": "",
      "autoDeductChargesCost": "1",
      "max": 0
    },
    "attackNotes": [],
    "effectNotes": [],
    "links": {
      "children": [],
      "charges": []
    },
    "tag": "",
    "useCustomTag": false,
    "flags": {
      "boolean": {},
      "dictionary": {}
    },
    "scriptCalls": [],
    "masterwork": false,
    "enh": null,
    "proficient": true,
    "held": "normal",
    "subType": "other",
    "baseTypes": [],
    "equipmentSubtype": "lightArmor",
    "armor": {
      "value": 0,
      "dex": null,
      "acp": 0,
      "enh": 0
    },
    "spellFailure": 0,
    "slot": "other",
    "showInQuickbar": false
  },
  "ownership": {
    "default": 0
  },
  "_stats": {
    "systemId": "pf1",
    "systemVersion": "9.2",
    "coreVersion": "11.306",
    "createdTime": 1665428387873,
    "modifiedTime": 1690281931116,
    "lastModifiedBy": "PIulO4wVa7BrTZWn"
  },
  "effects": [],
  "folder": "F4gjjlRdF1zLmV9R",
  "sort": 106250,
  "flags": {},
  "_key": "!items!mUBv0atChJCbI4NQ"
}