{
  "_id": "hoYiIz30TAIZW5Gr",
  "name": "Gravity clip",
  "type": "equipment",
  "img": "systems/pf1/icons/items/inventory/badge-hammer.jpg",
  "system": {
    "description": {
      "value": "<p><strong>Source</strong> <em>Technology Guide pg. 46</em></p><h2>Statistics</h2></h2><p><strong>Slot</strong> none</p><p><strong>Capacity</strong> 10; <strong>Usage</strong> 1 charge/round</p><h2>Description</h2><p>A gravity clip is a small, disc-shaped device that can be attached to any melee weapon. Once mounted, the clip modulates the weapon's mass on the moment of impact, via the manipulation of the gravity fields around the weapon. Each successful hit against a target consumes a charge from a gravity clip and causes the damage from the hit to resolve as if the weapon were one size category larger than its actual size. This effect does not stack with similar effects, such as those granted by the spell <em>lead blades</em>.</p><h2>Construction</h2><p><strong>Craft</strong> DC 26; <strong>Cost</strong> 1,000 gp</p><p>Craft Technological Item, graviton lab</p>",
      "unidentified": ""
    },
    "tags": [],
    "quantity": 1,
    "weight": {
      "value": 0
    },
    "price": 2000,
    "size": "med",
    "equipped": true,
    "resizing": false,
    "identified": true,
    "hp": {
      "max": 10,
      "value": 10
    },
    "broken": false,
    "hardness": 0,
    "carried": true,
    "unidentified": {
      "price": 0,
      "name": ""
    },
    "cl": 0,
    "aura": {
      "custom": false,
      "school": ""
    },
    "changes": [],
    "changeFlags": {
      "loseDexToAC": false,
      "noEncumbrance": false,
      "mediumArmorFullSpeed": false,
      "heavyArmorFullSpeed": false
    },
    "contextNotes": [],
    "actions": [
      {
        "_id": "rz820ccew95k000g",
        "name": "Use",
        "img": "systems/pf1/icons/items/inventory/badge-hammer.jpg",
        "description": "",
        "tag": "",
        "activation": {
          "cost": 1,
          "type": "passive",
          "unchained": {
            "cost": 1,
            "type": "passive"
          }
        },
        "duration": {
          "value": null,
          "units": ""
        },
        "target": {
          "value": ""
        },
        "range": {
          "units": "",
          "maxIncrements": 1,
          "minValue": null,
          "minUnits": ""
        },
        "uses": {
          "autoDeductChargesCost": "",
          "self": {
            "value": 0,
            "maxFormula": "",
            "per": null
          },
          "per": "charges",
          "value": 10,
          "maxFormula": "",
          "max": 10
        },
        "measureTemplate": {
          "type": "",
          "size": "",
          "overrideColor": false,
          "customColor": "",
          "overrideTexture": false,
          "customTexture": ""
        },
        "attackName": "",
        "actionType": null,
        "attackBonus": "",
        "critConfirmBonus": "",
        "damage": {
          "parts": [],
          "critParts": [],
          "nonCritParts": []
        },
        "attackParts": [],
        "formulaicAttacks": {
          "count": {
            "formula": "",
            "value": null
          },
          "bonus": {
            "formula": ""
          },
          "label": null
        },
        "formula": "",
        "ability": {
          "attack": null,
          "damage": null,
          "damageMult": 1,
          "critRange": 20,
          "critMult": 2
        },
        "save": {
          "dc": 0,
          "type": "",
          "description": ""
        },
        "effectNotes": [],
        "attackNotes": [],
        "soundEffect": "",
        "powerAttack": {
          "multiplier": "",
          "damageBonus": 2,
          "critMultiplier": 1
        },
        "naturalAttack": {
          "primaryAttack": true,
          "secondary": {
            "attackBonus": "-5",
            "damageMult": 0.5
          }
        },
        "nonlethal": false,
        "touch": false,
        "usesAmmo": false,
        "spellEffect": "",
        "spellArea": "",
        "conditionals": [],
        "enh": {
          "value": null
        }
      }
    ],
    "uses": {
      "per": "charges",
      "value": 10,
      "maxFormula": "",
      "autoDeductChargesCost": "1",
      "max": 10
    },
    "attackNotes": [],
    "effectNotes": [],
    "links": {
      "children": [],
      "charges": []
    },
    "tag": "",
    "useCustomTag": false,
    "flags": {
      "boolean": {},
      "dictionary": {}
    },
    "scriptCalls": [],
    "masterwork": false,
    "enh": null,
    "proficient": true,
    "held": "normal",
    "subType": "other",
    "baseTypes": [],
    "equipmentSubtype": "lightArmor",
    "armor": {
      "value": 0,
      "dex": null,
      "acp": 0,
      "enh": 0
    },
    "spellFailure": 0,
    "slot": "other",
    "showInQuickbar": false
  },
  "ownership": {
    "default": 0
  },
  "_stats": {
    "systemId": "pf1",
    "systemVersion": "9.2",
    "coreVersion": "11.306",
    "createdTime": 1665428387849,
    "modifiedTime": 1690285081954,
    "lastModifiedBy": "PIulO4wVa7BrTZWn"
  },
  "effects": [],
  "folder": "InUvu8pSIVYU8kHo",
  "sort": 3200000,
  "flags": {},
  "_key": "!items!hoYiIz30TAIZW5Gr"
}