{
  "_id": "PZvNGfQLtlbZ91hs",
  "name": "Heavy weapon harness",
  "type": "equipment",
  "img": "icons/equipment/chest/breastplate-layered-leather-studded-black.webp",
  "flags": {
    "autoanimations": {
      "killAnim": false,
      "override": false,
      "animType": "t1",
      "animName": "",
      "bards": {
        "bardAnim": "a1",
        "bardTarget": true,
        "bardTargetAnim": "a1",
        "bardTargetColor": "a1",
        "bardSelf": true,
        "marker": true,
        "markerColor": "a1",
        "markerColorTarget": "a1"
      },
      "spellVar": "a1",
      "hmAnim": "a1",
      "color": "n1",
      "spellOptions": {
        "spellLoops": 1
      },
      "uaStrikeType": "physical",
      "dtvar": "dt1",
      "divineSmite": {
        "dsEnable": false,
        "dsSelf": true,
        "dsSelfDelay": 0,
        "dsSelfColor": "a1",
        "dsTarget": true,
        "dsTargetDelay": 1250,
        "dsTargetColor": "a1"
      },
      "explosion": false,
      "explodeVariant": "ev1",
      "explodeColor": "",
      "explodeRadius": "0",
      "explodeLoop": "1",
      "allSounds": {
        "explosion": {
          "audioExplodeEnabled": false,
          "file": "",
          "delay": 100,
          "volume": 25
        },
        "item": {
          "enableAudio": false,
          "file": "",
          "delay": 100,
          "volume": 25
        }
      },
      "selfRadius": "5",
      "animTint": "#ffffff",
      "auraOpacity": 0.75,
      "ctaOption": false,
      "teleDist": 30
    }
  },
  "system": {
    "description": {
      "value": "<p><strong>Source</strong> <em>Technology Guide pg. 30</em></p><h2>Statistics</h2></h2><p><strong>Type</strong> Light; <strong>Armor Bonus</strong> +1</p><p><strong>Max Dex Bonus</strong> +6; <strong>Armor Check Penalty</strong> -1</p><p><strong>Arcane Spell Failure Chance</strong> 5%</p><p><strong>Speed (30 ft.)</strong> 30 ft.; <strong>Speed (20 ft.)</strong> 20 ft.</p><p><strong>Capacity</strong> - ; <strong>Usage</strong> -</p><h2>Description</h2><p>Known also as an \"H-belt,\" a heavy weapon harness is an elaborate network of plastic and metal struts and straps. The harness can be worn in conjunction with any other suit of armor-the armor bonus granted by the heavy weapon harness does not stack with that granted by other suits of armor, but the armor check penalties and spell failure percentages do.</p><p>A heavy weapon harness provides its wearer with additional stability and support, allowing the user to wield heavy weapons as if they were regular firearms, using the Exotic Weapon (firearms) feat for proficiency rather than Exotic Weapon (heavy weaponry). A character with Exotic Weapon (heavy weaponry) who wears an H-belt finds the use of heavy weapons even easier, and gains a +1 circumstance bonus on all attack rolls made with harnessed heavy weapons.</p><p>Unlike most technological armors, a heavy weapon harness does not use power-its components are purely mechanical.</p><h2>Construction</h2><p><strong>Craft</strong> DC 27; <strong>Cost</strong> 4,500 gp</p><p>Craft Technological Arms and Armor, military lab</p>",
      "unidentified": ""
    },
    "tags": [],
    "quantity": 1,
    "weight": {
      "value": 10
    },
    "price": 9000,
    "size": "med",
    "equipped": true,
    "resizing": false,
    "identified": true,
    "hp": {
      "max": 10,
      "value": 10
    },
    "broken": false,
    "hardness": 0,
    "carried": true,
    "unidentified": {
      "price": 0,
      "name": ""
    },
    "cl": 0,
    "aura": {
      "custom": false,
      "school": ""
    },
    "changes": [],
    "changeFlags": {
      "loseDexToAC": false,
      "noEncumbrance": false,
      "mediumArmorFullSpeed": false,
      "heavyArmorFullSpeed": false
    },
    "contextNotes": [],
    "actions": [
      {
        "_id": "q8pro58d8whnjvtv",
        "name": "Use",
        "img": "icons/equipment/chest/breastplate-layered-leather-studded-black.webp",
        "description": "",
        "tag": "",
        "activation": {
          "cost": 1,
          "type": "passive",
          "unchained": {
            "cost": 1,
            "type": "passive"
          }
        },
        "duration": {
          "value": null,
          "units": ""
        },
        "target": {
          "value": ""
        },
        "range": {
          "units": "",
          "maxIncrements": 1,
          "minValue": null,
          "minUnits": ""
        },
        "uses": {
          "autoDeductChargesCost": "",
          "self": {
            "value": 0,
            "maxFormula": "",
            "per": null
          },
          "per": "charges",
          "value": 0,
          "maxFormula": "",
          "max": 0
        },
        "measureTemplate": {
          "type": "",
          "size": "",
          "overrideColor": false,
          "customColor": "",
          "overrideTexture": false,
          "customTexture": ""
        },
        "attackName": "",
        "actionType": "",
        "attackBonus": "",
        "critConfirmBonus": "",
        "damage": {
          "parts": [],
          "critParts": [],
          "nonCritParts": []
        },
        "attackParts": [],
        "formulaicAttacks": {
          "count": {
            "formula": "",
            "value": null
          },
          "bonus": {
            "formula": ""
          },
          "label": null
        },
        "formula": "",
        "ability": {
          "attack": null,
          "damage": "",
          "damageMult": 1,
          "critRange": 20,
          "critMult": 2
        },
        "save": {
          "dc": "0",
          "type": "",
          "description": ""
        },
        "effectNotes": [],
        "attackNotes": [],
        "soundEffect": "",
        "powerAttack": {
          "multiplier": "",
          "damageBonus": 2,
          "critMultiplier": 1
        },
        "naturalAttack": {
          "primaryAttack": true,
          "secondary": {
            "attackBonus": "-5",
            "damageMult": 0.5
          }
        },
        "nonlethal": false,
        "touch": false,
        "usesAmmo": false,
        "spellEffect": "",
        "spellArea": "",
        "conditionals": [],
        "enh": {
          "value": null
        }
      }
    ],
    "uses": {
      "per": "charges",
      "value": 0,
      "maxFormula": "",
      "autoDeductChargesCost": "1",
      "max": 0,
      "pricePerUse": ""
    },
    "attackNotes": [],
    "effectNotes": [],
    "links": {
      "children": [],
      "charges": []
    },
    "tag": "",
    "useCustomTag": false,
    "flags": {
      "boolean": {},
      "dictionary": {}
    },
    "scriptCalls": [],
    "masterwork": false,
    "enh": null,
    "proficient": true,
    "held": "normal",
    "subType": "armor",
    "baseTypes": [],
    "equipmentSubtype": "lightArmor",
    "armor": {
      "value": 1,
      "dex": 6,
      "acp": -1,
      "enh": 0
    },
    "spellFailure": 5,
    "slot": "armor",
    "showInQuickbar": false,
    "nonlethal": false
  },
  "ownership": {
    "default": 0
  },
  "_stats": {
    "systemId": "pf1",
    "systemVersion": "9.2",
    "coreVersion": "11.306",
    "createdTime": 1665428387755,
    "modifiedTime": 1690284988875,
    "lastModifiedBy": "PIulO4wVa7BrTZWn"
  },
  "effects": [],
  "folder": "HFLxp79AxYLcggU0",
  "sort": 1700000,
  "_key": "!items!PZvNGfQLtlbZ91hs"
}