{
  "_id": "dACpW9fBbX7HXcm4",
  "name": "Hemochem (Grade IV)",
  "type": "consumable",
  "img": "systems/pf1/icons/skills/blood_04.jpg",
  "system": {
    "description": {
      "value": "<p><strong>Source</strong> <em>Technology Guide pg. 34</em></p><h2>Statistics</h2></h2><h2>Description</h2><p>Hemochem stops bleeding and promotes healing. A single dose of hemochem grants fast healing for 1 minute. Multiple doses injected do not stack, but they do reset the duration of the fast healing back to 1 minute. Five grades of hemochem exist; the fast healing granted by a dose depends on the pharmaceutical's grade, as detailed below.</p><table><tbody><tr><td><strong>Grade</strong></td><td><strong>Fast Healing</strong></td></tr> <tr><td>Grade I</td><td>1</td></tr> <tr><td>Grade II</td><td>2</td></tr> <tr><td>Grade III</td><td>3</td></tr> <tr><td>Grade IV</td><td>4</td></tr> <tr><td>Grade V</td><td>5</td></tr></tbody></table><h2>Construction</h2><p><strong>Craft</strong> DC 26 (Grade IV); <strong>Cost</strong> 500 gp (Grade IV)</p><p>Craft Pharmaceutical, medical lab</p>",
      "unidentified": ""
    },
    "tags": [],
    "quantity": 1,
    "weight": {
      "value": 0
    },
    "price": 1000,
    "size": "med",
    "equipped": true,
    "resizing": false,
    "identified": true,
    "hp": {
      "max": 10,
      "value": 10
    },
    "broken": false,
    "hardness": 0,
    "carried": true,
    "unidentified": {
      "price": 0,
      "name": ""
    },
    "cl": 0,
    "aura": {
      "custom": false,
      "school": ""
    },
    "actions": [],
    "uses": {
      "per": "",
      "value": 0,
      "maxFormula": "",
      "pricePerUse": 0,
      "autoDeductChargesCost": "1",
      "max": 0
    },
    "attackNotes": [],
    "effectNotes": [],
    "links": {
      "children": [],
      "charges": []
    },
    "tag": "",
    "useCustomTag": false,
    "flags": {
      "boolean": {},
      "dictionary": {}
    },
    "scriptCalls": [],
    "subType": "misc",
    "showInQuickbar": false
  },
  "ownership": {
    "default": 0
  },
  "_stats": {
    "systemId": "pf1",
    "systemVersion": "9.2",
    "coreVersion": "11.306",
    "createdTime": 1665428387814,
    "modifiedTime": 1690282570090,
    "lastModifiedBy": "PIulO4wVa7BrTZWn"
  },
  "effects": [],
  "folder": "gLSEwZjw2Ye98Q9f",
  "sort": 101563,
  "flags": {},
  "_key": "!items!dACpW9fBbX7HXcm4"
}