{
  "_id": "vQXGn9lAT2qcizJ9",
  "name": "Id rifle",
  "type": "weapon",
  "img": "icons/weapons/guns/gun-blunderbuss-gold.webp",
  "system": {
    "description": {
      "value": "<p><strong>Source</strong> <em>Technology Guide pg. 21</em></p><h2>Statistics</h2></h2><p><strong>Type</strong> two-handed ranged; <strong>Proficiency</strong> exotic (firearms)</p><p><strong>Damage</strong> Special (small), Special (medium); <strong>Damage Type</strong> Special; <strong>Critical</strong> x2</p><p><strong>Range</strong> 50 ft.; <strong>Capacity</strong> 1 nanite canister; <strong>Usage</strong> 1 charge; <strong>Special</strong> Slow-firing, touch</p><h2>Description</h2><p>An id rifle looks like a sleek, low-caliber rifle made of burnished skymetal. It fires a tiny barb of solid nanites with a range increment of 50 feet. Although this barb does minimal damage on a hit, any creature damaged by an id rifle barb must succeed at a DC 16 Fortitude saving throw or have its central nervous system flooded with nanites that swiftly overwhelm the creature's brain, reducing its mind to the instinctive level of an animal. The victim takes 1d4 points of Intelligence damage each round, but the total amount of damage taken can never equal the victim's actual Intelligence score. Each round after the first, the victim can resist the Intelligence damage by succeeding at a DC 16 Fortitude saving throw, at which point the damage ceases. The recurring Intelligence damage automatically ends after 6 rounds. A victim already suffering from the effects of an id rifle who is affected by an additional shot has the save DC increased by 2 per additional shot.</p><p>An id rifle has a microphone built into its stock. During any round in which a creature takes Intelligence damage from an id rifle, as a move action the wielder of that rifle can speak a short command into the microphone. Any applicable target within 50 feet of the wielder must then succeed at a DC 16 Will save to resist following the command, as if under the effect of a <em>suggestion</em> spell. A victim follows only the latest suggestion spoken into the microphone, and abandons any previous suggestion if it fails a saving throw against a new suggestion. A victim continues to follow the suggestion for up to 5 hours after succumbing to its effects.</p><p>The effects created by an id rifle are mind-affecting effects.</p><h2>Construction</h2><p><strong>Craft</strong> DC 32; <strong>Cost</strong> 25,000 gp</p><p>Craft Technological Arms and Armor, nanotech lab</p>",
      "unidentified": ""
    },
    "tags": [],
    "quantity": 1,
    "weight": {
      "value": 5
    },
    "price": 50000,
    "size": "med",
    "equipped": true,
    "resizing": false,
    "identified": true,
    "hp": {
      "max": 10,
      "value": 10
    },
    "broken": false,
    "hardness": 10,
    "carried": true,
    "unidentified": {
      "price": 0,
      "name": ""
    },
    "cl": 0,
    "aura": {
      "custom": false,
      "school": ""
    },
    "changes": [],
    "changeFlags": {
      "loseDexToAC": false,
      "noEncumbrance": false,
      "mediumArmorFullSpeed": false,
      "heavyArmorFullSpeed": false
    },
    "actions": [
      {
        "_id": "k6ubr59rualdu8zn",
        "name": "Attack",
        "img": "icons/weapons/guns/gun-blunderbuss-gold.webp",
        "description": "",
        "tag": "idRifle",
        "activation": {
          "cost": 1,
          "type": "attack",
          "unchained": {
            "cost": 1,
            "type": "passive"
          }
        },
        "duration": {
          "value": null,
          "units": "inst"
        },
        "target": {
          "value": ""
        },
        "range": {
          "value": "50",
          "units": "ft",
          "maxIncrements": 1,
          "minValue": null,
          "minUnits": ""
        },
        "uses": {
          "autoDeductChargesCost": "",
          "self": {
            "value": 0,
            "maxFormula": "",
            "per": null
          },
          "per": null,
          "value": 0,
          "maxFormula": "",
          "max": 0
        },
        "measureTemplate": {
          "type": "",
          "size": "",
          "overrideColor": false,
          "customColor": "",
          "overrideTexture": false,
          "customTexture": ""
        },
        "attackName": "",
        "actionType": "rwak",
        "attackBonus": "",
        "critConfirmBonus": "",
        "damage": {
          "parts": [
            {
              "formula": "see text",
              "type": {
                "values": [],
                "custom": "Special"
              }
            }
          ],
          "critParts": [],
          "nonCritParts": []
        },
        "attackParts": [],
        "formulaicAttacks": {
          "count": {
            "formula": "ceil(@attributes.bab.total / 5) - 1"
          },
          "bonus": {
            "formula": "@formulaicAttack * -5"
          },
          "label": null
        },
        "formula": "",
        "ability": {
          "attack": "dex",
          "damage": "str",
          "damageMult": 1,
          "critRange": "20",
          "critMult": "2"
        },
        "save": {
          "dc": 0,
          "type": "",
          "description": ""
        },
        "effectNotes": [],
        "attackNotes": [],
        "soundEffect": "",
        "powerAttack": {
          "multiplier": "",
          "damageBonus": 2,
          "critMultiplier": 1
        },
        "naturalAttack": {
          "primaryAttack": true,
          "secondary": {
            "attackBonus": "-5",
            "damageMult": 0.5
          }
        },
        "nonlethal": false,
        "touch": false,
        "usesAmmo": false,
        "spellEffect": "",
        "spellArea": "",
        "conditionals": [],
        "enh": {
          "value": null
        }
      }
    ],
    "uses": {
      "per": "",
      "value": 0,
      "maxFormula": "",
      "autoDeductChargesCost": "1",
      "max": 0
    },
    "attackNotes": [],
    "effectNotes": [],
    "contextNotes": [],
    "links": {
      "children": []
    },
    "tag": "idRifle",
    "useCustomTag": false,
    "flags": {
      "boolean": {},
      "dictionary": {}
    },
    "scriptCalls": [],
    "masterwork": false,
    "enh": null,
    "proficient": true,
    "held": "normal",
    "baseTypes": [],
    "weaponGroups": {
      "value": [],
      "custom": ""
    },
    "subType": "exotic",
    "weaponSubtype": "ranged",
    "properties": {
      "ato": false,
      "blc": false,
      "brc": false,
      "dea": false,
      "dis": false,
      "dst": false,
      "dbl": false,
      "fin": false,
      "frg": false,
      "grp": false,
      "imp": false,
      "mnk": false,
      "nnl": false,
      "prf": false,
      "rch": false,
      "sct": false,
      "spc": false,
      "snd": false,
      "thr": false,
      "trp": false
    },
    "showInQuickbar": false,
    "ammoType": "",
    "bonus": {
      "value": 0,
      "_deprecated": true
    },
    "damage2": {
      "value": "",
      "_deprecated": true
    },
    "damage2Type": {
      "value": "",
      "_deprecated": true
    }
  },
  "ownership": {
    "default": 0
  },
  "_stats": {
    "systemId": "pf1",
    "systemVersion": "9.2",
    "coreVersion": "11.306",
    "createdTime": 1665428387925,
    "modifiedTime": 1690285021629,
    "lastModifiedBy": "PIulO4wVa7BrTZWn"
  },
  "effects": [],
  "folder": "07LmOqf2qBzm5RsK",
  "sort": 200000,
  "flags": {},
  "_key": "!items!vQXGn9lAT2qcizJ9"
}