{
  "_id": "4FRBfHoD1W9SsrDr",
  "name": "Jetpack",
  "type": "equipment",
  "img": "icons/skills/ranged/cannon-barrel-firing-orange.webp",
  "system": {
    "description": {
      "value": "<p><strong>Source</strong> <em>Technology Guide pg. 48</em></p><h2>Statistics</h2></h2><p><strong>Slot</strong> shoulders</p><p><strong>Capacity</strong> 100; <strong>Usage</strong> 1 charge/round</p><h2>Description</h2><p>A jetpack consists of a pair of cylindrical tanks worn on a shoulder harness with a pair of motion-sensitive rings worn on the thumbs that are used as wireless thrust and attitude controls. The jetpack can be activated as a swift action and grants a fly speed of 60 feet with poor maneuverability. If the wearer successfully hovers near ground level, she obscures visibility as though she had the Hover feat (<em>Pathfinder RPG Bestiary</em> 315). The exhaust isn't hot or concentrated enough to be used as a weapon.</p><p>A jetpack can be operated in overdrive, giving the wearer a fly speed of 90 feet with clumsy maneuverability and consuming twice as many charges per round.</p><p>While it is normally possible to wear an item in the shoulders slot as well as an item on the back, a jetpack's bulk precludes the wearer also using a backpack, <em>handy haversack</em>, or other items worn on the back.</p><h2>Construction</h2><p><strong>Craft</strong> DC 26; <strong>Cost</strong> 9,000 gp</p><p>Craft Technological Item, military lab</p>",
      "unidentified": ""
    },
    "tags": [],
    "quantity": 1,
    "weight": {
      "value": 10
    },
    "price": 18000,
    "size": "med",
    "equipped": true,
    "resizing": false,
    "identified": true,
    "hp": {
      "max": 10,
      "value": 10
    },
    "broken": false,
    "hardness": 0,
    "carried": true,
    "unidentified": {
      "price": 0,
      "name": ""
    },
    "cl": 0,
    "aura": {
      "custom": false,
      "school": ""
    },
    "changes": [],
    "changeFlags": {
      "loseDexToAC": false,
      "noEncumbrance": false,
      "mediumArmorFullSpeed": false,
      "heavyArmorFullSpeed": false
    },
    "contextNotes": [],
    "actions": [],
    "uses": {
      "per": null,
      "value": 0,
      "maxFormula": "",
      "autoDeductChargesCost": "1",
      "max": 0
    },
    "attackNotes": [],
    "effectNotes": [],
    "links": {
      "children": [],
      "charges": []
    },
    "tag": "",
    "useCustomTag": false,
    "flags": {
      "boolean": {},
      "dictionary": {}
    },
    "scriptCalls": [],
    "masterwork": false,
    "enh": null,
    "proficient": true,
    "held": "normal",
    "subType": "other",
    "baseTypes": [],
    "equipmentSubtype": "lightArmor",
    "armor": {
      "value": 0,
      "dex": null,
      "acp": 0,
      "enh": 0
    },
    "spellFailure": 0,
    "slot": "other",
    "showInQuickbar": false
  },
  "ownership": {
    "default": 0
  },
  "_stats": {
    "systemId": "pf1",
    "systemVersion": "9.2",
    "coreVersion": "11.306",
    "createdTime": 1665428387628,
    "modifiedTime": 1690285081954,
    "lastModifiedBy": "PIulO4wVa7BrTZWn"
  },
  "effects": [],
  "folder": "InUvu8pSIVYU8kHo",
  "sort": 1800000,
  "flags": {},
  "_key": "!items!4FRBfHoD1W9SsrDr"
}