{
  "_id": "Cv5xR3jr618ojBYm",
  "name": "Laser pistol",
  "type": "weapon",
  "img": "icons/weapons/guns/gun-purple.webp",
  "system": {
    "description": {
      "value": "<p><strong>Source</strong> <em>Technology Guide pg. 21</em></p><h2>Statistics</h2></h2><p><strong>Type</strong> one-handed ranged; <strong>Proficiency</strong> exotic (firearms)</p><p><strong>Damage</strong> 1d6 (small), 1d8 (medium); <strong>Damage Type</strong> F; <strong>Critical</strong> x2</p><p><strong>Range</strong> 50 ft.; <strong>Capacity</strong> 10; <strong>Usage</strong> 1 charge; <strong>Special</strong> Semi-automatic, touch</p><h2>Description</h2><p>A laser pistol emits a beam of intensely focused light capable of burning anything it strikes. A laser attack can pass through force fields and force effects, such as a <em>wall of force</em>, to strike a foe beyond without damaging that field. Objects like glass or other transparent barriers do not provide cover from lasers-but unlike force barriers, a transparent physical barrier still takes damage from a laser passing through it. Invisible creatures are immune to damage caused by a laser weapon. Fog, smoke, and other clouds provide cover in addition to concealment from laser attacks. Darkness (magical or otherwise) has no effect on lasers other than providing concealment, and though a laser consists of highly focused light, it does not provide any illumination.</p><h2>Construction</h2><p><strong>Craft</strong> DC 23; <strong>Cost</strong> 5,000 gp</p><p>Craft Technological Arms and Armor, military lab</p>",
      "unidentified": ""
    },
    "tags": [],
    "quantity": 1,
    "weight": {
      "value": 2
    },
    "price": 10000,
    "size": "med",
    "equipped": true,
    "resizing": false,
    "identified": true,
    "hp": {
      "max": 10,
      "value": 10
    },
    "broken": false,
    "hardness": 10,
    "carried": true,
    "unidentified": {
      "price": 0,
      "name": ""
    },
    "cl": 0,
    "aura": {
      "custom": false,
      "school": ""
    },
    "changes": [],
    "changeFlags": {
      "loseDexToAC": false,
      "noEncumbrance": false,
      "mediumArmorFullSpeed": false,
      "heavyArmorFullSpeed": false
    },
    "actions": [
      {
        "_id": "frtfqcuu2ni27ysw",
        "name": "Attack",
        "img": "icons/weapons/guns/gun-purple.webp",
        "description": "",
        "tag": "laserPistol",
        "activation": {
          "cost": 1,
          "type": "attack",
          "unchained": {
            "cost": 1,
            "type": "passive"
          }
        },
        "duration": {
          "value": null,
          "units": "inst"
        },
        "target": {
          "value": ""
        },
        "range": {
          "value": "50",
          "units": "ft",
          "maxIncrements": 1,
          "minValue": null,
          "minUnits": ""
        },
        "uses": {
          "autoDeductChargesCost": "",
          "self": {
            "value": 0,
            "maxFormula": "",
            "per": null
          },
          "per": null,
          "value": 0,
          "maxFormula": "",
          "max": 0
        },
        "measureTemplate": {
          "type": "",
          "size": "",
          "overrideColor": false,
          "customColor": "",
          "overrideTexture": false,
          "customTexture": ""
        },
        "attackName": "",
        "actionType": "rwak",
        "attackBonus": "",
        "critConfirmBonus": "",
        "damage": {
          "parts": [
            {
              "formula": "sizeRoll(1, 8, @size)",
              "type": {
                "values": [
                  "fire"
                ],
                "custom": ""
              }
            }
          ],
          "critParts": [],
          "nonCritParts": []
        },
        "attackParts": [],
        "formulaicAttacks": {
          "count": {
            "formula": "ceil(@attributes.bab.total / 5) - 1"
          },
          "bonus": {
            "formula": "@formulaicAttack * -5"
          },
          "label": null
        },
        "formula": "",
        "ability": {
          "attack": "dex",
          "damage": "str",
          "damageMult": 1,
          "critRange": "20",
          "critMult": "2"
        },
        "save": {
          "dc": 0,
          "type": "",
          "description": ""
        },
        "effectNotes": [],
        "attackNotes": [],
        "soundEffect": "",
        "powerAttack": {
          "multiplier": "",
          "damageBonus": 2,
          "critMultiplier": 1
        },
        "naturalAttack": {
          "primaryAttack": true,
          "secondary": {
            "attackBonus": "-5",
            "damageMult": 0.5
          }
        },
        "nonlethal": false,
        "touch": false,
        "usesAmmo": false,
        "spellEffect": "",
        "spellArea": "",
        "conditionals": [],
        "enh": {
          "value": null
        }
      }
    ],
    "uses": {
      "per": null,
      "value": 0,
      "maxFormula": "",
      "autoDeductChargesCost": "1",
      "max": 0
    },
    "attackNotes": [],
    "effectNotes": [],
    "contextNotes": [],
    "links": {
      "children": []
    },
    "tag": "laserPistol",
    "useCustomTag": false,
    "flags": {
      "boolean": {},
      "dictionary": {}
    },
    "scriptCalls": [],
    "masterwork": false,
    "enh": null,
    "proficient": true,
    "held": "normal",
    "baseTypes": [],
    "weaponGroups": {
      "value": [],
      "custom": ""
    },
    "subType": "exotic",
    "weaponSubtype": "ranged",
    "properties": {},
    "showInQuickbar": false,
    "ammoType": "",
    "bonus": {
      "value": 0,
      "_deprecated": true
    },
    "damage2": {
      "value": "",
      "_deprecated": true
    },
    "damage2Type": {
      "value": "",
      "_deprecated": true
    }
  },
  "ownership": {
    "default": 0
  },
  "_stats": {
    "systemId": "pf1",
    "systemVersion": "9.2",
    "coreVersion": "11.306",
    "createdTime": 1665428387665,
    "modifiedTime": 1690285021629,
    "lastModifiedBy": "PIulO4wVa7BrTZWn"
  },
  "effects": [],
  "folder": "07LmOqf2qBzm5RsK",
  "sort": 1800000,
  "flags": {},
  "_key": "!items!Cv5xR3jr618ojBYm"
}