{
  "name": "Miscellaneous",
  "sorting": "a",
  "folder": null,
  "type": "Item",
  "_id": "8KRZgeYbUiWNcdwG",
  "sort": 0,
  "color": null,
  "flags": {},
  "_stats": {
    "systemId": "pf1",
    "systemVersion": "9.2",
    "coreVersion": "11.306",
    "createdTime": 1690280526573,
    "modifiedTime": 1690280600102,
    "lastModifiedBy": "PIulO4wVa7BrTZWn"
  },
  "_key": "!folders!8KRZgeYbUiWNcdwG"
}