{
  "_id": "DS5vSlZogZP2MjiD",
  "name": "Power receiver",
  "type": "loot",
  "img": "icons/tools/smithing/furnace-fire-metal-orange.webp",
  "system": {
    "description": {
      "value": "<p><strong>Source</strong> <em>Technology Guide pg. 51</em></p><h2>Statistics</h2></h2><p><strong>Slot</strong> none</p><p><strong>Capacity</strong> -; <strong>Usage</strong> -</p><h2>Description</h2><p>A power receiver is a device that attaches to any technological item's battery slot. The power receiver is then set to the same frequency as a nearby power generator capable of broadcasting power, after which the device draws power from the generator as if it were attached via a power cable. The generator determines the range at which the device can draw power; this signal can be enhanced by a signal booster (see page 51) or blocked by a signal jammer (see page 52).</p><h2>Construction</h2><p><strong>Craft</strong> DC 30; <strong>Cost</strong> 2,500 gp</p><p>Craft Technological Item, production lab</p>",
      "unidentified": ""
    },
    "tags": [],
    "quantity": 1,
    "weight": {
      "value": 1
    },
    "price": 5000,
    "size": "med",
    "equipped": false,
    "resizing": false,
    "identified": true,
    "hp": {
      "max": 10,
      "value": 10
    },
    "broken": false,
    "hardness": 0,
    "carried": true,
    "unidentified": {
      "price": 0,
      "name": ""
    },
    "cl": 0,
    "aura": {
      "custom": false,
      "school": ""
    },
    "changes": [],
    "changeFlags": {
      "loseDexToAC": false,
      "noEncumbrance": false,
      "mediumArmorFullSpeed": false,
      "heavyArmorFullSpeed": false
    },
    "contextNotes": [],
    "links": {
      "children": []
    },
    "tag": "",
    "useCustomTag": false,
    "flags": {
      "boolean": {},
      "dictionary": {}
    },
    "scriptCalls": [],
    "subType": "gear",
    "extraType": "",
    "uses": {
      "value": 0,
      "max": 0
    }
  },
  "ownership": {
    "default": 0
  },
  "_stats": {
    "systemId": "pf1",
    "systemVersion": "9.2",
    "coreVersion": "11.306",
    "createdTime": 1665428387670,
    "modifiedTime": 1690284722452,
    "lastModifiedBy": "PIulO4wVa7BrTZWn"
  },
  "effects": [],
  "folder": "2C15gO0uHVfUCCok",
  "sort": 125000,
  "flags": {},
  "_key": "!items!DS5vSlZogZP2MjiD"
}