{
  "_id": "PxzomUBW65pkm7QR",
  "name": "Skillchip (mark III)",
  "type": "equipment",
  "img": "icons/skills/trades/smithing-anvil-brown.webp",
  "system": {
    "description": {
      "value": "<p><strong>Source</strong> <em>Technology Guide pg. 52</em></p><h2>Statistics</h2></h2><p><strong>Slot</strong> skillslot</p><p><strong>Capacity</strong> -; <strong>Usage</strong> -</p><h2>Description</h2><p>A skillchip contains a wealth of knowledge and lore concerning a single skill. Skillchips for skills like Craft, Knowledge, Perform, and Profession that have multiple subcategories each encode only one subcategory; a user can have a Knowledge (engineering) skillchip, but there are no general Knowledge or Craft skillchips. In order for a user to access a skillchip's lore, it must be inserted into an active skillslot (see page 38).</p><p>The magnitude of the bonus granted by a skillchip varies, ranging from a +2 enhancement bonus to a +10 enhancement bonus, as summarized on the following table.</p><table><tbody><tr><td><strong>Model</strong></td><td><strong>Bonus</strong></td></tr> <tr><td>Mark I</td><td>+2</td></tr> <tr><td>Mark II</td><td>+4</td></tr> <tr><td>Mark III</td><td>+6</td></tr> <tr><td>Mark IV</td><td>+8</td></tr> <tr><td>Mark V</td><td>+10</td></tr></tbody></table><h2>Construction</h2><p><strong>Craft</strong> DC 28 (mark III); <strong>Cost</strong> 1,800 gp (mark III)</p><p>Craft Technological Item, at least 10 ranks in skill to be encoded, cybernetics lab</p>",
      "unidentified": ""
    },
    "tags": [],
    "quantity": 1,
    "weight": {
      "value": 0
    },
    "price": 3600,
    "size": "med",
    "equipped": true,
    "resizing": false,
    "identified": true,
    "hp": {
      "max": 10,
      "value": 10
    },
    "broken": false,
    "hardness": 0,
    "carried": true,
    "unidentified": {
      "price": 0,
      "name": ""
    },
    "cl": 0,
    "aura": {
      "custom": false,
      "school": ""
    },
    "changes": [],
    "changeFlags": {
      "loseDexToAC": false,
      "noEncumbrance": false,
      "mediumArmorFullSpeed": false,
      "heavyArmorFullSpeed": false
    },
    "contextNotes": [],
    "actions": [],
    "uses": {
      "per": null,
      "value": 0,
      "maxFormula": "",
      "autoDeductChargesCost": "1",
      "max": 0
    },
    "attackNotes": [],
    "effectNotes": [],
    "links": {
      "children": [],
      "charges": []
    },
    "tag": "",
    "useCustomTag": false,
    "flags": {
      "boolean": {},
      "dictionary": {}
    },
    "scriptCalls": [],
    "masterwork": false,
    "enh": null,
    "proficient": true,
    "held": "normal",
    "subType": "other",
    "baseTypes": [],
    "equipmentSubtype": "lightArmor",
    "armor": {
      "value": 0,
      "dex": null,
      "acp": 0,
      "enh": 0
    },
    "spellFailure": 0,
    "slot": "other",
    "showInQuickbar": false
  },
  "ownership": {
    "default": 0
  },
  "_stats": {
    "systemId": "pf1",
    "systemVersion": "9.2",
    "coreVersion": "11.306",
    "createdTime": 1665428387759,
    "modifiedTime": 1690284974805,
    "lastModifiedBy": "PIulO4wVa7BrTZWn"
  },
  "effects": [],
  "folder": "tfzw8qvCDCdcwsgT",
  "sort": 125000,
  "flags": {},
  "_key": "!items!PxzomUBW65pkm7QR"
}