{
  "_id": "whnCYXRX3Kf5VLkk",
  "name": "Thoracic Nanite Chamber (Mark I)",
  "type": "equipment",
  "img": "icons/commodities/tech/tube-chamber-lightning.webp",
  "system": {
    "description": {
      "value": "<p><strong>Source</strong> <em>Technology Guide pg. 38</em></p><h2>Statistics</h2></h2><p><strong>Slot</strong> body</p><p><strong>Install</strong> DC 24 (Mark I)</p><p><strong>Implantation</strong> 2 (Mark I)</p><h2>Description</h2><p>A thoracic nanite chamber augments the vital organs within a creature's chest, particularly its heart, lungs, and pulmonary system. Once installed, a thoracic nanite chamber grants an enhancement bonus to Constitution. This enhancement bonus alters the implant's price, implantation value, install DCs, and Craft DCs as listed below.</p><table><tbody><tr><td><strong>Chamber</strong></td><td><strong>Enhancement</strong></td><td><strong>Implantation</strong></td><td><strong>Install</strong></td></tr> <tr><td>Mark I</td><td>+2 Con</td><td>2</td><td>DC 24</td></tr> <tr><td>Mark II</td><td>+4 Con</td><td>4</td><td>DC 28</td></tr> <tr><td>Mark III</td><td>+6 Con</td><td>8</td><td>DC 36</td></tr></tbody></table><h2>Construction</h2><p><strong>Craft</strong> DC 24 (Mark I); <strong>Cost</strong> 4,000 gp (Mark I)</p><p>Craft Cybertech, cybernetics lab</p>",
      "unidentified": ""
    },
    "tags": [],
    "quantity": 1,
    "weight": {
      "value": 5
    },
    "price": 8000,
    "size": "med",
    "equipped": true,
    "resizing": false,
    "identified": true,
    "hp": {
      "max": 10,
      "value": 10
    },
    "broken": false,
    "hardness": 0,
    "carried": true,
    "unidentified": {
      "price": 0,
      "name": ""
    },
    "cl": 0,
    "aura": {
      "custom": false,
      "school": ""
    },
    "changes": [],
    "changeFlags": {
      "loseDexToAC": false,
      "noEncumbrance": false,
      "mediumArmorFullSpeed": false,
      "heavyArmorFullSpeed": false
    },
    "contextNotes": [],
    "actions": [
      {
        "_id": "fibahquscdni6oaz",
        "name": "Use",
        "img": "icons/commodities/tech/tube-chamber-lightning.webp",
        "description": "",
        "tag": "",
        "activation": {
          "cost": 1,
          "type": "passive",
          "unchained": {
            "cost": 1,
            "type": "passive"
          }
        },
        "duration": {
          "value": null,
          "units": ""
        },
        "target": {
          "value": ""
        },
        "range": {
          "units": "",
          "maxIncrements": 1,
          "minValue": null,
          "minUnits": ""
        },
        "uses": {
          "autoDeductChargesCost": "",
          "self": {
            "value": 0,
            "maxFormula": "",
            "per": null
          },
          "per": "",
          "value": 0,
          "maxFormula": "",
          "max": 0
        },
        "measureTemplate": {
          "type": "",
          "size": "",
          "overrideColor": false,
          "customColor": "",
          "overrideTexture": false,
          "customTexture": ""
        },
        "attackName": "",
        "actionType": "",
        "attackBonus": "",
        "critConfirmBonus": "",
        "damage": {
          "parts": [],
          "critParts": [],
          "nonCritParts": []
        },
        "attackParts": [],
        "formulaicAttacks": {
          "count": {
            "formula": "",
            "value": null
          },
          "bonus": {
            "formula": ""
          },
          "label": null
        },
        "formula": "",
        "ability": {
          "attack": null,
          "damage": "",
          "damageMult": 1,
          "critRange": 20,
          "critMult": 2
        },
        "save": {
          "dc": "0",
          "type": "",
          "description": ""
        },
        "effectNotes": [],
        "attackNotes": [],
        "soundEffect": "",
        "powerAttack": {
          "multiplier": "",
          "damageBonus": 2,
          "critMultiplier": 1
        },
        "naturalAttack": {
          "primaryAttack": true,
          "secondary": {
            "attackBonus": "-5",
            "damageMult": 0.5
          }
        },
        "nonlethal": false,
        "touch": false,
        "usesAmmo": false,
        "spellEffect": "",
        "spellArea": "",
        "conditionals": [],
        "enh": {
          "value": null
        }
      }
    ],
    "uses": {
      "per": "",
      "value": 0,
      "maxFormula": "",
      "autoDeductChargesCost": "1",
      "max": 0
    },
    "attackNotes": [],
    "effectNotes": [],
    "links": {
      "children": [],
      "charges": []
    },
    "tag": "",
    "useCustomTag": false,
    "flags": {
      "boolean": {},
      "dictionary": {}
    },
    "scriptCalls": [],
    "masterwork": false,
    "enh": null,
    "proficient": true,
    "held": "normal",
    "subType": "other",
    "baseTypes": [],
    "equipmentSubtype": "lightArmor",
    "armor": {
      "value": 0,
      "dex": null,
      "acp": 0,
      "enh": 0
    },
    "spellFailure": 0,
    "slot": "other",
    "showInQuickbar": false
  },
  "ownership": {
    "default": 0
  },
  "_stats": {
    "systemId": "pf1",
    "systemVersion": "9.2",
    "coreVersion": "11.306",
    "createdTime": 1665428387936,
    "modifiedTime": 1690285026580,
    "lastModifiedBy": "PIulO4wVa7BrTZWn"
  },
  "effects": [],
  "folder": "F4gjjlRdF1zLmV9R",
  "sort": 1563,
  "flags": {},
  "_key": "!items!whnCYXRX3Kf5VLkk"
}