{
  "_id": "WtPAibFVrxTwUG6K",
  "name": "Tracker chip",
  "type": "loot",
  "img": "icons/commodities/tech/dial-meter-gauge-blue.webp",
  "system": {
    "description": {
      "value": "<p><strong>Source</strong> <em>Technology Guide pg. 52</em></p><h2>Statistics</h2></h2><p><strong>Slot</strong> none</p><p><strong>Capacity</strong> -; <strong>Usage</strong> -</p><h2>Description</h2><p>A tracker chip appears to be a bit of metal the size of a small fingernail. Before a tracker chip activates, it must be implanted in a living creature just under the skin. This procedure takes 1 minute to perform. As part of the installation process, the installer attempts a Heal check, the result of which is the DC of noticing the implant. Once a chip is implanted, its ingenious bioelectric circuits are powered by nerve impulses in the implanted creature's body.</p><p>Noticing an implanted tracker chip requires a full-round action to search the target creature and a successful Perception check equal to 10 + the result of the Heal check used to implant the chip. Extracting an installed tracker chip is a standard action that requires a slashing weapon or tool and deals 1 point of damage. Once installed, the tracker chip emits a signal that can be detected by any chipfinder in range. If removed from a body or its host dies, an activated tracked chip retains enough of a charge to continue to be detected by a chipfinder for 1 week.</p><h2>Construction</h2><p><strong>Craft</strong> DC 26; <strong>Cost</strong> 250 gp</p><p>Craft Technological Item, production lab</p>",
      "unidentified": ""
    },
    "tags": [],
    "quantity": 1,
    "weight": {
      "value": 0
    },
    "price": 500,
    "size": "med",
    "equipped": false,
    "resizing": false,
    "identified": true,
    "hp": {
      "max": 10,
      "value": 10
    },
    "broken": false,
    "hardness": 0,
    "carried": true,
    "unidentified": {
      "price": 0,
      "name": ""
    },
    "cl": 0,
    "aura": {
      "custom": false,
      "school": ""
    },
    "changes": [],
    "changeFlags": {
      "loseDexToAC": false,
      "noEncumbrance": false,
      "mediumArmorFullSpeed": false,
      "heavyArmorFullSpeed": false
    },
    "contextNotes": [],
    "links": {
      "children": []
    },
    "tag": "",
    "useCustomTag": false,
    "flags": {
      "boolean": {},
      "dictionary": {}
    },
    "scriptCalls": [],
    "subType": "gear",
    "extraType": "",
    "uses": {
      "value": 0,
      "max": 0
    }
  },
  "ownership": {
    "default": 0
  },
  "_stats": {
    "systemId": "pf1",
    "systemVersion": "9.2",
    "coreVersion": "11.306",
    "createdTime": 1665428387780,
    "modifiedTime": 1690285081954,
    "lastModifiedBy": "PIulO4wVa7BrTZWn"
  },
  "effects": [],
  "folder": "InUvu8pSIVYU8kHo",
  "sort": 800000,
  "flags": {},
  "_key": "!items!WtPAibFVrxTwUG6K"
}