{
  "_id": "s7otjXVeYmKuS1ra",
  "name": "Veemod (prismatic)",
  "type": "equipment",
  "img": "icons/magic/perception/orb-crystal-ball-scrying-blue.webp",
  "system": {
    "description": {
      "value": "<p><strong>Source</strong> <em>Technology Guide pg. 53</em></p><h2>Statistics</h2></h2><p><strong>Slot</strong> veemod goggles</p><p><strong>Capacity</strong> -; <strong>Usage</strong> varies</p><h2>Description</h2><p>A veemod (\"vision enhancement module\") is a narrow crystalline strip that slots into a set of veemod goggles to enhance the goggles' use. Inserting a veemod into a pair of goggles is a standard action that provokes attacks of opportunity. Veemods are color-coded items, and provide the following benefits.</p><p><strong>Brown Veemod</strong>: This veemod darkens the goggles' lenses, providing a +1 circumstance bonus on all saving throws against bright light effects that cause dazzling or blindness. When worn, they also allow creatures impacted by light blindness or light sensitivity to see normally in areas of bright light.</p><p><strong>Black Veemod</strong>: A black veemod enhances vision, and by blinking twice rapidly, the wearer can magnify what she's seeing. Blinking twice again restores normal vision. This grants a +2 competence bonus on all Perception checks.</p><p><strong>White Veemod</strong>: This veemod is similar to a black veemod, except that magnification is much stronger, granting a +5 competence bonus on Perception checks.</p><p><strong>Gray Veemod</strong>: This veemod grants low-light vision.</p><p><strong>Green Veemod</strong>: This veemod magnifies vision even more than a white veemod, granting a +10 competence bonus on Perception checks.</p><p><strong>Red Veemod</strong>: This veemod grants darkvision to a range of 60 feet.</p><p><strong>Blue Veemod</strong>: This veemod dramatically extends the scope of peripheral vision, granting the effects of allaround vision-the wearer cannot be flanked.</p><p><strong>Orange Veemod</strong>: The wearer can see in darkness of any kind, including magical darkness.</p><p><strong>Prismatic Veemod</strong>: This veemod allows the user to see through solid objects. Vision range is 20 feet, with the wearer seeing as if he were looking at something in normal light even if there is no illumination. X-ray vision can penetrate 20 feet of cloth, wood, or similar animal or vegetable material. It can see through up to 10 feet of stone and some metals. It can see through up to 10 inches of iron, steel, copper, brass, or similar metals. It cannot see through lead, gold, platinum, plutonium, or skymetals at all. It's possible to scan an area of up to 100 square feet in 1 round. Secret compartments are 90% likely to be located by x-ray scanning.</p><table><tbody><tr><td><strong>Color</strong></td><td><strong>Effect</strong></td><td><strong>Usage</strong></td></tr> <tr><td>Brown</td><td>Flash protection</td><td>1 charge/day</td></tr> <tr><td>Black</td><td>Magnification +2</td><td>1 charge/day</td></tr> <tr><td>White</td><td>Magnification +5</td><td>1 charge/day</td></tr> <tr><td>Gray</td><td>Low-Light Vision</td><td>1 charge/hour</td></tr> <tr><td>Green</td><td>Magnification +10</td><td>1 charge/day</td></tr> <tr><td>Red</td><td>Darkvision</td><td>1 charge/hour</td></tr> <tr><td>Blue</td><td>All-around vision</td><td>1 charge/hour</td></tr> <tr><td>Orange</td><td>See in darkness</td><td>1 charge /hour</td></tr> <tr><td>Prismatic</td><td>X-ray vision</td><td>1 charge/round</td></tr></tbody></table><h2>Construction</h2><p><strong>Craft</strong> DC 35 (prismatic); <strong>Cost</strong> 25,000 gp (prismatic)</p><p>Craft Technological Item, production lab</p>",
      "unidentified": ""
    },
    "tags": [],
    "quantity": 1,
    "weight": {
      "value": 0
    },
    "price": 50000,
    "size": "med",
    "equipped": true,
    "resizing": false,
    "identified": true,
    "hp": {
      "max": 10,
      "value": 10
    },
    "broken": false,
    "hardness": 0,
    "carried": true,
    "unidentified": {
      "price": 0,
      "name": ""
    },
    "cl": 0,
    "aura": {
      "custom": false,
      "school": ""
    },
    "changes": [],
    "changeFlags": {
      "loseDexToAC": false,
      "noEncumbrance": false,
      "mediumArmorFullSpeed": false,
      "heavyArmorFullSpeed": false
    },
    "contextNotes": [],
    "actions": [],
    "uses": {
      "per": null,
      "value": 0,
      "maxFormula": "",
      "autoDeductChargesCost": "1",
      "max": 0
    },
    "attackNotes": [],
    "effectNotes": [],
    "links": {
      "children": [],
      "charges": []
    },
    "tag": "",
    "useCustomTag": false,
    "flags": {
      "boolean": {},
      "dictionary": {}
    },
    "scriptCalls": [],
    "masterwork": false,
    "enh": null,
    "proficient": true,
    "held": "normal",
    "subType": "other",
    "baseTypes": [],
    "equipmentSubtype": "lightArmor",
    "armor": {
      "value": 0,
      "dex": null,
      "acp": 0,
      "enh": 0
    },
    "spellFailure": 0,
    "slot": "other",
    "showInQuickbar": false
  },
  "ownership": {
    "default": 0
  },
  "_stats": {
    "systemId": "pf1",
    "systemVersion": "9.2",
    "coreVersion": "11.306",
    "createdTime": 1665428387906,
    "modifiedTime": 1690285082846,
    "lastModifiedBy": "PIulO4wVa7BrTZWn"
  },
  "effects": [],
  "folder": "InUvu8pSIVYU8kHo",
  "sort": 150000,
  "flags": {},
  "_key": "!items!s7otjXVeYmKuS1ra"
}