{
  "_id": "yRZW2WD5z0qS5dxc",
  "name": "Brain Drain",
  "type": "feat",
  "flags": {},
  "img": "systems/pf1/icons/skills/yellow_36.jpg",
  "effects": [],
  "folder": null,
  "sort": 0,
  "system": {
    "description": {
      "value": "When a brain mole maintains a grapple against a creature to which it is attached, it automatically deals an amount of damage equal to its bite damage. Whenever a brain mole successfully deals damage to a creature to which it is attached, it drains some of that creature's mental energy. If the creature is a spellcaster, the spellcaster loses a single spell he has prepared, or a single unused spell slot if he is a spontaneous spellcaster. The creature chooses which spell or spell slot is lost, but can't lose a 0-level spell in this way. If the creature is not a spellcaster or has no prepared spells or unused spell slots of 1st-level or higher, this ability instead deals 1 point of Intelligence, Wisdom, and Charisma damage. Either way, the brain mole gains 1 point each of psychic energy each time it uses this ability as long as it drains at least one spell or deals at least 1 point of ability damage.",
      "unidentified": ""
    },
    "tags": [],
    "actions": [],
    "uses": {
      "per": null,
      "value": 0,
      "maxFormula": "",
      "autoDeductChargesCost": "1",
      "max": 0
    },
    "attackNotes": [],
    "effectNotes": [],
    "changes": [],
    "changeFlags": {
      "loseDexToAC": false,
      "noEncumbrance": false,
      "mediumArmorFullSpeed": false,
      "heavyArmorFullSpeed": false
    },
    "contextNotes": [],
    "links": {
      "children": [],
      "charges": []
    },
    "tag": "brainDrain",
    "useCustomTag": false,
    "armorProf": {
      "value": [],
      "custom": ""
    },
    "weaponProf": {
      "value": [],
      "custom": ""
    },
    "languages": {
      "value": [],
      "custom": ""
    },
    "flags": {
      "boolean": {},
      "dictionary": {}
    },
    "scriptCalls": [],
    "subType": "classFeat",
    "associations": {
      "classes": []
    },
    "showInQuickbar": false,
    "abilityType": "su",
    "crOffset": "",
    "disabled": false,
    "classSkills": {},
    "nonlethal": false,
    "duration": {
      "value": null,
      "units": ""
    },
    "target": {
      "value": ""
    },
    "attackName": "",
    "actionType": null,
    "attackBonus": "",
    "critConfirmBonus": "",
    "damage": {
      "parts": [],
      "critParts": [],
      "nonCritParts": []
    },
    "attackParts": [],
    "formulaicAttacks": {
      "count": {
        "formula": "",
        "value": null
      },
      "bonus": {
        "formula": ""
      },
      "label": null
    },
    "formula": "",
    "ability": {
      "attack": null,
      "damage": null,
      "damageMult": 1,
      "critRange": 20,
      "critMult": 2
    },
    "save": {
      "dc": 0,
      "type": "",
      "description": ""
    },
    "soundEffect": "",
    "attack": {
      "parts": []
    }
  },
  "ownership": {
    "default": 0
  },
  "_stats": {
    "systemId": null,
    "systemVersion": null,
    "coreVersion": null,
    "createdTime": null,
    "modifiedTime": null,
    "lastModifiedBy": null
  },
  "_key": "!actors.items!9LdCM92EVUZvIBcJ.yRZW2WD5z0qS5dxc"
}