{
  "_id": "yWJdyMUC5IXLp0Sw",
  "name": "Cat Sith",
  "type": "npc",
  "img": "icons/svg/mystery-man.svg",
  "items": [
    "AjUleVwKSsSaDI4N",
    "Qcl3UWR11PEdMapP",
    "sIGHosCbp2sTcVFC",
    "xQvHdsQqSBBTIytB",
    "6sUzpXQ1bDtIpDry",
    "f5FPqAYWlKj3zCIY",
    "UuiD0gV2kXWmcF9F",
    "cVPCTCuMjBUHMfsT",
    "jvidnqqGvW2EKmIy",
    "ValTY2zxZp78Gwm2",
    "oUBXeA0CdP4hkxyB",
    "4EOTvrlXTkjoRXKi",
    "i9bi1J3EF3IZo542",
    "v2GDidAnprxvs8VU"
  ],
  "system": {
    "abilities": {
      "str": {
        "value": 8,
        "damage": 0,
        "drain": 0,
        "userPenalty": 0,
        "carryBonus": 0,
        "carryMultiplier": 1,
        "total": 8,
        "mod": -1,
        "checkMod": 0,
        "penalty": 0,
        "base": 10,
        "baseMod": 0
      },
      "dex": {
        "value": 16,
        "damage": 0,
        "drain": 0,
        "userPenalty": 0,
        "total": 16,
        "mod": 3,
        "checkMod": 0,
        "penalty": 0,
        "base": 10,
        "baseMod": 0
      },
      "con": {
        "value": 12,
        "damage": 0,
        "drain": 0,
        "userPenalty": 0,
        "total": 12,
        "mod": 1,
        "checkMod": 0,
        "penalty": 0,
        "base": 10,
        "baseMod": 0
      },
      "int": {
        "value": 11,
        "damage": 0,
        "drain": 0,
        "userPenalty": 0,
        "total": 11,
        "mod": 0,
        "checkMod": 0,
        "penalty": 0,
        "base": 10,
        "baseMod": 0
      },
      "wis": {
        "value": 13,
        "damage": 0,
        "drain": 0,
        "userPenalty": 0,
        "total": 13,
        "mod": 1,
        "checkMod": 0,
        "penalty": 0,
        "base": 10,
        "baseMod": 0
      },
      "cha": {
        "value": 15,
        "damage": 0,
        "drain": 0,
        "userPenalty": 0,
        "total": 15,
        "mod": 2,
        "checkMod": 0,
        "penalty": 0,
        "base": 10,
        "baseMod": 0
      }
    },
    "attributes": {
      "hpAbility": "con",
      "cmbAbility": "str",
      "naturalAC": 0,
      "ac": {
        "normal": {
          "ability": "dex",
          "value": 0
        },
        "touch": {
          "ability": "dex",
          "value": 0
        },
        "flatFooted": {
          "value": 0
        }
      },
      "cmd": {
        "strAbility": "str",
        "dexAbility": "dex",
        "value": 0
      },
      "sr": {
        "formula": ""
      },
      "clCheck": false,
      "saveNotes": "",
      "acNotes": "",
      "cmdNotes": "",
      "srNotes": "",
      "attack": {
        "meleeAbility": "str",
        "rangedAbility": "dex",
        "general": 0,
        "shared": 0,
        "melee": 0,
        "ranged": 0
      },
      "energyDrain": 0,
      "quadruped": false,
      "savingThrows": {
        "fort": {
          "base": 0,
          "ability": "con",
          "total": 0
        },
        "ref": {
          "base": 0,
          "ability": "dex",
          "total": 0
        },
        "will": {
          "base": 0,
          "ability": "wis",
          "total": 0
        }
      },
      "hp": {
        "value": 19,
        "base": 0,
        "temp": 0,
        "nonlethal": 0,
        "max": 0,
        "offset": 0
      },
      "wounds": {
        "min": 0,
        "base": 0,
        "value": 0,
        "max": 10,
        "offset": 0
      },
      "vigor": {
        "min": 0,
        "value": 0,
        "temp": 0,
        "base": 0,
        "max": 0,
        "offset": 0
      },
      "init": {
        "value": 0,
        "ability": "dex",
        "bonus": 0
      },
      "speed": {
        "land": {
          "base": 30
        },
        "climb": {
          "base": 0
        },
        "swim": {
          "base": 0
        },
        "burrow": {
          "base": 0
        },
        "fly": {
          "base": 0,
          "maneuverability": "average"
        }
      },
      "conditions": {
        "bleed": false,
        "blind": false,
        "confused": false,
        "dazed": false,
        "dazzled": false,
        "deaf": false,
        "entangled": false,
        "fatigued": false,
        "frightened": false,
        "exhausted": false,
        "grappled": false,
        "helpless": false,
        "incorporeal": false,
        "invisible": false,
        "nauseated": false,
        "panicked": false,
        "paralyzed": false,
        "pinned": false,
        "prone": false,
        "shaken": false,
        "sickened": false,
        "staggered": false,
        "stunned": false
      },
      "spells": {
        "spellbooks": {
          "primary": {
            "name": "Primary",
            "castPerDayAllOffsetFormula": "",
            "preparedAllOffsetFormula": "",
            "casterType": "high",
            "class": "",
            "cl": {
              "formula": "",
              "base": 0,
              "value": 0,
              "total": 0
            },
            "concentrationFormula": "",
            "concentrationNotes": "",
            "clNotes": "",
            "ability": "int",
            "autoSpellLevelCalculation": true,
            "autoSpellLevels": true,
            "psychic": false,
            "arcaneSpellFailure": true,
            "hasCantrips": true,
            "spellPreparationMode": "spontaneous",
            "baseDCFormula": "10 + @sl + @ablMod",
            "spontaneous": false,
            "spellPoints": {
              "useSystem": false,
              "value": 0,
              "maxFormula": "",
              "restoreFormula": "",
              "max": 0
            },
            "spells": {
              "spell0": {
                "castPerDayOffsetFormula": "",
                "preparedOffsetFormula": "",
                "max": 0,
                "value": 0
              },
              "spell1": {
                "castPerDayOffsetFormula": "",
                "preparedOffsetFormula": "",
                "max": 0,
                "value": 0
              },
              "spell2": {
                "castPerDayOffsetFormula": "",
                "preparedOffsetFormula": "",
                "max": 0,
                "value": 0
              },
              "spell3": {
                "castPerDayOffsetFormula": "",
                "preparedOffsetFormula": "",
                "max": 0,
                "value": 0
              },
              "spell4": {
                "castPerDayOffsetFormula": "",
                "preparedOffsetFormula": "",
                "max": 0,
                "value": 0
              },
              "spell5": {
                "castPerDayOffsetFormula": "",
                "preparedOffsetFormula": "",
                "max": 0,
                "value": 0
              },
              "spell6": {
                "castPerDayOffsetFormula": "",
                "preparedOffsetFormula": "",
                "max": 0,
                "value": 0
              },
              "spell7": {
                "castPerDayOffsetFormula": "",
                "preparedOffsetFormula": "",
                "max": 0,
                "value": 0
              },
              "spell8": {
                "castPerDayOffsetFormula": "",
                "preparedOffsetFormula": "",
                "max": 0,
                "value": 0
              },
              "spell9": {
                "castPerDayOffsetFormula": "",
                "preparedOffsetFormula": "",
                "max": 0,
                "value": 0
              }
            },
            "spellSlotAbilityBonusFormula": "",
            "domainSlotValue": 1,
            "altName": "",
            "range": {
              "close": 25,
              "medium": 100,
              "long": 400
            }
          },
          "secondary": {
            "name": "Secondary",
            "castPerDayAllOffsetFormula": "",
            "preparedAllOffsetFormula": "",
            "casterType": "high",
            "class": "",
            "cl": {
              "formula": "",
              "base": 0,
              "value": 0,
              "total": 0
            },
            "concentrationFormula": "",
            "concentrationNotes": "",
            "clNotes": "",
            "ability": "int",
            "autoSpellLevelCalculation": true,
            "autoSpellLevels": true,
            "psychic": false,
            "arcaneSpellFailure": true,
            "hasCantrips": true,
            "spellPreparationMode": "spontaneous",
            "baseDCFormula": "10 + @sl + @ablMod",
            "spontaneous": false,
            "spellPoints": {
              "useSystem": false,
              "value": 0,
              "maxFormula": "",
              "restoreFormula": "",
              "max": 0
            },
            "spells": {
              "spell0": {
                "castPerDayOffsetFormula": "",
                "preparedOffsetFormula": "",
                "max": 0,
                "value": 0
              },
              "spell1": {
                "castPerDayOffsetFormula": "",
                "preparedOffsetFormula": "",
                "max": 0,
                "value": 0
              },
              "spell2": {
                "castPerDayOffsetFormula": "",
                "preparedOffsetFormula": "",
                "max": 0,
                "value": 0
              },
              "spell3": {
                "castPerDayOffsetFormula": "",
                "preparedOffsetFormula": "",
                "max": 0,
                "value": 0
              },
              "spell4": {
                "castPerDayOffsetFormula": "",
                "preparedOffsetFormula": "",
                "max": 0,
                "value": 0
              },
              "spell5": {
                "castPerDayOffsetFormula": "",
                "preparedOffsetFormula": "",
                "max": 0,
                "value": 0
              },
              "spell6": {
                "castPerDayOffsetFormula": "",
                "preparedOffsetFormula": "",
                "max": 0,
                "value": 0
              },
              "spell7": {
                "castPerDayOffsetFormula": "",
                "preparedOffsetFormula": "",
                "max": 0,
                "value": 0
              },
              "spell8": {
                "castPerDayOffsetFormula": "",
                "preparedOffsetFormula": "",
                "max": 0,
                "value": 0
              },
              "spell9": {
                "castPerDayOffsetFormula": "",
                "preparedOffsetFormula": "",
                "max": 0,
                "value": 0
              }
            },
            "spellSlotAbilityBonusFormula": "",
            "domainSlotValue": 1,
            "altName": "",
            "range": {
              "close": 25,
              "medium": 100,
              "long": 400
            }
          },
          "tertiary": {
            "name": "Tertiary",
            "castPerDayAllOffsetFormula": "",
            "preparedAllOffsetFormula": "",
            "casterType": "high",
            "class": "",
            "cl": {
              "formula": "",
              "base": 0,
              "value": 0,
              "total": 0
            },
            "concentrationFormula": "",
            "concentrationNotes": "",
            "clNotes": "",
            "ability": "int",
            "autoSpellLevelCalculation": true,
            "autoSpellLevels": true,
            "psychic": false,
            "arcaneSpellFailure": true,
            "hasCantrips": true,
            "spellPreparationMode": "spontaneous",
            "baseDCFormula": "10 + @sl + @ablMod",
            "spontaneous": false,
            "spellPoints": {
              "useSystem": false,
              "value": 0,
              "maxFormula": "",
              "restoreFormula": "",
              "max": 0
            },
            "spells": {
              "spell0": {
                "castPerDayOffsetFormula": "",
                "preparedOffsetFormula": "",
                "max": 0,
                "value": 0
              },
              "spell1": {
                "castPerDayOffsetFormula": "",
                "preparedOffsetFormula": "",
                "max": 0,
                "value": 0
              },
              "spell2": {
                "castPerDayOffsetFormula": "",
                "preparedOffsetFormula": "",
                "max": 0,
                "value": 0
              },
              "spell3": {
                "castPerDayOffsetFormula": "",
                "preparedOffsetFormula": "",
                "max": 0,
                "value": 0
              },
              "spell4": {
                "castPerDayOffsetFormula": "",
                "preparedOffsetFormula": "",
                "max": 0,
                "value": 0
              },
              "spell5": {
                "castPerDayOffsetFormula": "",
                "preparedOffsetFormula": "",
                "max": 0,
                "value": 0
              },
              "spell6": {
                "castPerDayOffsetFormula": "",
                "preparedOffsetFormula": "",
                "max": 0,
                "value": 0
              },
              "spell7": {
                "castPerDayOffsetFormula": "",
                "preparedOffsetFormula": "",
                "max": 0,
                "value": 0
              },
              "spell8": {
                "castPerDayOffsetFormula": "",
                "preparedOffsetFormula": "",
                "max": 0,
                "value": 0
              },
              "spell9": {
                "castPerDayOffsetFormula": "",
                "preparedOffsetFormula": "",
                "max": 0,
                "value": 0
              }
            },
            "spellSlotAbilityBonusFormula": "",
            "domainSlotValue": 1,
            "altName": "",
            "range": {
              "close": 25,
              "medium": 100,
              "long": 400
            }
          },
          "spelllike": {
            "name": "Spell-likes",
            "castPerDayAllOffsetFormula": "",
            "preparedAllOffsetFormula": "",
            "casterType": "high",
            "class": "_hd",
            "cl": {
              "formula": "",
              "base": 0,
              "value": 0,
              "total": 0
            },
            "concentrationFormula": "",
            "concentrationNotes": "",
            "clNotes": "",
            "ability": "cha",
            "autoSpellLevelCalculation": true,
            "autoSpellLevels": true,
            "psychic": false,
            "arcaneSpellFailure": true,
            "hasCantrips": true,
            "spellPreparationMode": "spontaneous",
            "baseDCFormula": "10 + @sl + @ablMod",
            "spontaneous": false,
            "spellPoints": {
              "useSystem": false,
              "value": 0,
              "maxFormula": "",
              "restoreFormula": "",
              "max": 0
            },
            "spells": {
              "spell0": {
                "castPerDayOffsetFormula": "",
                "preparedOffsetFormula": "",
                "max": 0,
                "value": 0
              },
              "spell1": {
                "castPerDayOffsetFormula": "",
                "preparedOffsetFormula": "",
                "max": 0,
                "value": 0
              },
              "spell2": {
                "castPerDayOffsetFormula": "",
                "preparedOffsetFormula": "",
                "max": 0,
                "value": 0
              },
              "spell3": {
                "castPerDayOffsetFormula": "",
                "preparedOffsetFormula": "",
                "max": 0,
                "value": 0
              },
              "spell4": {
                "castPerDayOffsetFormula": "",
                "preparedOffsetFormula": "",
                "max": 0,
                "value": 0
              },
              "spell5": {
                "castPerDayOffsetFormula": "",
                "preparedOffsetFormula": "",
                "max": 0,
                "value": 0
              },
              "spell6": {
                "castPerDayOffsetFormula": "",
                "preparedOffsetFormula": "",
                "max": 0,
                "value": 0
              },
              "spell7": {
                "castPerDayOffsetFormula": "",
                "preparedOffsetFormula": "",
                "max": 0,
                "value": 0
              },
              "spell8": {
                "castPerDayOffsetFormula": "",
                "preparedOffsetFormula": "",
                "max": 0,
                "value": 0
              },
              "spell9": {
                "castPerDayOffsetFormula": "",
                "preparedOffsetFormula": "",
                "max": 0,
                "value": 0
              }
            },
            "spellSlotAbilityBonusFormula": "",
            "domainSlotValue": 1,
            "altName": "",
            "range": {
              "close": 25,
              "medium": 100,
              "long": 400
            }
          }
        }
      },
      "encumbrance": {
        "levels": {}
      },
      "hd": {
        "total": 0,
        "max": {
          "_deprecated": true,
          "value": 0
        }
      },
      "bab": {
        "value": 0,
        "total": 3
      },
      "cmb": {
        "value": 0
      },
      "damage": {
        "general": 0,
        "weapon": 0,
        "spell": 0,
        "shared": 0
      },
      "maxDexBonus": null,
      "mDex": {
        "armorBonus": 0,
        "shieldBonus": 0
      },
      "acp": {
        "gear": 0,
        "encumbrance": 0,
        "total": 0,
        "armorBonus": 0,
        "shieldBonus": 0,
        "attackPenalty": 0
      },
      "woundThresholds": {
        "penalty": 0,
        "mod": 0,
        "level": 0,
        "override": -1,
        "penaltyBase": 0
      },
      "prof": 2,
      "spellcasting": {
        "_deprecated": true
      },
      "spelldc": {
        "_deprecated": true
      },
      "spellLevel": 0,
      "mods": {
        "skills": {}
      }
    },
    "details": {
      "level": {
        "value": 0,
        "min": 0,
        "max": 40
      },
      "bonusFeatFormula": "",
      "alignment": "cn",
      "biography": {
        "value": "",
        "public": ""
      },
      "notes": {
        "value": "\n        <div class=\"statblockContainer\" style=\"margin-top: 15px\"><div style=\"width: 100%; background-color: #ffe9c7; box-shadow: 0 4px 8px 0 rgba(0, 0, 0, 0.2), 0 6px 20px 0 rgba(0, 0, 0, 0.19); columns: 2 150px\">\r\n    <hr style=\"margin-left: 0; margin-top:-2px; width: 100%; height: 4px; background-color: #e0a100; border: 1px solid #000; column-span: all;\" />\r\n    <div style=\"padding: 5px;\">\r\n        <h1 style=\"border: none; font-family: 'Nodesto', 'Signika', 'Palatino Linotype', serif; color: #7a0800;\">Cat Sith CR 2 </h1>\r\n        \r\n        <!-- BASE -->\r\n        <hr style=\"margin-left: 0; width: 275px; height: 0; border-style: solid; border-width: 2px 0 2px 275px; border-color: transparent transparent transparent #7a0800;\" />\r\n        <div style=\"break-inside: avoid;\">\r\n            <strong>Source: </strong>Familiar Folio pg. 28<br/>\r\n            <strong>XP 600</strong><br/>\r\n            \r\n            \r\n            \r\n            \r\n            \r\n            CN \r\n            Tiny \r\n            Magical Beast <br/>\r\n            <strong>Init</strong> 3;\r\n            <strong>Senses</strong> darkvision 60 ft., low-light vision, see invisibility; Perception +6; \r\n            \r\n        </div>\r\n        <div style=\"break-inside: avoid;\">\r\n            <h4 style=\"border: none; text-transform: uppercase; color: #7a0800; padding-top:6px;\">Defense</h4>\r\n            <hr style=\"margin-left: 0; width: 275px; height: 0; border-style: solid; border-width: 2px 0 2px 275px; border-color: transparent transparent transparent #7a0800;\" />\r\n            <strong>AC</strong> 15, <strong>Touch</strong> 15, <strong>Flat-Footed</strong> 12 (+3 Dex, +2 size)<br/>\r\n            <strong>Hit Points</strong> 19 (3 HD; 3d10+3)<br/>\r\n            <strong>Fort</strong> 4, <strong>Ref</strong> 6, <strong>Will</strong> 2\r\n            \r\n            \r\n            \r\n            \r\n            \r\n            \r\n            \r\n        </div>\r\n        <div>\r\n            <div style=\"break-inside: avoid;\">\r\n                <h4 style=\"border: none; text-transform: uppercase; color: #7a0800; padding-top:6px;\">Offense</h4>\r\n                <hr style=\"margin-left: 0; width: 275px; height: 0; border-style: solid; border-width: 2px 0 2px 275px; border-color: transparent transparent transparent #7a0800;\" />\r\n                <strong>Speed</strong> 30 ft.<br/>\r\n                <strong>Melee</strong> 2 claws +4 (1d2-1 plus no luck), bite +4 (1d3-1)<br/>\r\n                \r\n                \r\n                \r\n                \r\n            </div>\r\n        </div>\r\n        <!-- SPELLCASTING -->\r\n                \r\n        <!-- TACTICS -->\r\n                \r\n                \r\n                \r\n                \r\n        <!-- STATISTICS -->\r\n        <div style=\"break-inside: avoid;\">\r\n            <h4 style=\"border: none; text-transform: uppercase; color: #7a0800; padding-top:6px;\">Statistics</h4>\r\n            <hr style=\"margin-left: 0; width: 275px; height: 0; border-style: solid; border-width: 2px 0 2px 275px; border-color: transparent transparent transparent #7a0800;\" />\r\n            <strong>Str</strong> 8, <strong>Dex</strong> 16, <strong>Con</strong> 12, <strong>Int</strong> 11, <strong>Wis</strong> 13, <strong>Cha</strong> 15<br/>\r\n            <strong>Base Atk</strong> +3; <strong>CMB</strong> +4; <strong>CMD</strong> 13<br/>\r\n            <strong>Feats</strong> Ability Focus (false curse), Stealthy<br/>\r\n            <strong>Skills</strong> Bluff +4, Escape Artist +5, Perception +6, Stealth +18<br/>\r\n            <strong>Languages</strong> Common, speak with animals<br/>\r\n            \r\n            \r\n            \r\n            \r\n        </div>\r\n        <!-- ECOLOGY -->\r\n            <div style='break-inside: avoid;'>\r\n                <h4 style='border: none; text-transform: uppercase; color: #7a0800; padding-top:6px;'>Ecology</h4><hr style='margin-left: 0; width: 275px; height: 0; border-style: solid; border-width: 2px 0 2px 275px; border-color: transparent transparent transparent #7a0800;' />\r\n                <strong>Environment:</strong>  temperate hills<br/>\r\n                <strong>Organization:</strong>  solitary, pair, or band (3-7)<br/>\r\n                <strong>Treasure:</strong>  standard<br/>\r\n            </div>\r\n        <!-- SPECIAL ABILITIES -->\r\n            <div style='break-inside: avoid;'>\r\n                <h4 style='border: none; text-transform: uppercase; color: #7a0800; padding-top:6px;'>Special Abilities</h4><hr style='margin-left: 0; width: 275px; height: 0; border-style: solid; border-width: 2px 0 2px 275px; border-color: transparent transparent transparent #7a0800;' />\r\n                <div style='white-space: pre-wrap;'>False Curse (su): Once per day, a cat sith can fool a creature into believing it has been cursed by the cat sith&#x27;s black magic. The target must be within 60 feet and must be able to see the cat sith to be affected by the false curse (Will DC 15 negates). An affected creature takes a -4 penalty on attack rolls, saving throws, ability checks, and skill checks, as if affected by bestow curse. Because this effect is not a true curse, the target gains a new saving throw to end the effect at the beginning of each day. This is a language-dependent, mind-affecting effect that can be affected by remove curse. The save DC is Charisma-based.\n\nNo Luck (su): A creature hit by a cat sith&#x27;s claws must succeed at a DC 13 Will save or be stricken with lucklessness. For 1d4 rounds, the affected creature can&#x27;t benefit from any luck bonuses. The save DC is Charisma-based.</div>\r\n            </div>\r\n        \r\n        <!-- DESCRIPTION -->\r\n            <div style='break-inside: avoid;'>\r\n                <h4 style='border: none; text-transform: uppercase; color: #7a0800; padding-top:6px;'>Description</h4><hr style='margin-left: 0; width: 275px; height: 0; border-style: solid; border-width: 2px 0 2px 275px; border-color: transparent transparent transparent #7a0800;' />\r\n        <div style=\"white-space: pre-wrap\">Cat siths are inscrutable feline creatures that inhabit highlands around towns and cities. They resemble common housecats at a glance, but cat siths are supernatural beings that have the cunning of civilized races and strange magical powers rivaling those of fey. They&#x27;re capable of easily walking balanced on just their hind legs and wearing magic boots. They can carry one object in their front paws when walking bipedally, though they can&#x27;t manipulate such objects with the fine control required to use weapons, wands, and similar objects.\n\nUnpredictable yet sophisticated, these strange beings use their unassuming appearances to infiltrate civilized areas, either serving as spies for powerful spellcasters or entertaining their own unknowable agendas.\n\nMany cultures fear cat siths and tell myths about their otherworldly powers. Some say that letting a cat sith near an unburied corpse may allow the beast to steal the departed&#x27;s soul before it has made it to the Great Beyond.\n\nA 7th-level spellcaster with the Improved Familiar feat can gain a cat sith as a familiar. Cat siths are heavier than most housecats, weighing between 25 and 30 pounds. A cat sith is nearly 2 feet long from its nose to the base of its tail.\n</div>\r\n                    \r\n    </div>\r\n    <hr style=\"margin-left: 0; margin-bottom: -3px; width: 100%; height: 4px; background-color: #e0a100; border: 1px solid #000; column-span: all;\" />\r\n</div></div>\n    \n        <br>\n        <hr>\n        <div class=\"rawInputContainer\" style=\"margin-top: 15px;\">\n            <h2 style=\"text-align:middle; border: none; text-transform: uppercase; color: #000;\">RAW INPUT</h2>\n            <hr>\n            <pre style=\"white-space: pre-wrap; font-size: 10px;\">Cat Sith CR 2\nSource Familiar Folio pg. 28\nXP 600\nCN Tiny magical beast\nInit +3; Senses darkvision 60 ft., low-light vision, see invisibility; Perception +6\nDefense\nAC 15, touch 15, flat-footed 12 (+3 Dex, +2 size)\nhp 19 (3d10+3)\nFort +4, Ref +6, Will +2\nOffense\nSpeed 30 ft.\nMelee 2 claws +4 (1d2-1 plus no luck), bite +4 (1d3-1)\nSpace 2-1/2 ft., Reach 0 ft.\nSpecial Attacks false curse (DC 15)\nSpell-Like Abilities (CL 3rd; concentration +5)\nConstant-see invisibility\n3/day-ghost sound, hypnotism, magic aura\n1/week-rest eternalAPG\nStatistics\nStr 8, Dex 16, Con 12, Int 11, Wis 13, Cha 15\nBase Atk +3; CMB +4; CMD 13\nFeats Ability Focus (false curse), Stealthy\nSkills Bluff +4, Escape Artist +5, Perception +6, Stealth +18\nLanguages Common; speak with animals\nEcology\nEnvironment temperate hills\nOrganization solitary, pair, or band (3-7)\nTreasure standard\nSpecial Abilities\nFalse Curse (Su) Once per day, a cat sith can fool a creature into believing it has been cursed by the cat sith's black magic. The target must be within 60 feet and must be able to see the cat sith to be affected by the false curse (Will DC 15 negates). An affected creature takes a -4 penalty on attack rolls, saving throws, ability checks, and skill checks, as if affected by bestow curse. Because this effect is not a true curse, the target gains a new saving throw to end the effect at the beginning of each day. This is a language-dependent, mind-affecting effect that can be affected by remove curse. The save DC is Charisma-based.\n\nNo Luck (Su) A creature hit by a cat sith's claws must succeed at a DC 13 Will save or be stricken with lucklessness. For 1d4 rounds, the affected creature can't benefit from any luck bonuses. The save DC is Charisma-based.\nDescription\nCat siths are inscrutable feline creatures that inhabit highlands around towns and cities. They resemble common housecats at a glance, but cat siths are supernatural beings that have the cunning of civilized races and strange magical powers rivaling those of fey. They're capable of easily walking balanced on just their hind legs and wearing magic boots. They can carry one object in their front paws when walking bipedally, though they can't manipulate such objects with the fine control required to use weapons, wands, and similar objects.\n\nUnpredictable yet sophisticated, these strange beings use their unassuming appearances to infiltrate civilized areas, either serving as spies for powerful spellcasters or entertaining their own unknowable agendas.\n\nMany cultures fear cat siths and tell myths about their otherworldly powers. Some say that letting a cat sith near an unburied corpse may allow the beast to steal the departed's soul before it has made it to the Great Beyond.\n\nA 7th-level spellcaster with the Improved Familiar feat can gain a cat sith as a familiar. Cat siths are heavier than most housecats, weighing between 25 and 30 pounds. A cat sith is nearly 2 feet long from its nose to the base of its tail.</pre>\n        </div>\n    ",
        "public": ""
      },
      "bonusSkillRankFormula": "",
      "tooltip": {
        "name": "",
        "hideHeld": false,
        "hideArmor": false,
        "hideBuffs": false,
        "hideConditions": false,
        "hideClothing": false,
        "hideName": false
      },
      "carryCapacity": {
        "bonus": {
          "user": 0
        },
        "multiplier": {
          "base": 1,
          "user": 0
        }
      },
      "cr": {
        "base": 2
      },
      "mythicTier": 0,
      "type": "",
      "environment": "",
      "xp": {
        "value": 400
      }
    },
    "skills": {
      "acr": {
        "ability": "dex",
        "rt": false,
        "acp": true,
        "rank": 0,
        "value": 0,
        "mod": 0,
        "background": false,
        "cs": false
      },
      "apr": {
        "ability": "int",
        "rt": false,
        "acp": false,
        "rank": 0,
        "value": 0,
        "mod": 0,
        "background": true,
        "cs": false
      },
      "art": {
        "ability": "int",
        "rt": false,
        "acp": false,
        "rank": 0,
        "value": 0,
        "mod": 0,
        "background": true,
        "cs": false,
        "subSkills": {}
      },
      "blf": {
        "ability": "cha",
        "rt": false,
        "acp": false,
        "rank": 2,
        "value": 0,
        "mod": 0,
        "background": false,
        "cs": false
      },
      "clm": {
        "ability": "str",
        "rt": false,
        "acp": true,
        "rank": 0,
        "value": 0,
        "mod": 0,
        "background": false,
        "cs": false
      },
      "crf": {
        "ability": "int",
        "rt": false,
        "acp": false,
        "rank": 0,
        "value": 0,
        "mod": 0,
        "background": true,
        "cs": false,
        "subSkills": {}
      },
      "dip": {
        "ability": "cha",
        "rt": false,
        "acp": false,
        "rank": 0,
        "value": 0,
        "mod": 0,
        "background": false,
        "cs": false
      },
      "dev": {
        "ability": "dex",
        "rt": true,
        "acp": true,
        "rank": 0,
        "value": 0,
        "mod": 0,
        "background": false,
        "cs": false
      },
      "dis": {
        "ability": "cha",
        "rt": false,
        "acp": false,
        "rank": 0,
        "value": 0,
        "mod": 0,
        "background": false,
        "cs": false
      },
      "esc": {
        "ability": "dex",
        "rt": false,
        "acp": true,
        "rank": 2,
        "value": 0,
        "mod": 0,
        "background": false,
        "cs": false
      },
      "fly": {
        "ability": "dex",
        "rt": false,
        "acp": true,
        "rank": 0,
        "value": 0,
        "mod": 0,
        "background": false,
        "cs": false
      },
      "han": {
        "ability": "cha",
        "rt": true,
        "acp": false,
        "rank": 0,
        "value": 0,
        "mod": 0,
        "background": true,
        "cs": false
      },
      "hea": {
        "ability": "wis",
        "rt": false,
        "acp": false,
        "rank": 0,
        "value": 0,
        "mod": 0,
        "background": false,
        "cs": false
      },
      "int": {
        "ability": "cha",
        "rt": false,
        "acp": false,
        "rank": 0,
        "value": 0,
        "mod": 0,
        "background": false,
        "cs": false
      },
      "kar": {
        "ability": "int",
        "rt": true,
        "acp": false,
        "rank": 0,
        "value": 0,
        "mod": 0,
        "background": false,
        "cs": false
      },
      "kdu": {
        "ability": "int",
        "rt": true,
        "acp": false,
        "rank": 0,
        "value": 0,
        "mod": 0,
        "background": false,
        "cs": false
      },
      "ken": {
        "ability": "int",
        "rt": true,
        "acp": false,
        "rank": 0,
        "value": 0,
        "mod": 0,
        "background": true,
        "cs": false
      },
      "kge": {
        "ability": "int",
        "rt": true,
        "acp": false,
        "rank": 0,
        "value": 0,
        "mod": 0,
        "background": true,
        "cs": false
      },
      "khi": {
        "ability": "int",
        "rt": true,
        "acp": false,
        "rank": 0,
        "value": 0,
        "mod": 0,
        "background": true,
        "cs": false
      },
      "klo": {
        "ability": "int",
        "rt": true,
        "acp": false,
        "rank": 0,
        "value": 0,
        "mod": 0,
        "background": false,
        "cs": false
      },
      "kna": {
        "ability": "int",
        "rt": true,
        "acp": false,
        "rank": 0,
        "value": 0,
        "mod": 0,
        "background": false,
        "cs": false
      },
      "kno": {
        "ability": "int",
        "rt": true,
        "acp": false,
        "rank": 0,
        "value": 0,
        "mod": 0,
        "background": true,
        "cs": false
      },
      "kpl": {
        "ability": "int",
        "rt": true,
        "acp": false,
        "rank": 0,
        "value": 0,
        "mod": 0,
        "background": false,
        "cs": false
      },
      "kre": {
        "ability": "int",
        "rt": true,
        "acp": false,
        "rank": 0,
        "value": 0,
        "mod": 0,
        "background": false,
        "cs": false
      },
      "lin": {
        "ability": "int",
        "rt": true,
        "acp": false,
        "rank": 0,
        "value": 0,
        "mod": 0,
        "background": true,
        "cs": false
      },
      "lor": {
        "ability": "int",
        "rt": true,
        "acp": false,
        "rank": 0,
        "value": 0,
        "mod": 0,
        "background": true,
        "cs": false,
        "subSkills": {}
      },
      "per": {
        "ability": "wis",
        "rt": false,
        "acp": false,
        "rank": 2,
        "value": 0,
        "mod": 0,
        "background": false,
        "cs": false
      },
      "prf": {
        "ability": "cha",
        "rt": false,
        "acp": false,
        "rank": 0,
        "value": 0,
        "mod": 0,
        "background": true,
        "cs": false,
        "subSkills": {}
      },
      "pro": {
        "ability": "wis",
        "rt": true,
        "acp": false,
        "rank": 0,
        "value": 0,
        "mod": 0,
        "background": true,
        "cs": false,
        "subSkills": {}
      },
      "rid": {
        "ability": "dex",
        "rt": false,
        "acp": true,
        "rank": 0,
        "value": 0,
        "mod": 0,
        "background": false,
        "cs": false
      },
      "sen": {
        "ability": "wis",
        "rt": false,
        "acp": false,
        "rank": 0,
        "value": 0,
        "mod": 0,
        "background": false,
        "cs": false
      },
      "slt": {
        "ability": "dex",
        "rt": true,
        "acp": true,
        "rank": 0,
        "value": 0,
        "mod": 0,
        "background": true,
        "cs": false
      },
      "spl": {
        "ability": "int",
        "rt": true,
        "acp": false,
        "rank": 0,
        "value": 0,
        "mod": 0,
        "background": false,
        "cs": false
      },
      "ste": {
        "ability": "dex",
        "rt": false,
        "acp": true,
        "rank": 4,
        "value": 0,
        "mod": 0,
        "background": false,
        "cs": false
      },
      "sur": {
        "ability": "wis",
        "rt": false,
        "acp": false,
        "rank": 0,
        "value": 0,
        "mod": 0,
        "background": false,
        "cs": false
      },
      "swm": {
        "ability": "str",
        "rt": false,
        "acp": true,
        "rank": 0,
        "value": 0,
        "mod": 0,
        "background": false,
        "cs": false
      },
      "umd": {
        "ability": "cha",
        "rt": true,
        "acp": false,
        "rank": 0,
        "value": 0,
        "mod": 0,
        "background": false,
        "cs": false
      }
    },
    "traits": {
      "size": "tiny",
      "senses": {
        "dv": 60,
        "ts": 0,
        "bs": 0,
        "bse": 0,
        "ll": {
          "enabled": false,
          "multiplier": {
            "dim": 2,
            "bright": 2
          }
        },
        "sid": false,
        "tr": false,
        "si": false,
        "sc": 0,
        "custom": "darkvision 60 ft., low-light vision, see invisibility; Perception +6"
      },
      "dr": {
        "value": [],
        "custom": ""
      },
      "eres": {
        "value": [],
        "custom": ""
      },
      "cres": "",
      "regen": "",
      "fastHealing": "",
      "languages": {
        "value": [
          "common"
        ],
        "custom": " speak with animals"
      },
      "di": {
        "value": [],
        "custom": ""
      },
      "dv": {
        "value": [],
        "custom": ""
      },
      "ci": {
        "value": [],
        "custom": ""
      },
      "stature": "tall",
      "perception": {
        "_deprecated": true
      }
    },
    "currency": {
      "pp": 0,
      "gp": 0,
      "sp": 0,
      "cp": 0
    },
    "altCurrency": {
      "pp": 0,
      "gp": 0,
      "sp": 0,
      "cp": 0
    },
    "combat": {
      "round": 0
    }
  },
  "prototypeToken": {
    "flags": {
      "pf1": {}
    },
    "name": "Cat Sith",
    "displayName": 20,
    "width": 1,
    "height": 1,
    "lockRotation": false,
    "rotation": 0,
    "actorLink": false,
    "disposition": -1,
    "displayBars": 20,
    "bar1": {
      "attribute": null
    },
    "bar2": {
      "attribute": null
    },
    "randomImg": false,
    "alpha": 1,
    "light": {
      "alpha": 1,
      "angle": 360,
      "bright": 0,
      "coloration": 1,
      "dim": 0,
      "luminosity": 0.5,
      "saturation": 0,
      "contrast": 0,
      "shadows": 0,
      "animation": {
        "speed": 5,
        "intensity": 5,
        "type": null,
        "reverse": false
      },
      "darkness": {
        "min": 0,
        "max": 1
      },
      "attenuation": 0.5,
      "color": null
    },
    "texture": {
      "src": "icons/svg/mystery-man.svg",
      "tint": null,
      "scaleX": 0.6,
      "scaleY": 0.6,
      "offsetX": 0,
      "offsetY": 0,
      "rotation": 0
    },
    "sight": {
      "angle": 360,
      "enabled": false,
      "range": 60,
      "brightness": 1,
      "visionMode": "basic",
      "color": null,
      "attenuation": 0.1,
      "saturation": 0,
      "contrast": 0
    },
    "detectionModes": []
  },
  "ownership": {
    "default": 0
  },
  "_stats": {
    "systemId": "pf1",
    "systemVersion": "9.1",
    "coreVersion": "10.291",
    "createdTime": 1665428323727,
    "modifiedTime": 1689796098406,
    "lastModifiedBy": "ppv91YxratjWnkJi"
  },
  "effects": [],
  "folder": null,
  "sort": 0,
  "flags": {},
  "_key": "!actors!yWJdyMUC5IXLp0Sw"
}