{
  "_id": "cfheGDU5aDWv9VGc",
  "name": "Chuspiki",
  "type": "npc",
  "img": "icons/svg/mystery-man.svg",
  "items": [
    "AjUleVwKSsSaDI4N",
    "GlnMf900FWwTZmm9",
    "iMKIeCxq4orVIVkT",
    "A02JtA767sUklMLp",
    "bsfenxtwDWVgj8C0",
    "8rsFtye3PwM6CKli",
    "53urYIbYYpQuoSLd",
    "vWiTqHC4Y3Xn1Pme",
    "ykWsMGn9RieEJF9H",
    "BCFWkwUIIc0Kiek4",
    "57nbdxXAE1KI8bUX",
    "yL8C7MXqyNz5lerX",
    "eZze09z5Y4tRQplI",
    "FIznrcInsQc5iVMt",
    "qquT1UzQg7pq0khw",
    "cMZ38nEu0FBcI6x7",
    "vm2qAMmUWoUHKG2L",
    "DWgWgdAMfcoCJjdz",
    "rl77qsL2gaVkjTH6"
  ],
  "system": {
    "abilities": {
      "str": {
        "value": 6,
        "damage": 0,
        "drain": 0,
        "userPenalty": 0,
        "carryBonus": 0,
        "carryMultiplier": 1,
        "total": 6,
        "mod": -2,
        "checkMod": 0,
        "penalty": 0,
        "base": 10,
        "baseMod": 0
      },
      "dex": {
        "value": 17,
        "damage": 0,
        "drain": 0,
        "userPenalty": 0,
        "total": 17,
        "mod": 3,
        "checkMod": 0,
        "penalty": 0,
        "base": 10,
        "baseMod": 0
      },
      "con": {
        "value": 12,
        "damage": 0,
        "drain": 0,
        "userPenalty": 0,
        "total": 12,
        "mod": 1,
        "checkMod": 0,
        "penalty": 0,
        "base": 10,
        "baseMod": 0
      },
      "int": {
        "value": 12,
        "damage": 0,
        "drain": 0,
        "userPenalty": 0,
        "total": 12,
        "mod": 1,
        "checkMod": 0,
        "penalty": 0,
        "base": 10,
        "baseMod": 0
      },
      "wis": {
        "value": 9,
        "damage": 0,
        "drain": 0,
        "userPenalty": 0,
        "total": 9,
        "mod": -1,
        "checkMod": 0,
        "penalty": 0,
        "base": 10,
        "baseMod": 0
      },
      "cha": {
        "value": 13,
        "damage": 0,
        "drain": 0,
        "userPenalty": 0,
        "total": 13,
        "mod": 1,
        "checkMod": 0,
        "penalty": 0,
        "base": 10,
        "baseMod": 0
      }
    },
    "attributes": {
      "hpAbility": "con",
      "cmbAbility": "str",
      "naturalAC": 0,
      "ac": {
        "normal": {
          "ability": "dex",
          "value": 0
        },
        "touch": {
          "ability": "dex",
          "value": 0
        },
        "flatFooted": {
          "value": 0
        }
      },
      "cmd": {
        "strAbility": "str",
        "dexAbility": "dex",
        "value": 0
      },
      "sr": {
        "formula": ""
      },
      "clCheck": false,
      "saveNotes": "",
      "acNotes": "",
      "cmdNotes": "16 vs. trip",
      "srNotes": "",
      "attack": {
        "meleeAbility": "str",
        "rangedAbility": "dex",
        "general": 0,
        "shared": 0,
        "melee": 0,
        "ranged": 0
      },
      "energyDrain": 0,
      "quadruped": false,
      "savingThrows": {
        "fort": {
          "base": 0,
          "ability": "con",
          "total": 0
        },
        "ref": {
          "base": 0,
          "ability": "dex",
          "total": 0
        },
        "will": {
          "base": 0,
          "ability": "wis",
          "total": 0
        }
      },
      "hp": {
        "value": 19,
        "base": 0,
        "temp": 0,
        "nonlethal": 0,
        "max": 0,
        "offset": 0
      },
      "wounds": {
        "min": 0,
        "base": 0,
        "value": 0,
        "max": 10,
        "offset": 0
      },
      "vigor": {
        "min": 0,
        "value": 0,
        "temp": 0,
        "base": 0,
        "max": 0,
        "offset": 0
      },
      "init": {
        "value": 0,
        "ability": "dex",
        "bonus": 0
      },
      "speed": {
        "land": {
          "base": 30
        },
        "climb": {
          "base": 0
        },
        "swim": {
          "base": 0
        },
        "burrow": {
          "base": 0
        },
        "fly": {
          "base": 60,
          "maneuverability": "perfect"
        }
      },
      "conditions": {
        "bleed": false,
        "blind": false,
        "confused": false,
        "dazed": false,
        "dazzled": false,
        "deaf": false,
        "entangled": false,
        "fatigued": false,
        "frightened": false,
        "exhausted": false,
        "grappled": false,
        "helpless": false,
        "incorporeal": false,
        "invisible": false,
        "nauseated": false,
        "panicked": false,
        "paralyzed": false,
        "pinned": false,
        "prone": false,
        "shaken": false,
        "sickened": false,
        "staggered": false,
        "stunned": false
      },
      "spells": {
        "spellbooks": {
          "primary": {
            "name": "Primary",
            "castPerDayAllOffsetFormula": "",
            "preparedAllOffsetFormula": "",
            "casterType": "high",
            "class": "",
            "cl": {
              "formula": "",
              "base": 0,
              "value": 0,
              "total": 0
            },
            "concentrationFormula": "",
            "concentrationNotes": "",
            "clNotes": "",
            "ability": "int",
            "autoSpellLevelCalculation": true,
            "autoSpellLevels": true,
            "psychic": false,
            "arcaneSpellFailure": true,
            "hasCantrips": true,
            "spellPreparationMode": "spontaneous",
            "baseDCFormula": "10 + @sl + @ablMod",
            "spontaneous": false,
            "spellPoints": {
              "useSystem": false,
              "value": 0,
              "maxFormula": "",
              "restoreFormula": "",
              "max": 0
            },
            "spells": {
              "spell0": {
                "castPerDayOffsetFormula": "",
                "preparedOffsetFormula": "",
                "max": 0,
                "value": 0
              },
              "spell1": {
                "castPerDayOffsetFormula": "",
                "preparedOffsetFormula": "",
                "max": 0,
                "value": 0
              },
              "spell2": {
                "castPerDayOffsetFormula": "",
                "preparedOffsetFormula": "",
                "max": 0,
                "value": 0
              },
              "spell3": {
                "castPerDayOffsetFormula": "",
                "preparedOffsetFormula": "",
                "max": 0,
                "value": 0
              },
              "spell4": {
                "castPerDayOffsetFormula": "",
                "preparedOffsetFormula": "",
                "max": 0,
                "value": 0
              },
              "spell5": {
                "castPerDayOffsetFormula": "",
                "preparedOffsetFormula": "",
                "max": 0,
                "value": 0
              },
              "spell6": {
                "castPerDayOffsetFormula": "",
                "preparedOffsetFormula": "",
                "max": 0,
                "value": 0
              },
              "spell7": {
                "castPerDayOffsetFormula": "",
                "preparedOffsetFormula": "",
                "max": 0,
                "value": 0
              },
              "spell8": {
                "castPerDayOffsetFormula": "",
                "preparedOffsetFormula": "",
                "max": 0,
                "value": 0
              },
              "spell9": {
                "castPerDayOffsetFormula": "",
                "preparedOffsetFormula": "",
                "max": 0,
                "value": 0
              }
            },
            "spellSlotAbilityBonusFormula": "",
            "domainSlotValue": 1,
            "altName": "",
            "range": {
              "close": 25,
              "medium": 100,
              "long": 400
            }
          },
          "secondary": {
            "name": "Secondary",
            "castPerDayAllOffsetFormula": "",
            "preparedAllOffsetFormula": "",
            "casterType": "high",
            "class": "",
            "cl": {
              "formula": "",
              "base": 0,
              "value": 0,
              "total": 0
            },
            "concentrationFormula": "",
            "concentrationNotes": "",
            "clNotes": "",
            "ability": "int",
            "autoSpellLevelCalculation": true,
            "autoSpellLevels": true,
            "psychic": false,
            "arcaneSpellFailure": true,
            "hasCantrips": true,
            "spellPreparationMode": "spontaneous",
            "baseDCFormula": "10 + @sl + @ablMod",
            "spontaneous": false,
            "spellPoints": {
              "useSystem": false,
              "value": 0,
              "maxFormula": "",
              "restoreFormula": "",
              "max": 0
            },
            "spells": {
              "spell0": {
                "castPerDayOffsetFormula": "",
                "preparedOffsetFormula": "",
                "max": 0,
                "value": 0
              },
              "spell1": {
                "castPerDayOffsetFormula": "",
                "preparedOffsetFormula": "",
                "max": 0,
                "value": 0
              },
              "spell2": {
                "castPerDayOffsetFormula": "",
                "preparedOffsetFormula": "",
                "max": 0,
                "value": 0
              },
              "spell3": {
                "castPerDayOffsetFormula": "",
                "preparedOffsetFormula": "",
                "max": 0,
                "value": 0
              },
              "spell4": {
                "castPerDayOffsetFormula": "",
                "preparedOffsetFormula": "",
                "max": 0,
                "value": 0
              },
              "spell5": {
                "castPerDayOffsetFormula": "",
                "preparedOffsetFormula": "",
                "max": 0,
                "value": 0
              },
              "spell6": {
                "castPerDayOffsetFormula": "",
                "preparedOffsetFormula": "",
                "max": 0,
                "value": 0
              },
              "spell7": {
                "castPerDayOffsetFormula": "",
                "preparedOffsetFormula": "",
                "max": 0,
                "value": 0
              },
              "spell8": {
                "castPerDayOffsetFormula": "",
                "preparedOffsetFormula": "",
                "max": 0,
                "value": 0
              },
              "spell9": {
                "castPerDayOffsetFormula": "",
                "preparedOffsetFormula": "",
                "max": 0,
                "value": 0
              }
            },
            "spellSlotAbilityBonusFormula": "",
            "domainSlotValue": 1,
            "altName": "",
            "range": {
              "close": 25,
              "medium": 100,
              "long": 400
            }
          },
          "tertiary": {
            "name": "Tertiary",
            "castPerDayAllOffsetFormula": "",
            "preparedAllOffsetFormula": "",
            "casterType": "high",
            "class": "",
            "cl": {
              "formula": "",
              "base": 0,
              "value": 0,
              "total": 0
            },
            "concentrationFormula": "",
            "concentrationNotes": "",
            "clNotes": "",
            "ability": "int",
            "autoSpellLevelCalculation": true,
            "autoSpellLevels": true,
            "psychic": false,
            "arcaneSpellFailure": true,
            "hasCantrips": true,
            "spellPreparationMode": "spontaneous",
            "baseDCFormula": "10 + @sl + @ablMod",
            "spontaneous": false,
            "spellPoints": {
              "useSystem": false,
              "value": 0,
              "maxFormula": "",
              "restoreFormula": "",
              "max": 0
            },
            "spells": {
              "spell0": {
                "castPerDayOffsetFormula": "",
                "preparedOffsetFormula": "",
                "max": 0,
                "value": 0
              },
              "spell1": {
                "castPerDayOffsetFormula": "",
                "preparedOffsetFormula": "",
                "max": 0,
                "value": 0
              },
              "spell2": {
                "castPerDayOffsetFormula": "",
                "preparedOffsetFormula": "",
                "max": 0,
                "value": 0
              },
              "spell3": {
                "castPerDayOffsetFormula": "",
                "preparedOffsetFormula": "",
                "max": 0,
                "value": 0
              },
              "spell4": {
                "castPerDayOffsetFormula": "",
                "preparedOffsetFormula": "",
                "max": 0,
                "value": 0
              },
              "spell5": {
                "castPerDayOffsetFormula": "",
                "preparedOffsetFormula": "",
                "max": 0,
                "value": 0
              },
              "spell6": {
                "castPerDayOffsetFormula": "",
                "preparedOffsetFormula": "",
                "max": 0,
                "value": 0
              },
              "spell7": {
                "castPerDayOffsetFormula": "",
                "preparedOffsetFormula": "",
                "max": 0,
                "value": 0
              },
              "spell8": {
                "castPerDayOffsetFormula": "",
                "preparedOffsetFormula": "",
                "max": 0,
                "value": 0
              },
              "spell9": {
                "castPerDayOffsetFormula": "",
                "preparedOffsetFormula": "",
                "max": 0,
                "value": 0
              }
            },
            "spellSlotAbilityBonusFormula": "",
            "domainSlotValue": 1,
            "altName": "",
            "range": {
              "close": 25,
              "medium": 100,
              "long": 400
            }
          },
          "spelllike": {
            "name": "Spell-likes",
            "castPerDayAllOffsetFormula": "",
            "preparedAllOffsetFormula": "",
            "casterType": "high",
            "class": "_hd",
            "cl": {
              "formula": "",
              "base": 0,
              "value": 0,
              "total": 0
            },
            "concentrationFormula": "",
            "concentrationNotes": "",
            "clNotes": "",
            "ability": "cha",
            "autoSpellLevelCalculation": true,
            "autoSpellLevels": true,
            "psychic": false,
            "arcaneSpellFailure": true,
            "hasCantrips": true,
            "spellPreparationMode": "spontaneous",
            "baseDCFormula": "10 + @sl + @ablMod",
            "spontaneous": false,
            "spellPoints": {
              "useSystem": false,
              "value": 0,
              "maxFormula": "",
              "restoreFormula": "",
              "max": 0
            },
            "spells": {
              "spell0": {
                "castPerDayOffsetFormula": "",
                "preparedOffsetFormula": "",
                "max": 0,
                "value": 0
              },
              "spell1": {
                "castPerDayOffsetFormula": "",
                "preparedOffsetFormula": "",
                "max": 0,
                "value": 0
              },
              "spell2": {
                "castPerDayOffsetFormula": "",
                "preparedOffsetFormula": "",
                "max": 0,
                "value": 0
              },
              "spell3": {
                "castPerDayOffsetFormula": "",
                "preparedOffsetFormula": "",
                "max": 0,
                "value": 0
              },
              "spell4": {
                "castPerDayOffsetFormula": "",
                "preparedOffsetFormula": "",
                "max": 0,
                "value": 0
              },
              "spell5": {
                "castPerDayOffsetFormula": "",
                "preparedOffsetFormula": "",
                "max": 0,
                "value": 0
              },
              "spell6": {
                "castPerDayOffsetFormula": "",
                "preparedOffsetFormula": "",
                "max": 0,
                "value": 0
              },
              "spell7": {
                "castPerDayOffsetFormula": "",
                "preparedOffsetFormula": "",
                "max": 0,
                "value": 0
              },
              "spell8": {
                "castPerDayOffsetFormula": "",
                "preparedOffsetFormula": "",
                "max": 0,
                "value": 0
              },
              "spell9": {
                "castPerDayOffsetFormula": "",
                "preparedOffsetFormula": "",
                "max": 0,
                "value": 0
              }
            },
            "spellSlotAbilityBonusFormula": "",
            "domainSlotValue": 1,
            "altName": "",
            "range": {
              "close": 25,
              "medium": 100,
              "long": 400
            }
          }
        }
      },
      "encumbrance": {
        "levels": {}
      },
      "hd": {
        "total": 0,
        "max": {
          "_deprecated": true,
          "value": 0
        }
      },
      "bab": {
        "value": 0,
        "total": 3
      },
      "cmb": {
        "value": 0
      },
      "damage": {
        "general": 0,
        "weapon": 0,
        "spell": 0,
        "shared": 0
      },
      "maxDexBonus": null,
      "mDex": {
        "armorBonus": 0,
        "shieldBonus": 0
      },
      "acp": {
        "gear": 0,
        "encumbrance": 0,
        "total": 0,
        "armorBonus": 0,
        "shieldBonus": 0,
        "attackPenalty": 0
      },
      "woundThresholds": {
        "penalty": 0,
        "mod": 0,
        "level": 0,
        "override": -1,
        "penaltyBase": 0
      },
      "prof": 2,
      "spellcasting": {
        "_deprecated": true
      },
      "spelldc": {
        "_deprecated": true
      },
      "spellLevel": 0,
      "mods": {
        "skills": {}
      }
    },
    "details": {
      "level": {
        "value": 0,
        "min": 0,
        "max": 40
      },
      "bonusFeatFormula": "",
      "alignment": "cn",
      "biography": {
        "value": "",
        "public": ""
      },
      "notes": {
        "value": "\n        <div class=\"statblockContainer\" style=\"margin-top: 15px\"><div style=\"width: 100%; background-color: #ffe9c7; box-shadow: 0 4px 8px 0 rgba(0, 0, 0, 0.2), 0 6px 20px 0 rgba(0, 0, 0, 0.19); columns: 2 150px\">\r\n    <hr style=\"margin-left: 0; margin-top:-2px; width: 100%; height: 4px; background-color: #e0a100; border: 1px solid #000; column-span: all;\" />\r\n    <div style=\"padding: 5px;\">\r\n        <h1 style=\"border: none; font-family: 'Nodesto', 'Signika', 'Palatino Linotype', serif; color: #7a0800;\">Chuspiki CR 2 </h1>\r\n        \r\n        <!-- BASE -->\r\n        <hr style=\"margin-left: 0; width: 275px; height: 0; border-style: solid; border-width: 2px 0 2px 275px; border-color: transparent transparent transparent #7a0800;\" />\r\n        <div style=\"break-inside: avoid;\">\r\n            <strong>Source: </strong>Bestiary 5 pg. 56<br/>\r\n            <strong>XP 600</strong><br/>\r\n            \r\n            \r\n            \r\n            \r\n            \r\n            CN \r\n            Tiny \r\n            Magical Beast (Air) <br/>\r\n            <strong>Init</strong> 3;\r\n            <strong>Senses</strong> darkvision 60 ft., low-light vision, scent; Perception +3; \r\n            \r\n        </div>\r\n        <div style=\"break-inside: avoid;\">\r\n            <h4 style=\"border: none; text-transform: uppercase; color: #7a0800; padding-top:6px;\">Defense</h4>\r\n            <hr style=\"margin-left: 0; width: 275px; height: 0; border-style: solid; border-width: 2px 0 2px 275px; border-color: transparent transparent transparent #7a0800;\" />\r\n            <strong>AC</strong> 15, <strong>Touch</strong> 15, <strong>Flat-Footed</strong> 12 (+3 Dex, +2 size)<br/>\r\n            <strong>Hit Points</strong> 19 (3 HD; 3d10+3)<br/>\r\n            <strong>Fort</strong> 4, <strong>Ref</strong> 6, <strong>Will</strong> 0\r\n            <br/><strong>Defensive Abilities</strong> wind blessed, wind form; \r\n            \r\n            \r\n            \r\n            \r\n            \r\n            \r\n        </div>\r\n        <div>\r\n            <div style=\"break-inside: avoid;\">\r\n                <h4 style=\"border: none; text-transform: uppercase; color: #7a0800; padding-top:6px;\">Offense</h4>\r\n                <hr style=\"margin-left: 0; width: 275px; height: 0; border-style: solid; border-width: 2px 0 2px 275px; border-color: transparent transparent transparent #7a0800;\" />\r\n                <strong>Speed</strong> 60 ft. (perfect)<br/>\r\n                <strong>Melee</strong> tail fan +8 (1d4-2/x3)<br/>\r\n                \r\n                \r\n                \r\n                \r\n            </div>\r\n        </div>\r\n        <!-- SPELLCASTING -->\r\n                \r\n        <!-- TACTICS -->\r\n                \r\n                \r\n                \r\n                \r\n        <!-- STATISTICS -->\r\n        <div style=\"break-inside: avoid;\">\r\n            <h4 style=\"border: none; text-transform: uppercase; color: #7a0800; padding-top:6px;\">Statistics</h4>\r\n            <hr style=\"margin-left: 0; width: 275px; height: 0; border-style: solid; border-width: 2px 0 2px 275px; border-color: transparent transparent transparent #7a0800;\" />\r\n            <strong>Str</strong> 6, <strong>Dex</strong> 17, <strong>Con</strong> 12, <strong>Int</strong> 12, <strong>Wis</strong> 9, <strong>Cha</strong> 13<br/>\r\n            <strong>Base Atk</strong> +3; <strong>CMB</strong> +4; <strong>CMD</strong> 12<br/>\r\n            <strong>Feats</strong> Point-Blank Shot, Precise Shot, Weapon Finesse<br/>\r\n            <strong>Skills</strong> Acrobatics +9, Fly +13, Perception +3, Stealth +16<br/>\r\n            <strong>Languages</strong> Auran, Common<br/>\r\n            \r\n            \r\n            \r\n            \r\n        </div>\r\n        <!-- ECOLOGY -->\r\n            <div style='break-inside: avoid;'>\r\n                <h4 style='border: none; text-transform: uppercase; color: #7a0800; padding-top:6px;'>Ecology</h4><hr style='margin-left: 0; width: 275px; height: 0; border-style: solid; border-width: 2px 0 2px 275px; border-color: transparent transparent transparent #7a0800;' />\r\n                <strong>Environment:</strong>  warm hills or mountains<br/>\r\n                <strong>Organization:</strong>  solitary, pair, or flock (6-10)<br/>\r\n                <strong>Treasure:</strong>  standard<br/>\r\n            </div>\r\n        <!-- SPECIAL ABILITIES -->\r\n            <div style='break-inside: avoid;'>\r\n                <h4 style='border: none; text-transform: uppercase; color: #7a0800; padding-top:6px;'>Special Abilities</h4><hr style='margin-left: 0; width: 275px; height: 0; border-style: solid; border-width: 2px 0 2px 275px; border-color: transparent transparent transparent #7a0800;' />\r\n                <div style='white-space: pre-wrap;'>Air Blast (sp): A chuspiki can make a ranged attack with an intense air blast, as the kineticist wild talent of the same name, using its Hit Dice as its kineticist level.\n\nBasic Aerokinesis (sp): A chuspiki can use basic aerokinesis, as the kineticist wild talent of the same name.\n\nWind Blessed (su): A chuspiki is treated as a Large creature for the purposes of determining the effects wind has upon it.\n\nWind Form (su): Three times per day as an immediate action, a chuspiki can become insubstantial for 1 round. It gains DR 10/magic and becomes immune to poison, sneak attacks, and critical hits. It can&#x27;t attack or use any of its spell-like abilities while in wind form, with the exception of basic aerokinesis.</div>\r\n            </div>\r\n        \r\n        <!-- DESCRIPTION -->\r\n            <div style='break-inside: avoid;'>\r\n                <h4 style='border: none; text-transform: uppercase; color: #7a0800; padding-top:6px;'>Description</h4><hr style='margin-left: 0; width: 275px; height: 0; border-style: solid; border-width: 2px 0 2px 275px; border-color: transparent transparent transparent #7a0800;' />\r\n        <div style=\"white-space: pre-wrap\">Chuspikis are intelligent, mouselike creatures covered in a coat of downy tan fur which makes them appear much larger than they actually are. A chuspiki&#x27;s tail is substantially longer than the rest of its body, fanning out into a sail-like structure. The base of its tail is strong and flexible, allowing the chuspiki to whip around the fan at the tip with surprising speed. It can use this motion to create concussive blasts of air, or to scratch opponents with barbs on the underside of its tail bones.\n\nLike the wind itself, chuspikis are always moving. Chuspikis soar through the air, riding their fans like gliders and summoning minor gusts to steer their flight. They rest in short bursts, napping for just an hour at a time.\n\nWhenever they can, chuspikis seek out new experiences. They are social creatures that prefer to travel with others of their kind, or with members of other species. Chuspikis feel an especially strong connection with other creatures who share their bond with the skies, such as air elementals and sylphs. Chuspikis enjoy exploring unique locations, and when they find a particularly fascinating site, they announce their find on the winds to encourage others to share in their discovery. A mysterious disembodied voice promising glorious adventure may very well be a chuspiki; however, the playful creatures are just as likely to play pranks on hapless passersby as they are to provide legitimate guidance.\n\nA typical chuspiki is 1 foot long, with its tail extending out an additional 5 feet, and weighs 1 pound. Its bones are hollow, like a bird&#x27;s.\n\nA chuspiki will sometimes ally with a spellcaster as a familiar. A chaotic spellcaster can gain a chuspiki as a familiar at 7th level by taking the Improved Familiar feat.\n</div>\r\n                    \r\n    </div>\r\n    <hr style=\"margin-left: 0; margin-bottom: -3px; width: 100%; height: 4px; background-color: #e0a100; border: 1px solid #000; column-span: all;\" />\r\n</div></div>\n    \n        <br>\n        <hr>\n        <div class=\"rawInputContainer\" style=\"margin-top: 15px;\">\n            <h2 style=\"text-align:middle; border: none; text-transform: uppercase; color: #000;\">RAW INPUT</h2>\n            <hr>\n            <pre style=\"white-space: pre-wrap; font-size: 10px;\">Chuspiki CR 2\nSource Bestiary 5 pg. 56\nXP 600\nCN Tiny magical beast (air)\nInit +3; Senses darkvision 60 ft., low-light vision, scent; Perception +3\nDefense\nAC 15, touch 15, flat-footed 12 (+3 Dex, +2 size)\nhp 19 (3d10+3)\nFort +4, Ref +6, Will +0\nDefensive Abilities wind blessed, wind form\nOffense\nSpeed 30 ft., fly 60 ft. (perfect)\nMelee tail fan +8 (1d4-2/x3)\nRanged air blast +8 (2d6+3)\nSpace 2-1/2 ft., Reach 0 ft. (5 ft. with tail fan)\nSpell-Like Abilities (CL 3rd; concentration +4)\nConstant-feather fall\nPsychic Magic (CL 3rd; concentration +4)\n5 PE-alter winds (1 PE, DC 12), gust of wind (2 PE, DC 13), whispering wind (2 PE)\nStatistics\nStr 6, Dex 17, Con 12, Int 12, Wis 9, Cha 13\nBase Atk +3; CMB +4; CMD 12 (16 vs. trip)\nFeats Point-Blank Shot, Precise Shot, Weapon Finesse\nSkills Acrobatics +9, Fly +13, Perception +3, Stealth +16\nLanguages Auran, Common\nSQ basic aerokinesis\nEcology\nEnvironment warm hills or mountains\nOrganization solitary, pair, or flock (6-10)\nTreasure standard\nSpecial Abilities\nAir Blast (Sp) A chuspiki can make a ranged attack with an intense air blast, as the kineticist wild talent of the same name, using its Hit Dice as its kineticist level.\n\nBasic Aerokinesis (Sp) A chuspiki can use basic aerokinesis, as the kineticist wild talent of the same name.\n\nWind Blessed (Su) A chuspiki is treated as a Large creature for the purposes of determining the effects wind has upon it.\n\nWind Form (Su) Three times per day as an immediate action, a chuspiki can become insubstantial for 1 round. It gains DR 10/magic and becomes immune to poison, sneak attacks, and critical hits. It can't attack or use any of its spell-like abilities while in wind form, with the exception of basic aerokinesis.\nDescription\nChuspikis are intelligent, mouselike creatures covered in a coat of downy tan fur which makes them appear much larger than they actually are. A chuspiki's tail is substantially longer than the rest of its body, fanning out into a sail-like structure. The base of its tail is strong and flexible, allowing the chuspiki to whip around the fan at the tip with surprising speed. It can use this motion to create concussive blasts of air, or to scratch opponents with barbs on the underside of its tail bones.\n\nLike the wind itself, chuspikis are always moving. Chuspikis soar through the air, riding their fans like gliders and summoning minor gusts to steer their flight. They rest in short bursts, napping for just an hour at a time.\n\nWhenever they can, chuspikis seek out new experiences. They are social creatures that prefer to travel with others of their kind, or with members of other species. Chuspikis feel an especially strong connection with other creatures who share their bond with the skies, such as air elementals and sylphs. Chuspikis enjoy exploring unique locations, and when they find a particularly fascinating site, they announce their find on the winds to encourage others to share in their discovery. A mysterious disembodied voice promising glorious adventure may very well be a chuspiki; however, the playful creatures are just as likely to play pranks on hapless passersby as they are to provide legitimate guidance.\n\nA typical chuspiki is 1 foot long, with its tail extending out an additional 5 feet, and weighs 1 pound. Its bones are hollow, like a bird's.\n\nA chuspiki will sometimes ally with a spellcaster as a familiar. A chaotic spellcaster can gain a chuspiki as a familiar at 7th level by taking the Improved Familiar feat.</pre>\n        </div>\n    ",
        "public": ""
      },
      "bonusSkillRankFormula": "",
      "tooltip": {
        "name": "",
        "hideHeld": false,
        "hideArmor": false,
        "hideBuffs": false,
        "hideConditions": false,
        "hideClothing": false,
        "hideName": false
      },
      "carryCapacity": {
        "bonus": {
          "user": 0
        },
        "multiplier": {
          "base": 1,
          "user": 0
        }
      },
      "cr": {
        "base": 2
      },
      "mythicTier": 0,
      "type": "",
      "environment": "",
      "xp": {
        "value": 400
      }
    },
    "skills": {
      "acr": {
        "ability": "dex",
        "rt": false,
        "acp": true,
        "rank": 3,
        "value": 0,
        "mod": 0,
        "background": false,
        "cs": false
      },
      "apr": {
        "ability": "int",
        "rt": false,
        "acp": false,
        "rank": 0,
        "value": 0,
        "mod": 0,
        "background": true,
        "cs": false
      },
      "art": {
        "ability": "int",
        "rt": false,
        "acp": false,
        "rank": 0,
        "value": 0,
        "mod": 0,
        "background": true,
        "cs": false,
        "subSkills": {}
      },
      "blf": {
        "ability": "cha",
        "rt": false,
        "acp": false,
        "rank": 0,
        "value": 0,
        "mod": 0,
        "background": false,
        "cs": false
      },
      "clm": {
        "ability": "str",
        "rt": false,
        "acp": true,
        "rank": 0,
        "value": 0,
        "mod": 0,
        "background": false,
        "cs": false
      },
      "crf": {
        "ability": "int",
        "rt": false,
        "acp": false,
        "rank": 0,
        "value": 0,
        "mod": 0,
        "background": true,
        "cs": false,
        "subSkills": {}
      },
      "dip": {
        "ability": "cha",
        "rt": false,
        "acp": false,
        "rank": 0,
        "value": 0,
        "mod": 0,
        "background": false,
        "cs": false
      },
      "dev": {
        "ability": "dex",
        "rt": true,
        "acp": true,
        "rank": 0,
        "value": 0,
        "mod": 0,
        "background": false,
        "cs": false
      },
      "dis": {
        "ability": "cha",
        "rt": false,
        "acp": false,
        "rank": 0,
        "value": 0,
        "mod": 0,
        "background": false,
        "cs": false
      },
      "esc": {
        "ability": "dex",
        "rt": false,
        "acp": true,
        "rank": 0,
        "value": 0,
        "mod": 0,
        "background": false,
        "cs": false
      },
      "fly": {
        "ability": "dex",
        "rt": false,
        "acp": true,
        "rank": 3,
        "value": 0,
        "mod": 0,
        "background": false,
        "cs": false
      },
      "han": {
        "ability": "cha",
        "rt": true,
        "acp": false,
        "rank": 0,
        "value": 0,
        "mod": 0,
        "background": true,
        "cs": false
      },
      "hea": {
        "ability": "wis",
        "rt": false,
        "acp": false,
        "rank": 0,
        "value": 0,
        "mod": 0,
        "background": false,
        "cs": false
      },
      "int": {
        "ability": "cha",
        "rt": false,
        "acp": false,
        "rank": 0,
        "value": 0,
        "mod": 0,
        "background": false,
        "cs": false
      },
      "kar": {
        "ability": "int",
        "rt": true,
        "acp": false,
        "rank": 0,
        "value": 0,
        "mod": 0,
        "background": false,
        "cs": false
      },
      "kdu": {
        "ability": "int",
        "rt": true,
        "acp": false,
        "rank": 0,
        "value": 0,
        "mod": 0,
        "background": false,
        "cs": false
      },
      "ken": {
        "ability": "int",
        "rt": true,
        "acp": false,
        "rank": 0,
        "value": 0,
        "mod": 0,
        "background": true,
        "cs": false
      },
      "kge": {
        "ability": "int",
        "rt": true,
        "acp": false,
        "rank": 0,
        "value": 0,
        "mod": 0,
        "background": true,
        "cs": false
      },
      "khi": {
        "ability": "int",
        "rt": true,
        "acp": false,
        "rank": 0,
        "value": 0,
        "mod": 0,
        "background": true,
        "cs": false
      },
      "klo": {
        "ability": "int",
        "rt": true,
        "acp": false,
        "rank": 0,
        "value": 0,
        "mod": 0,
        "background": false,
        "cs": false
      },
      "kna": {
        "ability": "int",
        "rt": true,
        "acp": false,
        "rank": 0,
        "value": 0,
        "mod": 0,
        "background": false,
        "cs": false
      },
      "kno": {
        "ability": "int",
        "rt": true,
        "acp": false,
        "rank": 0,
        "value": 0,
        "mod": 0,
        "background": true,
        "cs": false
      },
      "kpl": {
        "ability": "int",
        "rt": true,
        "acp": false,
        "rank": 0,
        "value": 0,
        "mod": 0,
        "background": false,
        "cs": false
      },
      "kre": {
        "ability": "int",
        "rt": true,
        "acp": false,
        "rank": 0,
        "value": 0,
        "mod": 0,
        "background": false,
        "cs": false
      },
      "lin": {
        "ability": "int",
        "rt": true,
        "acp": false,
        "rank": 0,
        "value": 0,
        "mod": 0,
        "background": true,
        "cs": false
      },
      "lor": {
        "ability": "int",
        "rt": true,
        "acp": false,
        "rank": 0,
        "value": 0,
        "mod": 0,
        "background": true,
        "cs": false,
        "subSkills": {}
      },
      "per": {
        "ability": "wis",
        "rt": false,
        "acp": false,
        "rank": 1,
        "value": 0,
        "mod": 0,
        "background": false,
        "cs": false
      },
      "prf": {
        "ability": "cha",
        "rt": false,
        "acp": false,
        "rank": 0,
        "value": 0,
        "mod": 0,
        "background": true,
        "cs": false,
        "subSkills": {}
      },
      "pro": {
        "ability": "wis",
        "rt": true,
        "acp": false,
        "rank": 0,
        "value": 0,
        "mod": 0,
        "background": true,
        "cs": false,
        "subSkills": {}
      },
      "rid": {
        "ability": "dex",
        "rt": false,
        "acp": true,
        "rank": 0,
        "value": 0,
        "mod": 0,
        "background": false,
        "cs": false
      },
      "sen": {
        "ability": "wis",
        "rt": false,
        "acp": false,
        "rank": 0,
        "value": 0,
        "mod": 0,
        "background": false,
        "cs": false
      },
      "slt": {
        "ability": "dex",
        "rt": true,
        "acp": true,
        "rank": 0,
        "value": 0,
        "mod": 0,
        "background": true,
        "cs": false
      },
      "spl": {
        "ability": "int",
        "rt": true,
        "acp": false,
        "rank": 0,
        "value": 0,
        "mod": 0,
        "background": false,
        "cs": false
      },
      "ste": {
        "ability": "dex",
        "rt": false,
        "acp": true,
        "rank": 2,
        "value": 0,
        "mod": 0,
        "background": false,
        "cs": false
      },
      "sur": {
        "ability": "wis",
        "rt": false,
        "acp": false,
        "rank": 0,
        "value": 0,
        "mod": 0,
        "background": false,
        "cs": false
      },
      "swm": {
        "ability": "str",
        "rt": false,
        "acp": true,
        "rank": 0,
        "value": 0,
        "mod": 0,
        "background": false,
        "cs": false
      },
      "umd": {
        "ability": "cha",
        "rt": true,
        "acp": false,
        "rank": 0,
        "value": 0,
        "mod": 0,
        "background": false,
        "cs": false
      }
    },
    "traits": {
      "size": "tiny",
      "senses": {
        "dv": 60,
        "ts": 0,
        "bs": 0,
        "bse": 0,
        "ll": {
          "enabled": false,
          "multiplier": {
            "dim": 2,
            "bright": 2
          }
        },
        "sid": false,
        "tr": false,
        "si": false,
        "sc": 0,
        "custom": "darkvision 60 ft., low-light vision, scent; Perception +3"
      },
      "dr": {
        "value": [],
        "custom": ""
      },
      "eres": {
        "value": [],
        "custom": ""
      },
      "cres": "",
      "regen": "",
      "fastHealing": "",
      "languages": {
        "value": [
          "auran",
          null,
          "auran",
          null,
          "auran",
          null
        ],
        "custom": ""
      },
      "di": {
        "value": [],
        "custom": ""
      },
      "dv": {
        "value": [],
        "custom": ""
      },
      "ci": {
        "value": [],
        "custom": ""
      },
      "stature": "tall",
      "perception": {
        "_deprecated": true
      }
    },
    "currency": {
      "pp": 0,
      "gp": 0,
      "sp": 0,
      "cp": 0
    },
    "altCurrency": {
      "pp": 0,
      "gp": 0,
      "sp": 0,
      "cp": 0
    },
    "combat": {
      "round": 0
    }
  },
  "prototypeToken": {
    "flags": {
      "pf1": {}
    },
    "name": "Chuspiki",
    "displayName": 20,
    "width": 1,
    "height": 1,
    "lockRotation": false,
    "rotation": 0,
    "actorLink": false,
    "disposition": -1,
    "displayBars": 20,
    "bar1": {
      "attribute": null
    },
    "bar2": {
      "attribute": null
    },
    "randomImg": false,
    "alpha": 1,
    "light": {
      "alpha": 1,
      "angle": 360,
      "bright": 0,
      "coloration": 1,
      "dim": 0,
      "luminosity": 0.5,
      "saturation": 0,
      "contrast": 0,
      "shadows": 0,
      "animation": {
        "speed": 5,
        "intensity": 5,
        "type": null,
        "reverse": false
      },
      "darkness": {
        "min": 0,
        "max": 1
      },
      "attenuation": 0.5,
      "color": null
    },
    "texture": {
      "src": "icons/svg/mystery-man.svg",
      "tint": null,
      "scaleX": 0.6,
      "scaleY": 0.6,
      "offsetX": 0,
      "offsetY": 0,
      "rotation": 0
    },
    "sight": {
      "angle": 360,
      "enabled": false,
      "range": 60,
      "brightness": 1,
      "visionMode": "basic",
      "color": null,
      "attenuation": 0.1,
      "saturation": 0,
      "contrast": 0
    },
    "detectionModes": []
  },
  "ownership": {
    "default": 0
  },
  "_stats": {
    "systemId": "pf1",
    "systemVersion": "9.1",
    "coreVersion": "10.291",
    "createdTime": 1665428323309,
    "modifiedTime": 1689796088324,
    "lastModifiedBy": "ppv91YxratjWnkJi"
  },
  "effects": [],
  "folder": null,
  "sort": 0,
  "flags": {},
  "_key": "!actors!cfheGDU5aDWv9VGc"
}