{
  "_id": "3ajF7gjo5N8peMv1",
  "name": "Impundulu",
  "type": "npc",
  "img": "icons/svg/mystery-man.svg",
  "items": [
    "cV7yHt8i5YCV0ZTd",
    "g6M4Qx2hMIjclJ0S",
    "7G0PPur8Rfkgx9lJ",
    "9QMJAKXVomWmh7xR",
    "g3CkPUy9oWe7p13c",
    "9PcpF9pT4F0qYNkU",
    "Uuiu3p982omhMEPj",
    "iAbIGhm7T2OK9Brt",
    "26k1Gi7t5BoqxhIj",
    "n250dFlbykAIAg5Z",
    "n250dFlbykAIAg5Z",
    "HY6jAeHCNO6jFKUE",
    "49OQ91ZER9pDYAqm",
    "ag0X34P3vCzMGlkN",
    "oZ2IAkvS7zwV6c6H",
    "gNCTxCuHZdRDOBxH",
    "5VhQXXFeJNu4WZ2K",
    "sriprIoxSxl3yJjd",
    "WXSPpEtLlCLD3KVV",
    "PjyZQ0hErLVb57cY",
    "py6ZypGwjqJNg5q3",
    "AFZcN9HV5ZM8OYRQ",
    "D6Anu4NJgDK1Be1a",
    "llHTeiEtbKfwrruD",
    "YjIOYvMBGMsozWUU"
  ],
  "system": {
    "abilities": {
      "str": {
        "value": 18,
        "damage": 0,
        "drain": 0,
        "userPenalty": 0,
        "carryBonus": 0,
        "carryMultiplier": 1,
        "total": 18,
        "mod": 4,
        "checkMod": 0,
        "penalty": 0,
        "base": 10,
        "baseMod": 0
      },
      "dex": {
        "value": 21,
        "damage": 0,
        "drain": 0,
        "userPenalty": 0,
        "total": 21,
        "mod": 5,
        "checkMod": 0,
        "penalty": 0,
        "base": 10,
        "baseMod": 0
      },
      "con": {
        "value": 19,
        "damage": 0,
        "drain": 0,
        "userPenalty": 0,
        "total": 19,
        "mod": 4,
        "checkMod": 0,
        "penalty": 0,
        "base": 10,
        "baseMod": 0
      },
      "int": {
        "value": 15,
        "damage": 0,
        "drain": 0,
        "userPenalty": 0,
        "total": 15,
        "mod": 2,
        "checkMod": 0,
        "penalty": 0,
        "base": 10,
        "baseMod": 0
      },
      "wis": {
        "value": 18,
        "damage": 0,
        "drain": 0,
        "userPenalty": 0,
        "total": 18,
        "mod": 4,
        "checkMod": 0,
        "penalty": 0,
        "base": 10,
        "baseMod": 0
      },
      "cha": {
        "value": 20,
        "damage": 0,
        "drain": 0,
        "userPenalty": 0,
        "total": 20,
        "mod": 5,
        "checkMod": 0,
        "penalty": 0,
        "base": 10,
        "baseMod": 0
      }
    },
    "attributes": {
      "hpAbility": "con",
      "cmbAbility": "str",
      "naturalAC": "+10",
      "ac": {
        "normal": {
          "ability": "dex",
          "value": 0
        },
        "touch": {
          "ability": "dex",
          "value": 0
        },
        "flatFooted": {
          "value": 0
        }
      },
      "cmd": {
        "strAbility": "str",
        "dexAbility": "dex",
        "value": 0
      },
      "sr": {
        "formula": "22"
      },
      "clCheck": false,
      "saveNotes": "",
      "acNotes": "",
      "cmdNotes": "",
      "srNotes": "",
      "attack": {
        "meleeAbility": "str",
        "rangedAbility": "dex",
        "general": 0,
        "shared": 0,
        "melee": 0,
        "ranged": 0
      },
      "energyDrain": 0,
      "quadruped": false,
      "savingThrows": {
        "fort": {
          "base": 0,
          "ability": "con",
          "total": 0
        },
        "ref": {
          "base": 0,
          "ability": "dex",
          "total": 0
        },
        "will": {
          "base": 0,
          "ability": "wis",
          "total": 0
        }
      },
      "hp": {
        "value": 133,
        "base": 0,
        "temp": 0,
        "nonlethal": 0,
        "max": 0,
        "offset": 0
      },
      "wounds": {
        "min": 0,
        "base": 0,
        "value": 0,
        "max": 10,
        "offset": 0
      },
      "vigor": {
        "min": 0,
        "value": 0,
        "temp": 0,
        "base": 0,
        "max": 0,
        "offset": 0
      },
      "init": {
        "value": 0,
        "ability": "dex",
        "bonus": 0
      },
      "speed": {
        "land": {
          "base": 20
        },
        "climb": {
          "base": 0
        },
        "swim": {
          "base": 0
        },
        "burrow": {
          "base": 0
        },
        "fly": {
          "base": 60,
          "maneuverability": "good"
        }
      },
      "conditions": {
        "bleed": false,
        "blind": false,
        "confused": false,
        "dazed": false,
        "dazzled": false,
        "deaf": false,
        "entangled": false,
        "fatigued": false,
        "frightened": false,
        "exhausted": false,
        "grappled": false,
        "helpless": false,
        "incorporeal": false,
        "invisible": false,
        "nauseated": false,
        "panicked": false,
        "paralyzed": false,
        "pinned": false,
        "prone": false,
        "shaken": false,
        "sickened": false,
        "staggered": false,
        "stunned": false
      },
      "spells": {
        "spellbooks": {
          "primary": {
            "name": "Primary",
            "castPerDayAllOffsetFormula": "",
            "preparedAllOffsetFormula": "",
            "casterType": "high",
            "class": "",
            "cl": {
              "formula": "",
              "base": 0,
              "value": 0,
              "total": 0
            },
            "concentrationFormula": "",
            "concentrationNotes": "",
            "clNotes": "",
            "ability": "int",
            "autoSpellLevelCalculation": true,
            "autoSpellLevels": true,
            "psychic": false,
            "arcaneSpellFailure": true,
            "hasCantrips": true,
            "spellPreparationMode": "spontaneous",
            "baseDCFormula": "10 + @sl + @ablMod",
            "spontaneous": false,
            "spellPoints": {
              "useSystem": false,
              "value": 0,
              "maxFormula": "",
              "restoreFormula": "",
              "max": 0
            },
            "spells": {
              "spell0": {
                "castPerDayOffsetFormula": "",
                "preparedOffsetFormula": "",
                "max": 0,
                "value": 0
              },
              "spell1": {
                "castPerDayOffsetFormula": "",
                "preparedOffsetFormula": "",
                "max": 0,
                "value": 0
              },
              "spell2": {
                "castPerDayOffsetFormula": "",
                "preparedOffsetFormula": "",
                "max": 0,
                "value": 0
              },
              "spell3": {
                "castPerDayOffsetFormula": "",
                "preparedOffsetFormula": "",
                "max": 0,
                "value": 0
              },
              "spell4": {
                "castPerDayOffsetFormula": "",
                "preparedOffsetFormula": "",
                "max": 0,
                "value": 0
              },
              "spell5": {
                "castPerDayOffsetFormula": "",
                "preparedOffsetFormula": "",
                "max": 0,
                "value": 0
              },
              "spell6": {
                "castPerDayOffsetFormula": "",
                "preparedOffsetFormula": "",
                "max": 0,
                "value": 0
              },
              "spell7": {
                "castPerDayOffsetFormula": "",
                "preparedOffsetFormula": "",
                "max": 0,
                "value": 0
              },
              "spell8": {
                "castPerDayOffsetFormula": "",
                "preparedOffsetFormula": "",
                "max": 0,
                "value": 0
              },
              "spell9": {
                "castPerDayOffsetFormula": "",
                "preparedOffsetFormula": "",
                "max": 0,
                "value": 0
              }
            },
            "spellSlotAbilityBonusFormula": "",
            "domainSlotValue": 1,
            "altName": "",
            "range": {
              "close": 25,
              "medium": 100,
              "long": 400
            }
          },
          "secondary": {
            "name": "Secondary",
            "castPerDayAllOffsetFormula": "",
            "preparedAllOffsetFormula": "",
            "casterType": "high",
            "class": "",
            "cl": {
              "formula": "",
              "base": 0,
              "value": 0,
              "total": 0
            },
            "concentrationFormula": "",
            "concentrationNotes": "",
            "clNotes": "",
            "ability": "int",
            "autoSpellLevelCalculation": true,
            "autoSpellLevels": true,
            "psychic": false,
            "arcaneSpellFailure": true,
            "hasCantrips": true,
            "spellPreparationMode": "spontaneous",
            "baseDCFormula": "10 + @sl + @ablMod",
            "spontaneous": false,
            "spellPoints": {
              "useSystem": false,
              "value": 0,
              "maxFormula": "",
              "restoreFormula": "",
              "max": 0
            },
            "spells": {
              "spell0": {
                "castPerDayOffsetFormula": "",
                "preparedOffsetFormula": "",
                "max": 0,
                "value": 0
              },
              "spell1": {
                "castPerDayOffsetFormula": "",
                "preparedOffsetFormula": "",
                "max": 0,
                "value": 0
              },
              "spell2": {
                "castPerDayOffsetFormula": "",
                "preparedOffsetFormula": "",
                "max": 0,
                "value": 0
              },
              "spell3": {
                "castPerDayOffsetFormula": "",
                "preparedOffsetFormula": "",
                "max": 0,
                "value": 0
              },
              "spell4": {
                "castPerDayOffsetFormula": "",
                "preparedOffsetFormula": "",
                "max": 0,
                "value": 0
              },
              "spell5": {
                "castPerDayOffsetFormula": "",
                "preparedOffsetFormula": "",
                "max": 0,
                "value": 0
              },
              "spell6": {
                "castPerDayOffsetFormula": "",
                "preparedOffsetFormula": "",
                "max": 0,
                "value": 0
              },
              "spell7": {
                "castPerDayOffsetFormula": "",
                "preparedOffsetFormula": "",
                "max": 0,
                "value": 0
              },
              "spell8": {
                "castPerDayOffsetFormula": "",
                "preparedOffsetFormula": "",
                "max": 0,
                "value": 0
              },
              "spell9": {
                "castPerDayOffsetFormula": "",
                "preparedOffsetFormula": "",
                "max": 0,
                "value": 0
              }
            },
            "spellSlotAbilityBonusFormula": "",
            "domainSlotValue": 1,
            "altName": "",
            "range": {
              "close": 25,
              "medium": 100,
              "long": 400
            }
          },
          "tertiary": {
            "name": "Tertiary",
            "castPerDayAllOffsetFormula": "",
            "preparedAllOffsetFormula": "",
            "casterType": "high",
            "class": "",
            "cl": {
              "formula": "",
              "base": 0,
              "value": 0,
              "total": 0
            },
            "concentrationFormula": "",
            "concentrationNotes": "",
            "clNotes": "",
            "ability": "int",
            "autoSpellLevelCalculation": true,
            "autoSpellLevels": true,
            "psychic": false,
            "arcaneSpellFailure": true,
            "hasCantrips": true,
            "spellPreparationMode": "spontaneous",
            "baseDCFormula": "10 + @sl + @ablMod",
            "spontaneous": false,
            "spellPoints": {
              "useSystem": false,
              "value": 0,
              "maxFormula": "",
              "restoreFormula": "",
              "max": 0
            },
            "spells": {
              "spell0": {
                "castPerDayOffsetFormula": "",
                "preparedOffsetFormula": "",
                "max": 0,
                "value": 0
              },
              "spell1": {
                "castPerDayOffsetFormula": "",
                "preparedOffsetFormula": "",
                "max": 0,
                "value": 0
              },
              "spell2": {
                "castPerDayOffsetFormula": "",
                "preparedOffsetFormula": "",
                "max": 0,
                "value": 0
              },
              "spell3": {
                "castPerDayOffsetFormula": "",
                "preparedOffsetFormula": "",
                "max": 0,
                "value": 0
              },
              "spell4": {
                "castPerDayOffsetFormula": "",
                "preparedOffsetFormula": "",
                "max": 0,
                "value": 0
              },
              "spell5": {
                "castPerDayOffsetFormula": "",
                "preparedOffsetFormula": "",
                "max": 0,
                "value": 0
              },
              "spell6": {
                "castPerDayOffsetFormula": "",
                "preparedOffsetFormula": "",
                "max": 0,
                "value": 0
              },
              "spell7": {
                "castPerDayOffsetFormula": "",
                "preparedOffsetFormula": "",
                "max": 0,
                "value": 0
              },
              "spell8": {
                "castPerDayOffsetFormula": "",
                "preparedOffsetFormula": "",
                "max": 0,
                "value": 0
              },
              "spell9": {
                "castPerDayOffsetFormula": "",
                "preparedOffsetFormula": "",
                "max": 0,
                "value": 0
              }
            },
            "spellSlotAbilityBonusFormula": "",
            "domainSlotValue": 1,
            "altName": "",
            "range": {
              "close": 25,
              "medium": 100,
              "long": 400
            }
          },
          "spelllike": {
            "name": "Spell-likes",
            "castPerDayAllOffsetFormula": "",
            "preparedAllOffsetFormula": "",
            "casterType": "high",
            "class": "_hd",
            "cl": {
              "formula": "",
              "base": 0,
              "value": 0,
              "total": 0
            },
            "concentrationFormula": "",
            "concentrationNotes": "",
            "clNotes": "",
            "ability": "cha",
            "autoSpellLevelCalculation": true,
            "autoSpellLevels": true,
            "psychic": false,
            "arcaneSpellFailure": true,
            "hasCantrips": true,
            "spellPreparationMode": "spontaneous",
            "baseDCFormula": "10 + @sl + @ablMod",
            "spontaneous": false,
            "spellPoints": {
              "useSystem": false,
              "value": 0,
              "maxFormula": "",
              "restoreFormula": "",
              "max": 0
            },
            "spells": {
              "spell0": {
                "castPerDayOffsetFormula": "",
                "preparedOffsetFormula": "",
                "max": 0,
                "value": 0
              },
              "spell1": {
                "castPerDayOffsetFormula": "",
                "preparedOffsetFormula": "",
                "max": 0,
                "value": 0
              },
              "spell2": {
                "castPerDayOffsetFormula": "",
                "preparedOffsetFormula": "",
                "max": 0,
                "value": 0
              },
              "spell3": {
                "castPerDayOffsetFormula": "",
                "preparedOffsetFormula": "",
                "max": 0,
                "value": 0
              },
              "spell4": {
                "castPerDayOffsetFormula": "",
                "preparedOffsetFormula": "",
                "max": 0,
                "value": 0
              },
              "spell5": {
                "castPerDayOffsetFormula": "",
                "preparedOffsetFormula": "",
                "max": 0,
                "value": 0
              },
              "spell6": {
                "castPerDayOffsetFormula": "",
                "preparedOffsetFormula": "",
                "max": 0,
                "value": 0
              },
              "spell7": {
                "castPerDayOffsetFormula": "",
                "preparedOffsetFormula": "",
                "max": 0,
                "value": 0
              },
              "spell8": {
                "castPerDayOffsetFormula": "",
                "preparedOffsetFormula": "",
                "max": 0,
                "value": 0
              },
              "spell9": {
                "castPerDayOffsetFormula": "",
                "preparedOffsetFormula": "",
                "max": 0,
                "value": 0
              }
            },
            "spellSlotAbilityBonusFormula": "",
            "domainSlotValue": 1,
            "altName": "",
            "range": {
              "close": 25,
              "medium": 100,
              "long": 400
            }
          }
        }
      },
      "encumbrance": {
        "levels": {}
      },
      "hd": {
        "total": 0,
        "max": {
          "_deprecated": true,
          "value": 0
        }
      },
      "bab": {
        "value": 0,
        "total": 14
      },
      "cmb": {
        "value": 0
      },
      "damage": {
        "general": 0,
        "weapon": 0,
        "spell": 0,
        "shared": 0
      },
      "maxDexBonus": null,
      "mDex": {
        "armorBonus": 0,
        "shieldBonus": 0
      },
      "acp": {
        "gear": 0,
        "encumbrance": 0,
        "total": 0,
        "armorBonus": 0,
        "shieldBonus": 0,
        "attackPenalty": 0
      },
      "woundThresholds": {
        "penalty": 0,
        "mod": 0,
        "level": 0,
        "override": -1,
        "penaltyBase": 0
      },
      "prof": 2,
      "spellcasting": {
        "_deprecated": true
      },
      "spelldc": {
        "_deprecated": true
      },
      "spellLevel": 0,
      "mods": {
        "skills": {}
      }
    },
    "details": {
      "level": {
        "value": 0,
        "min": 0,
        "max": 40
      },
      "bonusFeatFormula": "",
      "alignment": "ne",
      "biography": {
        "value": "",
        "public": ""
      },
      "notes": {
        "value": "\n        <div class=\"statblockContainer\" style=\"margin-top: 15px\"><div style=\"width: 100%; background-color: #ffe9c7; box-shadow: 0 4px 8px 0 rgba(0, 0, 0, 0.2), 0 6px 20px 0 rgba(0, 0, 0, 0.19); columns: 2 150px\">\r\n    <hr style=\"margin-left: 0; margin-top:-2px; width: 100%; height: 4px; background-color: #e0a100; border: 1px solid #000; column-span: all;\" />\r\n    <div style=\"padding: 5px;\">\r\n        <h1 style=\"border: none; font-family: 'Nodesto', 'Signika', 'Palatino Linotype', serif; color: #7a0800;\">Impundulu CR 11 </h1>\r\n        \r\n        <!-- BASE -->\r\n        <hr style=\"margin-left: 0; width: 275px; height: 0; border-style: solid; border-width: 2px 0 2px 275px; border-color: transparent transparent transparent #7a0800;\" />\r\n        <div style=\"break-inside: avoid;\">\r\n            <strong>Source: </strong>Pathfinder #40: Vaults of Madness pg. 80<br/>\r\n            <strong>XP 12,800</strong><br/>\r\n            \r\n            \r\n            \r\n            \r\n            \r\n            NE \r\n            Medium \r\n            Outsider (Evil, Extraplanar, Shapechanger) <br/>\r\n            <strong>Init</strong> 9;\r\n            <strong>Senses</strong> darkvision 60 ft., low-light vision; Perception +21; \r\n            \r\n        </div>\r\n        <div style=\"break-inside: avoid;\">\r\n            <h4 style=\"border: none; text-transform: uppercase; color: #7a0800; padding-top:6px;\">Defense</h4>\r\n            <hr style=\"margin-left: 0; width: 275px; height: 0; border-style: solid; border-width: 2px 0 2px 275px; border-color: transparent transparent transparent #7a0800;\" />\r\n            <strong>AC</strong> 25, <strong>Touch</strong> 15, <strong>Flat-Footed</strong> 20 (+5 Dex, +10 natural)<br/>\r\n            <strong>Hit Points</strong> 133 (14 HD; 14d10+56)<br/>\r\n            <strong>Fort</strong> 13, <strong>Ref</strong> 14, <strong>Will</strong> 10\r\n            \r\n            <strong>DR</strong> 10/magic and cold iron\r\n            <strong>Immune</strong> electricity; \r\n            <strong>Resist</strong> cold 10, fire 10; \r\n            <strong>SR</strong> 22\r\n            \r\n            \r\n        </div>\r\n        <div>\r\n            <div style=\"break-inside: avoid;\">\r\n                <h4 style=\"border: none; text-transform: uppercase; color: #7a0800; padding-top:6px;\">Offense</h4>\r\n                <hr style=\"margin-left: 0; width: 275px; height: 0; border-style: solid; border-width: 2px 0 2px 275px; border-color: transparent transparent transparent #7a0800;\" />\r\n                <strong>Speed</strong> 60 ft. (good)<br/>\r\n                <strong>Melee</strong> bite +19 (1d6+4 plus 1d6 bleed and 1d6 electricity), 2 talons +19 (1d4+4 plus 1d6 electricity and grab), 2 hook +13 (1d4+2 plus 1d6 electricity)<br/>\r\n                \r\n                \r\n                \r\n                \r\n            </div>\r\n        </div>\r\n        <!-- SPELLCASTING -->\r\n                \r\n        <!-- TACTICS -->\r\n                \r\n                \r\n                \r\n                \r\n        <!-- STATISTICS -->\r\n        <div style=\"break-inside: avoid;\">\r\n            <h4 style=\"border: none; text-transform: uppercase; color: #7a0800; padding-top:6px;\">Statistics</h4>\r\n            <hr style=\"margin-left: 0; width: 275px; height: 0; border-style: solid; border-width: 2px 0 2px 275px; border-color: transparent transparent transparent #7a0800;\" />\r\n            <strong>Str</strong> 18, <strong>Dex</strong> 21, <strong>Con</strong> 19, <strong>Int</strong> 15, <strong>Wis</strong> 18, <strong>Cha</strong> 20<br/>\r\n            <strong>Base Atk</strong> +14; <strong>CMB</strong> +18; <strong>CMD</strong> 33<br/>\r\n            <strong>Feats</strong> Flyby Attack, Hover, Improved Initiative, Iron Will, Vital Strike, Weapon Focus (bite), Weapon Focus (talons)<br/>\r\n            <strong>Skills</strong> Bluff +22, Diplomacy +19, Fly +9, Intimidate +15, Knowledge (arcana) +12, Knowledge (nature) +12, Knowledge (planes) +12, Perception +21, Sense Motive +21, Spellcraft +19, Stealth +22<br/>\r\n            <strong>Languages</strong> Abyssal, Common, Fey, Infernal, Polyglot, speak with animals, telepathy 100 ft.<br/>\r\n            \r\n            \r\n            \r\n            \r\n        </div>\r\n        <!-- ECOLOGY -->\r\n            <div style='break-inside: avoid;'>\r\n                <h4 style='border: none; text-transform: uppercase; color: #7a0800; padding-top:6px;'>Ecology</h4><hr style='margin-left: 0; width: 275px; height: 0; border-style: solid; border-width: 2px 0 2px 275px; border-color: transparent transparent transparent #7a0800;' />\r\n                <strong>Environment:</strong>  temperate or warm forest<br/>\r\n                <strong>Organization:</strong>  solitary, pair, or flock (2d6)<br/>\r\n                <strong>Treasure:</strong>  standard (and impundulu fat, see sidebar)<br/>\r\n            </div>\r\n        <!-- SPECIAL ABILITIES -->\r\n            <div style='break-inside: avoid;'>\r\n                <h4 style='border: none; text-transform: uppercase; color: #7a0800; padding-top:6px;'>Special Abilities</h4><hr style='margin-left: 0; width: 275px; height: 0; border-style: solid; border-width: 2px 0 2px 275px; border-color: transparent transparent transparent #7a0800;' />\r\n                <div style='white-space: pre-wrap;'>Blood Drain (ex): If it grapples a foe, an impundulu drains blood at the end of its turn, dealing Constitution damage.\n\nElectrical Discharge (su): An impundulu builds substantial electrical charges in its body-electrical charges visibly crackle about its form. If the impundulu hits a creature with two talons in the same round, this charge releases into that creature, dealing 4d6 points of electricity damage (this damage is in addition to the electricity damage from its talon attacks). The target may attempt a DC 21 Fortitude save for half damage. If one or both of the talon attacks is a critical hit, the jolt is so potent that the target is stunned for 1d4 rounds (creatures that are immune to electricity are immune to this stunning effect). The save DC is Constitution-based. Once the creature releases this charge, it cannot use this ability again for 1d4 rounds while it waits for the energy to build again (though this energy buildup does not affect the electrical damage from its regular talon attacks).\n\nFamiliar Service: A mortal of 7th level or higher with the Improved Familiar feat can summon an impundulu to serve as her familiar; an impundulu familiar appears as a birdlike imp or quasit, has the normal statistics of an imp or quasit, and loses all of its own abilities except its subtypes, alignment, and damage reduction. If its master is slain, the impundulu seizes its former master&#x27;s soul, retreats to a hidden place, and consumes the soul, after which it metamorphoses over the next 24 hours into its natural form, regains all of its normal abilities, and becomes free; most aging masters pass on their impundulu familiars to younger family members rather than let the creatures turn on them.\n\nShaman Form (su): An impundulu using its change shape special quality can take on one specific humanoid form as if it had the change shape ability. This form usually resembles that of a jungle shaman, except it has claw-like fingernails and its feet end in talons. In this form, it cannot fly or use its breath weapon, electrical discharge, or hook attacks. An impundulu can remain in this form indefinitely. Its natural form is its bird form. If killed, it reverts to its true form.\n\nWitchcraft: An impundulu serving as a witch&#x27;s familiar gives its master additional spells known, just like a witch&#x27;s patron. The master must choose from one of the following patron themes when binding the impundulu, and this choice cannot be changed without dismissing and re-summoning the impundulu: Agility, Elements, or Transformation. These patron spells known are in addition to any granted by the witch&#x27;s actual patron.</div>\r\n            </div>\r\n        \r\n        <!-- DESCRIPTION -->\r\n            <div style='break-inside: avoid;'>\r\n                <h4 style='border: none; text-transform: uppercase; color: #7a0800; padding-top:6px;'>Description</h4><hr style='margin-left: 0; width: 275px; height: 0; border-style: solid; border-width: 2px 0 2px 275px; border-color: transparent transparent transparent #7a0800;' />\r\n        <div style=\"white-space: pre-wrap\">The tribesfolk of southern Garund tell tales of a ruthless winged shapeshifter, a bloodthirsty demon and hunter of men. They call this being impundulu, a name that loosely translates to &#x27;lightning-bird&#x27; after its savage avian form. Legend describes this creature as a huge, stork-like bird that rides upon fierce storms and whose dark feathers crackle with lightning. It is believed that an evil shaman summoned the first impundulu and that using an ancient, taboo ritual, the two formed a blood pact. The shaman offered the impundulu the ability to wear his mortal f lesh in exchange for mastery over the demon&#x27;s significant occult powers. As soon as the impundulu seized control of the shaman&#x27;s body, it broke the pact- however, the ancient ritual bound the fiend to the mortal form, and even after the shaman perished, it could not shed its f lesh. Thus despite its own immortality, the impundulu became forever tied to the realm of mortals. For this reason, it is said, the creature continues to forge pacts with mortal spellcasters in the hope that one day it will unbind the secrets of its cursed existence.\nImpundulu Fat\nThe impundulu&#x27;s fat possesses magical properties and is a highly sought reagent among tribal witchdoctors throughout the Mwangi Expanse. When properly rendered with a DC 28 Craft (alchemy) check, the fat becomes approximately 1 cup of sticky, highly combustible oil. Weapons dipped in the oil gain the flaming property for 10 minutes; 1 cup of this oil can coat up to five weapons or 50 pieces of ammunition.\n\nSimilarly, the oil dilutes healing potions while maintaining their strength at the original concentration. One cup of oil can dilute one potion of cure serious wounds, two potions of cure moderate wounds, or 20 potions of cure light wounds, doubling the number of potions as a result (one potion becomes two, two become four, and so on). These potions cannot be diluted further without losing their potency.\n</div>\r\n                    \r\n    </div>\r\n    <hr style=\"margin-left: 0; margin-bottom: -3px; width: 100%; height: 4px; background-color: #e0a100; border: 1px solid #000; column-span: all;\" />\r\n</div></div>\n    \n        <br>\n        <hr>\n        <div class=\"rawInputContainer\" style=\"margin-top: 15px;\">\n            <h2 style=\"text-align:middle; border: none; text-transform: uppercase; color: #000;\">RAW INPUT</h2>\n            <hr>\n            <pre style=\"white-space: pre-wrap; font-size: 10px;\">Impundulu CR 11\nSource Pathfinder #40: Vaults of Madness pg. 80\nXP 12,800\nNE Medium outsider (evil, extraplanar, shapechanger)\nInit +9; Senses darkvision 60 ft., low-light vision; Perception +21\nDefense\nAC 25, touch 15, flat-footed 20 (+5 Dex, +10 natural)\nhp 133 (14d10+56)\nFort +13, Ref +14, Will +10\nDR 10/magic and cold iron; Immune electricity; Resist cold 10, fire 10; SR 22\nOffense\nSpeed 20 ft. (30 ft. in humanoid form), fly 60 ft. (good)\nMelee bite +19 (1d6+4 plus 1d6 bleed and 1d6 electricity), 2 talons +19 (1d4+4 plus 1d6 electricity and grab), 2 hook +13 (1d4+2 plus 1d6 electricity)\nSpecial Attacks bleed (1d6), breath weapon (60-ft. line, 8d6 electricity, Reflex DC 21 half, usable every 1d4 rounds), electrical discharge\nSpell-Like Abilities (CL 14th; concentration +19)\n3/day - call lightning, charm person, gust of wind\nStatistics\nStr 18, Dex 21, Con 19, Int 15, Wis 18, Cha 20\nBase Atk +14; CMB +18 (+22 grapple); CMD 33\nFeats Flyby Attack, Hover, Improved Initiative, Iron Will, Vital Strike, Weapon Focus (bite), Weapon Focus (talons)\nSkills Bluff +22, Diplomacy +19, Fly +9, Intimidate +15, Knowledge (arcana) +12, Knowledge (nature) +12, Knowledge (planes) +12, Perception +21, Sense Motive +21, Spellcraft +19, Stealth +22\nLanguages Abyssal, Common, Fey, Infernal, Polyglot; speak with animals, telepathy 100 ft.\nSQ change shape (one humanoid), shaman form\nEcology\nEnvironment temperate or warm forest\nOrganization solitary, pair, or flock (2d6)\nTreasure standard (and impundulu fat, see sidebar)\nSpecial Abilities\nBlood Drain (Ex) If it grapples a foe, an impundulu drains blood at the end of its turn, dealing Constitution damage.\n\nElectrical Discharge (Su) An impundulu builds substantial electrical charges in its body-electrical charges visibly crackle about its form. If the impundulu hits a creature with two talons in the same round, this charge releases into that creature, dealing 4d6 points of electricity damage (this damage is in addition to the electricity damage from its talon attacks). The target may attempt a DC 21 Fortitude save for half damage. If one or both of the talon attacks is a critical hit, the jolt is so potent that the target is stunned for 1d4 rounds (creatures that are immune to electricity are immune to this stunning effect). The save DC is Constitution-based. Once the creature releases this charge, it cannot use this ability again for 1d4 rounds while it waits for the energy to build again (though this energy buildup does not affect the electrical damage from its regular talon attacks).\n\nFamiliar Service A mortal of 7th level or higher with the Improved Familiar feat can summon an impundulu to serve as her familiar; an impundulu familiar appears as a birdlike imp or quasit, has the normal statistics of an imp or quasit, and loses all of its own abilities except its subtypes, alignment, and damage reduction. If its master is slain, the impundulu seizes its former master's soul, retreats to a hidden place, and consumes the soul, after which it metamorphoses over the next 24 hours into its natural form, regains all of its normal abilities, and becomes free; most aging masters pass on their impundulu familiars to younger family members rather than let the creatures turn on them.\n\nShaman Form (Su) An impundulu using its change shape special quality can take on one specific humanoid form as if it had the change shape ability. This form usually resembles that of a jungle shaman, except it has claw-like fingernails and its feet end in talons. In this form, it cannot fly or use its breath weapon, electrical discharge, or hook attacks. An impundulu can remain in this form indefinitely. Its natural form is its bird form. If killed, it reverts to its true form.\n\nWitchcraft An impundulu serving as a witch's familiar gives its master additional spells known, just like a witch's patron. The master must choose from one of the following patron themes when binding the impundulu, and this choice cannot be changed without dismissing and re-summoning the impundulu: Agility, Elements, or Transformation. These patron spells known are in addition to any granted by the witch's actual patron.\nDescription\nThe tribesfolk of southern Garund tell tales of a ruthless winged shapeshifter, a bloodthirsty demon and hunter of men. They call this being impundulu, a name that loosely translates to 'lightning-bird' after its savage avian form. Legend describes this creature as a huge, stork-like bird that rides upon fierce storms and whose dark feathers crackle with lightning. It is believed that an evil shaman summoned the first impundulu and that using an ancient, taboo ritual, the two formed a blood pact. The shaman offered the impundulu the ability to wear his mortal f lesh in exchange for mastery over the demon's significant occult powers. As soon as the impundulu seized control of the shaman's body, it broke the pact- however, the ancient ritual bound the fiend to the mortal form, and even after the shaman perished, it could not shed its f lesh. Thus despite its own immortality, the impundulu became forever tied to the realm of mortals. For this reason, it is said, the creature continues to forge pacts with mortal spellcasters in the hope that one day it will unbind the secrets of its cursed existence.\nImpundulu Fat\nThe impundulu's fat possesses magical properties and is a highly sought reagent among tribal witchdoctors throughout the Mwangi Expanse. When properly rendered with a DC 28 Craft (alchemy) check, the fat becomes approximately 1 cup of sticky, highly combustible oil. Weapons dipped in the oil gain the flaming property for 10 minutes; 1 cup of this oil can coat up to five weapons or 50 pieces of ammunition.\n\nSimilarly, the oil dilutes healing potions while maintaining their strength at the original concentration. One cup of oil can dilute one potion of cure serious wounds, two potions of cure moderate wounds, or 20 potions of cure light wounds, doubling the number of potions as a result (one potion becomes two, two become four, and so on). These potions cannot be diluted further without losing their potency.</pre>\n        </div>\n    ",
        "public": ""
      },
      "bonusSkillRankFormula": "",
      "tooltip": {
        "name": "",
        "hideHeld": false,
        "hideArmor": false,
        "hideBuffs": false,
        "hideConditions": false,
        "hideClothing": false,
        "hideName": false
      },
      "carryCapacity": {
        "bonus": {
          "user": 0
        },
        "multiplier": {
          "base": 1,
          "user": 0
        }
      },
      "cr": {
        "base": 11
      },
      "mythicTier": 0,
      "type": "",
      "environment": "",
      "xp": {
        "value": 400
      }
    },
    "skills": {
      "acr": {
        "ability": "dex",
        "rt": false,
        "acp": true,
        "rank": 0,
        "value": 0,
        "mod": 0,
        "background": false,
        "cs": false
      },
      "apr": {
        "ability": "int",
        "rt": false,
        "acp": false,
        "rank": 0,
        "value": 0,
        "mod": 0,
        "background": true,
        "cs": false
      },
      "art": {
        "ability": "int",
        "rt": false,
        "acp": false,
        "rank": 0,
        "value": 0,
        "mod": 0,
        "background": true,
        "cs": false,
        "subSkills": {}
      },
      "blf": {
        "ability": "cha",
        "rt": false,
        "acp": false,
        "rank": 14,
        "value": 0,
        "mod": 0,
        "background": false,
        "cs": false
      },
      "clm": {
        "ability": "str",
        "rt": false,
        "acp": true,
        "rank": 0,
        "value": 0,
        "mod": 0,
        "background": false,
        "cs": false
      },
      "crf": {
        "ability": "int",
        "rt": false,
        "acp": false,
        "rank": 0,
        "value": 0,
        "mod": 0,
        "background": true,
        "cs": false,
        "subSkills": {}
      },
      "dip": {
        "ability": "cha",
        "rt": false,
        "acp": false,
        "rank": 14,
        "value": 0,
        "mod": 0,
        "background": false,
        "cs": false
      },
      "dev": {
        "ability": "dex",
        "rt": true,
        "acp": true,
        "rank": 0,
        "value": 0,
        "mod": 0,
        "background": false,
        "cs": false
      },
      "dis": {
        "ability": "cha",
        "rt": false,
        "acp": false,
        "rank": 0,
        "value": 0,
        "mod": 0,
        "background": false,
        "cs": false
      },
      "esc": {
        "ability": "dex",
        "rt": false,
        "acp": true,
        "rank": 0,
        "value": 0,
        "mod": 0,
        "background": false,
        "cs": false
      },
      "fly": {
        "ability": "dex",
        "rt": false,
        "acp": true,
        "rank": 4,
        "value": 0,
        "mod": 0,
        "background": false,
        "cs": false
      },
      "han": {
        "ability": "cha",
        "rt": true,
        "acp": false,
        "rank": 0,
        "value": 0,
        "mod": 0,
        "background": true,
        "cs": false
      },
      "hea": {
        "ability": "wis",
        "rt": false,
        "acp": false,
        "rank": 0,
        "value": 0,
        "mod": 0,
        "background": false,
        "cs": false
      },
      "int": {
        "ability": "cha",
        "rt": false,
        "acp": false,
        "rank": 10,
        "value": 0,
        "mod": 0,
        "background": false,
        "cs": false
      },
      "kar": {
        "ability": "int",
        "rt": true,
        "acp": false,
        "rank": 10,
        "value": 0,
        "mod": 0,
        "background": false,
        "cs": false
      },
      "kdu": {
        "ability": "int",
        "rt": true,
        "acp": false,
        "rank": 0,
        "value": 0,
        "mod": 0,
        "background": false,
        "cs": false
      },
      "ken": {
        "ability": "int",
        "rt": true,
        "acp": false,
        "rank": 0,
        "value": 0,
        "mod": 0,
        "background": true,
        "cs": false
      },
      "kge": {
        "ability": "int",
        "rt": true,
        "acp": false,
        "rank": 0,
        "value": 0,
        "mod": 0,
        "background": true,
        "cs": false
      },
      "khi": {
        "ability": "int",
        "rt": true,
        "acp": false,
        "rank": 0,
        "value": 0,
        "mod": 0,
        "background": true,
        "cs": false
      },
      "klo": {
        "ability": "int",
        "rt": true,
        "acp": false,
        "rank": 0,
        "value": 0,
        "mod": 0,
        "background": false,
        "cs": false
      },
      "kna": {
        "ability": "int",
        "rt": true,
        "acp": false,
        "rank": 10,
        "value": 0,
        "mod": 0,
        "background": false,
        "cs": false
      },
      "kno": {
        "ability": "int",
        "rt": true,
        "acp": false,
        "rank": 0,
        "value": 0,
        "mod": 0,
        "background": true,
        "cs": false
      },
      "kpl": {
        "ability": "int",
        "rt": true,
        "acp": false,
        "rank": 7,
        "value": 0,
        "mod": 0,
        "background": false,
        "cs": false
      },
      "kre": {
        "ability": "int",
        "rt": true,
        "acp": false,
        "rank": 0,
        "value": 0,
        "mod": 0,
        "background": false,
        "cs": false
      },
      "lin": {
        "ability": "int",
        "rt": true,
        "acp": false,
        "rank": 0,
        "value": 0,
        "mod": 0,
        "background": true,
        "cs": false
      },
      "lor": {
        "ability": "int",
        "rt": true,
        "acp": false,
        "rank": 0,
        "value": 0,
        "mod": 0,
        "background": true,
        "cs": false,
        "subSkills": {}
      },
      "per": {
        "ability": "wis",
        "rt": false,
        "acp": false,
        "rank": 14,
        "value": 0,
        "mod": 0,
        "background": false,
        "cs": false
      },
      "prf": {
        "ability": "cha",
        "rt": false,
        "acp": false,
        "rank": 0,
        "value": 0,
        "mod": 0,
        "background": true,
        "cs": false,
        "subSkills": {}
      },
      "pro": {
        "ability": "wis",
        "rt": true,
        "acp": false,
        "rank": 0,
        "value": 0,
        "mod": 0,
        "background": true,
        "cs": false,
        "subSkills": {}
      },
      "rid": {
        "ability": "dex",
        "rt": false,
        "acp": true,
        "rank": 0,
        "value": 0,
        "mod": 0,
        "background": false,
        "cs": false
      },
      "sen": {
        "ability": "wis",
        "rt": false,
        "acp": false,
        "rank": 14,
        "value": 0,
        "mod": 0,
        "background": false,
        "cs": false
      },
      "slt": {
        "ability": "dex",
        "rt": true,
        "acp": true,
        "rank": 0,
        "value": 0,
        "mod": 0,
        "background": true,
        "cs": false
      },
      "spl": {
        "ability": "int",
        "rt": true,
        "acp": false,
        "rank": 17,
        "value": 0,
        "mod": 0,
        "background": false,
        "cs": false
      },
      "ste": {
        "ability": "dex",
        "rt": false,
        "acp": true,
        "rank": 14,
        "value": 0,
        "mod": 0,
        "background": false,
        "cs": false
      },
      "sur": {
        "ability": "wis",
        "rt": false,
        "acp": false,
        "rank": 0,
        "value": 0,
        "mod": 0,
        "background": false,
        "cs": false
      },
      "swm": {
        "ability": "str",
        "rt": false,
        "acp": true,
        "rank": 0,
        "value": 0,
        "mod": 0,
        "background": false,
        "cs": false
      },
      "umd": {
        "ability": "cha",
        "rt": true,
        "acp": false,
        "rank": 0,
        "value": 0,
        "mod": 0,
        "background": false,
        "cs": false
      }
    },
    "traits": {
      "size": "med",
      "senses": {
        "dv": 60,
        "ts": 0,
        "bs": 0,
        "bse": 0,
        "ll": {
          "enabled": false,
          "multiplier": {
            "dim": 2,
            "bright": 2
          }
        },
        "sid": false,
        "tr": false,
        "si": false,
        "sc": 0,
        "custom": "darkvision 60 ft., low-light vision; Perception +21"
      },
      "dr": {
        "value": [],
        "custom": "10/magic and cold iron"
      },
      "eres": {
        "value": [],
        "custom": "Cold 10;Fire 10;Cold 10;Fire 10;Cold 10;Fire 10;"
      },
      "cres": "",
      "regen": "",
      "fastHealing": "",
      "languages": {
        "value": [
          "abyssal",
          null,
          null,
          null,
          "abyssal",
          null,
          null,
          null,
          "abyssal",
          null,
          null,
          null
        ],
        "custom": " Fey; speak with animals; telepathy 100 ft."
      },
      "di": {
        "value": [
          "electricity",
          "electricity",
          "electricity"
        ],
        "custom": ""
      },
      "dv": {
        "value": [],
        "custom": ""
      },
      "ci": {
        "value": [],
        "custom": ""
      },
      "stature": "tall",
      "perception": {
        "_deprecated": true
      }
    },
    "currency": {
      "pp": 0,
      "gp": 0,
      "sp": 0,
      "cp": 0
    },
    "altCurrency": {
      "pp": 0,
      "gp": 0,
      "sp": 0,
      "cp": 0
    },
    "combat": {
      "round": 0
    }
  },
  "prototypeToken": {
    "flags": {
      "pf1": {}
    },
    "name": "Impundulu",
    "displayName": 20,
    "width": 1,
    "height": 1,
    "lockRotation": false,
    "rotation": 0,
    "actorLink": false,
    "disposition": -1,
    "displayBars": 20,
    "bar1": {
      "attribute": null
    },
    "bar2": {
      "attribute": null
    },
    "randomImg": false,
    "alpha": 1,
    "light": {
      "alpha": 1,
      "angle": 360,
      "bright": 0,
      "coloration": 1,
      "dim": 0,
      "luminosity": 0.5,
      "saturation": 0,
      "contrast": 0,
      "shadows": 0,
      "animation": {
        "speed": 5,
        "intensity": 5,
        "type": null,
        "reverse": false
      },
      "darkness": {
        "min": 0,
        "max": 1
      },
      "attenuation": 0.5,
      "color": null
    },
    "texture": {
      "src": "icons/svg/mystery-man.svg",
      "tint": null,
      "scaleX": 1,
      "scaleY": 1,
      "offsetX": 0,
      "offsetY": 0,
      "rotation": 0
    },
    "sight": {
      "angle": 360,
      "enabled": false,
      "range": 60,
      "brightness": 1,
      "visionMode": "basic",
      "color": null,
      "attenuation": 0.1,
      "saturation": 0,
      "contrast": 0
    },
    "detectionModes": []
  },
  "ownership": {
    "default": 0
  },
  "_stats": {
    "systemId": "pf1",
    "systemVersion": "9.1",
    "coreVersion": "10.291",
    "createdTime": 1665428322662,
    "modifiedTime": 1689796073978,
    "lastModifiedBy": "ppv91YxratjWnkJi"
  },
  "effects": [],
  "folder": null,
  "sort": 0,
  "flags": {},
  "_key": "!actors!3ajF7gjo5N8peMv1"
}