{
  "_id": "HEf5MFiFrQMsxh6a",
  "name": "Mandragora",
  "type": "npc",
  "img": "icons/svg/mystery-man.svg",
  "items": [
    "AbOSfjvKMqpNihdM",
    "Rrxph5cIXEiGjBjM",
    "M0Qbu4fEFUVUR2rv",
    "0bZf3SDkvVOe2ujH",
    "7zJTztNW7hdaqjKc",
    "vWiTqHC4Y3Xn1Pme",
    "TjNknJRomdI5Pq7F",
    "aY02d5jOeVhoWkDQ",
    "03zaCBNjEx9rmYaD",
    "MwJbP7M3xXoO6T4Z",
    "rikHuikSTsxDfNT2",
    "h2yAg2MdEukgqJwG",
    "YIOfRNt64cUepy5a",
    "G5w8FvV5AzhCk6jf",
    "B2KjMHv2oWWcSHoj"
  ],
  "system": {
    "abilities": {
      "str": {
        "value": 15,
        "damage": 0,
        "drain": 0,
        "userPenalty": 0,
        "carryBonus": 0,
        "carryMultiplier": 1,
        "total": 15,
        "mod": 2,
        "checkMod": 0,
        "penalty": 0,
        "base": 10,
        "baseMod": 0
      },
      "dex": {
        "value": 18,
        "damage": 0,
        "drain": 0,
        "userPenalty": 0,
        "total": 18,
        "mod": 4,
        "checkMod": 0,
        "penalty": 0,
        "base": 10,
        "baseMod": 0
      },
      "con": {
        "value": 17,
        "damage": 0,
        "drain": 0,
        "userPenalty": 0,
        "total": 17,
        "mod": 3,
        "checkMod": 0,
        "penalty": 0,
        "base": 10,
        "baseMod": 0
      },
      "int": {
        "value": 8,
        "damage": 0,
        "drain": 0,
        "userPenalty": 0,
        "total": 8,
        "mod": -1,
        "checkMod": 0,
        "penalty": 0,
        "base": 10,
        "baseMod": 0
      },
      "wis": {
        "value": 13,
        "damage": 0,
        "drain": 0,
        "userPenalty": 0,
        "total": 13,
        "mod": 1,
        "checkMod": 0,
        "penalty": 0,
        "base": 10,
        "baseMod": 0
      },
      "cha": {
        "value": 10,
        "damage": 0,
        "drain": 0,
        "userPenalty": 0,
        "total": 10,
        "mod": 0,
        "checkMod": 0,
        "penalty": 0,
        "base": 10,
        "baseMod": 0
      }
    },
    "attributes": {
      "hpAbility": "con",
      "cmbAbility": "str",
      "naturalAC": "+2",
      "ac": {
        "normal": {
          "ability": "dex",
          "value": 0
        },
        "touch": {
          "ability": "dex",
          "value": 0
        },
        "flatFooted": {
          "value": 0
        }
      },
      "cmd": {
        "strAbility": "str",
        "dexAbility": "dex",
        "value": 0
      },
      "sr": {
        "formula": ""
      },
      "clCheck": false,
      "saveNotes": "",
      "acNotes": "",
      "cmdNotes": "",
      "srNotes": "",
      "attack": {
        "meleeAbility": "str",
        "rangedAbility": "dex",
        "general": 0,
        "shared": 0,
        "melee": 0,
        "ranged": 0
      },
      "energyDrain": 0,
      "quadruped": false,
      "savingThrows": {
        "fort": {
          "base": 0,
          "ability": "con",
          "total": 0
        },
        "ref": {
          "base": 0,
          "ability": "dex",
          "total": 0
        },
        "will": {
          "base": 0,
          "ability": "wis",
          "total": 0
        }
      },
      "hp": {
        "value": 37,
        "base": 0,
        "temp": 0,
        "nonlethal": 0,
        "max": 0,
        "offset": 0
      },
      "wounds": {
        "min": 0,
        "base": 0,
        "value": 0,
        "max": 10,
        "offset": 0
      },
      "vigor": {
        "min": 0,
        "value": 0,
        "temp": 0,
        "base": 0,
        "max": 0,
        "offset": 0
      },
      "init": {
        "value": 0,
        "ability": "dex",
        "bonus": 0
      },
      "speed": {
        "land": {
          "base": 40
        },
        "climb": {
          "base": 40
        },
        "swim": {
          "base": 0
        },
        "burrow": {
          "base": 10
        },
        "fly": {
          "base": 0,
          "maneuverability": "average"
        }
      },
      "conditions": {
        "bleed": false,
        "blind": false,
        "confused": false,
        "dazed": false,
        "dazzled": false,
        "deaf": false,
        "entangled": false,
        "fatigued": false,
        "frightened": false,
        "exhausted": false,
        "grappled": false,
        "helpless": false,
        "incorporeal": false,
        "invisible": false,
        "nauseated": false,
        "panicked": false,
        "paralyzed": false,
        "pinned": false,
        "prone": false,
        "shaken": false,
        "sickened": false,
        "staggered": false,
        "stunned": false
      },
      "spells": {
        "spellbooks": {
          "primary": {
            "name": "Primary",
            "castPerDayAllOffsetFormula": "",
            "preparedAllOffsetFormula": "",
            "casterType": "high",
            "class": "",
            "cl": {
              "formula": "",
              "base": 0,
              "value": 0,
              "total": 0
            },
            "concentrationFormula": "",
            "concentrationNotes": "",
            "clNotes": "",
            "ability": "int",
            "autoSpellLevelCalculation": true,
            "autoSpellLevels": true,
            "psychic": false,
            "arcaneSpellFailure": true,
            "hasCantrips": true,
            "spellPreparationMode": "spontaneous",
            "baseDCFormula": "10 + @sl + @ablMod",
            "spontaneous": false,
            "spellPoints": {
              "useSystem": false,
              "value": 0,
              "maxFormula": "",
              "restoreFormula": "",
              "max": 0
            },
            "spells": {
              "spell0": {
                "castPerDayOffsetFormula": "",
                "preparedOffsetFormula": "",
                "max": 0,
                "value": 0
              },
              "spell1": {
                "castPerDayOffsetFormula": "",
                "preparedOffsetFormula": "",
                "max": 0,
                "value": 0
              },
              "spell2": {
                "castPerDayOffsetFormula": "",
                "preparedOffsetFormula": "",
                "max": 0,
                "value": 0
              },
              "spell3": {
                "castPerDayOffsetFormula": "",
                "preparedOffsetFormula": "",
                "max": 0,
                "value": 0
              },
              "spell4": {
                "castPerDayOffsetFormula": "",
                "preparedOffsetFormula": "",
                "max": 0,
                "value": 0
              },
              "spell5": {
                "castPerDayOffsetFormula": "",
                "preparedOffsetFormula": "",
                "max": 0,
                "value": 0
              },
              "spell6": {
                "castPerDayOffsetFormula": "",
                "preparedOffsetFormula": "",
                "max": 0,
                "value": 0
              },
              "spell7": {
                "castPerDayOffsetFormula": "",
                "preparedOffsetFormula": "",
                "max": 0,
                "value": 0
              },
              "spell8": {
                "castPerDayOffsetFormula": "",
                "preparedOffsetFormula": "",
                "max": 0,
                "value": 0
              },
              "spell9": {
                "castPerDayOffsetFormula": "",
                "preparedOffsetFormula": "",
                "max": 0,
                "value": 0
              }
            },
            "spellSlotAbilityBonusFormula": "",
            "domainSlotValue": 1,
            "altName": "",
            "range": {
              "close": 25,
              "medium": 100,
              "long": 400
            }
          },
          "secondary": {
            "name": "Secondary",
            "castPerDayAllOffsetFormula": "",
            "preparedAllOffsetFormula": "",
            "casterType": "high",
            "class": "",
            "cl": {
              "formula": "",
              "base": 0,
              "value": 0,
              "total": 0
            },
            "concentrationFormula": "",
            "concentrationNotes": "",
            "clNotes": "",
            "ability": "int",
            "autoSpellLevelCalculation": true,
            "autoSpellLevels": true,
            "psychic": false,
            "arcaneSpellFailure": true,
            "hasCantrips": true,
            "spellPreparationMode": "spontaneous",
            "baseDCFormula": "10 + @sl + @ablMod",
            "spontaneous": false,
            "spellPoints": {
              "useSystem": false,
              "value": 0,
              "maxFormula": "",
              "restoreFormula": "",
              "max": 0
            },
            "spells": {
              "spell0": {
                "castPerDayOffsetFormula": "",
                "preparedOffsetFormula": "",
                "max": 0,
                "value": 0
              },
              "spell1": {
                "castPerDayOffsetFormula": "",
                "preparedOffsetFormula": "",
                "max": 0,
                "value": 0
              },
              "spell2": {
                "castPerDayOffsetFormula": "",
                "preparedOffsetFormula": "",
                "max": 0,
                "value": 0
              },
              "spell3": {
                "castPerDayOffsetFormula": "",
                "preparedOffsetFormula": "",
                "max": 0,
                "value": 0
              },
              "spell4": {
                "castPerDayOffsetFormula": "",
                "preparedOffsetFormula": "",
                "max": 0,
                "value": 0
              },
              "spell5": {
                "castPerDayOffsetFormula": "",
                "preparedOffsetFormula": "",
                "max": 0,
                "value": 0
              },
              "spell6": {
                "castPerDayOffsetFormula": "",
                "preparedOffsetFormula": "",
                "max": 0,
                "value": 0
              },
              "spell7": {
                "castPerDayOffsetFormula": "",
                "preparedOffsetFormula": "",
                "max": 0,
                "value": 0
              },
              "spell8": {
                "castPerDayOffsetFormula": "",
                "preparedOffsetFormula": "",
                "max": 0,
                "value": 0
              },
              "spell9": {
                "castPerDayOffsetFormula": "",
                "preparedOffsetFormula": "",
                "max": 0,
                "value": 0
              }
            },
            "spellSlotAbilityBonusFormula": "",
            "domainSlotValue": 1,
            "altName": "",
            "range": {
              "close": 25,
              "medium": 100,
              "long": 400
            }
          },
          "tertiary": {
            "name": "Tertiary",
            "castPerDayAllOffsetFormula": "",
            "preparedAllOffsetFormula": "",
            "casterType": "high",
            "class": "",
            "cl": {
              "formula": "",
              "base": 0,
              "value": 0,
              "total": 0
            },
            "concentrationFormula": "",
            "concentrationNotes": "",
            "clNotes": "",
            "ability": "int",
            "autoSpellLevelCalculation": true,
            "autoSpellLevels": true,
            "psychic": false,
            "arcaneSpellFailure": true,
            "hasCantrips": true,
            "spellPreparationMode": "spontaneous",
            "baseDCFormula": "10 + @sl + @ablMod",
            "spontaneous": false,
            "spellPoints": {
              "useSystem": false,
              "value": 0,
              "maxFormula": "",
              "restoreFormula": "",
              "max": 0
            },
            "spells": {
              "spell0": {
                "castPerDayOffsetFormula": "",
                "preparedOffsetFormula": "",
                "max": 0,
                "value": 0
              },
              "spell1": {
                "castPerDayOffsetFormula": "",
                "preparedOffsetFormula": "",
                "max": 0,
                "value": 0
              },
              "spell2": {
                "castPerDayOffsetFormula": "",
                "preparedOffsetFormula": "",
                "max": 0,
                "value": 0
              },
              "spell3": {
                "castPerDayOffsetFormula": "",
                "preparedOffsetFormula": "",
                "max": 0,
                "value": 0
              },
              "spell4": {
                "castPerDayOffsetFormula": "",
                "preparedOffsetFormula": "",
                "max": 0,
                "value": 0
              },
              "spell5": {
                "castPerDayOffsetFormula": "",
                "preparedOffsetFormula": "",
                "max": 0,
                "value": 0
              },
              "spell6": {
                "castPerDayOffsetFormula": "",
                "preparedOffsetFormula": "",
                "max": 0,
                "value": 0
              },
              "spell7": {
                "castPerDayOffsetFormula": "",
                "preparedOffsetFormula": "",
                "max": 0,
                "value": 0
              },
              "spell8": {
                "castPerDayOffsetFormula": "",
                "preparedOffsetFormula": "",
                "max": 0,
                "value": 0
              },
              "spell9": {
                "castPerDayOffsetFormula": "",
                "preparedOffsetFormula": "",
                "max": 0,
                "value": 0
              }
            },
            "spellSlotAbilityBonusFormula": "",
            "domainSlotValue": 1,
            "altName": "",
            "range": {
              "close": 25,
              "medium": 100,
              "long": 400
            }
          },
          "spelllike": {
            "name": "Spell-likes",
            "castPerDayAllOffsetFormula": "",
            "preparedAllOffsetFormula": "",
            "casterType": "high",
            "class": "_hd",
            "cl": {
              "formula": "",
              "base": 0,
              "value": 0,
              "total": 0
            },
            "concentrationFormula": "",
            "concentrationNotes": "",
            "clNotes": "",
            "ability": "cha",
            "autoSpellLevelCalculation": true,
            "autoSpellLevels": true,
            "psychic": false,
            "arcaneSpellFailure": true,
            "hasCantrips": true,
            "spellPreparationMode": "spontaneous",
            "baseDCFormula": "10 + @sl + @ablMod",
            "spontaneous": false,
            "spellPoints": {
              "useSystem": false,
              "value": 0,
              "maxFormula": "",
              "restoreFormula": "",
              "max": 0
            },
            "spells": {
              "spell0": {
                "castPerDayOffsetFormula": "",
                "preparedOffsetFormula": "",
                "max": 0,
                "value": 0
              },
              "spell1": {
                "castPerDayOffsetFormula": "",
                "preparedOffsetFormula": "",
                "max": 0,
                "value": 0
              },
              "spell2": {
                "castPerDayOffsetFormula": "",
                "preparedOffsetFormula": "",
                "max": 0,
                "value": 0
              },
              "spell3": {
                "castPerDayOffsetFormula": "",
                "preparedOffsetFormula": "",
                "max": 0,
                "value": 0
              },
              "spell4": {
                "castPerDayOffsetFormula": "",
                "preparedOffsetFormula": "",
                "max": 0,
                "value": 0
              },
              "spell5": {
                "castPerDayOffsetFormula": "",
                "preparedOffsetFormula": "",
                "max": 0,
                "value": 0
              },
              "spell6": {
                "castPerDayOffsetFormula": "",
                "preparedOffsetFormula": "",
                "max": 0,
                "value": 0
              },
              "spell7": {
                "castPerDayOffsetFormula": "",
                "preparedOffsetFormula": "",
                "max": 0,
                "value": 0
              },
              "spell8": {
                "castPerDayOffsetFormula": "",
                "preparedOffsetFormula": "",
                "max": 0,
                "value": 0
              },
              "spell9": {
                "castPerDayOffsetFormula": "",
                "preparedOffsetFormula": "",
                "max": 0,
                "value": 0
              }
            },
            "spellSlotAbilityBonusFormula": "",
            "domainSlotValue": 1,
            "altName": "",
            "range": {
              "close": 25,
              "medium": 100,
              "long": 400
            }
          }
        }
      },
      "encumbrance": {
        "levels": {}
      },
      "hd": {
        "total": 0,
        "max": {
          "_deprecated": true,
          "value": 0
        }
      },
      "bab": {
        "value": 0,
        "total": 3
      },
      "cmb": {
        "value": 0
      },
      "damage": {
        "general": 0,
        "weapon": 0,
        "spell": 0,
        "shared": 0
      },
      "maxDexBonus": null,
      "mDex": {
        "armorBonus": 0,
        "shieldBonus": 0
      },
      "acp": {
        "gear": 0,
        "encumbrance": 0,
        "total": 0,
        "armorBonus": 0,
        "shieldBonus": 0,
        "attackPenalty": 0
      },
      "woundThresholds": {
        "penalty": 0,
        "mod": 0,
        "level": 0,
        "override": -1,
        "penaltyBase": 0
      },
      "prof": 2,
      "spellcasting": {
        "_deprecated": true
      },
      "spelldc": {
        "_deprecated": true
      },
      "spellLevel": 0,
      "mods": {
        "skills": {}
      }
    },
    "details": {
      "level": {
        "value": 0,
        "min": 0,
        "max": 40
      },
      "bonusFeatFormula": "",
      "alignment": "ce",
      "biography": {
        "value": "",
        "public": ""
      },
      "notes": {
        "value": "\n        <div class=\"statblockContainer\" style=\"margin-top: 15px\"><div style=\"width: 100%; background-color: #ffe9c7; box-shadow: 0 4px 8px 0 rgba(0, 0, 0, 0.2), 0 6px 20px 0 rgba(0, 0, 0, 0.19); columns: 2 150px\">\r\n    <hr style=\"margin-left: 0; margin-top:-2px; width: 100%; height: 4px; background-color: #e0a100; border: 1px solid #000; column-span: all;\" />\r\n    <div style=\"padding: 5px;\">\r\n        <h1 style=\"border: none; font-family: 'Nodesto', 'Signika', 'Palatino Linotype', serif; color: #7a0800;\">Mandragora CR 4 </h1>\r\n        \r\n        <!-- BASE -->\r\n        <hr style=\"margin-left: 0; width: 275px; height: 0; border-style: solid; border-width: 2px 0 2px 275px; border-color: transparent transparent transparent #7a0800;\" />\r\n        <div style=\"break-inside: avoid;\">\r\n            <strong>Source: </strong>Bestiary 2 pg. 185, Pathfinder #17: A Memory of Darkness pg. 84<br/>\r\n            <strong>XP 1,200</strong><br/>\r\n            \r\n            \r\n            \r\n            \r\n            \r\n            CE \r\n            Small \r\n            Plant <br/>\r\n            <strong>Init</strong> 4;\r\n            <strong>Senses</strong> low-light vision; Perception +9; \r\n            \r\n        </div>\r\n        <div style=\"break-inside: avoid;\">\r\n            <h4 style=\"border: none; text-transform: uppercase; color: #7a0800; padding-top:6px;\">Defense</h4>\r\n            <hr style=\"margin-left: 0; width: 275px; height: 0; border-style: solid; border-width: 2px 0 2px 275px; border-color: transparent transparent transparent #7a0800;\" />\r\n            <strong>AC</strong> 17, <strong>Touch</strong> 15, <strong>Flat-Footed</strong> 13 (+4 Dex, +2 natural, +1 size)<br/>\r\n            <strong>Hit Points</strong> 37 (5 HD; 5d8+15)<br/>\r\n            <strong>Fort</strong> 7, <strong>Ref</strong> 7, <strong>Will</strong> 2\r\n            \r\n            \r\n            <strong>Immune</strong> plant traits; \r\n            <strong>Resist</strong> acid 5, cold 5, electricity 10; \r\n            \r\n            \r\n            <br/><strong>Weaknesses</strong> \r\n        </div>\r\n        <div>\r\n            <div style=\"break-inside: avoid;\">\r\n                <h4 style=\"border: none; text-transform: uppercase; color: #7a0800; padding-top:6px;\">Offense</h4>\r\n                <hr style=\"margin-left: 0; width: 275px; height: 0; border-style: solid; border-width: 2px 0 2px 275px; border-color: transparent transparent transparent #7a0800;\" />\r\n                <strong>Speed</strong> 10 ft.<br/>\r\n                <strong>Melee</strong> bite +8 (1d6+2 plus grab), 2 slam +8 (1d4+2 plus poison)<br/>\r\n                \r\n                \r\n                \r\n                \r\n            </div>\r\n        </div>\r\n        <!-- SPELLCASTING -->\r\n                \r\n        <!-- TACTICS -->\r\n                \r\n                \r\n                \r\n                \r\n        <!-- STATISTICS -->\r\n        <div style=\"break-inside: avoid;\">\r\n            <h4 style=\"border: none; text-transform: uppercase; color: #7a0800; padding-top:6px;\">Statistics</h4>\r\n            <hr style=\"margin-left: 0; width: 275px; height: 0; border-style: solid; border-width: 2px 0 2px 275px; border-color: transparent transparent transparent #7a0800;\" />\r\n            <strong>Str</strong> 15, <strong>Dex</strong> 18, <strong>Con</strong> 17, <strong>Int</strong> 8, <strong>Wis</strong> 13, <strong>Cha</strong> 10<br/>\r\n            <strong>Base Atk</strong> +3; <strong>CMB</strong> +4; <strong>CMD</strong> 18<br/>\r\n            <strong>Feats</strong> Lightning Reflexes, Skill Focus (Perception), Weapon Finesse<br/>\r\n            <strong>Skills</strong> Climb +10, Perception +9, Stealth +14 (+22 in vegetation), Racial Modifiers +8 Stealth in vegetation<br/>\r\n            <strong>Languages</strong> Abyssal, Common<br/>\r\n            \r\n            \r\n            \r\n            \r\n        </div>\r\n        <!-- ECOLOGY -->\r\n            <div style='break-inside: avoid;'>\r\n                <h4 style='border: none; text-transform: uppercase; color: #7a0800; padding-top:6px;'>Ecology</h4><hr style='margin-left: 0; width: 275px; height: 0; border-style: solid; border-width: 2px 0 2px 275px; border-color: transparent transparent transparent #7a0800;' />\r\n                <strong>Environment:</strong>  cold or temperate forests<br/>\r\n                <strong>Organization:</strong>  solitary, pair, or grove (3-12)<br/>\r\n                <strong>Treasure:</strong>  standard<br/>\r\n            </div>\r\n        <!-- SPECIAL ABILITIES -->\r\n            <div style='break-inside: avoid;'>\r\n                <h4 style='border: none; text-transform: uppercase; color: #7a0800; padding-top:6px;'>Special Abilities</h4><hr style='margin-left: 0; width: 275px; height: 0; border-style: solid; border-width: 2px 0 2px 275px; border-color: transparent transparent transparent #7a0800;' />\r\n                <div style='white-space: pre-wrap;'>Poison (ex): Slam-injury; save Fort DC 15; frequency 1/round for 4 rounds; effect confusion and fatigue; cure no saves but &#x27;act normally&#x27; result on the confusion behavior table ends the effect.\n\nShriek (su): Once per day as a standard action, a mandragora can give voice to an unsettling shriek. All creatures within a 30-foot spread of a shrieking mandragora must make a DC 15 Will save or become nauseated for 1d4 rounds. This is a sonic, mind-affecting ability. The save DC is Constitution-based.\n\nVulnerable to Supernatural Darkness (ex): In areas of supernatural darkness (such as those created by deeper darkness, but not by darkness), a mandragora is slowed, as the slow spell.</div>\r\n            </div>\r\n        \r\n        <!-- DESCRIPTION -->\r\n            <div style='break-inside: avoid;'>\r\n                <h4 style='border: none; text-transform: uppercase; color: #7a0800; padding-top:6px;'>Description</h4><hr style='margin-left: 0; width: 275px; height: 0; border-style: solid; border-width: 2px 0 2px 275px; border-color: transparent transparent transparent #7a0800;' />\r\n        <div style=\"white-space: pre-wrap\">A mandragora rises spontaneously from a mandrake root that has drawn nutrition from the corpse or ichor of a demon. A typical mandragora stands at just over 3 feet tall and only weighs 30 pounds. However, its size hides the creature&#x27;s fantastic strength and brutality. When a mandragora attacks, its fingers grow into whipping, thorny vines nearly 10 feet long, with which it makes its slam attacks.\n\nA mandragora rarely strays far from its lair amid tangled roots or vines, but when it encounters any other creature, it attacks regardless of the odds. However, a mandragora can usually recognize druids and does not attack them or their animal companions unless they attack it first. It has no qualms about attacking a druid&#x27;s allies.\n\nWhen mandragora poison is mixed with its thick, gooey, sap-like blood and 1,000 gp worth of alchemical reagents, the resulting fluid can be used as a focus for the scrying spell. The fluid only lasts for the duration of the spell&#x27;s casting time and resulting effects but the subject of the spell takes a -4 penalty on the save to resist it.\n\nA mandrake root that is growing on or near a demon&#x27;s corpse or ichor has a 2% chance of awakening as a mandragora within a day of first absorbing the tainted material. A creature that wants to create a mandragora can do so with alchemy; the process requires a day of work, a mandrake root, several pints of ichor or the body of a demon of CR 6 or above, and a successful DC 25 Craft (alchemy) check. The newly created mandragora is hostile, even to its creator.\n</div>\r\n                    \r\n    </div>\r\n    <hr style=\"margin-left: 0; margin-bottom: -3px; width: 100%; height: 4px; background-color: #e0a100; border: 1px solid #000; column-span: all;\" />\r\n</div></div>\n    \n        <br>\n        <hr>\n        <div class=\"rawInputContainer\" style=\"margin-top: 15px;\">\n            <h2 style=\"text-align:middle; border: none; text-transform: uppercase; color: #000;\">RAW INPUT</h2>\n            <hr>\n            <pre style=\"white-space: pre-wrap; font-size: 10px;\">Mandragora CR 4\nSource Bestiary 2 pg. 185, Pathfinder #17: A Memory of Darkness pg. 84\nXP 1,200\nCE Small plant\nInit +4; Senses low-light vision; Perception +9\nDefense\nAC 17, touch 15, flat-footed 13 (+4 Dex, +2 natural, +1 size)\nhp 37 (5d8+15)\nFort +7, Ref +7, Will +2\nImmune plant traits; Resist acid 5, cold 5, electricity 10\nWeaknesses vulnerable to supernatural darkness\nOffense\nSpeed 40 ft., burrow 10 ft., climb 40 ft.\nMelee bite +8 (1d6+2 plus grab), 2 slam +8 (1d4+2 plus poison)\nSpace 5 ft., Reach 5 ft. (10 ft. with slam)\nSpecial Attacks blood drain (1d2 Constitution), shriek\nStatistics\nStr 15, Dex 18, Con 17, Int 8, Wis 13, Cha 10\nBase Atk +3; CMB +4 (+8 grapple); CMD 18\nFeats Lightning Reflexes, Skill Focus (Perception), Weapon Finesse\nSkills Climb +10, Perception +9, Stealth +14 (+22 in vegetation); Racial Modifiers +8 Stealth in vegetation\nLanguages Abyssal, Common\nEcology\nEnvironment cold or temperate forests\nOrganization solitary, pair, or grove (3-12)\nTreasure standard\nSpecial Abilities\nPoison (Ex) Slam-injury; save Fort DC 15; frequency 1/round for 4 rounds; effect confusion and fatigue; cure no saves but 'act normally' result on the confusion behavior table ends the effect.\n\nShriek (Su) Once per day as a standard action, a mandragora can give voice to an unsettling shriek. All creatures within a 30-foot spread of a shrieking mandragora must make a DC 15 Will save or become nauseated for 1d4 rounds. This is a sonic, mind-affecting ability. The save DC is Constitution-based.\n\nVulnerable to Supernatural Darkness (Ex) In areas of supernatural darkness (such as those created by deeper darkness, but not by darkness), a mandragora is slowed, as the slow spell.\nDescription\nA mandragora rises spontaneously from a mandrake root that has drawn nutrition from the corpse or ichor of a demon. A typical mandragora stands at just over 3 feet tall and only weighs 30 pounds. However, its size hides the creature's fantastic strength and brutality. When a mandragora attacks, its fingers grow into whipping, thorny vines nearly 10 feet long, with which it makes its slam attacks.\n\nA mandragora rarely strays far from its lair amid tangled roots or vines, but when it encounters any other creature, it attacks regardless of the odds. However, a mandragora can usually recognize druids and does not attack them or their animal companions unless they attack it first. It has no qualms about attacking a druid's allies.\n\nWhen mandragora poison is mixed with its thick, gooey, sap-like blood and 1,000 gp worth of alchemical reagents, the resulting fluid can be used as a focus for the scrying spell. The fluid only lasts for the duration of the spell's casting time and resulting effects but the subject of the spell takes a -4 penalty on the save to resist it.\n\nA mandrake root that is growing on or near a demon's corpse or ichor has a 2% chance of awakening as a mandragora within a day of first absorbing the tainted material. A creature that wants to create a mandragora can do so with alchemy; the process requires a day of work, a mandrake root, several pints of ichor or the body of a demon of CR 6 or above, and a successful DC 25 Craft (alchemy) check. The newly created mandragora is hostile, even to its creator.</pre>\n        </div>\n    ",
        "public": ""
      },
      "bonusSkillRankFormula": "",
      "tooltip": {
        "name": "",
        "hideHeld": false,
        "hideArmor": false,
        "hideBuffs": false,
        "hideConditions": false,
        "hideClothing": false,
        "hideName": false
      },
      "carryCapacity": {
        "bonus": {
          "user": 0
        },
        "multiplier": {
          "base": 1,
          "user": 0
        }
      },
      "cr": {
        "base": 4
      },
      "mythicTier": 0,
      "type": "",
      "environment": "",
      "xp": {
        "value": 400
      }
    },
    "skills": {
      "acr": {
        "ability": "dex",
        "rt": false,
        "acp": true,
        "rank": 0,
        "value": 0,
        "mod": 0,
        "background": false,
        "cs": false
      },
      "apr": {
        "ability": "int",
        "rt": false,
        "acp": false,
        "rank": 0,
        "value": 0,
        "mod": 0,
        "background": true,
        "cs": false
      },
      "art": {
        "ability": "int",
        "rt": false,
        "acp": false,
        "rank": 0,
        "value": 0,
        "mod": 0,
        "background": true,
        "cs": false,
        "subSkills": {}
      },
      "blf": {
        "ability": "cha",
        "rt": false,
        "acp": false,
        "rank": 0,
        "value": 0,
        "mod": 0,
        "background": false,
        "cs": false
      },
      "clm": {
        "ability": "str",
        "rt": false,
        "acp": true,
        "rank": 8,
        "value": 0,
        "mod": 0,
        "background": false,
        "cs": false
      },
      "crf": {
        "ability": "int",
        "rt": false,
        "acp": false,
        "rank": 0,
        "value": 0,
        "mod": 0,
        "background": true,
        "cs": false,
        "subSkills": {}
      },
      "dip": {
        "ability": "cha",
        "rt": false,
        "acp": false,
        "rank": 0,
        "value": 0,
        "mod": 0,
        "background": false,
        "cs": false
      },
      "dev": {
        "ability": "dex",
        "rt": true,
        "acp": true,
        "rank": 0,
        "value": 0,
        "mod": 0,
        "background": false,
        "cs": false
      },
      "dis": {
        "ability": "cha",
        "rt": false,
        "acp": false,
        "rank": 0,
        "value": 0,
        "mod": 0,
        "background": false,
        "cs": false
      },
      "esc": {
        "ability": "dex",
        "rt": false,
        "acp": true,
        "rank": 0,
        "value": 0,
        "mod": 0,
        "background": false,
        "cs": false
      },
      "fly": {
        "ability": "dex",
        "rt": false,
        "acp": true,
        "rank": 0,
        "value": 0,
        "mod": 0,
        "background": false,
        "cs": false
      },
      "han": {
        "ability": "cha",
        "rt": true,
        "acp": false,
        "rank": 0,
        "value": 0,
        "mod": 0,
        "background": true,
        "cs": false
      },
      "hea": {
        "ability": "wis",
        "rt": false,
        "acp": false,
        "rank": 0,
        "value": 0,
        "mod": 0,
        "background": false,
        "cs": false
      },
      "int": {
        "ability": "cha",
        "rt": false,
        "acp": false,
        "rank": 0,
        "value": 0,
        "mod": 0,
        "background": false,
        "cs": false
      },
      "kar": {
        "ability": "int",
        "rt": true,
        "acp": false,
        "rank": 0,
        "value": 0,
        "mod": 0,
        "background": false,
        "cs": false
      },
      "kdu": {
        "ability": "int",
        "rt": true,
        "acp": false,
        "rank": 0,
        "value": 0,
        "mod": 0,
        "background": false,
        "cs": false
      },
      "ken": {
        "ability": "int",
        "rt": true,
        "acp": false,
        "rank": 0,
        "value": 0,
        "mod": 0,
        "background": true,
        "cs": false
      },
      "kge": {
        "ability": "int",
        "rt": true,
        "acp": false,
        "rank": 0,
        "value": 0,
        "mod": 0,
        "background": true,
        "cs": false
      },
      "khi": {
        "ability": "int",
        "rt": true,
        "acp": false,
        "rank": 0,
        "value": 0,
        "mod": 0,
        "background": true,
        "cs": false
      },
      "klo": {
        "ability": "int",
        "rt": true,
        "acp": false,
        "rank": 0,
        "value": 0,
        "mod": 0,
        "background": false,
        "cs": false
      },
      "kna": {
        "ability": "int",
        "rt": true,
        "acp": false,
        "rank": 0,
        "value": 0,
        "mod": 0,
        "background": false,
        "cs": false
      },
      "kno": {
        "ability": "int",
        "rt": true,
        "acp": false,
        "rank": 0,
        "value": 0,
        "mod": 0,
        "background": true,
        "cs": false
      },
      "kpl": {
        "ability": "int",
        "rt": true,
        "acp": false,
        "rank": 0,
        "value": 0,
        "mod": 0,
        "background": false,
        "cs": false
      },
      "kre": {
        "ability": "int",
        "rt": true,
        "acp": false,
        "rank": 0,
        "value": 0,
        "mod": 0,
        "background": false,
        "cs": false
      },
      "lin": {
        "ability": "int",
        "rt": true,
        "acp": false,
        "rank": 0,
        "value": 0,
        "mod": 0,
        "background": true,
        "cs": false
      },
      "lor": {
        "ability": "int",
        "rt": true,
        "acp": false,
        "rank": 0,
        "value": 0,
        "mod": 0,
        "background": true,
        "cs": false,
        "subSkills": {}
      },
      "per": {
        "ability": "wis",
        "rt": false,
        "acp": false,
        "rank": 5,
        "value": 0,
        "mod": 0,
        "background": false,
        "cs": false
      },
      "prf": {
        "ability": "cha",
        "rt": false,
        "acp": false,
        "rank": 0,
        "value": 0,
        "mod": 0,
        "background": true,
        "cs": false,
        "subSkills": {}
      },
      "pro": {
        "ability": "wis",
        "rt": true,
        "acp": false,
        "rank": 0,
        "value": 0,
        "mod": 0,
        "background": true,
        "cs": false,
        "subSkills": {}
      },
      "rid": {
        "ability": "dex",
        "rt": false,
        "acp": true,
        "rank": 0,
        "value": 0,
        "mod": 0,
        "background": false,
        "cs": false
      },
      "sen": {
        "ability": "wis",
        "rt": false,
        "acp": false,
        "rank": 0,
        "value": 0,
        "mod": 0,
        "background": false,
        "cs": false
      },
      "slt": {
        "ability": "dex",
        "rt": true,
        "acp": true,
        "rank": 0,
        "value": 0,
        "mod": 0,
        "background": true,
        "cs": false
      },
      "spl": {
        "ability": "int",
        "rt": true,
        "acp": false,
        "rank": 0,
        "value": 0,
        "mod": 0,
        "background": false,
        "cs": false
      },
      "ste": {
        "ability": "dex",
        "rt": false,
        "acp": true,
        "rank": 3,
        "value": 0,
        "mod": 0,
        "background": false,
        "cs": false
      },
      "sur": {
        "ability": "wis",
        "rt": false,
        "acp": false,
        "rank": 0,
        "value": 0,
        "mod": 0,
        "background": false,
        "cs": false
      },
      "swm": {
        "ability": "str",
        "rt": false,
        "acp": true,
        "rank": 0,
        "value": 0,
        "mod": 0,
        "background": false,
        "cs": false
      },
      "umd": {
        "ability": "cha",
        "rt": true,
        "acp": false,
        "rank": 0,
        "value": 0,
        "mod": 0,
        "background": false,
        "cs": false
      }
    },
    "traits": {
      "size": "sm",
      "senses": {
        "dv": 0,
        "ts": 0,
        "bs": 0,
        "bse": 0,
        "ll": {
          "enabled": false,
          "multiplier": {
            "dim": 2,
            "bright": 2
          }
        },
        "sid": false,
        "tr": false,
        "si": false,
        "sc": 0,
        "custom": "low-light vision; Perception +9"
      },
      "dr": {
        "value": [],
        "custom": ""
      },
      "eres": {
        "value": [],
        "custom": "Acid 5;Cold 5;Electricity 10;Acid 5;Cold 5;Electricity 10;Acid 5;Cold 5;Electricity 10;"
      },
      "cres": "",
      "regen": "",
      "fastHealing": "",
      "languages": {
        "value": [
          "abyssal",
          null,
          "abyssal",
          null,
          "abyssal",
          null
        ],
        "custom": ""
      },
      "di": {
        "value": [],
        "custom": ""
      },
      "dv": {
        "value": [],
        "custom": "Vulnerable To Supernatural Darkness;Vulnerable To Supernatural Darkness;Vulnerable To Supernatural Darkness;"
      },
      "ci": {
        "value": [],
        "custom": "Plant Traits;Plant Traits;Plant Traits;"
      },
      "stature": "tall",
      "perception": {
        "_deprecated": true
      }
    },
    "currency": {
      "pp": 0,
      "gp": 0,
      "sp": 0,
      "cp": 0
    },
    "altCurrency": {
      "pp": 0,
      "gp": 0,
      "sp": 0,
      "cp": 0
    },
    "combat": {
      "round": 0
    }
  },
  "prototypeToken": {
    "flags": {
      "pf1": {}
    },
    "name": "Mandragora",
    "displayName": 20,
    "width": 1,
    "height": 1,
    "lockRotation": false,
    "rotation": 0,
    "actorLink": false,
    "disposition": -1,
    "displayBars": 20,
    "bar1": {
      "attribute": null
    },
    "bar2": {
      "attribute": null
    },
    "randomImg": false,
    "alpha": 1,
    "light": {
      "alpha": 1,
      "angle": 360,
      "bright": 0,
      "coloration": 1,
      "dim": 0,
      "luminosity": 0.5,
      "saturation": 0,
      "contrast": 0,
      "shadows": 0,
      "animation": {
        "speed": 5,
        "intensity": 5,
        "type": null,
        "reverse": false
      },
      "darkness": {
        "min": 0,
        "max": 1
      },
      "attenuation": 0.5,
      "color": null
    },
    "texture": {
      "src": "icons/svg/mystery-man.svg",
      "tint": null,
      "scaleX": 0.8,
      "scaleY": 0.8,
      "offsetX": 0,
      "offsetY": 0,
      "rotation": 0
    },
    "sight": {
      "angle": 360,
      "enabled": false,
      "range": 0,
      "brightness": 1,
      "visionMode": "basic",
      "color": null,
      "attenuation": 0.1,
      "saturation": 0,
      "contrast": 0
    },
    "detectionModes": []
  },
  "ownership": {
    "default": 0
  },
  "_stats": {
    "systemId": "pf1",
    "systemVersion": "9.1",
    "coreVersion": "10.291",
    "createdTime": 1665428322891,
    "modifiedTime": 1689796078918,
    "lastModifiedBy": "ppv91YxratjWnkJi"
  },
  "effects": [],
  "folder": null,
  "sort": 0,
  "flags": {},
  "_key": "!actors!HEf5MFiFrQMsxh6a"
}