{
  "_id": "Y4XZhKZSUb27dcMK",
  "name": "sbc | Conversion Buff",
  "type": "buff",
  "sort": 100000,
  "flags": {},
  "img": "systems/pf1/icons/skills/yellow_36.jpg",
  "effects": [],
  "folder": null,
  "system": {
    "description": {
      "value": "<h2>sbc | Conversion Buff</h2>\n                        This Buff was created by <strong>sbc</strong> to compensate for differences between the input and the values FoundryVTT calculates automatically.\n                        <br><br>\n                        Especially when the pathfinder system gets upgraded, entries in compendiums get updated or foundry changes in some way, this buff may become outdated.\n                        <br><br>\n                        For most mooks the conversion should more or less work, but for important NPCs or creatures it is adviced to double check the conversion manually.",
      "unidentified": ""
    },
    "tags": [],
    "changes": [
      {
        "_id": "qz8cuift",
        "formula": "3",
        "operator": "add",
        "subTarget": "cmb",
        "modifier": "untypedPerm",
        "priority": 0,
        "value": 3,
        "target": "misc"
      },
      {
        "_id": "3e9q6ekz",
        "formula": "1",
        "operator": "add",
        "subTarget": "ac",
        "modifier": "dodge",
        "priority": 0,
        "value": 1,
        "target": "ac"
      },
      {
        "_id": "lbivy7p2",
        "formula": "-1",
        "operator": "add",
        "subTarget": "aac",
        "modifier": "untypedPerm",
        "priority": 0,
        "value": -1,
        "target": "ac"
      },
      {
        "_id": "8se8tn7b",
        "formula": "3",
        "operator": "add",
        "subTarget": "skill.ste",
        "modifier": "untypedPerm",
        "priority": 0,
        "value": 3,
        "target": "skill"
      }
    ],
    "changeFlags": {
      "loseDexToAC": false,
      "noEncumbrance": false,
      "mediumArmorFullSpeed": false,
      "heavyArmorFullSpeed": false,
      "noDex": false,
      "noStr": false,
      "oneCha": false,
      "oneInt": false,
      "oneWis": false
    },
    "contextNotes": [],
    "links": {
      "children": []
    },
    "tag": "sbcConversionBuff",
    "useCustomTag": true,
    "flags": {
      "boolean": {},
      "dictionary": {}
    },
    "scriptCalls": [],
    "subType": "perm",
    "active": true,
    "level": 0,
    "duration": {
      "value": null,
      "units": ""
    },
    "hideFromToken": true,
    "uses": {
      "value": 0,
      "max": 0
    }
  },
  "ownership": {
    "default": 0
  },
  "_stats": {
    "systemId": null,
    "systemVersion": null,
    "coreVersion": null,
    "createdTime": null,
    "modifiedTime": null,
    "lastModifiedBy": null
  },
  "_key": "!actors.items!tFg4TBKkrBrzjGDn.Y4XZhKZSUb27dcMK"
}