{
  "_id": "2xvqEFlPFpwgs5Gz",
  "name": "Suture Vine",
  "type": "npc",
  "img": "icons/svg/mystery-man.svg",
  "items": [
    "AbOSfjvKMqpNihdM",
    "AxyHbrZWvffx2KrN",
    "FAwLamX0gFnMDwSg",
    "S78FwySuh0VwmozH",
    "b1PRrSQSnAbeKvMw",
    "MDkyEvWhqIwB0C6M",
    "EFCTkDNi3Rt6T4hT",
    "H64X02BdVQWm9F2Q",
    "MHNI2MWnsMOcWKbb",
    "iZwLoye17eNpa1lU",
    "QKYDcu1YK2cCuuXb",
    "MuXruh1JrO6AqG7z",
    "pR0OgxR4uW2ZCWZx"
  ],
  "system": {
    "abilities": {
      "str": {
        "value": 3,
        "damage": 0,
        "drain": 0,
        "userPenalty": 0,
        "carryBonus": 0,
        "carryMultiplier": 1,
        "total": 3,
        "mod": -4,
        "checkMod": 0,
        "penalty": 0,
        "base": 10,
        "baseMod": 0
      },
      "dex": {
        "value": 12,
        "damage": 0,
        "drain": 0,
        "userPenalty": 0,
        "total": 12,
        "mod": 1,
        "checkMod": 0,
        "penalty": 0,
        "base": 10,
        "baseMod": 0
      },
      "con": {
        "value": 10,
        "damage": 0,
        "drain": 0,
        "userPenalty": 0,
        "total": 10,
        "mod": 0,
        "checkMod": 0,
        "penalty": 0,
        "base": 10,
        "baseMod": 0
      },
      "int": {
        "value": 0,
        "damage": 0,
        "drain": 0,
        "userPenalty": 0,
        "total": 0,
        "mod": -5,
        "checkMod": 0,
        "penalty": 0,
        "base": 10,
        "baseMod": 0
      },
      "wis": {
        "value": 13,
        "damage": 0,
        "drain": 0,
        "userPenalty": 0,
        "total": 13,
        "mod": 1,
        "checkMod": 0,
        "penalty": 0,
        "base": 10,
        "baseMod": 0
      },
      "cha": {
        "value": 5,
        "damage": 0,
        "drain": 0,
        "userPenalty": 0,
        "total": 5,
        "mod": -3,
        "checkMod": 0,
        "penalty": 0,
        "base": 10,
        "baseMod": 0
      }
    },
    "attributes": {
      "hpAbility": "con",
      "cmbAbility": "str",
      "naturalAC": 0,
      "ac": {
        "normal": {
          "ability": "dex",
          "value": 0
        },
        "touch": {
          "ability": "dex",
          "value": 0
        },
        "flatFooted": {
          "value": 0
        }
      },
      "cmd": {
        "strAbility": "str",
        "dexAbility": "dex",
        "value": 0
      },
      "sr": {
        "formula": ""
      },
      "clCheck": false,
      "saveNotes": "",
      "acNotes": "",
      "cmdNotes": "",
      "srNotes": "",
      "attack": {
        "meleeAbility": "str",
        "rangedAbility": "dex",
        "general": 0,
        "shared": 0,
        "melee": 0,
        "ranged": 0
      },
      "energyDrain": 0,
      "quadruped": false,
      "savingThrows": {
        "fort": {
          "base": 0,
          "ability": "con",
          "total": 0
        },
        "ref": {
          "base": 0,
          "ability": "dex",
          "total": 0
        },
        "will": {
          "base": 0,
          "ability": "wis",
          "total": 0
        }
      },
      "hp": {
        "value": 4,
        "base": 0,
        "temp": 0,
        "nonlethal": 0,
        "max": 0,
        "offset": 0
      },
      "wounds": {
        "min": 0,
        "base": 0,
        "value": 0,
        "max": 10,
        "offset": 0
      },
      "vigor": {
        "min": 0,
        "value": 0,
        "temp": 0,
        "base": 0,
        "max": 0,
        "offset": 0
      },
      "init": {
        "value": 0,
        "ability": "dex",
        "bonus": 0
      },
      "speed": {
        "land": {
          "base": 15
        },
        "climb": {
          "base": 15
        },
        "swim": {
          "base": 0
        },
        "burrow": {
          "base": 0
        },
        "fly": {
          "base": 0,
          "maneuverability": "average"
        }
      },
      "conditions": {
        "bleed": false,
        "blind": false,
        "confused": false,
        "dazed": false,
        "dazzled": false,
        "deaf": false,
        "entangled": false,
        "fatigued": false,
        "frightened": false,
        "exhausted": false,
        "grappled": false,
        "helpless": false,
        "incorporeal": false,
        "invisible": false,
        "nauseated": false,
        "panicked": false,
        "paralyzed": false,
        "pinned": false,
        "prone": false,
        "shaken": false,
        "sickened": false,
        "staggered": false,
        "stunned": false
      },
      "spells": {
        "spellbooks": {
          "primary": {
            "name": "Primary",
            "castPerDayAllOffsetFormula": "",
            "preparedAllOffsetFormula": "",
            "casterType": "high",
            "class": "",
            "cl": {
              "formula": "",
              "base": 0,
              "value": 0,
              "total": 0
            },
            "concentrationFormula": "",
            "concentrationNotes": "",
            "clNotes": "",
            "ability": "int",
            "autoSpellLevelCalculation": true,
            "autoSpellLevels": true,
            "psychic": false,
            "arcaneSpellFailure": true,
            "hasCantrips": true,
            "spellPreparationMode": "spontaneous",
            "baseDCFormula": "10 + @sl + @ablMod",
            "spontaneous": false,
            "spellPoints": {
              "useSystem": false,
              "value": 0,
              "maxFormula": "",
              "restoreFormula": "",
              "max": 0
            },
            "spells": {
              "spell0": {
                "castPerDayOffsetFormula": "",
                "preparedOffsetFormula": "",
                "max": 0,
                "value": 0
              },
              "spell1": {
                "castPerDayOffsetFormula": "",
                "preparedOffsetFormula": "",
                "max": 0,
                "value": 0
              },
              "spell2": {
                "castPerDayOffsetFormula": "",
                "preparedOffsetFormula": "",
                "max": 0,
                "value": 0
              },
              "spell3": {
                "castPerDayOffsetFormula": "",
                "preparedOffsetFormula": "",
                "max": 0,
                "value": 0
              },
              "spell4": {
                "castPerDayOffsetFormula": "",
                "preparedOffsetFormula": "",
                "max": 0,
                "value": 0
              },
              "spell5": {
                "castPerDayOffsetFormula": "",
                "preparedOffsetFormula": "",
                "max": 0,
                "value": 0
              },
              "spell6": {
                "castPerDayOffsetFormula": "",
                "preparedOffsetFormula": "",
                "max": 0,
                "value": 0
              },
              "spell7": {
                "castPerDayOffsetFormula": "",
                "preparedOffsetFormula": "",
                "max": 0,
                "value": 0
              },
              "spell8": {
                "castPerDayOffsetFormula": "",
                "preparedOffsetFormula": "",
                "max": 0,
                "value": 0
              },
              "spell9": {
                "castPerDayOffsetFormula": "",
                "preparedOffsetFormula": "",
                "max": 0,
                "value": 0
              }
            },
            "spellSlotAbilityBonusFormula": "",
            "domainSlotValue": 1,
            "altName": "",
            "range": {
              "close": 25,
              "medium": 100,
              "long": 400
            }
          },
          "secondary": {
            "name": "Secondary",
            "castPerDayAllOffsetFormula": "",
            "preparedAllOffsetFormula": "",
            "casterType": "high",
            "class": "",
            "cl": {
              "formula": "",
              "base": 0,
              "value": 0,
              "total": 0
            },
            "concentrationFormula": "",
            "concentrationNotes": "",
            "clNotes": "",
            "ability": "int",
            "autoSpellLevelCalculation": true,
            "autoSpellLevels": true,
            "psychic": false,
            "arcaneSpellFailure": true,
            "hasCantrips": true,
            "spellPreparationMode": "spontaneous",
            "baseDCFormula": "10 + @sl + @ablMod",
            "spontaneous": false,
            "spellPoints": {
              "useSystem": false,
              "value": 0,
              "maxFormula": "",
              "restoreFormula": "",
              "max": 0
            },
            "spells": {
              "spell0": {
                "castPerDayOffsetFormula": "",
                "preparedOffsetFormula": "",
                "max": 0,
                "value": 0
              },
              "spell1": {
                "castPerDayOffsetFormula": "",
                "preparedOffsetFormula": "",
                "max": 0,
                "value": 0
              },
              "spell2": {
                "castPerDayOffsetFormula": "",
                "preparedOffsetFormula": "",
                "max": 0,
                "value": 0
              },
              "spell3": {
                "castPerDayOffsetFormula": "",
                "preparedOffsetFormula": "",
                "max": 0,
                "value": 0
              },
              "spell4": {
                "castPerDayOffsetFormula": "",
                "preparedOffsetFormula": "",
                "max": 0,
                "value": 0
              },
              "spell5": {
                "castPerDayOffsetFormula": "",
                "preparedOffsetFormula": "",
                "max": 0,
                "value": 0
              },
              "spell6": {
                "castPerDayOffsetFormula": "",
                "preparedOffsetFormula": "",
                "max": 0,
                "value": 0
              },
              "spell7": {
                "castPerDayOffsetFormula": "",
                "preparedOffsetFormula": "",
                "max": 0,
                "value": 0
              },
              "spell8": {
                "castPerDayOffsetFormula": "",
                "preparedOffsetFormula": "",
                "max": 0,
                "value": 0
              },
              "spell9": {
                "castPerDayOffsetFormula": "",
                "preparedOffsetFormula": "",
                "max": 0,
                "value": 0
              }
            },
            "spellSlotAbilityBonusFormula": "",
            "domainSlotValue": 1,
            "altName": "",
            "range": {
              "close": 25,
              "medium": 100,
              "long": 400
            }
          },
          "tertiary": {
            "name": "Tertiary",
            "castPerDayAllOffsetFormula": "",
            "preparedAllOffsetFormula": "",
            "casterType": "high",
            "class": "",
            "cl": {
              "formula": "",
              "base": 0,
              "value": 0,
              "total": 0
            },
            "concentrationFormula": "",
            "concentrationNotes": "",
            "clNotes": "",
            "ability": "int",
            "autoSpellLevelCalculation": true,
            "autoSpellLevels": true,
            "psychic": false,
            "arcaneSpellFailure": true,
            "hasCantrips": true,
            "spellPreparationMode": "spontaneous",
            "baseDCFormula": "10 + @sl + @ablMod",
            "spontaneous": false,
            "spellPoints": {
              "useSystem": false,
              "value": 0,
              "maxFormula": "",
              "restoreFormula": "",
              "max": 0
            },
            "spells": {
              "spell0": {
                "castPerDayOffsetFormula": "",
                "preparedOffsetFormula": "",
                "max": 0,
                "value": 0
              },
              "spell1": {
                "castPerDayOffsetFormula": "",
                "preparedOffsetFormula": "",
                "max": 0,
                "value": 0
              },
              "spell2": {
                "castPerDayOffsetFormula": "",
                "preparedOffsetFormula": "",
                "max": 0,
                "value": 0
              },
              "spell3": {
                "castPerDayOffsetFormula": "",
                "preparedOffsetFormula": "",
                "max": 0,
                "value": 0
              },
              "spell4": {
                "castPerDayOffsetFormula": "",
                "preparedOffsetFormula": "",
                "max": 0,
                "value": 0
              },
              "spell5": {
                "castPerDayOffsetFormula": "",
                "preparedOffsetFormula": "",
                "max": 0,
                "value": 0
              },
              "spell6": {
                "castPerDayOffsetFormula": "",
                "preparedOffsetFormula": "",
                "max": 0,
                "value": 0
              },
              "spell7": {
                "castPerDayOffsetFormula": "",
                "preparedOffsetFormula": "",
                "max": 0,
                "value": 0
              },
              "spell8": {
                "castPerDayOffsetFormula": "",
                "preparedOffsetFormula": "",
                "max": 0,
                "value": 0
              },
              "spell9": {
                "castPerDayOffsetFormula": "",
                "preparedOffsetFormula": "",
                "max": 0,
                "value": 0
              }
            },
            "spellSlotAbilityBonusFormula": "",
            "domainSlotValue": 1,
            "altName": "",
            "range": {
              "close": 25,
              "medium": 100,
              "long": 400
            }
          },
          "spelllike": {
            "name": "Spell-likes",
            "castPerDayAllOffsetFormula": "",
            "preparedAllOffsetFormula": "",
            "casterType": "high",
            "class": "_hd",
            "cl": {
              "formula": "",
              "base": 0,
              "value": 0,
              "total": 0
            },
            "concentrationFormula": "",
            "concentrationNotes": "",
            "clNotes": "",
            "ability": "cha",
            "autoSpellLevelCalculation": true,
            "autoSpellLevels": true,
            "psychic": false,
            "arcaneSpellFailure": true,
            "hasCantrips": true,
            "spellPreparationMode": "spontaneous",
            "baseDCFormula": "10 + @sl + @ablMod",
            "spontaneous": false,
            "spellPoints": {
              "useSystem": false,
              "value": 0,
              "maxFormula": "",
              "restoreFormula": "",
              "max": 0
            },
            "spells": {
              "spell0": {
                "castPerDayOffsetFormula": "",
                "preparedOffsetFormula": "",
                "max": 0,
                "value": 0
              },
              "spell1": {
                "castPerDayOffsetFormula": "",
                "preparedOffsetFormula": "",
                "max": 0,
                "value": 0
              },
              "spell2": {
                "castPerDayOffsetFormula": "",
                "preparedOffsetFormula": "",
                "max": 0,
                "value": 0
              },
              "spell3": {
                "castPerDayOffsetFormula": "",
                "preparedOffsetFormula": "",
                "max": 0,
                "value": 0
              },
              "spell4": {
                "castPerDayOffsetFormula": "",
                "preparedOffsetFormula": "",
                "max": 0,
                "value": 0
              },
              "spell5": {
                "castPerDayOffsetFormula": "",
                "preparedOffsetFormula": "",
                "max": 0,
                "value": 0
              },
              "spell6": {
                "castPerDayOffsetFormula": "",
                "preparedOffsetFormula": "",
                "max": 0,
                "value": 0
              },
              "spell7": {
                "castPerDayOffsetFormula": "",
                "preparedOffsetFormula": "",
                "max": 0,
                "value": 0
              },
              "spell8": {
                "castPerDayOffsetFormula": "",
                "preparedOffsetFormula": "",
                "max": 0,
                "value": 0
              },
              "spell9": {
                "castPerDayOffsetFormula": "",
                "preparedOffsetFormula": "",
                "max": 0,
                "value": 0
              }
            },
            "spellSlotAbilityBonusFormula": "",
            "domainSlotValue": 1,
            "altName": "",
            "range": {
              "close": 25,
              "medium": 100,
              "long": 400
            }
          }
        }
      },
      "encumbrance": {
        "levels": {}
      },
      "hd": {
        "total": 0,
        "max": {
          "_deprecated": true,
          "value": 0
        }
      },
      "bab": {
        "value": 0,
        "total": 0
      },
      "cmb": {
        "value": 0
      },
      "damage": {
        "general": 0,
        "weapon": 0,
        "spell": 0,
        "shared": 0
      },
      "maxDexBonus": null,
      "mDex": {
        "armorBonus": 0,
        "shieldBonus": 0
      },
      "acp": {
        "gear": 0,
        "encumbrance": 0,
        "total": 0,
        "armorBonus": 0,
        "shieldBonus": 0,
        "attackPenalty": 0
      },
      "woundThresholds": {
        "penalty": 0,
        "mod": 0,
        "level": 0,
        "override": -1,
        "penaltyBase": 0
      },
      "prof": 2,
      "spellcasting": {
        "_deprecated": true
      },
      "spelldc": {
        "_deprecated": true
      },
      "spellLevel": 0,
      "mods": {
        "skills": {}
      }
    },
    "details": {
      "level": {
        "value": 0,
        "min": 0,
        "max": 40
      },
      "bonusFeatFormula": "",
      "alignment": "tn",
      "biography": {
        "value": "",
        "public": ""
      },
      "notes": {
        "value": "\n        <div class=\"statblockContainer\" style=\"margin-top: 15px\"><div style=\"width: 100%; background-color: #ffe9c7; box-shadow: 0 4px 8px 0 rgba(0, 0, 0, 0.2), 0 6px 20px 0 rgba(0, 0, 0, 0.19); columns: 2 150px\">\r\n    <hr style=\"margin-left: 0; margin-top:-2px; width: 100%; height: 4px; background-color: #e0a100; border: 1px solid #000; column-span: all;\" />\r\n    <div style=\"padding: 5px;\">\r\n        <h1 style=\"border: none; font-family: 'Nodesto', 'Signika', 'Palatino Linotype', serif; color: #7a0800;\">Suture Vine CR 1/3 </h1>\r\n        \r\n        <!-- BASE -->\r\n        <hr style=\"margin-left: 0; width: 275px; height: 0; border-style: solid; border-width: 2px 0 2px 275px; border-color: transparent transparent transparent #7a0800;\" />\r\n        <div style=\"break-inside: avoid;\">\r\n            <strong>Source: </strong>Ultimate Wilderness pg. 207<br/>\r\n            <strong>XP 135</strong><br/>\r\n            \r\n            \r\n            \r\n            \r\n            \r\n            N \r\n            Tiny \r\n            Plant <br/>\r\n            <strong>Init</strong> 1;\r\n            <strong>Senses</strong> low-light vision, blood sense; Perception +1; \r\n            \r\n        </div>\r\n        <div style=\"break-inside: avoid;\">\r\n            <h4 style=\"border: none; text-transform: uppercase; color: #7a0800; padding-top:6px;\">Defense</h4>\r\n            <hr style=\"margin-left: 0; width: 275px; height: 0; border-style: solid; border-width: 2px 0 2px 275px; border-color: transparent transparent transparent #7a0800;\" />\r\n            <strong>AC</strong> 13, <strong>Touch</strong> 13, <strong>Flat-Footed</strong> 12 (+1 Dex, +2 size)<br/>\r\n            <strong>Hit Points</strong> 4 (1 HD; 1d8)<br/>\r\n            <strong>Fort</strong> 2, <strong>Ref</strong> 1, <strong>Will</strong> 1\r\n            \r\n            \r\n            <strong>Immune</strong> plant traits; \r\n            \r\n            \r\n            \r\n            \r\n        </div>\r\n        <div>\r\n            <div style=\"break-inside: avoid;\">\r\n                <h4 style=\"border: none; text-transform: uppercase; color: #7a0800; padding-top:6px;\">Offense</h4>\r\n                <hr style=\"margin-left: 0; width: 275px; height: 0; border-style: solid; border-width: 2px 0 2px 275px; border-color: transparent transparent transparent #7a0800;\" />\r\n                <strong>Speed</strong> 15 ft.<br/>\r\n                <strong>Melee</strong> vine +3 (1d2-4)<br/>\r\n                \r\n                \r\n                \r\n                \r\n            </div>\r\n        </div>\r\n        <!-- SPELLCASTING -->\r\n                \r\n        <!-- TACTICS -->\r\n                \r\n                \r\n                \r\n                \r\n        <!-- STATISTICS -->\r\n        <div style=\"break-inside: avoid;\">\r\n            <h4 style=\"border: none; text-transform: uppercase; color: #7a0800; padding-top:6px;\">Statistics</h4>\r\n            <hr style=\"margin-left: 0; width: 275px; height: 0; border-style: solid; border-width: 2px 0 2px 275px; border-color: transparent transparent transparent #7a0800;\" />\r\n            <strong>Str</strong> 3, <strong>Dex</strong> 12, <strong>Con</strong> 10, <strong>Int</strong> 0, <strong>Wis</strong> 13, <strong>Cha</strong> 5<br/>\r\n            <strong>Base Atk</strong> +0; <strong>CMB</strong> +-1; <strong>CMD</strong> 5<br/>\r\n            <strong>Feats</strong> Weapon FinesseB<br/>\r\n            <strong>Skills</strong> Climb +4<br/>\r\n            <strong>Languages</strong> <br/>\r\n            \r\n            \r\n            \r\n            \r\n        </div>\r\n        <!-- ECOLOGY -->\r\n            <div style='break-inside: avoid;'>\r\n                <h4 style='border: none; text-transform: uppercase; color: #7a0800; padding-top:6px;'>Ecology</h4><hr style='margin-left: 0; width: 275px; height: 0; border-style: solid; border-width: 2px 0 2px 275px; border-color: transparent transparent transparent #7a0800;' />\r\n                <strong>Environment:</strong>  temperate forests<br/>\r\n                <strong>Organization:</strong>  solitary, pair, or clinic (3-5)<br/>\r\n                <strong>Treasure:</strong>  none<br/>\r\n            </div>\r\n        <!-- SPECIAL ABILITIES -->\r\n            <div style='break-inside: avoid;'>\r\n                <h4 style='border: none; text-transform: uppercase; color: #7a0800; padding-top:6px;'>Special Abilities</h4><hr style='margin-left: 0; width: 275px; height: 0; border-style: solid; border-width: 2px 0 2px 275px; border-color: transparent transparent transparent #7a0800;' />\r\n                <div style='white-space: pre-wrap;'>Blood Sense (ex): A suture vine can sense badly wounded creatures, including those at less than half their normal hit point total or suffering from bleed damage, as if it had the scent ability.\n\nSeal Wound (ex): A suture vine instinctively latches on to a creature that suffers from bleed damage or is at less than half its normal hit point total. When it attempts to seal wounds in this way, it must make a normal vine attack but gains attach as per the universal monster rule. If it successfully attaches to the target (dealing damage as normal), any bleed damage currently suffered by the target immediately ends. The suture vine remains attached for 24 hours, gaining nutrients from sipping at the victim&#x27;s blood but never enough to cause any further damage. The vine drops off automatically once a target has no hit point damage or 24 hours have passed, whichever comes first. A suture vine can seal wounds in this manner only once per day.\n\nVine (ex): A suture vine&#x27;s vine attack is a primary natural attack that deals piercing and slashing damage.</div>\r\n            </div>\r\n        \r\n        <!-- DESCRIPTION -->\r\n            <div style='break-inside: avoid;'>\r\n                <h4 style='border: none; text-transform: uppercase; color: #7a0800; padding-top:6px;'>Description</h4><hr style='margin-left: 0; width: 275px; height: 0; border-style: solid; border-width: 2px 0 2px 275px; border-color: transparent transparent transparent #7a0800;' />\r\n        <div style=\"white-space: pre-wrap\">Suture vines are thorny, symbiotic organisms that snag rides on wounded animals, seek out open wounds, and knit those injuries closed-all while absorbing fairly harmless amounts of blood. Local animals often recognize suture vines, both avoiding them as food and seeking them out when wounded. A suture vine that goes without feeding for a week or more sometimes resorts to ambushing small prey.\n</div>\r\n                    \r\n    </div>\r\n    <hr style=\"margin-left: 0; margin-bottom: -3px; width: 100%; height: 4px; background-color: #e0a100; border: 1px solid #000; column-span: all;\" />\r\n</div></div>\n    \n        <br>\n        <hr>\n        <div class=\"rawInputContainer\" style=\"margin-top: 15px;\">\n            <h2 style=\"text-align:middle; border: none; text-transform: uppercase; color: #000;\">RAW INPUT</h2>\n            <hr>\n            <pre style=\"white-space: pre-wrap; font-size: 10px;\">Suture Vine CR 1/3\nSource Ultimate Wilderness pg. 207\nXP 135\nN Tiny plant\nInit +1; Senses low-light vision, blood sense; Perception +1\nDefense\nAC 13, touch 13, flat-footed 12 (+1 Dex, +2 size)\nhp 4 (1d8)\nFort +2, Ref +1, Will +1\nImmune plant traits\nOffense\nSpeed 15 ft., climb 15 ft.\nMelee vine +3 (1d2-4)\nSpace 2-1/2 ft., Reach 0 ft.\nStatistics\nStr 3, Dex 12, Con 10, Int -, Wis 13, Cha 5\nBase Atk +0; CMB -1; CMD 5\nFeats Weapon FinesseB\nSkills Climb +4\nSQ seal wound\nEcology\nEnvironment temperate forests\nOrganization solitary, pair, or clinic (3-5)\nTreasure none\nSpecial Abilities\nBlood Sense (Ex) A suture vine can sense badly wounded creatures, including those at less than half their normal hit point total or suffering from bleed damage, as if it had the scent ability.\n\nSeal Wound (Ex) A suture vine instinctively latches on to a creature that suffers from bleed damage or is at less than half its normal hit point total. When it attempts to seal wounds in this way, it must make a normal vine attack but gains attach as per the universal monster rule. If it successfully attaches to the target (dealing damage as normal), any bleed damage currently suffered by the target immediately ends. The suture vine remains attached for 24 hours, gaining nutrients from sipping at the victim's blood but never enough to cause any further damage. The vine drops off automatically once a target has no hit point damage or 24 hours have passed, whichever comes first. A suture vine can seal wounds in this manner only once per day.\n\nVine (Ex) A suture vine's vine attack is a primary natural attack that deals piercing and slashing damage.\nDescription\nSuture vines are thorny, symbiotic organisms that snag rides on wounded animals, seek out open wounds, and knit those injuries closed-all while absorbing fairly harmless amounts of blood. Local animals often recognize suture vines, both avoiding them as food and seeking them out when wounded. A suture vine that goes without feeding for a week or more sometimes resorts to ambushing small prey.</pre>\n        </div>\n    ",
        "public": ""
      },
      "bonusSkillRankFormula": "",
      "tooltip": {
        "name": "",
        "hideHeld": false,
        "hideArmor": false,
        "hideBuffs": false,
        "hideConditions": false,
        "hideClothing": false,
        "hideName": false
      },
      "carryCapacity": {
        "bonus": {
          "user": 0
        },
        "multiplier": {
          "base": 1,
          "user": 0
        }
      },
      "cr": {
        "base": 0.3375
      },
      "mythicTier": 0,
      "type": "",
      "environment": "",
      "xp": {
        "value": 400
      }
    },
    "skills": {
      "acr": {
        "ability": "dex",
        "rt": false,
        "acp": true,
        "rank": 0,
        "value": 0,
        "mod": 0,
        "background": false,
        "cs": false
      },
      "apr": {
        "ability": "int",
        "rt": false,
        "acp": false,
        "rank": 0,
        "value": 0,
        "mod": 0,
        "background": true,
        "cs": false
      },
      "art": {
        "ability": "int",
        "rt": false,
        "acp": false,
        "rank": 0,
        "value": 0,
        "mod": 0,
        "background": true,
        "cs": false,
        "subSkills": {}
      },
      "blf": {
        "ability": "cha",
        "rt": false,
        "acp": false,
        "rank": 0,
        "value": 0,
        "mod": 0,
        "background": false,
        "cs": false
      },
      "clm": {
        "ability": "str",
        "rt": false,
        "acp": true,
        "rank": 8,
        "value": 0,
        "mod": 0,
        "background": false,
        "cs": false
      },
      "crf": {
        "ability": "int",
        "rt": false,
        "acp": false,
        "rank": 0,
        "value": 0,
        "mod": 0,
        "background": true,
        "cs": false,
        "subSkills": {}
      },
      "dip": {
        "ability": "cha",
        "rt": false,
        "acp": false,
        "rank": 0,
        "value": 0,
        "mod": 0,
        "background": false,
        "cs": false
      },
      "dev": {
        "ability": "dex",
        "rt": true,
        "acp": true,
        "rank": 0,
        "value": 0,
        "mod": 0,
        "background": false,
        "cs": false
      },
      "dis": {
        "ability": "cha",
        "rt": false,
        "acp": false,
        "rank": 0,
        "value": 0,
        "mod": 0,
        "background": false,
        "cs": false
      },
      "esc": {
        "ability": "dex",
        "rt": false,
        "acp": true,
        "rank": 0,
        "value": 0,
        "mod": 0,
        "background": false,
        "cs": false
      },
      "fly": {
        "ability": "dex",
        "rt": false,
        "acp": true,
        "rank": 0,
        "value": 0,
        "mod": 0,
        "background": false,
        "cs": false
      },
      "han": {
        "ability": "cha",
        "rt": true,
        "acp": false,
        "rank": 0,
        "value": 0,
        "mod": 0,
        "background": true,
        "cs": false
      },
      "hea": {
        "ability": "wis",
        "rt": false,
        "acp": false,
        "rank": 0,
        "value": 0,
        "mod": 0,
        "background": false,
        "cs": false
      },
      "int": {
        "ability": "cha",
        "rt": false,
        "acp": false,
        "rank": 0,
        "value": 0,
        "mod": 0,
        "background": false,
        "cs": false
      },
      "kar": {
        "ability": "int",
        "rt": true,
        "acp": false,
        "rank": 0,
        "value": 0,
        "mod": 0,
        "background": false,
        "cs": false
      },
      "kdu": {
        "ability": "int",
        "rt": true,
        "acp": false,
        "rank": 0,
        "value": 0,
        "mod": 0,
        "background": false,
        "cs": false
      },
      "ken": {
        "ability": "int",
        "rt": true,
        "acp": false,
        "rank": 0,
        "value": 0,
        "mod": 0,
        "background": true,
        "cs": false
      },
      "kge": {
        "ability": "int",
        "rt": true,
        "acp": false,
        "rank": 0,
        "value": 0,
        "mod": 0,
        "background": true,
        "cs": false
      },
      "khi": {
        "ability": "int",
        "rt": true,
        "acp": false,
        "rank": 0,
        "value": 0,
        "mod": 0,
        "background": true,
        "cs": false
      },
      "klo": {
        "ability": "int",
        "rt": true,
        "acp": false,
        "rank": 0,
        "value": 0,
        "mod": 0,
        "background": false,
        "cs": false
      },
      "kna": {
        "ability": "int",
        "rt": true,
        "acp": false,
        "rank": 0,
        "value": 0,
        "mod": 0,
        "background": false,
        "cs": false
      },
      "kno": {
        "ability": "int",
        "rt": true,
        "acp": false,
        "rank": 0,
        "value": 0,
        "mod": 0,
        "background": true,
        "cs": false
      },
      "kpl": {
        "ability": "int",
        "rt": true,
        "acp": false,
        "rank": 0,
        "value": 0,
        "mod": 0,
        "background": false,
        "cs": false
      },
      "kre": {
        "ability": "int",
        "rt": true,
        "acp": false,
        "rank": 0,
        "value": 0,
        "mod": 0,
        "background": false,
        "cs": false
      },
      "lin": {
        "ability": "int",
        "rt": true,
        "acp": false,
        "rank": 0,
        "value": 0,
        "mod": 0,
        "background": true,
        "cs": false
      },
      "lor": {
        "ability": "int",
        "rt": true,
        "acp": false,
        "rank": 0,
        "value": 0,
        "mod": 0,
        "background": true,
        "cs": false,
        "subSkills": {}
      },
      "per": {
        "ability": "wis",
        "rt": false,
        "acp": false,
        "rank": 0,
        "value": 0,
        "mod": 0,
        "background": false,
        "cs": false
      },
      "prf": {
        "ability": "cha",
        "rt": false,
        "acp": false,
        "rank": 0,
        "value": 0,
        "mod": 0,
        "background": true,
        "cs": false,
        "subSkills": {}
      },
      "pro": {
        "ability": "wis",
        "rt": true,
        "acp": false,
        "rank": 0,
        "value": 0,
        "mod": 0,
        "background": true,
        "cs": false,
        "subSkills": {}
      },
      "rid": {
        "ability": "dex",
        "rt": false,
        "acp": true,
        "rank": 0,
        "value": 0,
        "mod": 0,
        "background": false,
        "cs": false
      },
      "sen": {
        "ability": "wis",
        "rt": false,
        "acp": false,
        "rank": 0,
        "value": 0,
        "mod": 0,
        "background": false,
        "cs": false
      },
      "slt": {
        "ability": "dex",
        "rt": true,
        "acp": true,
        "rank": 0,
        "value": 0,
        "mod": 0,
        "background": true,
        "cs": false
      },
      "spl": {
        "ability": "int",
        "rt": true,
        "acp": false,
        "rank": 0,
        "value": 0,
        "mod": 0,
        "background": false,
        "cs": false
      },
      "ste": {
        "ability": "dex",
        "rt": false,
        "acp": true,
        "rank": 0,
        "value": 0,
        "mod": 0,
        "background": false,
        "cs": false
      },
      "sur": {
        "ability": "wis",
        "rt": false,
        "acp": false,
        "rank": 0,
        "value": 0,
        "mod": 0,
        "background": false,
        "cs": false
      },
      "swm": {
        "ability": "str",
        "rt": false,
        "acp": true,
        "rank": 0,
        "value": 0,
        "mod": 0,
        "background": false,
        "cs": false
      },
      "umd": {
        "ability": "cha",
        "rt": true,
        "acp": false,
        "rank": 0,
        "value": 0,
        "mod": 0,
        "background": false,
        "cs": false
      }
    },
    "traits": {
      "size": "tiny",
      "senses": {
        "dv": 0,
        "ts": 0,
        "bs": 0,
        "bse": 0,
        "ll": {
          "enabled": false,
          "multiplier": {
            "dim": 2,
            "bright": 2
          }
        },
        "sid": false,
        "tr": false,
        "si": false,
        "sc": 0,
        "custom": "low-light vision, blood sense; Perception +1"
      },
      "dr": {
        "value": [],
        "custom": ""
      },
      "eres": {
        "value": [],
        "custom": ""
      },
      "cres": "",
      "regen": "",
      "fastHealing": "",
      "languages": {
        "value": [],
        "custom": ""
      },
      "di": {
        "value": [],
        "custom": ""
      },
      "dv": {
        "value": [],
        "custom": ""
      },
      "ci": {
        "value": [],
        "custom": "Plant Traits;"
      },
      "stature": "tall",
      "perception": {
        "_deprecated": true
      }
    },
    "currency": {
      "pp": 0,
      "gp": 0,
      "sp": 0,
      "cp": 0
    },
    "altCurrency": {
      "pp": 0,
      "gp": 0,
      "sp": 0,
      "cp": 0
    },
    "combat": {
      "round": 0
    }
  },
  "prototypeToken": {
    "flags": {
      "pf1": {}
    },
    "name": "Suture Vine",
    "displayName": 20,
    "width": 1,
    "height": 1,
    "lockRotation": false,
    "rotation": 0,
    "actorLink": false,
    "disposition": -1,
    "displayBars": 20,
    "bar1": {
      "attribute": null
    },
    "bar2": {
      "attribute": null
    },
    "randomImg": false,
    "alpha": 1,
    "light": {
      "alpha": 1,
      "angle": 360,
      "bright": 0,
      "coloration": 1,
      "dim": 0,
      "luminosity": 0.5,
      "saturation": 0,
      "contrast": 0,
      "shadows": 0,
      "animation": {
        "speed": 5,
        "intensity": 5,
        "type": null,
        "reverse": false
      },
      "darkness": {
        "min": 0,
        "max": 1
      },
      "attenuation": 0.5,
      "color": null
    },
    "texture": {
      "src": "icons/svg/mystery-man.svg",
      "tint": null,
      "scaleX": 0.6,
      "scaleY": 0.6,
      "offsetX": 0,
      "offsetY": 0,
      "rotation": 0
    },
    "sight": {
      "angle": 360,
      "enabled": false,
      "range": 0,
      "brightness": 1,
      "visionMode": "basic",
      "color": null,
      "attenuation": 0.1,
      "saturation": 0,
      "contrast": 0
    },
    "detectionModes": []
  },
  "ownership": {
    "default": 0
  },
  "_stats": {
    "systemId": "pf1",
    "systemVersion": "9.1",
    "coreVersion": "10.291",
    "createdTime": 1665428322647,
    "modifiedTime": 1689796073687,
    "lastModifiedBy": "ppv91YxratjWnkJi"
  },
  "effects": [],
  "folder": null,
  "sort": 0,
  "flags": {},
  "_key": "!actors!2xvqEFlPFpwgs5Gz"
}