{
  "_id": "xvKY7HSPrB0p7v9j",
  "name": "Wysp, Fire",
  "type": "npc",
  "img": "icons/svg/mystery-man.svg",
  "items": [
    "cV7yHt8i5YCV0ZTd",
    "WuuO0rxG2NlQLfQX",
    "OPZSZS5WobuTjGPw",
    "529lFFxkbLZPhsZJ",
    "Uuiu3p982omhMEPj",
    "vWiTqHC4Y3Xn1Pme",
    "8LOkTfQ6HKY8m4UP",
    "nk9r7xReyTgWooR3",
    "GGPbGwaKwAuUiaiP",
    "7LMSEBQtDfA27t0f"
  ],
  "system": {
    "abilities": {
      "str": {
        "value": 10,
        "damage": 0,
        "drain": 0,
        "userPenalty": 0,
        "carryBonus": 0,
        "carryMultiplier": 1,
        "total": 10,
        "mod": 0,
        "checkMod": 0,
        "penalty": 0,
        "base": 10,
        "baseMod": 0
      },
      "dex": {
        "value": 15,
        "damage": 0,
        "drain": 0,
        "userPenalty": 0,
        "total": 15,
        "mod": 2,
        "checkMod": 0,
        "penalty": 0,
        "base": 10,
        "baseMod": 0
      },
      "con": {
        "value": 12,
        "damage": 0,
        "drain": 0,
        "userPenalty": 0,
        "total": 12,
        "mod": 1,
        "checkMod": 0,
        "penalty": 0,
        "base": 10,
        "baseMod": 0
      },
      "int": {
        "value": 10,
        "damage": 0,
        "drain": 0,
        "userPenalty": 0,
        "total": 10,
        "mod": 0,
        "checkMod": 0,
        "penalty": 0,
        "base": 10,
        "baseMod": 0
      },
      "wis": {
        "value": 13,
        "damage": 0,
        "drain": 0,
        "userPenalty": 0,
        "total": 13,
        "mod": 1,
        "checkMod": 0,
        "penalty": 0,
        "base": 10,
        "baseMod": 0
      },
      "cha": {
        "value": 13,
        "damage": 0,
        "drain": 0,
        "userPenalty": 0,
        "total": 13,
        "mod": 1,
        "checkMod": 0,
        "penalty": 0,
        "base": 10,
        "baseMod": 0
      }
    },
    "attributes": {
      "hpAbility": "con",
      "cmbAbility": "str",
      "naturalAC": 0,
      "ac": {
        "normal": {
          "ability": "dex",
          "value": 0
        },
        "touch": {
          "ability": "dex",
          "value": 0
        },
        "flatFooted": {
          "value": 0
        }
      },
      "cmd": {
        "strAbility": "str",
        "dexAbility": "dex",
        "value": 0
      },
      "sr": {
        "formula": ""
      },
      "clCheck": false,
      "saveNotes": "",
      "acNotes": "",
      "cmdNotes": "can't be tripped",
      "srNotes": "",
      "attack": {
        "meleeAbility": "str",
        "rangedAbility": "dex",
        "general": 0,
        "shared": 0,
        "melee": 0,
        "ranged": 0
      },
      "energyDrain": 0,
      "quadruped": false,
      "savingThrows": {
        "fort": {
          "base": 0,
          "ability": "con",
          "total": 0
        },
        "ref": {
          "base": 0,
          "ability": "dex",
          "total": 0
        },
        "will": {
          "base": 0,
          "ability": "wis",
          "total": 0
        }
      },
      "hp": {
        "value": 19,
        "base": 0,
        "temp": 0,
        "nonlethal": 0,
        "max": 0,
        "offset": 0
      },
      "wounds": {
        "min": 0,
        "base": 0,
        "value": 0,
        "max": 10,
        "offset": 0
      },
      "vigor": {
        "min": 0,
        "value": 0,
        "temp": 0,
        "base": 0,
        "max": 0,
        "offset": 0
      },
      "init": {
        "value": 0,
        "ability": "dex",
        "bonus": 0
      },
      "speed": {
        "land": {
          "base": 60
        },
        "climb": {
          "base": 0
        },
        "swim": {
          "base": 0
        },
        "burrow": {
          "base": 0
        },
        "fly": {
          "base": 20,
          "maneuverability": "poor"
        }
      },
      "conditions": {
        "bleed": false,
        "blind": false,
        "confused": false,
        "dazed": false,
        "dazzled": false,
        "deaf": false,
        "entangled": false,
        "fatigued": false,
        "frightened": false,
        "exhausted": false,
        "grappled": false,
        "helpless": false,
        "incorporeal": false,
        "invisible": false,
        "nauseated": false,
        "panicked": false,
        "paralyzed": false,
        "pinned": false,
        "prone": false,
        "shaken": false,
        "sickened": false,
        "staggered": false,
        "stunned": false
      },
      "spells": {
        "spellbooks": {
          "primary": {
            "name": "Primary",
            "castPerDayAllOffsetFormula": "",
            "preparedAllOffsetFormula": "",
            "casterType": "high",
            "class": "",
            "cl": {
              "formula": "",
              "base": 0,
              "value": 0,
              "total": 0
            },
            "concentrationFormula": "",
            "concentrationNotes": "",
            "clNotes": "",
            "ability": "int",
            "autoSpellLevelCalculation": true,
            "autoSpellLevels": true,
            "psychic": false,
            "arcaneSpellFailure": true,
            "hasCantrips": true,
            "spellPreparationMode": "spontaneous",
            "baseDCFormula": "10 + @sl + @ablMod",
            "spontaneous": false,
            "spellPoints": {
              "useSystem": false,
              "value": 0,
              "maxFormula": "",
              "restoreFormula": "",
              "max": 0
            },
            "spells": {
              "spell0": {
                "castPerDayOffsetFormula": "",
                "preparedOffsetFormula": "",
                "max": 0,
                "value": 0
              },
              "spell1": {
                "castPerDayOffsetFormula": "",
                "preparedOffsetFormula": "",
                "max": 0,
                "value": 0
              },
              "spell2": {
                "castPerDayOffsetFormula": "",
                "preparedOffsetFormula": "",
                "max": 0,
                "value": 0
              },
              "spell3": {
                "castPerDayOffsetFormula": "",
                "preparedOffsetFormula": "",
                "max": 0,
                "value": 0
              },
              "spell4": {
                "castPerDayOffsetFormula": "",
                "preparedOffsetFormula": "",
                "max": 0,
                "value": 0
              },
              "spell5": {
                "castPerDayOffsetFormula": "",
                "preparedOffsetFormula": "",
                "max": 0,
                "value": 0
              },
              "spell6": {
                "castPerDayOffsetFormula": "",
                "preparedOffsetFormula": "",
                "max": 0,
                "value": 0
              },
              "spell7": {
                "castPerDayOffsetFormula": "",
                "preparedOffsetFormula": "",
                "max": 0,
                "value": 0
              },
              "spell8": {
                "castPerDayOffsetFormula": "",
                "preparedOffsetFormula": "",
                "max": 0,
                "value": 0
              },
              "spell9": {
                "castPerDayOffsetFormula": "",
                "preparedOffsetFormula": "",
                "max": 0,
                "value": 0
              }
            },
            "spellSlotAbilityBonusFormula": "",
            "domainSlotValue": 1,
            "altName": "",
            "range": {
              "close": 25,
              "medium": 100,
              "long": 400
            }
          },
          "secondary": {
            "name": "Secondary",
            "castPerDayAllOffsetFormula": "",
            "preparedAllOffsetFormula": "",
            "casterType": "high",
            "class": "",
            "cl": {
              "formula": "",
              "base": 0,
              "value": 0,
              "total": 0
            },
            "concentrationFormula": "",
            "concentrationNotes": "",
            "clNotes": "",
            "ability": "int",
            "autoSpellLevelCalculation": true,
            "autoSpellLevels": true,
            "psychic": false,
            "arcaneSpellFailure": true,
            "hasCantrips": true,
            "spellPreparationMode": "spontaneous",
            "baseDCFormula": "10 + @sl + @ablMod",
            "spontaneous": false,
            "spellPoints": {
              "useSystem": false,
              "value": 0,
              "maxFormula": "",
              "restoreFormula": "",
              "max": 0
            },
            "spells": {
              "spell0": {
                "castPerDayOffsetFormula": "",
                "preparedOffsetFormula": "",
                "max": 0,
                "value": 0
              },
              "spell1": {
                "castPerDayOffsetFormula": "",
                "preparedOffsetFormula": "",
                "max": 0,
                "value": 0
              },
              "spell2": {
                "castPerDayOffsetFormula": "",
                "preparedOffsetFormula": "",
                "max": 0,
                "value": 0
              },
              "spell3": {
                "castPerDayOffsetFormula": "",
                "preparedOffsetFormula": "",
                "max": 0,
                "value": 0
              },
              "spell4": {
                "castPerDayOffsetFormula": "",
                "preparedOffsetFormula": "",
                "max": 0,
                "value": 0
              },
              "spell5": {
                "castPerDayOffsetFormula": "",
                "preparedOffsetFormula": "",
                "max": 0,
                "value": 0
              },
              "spell6": {
                "castPerDayOffsetFormula": "",
                "preparedOffsetFormula": "",
                "max": 0,
                "value": 0
              },
              "spell7": {
                "castPerDayOffsetFormula": "",
                "preparedOffsetFormula": "",
                "max": 0,
                "value": 0
              },
              "spell8": {
                "castPerDayOffsetFormula": "",
                "preparedOffsetFormula": "",
                "max": 0,
                "value": 0
              },
              "spell9": {
                "castPerDayOffsetFormula": "",
                "preparedOffsetFormula": "",
                "max": 0,
                "value": 0
              }
            },
            "spellSlotAbilityBonusFormula": "",
            "domainSlotValue": 1,
            "altName": "",
            "range": {
              "close": 25,
              "medium": 100,
              "long": 400
            }
          },
          "tertiary": {
            "name": "Tertiary",
            "castPerDayAllOffsetFormula": "",
            "preparedAllOffsetFormula": "",
            "casterType": "high",
            "class": "",
            "cl": {
              "formula": "",
              "base": 0,
              "value": 0,
              "total": 0
            },
            "concentrationFormula": "",
            "concentrationNotes": "",
            "clNotes": "",
            "ability": "int",
            "autoSpellLevelCalculation": true,
            "autoSpellLevels": true,
            "psychic": false,
            "arcaneSpellFailure": true,
            "hasCantrips": true,
            "spellPreparationMode": "spontaneous",
            "baseDCFormula": "10 + @sl + @ablMod",
            "spontaneous": false,
            "spellPoints": {
              "useSystem": false,
              "value": 0,
              "maxFormula": "",
              "restoreFormula": "",
              "max": 0
            },
            "spells": {
              "spell0": {
                "castPerDayOffsetFormula": "",
                "preparedOffsetFormula": "",
                "max": 0,
                "value": 0
              },
              "spell1": {
                "castPerDayOffsetFormula": "",
                "preparedOffsetFormula": "",
                "max": 0,
                "value": 0
              },
              "spell2": {
                "castPerDayOffsetFormula": "",
                "preparedOffsetFormula": "",
                "max": 0,
                "value": 0
              },
              "spell3": {
                "castPerDayOffsetFormula": "",
                "preparedOffsetFormula": "",
                "max": 0,
                "value": 0
              },
              "spell4": {
                "castPerDayOffsetFormula": "",
                "preparedOffsetFormula": "",
                "max": 0,
                "value": 0
              },
              "spell5": {
                "castPerDayOffsetFormula": "",
                "preparedOffsetFormula": "",
                "max": 0,
                "value": 0
              },
              "spell6": {
                "castPerDayOffsetFormula": "",
                "preparedOffsetFormula": "",
                "max": 0,
                "value": 0
              },
              "spell7": {
                "castPerDayOffsetFormula": "",
                "preparedOffsetFormula": "",
                "max": 0,
                "value": 0
              },
              "spell8": {
                "castPerDayOffsetFormula": "",
                "preparedOffsetFormula": "",
                "max": 0,
                "value": 0
              },
              "spell9": {
                "castPerDayOffsetFormula": "",
                "preparedOffsetFormula": "",
                "max": 0,
                "value": 0
              }
            },
            "spellSlotAbilityBonusFormula": "",
            "domainSlotValue": 1,
            "altName": "",
            "range": {
              "close": 25,
              "medium": 100,
              "long": 400
            }
          },
          "spelllike": {
            "name": "Spell-likes",
            "castPerDayAllOffsetFormula": "",
            "preparedAllOffsetFormula": "",
            "casterType": "high",
            "class": "_hd",
            "cl": {
              "formula": "",
              "base": 0,
              "value": 0,
              "total": 0
            },
            "concentrationFormula": "",
            "concentrationNotes": "",
            "clNotes": "",
            "ability": "cha",
            "autoSpellLevelCalculation": true,
            "autoSpellLevels": true,
            "psychic": false,
            "arcaneSpellFailure": true,
            "hasCantrips": true,
            "spellPreparationMode": "spontaneous",
            "baseDCFormula": "10 + @sl + @ablMod",
            "spontaneous": false,
            "spellPoints": {
              "useSystem": false,
              "value": 0,
              "maxFormula": "",
              "restoreFormula": "",
              "max": 0
            },
            "spells": {
              "spell0": {
                "castPerDayOffsetFormula": "",
                "preparedOffsetFormula": "",
                "max": 0,
                "value": 0
              },
              "spell1": {
                "castPerDayOffsetFormula": "",
                "preparedOffsetFormula": "",
                "max": 0,
                "value": 0
              },
              "spell2": {
                "castPerDayOffsetFormula": "",
                "preparedOffsetFormula": "",
                "max": 0,
                "value": 0
              },
              "spell3": {
                "castPerDayOffsetFormula": "",
                "preparedOffsetFormula": "",
                "max": 0,
                "value": 0
              },
              "spell4": {
                "castPerDayOffsetFormula": "",
                "preparedOffsetFormula": "",
                "max": 0,
                "value": 0
              },
              "spell5": {
                "castPerDayOffsetFormula": "",
                "preparedOffsetFormula": "",
                "max": 0,
                "value": 0
              },
              "spell6": {
                "castPerDayOffsetFormula": "",
                "preparedOffsetFormula": "",
                "max": 0,
                "value": 0
              },
              "spell7": {
                "castPerDayOffsetFormula": "",
                "preparedOffsetFormula": "",
                "max": 0,
                "value": 0
              },
              "spell8": {
                "castPerDayOffsetFormula": "",
                "preparedOffsetFormula": "",
                "max": 0,
                "value": 0
              },
              "spell9": {
                "castPerDayOffsetFormula": "",
                "preparedOffsetFormula": "",
                "max": 0,
                "value": 0
              }
            },
            "spellSlotAbilityBonusFormula": "",
            "domainSlotValue": 1,
            "altName": "",
            "range": {
              "close": 25,
              "medium": 100,
              "long": 400
            }
          }
        }
      },
      "encumbrance": {
        "levels": {}
      },
      "hd": {
        "total": 0,
        "max": {
          "_deprecated": true,
          "value": 0
        }
      },
      "bab": {
        "value": 0,
        "total": 3
      },
      "cmb": {
        "value": 0
      },
      "damage": {
        "general": 0,
        "weapon": 0,
        "spell": 0,
        "shared": 0
      },
      "maxDexBonus": null,
      "mDex": {
        "armorBonus": 0,
        "shieldBonus": 0
      },
      "acp": {
        "gear": 0,
        "encumbrance": 0,
        "total": 0,
        "armorBonus": 0,
        "shieldBonus": 0,
        "attackPenalty": 0
      },
      "woundThresholds": {
        "penalty": 0,
        "mod": 0,
        "level": 0,
        "override": -1,
        "penaltyBase": 0
      },
      "prof": 2,
      "spellcasting": {
        "_deprecated": true
      },
      "spelldc": {
        "_deprecated": true
      },
      "spellLevel": 0,
      "mods": {
        "skills": {}
      }
    },
    "details": {
      "level": {
        "value": 0,
        "min": 0,
        "max": 40
      },
      "bonusFeatFormula": "",
      "alignment": "tn",
      "biography": {
        "value": "",
        "public": ""
      },
      "notes": {
        "value": "\n        <div class=\"statblockContainer\" style=\"margin-top: 15px\"><div style=\"width: 100%; background-color: #ffe9c7; box-shadow: 0 4px 8px 0 rgba(0, 0, 0, 0.2), 0 6px 20px 0 rgba(0, 0, 0, 0.19); columns: 2 150px\">\r\n    <hr style=\"margin-left: 0; margin-top:-2px; width: 100%; height: 4px; background-color: #e0a100; border: 1px solid #000; column-span: all;\" />\r\n    <div style=\"padding: 5px;\">\r\n        <h1 style=\"border: none; font-family: 'Nodesto', 'Signika', 'Palatino Linotype', serif; color: #7a0800;\">Fire Wysp CR 2 </h1>\r\n        \r\n        <!-- BASE -->\r\n        <hr style=\"margin-left: 0; width: 275px; height: 0; border-style: solid; border-width: 2px 0 2px 275px; border-color: transparent transparent transparent #7a0800;\" />\r\n        <div style=\"break-inside: avoid;\">\r\n            <strong>Source: </strong>Bestiary 5 pg. 283<br/>\r\n            <strong>XP 600</strong><br/>\r\n            \r\n            \r\n            \r\n            \r\n            \r\n            N \r\n            Tiny \r\n            Outsider (Elemental, Fire) <br/>\r\n            <strong>Init</strong> 6;\r\n            <strong>Senses</strong> darkvision 60 ft.; Perception +7; \r\n            <strong>Aura</strong>  resonance (30 ft.)\r\n        </div>\r\n        <div style=\"break-inside: avoid;\">\r\n            <h4 style=\"border: none; text-transform: uppercase; color: #7a0800; padding-top:6px;\">Defense</h4>\r\n            <hr style=\"margin-left: 0; width: 275px; height: 0; border-style: solid; border-width: 2px 0 2px 275px; border-color: transparent transparent transparent #7a0800;\" />\r\n            <strong>AC</strong> 14, <strong>Touch</strong> 14, <strong>Flat-Footed</strong> 12 (+2 Dex, +2 size)<br/>\r\n            <strong>Hit Points</strong> 19 (3 HD; 3d10+3)<br/>\r\n            <strong>Fort</strong> 4, <strong>Ref</strong> 5, <strong>Will</strong> 2\r\n            \r\n            \r\n            <strong>Immune</strong> elemental traits, fire; \r\n            \r\n            \r\n            \r\n            <br/><strong>Weaknesses</strong> \r\n        </div>\r\n        <div>\r\n            <div style=\"break-inside: avoid;\">\r\n                <h4 style=\"border: none; text-transform: uppercase; color: #7a0800; padding-top:6px;\">Offense</h4>\r\n                <hr style=\"margin-left: 0; width: 275px; height: 0; border-style: solid; border-width: 2px 0 2px 275px; border-color: transparent transparent transparent #7a0800;\" />\r\n                <strong>Speed</strong> 20 ft. (poor)<br/>\r\n                <strong>Melee</strong> 2 tendrils +9 (1d3+2 plus burn)<br/>\r\n                \r\n                \r\n                \r\n                \r\n            </div>\r\n        </div>\r\n        <!-- SPELLCASTING -->\r\n                \r\n        <!-- TACTICS -->\r\n                \r\n                \r\n                \r\n                \r\n        <!-- STATISTICS -->\r\n        <div style=\"break-inside: avoid;\">\r\n            <h4 style=\"border: none; text-transform: uppercase; color: #7a0800; padding-top:6px;\">Statistics</h4>\r\n            <hr style=\"margin-left: 0; width: 275px; height: 0; border-style: solid; border-width: 2px 0 2px 275px; border-color: transparent transparent transparent #7a0800;\" />\r\n            <strong>Str</strong> 10, <strong>Dex</strong> 15, <strong>Con</strong> 12, <strong>Int</strong> 10, <strong>Wis</strong> 13, <strong>Cha</strong> 13<br/>\r\n            <strong>Base Atk</strong> +3; <strong>CMB</strong> +3; <strong>CMD</strong> 13<br/>\r\n            <strong>Feats</strong> Improved Initiative, Weapon Finesse<br/>\r\n            <strong>Skills</strong> Bluff +7, Intimidate +7, Knowledge (planes) +6, Perception +7, Sense Motive +7, Stealth +16<br/>\r\n            <strong>Languages</strong> Ignan<br/>\r\n            \r\n            \r\n            \r\n            \r\n        </div>\r\n        <!-- ECOLOGY -->\r\n                \r\n                \r\n                \r\n        <!-- SPECIAL ABILITIES -->\r\n        \r\n        <!-- DESCRIPTION -->\r\n        \r\n                    \r\n    </div>\r\n    <hr style=\"margin-left: 0; margin-bottom: -3px; width: 100%; height: 4px; background-color: #e0a100; border: 1px solid #000; column-span: all;\" />\r\n</div></div>\n    \n        <br>\n        <hr>\n        <div class=\"rawInputContainer\" style=\"margin-top: 15px;\">\n            <h2 style=\"text-align:middle; border: none; text-transform: uppercase; color: #000;\">RAW INPUT</h2>\n            <hr>\n            <pre style=\"white-space: pre-wrap; font-size: 10px;\">Fire Wysp CR 2\nSource Bestiary 5 pg. 283\nXP 600\nN Tiny outsider (elemental, fire)\nInit +6; Senses darkvision 60 ft.; Perception +7\nAura resonance (30 ft.)\nDefense\nAC 14, touch 14, flat-footed 12 (+2 Dex, +2 size)\nhp 19 (3d10+3)\nFort +4, Ref +5, Will +2\nImmune elemental traits, fire\nWeaknesses vulnerable to cold\nOffense\nSpeed 60 ft., fly 20 ft. (poor)\nMelee 2 tendrils +9 (1d3+2 plus burn)\nSpace 2-1/2 ft., Reach 0 ft.\nSpecial Attacks burn (1d6 fire, DC 14)\nStatistics\nStr 10, Dex 15, Con 12, Int 10, Wis 13, Cha 13\nBase Atk +3; CMB +3; CMD 13 (can't be tripped)\nFeats Improved Initiative, Weapon Finesse\nSkills Bluff +7, Intimidate +7, Knowledge (planes) +6, Perception +7, Sense Motive +7, Stealth +16\nLanguages Ignan\nSQ living battery, servitor</pre>\n        </div>\n    ",
        "public": ""
      },
      "bonusSkillRankFormula": "",
      "tooltip": {
        "name": "",
        "hideHeld": false,
        "hideArmor": false,
        "hideBuffs": false,
        "hideConditions": false,
        "hideClothing": false,
        "hideName": false
      },
      "carryCapacity": {
        "bonus": {
          "user": 0
        },
        "multiplier": {
          "base": 1,
          "user": 0
        }
      },
      "cr": {
        "base": 2
      },
      "mythicTier": 0,
      "type": "",
      "environment": "",
      "xp": {
        "value": 400
      },
      "gender": "",
      "deity": "",
      "age": "",
      "height": "",
      "weight": ""
    },
    "skills": {
      "acr": {
        "ability": "dex",
        "rt": false,
        "acp": true,
        "rank": 0,
        "value": 0,
        "mod": 0,
        "background": false,
        "cs": false
      },
      "apr": {
        "ability": "int",
        "rt": false,
        "acp": false,
        "rank": 0,
        "value": 0,
        "mod": 0,
        "background": true,
        "cs": false
      },
      "art": {
        "ability": "int",
        "rt": false,
        "acp": false,
        "rank": 0,
        "value": 0,
        "mod": 0,
        "background": true,
        "cs": false,
        "subSkills": {}
      },
      "blf": {
        "ability": "cha",
        "rt": false,
        "acp": false,
        "rank": 3,
        "value": 0,
        "mod": 0,
        "background": false,
        "cs": false
      },
      "clm": {
        "ability": "str",
        "rt": false,
        "acp": true,
        "rank": 0,
        "value": 0,
        "mod": 0,
        "background": false,
        "cs": false
      },
      "crf": {
        "ability": "int",
        "rt": false,
        "acp": false,
        "rank": 0,
        "value": 0,
        "mod": 0,
        "background": true,
        "cs": false,
        "subSkills": {}
      },
      "dip": {
        "ability": "cha",
        "rt": false,
        "acp": false,
        "rank": 0,
        "value": 0,
        "mod": 0,
        "background": false,
        "cs": false
      },
      "dev": {
        "ability": "dex",
        "rt": true,
        "acp": true,
        "rank": 0,
        "value": 0,
        "mod": 0,
        "background": false,
        "cs": false
      },
      "dis": {
        "ability": "cha",
        "rt": false,
        "acp": false,
        "rank": 0,
        "value": 0,
        "mod": 0,
        "background": false,
        "cs": false
      },
      "esc": {
        "ability": "dex",
        "rt": false,
        "acp": true,
        "rank": 0,
        "value": 0,
        "mod": 0,
        "background": false,
        "cs": false
      },
      "fly": {
        "ability": "dex",
        "rt": false,
        "acp": true,
        "rank": 0,
        "value": 0,
        "mod": 0,
        "background": false,
        "cs": false
      },
      "han": {
        "ability": "cha",
        "rt": true,
        "acp": false,
        "rank": 0,
        "value": 0,
        "mod": 0,
        "background": true,
        "cs": false
      },
      "hea": {
        "ability": "wis",
        "rt": false,
        "acp": false,
        "rank": 0,
        "value": 0,
        "mod": 0,
        "background": false,
        "cs": false
      },
      "int": {
        "ability": "cha",
        "rt": false,
        "acp": false,
        "rank": 6,
        "value": 0,
        "mod": 0,
        "background": false,
        "cs": false
      },
      "kar": {
        "ability": "int",
        "rt": true,
        "acp": false,
        "rank": 0,
        "value": 0,
        "mod": 0,
        "background": false,
        "cs": false
      },
      "kdu": {
        "ability": "int",
        "rt": true,
        "acp": false,
        "rank": 0,
        "value": 0,
        "mod": 0,
        "background": false,
        "cs": false
      },
      "ken": {
        "ability": "int",
        "rt": true,
        "acp": false,
        "rank": 0,
        "value": 0,
        "mod": 0,
        "background": true,
        "cs": false
      },
      "kge": {
        "ability": "int",
        "rt": true,
        "acp": false,
        "rank": 0,
        "value": 0,
        "mod": 0,
        "background": true,
        "cs": false
      },
      "khi": {
        "ability": "int",
        "rt": true,
        "acp": false,
        "rank": 0,
        "value": 0,
        "mod": 0,
        "background": true,
        "cs": false
      },
      "klo": {
        "ability": "int",
        "rt": true,
        "acp": false,
        "rank": 0,
        "value": 0,
        "mod": 0,
        "background": false,
        "cs": false
      },
      "kna": {
        "ability": "int",
        "rt": true,
        "acp": false,
        "rank": 0,
        "value": 0,
        "mod": 0,
        "background": false,
        "cs": false
      },
      "kno": {
        "ability": "int",
        "rt": true,
        "acp": false,
        "rank": 0,
        "value": 0,
        "mod": 0,
        "background": true,
        "cs": false
      },
      "kpl": {
        "ability": "int",
        "rt": true,
        "acp": false,
        "rank": 3,
        "value": 0,
        "mod": 0,
        "background": false,
        "cs": false
      },
      "kre": {
        "ability": "int",
        "rt": true,
        "acp": false,
        "rank": 0,
        "value": 0,
        "mod": 0,
        "background": false,
        "cs": false
      },
      "lin": {
        "ability": "int",
        "rt": true,
        "acp": false,
        "rank": 0,
        "value": 0,
        "mod": 0,
        "background": true,
        "cs": false
      },
      "lor": {
        "ability": "int",
        "rt": true,
        "acp": false,
        "rank": 0,
        "value": 0,
        "mod": 0,
        "background": true,
        "cs": false,
        "subSkills": {}
      },
      "per": {
        "ability": "wis",
        "rt": false,
        "acp": false,
        "rank": 3,
        "value": 0,
        "mod": 0,
        "background": false,
        "cs": false
      },
      "prf": {
        "ability": "cha",
        "rt": false,
        "acp": false,
        "rank": 0,
        "value": 0,
        "mod": 0,
        "background": true,
        "cs": false,
        "subSkills": {}
      },
      "pro": {
        "ability": "wis",
        "rt": true,
        "acp": false,
        "rank": 0,
        "value": 0,
        "mod": 0,
        "background": true,
        "cs": false,
        "subSkills": {}
      },
      "rid": {
        "ability": "dex",
        "rt": false,
        "acp": true,
        "rank": 0,
        "value": 0,
        "mod": 0,
        "background": false,
        "cs": false
      },
      "sen": {
        "ability": "wis",
        "rt": false,
        "acp": false,
        "rank": 3,
        "value": 0,
        "mod": 0,
        "background": false,
        "cs": false
      },
      "slt": {
        "ability": "dex",
        "rt": true,
        "acp": true,
        "rank": 0,
        "value": 0,
        "mod": 0,
        "background": true,
        "cs": false
      },
      "spl": {
        "ability": "int",
        "rt": true,
        "acp": false,
        "rank": 0,
        "value": 0,
        "mod": 0,
        "background": false,
        "cs": false
      },
      "ste": {
        "ability": "dex",
        "rt": false,
        "acp": true,
        "rank": 3,
        "value": 0,
        "mod": 0,
        "background": false,
        "cs": false
      },
      "sur": {
        "ability": "wis",
        "rt": false,
        "acp": false,
        "rank": 0,
        "value": 0,
        "mod": 0,
        "background": false,
        "cs": false
      },
      "swm": {
        "ability": "str",
        "rt": false,
        "acp": true,
        "rank": 0,
        "value": 0,
        "mod": 0,
        "background": false,
        "cs": false
      },
      "umd": {
        "ability": "cha",
        "rt": true,
        "acp": false,
        "rank": 0,
        "value": 0,
        "mod": 0,
        "background": false,
        "cs": false
      }
    },
    "traits": {
      "size": "tiny",
      "senses": {
        "dv": 60,
        "ts": 0,
        "bs": 0,
        "bse": 0,
        "ll": {
          "enabled": false,
          "multiplier": {
            "dim": 2,
            "bright": 2
          }
        },
        "sid": false,
        "tr": false,
        "si": false,
        "sc": 0,
        "custom": "darkvision 60 ft.; Perception +7"
      },
      "dr": {
        "value": [],
        "custom": ""
      },
      "eres": {
        "value": [],
        "custom": ""
      },
      "cres": "",
      "regen": "",
      "fastHealing": "",
      "languages": {
        "value": [
          "ignan"
        ],
        "custom": ""
      },
      "di": {
        "value": [
          "fire"
        ],
        "custom": ""
      },
      "dv": {
        "value": [
          "vulnerableToCold"
        ],
        "custom": ""
      },
      "ci": {
        "value": [],
        "custom": "Elemental Traits;"
      },
      "stature": "tall",
      "perception": {
        "_deprecated": true
      }
    },
    "currency": {
      "pp": 0,
      "gp": 0,
      "sp": 0,
      "cp": 0
    },
    "altCurrency": {
      "pp": 0,
      "gp": 0,
      "sp": 0,
      "cp": 0
    },
    "combat": {
      "round": 0
    }
  },
  "prototypeToken": {
    "flags": {
      "pf1": {}
    },
    "name": "Fire Wysp",
    "displayName": 20,
    "width": 1,
    "height": 1,
    "lockRotation": false,
    "rotation": 0,
    "actorLink": false,
    "disposition": -1,
    "displayBars": 20,
    "bar1": {
      "attribute": null
    },
    "bar2": {
      "attribute": null
    },
    "randomImg": false,
    "alpha": 1,
    "light": {
      "alpha": 1,
      "angle": 360,
      "bright": 0,
      "coloration": 1,
      "dim": 0,
      "luminosity": 0.5,
      "saturation": 0,
      "contrast": 0,
      "shadows": 0,
      "animation": {
        "speed": 5,
        "intensity": 5,
        "type": null,
        "reverse": false
      },
      "darkness": {
        "min": 0,
        "max": 1
      },
      "attenuation": 0.5,
      "color": null
    },
    "texture": {
      "src": "icons/svg/mystery-man.svg",
      "tint": null,
      "scaleX": 0.6,
      "scaleY": 0.6,
      "offsetX": 0,
      "offsetY": 0,
      "rotation": 0
    },
    "sight": {
      "angle": 360,
      "enabled": false,
      "range": 60,
      "brightness": 1,
      "visionMode": "basic",
      "color": null,
      "attenuation": 0.1,
      "saturation": 0,
      "contrast": 0
    },
    "detectionModes": []
  },
  "ownership": {
    "default": 0
  },
  "_stats": {
    "systemId": "pf1",
    "systemVersion": "9.1",
    "coreVersion": "10.291",
    "createdTime": 1665428323713,
    "modifiedTime": 1689796098130,
    "lastModifiedBy": "ppv91YxratjWnkJi"
  },
  "effects": [],
  "folder": null,
  "sort": 0,
  "flags": {},
  "_key": "!actors!xvKY7HSPrB0p7v9j"
}