{
  "_id": "5uKoaeTitZUnfnQ1",
  "name": "Devotion",
  "type": "feat",
  "img": "systems/pf1/icons/skills/red_01.jpg",
  "flags": {
    "autoanimations": {
      "killAnim": false,
      "override": false,
      "animType": "t1",
      "animName": "",
      "hmAnim": "a1",
      "color": "n1",
      "dtvar": "dt1",
      "explosion": false,
      "explodeVariant": "ev1",
      "explodeColor": "ec1",
      "explodeRadius": "0",
      "explodeLoop": "1",
      "selfRadius": "5",
      "animTint": "#ffffff",
      "auraOpacity": 0.75,
      "ctaOption": false
    },
    "scene-packer": {
      "sourceId": "Item.S26xJHuEkgmJNUqt"
    }
  },
  "system": {
    "description": {
      "value": "<p><span id=\"ctl00_MainContent_DataListTypes_ctl00_LabelName\">An animal companion gains a +4 morale bonus on Will saves against enchantment spells and effects.&nbsp;</span></p>",
      "unidentified": ""
    },
    "tags": [
      "Animal Companion Class Feature"
    ],
    "actions": [],
    "uses": {
      "per": null,
      "value": 0,
      "maxFormula": "",
      "autoDeductChargesCost": "1"
    },
    "attackNotes": [],
    "effectNotes": [],
    "changes": [],
    "changeFlags": {
      "loseDexToAC": false,
      "noEncumbrance": false,
      "mediumArmorFullSpeed": false,
      "heavyArmorFullSpeed": false
    },
    "contextNotes": [
      {
        "text": "+[[4]] Morale vs enchantment spells and effects.",
        "target": "savingThrows",
        "subTarget": "will"
      }
    ],
    "links": {
      "children": [],
      "charges": []
    },
    "tag": "devotion",
    "useCustomTag": false,
    "armorProf": {
      "value": [],
      "custom": ""
    },
    "weaponProf": {
      "value": [],
      "custom": ""
    },
    "languages": {
      "value": [],
      "custom": ""
    },
    "flags": {
      "boolean": {},
      "dictionary": {}
    },
    "scriptCalls": [],
    "subType": "classFeat",
    "associations": {
      "classes": [
        "Animal Companion"
      ]
    },
    "showInQuickbar": false,
    "abilityType": "ex",
    "crOffset": "",
    "disabled": false,
    "classSkills": {},
    "powerAttack": {
      "multiplier": "",
      "damageBonus": 2,
      "critMultiplier": 1
    }
  },
  "ownership": {
    "default": 0
  },
  "_stats": {
    "systemId": "pf1",
    "systemVersion": "9.1",
    "coreVersion": "10.291",
    "createdTime": 1665428318253,
    "modifiedTime": 1689797813163,
    "lastModifiedBy": "ppv91YxratjWnkJi"
  },
  "effects": [],
  "folder": null,
  "sort": 0,
  "_key": "!items!5uKoaeTitZUnfnQ1"
}