{
  "_id": "FLDY1YB8IHw4G4gV",
  "name": "Improved Evasion",
  "type": "feat",
  "img": "systems/pf1/icons/skills/blue_06.jpg",
  "flags": {
    "scene-packer": {
      "sourceId": "Item.KMxHg0xuKE3doAcx"
    }
  },
  "system": {
    "description": {
      "value": "<p>If your effective druid level is at least 15:</p>\n<p><span id=\"ctl00_MainContent_DataListTypes_ctl00_LabelName\">When subjected to an attack that allows a Reflex saving throw for half damage, an animal companion takes no damage if it makes a successful saving throw and only half damage if the saving throw fails.</span></p>",
      "unidentified": ""
    },
    "tags": [
      "Animal Companion Class Feature"
    ],
    "actions": [],
    "uses": {
      "per": null,
      "value": 0,
      "maxFormula": "",
      "autoDeductChargesCost": "1"
    },
    "attackNotes": [],
    "effectNotes": [],
    "changes": [],
    "changeFlags": {
      "loseDexToAC": false,
      "noEncumbrance": false,
      "mediumArmorFullSpeed": false,
      "heavyArmorFullSpeed": false
    },
    "contextNotes": [
      {
        "text": "If ability is half damage on reflex, take no damage on success and half on fail",
        "subTarget": "ref"
      }
    ],
    "links": {
      "children": [],
      "charges": []
    },
    "tag": "improvedEvasion",
    "useCustomTag": false,
    "armorProf": {
      "value": [],
      "custom": ""
    },
    "weaponProf": {
      "value": [],
      "custom": ""
    },
    "languages": {
      "value": [],
      "custom": ""
    },
    "flags": {
      "boolean": {},
      "dictionary": {}
    },
    "scriptCalls": [],
    "subType": "classFeat",
    "associations": {
      "classes": [
        "Animal Companion"
      ]
    },
    "showInQuickbar": false,
    "abilityType": "ex",
    "crOffset": "",
    "disabled": false,
    "classSkills": {},
    "powerAttack": {
      "multiplier": "",
      "damageBonus": 2,
      "critMultiplier": 1
    }
  },
  "ownership": {
    "default": 0
  },
  "_stats": {
    "systemId": "pf1",
    "systemVersion": "9.1",
    "coreVersion": "10.291",
    "createdTime": 1665428318256,
    "modifiedTime": 1689797813178,
    "lastModifiedBy": "ppv91YxratjWnkJi"
  },
  "effects": [],
  "folder": null,
  "sort": 0,
  "_key": "!items!FLDY1YB8IHw4G4gV"
}