{
  "_id": "nWKp65a3AOFqJOs6",
  "name": "STR/DEX Bonus",
  "type": "feat",
  "img": "systems/pf1/icons/feats/athletic.jpg",
  "flags": {
    "autoanimations": {
      "killAnim": false,
      "override": false,
      "animType": "t1",
      "animName": "",
      "hmAnim": "a1",
      "color": "n1",
      "dtvar": "dt1",
      "explosion": false,
      "explodeVariant": "ev1",
      "explodeColor": "ec1",
      "explodeRadius": "0",
      "explodeLoop": "1",
      "selfRadius": "5",
      "animTint": "#ffffff",
      "auraOpacity": 0.75,
      "ctaOption": false
    },
    "scene-packer": {
      "sourceId": "Item.pDA7IHXF8VIRhSsr"
    }
  },
  "system": {
    "description": {
      "value": "<p style=\"box-sizing: border-box; user-select: text; color: #191813; font-size: 13px;\"><span style=\"font-size: 14px;\">Add this modifier to the animal companion's Strength and Dexterity scores.&nbsp;</span></p>",
      "unidentified": ""
    },
    "tags": [
      "Animal Companion Class Feature"
    ],
    "actions": [],
    "uses": {
      "per": null,
      "value": 0,
      "maxFormula": "",
      "autoDeductChargesCost": "1"
    },
    "attackNotes": [],
    "effectNotes": [],
    "changes": [
      {
        "_id": "zdsarrn9",
        "formula": "floor(@classes.animalCompanion.level / 3)",
        "operator": "add",
        "subTarget": "str",
        "modifier": "untyped",
        "priority": 0,
        "value": 0,
        "target": "ability"
      },
      {
        "_id": "hchux63w",
        "formula": "floor(@classes.animalCompanion.level / 3)",
        "operator": "add",
        "subTarget": "dex",
        "modifier": "untyped",
        "priority": 0,
        "value": 0,
        "target": "ability"
      }
    ],
    "changeFlags": {
      "loseDexToAC": false,
      "noEncumbrance": false,
      "mediumArmorFullSpeed": false,
      "heavyArmorFullSpeed": false
    },
    "contextNotes": [],
    "links": {
      "children": [],
      "charges": []
    },
    "tag": "strdexBonus",
    "useCustomTag": false,
    "armorProf": {
      "value": [],
      "custom": ""
    },
    "weaponProf": {
      "value": [],
      "custom": ""
    },
    "languages": {
      "value": [],
      "custom": ""
    },
    "flags": {
      "boolean": {},
      "dictionary": {}
    },
    "scriptCalls": [],
    "subType": "classFeat",
    "associations": {
      "classes": [
        "Animal Companion"
      ]
    },
    "showInQuickbar": false,
    "abilityType": "none",
    "crOffset": "",
    "disabled": false,
    "classSkills": {},
    "powerAttack": {
      "multiplier": "",
      "damageBonus": 2,
      "critMultiplier": 1
    }
  },
  "ownership": {
    "default": 0
  },
  "_stats": {
    "systemId": "pf1",
    "systemVersion": "9.1",
    "coreVersion": "10.291",
    "createdTime": 1665428318266,
    "modifiedTime": 1689797813270,
    "lastModifiedBy": "ppv91YxratjWnkJi"
  },
  "effects": [],
  "folder": null,
  "sort": 0,
  "_key": "!items!nWKp65a3AOFqJOs6"
}