{
  "_id": "nwl3UmPlMDnoeVWk",
  "name": "Blades",
  "type": "attack",
  "sort": 100000,
  "flags": {},
  "img": "icons/weapons/swords/greatsword-guard-gem-blue.webp",
  "effects": [],
  "folder": null,
  "system": {
    "description": {
      "value": "<p><strong>Type</strong>&nbsp;mechanical;&nbsp;<strong>Perception</strong>&nbsp;DC 20;&nbsp;<strong>Disable Device&nbsp;</strong>DC 20</p>\n<hr />\n<p>EFFECTS</p>\n<hr />\n<p><strong>Trigger</strong>&nbsp;location;&nbsp;<strong>Reset</strong>&nbsp;manual</p>\n<p><strong>Effect</strong>&nbsp;Atk +10 melee (&times;2) (1d8+1/19&ndash;20); multiple targets (all targets between a pair of statues)</p>\n<p>There is a pressure plate located between a pair of statues. Stepping on this plate causes all of the statues to suddenly swing their swords downward, making attacks against anyone caught between them. Once the trap has been triggered, the swords remain in place, creating a barrier that is difficult to navigate, as creatures must climb over the angled swords. Treat the squares between the statues as difficult terrain. Additionally, anyone attempting to climb between the statues must make a DC 10 Acrobatics or Escape Artist check to avoid taking 1d4 points of damage from the blades.</p>",
      "unidentified": ""
    },
    "tags": [],
    "actions": [
      {
        "_id": "487r77phqy2rbaun",
        "name": "Attack",
        "img": "icons/weapons/swords/greatsword-guard-gem-blue.webp",
        "description": "",
        "tag": "",
        "activation": {
          "cost": 1,
          "type": "special",
          "unchained": {
            "cost": 1,
            "type": "special"
          }
        },
        "duration": {
          "value": null,
          "units": ""
        },
        "target": {
          "value": "multiple targets (all targets between a pair of statues)"
        },
        "range": {
          "units": "melee",
          "maxIncrements": "1",
          "minValue": null,
          "minUnits": ""
        },
        "uses": {
          "autoDeductChargesCost": "",
          "self": {
            "value": 0,
            "maxFormula": "",
            "per": null
          },
          "per": "",
          "value": 0,
          "maxFormula": "",
          "max": 0
        },
        "measureTemplate": {
          "type": "",
          "size": "",
          "overrideColor": false,
          "customColor": "",
          "overrideTexture": false,
          "customTexture": ""
        },
        "attackName": "",
        "actionType": "mwak",
        "attackBonus": "10",
        "critConfirmBonus": "",
        "damage": {
          "parts": [
            {
              "formula": "1d8+1",
              "type": {
                "values": [
                  "slashing"
                ],
                "custom": ""
              }
            }
          ],
          "critParts": [],
          "nonCritParts": []
        },
        "attackParts": [],
        "formulaicAttacks": {
          "count": {
            "formula": "",
            "value": null
          },
          "bonus": {
            "formula": ""
          },
          "label": ""
        },
        "formula": "",
        "ability": {
          "attack": "",
          "damage": "",
          "damageMult": 1,
          "critRange": 19,
          "critMult": 2
        },
        "save": {
          "dc": "0",
          "type": "",
          "description": ""
        },
        "effectNotes": [
          "Once triggered, climbing between the statues requires a DC 10 Acrobatics or Escape Artist check to avoid taking 1d4 damage."
        ],
        "attackNotes": [],
        "soundEffect": "",
        "powerAttack": {
          "multiplier": "",
          "damageBonus": 2,
          "critMultiplier": 1
        },
        "naturalAttack": {
          "primaryAttack": true,
          "secondary": {
            "attackBonus": "-5",
            "damageMult": 0.5
          }
        },
        "nonlethal": false,
        "touch": false,
        "usesAmmo": false,
        "spellEffect": "",
        "spellArea": "",
        "conditionals": [],
        "enh": {
          "value": null
        }
      }
    ],
    "uses": {
      "per": "",
      "value": 0,
      "maxFormula": "",
      "autoDeductChargesCost": "1",
      "max": 0
    },
    "attackNotes": [],
    "effectNotes": [],
    "links": {
      "children": [],
      "charges": [],
      "ammunition": []
    },
    "tag": "",
    "useCustomTag": false,
    "flags": {
      "boolean": {},
      "dictionary": {}
    },
    "scriptCalls": [],
    "masterwork": false,
    "enh": null,
    "proficient": true,
    "held": "normal",
    "showInQuickbar": true,
    "broken": false,
    "ammoType": "",
    "subType": "weapon",
    "baseTypes": [],
    "weaponGroups": {
      "value": [],
      "custom": ""
    },
    "duration": {
      "value": null,
      "units": ""
    },
    "target": {
      "value": "multiple targets (all targets between a pair of statues)"
    },
    "attackName": "",
    "actionType": "mwak",
    "attackBonus": "10",
    "critConfirmBonus": "",
    "damage": {
      "parts": [
        [
          "1d8+1",
          "Slashing"
        ]
      ],
      "critParts": [],
      "nonCritParts": []
    },
    "attackParts": [],
    "formulaicAttacks": {
      "count": {
        "formula": "",
        "value": null
      },
      "bonus": {
        "formula": ""
      },
      "label": ""
    },
    "formula": "",
    "ability": {
      "attack": "",
      "damage": "",
      "damageMult": 1,
      "critRange": 19,
      "critMult": 2
    },
    "save": {
      "dc": "0",
      "type": "",
      "description": ""
    },
    "soundEffect": "",
    "nonlethal": false,
    "conditionals": [],
    "contextNotes": [],
    "size": "med"
  },
  "ownership": {
    "default": 0
  },
  "_stats": {
    "systemId": null,
    "systemVersion": null,
    "coreVersion": null,
    "createdTime": null,
    "modifiedTime": null,
    "lastModifiedBy": null
  },
  "_key": "!actors.items!rQqjSBZQY4IS5qsK.nwl3UmPlMDnoeVWk"
}