{
  "_id": "Hp3VWxYfbYeXOOuf",
  "name": "Dual Swinging Log",
  "type": "attack",
  "sort": 100000,
  "flags": {},
  "img": "icons/commodities/wood/log-stack-hickory-brown.webp",
  "effects": [],
  "folder": null,
  "system": {
    "description": {
      "value": "<p><strong>Type</strong>&nbsp;mechanical;&nbsp;<strong>Perception</strong>&nbsp;DC 15;&nbsp;<strong>Disable Device&nbsp;</strong>DC 15</p>\n<hr />\n<p><strong>EFFECTS</strong></p>\n<hr />\n<p><strong>Trigger</strong>&nbsp;location;&nbsp;<strong>Reset&nbsp;</strong>manual;&nbsp;<strong>Associated Terrain</strong>&nbsp;forests or jungles;</p>\n<p><strong>Effect</strong>&nbsp;Atk +7 melee (1d6+5/&times;2) and knocked&nbsp;<a class=\"entity-link\" style=\"color: #ff6400; border: none; padding: 0px; background: none;\" draggable=\"false\" data-pack=\"pf1.conditions\" data-id=\"Av5KcblR1Wd68uWY\">prone</a>; Reflex DC 15 negates&nbsp;<a class=\"entity-link\" style=\"color: #ff6400; border: none; padding: 0px; background: none;\" draggable=\"false\" data-pack=\"pf1.conditions\" data-id=\"Av5KcblR1Wd68uWY\">prone</a>&nbsp;condition</p>\n<p>Notes&nbsp;Skilled hunters and trappers are adept at fashioning effective, if simple, traps from humble materials. A wilderness trap has an associated terrain wherein the raw materials for the trap are commonplace. Within these associated terrains, the base cost of each trap is calculated in sp rather than gp. When in a trap&rsquo;s associated terrain, instead of paying 1/3 the item&rsquo;s price in raw materials, the trap maker can attempt a Survival check against the Craft DC of the trap. If the check is successful, the trap maker finds the necessary materials in the wild after 1d4 hours of foraging and can attempt a Craft (traps) check to build the trap, which takes another 1d4 hours. However, traps built with such crude materials don&rsquo;t last long without maintenance; they have a cumulative 1% chance to break for every hour they go without being tightened and reset (which requires 10 minutes of effort).</p>\n<p>At the GM&rsquo;s discretion, other non-magical mechanical traps may be considered to have associated terrains and use the wilderness trap construction rules.</p>\n<p>&nbsp;</p>",
      "unidentified": ""
    },
    "tags": [],
    "actions": [
      {
        "_id": "0ttonoa2275jiv3c",
        "name": "Attack",
        "img": "icons/commodities/wood/log-stack-hickory-brown.webp",
        "description": "",
        "tag": "",
        "activation": {
          "cost": 1,
          "type": "special",
          "unchained": {
            "cost": 1,
            "type": "special"
          }
        },
        "duration": {
          "value": null,
          "units": ""
        },
        "target": {
          "value": ""
        },
        "range": {
          "units": "melee",
          "maxIncrements": "1",
          "minValue": null,
          "minUnits": ""
        },
        "uses": {
          "autoDeductChargesCost": "",
          "self": {
            "value": 0,
            "maxFormula": "",
            "per": null
          },
          "per": "",
          "value": 0,
          "maxFormula": "",
          "max": 0
        },
        "measureTemplate": {
          "type": "",
          "size": "",
          "overrideColor": false,
          "customColor": "",
          "overrideTexture": false,
          "customTexture": ""
        },
        "attackName": "",
        "actionType": "mwak",
        "attackBonus": "7",
        "critConfirmBonus": "",
        "damage": {
          "parts": [
            {
              "formula": "1d6+5",
              "type": {
                "values": [
                  "bludgeoning"
                ],
                "custom": ""
              }
            }
          ],
          "critParts": [],
          "nonCritParts": []
        },
        "attackParts": [],
        "formulaicAttacks": {
          "count": {
            "formula": "",
            "value": null
          },
          "bonus": {
            "formula": ""
          },
          "label": ""
        },
        "formula": "",
        "ability": {
          "attack": "",
          "damage": "",
          "damageMult": 1,
          "critRange": 20,
          "critMult": 2
        },
        "save": {
          "dc": "15",
          "type": "ref",
          "description": "Reflex or knocked prone"
        },
        "effectNotes": [],
        "attackNotes": [],
        "soundEffect": "",
        "powerAttack": {
          "multiplier": "",
          "damageBonus": 2,
          "critMultiplier": 1
        },
        "naturalAttack": {
          "primaryAttack": true,
          "secondary": {
            "attackBonus": "-5",
            "damageMult": 0.5
          }
        },
        "nonlethal": false,
        "touch": false,
        "usesAmmo": false,
        "spellEffect": "",
        "spellArea": "",
        "conditionals": [],
        "enh": {
          "value": null
        }
      }
    ],
    "uses": {
      "per": "",
      "value": 0,
      "maxFormula": "",
      "autoDeductChargesCost": "1",
      "max": 0
    },
    "attackNotes": [],
    "effectNotes": [],
    "links": {
      "children": [],
      "charges": [],
      "ammunition": []
    },
    "tag": "",
    "useCustomTag": false,
    "flags": {
      "boolean": {},
      "dictionary": {}
    },
    "scriptCalls": [],
    "masterwork": false,
    "enh": null,
    "proficient": true,
    "held": "normal",
    "showInQuickbar": true,
    "broken": false,
    "ammoType": "",
    "subType": "misc",
    "baseTypes": [],
    "weaponGroups": {
      "value": [],
      "custom": ""
    },
    "duration": {
      "value": null,
      "units": ""
    },
    "target": {
      "value": ""
    },
    "attackName": "",
    "actionType": "mwak",
    "attackBonus": "7",
    "critConfirmBonus": "",
    "damage": {
      "parts": [
        [
          "1d6+5",
          "Bludgeoning"
        ]
      ],
      "critParts": [],
      "nonCritParts": []
    },
    "attackParts": [],
    "formulaicAttacks": {
      "count": {
        "formula": "",
        "value": null
      },
      "bonus": {
        "formula": ""
      },
      "label": ""
    },
    "formula": "",
    "ability": {
      "attack": "",
      "damage": "",
      "damageMult": 1,
      "critRange": 20,
      "critMult": 2
    },
    "save": {
      "dc": "15",
      "type": "ref",
      "description": "Reflex or knocked prone"
    },
    "soundEffect": "",
    "nonlethal": false,
    "conditionals": [],
    "contextNotes": [],
    "size": "med"
  },
  "ownership": {
    "default": 0
  },
  "_stats": {
    "systemId": null,
    "systemVersion": null,
    "coreVersion": null,
    "createdTime": null,
    "modifiedTime": null,
    "lastModifiedBy": null
  },
  "_key": "!actors.items!Y17FFhENXFx5s8nM.Hp3VWxYfbYeXOOuf"
}