{
  "_id": "05a1TFrmIjUmkEdt",
  "name": "Falling Bronze Bell",
  "type": "attack",
  "sort": 100000,
  "flags": {},
  "img": "icons/tools/instruments/bell-brass-brown.webp",
  "effects": [],
  "folder": null,
  "system": {
    "description": {
      "value": "<p><strong>Type</strong>&nbsp;mechanical;&nbsp;<strong>Perception</strong>&nbsp;DC 20;&nbsp;<strong>Disable Device</strong>&nbsp;DC 20</p>\n<hr />\n<p><strong>EFFECTS</strong></p>\n<hr />\n<p><strong>Trigger</strong>&nbsp;manual;&nbsp;<strong>Reset</strong>&nbsp;repair</p>\n<p><strong>Effect&nbsp;</strong>Falling bronze bell, targets 1d4 characters, Atk +15 (6d6 bludgeoning damage) multiple targets (all targets in a 10-foot-square area). When the bell falls it can break stairs or flooring in a 10-foot long swath. A character damaged by the bell can fall through broken stairs or flooring if a lower floor exists. A character who falls to a lower floor takes falling damage unless they make a DC 15 Reflex save to cling to the broken stairs.</p>",
      "unidentified": ""
    },
    "tags": [],
    "actions": [
      {
        "_id": "wepi2mz3fsb6vu32",
        "name": "Attack",
        "img": "icons/tools/instruments/bell-brass-brown.webp",
        "description": "",
        "tag": "",
        "activation": {
          "cost": 1,
          "type": "standard",
          "unchained": {
            "cost": 2,
            "type": "action"
          }
        },
        "duration": {
          "value": null,
          "units": ""
        },
        "target": {
          "value": "multiple targets (all targets in a 10-foot-square area)"
        },
        "range": {
          "units": "melee",
          "maxIncrements": 1,
          "minValue": null,
          "minUnits": ""
        },
        "uses": {
          "autoDeductChargesCost": "",
          "self": {
            "value": 0,
            "maxFormula": "",
            "per": null
          },
          "per": "",
          "value": 0,
          "maxFormula": "",
          "max": 0
        },
        "measureTemplate": {
          "type": "",
          "size": "",
          "overrideColor": false,
          "customColor": "",
          "overrideTexture": false,
          "customTexture": ""
        },
        "attackName": "",
        "actionType": "mwak",
        "attackBonus": "15",
        "critConfirmBonus": "",
        "damage": {
          "parts": [
            {
              "formula": "6d6",
              "type": {
                "values": [
                  "bludgeoning"
                ],
                "custom": ""
              }
            }
          ],
          "critParts": [],
          "nonCritParts": []
        },
        "attackParts": [],
        "formulaicAttacks": {
          "count": {
            "formula": "",
            "value": null
          },
          "bonus": {
            "formula": ""
          },
          "label": ""
        },
        "formula": "",
        "ability": {
          "attack": "",
          "damage": "",
          "damageMult": 1,
          "critRange": 20,
          "critMult": 2
        },
        "save": {
          "dc": "15",
          "type": "ref",
          "description": "Reflex; see text"
        },
        "effectNotes": [
          "When the bell falls it can break stairs or flooring in a 10-foot long swath. A character damaged by the bell can fall through broken stairs or flooring if a lower floor exists. A DC 15 Reflex save clings to the broken stairs or flooring."
        ],
        "attackNotes": [],
        "soundEffect": "",
        "powerAttack": {
          "multiplier": "",
          "damageBonus": 2,
          "critMultiplier": 1
        },
        "naturalAttack": {
          "primaryAttack": true,
          "secondary": {
            "attackBonus": "-5",
            "damageMult": 0.5
          }
        },
        "nonlethal": false,
        "touch": false,
        "usesAmmo": false,
        "spellEffect": "",
        "spellArea": "",
        "conditionals": [],
        "enh": {
          "value": null
        }
      }
    ],
    "uses": {
      "per": "",
      "value": 0,
      "maxFormula": "",
      "autoDeductChargesCost": "1",
      "max": 0
    },
    "attackNotes": [],
    "effectNotes": [],
    "links": {
      "children": [],
      "charges": [],
      "ammunition": []
    },
    "tag": "",
    "useCustomTag": false,
    "flags": {
      "boolean": {},
      "dictionary": {}
    },
    "scriptCalls": [],
    "masterwork": false,
    "enh": null,
    "proficient": true,
    "held": "normal",
    "showInQuickbar": true,
    "broken": false,
    "ammoType": "",
    "subType": "misc",
    "baseTypes": [],
    "weaponGroups": {
      "value": [],
      "custom": ""
    },
    "duration": {
      "value": null,
      "units": ""
    },
    "target": {
      "value": "multiple targets (all targets in a 10-foot-square area)"
    },
    "attackName": "",
    "actionType": "mwak",
    "attackBonus": "15",
    "critConfirmBonus": "",
    "damage": {
      "parts": [
        [
          "6d6",
          "Bludgeoning"
        ]
      ],
      "critParts": [],
      "nonCritParts": []
    },
    "attackParts": [],
    "formulaicAttacks": {
      "count": {
        "formula": "",
        "value": null
      },
      "bonus": {
        "formula": ""
      },
      "label": ""
    },
    "formula": "",
    "ability": {
      "attack": "",
      "damage": "",
      "damageMult": 1,
      "critRange": 20,
      "critMult": 2
    },
    "save": {
      "dc": "15",
      "type": "ref",
      "description": "Reflex; see text"
    },
    "soundEffect": "",
    "nonlethal": false,
    "conditionals": [],
    "contextNotes": [],
    "size": "med"
  },
  "ownership": {
    "default": 0
  },
  "_stats": {
    "systemId": null,
    "systemVersion": null,
    "coreVersion": null,
    "createdTime": null,
    "modifiedTime": null,
    "lastModifiedBy": null
  },
  "_key": "!actors.items!0COmOWQR3DdbeFxH.05a1TFrmIjUmkEdt"
}