{
  "_id": "patLX07NLmDeUTT3",
  "name": "Hail of Bolts",
  "type": "attack",
  "sort": 100000,
  "flags": {},
  "img": "systems/pf1/icons/skills/arrow_05.jpg",
  "effects": [],
  "folder": null,
  "system": {
    "description": {
      "value": "<p><strong>Type&nbsp;</strong>mechanical;&nbsp;<strong>Perception</strong>&nbsp;DC 25;&nbsp;<strong>Disable Device</strong>&nbsp;DC 20</p>\n<hr />\n<p><strong>EFFECTS</strong></p>\n<hr />\n<p><strong>Trigger</strong>&nbsp;location;&nbsp;<strong>Reset</strong>&nbsp;manual</p>\n<p><strong>Effect</strong>&nbsp;Atk +15 ranged (5d8); multiple targets (all targets in a 10-ft.-square area)</p>",
      "unidentified": ""
    },
    "tags": [],
    "actions": [
      {
        "_id": "myk6rdumpt6ytmj9",
        "name": "Attack",
        "img": "systems/pf1/icons/skills/arrow_05.jpg",
        "description": "",
        "tag": "",
        "activation": {
          "cost": 1,
          "type": "special",
          "unchained": {
            "cost": 1,
            "type": "special"
          }
        },
        "duration": {
          "value": null,
          "units": ""
        },
        "target": {
          "value": "multiple targets (all targets in a 10-ft.-square area)"
        },
        "range": {
          "value": "10",
          "units": "ft",
          "maxIncrements": "1",
          "minValue": null,
          "minUnits": ""
        },
        "uses": {
          "autoDeductChargesCost": "",
          "self": {
            "value": 0,
            "maxFormula": "",
            "per": null
          },
          "per": "",
          "value": 0,
          "maxFormula": "",
          "max": 0
        },
        "measureTemplate": {
          "type": "",
          "size": "",
          "overrideColor": false,
          "customColor": "",
          "overrideTexture": false,
          "customTexture": ""
        },
        "attackName": "",
        "actionType": "rwak",
        "attackBonus": "15",
        "critConfirmBonus": "",
        "damage": {
          "parts": [
            {
              "formula": "5d8",
              "type": {
                "values": [
                  "piercing"
                ],
                "custom": ""
              }
            }
          ],
          "critParts": [],
          "nonCritParts": []
        },
        "attackParts": [],
        "formulaicAttacks": {
          "count": {
            "formula": "",
            "value": null
          },
          "bonus": {
            "formula": ""
          },
          "label": ""
        },
        "formula": "",
        "ability": {
          "attack": "",
          "damage": "",
          "damageMult": 1,
          "critRange": 20,
          "critMult": 2
        },
        "save": {
          "dc": "0",
          "type": "",
          "description": ""
        },
        "effectNotes": [],
        "attackNotes": [],
        "soundEffect": "",
        "powerAttack": {
          "multiplier": "",
          "damageBonus": 2,
          "critMultiplier": 1
        },
        "naturalAttack": {
          "primaryAttack": true,
          "secondary": {
            "attackBonus": "-5",
            "damageMult": 0.5
          }
        },
        "nonlethal": false,
        "touch": false,
        "usesAmmo": false,
        "spellEffect": "",
        "spellArea": "",
        "conditionals": [],
        "enh": {
          "value": null
        }
      }
    ],
    "uses": {
      "per": "",
      "value": 0,
      "maxFormula": "",
      "autoDeductChargesCost": "1",
      "max": 0
    },
    "attackNotes": [],
    "effectNotes": [],
    "links": {
      "children": [],
      "charges": [],
      "ammunition": []
    },
    "tag": "",
    "useCustomTag": false,
    "flags": {
      "boolean": {},
      "dictionary": {}
    },
    "scriptCalls": [],
    "masterwork": false,
    "enh": null,
    "proficient": true,
    "held": "normal",
    "showInQuickbar": true,
    "broken": false,
    "ammoType": "",
    "subType": "weapon",
    "baseTypes": [],
    "weaponGroups": {
      "value": [],
      "custom": ""
    },
    "duration": {
      "value": null,
      "units": ""
    },
    "target": {
      "value": "multiple targets (all targets in a 10-ft.-square area)"
    },
    "attackName": "",
    "actionType": "rwak",
    "attackBonus": "15",
    "critConfirmBonus": "",
    "damage": {
      "parts": [
        [
          "5d8",
          "Piercing"
        ]
      ],
      "critParts": [],
      "nonCritParts": []
    },
    "attackParts": [],
    "formulaicAttacks": {
      "count": {
        "formula": "",
        "value": null
      },
      "bonus": {
        "formula": ""
      },
      "label": ""
    },
    "formula": "",
    "ability": {
      "attack": "",
      "damage": "",
      "damageMult": 1,
      "critRange": 20,
      "critMult": 2
    },
    "save": {
      "dc": "0",
      "type": "",
      "description": ""
    },
    "soundEffect": "",
    "nonlethal": false,
    "conditionals": [],
    "contextNotes": [],
    "size": "med"
  },
  "ownership": {
    "default": 0
  },
  "_stats": {
    "systemId": null,
    "systemVersion": null,
    "coreVersion": null,
    "createdTime": null,
    "modifiedTime": null,
    "lastModifiedBy": null
  },
  "_key": "!actors.items!53SF4vKqcimXJGJH.patLX07NLmDeUTT3"
}