{
  "_id": "0lsMIf2adKDan6AP",
  "name": "Pendulum Blades",
  "type": "attack",
  "sort": 200000,
  "flags": {},
  "img": "icons/weapons/swords/swords-sharp-worn.webp",
  "effects": [],
  "folder": null,
  "system": {
    "description": {
      "value": "<p style=\"box-sizing: border-box; user-select: text; color: #191813; font-size: 13px;\"><strong style=\"box-sizing: border-box; user-select: text;\">Type</strong>&nbsp;mechanical;<strong style=\"box-sizing: border-box; user-select: text;\">&nbsp;Perception</strong>&nbsp;DC 25;&nbsp;<strong style=\"box-sizing: border-box; user-select: text;\">Disable Device</strong>&nbsp;DC 20</p>\n<hr style=\"box-sizing: border-box; user-select: text; color: #191813; font-size: 13px;\" />\n<p style=\"box-sizing: border-box; user-select: text; color: #191813; font-size: 13px;\"><strong style=\"box-sizing: border-box; user-select: text;\">EFFECTS</strong></p>\n<hr style=\"box-sizing: border-box; user-select: text; color: #191813; font-size: 13px;\" />\n<p style=\"box-sizing: border-box; user-select: text; color: #191813; font-size: 13px;\"><strong style=\"box-sizing: border-box; user-select: text;\">Trigger</strong>&nbsp;location;&nbsp;<strong style=\"box-sizing: border-box; user-select: text;\">Duration</strong>&nbsp;1d4 rounds;&nbsp;<strong style=\"box-sizing: border-box; user-select: text;\">Reset</strong>&nbsp;automatic (1d6 rounds after trap stops)</p>\n<p style=\"box-sizing: border-box; user-select: text; color: #191813; font-size: 13px;\">This trap is triggered when a character reaches the center of the room, at which point razor-sharp pendulum blades swing down from the ceiling accompanied by a fusillade of darts from the walls, targeting every creature in the room for 1d4 rounds. The trap resets itself 1d6 rounds after it stops.</p>\n<p style=\"box-sizing: border-box; user-select: text; color: #191813; font-size: 13px;\"><strong style=\"box-sizing: border-box; user-select: text;\">Effect</strong> (Atk +18 ranged, 1d4 darts per target for 1d4+1 damage each); pendulum blades (Atk +18 melee [1d12+1/&times;3]); multiple targets (all targets within room)</p>",
      "unidentified": ""
    },
    "tags": [],
    "actions": [
      {
        "_id": "a5n9qt3qkaju1shs",
        "name": "Attack",
        "img": "icons/weapons/swords/swords-sharp-worn.webp",
        "description": "",
        "tag": "",
        "activation": {
          "cost": 1,
          "type": "special",
          "unchained": {
            "cost": 1,
            "type": "special"
          }
        },
        "duration": {
          "value": null,
          "units": ""
        },
        "target": {
          "value": "multiple targets (all targets within room)"
        },
        "range": {
          "units": "melee",
          "maxIncrements": 1,
          "minValue": null,
          "minUnits": ""
        },
        "uses": {
          "autoDeductChargesCost": "",
          "self": {
            "value": 0,
            "maxFormula": "",
            "per": null
          },
          "per": "",
          "value": 0,
          "maxFormula": "",
          "max": 0
        },
        "measureTemplate": {
          "type": "",
          "size": "",
          "overrideColor": false,
          "customColor": "",
          "overrideTexture": false,
          "customTexture": ""
        },
        "attackName": "",
        "actionType": "mwak",
        "attackBonus": "18",
        "critConfirmBonus": "",
        "damage": {
          "parts": [
            {
              "formula": "1d12+1",
              "type": {
                "values": [
                  "slashing"
                ],
                "custom": ""
              }
            }
          ],
          "critParts": [],
          "nonCritParts": []
        },
        "attackParts": [],
        "formulaicAttacks": {
          "count": {
            "formula": "",
            "value": null
          },
          "bonus": {
            "formula": ""
          },
          "label": ""
        },
        "formula": "",
        "ability": {
          "attack": "",
          "damage": "",
          "damageMult": 1,
          "critRange": 20,
          "critMult": 3
        },
        "save": {
          "dc": "0",
          "type": "",
          "description": ""
        },
        "effectNotes": [],
        "attackNotes": [
          "Each round, the pendulum blade swings at each character in the room. See text."
        ],
        "soundEffect": "",
        "powerAttack": {
          "multiplier": "",
          "damageBonus": 2,
          "critMultiplier": 1
        },
        "naturalAttack": {
          "primaryAttack": true,
          "secondary": {
            "attackBonus": "-5",
            "damageMult": 0.5
          }
        },
        "nonlethal": false,
        "touch": false,
        "usesAmmo": false,
        "spellEffect": "",
        "spellArea": "",
        "conditionals": [],
        "enh": {
          "value": null
        }
      }
    ],
    "uses": {
      "per": "",
      "value": 0,
      "maxFormula": "",
      "autoDeductChargesCost": "1",
      "max": 0
    },
    "attackNotes": [],
    "effectNotes": [],
    "links": {
      "children": [],
      "charges": [],
      "ammunition": []
    },
    "tag": "",
    "useCustomTag": false,
    "flags": {
      "boolean": {},
      "dictionary": {}
    },
    "scriptCalls": [],
    "masterwork": false,
    "enh": null,
    "proficient": true,
    "held": "normal",
    "showInQuickbar": true,
    "broken": false,
    "ammoType": "",
    "subType": "weapon",
    "baseTypes": [],
    "weaponGroups": {
      "value": [],
      "custom": ""
    },
    "duration": {
      "value": null,
      "units": ""
    },
    "target": {
      "value": "multiple targets (all targets within room)"
    },
    "attackName": "",
    "actionType": "mwak",
    "attackBonus": "18",
    "critConfirmBonus": "",
    "damage": {
      "parts": [
        [
          "1d12+1",
          "Slashing"
        ]
      ],
      "critParts": [],
      "nonCritParts": []
    },
    "attackParts": [],
    "formulaicAttacks": {
      "count": {
        "formula": "",
        "value": null
      },
      "bonus": {
        "formula": ""
      },
      "label": ""
    },
    "formula": "",
    "ability": {
      "attack": "",
      "damage": "",
      "damageMult": 1,
      "critRange": 20,
      "critMult": 3
    },
    "save": {
      "dc": "0",
      "type": "",
      "description": ""
    },
    "soundEffect": "",
    "nonlethal": false,
    "conditionals": [],
    "contextNotes": [],
    "size": "med"
  },
  "ownership": {
    "default": 0
  },
  "_stats": {
    "systemId": null,
    "systemVersion": null,
    "coreVersion": null,
    "createdTime": null,
    "modifiedTime": null,
    "lastModifiedBy": null
  },
  "_key": "!actors.items!fIBgXoqL81erpkv8.0lsMIf2adKDan6AP"
}