{
  "_id": "QdGRbOBc1RcE4pYa",
  "name": "Wyvern Arrow",
  "type": "attack",
  "sort": 100000,
  "flags": {},
  "img": "systems/pf1/icons/races/creature-types/dragon.png",
  "effects": [],
  "folder": null,
  "system": {
    "description": {
      "value": "<p><strong>Type</strong>&nbsp;mechanical;&nbsp;<strong>Perception</strong>&nbsp;DC 20;&nbsp;<strong>Disable Device</strong>&nbsp;DC 20</p>\n<hr />\n<p><strong>EFFECTS</strong></p>\n<hr />\n<p><strong>Trigger</strong>&nbsp;touch;&nbsp;<strong>Reset&nbsp;</strong>none</p>\n<p><strong>Effect&nbsp;</strong>Atk +15 ranged (1d6/&times;3 plus&nbsp;<a href=\"https://aonprd.com/PoisonDisplay.aspx?ItemName=Wyvern%20poison\" target=\"_blank\" rel=\"noopener\">wyvern poison</a>)</p>",
      "unidentified": ""
    },
    "tags": [],
    "actions": [
      {
        "_id": "4gvekbvzlycch851",
        "name": "Attack",
        "img": "systems/pf1/icons/races/creature-types/dragon.png",
        "description": "",
        "tag": "",
        "activation": {
          "cost": 1,
          "type": "",
          "unchained": {
            "cost": 1,
            "type": ""
          }
        },
        "duration": {
          "value": null,
          "units": ""
        },
        "target": {
          "value": ""
        },
        "range": {
          "units": "",
          "maxIncrements": 1,
          "minValue": null,
          "minUnits": ""
        },
        "uses": {
          "autoDeductChargesCost": "",
          "self": {
            "value": 0,
            "maxFormula": "",
            "per": null
          },
          "per": "",
          "value": 0,
          "maxFormula": "",
          "max": 0
        },
        "measureTemplate": {
          "type": "",
          "size": "",
          "overrideColor": false,
          "customColor": "",
          "overrideTexture": false,
          "customTexture": ""
        },
        "attackName": "",
        "actionType": "rwak",
        "attackBonus": "15",
        "critConfirmBonus": "",
        "damage": {
          "parts": [
            {
              "formula": "1d6",
              "type": {
                "values": [
                  "piercing"
                ],
                "custom": ""
              }
            }
          ],
          "critParts": [],
          "nonCritParts": []
        },
        "attackParts": [],
        "formulaicAttacks": {
          "count": {
            "formula": "",
            "value": null
          },
          "bonus": {
            "formula": ""
          },
          "label": ""
        },
        "formula": "",
        "ability": {
          "attack": "",
          "damage": "",
          "damageMult": 1,
          "critRange": 20,
          "critMult": 3
        },
        "save": {
          "dc": "0",
          "type": "",
          "description": ""
        },
        "effectNotes": [
          "plus Wyvern Poison",
          "<b>Type</b> injury",
          "<b>Save</b> DC 17 Fortitude",
          "<b>Frequency</b> 1/round for 6 rounds",
          "<b>Effect</b> 1d4 Con",
          "<b>Cure</b> 2 saves"
        ],
        "attackNotes": [],
        "soundEffect": "",
        "powerAttack": {
          "multiplier": "",
          "damageBonus": 2,
          "critMultiplier": 1
        },
        "naturalAttack": {
          "primaryAttack": true,
          "secondary": {
            "attackBonus": "-5",
            "damageMult": 0.5
          }
        },
        "nonlethal": false,
        "touch": false,
        "usesAmmo": false,
        "spellEffect": "",
        "spellArea": "",
        "conditionals": [],
        "enh": {
          "value": null
        }
      }
    ],
    "uses": {
      "per": "",
      "value": 0,
      "maxFormula": "",
      "autoDeductChargesCost": "1",
      "max": 0
    },
    "attackNotes": [],
    "effectNotes": [],
    "links": {
      "children": [],
      "charges": [],
      "ammunition": []
    },
    "tag": "",
    "useCustomTag": false,
    "flags": {
      "boolean": {},
      "dictionary": {}
    },
    "scriptCalls": [],
    "masterwork": false,
    "enh": null,
    "proficient": true,
    "held": "normal",
    "showInQuickbar": true,
    "broken": false,
    "ammoType": "",
    "subType": "weapon",
    "baseTypes": [],
    "weaponGroups": {
      "value": [],
      "custom": ""
    },
    "duration": {
      "value": null,
      "units": ""
    },
    "target": {
      "value": ""
    },
    "attackName": "",
    "actionType": "rwak",
    "attackBonus": "15",
    "critConfirmBonus": "",
    "damage": {
      "parts": [
        [
          "1d6",
          "Piercing"
        ]
      ],
      "critParts": [],
      "nonCritParts": []
    },
    "attackParts": [],
    "formulaicAttacks": {
      "count": {
        "formula": "",
        "value": null
      },
      "bonus": {
        "formula": ""
      },
      "label": ""
    },
    "formula": "",
    "ability": {
      "attack": "",
      "damage": "",
      "damageMult": 1,
      "critRange": 20,
      "critMult": 3
    },
    "save": {
      "dc": "0",
      "type": "",
      "description": ""
    },
    "soundEffect": "",
    "nonlethal": false,
    "conditionals": [],
    "contextNotes": [],
    "size": "med"
  },
  "ownership": {
    "default": 0
  },
  "_stats": {
    "systemId": null,
    "systemVersion": null,
    "coreVersion": null,
    "createdTime": null,
    "modifiedTime": null,
    "lastModifiedBy": null
  },
  "_key": "!actors.items!sB9tY1em206CPa8V.QdGRbOBc1RcE4pYa"
}