{
  "_id": "VlUCGIyxqHYaD0Td",
  "name": "2.2.2. Starting from Scratch",
  "content": "<p>It&rsquo;s not easy to start a kingdom&mdash;probably the reason everyone doesn&rsquo;t have one. If you are founding a kingdom on your own, without an external sponsor or a fantastic windfall of resources, the initial financial costs can be crippling to PCs. Even building a new town with just a House and an Inn costs 13 BP&mdash;worth over 50,000 gp in terms of stone, timber, labor, food, and so on. To compensate for this (and encourage you to adventure in search of more gold that you can convert into BP), if you&rsquo;re running a small, self-starting kingdom, the GM may allow you to turn your gold into BP at a better rate. You may only take advantage of this if you don&rsquo;t have a sponsor; it represents your people seeing the hard work you&rsquo;re directly putting in and being inspired to do the same to get the kingdom off the ground.</p>\n<p>This improved rate depends on the Size of your kingdom, as shown in the following table.</p>\n<table class=\"inner\">\n<tbody>\n<tr>\n<td><strong>Kingdom Size</strong></td>\n<td><strong>Price of 1 BP</strong></td>\n<td><strong>Withdrawal Rate*</strong></td>\n</tr>\n<tr>\n<td>01-25</td>\n<td>1,000 gp</td>\n<td>500 gp</td>\n</tr>\n<tr>\n<td>26-50</td>\n<td>2,000 gp</td>\n<td>1,000 gp</td>\n</tr>\n<tr>\n<td>51-100</td>\n<td>3,000 gp</td>\n<td>1,500 gp</td>\n</tr>\n<tr>\n<td>101+</td>\n<td>4,000 gp</td>\n<td>2,000 gp</td>\n</tr>\n</tbody>\n</table>\n<p><span id=\"ctl00_MainContent_RulesResult\">&nbsp;* If you make a withdrawal from the Treasury during the @Compendium[pf-content.kingdom-building-gm.fGcu61Aqr7vZZr0E]{Income Phase}, use this withdrawal rate to determine how much gp you gain per BP withdrawn. <br /><br />The GM may also allow you to discover a cache of goods worth BP (instead of gp) as a reward for adventuring, giving you the seed money to found or support your kingdom.</span></p>",
  "pages": [],
  "_key": "!journal!VlUCGIyxqHYaD0Td"
}