{
  "_id": "tc1DHpDFWbK4CvVn",
  "name": "3.4.1.20. Land Rush",
  "flags": {
    "cf": {
      "id": null,
      "path": "Map Notes#/CF_SEP/PFRPG - Kingdom Building - GM Version",
      "color": "#000000"
    },
    "importid": "MmxrZsbkx1MhEF4F"
  },
  "content": "<text type=\"formattedtext\">\n\t\t\t\t\t<p>Overeager settlers claim an unclaimed hex and construct a Farm, Mine, Quarry, or Sawmill at their own expense, but are fighting over ownership. This hex is not part of your kingdom, so you gain no benefits from it. Productivity, Society, and Stability decrease by 1. Attempt a Loyalty check. If you succeed, Unrest increases by 1. If you fail, Unrest increases by 1d4. If you construct an identical improvement in an adjacent hex during your next Edict phase, remove this event's changes to Productivity, Society, and Stability</p>\n\t\t\t\t</text>\n\t\t\t",
  "pages": [],
  "_key": "!journal!tc1DHpDFWbK4CvVn"
}