{
  "_id": "jJ30u1piYSWTOxAn",
  "name": "3.4.1.04. Boomtown (settlement)",
  "flags": {
    "cf": {
      "id": null,
      "path": "Map Notes#/CF_SEP/PFRPG - Kingdom Building - GM Version",
      "color": "#000000"
    },
    "importid": "7STTDEATXOz9CZm0"
  },
  "content": "<text type=\"formattedtext\">\n\t\t\t\t\t<p>Randomly select one settlement. Commerce booms among that settlement. Until the next Event phase, Economy increases by the number of buildings in the settlement that grant an Economy bonus, and Corruption increases by 1d4 in that settlement.</p>\n\t\t\t\t</text>\n\t\t\t",
  "pages": [],
  "_key": "!journal!jJ30u1piYSWTOxAn"
}