{
  "_id": "FLHHGihp6BkQnVTs",
  "name": "3.4.1.26. Noblesse Oblige (Settlement)",
  "flags": {
    "cf": {
      "id": null,
      "path": "Map Notes#/CF_SEP/PFRPG - Kingdom Building - GM Version",
      "color": "#000000"
    },
    "importid": "oeGH6Pjx7Aj6iY7N"
  },
  "content": "<text type=\"formattedtext\">\n\t\t\t\t\t<p>A noble family offers to construct a Monument (01-50) or Park (51-100) in your settlement at the family's own expense. The nobles pay all costs and Consumption for this purpose.</p>\n\t\t\t\t</text>\n\t\t\t",
  "pages": [],
  "_key": "!journal!FLHHGihp6BkQnVTs"
}