{
  "_id": "GxhWAF9zCIAIcxSD",
  "name": "3.4.1.02. Assassination Attempt",
  "flags": {
    "cf": {
      "id": null,
      "path": "Map Notes#/CF_SEP/PFRPG - Kingdom Building - GM Version",
      "color": "#000000"
    },
    "importid": "gH4hc4ikbXtjd4ao"
  },
  "content": "<text type=\"formattedtext\">\n\t\t\t\t\t<p>One of your leaders (determined randomly) is the target of an assassination attempt. If the target is a PC, the GM should run the attempt as an encounter, using an assassin of a CR equal to the targeted PC's level. If the target is an NPC, you must succeed at a Stability check to prevent the assassination. If the assassination occurs, Unrest increases by 1d6 and the kingdom immediately incurs the penalties for not having a leader in that role</p>\n\t\t\t\t</text>\n\t\t\t",
  "pages": [],
  "_key": "!journal!GxhWAF9zCIAIcxSD"
}