{
  "name": "3.4.1.12. Festive Invitation",
  "content": "<p>Your kingdom&rsquo;s leaders are invited to a festival in a neighboring kingdom. If you attend and bring 1d4 BP worth of gifts, for 1 year Society increases by 1, Fame increases by 1 for any check relating to that kingdom, and you gain a +2 bonus on edict checks relating to that kingdom.&nbsp;</p>",
  "_id": "FxIBQyYRHccumcmd",
  "pages": [],
  "_key": "!journal!FxIBQyYRHccumcmd"
}