{
  "name": "6.8. Settlement Sizes",
  "content": "<p><span id=\"ctl00_MainContent_RulesResult\">The GM may want to adjust settlement modifiers based on the kingdom&rsquo;s Size and how that corresponds to the standard settlement size categories in the Core Rulebook. <br /><br /></span></p>\n<h2>Table 4-14: Settlement Sizes and Modifiers</h2>\n<table class=\"inner\">\n<tbody>\n<tr>\n<td><strong>Lots</strong></td>\n<td><strong>Category</strong></td>\n<td><strong>Modifiers</strong></td>\n<td><strong>Danger</strong></td>\n</tr>\n<tr>\n<td>1</td>\n<td>Village</td>\n<td>-4</td>\n<td>-10</td>\n</tr>\n<tr>\n<td>2-8</td>\n<td>Small Town</td>\n<td>-2</td>\n<td>-5</td>\n</tr>\n<tr>\n<td>9-20</td>\n<td>Large Town</td>\n<td>0</td>\n<td>0</td>\n</tr>\n<tr>\n<td>21-40</td>\n<td>Small City</td>\n<td>+1</td>\n<td>+5</td>\n</tr>\n<tr>\n<td>41-100</td>\n<td>Large City</td>\n<td>+1*</td>\n<td>+5*</td>\n</tr>\n<tr>\n<td>101+</td>\n<td>Metropolis</td>\n<td>+1*</td>\n<td>+5*</td>\n</tr>\n</tbody>\n</table>\n<p>* Per district. <br /><br /><strong>Modifiers</strong>: Add the listed number to the settlement&rsquo;s Corruption, Crime, Law, Lore, Productivity, and Society. <br /><br /><strong>Danger</strong>: Add the listed number to the settlement&rsquo;s <a href=\"https://www.aonprd.com/Rules.aspx?Name=The%20Settlement%20Stat%20Block&amp;Category=Settlements%20in%20Play\">Danger value</a>.</p>",
  "_id": "yCW3X969nm8xIUot",
  "pages": [],
  "_key": "!journal!yCW3X969nm8xIUot"
}