{
  "_id": "iWPR3PvUnXWPMR8l",
  "name": "Dodge (WiS)",
  "type": "feat",
  "img": "systems/pf1/icons/feats/dodge.jpg",
  "system": {
    "description": {
      "value": "<p><em>Your training and reflexes allow you to react swiftly to avoid an opponents' attacks.</em> <br /><br /></p>\n<p><strong>Prerequisites</strong></p>\n<p>Dex 13.</p>\n<p>&nbsp;</p>\n<p><strong>Benefits</strong></p>\n<p class=\"stat-block-1\">You gain a +1 dodge bonus to your AC. A condition that makes you lose your Dex bonus to AC also makes you lose the benefits of this feat.</p>\n<p class=\"stat-block-1\" style=\"box-sizing: border-box; user-select: text; color: #191813; font-size: 13px;\">You get a +4 dodge bonus to Armor Class against attacks of opportunity caused when you move out of or within a threatened area. A condition that makes you lose your Dexterity bonus to Armor Class (if any) also makes you lose dodge bonuses.</p>\n<p class=\"stat-block-2\" style=\"box-sizing: border-box; user-select: text; color: #191813; font-size: 13px;\">Dodge bonuses stack with each other, unlike most types of bonuses.</p>",
      "unidentified": ""
    },
    "tags": [
      "Combat",
      "World is Square"
    ],
    "actions": [],
    "uses": {
      "per": null,
      "value": 0,
      "maxFormula": "",
      "autoDeductChargesCost": "1",
      "max": 0
    },
    "attackNotes": [],
    "effectNotes": [],
    "changes": [
      {
        "_id": "9onhsept",
        "formula": "1",
        "operator": "add",
        "subTarget": "ac",
        "modifier": "dodge",
        "priority": 0,
        "value": 0,
        "target": "ac"
      }
    ],
    "changeFlags": {
      "loseDexToAC": false,
      "noEncumbrance": false,
      "mediumArmorFullSpeed": false,
      "heavyArmorFullSpeed": false,
      "noStr": false,
      "noDex": false,
      "oneInt": false,
      "oneWis": false,
      "oneCha": false
    },
    "contextNotes": [
      {
        "text": "+4 dodge bonus against AoO",
        "target": "misc",
        "subTarget": "ac"
      }
    ],
    "links": {
      "children": [],
      "charges": []
    },
    "tag": "dodgeEitr",
    "useCustomTag": false,
    "armorProf": {
      "value": [],
      "custom": ""
    },
    "weaponProf": {
      "value": [],
      "custom": ""
    },
    "languages": {
      "value": [],
      "custom": ""
    },
    "flags": {
      "boolean": {},
      "dictionary": {}
    },
    "scriptCalls": [],
    "subType": "feat",
    "associations": {
      "classes": []
    },
    "showInQuickbar": false,
    "abilityType": "none",
    "crOffset": "",
    "disabled": false,
    "classSkills": {}
  },
  "ownership": {
    "default": 0
  },
  "_stats": {
    "systemId": "pf1",
    "systemVersion": "9.1",
    "coreVersion": "10.291",
    "createdTime": 1665428321855,
    "modifiedTime": 1689797812068,
    "lastModifiedBy": "ppv91YxratjWnkJi"
  },
  "effects": [],
  "folder": null,
  "sort": 0,
  "flags": {},
  "_key": "!items!iWPR3PvUnXWPMR8l"
}