{
  "_id": "dJLezPVKdernFGg5",
  "name": "Point-Blank Shot (EitR)",
  "type": "feat",
  "img": "systems/pf1/icons/feats/point-blank-shot.jpg",
  "flags": {
    "journal-links": {
      "references": {}
    }
  },
  "system": {
    "description": {
      "value": "<p><em>You are especially accurate when making ranged attacks against close targets.</em> <br /><br /></p>\n<p><strong>Prerequisite</strong></p>\n<p><span class=\"fontstyle0\">Precise Shot.</span></p>\n<p>&nbsp;</p>\n<p><strong>Benefits</strong></p>\n<p class=\"stat-block-1\">You get a +1 bonus on attack and damage rolls with ranged weapons at ranges of up to 30 feet.</p>",
      "unidentified": ""
    },
    "tags": [
      "Combat",
      "Ranged",
      "Offensive",
      "Weapon"
    ],
    "actions": [],
    "uses": {
      "per": null,
      "value": 0,
      "maxFormula": "",
      "autoDeductChargesCost": "1",
      "max": 0
    },
    "attackNotes": [],
    "effectNotes": [],
    "changes": [],
    "changeFlags": {
      "loseDexToAC": false,
      "noEncumbrance": false,
      "mediumArmorFullSpeed": false,
      "heavyArmorFullSpeed": false,
      "noStr": false,
      "noDex": false,
      "oneInt": false,
      "oneWis": false,
      "oneCha": false
    },
    "contextNotes": [],
    "links": {
      "children": [],
      "charges": []
    },
    "tag": "pointblankShot",
    "useCustomTag": false,
    "armorProf": {
      "value": [],
      "custom": ""
    },
    "weaponProf": {
      "value": [],
      "custom": ""
    },
    "languages": {
      "value": [],
      "custom": ""
    },
    "flags": {
      "boolean": {},
      "dictionary": {}
    },
    "scriptCalls": [],
    "subType": "feat",
    "associations": {
      "classes": []
    },
    "showInQuickbar": false,
    "abilityType": "none",
    "crOffset": "",
    "disabled": false,
    "classSkills": {}
  },
  "ownership": {
    "default": 0
  },
  "_stats": {
    "systemId": "pf1",
    "systemVersion": "9.1",
    "coreVersion": "10.291",
    "createdTime": 1665428321848,
    "modifiedTime": 1689797812017,
    "lastModifiedBy": "ppv91YxratjWnkJi"
  },
  "effects": [],
  "folder": null,
  "sort": 0,
  "_key": "!items!dJLezPVKdernFGg5"
}