{
  "_id": "xKKh6c2KMLhkPX4e",
  "name": "Absolute Loyalty",
  "type": "feat",
  "img": "icons/weapons/swords/swords-short.webp",
  "folder": "rasdJf3aELQxqSwG",
  "system": {
    "description": {
      "value": "<p><strong>Benefits</strong></p><p>You gain the one-time ability to immediately cast atonement upon yourself as a spell-like ability upon performing an act or being subjected to an effect that spell affects. This ability can only be used while you are acting in the service of your liege (an individual of higher social standing chosen when you take this feat).</p>",
      "unidentified": ""
    },
    "tags": [
      "PFS"
    ],
    "actions": [],
    "uses": {
      "per": null,
      "value": 0,
      "maxFormula": "",
      "autoDeductChargesCost": "1"
    },
    "attackNotes": [],
    "effectNotes": [],
    "changes": [],
    "changeFlags": {
      "loseDexToAC": false,
      "noEncumbrance": false,
      "mediumArmorFullSpeed": false,
      "heavyArmorFullSpeed": false
    },
    "contextNotes": [],
    "links": {
      "children": [],
      "charges": []
    },
    "tag": "absoluteLoyalty",
    "useCustomTag": false,
    "armorProf": {
      "value": [],
      "custom": ""
    },
    "weaponProf": {
      "value": [],
      "custom": ""
    },
    "languages": {
      "value": [],
      "custom": ""
    },
    "flags": {
      "boolean": {},
      "dictionary": {}
    },
    "scriptCalls": [],
    "subType": "trait",
    "associations": {
      "classes": []
    },
    "showInQuickbar": false,
    "abilityType": "none",
    "crOffset": "",
    "disabled": false,
    "classSkills": {},
    "traitType": "combat"
  },
  "ownership": {
    "default": 0
  },
  "_stats": {
    "systemId": "pf1",
    "systemVersion": "9.1",
    "coreVersion": "10.291",
    "createdTime": 1665428392636,
    "modifiedTime": 1689797972351,
    "lastModifiedBy": "ppv91YxratjWnkJi"
  },
  "effects": [],
  "sort": 0,
  "flags": {},
  "_key": "!items!xKKh6c2KMLhkPX4e"
}