{
  "_id": "MnnpHIvKz32h347e",
  "name": "Accelerated Drinker",
  "type": "feat",
  "img": "icons/weapons/swords/swords-short.webp",
  "folder": "rasdJf3aELQxqSwG",
  "system": {
    "description": {
      "value": "<p><em>You know how to drink a potion efficiently, such as by not using your hands, tossing it in the air and catching it in your mouth, or opening it with your teeth.</em></p><p><strong>Benfits</strong></p><p>You may drink a potion as a move action instead of a standard action as long as you start your turn with the potion in your hand.</p>",
      "unidentified": ""
    },
    "tags": [
      "PFS"
    ],
    "actions": [],
    "uses": {
      "per": null,
      "value": 0,
      "maxFormula": "",
      "autoDeductChargesCost": "1"
    },
    "attackNotes": [],
    "effectNotes": [],
    "changes": [],
    "changeFlags": {
      "loseDexToAC": false,
      "noEncumbrance": false,
      "mediumArmorFullSpeed": false,
      "heavyArmorFullSpeed": false
    },
    "contextNotes": [],
    "links": {
      "children": [],
      "charges": []
    },
    "tag": "acceleratedDrinker",
    "useCustomTag": false,
    "armorProf": {
      "value": [],
      "custom": ""
    },
    "weaponProf": {
      "value": [],
      "custom": ""
    },
    "languages": {
      "value": [],
      "custom": ""
    },
    "flags": {
      "boolean": {},
      "dictionary": {}
    },
    "scriptCalls": [],
    "subType": "trait",
    "associations": {
      "classes": []
    },
    "showInQuickbar": false,
    "abilityType": "none",
    "crOffset": "",
    "disabled": false,
    "classSkills": {},
    "traitType": "combat"
  },
  "ownership": {
    "default": 0
  },
  "_stats": {
    "systemId": "pf1",
    "systemVersion": "9.1",
    "coreVersion": "10.291",
    "createdTime": 1665428390612,
    "modifiedTime": 1689797962720,
    "lastModifiedBy": "ppv91YxratjWnkJi"
  },
  "effects": [],
  "sort": 0,
  "flags": {},
  "_key": "!items!MnnpHIvKz32h347e"
}