{
  "_id": "OsTQWf2Xrc3OOzdd",
  "name": "Airship Captain (Plane of Air)",
  "type": "feat",
  "img": "icons/environment/settlement/watchtower-city.webp",
  "system": {
    "description": {
      "value": "<p><em>Your years of piloting airships on the Plane of Air, dodging angry mephits and protecting your passengers from the depredations of capricious elementals, have taught you how to expertly command your vessel, as well as how to arrest yourself even in the midst of the most turbulent planar storms.</em></p><p><strong>Requirements</strong></p><p>Plane of Air</p><p><strong>Benefits</strong></p><p>You gain a +2 trait bonus on Wisdom checks to move in a plane with subjective directional gravity (see the planar rules in the <em>Pathfinder RPG GameMastery Guide</em>) and a +2 trait bonus on driving checks (see the vehicle rules in <em>Pathfinder RPG Ultimate Combat</em>).</p>",
      "unidentified": ""
    },
    "tags": [
      "PFS"
    ],
    "actions": [],
    "uses": {
      "per": null,
      "value": 0,
      "maxFormula": "",
      "autoDeductChargesCost": "1"
    },
    "attackNotes": [],
    "effectNotes": [],
    "changes": [],
    "changeFlags": {
      "loseDexToAC": false,
      "noEncumbrance": false,
      "mediumArmorFullSpeed": false,
      "heavyArmorFullSpeed": false
    },
    "contextNotes": [],
    "links": {
      "children": [],
      "charges": []
    },
    "tag": "savannaChildPlains",
    "useCustomTag": false,
    "armorProf": {
      "value": [],
      "custom": ""
    },
    "weaponProf": {
      "value": [],
      "custom": ""
    },
    "languages": {
      "value": [],
      "custom": ""
    },
    "flags": {
      "boolean": {},
      "dictionary": {}
    },
    "scriptCalls": [],
    "subType": "trait",
    "associations": {
      "classes": []
    },
    "showInQuickbar": false,
    "abilityType": "none",
    "crOffset": "",
    "disabled": false,
    "classSkills": {},
    "traitType": "region"
  },
  "ownership": {
    "default": 0
  },
  "_stats": {
    "systemId": "pf1",
    "systemVersion": "9.1",
    "coreVersion": "10.291",
    "createdTime": 1665428390840,
    "modifiedTime": 1689797963521,
    "lastModifiedBy": "ppv91YxratjWnkJi"
  },
  "effects": [],
  "folder": "6b4Oq2nNMw3BxL6l",
  "sort": 0,
  "flags": {},
  "_key": "!items!OsTQWf2Xrc3OOzdd"
}