{
  "_id": "kxtLs2J7tit5hYRk",
  "name": "Animal Whisperer (Ironfang Invasion)",
  "type": "feat",
  "img": "icons/tools/navigation/map-chart-tan.webp",
  "system": {
    "description": {
      "value": "<p><em>You&rsquo;ve spent more of your life around animals than people, and find them easier to understand.</em></p><p><strong>Benefits</strong></p><p>You gain a +1 trait bonus on Handle Animal checks, and Handle Animal is always a class skill for you. Your trait bonus increases to +5 whenever you attempt to &ldquo;push&rdquo; a wild animal to perform a trick for you, so long as its attitude is indifferent or friendlier. You may target creatures of the animal type with charm or compulsion spells as if they were humanoids, but unless you have another ability to make yourself understood to animals, you must still succeed at a Handle Animal check to &ldquo;push&rdquo; your target in order to communicate specific requests.</p>",
      "unidentified": ""
    },
    "tags": [],
    "actions": [],
    "uses": {
      "per": null,
      "value": 0,
      "maxFormula": "",
      "autoDeductChargesCost": "1"
    },
    "attackNotes": [],
    "effectNotes": [],
    "changes": [],
    "changeFlags": {
      "loseDexToAC": false,
      "noEncumbrance": false,
      "mediumArmorFullSpeed": false,
      "heavyArmorFullSpeed": false
    },
    "contextNotes": [],
    "links": {
      "children": [],
      "charges": []
    },
    "tag": "animalWhispererIronfangInvasion",
    "useCustomTag": false,
    "armorProf": {
      "value": [],
      "custom": ""
    },
    "weaponProf": {
      "value": [],
      "custom": ""
    },
    "languages": {
      "value": [],
      "custom": ""
    },
    "flags": {
      "boolean": {},
      "dictionary": {}
    },
    "scriptCalls": [],
    "subType": "trait",
    "associations": {
      "classes": []
    },
    "showInQuickbar": false,
    "abilityType": "none",
    "crOffset": "",
    "disabled": false,
    "classSkills": {
      "han": true
    },
    "traitType": "campaign"
  },
  "ownership": {
    "default": 0
  },
  "_stats": {
    "systemId": "pf1",
    "systemVersion": "9.1",
    "coreVersion": "10.291",
    "createdTime": 1665428391907,
    "modifiedTime": 1689797969284,
    "lastModifiedBy": "ppv91YxratjWnkJi"
  },
  "effects": [],
  "folder": "pCbPxzsBnEH3Mz08",
  "sort": 0,
  "flags": {},
  "_key": "!items!kxtLs2J7tit5hYRk"
}