{
  "_id": "jQXbeY1eQ9HURqsQ",
  "name": "Aquatic Survivalist (Plane of Water)",
  "type": "feat",
  "img": "icons/environment/settlement/watchtower-city.webp",
  "system": {
    "description": {
      "value": "<p><em>For whatever reason, you spent much of your formative years fighting to keep yourself alive amid the fearsome creatures that inhabit the infinite oceans of the Plane of Water, and you learned how to stay hidden even against predators with unusual senses.</em></p><p><strong>Requirements</strong></p><p>Plane of Water</p><p><strong>Benefits</strong></p><p>You gain a +2 trait bonus on Stealth checks while underwater. Once per day, you can attempt a Stealth check to hide in plain sight (as the ranger class feature of the same name) while underwater. This is only effective against creatures that rely on blindsense, blindsight, or tremorsense. Creatures with other senses perceive you normally.</p>",
      "unidentified": ""
    },
    "tags": [
      "PFS"
    ],
    "actions": [],
    "uses": {
      "per": null,
      "value": 0,
      "maxFormula": "",
      "autoDeductChargesCost": "1"
    },
    "attackNotes": [],
    "effectNotes": [],
    "changes": [],
    "changeFlags": {
      "loseDexToAC": false,
      "noEncumbrance": false,
      "mediumArmorFullSpeed": false,
      "heavyArmorFullSpeed": false
    },
    "contextNotes": [],
    "links": {
      "children": [],
      "charges": []
    },
    "tag": "savannaChildPlains",
    "useCustomTag": false,
    "armorProf": {
      "value": [],
      "custom": ""
    },
    "weaponProf": {
      "value": [],
      "custom": ""
    },
    "languages": {
      "value": [],
      "custom": ""
    },
    "flags": {
      "boolean": {},
      "dictionary": {}
    },
    "scriptCalls": [],
    "subType": "trait",
    "associations": {
      "classes": []
    },
    "showInQuickbar": false,
    "abilityType": "none",
    "crOffset": "",
    "disabled": false,
    "classSkills": {},
    "traitType": "region"
  },
  "ownership": {
    "default": 0
  },
  "_stats": {
    "systemId": "pf1",
    "systemVersion": "9.1",
    "coreVersion": "10.291",
    "createdTime": 1665428391862,
    "modifiedTime": 1689797968988,
    "lastModifiedBy": "ppv91YxratjWnkJi"
  },
  "effects": [],
  "folder": "6b4Oq2nNMw3BxL6l",
  "sort": 0,
  "flags": {},
  "_key": "!items!jQXbeY1eQ9HURqsQ"
}