{
  "_id": "qAu19IwGKv81D16S",
  "name": "Assimilated Native (Human; Mwangi)",
  "type": "feat",
  "img": "systems/pf1/icons/skills/blue_35.jpg",
  "folder": "OJcM9ZeR3TB33I5m",
  "system": {
    "description": {
      "value": "<p><em>You have adopted the ways of the colonials. As a result, you feel that other, 'inferior' races such as your Mwangi brethren should obey you as they do the colonials.</em></p><p><strong>Requirements</strong></p><p>Mwangi Human Heritage</p><p><strong>Benefits</strong></p><p>You gain a +2 trait bonus on Intimidate checks to influence Mwangi natives, but you suffer a -2 on Diplomacy checks to influence them.</p>",
      "unidentified": ""
    },
    "tags": [
      "PFS",
      "Human",
      "Mwangi"
    ],
    "actions": [],
    "uses": {
      "per": null,
      "value": 0,
      "maxFormula": "",
      "autoDeductChargesCost": "1"
    },
    "attackNotes": [],
    "effectNotes": [],
    "changes": [],
    "changeFlags": {
      "loseDexToAC": false,
      "noEncumbrance": false,
      "mediumArmorFullSpeed": false,
      "heavyArmorFullSpeed": false
    },
    "contextNotes": [],
    "links": {
      "children": [],
      "charges": []
    },
    "tag": "assimilatedNativeMwangi",
    "useCustomTag": false,
    "armorProf": {
      "value": [],
      "custom": ""
    },
    "weaponProf": {
      "value": [],
      "custom": ""
    },
    "languages": {
      "value": [],
      "custom": ""
    },
    "flags": {
      "boolean": {},
      "dictionary": {}
    },
    "scriptCalls": [],
    "subType": "trait",
    "associations": {
      "classes": []
    },
    "showInQuickbar": false,
    "abilityType": "none",
    "crOffset": "",
    "disabled": false,
    "classSkills": {},
    "traitType": "race"
  },
  "ownership": {
    "default": 0
  },
  "_stats": {
    "systemId": "pf1",
    "systemVersion": "9.1",
    "coreVersion": "10.291",
    "createdTime": 1665428392238,
    "modifiedTime": 1689797970735,
    "lastModifiedBy": "ppv91YxratjWnkJi"
  },
  "effects": [],
  "sort": 0,
  "flags": {},
  "_key": "!items!qAu19IwGKv81D16S"
}