{
  "_id": "R0v0Gjlc2mR1IDjy",
  "name": "Athletic Champion (War for the Crown)",
  "type": "feat",
  "img": "icons/tools/navigation/map-chart-tan.webp",
  "system": {
    "description": {
      "value": "<p><em>Your physique and skill brought you into the public eye, and a winning smile helps you stay there. Taldor honors its extraordinary athletes, celebrating them as cultural heroes. Whether you were a gladiator, a runner, a wrestler, or any other competitor, your most recent victory caused someone important to sit up and take notice. You may never have a political career in front of you, but for now your name is helping to bring a little extra money in, and maybe that&rsquo;s good enough.</em></p><p><strong>Benefits</strong></p><p>Select two of the following skills: Climb, Diplomacy, Perception, and Swim. You gain a +1 trait bonus on checks with those skills, and they are always class skills for you. In addition, you are accustomed to maneuvering through crowds; you gain a +2 trait bonus on checks to navigate through a crowd or resist being moved against your will, including spells and bull rush, drag, and reposition combat maneuvers.</p>",
      "unidentified": ""
    },
    "tags": [],
    "actions": [],
    "uses": {
      "per": null,
      "value": 0,
      "maxFormula": "",
      "autoDeductChargesCost": "1"
    },
    "attackNotes": [],
    "effectNotes": [],
    "changes": [],
    "changeFlags": {
      "loseDexToAC": false,
      "noEncumbrance": false,
      "mediumArmorFullSpeed": false,
      "heavyArmorFullSpeed": false
    },
    "contextNotes": [],
    "links": {
      "children": [],
      "charges": []
    },
    "tag": "athleticChampionWarForTheCrown",
    "useCustomTag": false,
    "armorProf": {
      "value": [],
      "custom": ""
    },
    "weaponProf": {
      "value": [],
      "custom": ""
    },
    "languages": {
      "value": [],
      "custom": ""
    },
    "flags": {
      "boolean": {},
      "dictionary": {}
    },
    "scriptCalls": [],
    "subType": "trait",
    "associations": {
      "classes": []
    },
    "showInQuickbar": false,
    "abilityType": "none",
    "crOffset": "",
    "disabled": false,
    "classSkills": {},
    "traitType": "campaign"
  },
  "ownership": {
    "default": 0
  },
  "_stats": {
    "systemId": "pf1",
    "systemVersion": "9.1",
    "coreVersion": "10.291",
    "createdTime": 1665428390898,
    "modifiedTime": 1689797963949,
    "lastModifiedBy": "ppv91YxratjWnkJi"
  },
  "effects": [],
  "folder": "pCbPxzsBnEH3Mz08",
  "sort": 0,
  "flags": {},
  "_key": "!items!R0v0Gjlc2mR1IDjy"
}