{
  "_id": "4lfTLUDjiOP2pNd9",
  "name": "Barroom Talespinner (Skull and Shackles)",
  "type": "feat",
  "img": "icons/tools/navigation/map-chart-tan.webp",
  "folder": "pCbPxzsBnEH3Mz08",
  "system": {
    "description": {
      "value": "<p><em>You grew up listening to tales of adventure and piracy on the high seas and the sea chanteys of old salts in dockside dives. You learned all about what it's like to be a pirate by talking with the sailors on shore leave, and learned how to tell a tale (or perform some other pirate entertainment) yourself. You went to a tavern called the Formidably Maid in Port Peril to earn a few coins with your tales of the sea. The patrons seemed pleased with your performance and bought you a few drinks. You had just remembered a tale of an unfortunate sailor who found himself press-ganged on a pirate ship after his drink was drugged when suddenly everything went black.</em></p><p><strong>Benefits</strong></p><p>You gain a +1 trait bonus on Diplomacy checks and one category of Perform checks, and one of these skills is a class skill for you. In addition, once per week you can make a DC 15 Knowledge (local) or Intelligence check to see if you know a popular legendary pirate tale, the telling of which grants you a +1 trait bonus on checks made to influence NPCs on the Wormwood.</p>",
      "unidentified": ""
    },
    "tags": [],
    "actions": [],
    "uses": {
      "per": null,
      "value": 0,
      "maxFormula": "",
      "autoDeductChargesCost": "1"
    },
    "attackNotes": [],
    "effectNotes": [],
    "changes": [],
    "changeFlags": {
      "loseDexToAC": false,
      "noEncumbrance": false,
      "mediumArmorFullSpeed": false,
      "heavyArmorFullSpeed": false
    },
    "contextNotes": [],
    "links": {
      "children": [],
      "charges": []
    },
    "tag": "barroomTalespinnerSkullAndShackles",
    "useCustomTag": false,
    "armorProf": {
      "value": [],
      "custom": ""
    },
    "weaponProf": {
      "value": [],
      "custom": ""
    },
    "languages": {
      "value": [],
      "custom": ""
    },
    "flags": {
      "boolean": {},
      "dictionary": {}
    },
    "scriptCalls": [],
    "subType": "trait",
    "associations": {
      "classes": []
    },
    "showInQuickbar": false,
    "abilityType": "none",
    "crOffset": "",
    "disabled": false,
    "classSkills": {},
    "traitType": "campaign"
  },
  "ownership": {
    "default": 0
  },
  "_stats": {
    "systemId": "pf1",
    "systemVersion": "9.1",
    "coreVersion": "10.291",
    "createdTime": 1665428389752,
    "modifiedTime": 1689797958169,
    "lastModifiedBy": "ppv91YxratjWnkJi"
  },
  "effects": [],
  "sort": 0,
  "flags": {},
  "_key": "!items!4lfTLUDjiOP2pNd9"
}