{
  "_id": "fu4vtYS7KLgGuN7q",
  "name": "Belem Pirate (Minata)",
  "type": "feat",
  "img": "icons/environment/settlement/watchtower-city.webp",
  "folder": "6b4Oq2nNMw3BxL6l",
  "system": {
    "description": {
      "value": "<p><em>The hidden coves and bays of the island of Belem have been your home throughout most of your career as a pirate, and the winding waterways of Minata have trained you well in the art of sailing. </em></p><p><strong>Requirements</strong></p><p>Minata</p><p><strong>Benefits</strong></p><p>You gain a +1 trait bonus on Knowledge (geography) checks and Profession (sailor) checks, and one of these skills becomes a class skill for you.</p>",
      "unidentified": ""
    },
    "tags": [
      "PFS"
    ],
    "actions": [],
    "uses": {
      "per": null,
      "value": 0,
      "maxFormula": "",
      "autoDeductChargesCost": "1"
    },
    "attackNotes": [],
    "effectNotes": [],
    "changes": [],
    "changeFlags": {
      "loseDexToAC": false,
      "noEncumbrance": false,
      "mediumArmorFullSpeed": false,
      "heavyArmorFullSpeed": false
    },
    "contextNotes": [],
    "links": {
      "children": [],
      "charges": []
    },
    "tag": "belemPirateMinata",
    "useCustomTag": false,
    "armorProf": {
      "value": [],
      "custom": ""
    },
    "weaponProf": {
      "value": [],
      "custom": ""
    },
    "languages": {
      "value": [],
      "custom": ""
    },
    "flags": {
      "boolean": {},
      "dictionary": {}
    },
    "scriptCalls": [],
    "subType": "trait",
    "associations": {
      "classes": []
    },
    "showInQuickbar": false,
    "abilityType": "none",
    "crOffset": "",
    "disabled": false,
    "classSkills": {},
    "traitType": "region"
  },
  "ownership": {
    "default": 0
  },
  "_stats": {
    "systemId": "pf1",
    "systemVersion": "9.1",
    "coreVersion": "10.291",
    "createdTime": 1665428391744,
    "modifiedTime": 1689797968216,
    "lastModifiedBy": "ppv91YxratjWnkJi"
  },
  "effects": [],
  "sort": 0,
  "flags": {},
  "_key": "!items!fu4vtYS7KLgGuN7q"
}