{
  "_id": "KlwS1tJ7WyRBohli",
  "name": "Berserker of the Society (Barbarian, Pathfinder Society)",
  "type": "feat",
  "img": "icons/weapons/swords/swords-short.webp",
  "folder": "rasdJf3aELQxqSwG",
  "system": {
    "description": {
      "value": "<p><em>Your time spent as a Pathfinder has taught you new truths about the origins of the your rage ability.</em></p><p><strong>Benefits</strong></p><p>You may use your rage ability for 3 additional rounds per day.</p>",
      "unidentified": ""
    },
    "tags": [
      "PFS"
    ],
    "actions": [],
    "uses": {
      "per": null,
      "value": 0,
      "maxFormula": "",
      "autoDeductChargesCost": "1"
    },
    "attackNotes": [],
    "effectNotes": [],
    "changes": [],
    "changeFlags": {
      "loseDexToAC": false,
      "noEncumbrance": false,
      "mediumArmorFullSpeed": false,
      "heavyArmorFullSpeed": false
    },
    "contextNotes": [],
    "links": {
      "children": [],
      "charges": []
    },
    "tag": "berserkerOfTheSocietyBarbarianPathfinderSociety",
    "useCustomTag": false,
    "armorProf": {
      "value": [],
      "custom": ""
    },
    "weaponProf": {
      "value": [],
      "custom": ""
    },
    "languages": {
      "value": [],
      "custom": ""
    },
    "flags": {
      "boolean": {},
      "dictionary": {}
    },
    "scriptCalls": [],
    "subType": "trait",
    "associations": {
      "classes": []
    },
    "showInQuickbar": false,
    "abilityType": "none",
    "crOffset": "",
    "disabled": false,
    "classSkills": {},
    "traitType": "combat"
  },
  "ownership": {
    "default": 0
  },
  "_stats": {
    "systemId": "pf1",
    "systemVersion": "9.1",
    "coreVersion": "10.291",
    "createdTime": 1665428390562,
    "modifiedTime": 1689797962315,
    "lastModifiedBy": "ppv91YxratjWnkJi"
  },
  "effects": [],
  "sort": 0,
  "flags": {},
  "_key": "!items!KlwS1tJ7WyRBohli"
}