{
  "_id": "0jJxeAtu6iZ9N796",
  "name": "Betrayed (Curse of the Crimson Throne)",
  "type": "feat",
  "img": "icons/tools/navigation/map-chart-tan.webp",
  "system": {
    "description": {
      "value": "<p><em>You were hardly a model citizen as a child or young adult. Your reasons for turning to a life of crime may be varied, but what matters is that you eventually fell in with a certain well-connected and notorious crime lord named Gaedren Lamm. His reputation as a snake and a treacherous scoundrel was known to you, but for reasons of your own, you chose not to turn him down when he offered you a chance to work for him. You may have assumed you were an exception, or that you&rsquo;d be able to handle him, or perhaps even planned to betray him. As it worked out, though, Gaedren got the upper hand and took you down you first. You may have served time in jail, may have been beaten by his thugs and left for dead, or could simply have had your profits stolen out from under you. Whatever the cause, Gaedren wronged you, and you are eager for the chance to get revenge.</em></p><p>Choose one of the following benefits:</p><p><strong>Hungry for Revenge</strong></p><p>You&rsquo;ve never forgiven Gaedren for his betrayal, and have vowed to make him pay for what he did. Whether that&rsquo;s seeing him rot in jail or a shallow grave, you hope to taste vengeance someday. Whenever you deal damage with a melee weapon on a creature that is flat-footed, you gain a +1 trait bonus on the damage roll.</p><p><strong>Reformed Criminal</strong></p><p>You&rsquo;ve given up the life of crime, and managed to talk your way out of any repercussions such as jail time or fines. You&rsquo;ve told yourself that you would rather leave your past behind, yet the concept of seeing Gaedren Lamm pay for his crimes still appeals to you. You gain a +1 trait bonus on Diplomacy checks, and Diplomacy is a class skill for you.</p>",
      "unidentified": ""
    },
    "tags": [],
    "actions": [],
    "uses": {
      "per": null,
      "value": 0,
      "maxFormula": "",
      "autoDeductChargesCost": "1"
    },
    "attackNotes": [],
    "effectNotes": [],
    "changes": [],
    "changeFlags": {
      "loseDexToAC": false,
      "noEncumbrance": false,
      "mediumArmorFullSpeed": false,
      "heavyArmorFullSpeed": false
    },
    "contextNotes": [],
    "links": {
      "children": [],
      "charges": []
    },
    "tag": "betrayedCurseOfTheCrimsonThrone",
    "useCustomTag": false,
    "armorProf": {
      "value": [],
      "custom": ""
    },
    "weaponProf": {
      "value": [],
      "custom": ""
    },
    "languages": {
      "value": [],
      "custom": ""
    },
    "flags": {
      "boolean": {},
      "dictionary": {}
    },
    "scriptCalls": [],
    "subType": "trait",
    "associations": {
      "classes": []
    },
    "showInQuickbar": false,
    "abilityType": "none",
    "crOffset": "",
    "disabled": false,
    "classSkills": {},
    "traitType": "campaign"
  },
  "ownership": {
    "default": 0
  },
  "_stats": {
    "systemId": "pf1",
    "systemVersion": "9.1",
    "coreVersion": "10.291",
    "createdTime": 1665428389619,
    "modifiedTime": 1689797957304,
    "lastModifiedBy": "ppv91YxratjWnkJi"
  },
  "effects": [],
  "folder": "pCbPxzsBnEH3Mz08",
  "sort": 0,
  "flags": {},
  "_key": "!items!0jJxeAtu6iZ9N796"
}