{
  "_id": "rRY68kbcEj5tqVqe",
  "name": "Blood Resonance",
  "type": "feat",
  "img": "icons/environment/people/group.webp",
  "system": {
    "description": {
      "value": "<p><strong>Benefits</strong></p><p>Select one racial, inherited template (such as half-dragon), or bloodline ability you can currently use at least three times each day. Once per day when you are within 60 feet of another character with this family trait who shares the race, template, or bloodline, you can use the selected ability without it counting against your normal daily limit.</p>",
      "unidentified": ""
    },
    "tags": [],
    "actions": [],
    "uses": {
      "per": null,
      "value": 0,
      "maxFormula": "",
      "autoDeductChargesCost": "1"
    },
    "attackNotes": [],
    "effectNotes": [],
    "changes": [],
    "changeFlags": {
      "loseDexToAC": false,
      "noEncumbrance": false,
      "mediumArmorFullSpeed": false,
      "heavyArmorFullSpeed": false
    },
    "contextNotes": [],
    "links": {
      "children": [],
      "charges": []
    },
    "tag": "bloodResonance",
    "useCustomTag": false,
    "armorProf": {
      "value": [],
      "custom": ""
    },
    "weaponProf": {
      "value": [],
      "custom": ""
    },
    "languages": {
      "value": [],
      "custom": ""
    },
    "flags": {
      "boolean": {},
      "dictionary": {}
    },
    "scriptCalls": [],
    "subType": "trait",
    "associations": {
      "classes": []
    },
    "showInQuickbar": false,
    "abilityType": "none",
    "crOffset": "",
    "disabled": false,
    "classSkills": {},
    "traitType": "family"
  },
  "ownership": {
    "default": 0
  },
  "_stats": {
    "systemId": "pf1",
    "systemVersion": "9.1",
    "coreVersion": "10.291",
    "createdTime": 1665428392276,
    "modifiedTime": 1689797970981,
    "lastModifiedBy": "ppv91YxratjWnkJi"
  },
  "effects": [],
  "folder": "VYAE9lKSB1c1VMNw",
  "sort": 0,
  "flags": {},
  "_key": "!items!rRY68kbcEj5tqVqe"
}