{
  "_id": "tT0hVQDqriCIrMqH",
  "name": "Bog Scamp (Kobold; Black-Scaled)",
  "type": "feat",
  "img": "systems/pf1/icons/skills/blue_35.jpg",
  "system": {
    "description": {
      "value": "<p><em>You were raised in the sludgy swamps, and are used to moving through boggy terrain.</em></p><p><strong>Requirements</strong></p><p>Black-Scaled Kobold Heritage</p><p><strong>Benefits</strong></p><p>You can swim through a deep bog at up to half your speed as a move action, instead of the normal quarter speed. Failing a swim check while in a deep bog doesn&rsquo;t cause you to go underwater, even if you fail by 5 or more, though such a failure still results in a lack of progress.</p>",
      "unidentified": ""
    },
    "tags": [
      "Kobold"
    ],
    "actions": [],
    "uses": {
      "per": null,
      "value": 0,
      "maxFormula": "",
      "autoDeductChargesCost": "1"
    },
    "attackNotes": [],
    "effectNotes": [],
    "changes": [],
    "changeFlags": {
      "loseDexToAC": false,
      "noEncumbrance": false,
      "mediumArmorFullSpeed": false,
      "heavyArmorFullSpeed": false
    },
    "contextNotes": [],
    "links": {
      "children": [],
      "charges": []
    },
    "tag": "adventurousExplorerSongo",
    "useCustomTag": false,
    "armorProf": {
      "value": [],
      "custom": ""
    },
    "weaponProf": {
      "value": [],
      "custom": ""
    },
    "languages": {
      "value": [],
      "custom": ""
    },
    "flags": {
      "boolean": {},
      "dictionary": {}
    },
    "scriptCalls": [],
    "subType": "trait",
    "associations": {
      "classes": []
    },
    "showInQuickbar": false,
    "abilityType": "none",
    "crOffset": "",
    "disabled": false,
    "classSkills": {},
    "traitType": "race"
  },
  "ownership": {
    "default": 0
  },
  "_stats": {
    "systemId": "pf1",
    "systemVersion": "9.1",
    "coreVersion": "10.291",
    "createdTime": 1665428392341,
    "modifiedTime": 1689797971390,
    "lastModifiedBy": "ppv91YxratjWnkJi"
  },
  "effects": [],
  "folder": "OJcM9ZeR3TB33I5m",
  "sort": 0,
  "flags": {},
  "_key": "!items!tT0hVQDqriCIrMqH"
}