{
  "_id": "SvjZYOaDp3EMKBST",
  "name": "Bred for War (Human; Shoanti)",
  "type": "feat",
  "img": "systems/pf1/icons/skills/blue_35.jpg",
  "folder": "OJcM9ZeR3TB33I5m",
  "system": {
    "description": {
      "value": "<p><em>You tower above most other humans and possess a physique of hard, corded muscle.</em></p><p><strong>Requirements</strong></p><p>Shoanti Human Heritage</p><p><strong>Benefits</strong></p><p>You gain a +1 trait bonus on Intimidate checks and a +1 trait bonus on your CMB because of your great size. You must be at least 6 feet tall.</p>",
      "unidentified": ""
    },
    "tags": [
      "PFS",
      "Human",
      "Shoanti"
    ],
    "actions": [],
    "uses": {
      "per": null,
      "value": 0,
      "maxFormula": "",
      "autoDeductChargesCost": "1"
    },
    "attackNotes": [],
    "effectNotes": [],
    "changes": [],
    "changeFlags": {
      "loseDexToAC": false,
      "noEncumbrance": false,
      "mediumArmorFullSpeed": false,
      "heavyArmorFullSpeed": false
    },
    "contextNotes": [],
    "links": {
      "children": [],
      "charges": []
    },
    "tag": "bredForWarShoanti",
    "useCustomTag": false,
    "armorProf": {
      "value": [],
      "custom": ""
    },
    "weaponProf": {
      "value": [],
      "custom": ""
    },
    "languages": {
      "value": [],
      "custom": ""
    },
    "flags": {
      "boolean": {},
      "dictionary": {}
    },
    "scriptCalls": [],
    "subType": "trait",
    "associations": {
      "classes": []
    },
    "showInQuickbar": false,
    "abilityType": "none",
    "crOffset": "",
    "disabled": false,
    "classSkills": {},
    "traitType": "race"
  },
  "ownership": {
    "default": 0
  },
  "_stats": {
    "systemId": "pf1",
    "systemVersion": "9.1",
    "coreVersion": "10.291",
    "createdTime": 1665428390969,
    "modifiedTime": 1689797964351,
    "lastModifiedBy": "ppv91YxratjWnkJi"
  },
  "effects": [],
  "sort": 0,
  "flags": {},
  "_key": "!items!SvjZYOaDp3EMKBST"
}