{
  "_id": "ClHv7nLXZViVvbeb",
  "name": "Brute (Half-Orc)",
  "type": "feat",
  "img": "systems/pf1/icons/skills/blue_35.jpg",
  "folder": "OJcM9ZeR3TB33I5m",
  "system": {
    "description": {
      "value": "<p><em>You have worked for a crime lord, either as a low- level enforcer or as a guard, and are adept at frightening away people. &nbsp; &nbsp;</em></p><p><strong>Requirements</strong></p><p>Half-Orc</p><p><strong>Benefits</strong></p><p>You gain a +1 trait bonus on Intimidate checks, and Intimidate is always a class skill for you.</p>",
      "unidentified": ""
    },
    "tags": [
      "PFS",
      "Half-orc"
    ],
    "actions": [],
    "uses": {
      "per": null,
      "value": 0,
      "maxFormula": "",
      "autoDeductChargesCost": "1"
    },
    "attackNotes": [],
    "effectNotes": [],
    "changes": [],
    "changeFlags": {
      "loseDexToAC": false,
      "noEncumbrance": false,
      "mediumArmorFullSpeed": false,
      "heavyArmorFullSpeed": false
    },
    "contextNotes": [],
    "links": {
      "children": [],
      "charges": []
    },
    "tag": "bruteHalforc",
    "useCustomTag": false,
    "armorProf": {
      "value": [],
      "custom": ""
    },
    "weaponProf": {
      "value": [],
      "custom": ""
    },
    "languages": {
      "value": [],
      "custom": ""
    },
    "flags": {
      "boolean": {},
      "dictionary": {}
    },
    "scriptCalls": [],
    "subType": "trait",
    "associations": {
      "classes": []
    },
    "showInQuickbar": false,
    "abilityType": "none",
    "crOffset": "",
    "disabled": false,
    "classSkills": {
      "int": true
    },
    "traitType": "race"
  },
  "ownership": {
    "default": 0
  },
  "_stats": {
    "systemId": "pf1",
    "systemVersion": "9.1",
    "coreVersion": "10.291",
    "createdTime": 1665428390191,
    "modifiedTime": 1689797960178,
    "lastModifiedBy": "ppv91YxratjWnkJi"
  },
  "effects": [],
  "sort": 0,
  "flags": {},
  "_key": "!items!ClHv7nLXZViVvbeb"
}