{
  "_id": "kqHhIHYLu9OL2JFE",
  "name": "Bully Burner (Goblin)",
  "type": "feat",
  "img": "systems/pf1/icons/skills/blue_35.jpg",
  "system": {
    "description": {
      "value": "<p><em>You were forced to serve cruel hobgoblins at some point, much to your abject humiliation and frustration, and memories of this inspire a rage that lends you strength.</em></p><p><strong>Requirements</strong></p><p>Goblin</p><p><strong>Benefits</strong></p><p>Against creatures with the goblinoid subtype, you gain a +1 trait bonus on combat maneuver checks and a +1 trait bonus to CMD.</p>",
      "unidentified": ""
    },
    "tags": [
      "PFS",
      "Goblin"
    ],
    "actions": [],
    "uses": {
      "per": null,
      "value": 0,
      "maxFormula": "",
      "autoDeductChargesCost": "1"
    },
    "attackNotes": [],
    "effectNotes": [],
    "changes": [],
    "changeFlags": {
      "loseDexToAC": false,
      "noEncumbrance": false,
      "mediumArmorFullSpeed": false,
      "heavyArmorFullSpeed": false
    },
    "contextNotes": [],
    "links": {
      "children": [],
      "charges": []
    },
    "tag": "adventurousExplorerSongo",
    "useCustomTag": false,
    "armorProf": {
      "value": [],
      "custom": ""
    },
    "weaponProf": {
      "value": [],
      "custom": ""
    },
    "languages": {
      "value": [],
      "custom": ""
    },
    "flags": {
      "boolean": {},
      "dictionary": {}
    },
    "scriptCalls": [],
    "subType": "trait",
    "associations": {
      "classes": []
    },
    "showInQuickbar": false,
    "abilityType": "none",
    "crOffset": "",
    "disabled": false,
    "classSkills": {},
    "traitType": "race"
  },
  "ownership": {
    "default": 0
  },
  "_stats": {
    "systemId": "pf1",
    "systemVersion": "9.1",
    "coreVersion": "10.291",
    "createdTime": 1665428391905,
    "modifiedTime": 1689797969272,
    "lastModifiedBy": "ppv91YxratjWnkJi"
  },
  "effects": [],
  "folder": "OJcM9ZeR3TB33I5m",
  "sort": 0,
  "flags": {},
  "_key": "!items!kqHhIHYLu9OL2JFE"
}