{
  "_id": "lV3t4SLLABebcRP2",
  "name": "Centaur Vengeance (Iobaria)",
  "type": "feat",
  "img": "icons/environment/settlement/watchtower-city.webp",
  "system": {
    "description": {
      "value": "<p><em>Your nomadic tribe wanders the Ice Steppes of Iobaria. They live in constant fear of the great white wyrm Sjohvornor and feel helpless to stop the dragon&rsquo;s aggression. Your tribe is filled with wise sages and great warriors, and they resent being cowed by any foe. You vowed that one day you would not have to be afraid of Sjohvornor or any other wyrm.</em></p><p><strong>Requirements</strong></p><p>Iobaria</p><p><strong>Benefits</strong></p><p>You gain a +2 bonus on saving throws against any dragon&rsquo;s frightful presence.</p>",
      "unidentified": ""
    },
    "tags": [
      "PFS"
    ],
    "actions": [],
    "uses": {
      "per": null,
      "value": 0,
      "maxFormula": "",
      "autoDeductChargesCost": "1"
    },
    "attackNotes": [],
    "effectNotes": [],
    "changes": [],
    "changeFlags": {
      "loseDexToAC": false,
      "noEncumbrance": false,
      "mediumArmorFullSpeed": false,
      "heavyArmorFullSpeed": false
    },
    "contextNotes": [],
    "links": {
      "children": [],
      "charges": []
    },
    "tag": "savannaChildPlains",
    "useCustomTag": false,
    "armorProf": {
      "value": [],
      "custom": ""
    },
    "weaponProf": {
      "value": [],
      "custom": ""
    },
    "languages": {
      "value": [],
      "custom": ""
    },
    "flags": {
      "boolean": {},
      "dictionary": {}
    },
    "scriptCalls": [],
    "subType": "trait",
    "associations": {
      "classes": []
    },
    "showInQuickbar": false,
    "abilityType": "none",
    "crOffset": "",
    "disabled": false,
    "classSkills": {},
    "traitType": "region"
  },
  "ownership": {
    "default": 0
  },
  "_stats": {
    "systemId": "pf1",
    "systemVersion": "9.1",
    "coreVersion": "10.291",
    "createdTime": 1665428391925,
    "modifiedTime": 1689797969410,
    "lastModifiedBy": "ppv91YxratjWnkJi"
  },
  "effects": [],
  "folder": "6b4Oq2nNMw3BxL6l",
  "sort": 0,
  "flags": {},
  "_key": "!items!lV3t4SLLABebcRP2"
}