{
  "_id": "astLabxcMDYe1OM6",
  "name": "Chelish Sympathizer",
  "type": "feat",
  "img": "systems/pf1/icons/feats/persuasive.jpg",
  "system": {
    "description": {
      "value": "<p><em>You feed intelligence to the Thrice-Damned House of Thrune for your own gain or ideological reasons and are given valuable clues gathered by other Chelish spies in exchange.</em></p><p><strong>Benefits</strong></p><p>Once per month while in an Inner Sea region settlement of at least 2,000 people, you can call upon these connections to gain an edge in a verbal duel (<em>Pathfinder RPG Ultimate Intrigue 176</em>) or gain a +2 bonus on one Bluff, Diplomacy, or Intimidate check.</p>",
      "unidentified": ""
    },
    "tags": [
      "PFS"
    ],
    "actions": [],
    "uses": {
      "per": null,
      "value": 0,
      "maxFormula": "",
      "autoDeductChargesCost": "1"
    },
    "attackNotes": [],
    "effectNotes": [],
    "changes": [],
    "changeFlags": {
      "loseDexToAC": false,
      "noEncumbrance": false,
      "mediumArmorFullSpeed": false,
      "heavyArmorFullSpeed": false
    },
    "contextNotes": [],
    "links": {
      "children": [],
      "charges": []
    },
    "tag": "savannaChildPlains",
    "useCustomTag": false,
    "armorProf": {
      "value": [],
      "custom": ""
    },
    "weaponProf": {
      "value": [],
      "custom": ""
    },
    "languages": {
      "value": [],
      "custom": ""
    },
    "flags": {
      "boolean": {},
      "dictionary": {}
    },
    "scriptCalls": [],
    "subType": "trait",
    "associations": {
      "classes": []
    },
    "showInQuickbar": false,
    "abilityType": "none",
    "crOffset": "",
    "disabled": false,
    "classSkills": {},
    "traitType": "social"
  },
  "ownership": {
    "default": 0
  },
  "_stats": {
    "systemId": "pf1",
    "systemVersion": "9.1",
    "coreVersion": "10.291",
    "createdTime": 1665428391419,
    "modifiedTime": 1689797966855,
    "lastModifiedBy": "ppv91YxratjWnkJi"
  },
  "effects": [],
  "folder": "FeKDEoyX2eafWdJl",
  "sort": 0,
  "flags": {},
  "_key": "!items!astLabxcMDYe1OM6"
}