{
  "_id": "7eaVZeWsDO00mBhA",
  "name": "Child of the Crusades (Wrath of the Righteous)",
  "type": "feat",
  "img": "icons/tools/navigation/map-chart-tan.webp",
  "system": {
    "description": {
      "value": "<p><em>Your parents were members of the crusade, as were their parents before them. (If you are an elf, gnome, or other long-lived race, these could be brothers or cousins instead, since it&rsquo;s possible that the Worldwound simply didn&rsquo;t exist at a time before you were born.) The righteousness of the crusades sometimes feels as if it runs in your very blood, and it bolsters you against demonic inf luence. Your parents may be alive still, or they may have perished on a mission&mdash;that choice is up to you. You grew up knowing them, though, and their zeal and devotion to the crusade is the primary reason you feel the same way. They&rsquo;ve told you of other family members who have also been involved in the crusade, and it&rsquo;s not uncommon for you to meet a distant cousin or long-lost aunt, uncle, or other family member while traveling among the border towns of Mendev. This strong family tie bolsters your mind and sense of belonging to the crusade.</em></p><p><strong>Benefits</strong></p><p>Once per day when you fail a saving throw against an effect created by a demon that would possess or incapacitate you mentally, you may immediately reroll that saving throw as a free action. You must take the second result, even if it is worse.</p><p><strong>Associated Mythic Path</strong></p><p>Marshal</p><p><strong>Multiple Characters</strong></p><p>If other characters take this trait, you should all be related&mdash;you can be siblings, cousins, or even more distant relations, but you should all be aware of this shared lineage.</p>",
      "unidentified": ""
    },
    "tags": [],
    "actions": [],
    "uses": {
      "per": null,
      "value": 0,
      "maxFormula": "",
      "autoDeductChargesCost": "1"
    },
    "attackNotes": [],
    "effectNotes": [],
    "changes": [],
    "changeFlags": {
      "loseDexToAC": false,
      "noEncumbrance": false,
      "mediumArmorFullSpeed": false,
      "heavyArmorFullSpeed": false
    },
    "contextNotes": [],
    "links": {
      "children": [],
      "charges": []
    },
    "tag": "childOfTheCrusadesWrathOfTheRighteous",
    "useCustomTag": false,
    "armorProf": {
      "value": [],
      "custom": ""
    },
    "weaponProf": {
      "value": [],
      "custom": ""
    },
    "languages": {
      "value": [],
      "custom": ""
    },
    "flags": {
      "boolean": {},
      "dictionary": {}
    },
    "scriptCalls": [],
    "subType": "trait",
    "associations": {
      "classes": []
    },
    "showInQuickbar": false,
    "abilityType": "none",
    "crOffset": "",
    "disabled": false,
    "classSkills": {},
    "traitType": "campaign"
  },
  "ownership": {
    "default": 0
  },
  "_stats": {
    "systemId": "pf1",
    "systemVersion": "9.1",
    "coreVersion": "10.291",
    "createdTime": 1665428389846,
    "modifiedTime": 1689797958747,
    "lastModifiedBy": "ppv91YxratjWnkJi"
  },
  "effects": [],
  "folder": "pCbPxzsBnEH3Mz08",
  "sort": 0,
  "flags": {},
  "_key": "!items!7eaVZeWsDO00mBhA"
}