{
  "_id": "lRGmeiOsSlNDjdug",
  "name": "Child of the Streets",
  "type": "feat",
  "img": "systems/pf1/icons/skills/light_07.jpg",
  "folder": "FeKDEoyX2eafWdJl",
  "system": {
    "description": {
      "value": "<p><em>You grew up on the streets of a large city, and as a result you have developed a knack for picking pockets and hiding small objects on your person.</em></p><p><strong>Benefits</strong></p><p>You gain a +1 trait bonus on Sleight of Hand checks, and Sleight of Hand is always a class skill for you.</p>",
      "unidentified": ""
    },
    "tags": [
      "PFS"
    ],
    "actions": [],
    "uses": {
      "per": null,
      "value": 0,
      "maxFormula": "",
      "autoDeductChargesCost": "1"
    },
    "attackNotes": [],
    "effectNotes": [],
    "changes": [],
    "changeFlags": {
      "loseDexToAC": false,
      "noEncumbrance": false,
      "mediumArmorFullSpeed": false,
      "heavyArmorFullSpeed": false
    },
    "contextNotes": [],
    "links": {
      "children": [],
      "charges": []
    },
    "tag": "childOfTheStreets",
    "useCustomTag": false,
    "armorProf": {
      "value": [],
      "custom": ""
    },
    "weaponProf": {
      "value": [],
      "custom": ""
    },
    "languages": {
      "value": [],
      "custom": ""
    },
    "flags": {
      "boolean": {},
      "dictionary": {}
    },
    "scriptCalls": [],
    "subType": "trait",
    "associations": {
      "classes": []
    },
    "showInQuickbar": false,
    "abilityType": "none",
    "crOffset": "",
    "disabled": false,
    "classSkills": {
      "slt": true
    },
    "traitType": "social"
  },
  "ownership": {
    "default": 0
  },
  "_stats": {
    "systemId": "pf1",
    "systemVersion": "9.1",
    "coreVersion": "10.291",
    "createdTime": 1665428391920,
    "modifiedTime": 1689797969377,
    "lastModifiedBy": "ppv91YxratjWnkJi"
  },
  "effects": [],
  "sort": 0,
  "flags": {},
  "_key": "!items!lRGmeiOsSlNDjdug"
}