{
  "_id": "JxJr7ofe0yC95eDJ",
  "name": "Clan Artisan (Xa Hoi)",
  "type": "feat",
  "img": "icons/environment/settlement/watchtower-city.webp",
  "folder": "6b4Oq2nNMw3BxL6l",
  "system": {
    "description": {
      "value": "<p><em>You were raised in one of the numerous clans of Xa Hoi, and learned a valuable trade in your early years. </em></p><p><strong>Requirements</strong></p><p>Xa Hoi</p><p><strong>Benefits</strong></p><p>Pick one Craft skill. You gain a +2 trait bonus on checks with that skill, and it becomes a class skill for you.</p>",
      "unidentified": ""
    },
    "tags": [
      "PFS"
    ],
    "actions": [],
    "uses": {
      "per": null,
      "value": 0,
      "maxFormula": "",
      "autoDeductChargesCost": "1"
    },
    "attackNotes": [],
    "effectNotes": [],
    "changes": [],
    "changeFlags": {
      "loseDexToAC": false,
      "noEncumbrance": false,
      "mediumArmorFullSpeed": false,
      "heavyArmorFullSpeed": false
    },
    "contextNotes": [],
    "links": {
      "children": [],
      "charges": []
    },
    "tag": "clanArtisanXaHoi",
    "useCustomTag": false,
    "armorProf": {
      "value": [],
      "custom": ""
    },
    "weaponProf": {
      "value": [],
      "custom": ""
    },
    "languages": {
      "value": [],
      "custom": ""
    },
    "flags": {
      "boolean": {},
      "dictionary": {}
    },
    "scriptCalls": [],
    "subType": "trait",
    "associations": {
      "classes": []
    },
    "showInQuickbar": false,
    "abilityType": "none",
    "crOffset": "",
    "disabled": false,
    "classSkills": {},
    "traitType": "region"
  },
  "ownership": {
    "default": 0
  },
  "_stats": {
    "systemId": "pf1",
    "systemVersion": "9.1",
    "coreVersion": "10.291",
    "createdTime": 1665428390538,
    "modifiedTime": 1689797962120,
    "lastModifiedBy": "ppv91YxratjWnkJi"
  },
  "effects": [],
  "sort": 0,
  "flags": {},
  "_key": "!items!JxJr7ofe0yC95eDJ"
}