{
  "_id": "CVTOWjdGyYh3jI6Z",
  "name": "Cliff Strider (Arcadia native)",
  "type": "feat",
  "img": "icons/environment/settlement/watchtower-city.webp",
  "system": {
    "description": {
      "value": "<p><em>You grew up along the Grinding Coast of Arcadia, scaling perilous cliffs and dealing with the dangerous creatures that live on these rocky surfaces.</em></p><p><strong>Requirements</strong></p><p>Arcadia native</p><p><strong>Benefits</strong></p><p>As a move action while climbing, you can climb 5 feet without provoking an attack of opportunity, even if you don&rsquo;t have a climb speed.</p>",
      "unidentified": ""
    },
    "tags": [
      "PFS"
    ],
    "actions": [],
    "uses": {
      "per": null,
      "value": 0,
      "maxFormula": "",
      "autoDeductChargesCost": "1"
    },
    "attackNotes": [],
    "effectNotes": [],
    "changes": [],
    "changeFlags": {
      "loseDexToAC": false,
      "noEncumbrance": false,
      "mediumArmorFullSpeed": false,
      "heavyArmorFullSpeed": false
    },
    "contextNotes": [],
    "links": {
      "children": [],
      "charges": []
    },
    "tag": "savannaChildPlains",
    "useCustomTag": false,
    "armorProf": {
      "value": [],
      "custom": ""
    },
    "weaponProf": {
      "value": [],
      "custom": ""
    },
    "languages": {
      "value": [],
      "custom": ""
    },
    "flags": {
      "boolean": {},
      "dictionary": {}
    },
    "scriptCalls": [],
    "subType": "trait",
    "associations": {
      "classes": []
    },
    "showInQuickbar": false,
    "abilityType": "none",
    "crOffset": "",
    "disabled": false,
    "classSkills": {},
    "traitType": "region"
  },
  "ownership": {
    "default": 0
  },
  "_stats": {
    "systemId": "pf1",
    "systemVersion": "9.1",
    "coreVersion": "10.291",
    "createdTime": 1665428390174,
    "modifiedTime": 1689797960077,
    "lastModifiedBy": "ppv91YxratjWnkJi"
  },
  "effects": [],
  "folder": "6b4Oq2nNMw3BxL6l",
  "sort": 0,
  "flags": {},
  "_key": "!items!CVTOWjdGyYh3jI6Z"
}