{
  "_id": "dkNv2dZffnho5ESv",
  "name": "Close Allies (Return of the Runelords)",
  "type": "feat",
  "img": "icons/tools/navigation/map-chart-tan.webp",
  "system": {
    "description": {
      "value": "<p><em>You and another PC are close allies&mdash;friends, lovers, siblings, or even twins. Work with the other player to build a shared history&mdash;both you and the other player must choose Close Allies as a campaign trait, and both must agree to the nature of the relationship between the two characters. (At the GM&rsquo;s option, more than two PCs can be linked by this trait.) You and your close ally have always supported each other. You might have the tendency to complete each other&rsquo;s sentences, dress similarly, share the same religion or faith, or have endured a dangerous event together in the past. If you and the other player agree (and have chosen either the siblings or twins option below), you might not even particularly like your close &ldquo;ally,&rdquo; yet you still respect them and can utilize this trait&rsquo;s benefits all the same.</em></p><p><strong>Benefits</strong></p><p>If your relationship with your close ally ends (as a result of death, a parting of ways, or other catastrophe), you immediately lose this campaign trait and replace it with Spirit Touched as a result of your emotional distress.</p><p>When you and the other PC agree to take this shared trait, you must also agree on the nature of your characters&rsquo; bond by choosing one of the following: friends, lovers, siblings, or twins. If you choose twins, both PCs must be of the same race. If you choose siblings, one or both of you are adopted if you aren&rsquo;t of the same race.</p><p>Whenever you are adjacent to your close ally, you gain a +1 trait bonus on all saving throws.</p><p>Once per adventure as an immediate action, you may grant your close ally a bonus equal to the result of 1d6 to a single d20 roll. You must have line of sight to your ally to use this ability. You may choose to grant this bonus after your ally has rolled, but must do so before the result of the roll is known.</p>",
      "unidentified": ""
    },
    "tags": [],
    "actions": [],
    "uses": {
      "per": null,
      "value": 0,
      "maxFormula": "",
      "autoDeductChargesCost": "1"
    },
    "attackNotes": [],
    "effectNotes": [],
    "changes": [],
    "changeFlags": {
      "loseDexToAC": false,
      "noEncumbrance": false,
      "mediumArmorFullSpeed": false,
      "heavyArmorFullSpeed": false
    },
    "contextNotes": [],
    "links": {
      "children": [],
      "charges": []
    },
    "tag": "closeAlliesReturnOfTheRunelords",
    "useCustomTag": false,
    "armorProf": {
      "value": [],
      "custom": ""
    },
    "weaponProf": {
      "value": [],
      "custom": ""
    },
    "languages": {
      "value": [],
      "custom": ""
    },
    "flags": {
      "boolean": {},
      "dictionary": {}
    },
    "scriptCalls": [],
    "subType": "trait",
    "associations": {
      "classes": []
    },
    "showInQuickbar": false,
    "abilityType": "none",
    "crOffset": "",
    "disabled": false,
    "classSkills": {},
    "traitType": "campaign"
  },
  "ownership": {
    "default": 0
  },
  "_stats": {
    "systemId": "pf1",
    "systemVersion": "9.1",
    "coreVersion": "10.291",
    "createdTime": 1665428391679,
    "modifiedTime": 1689797967754,
    "lastModifiedBy": "ppv91YxratjWnkJi"
  },
  "effects": [],
  "folder": "pCbPxzsBnEH3Mz08",
  "sort": 0,
  "flags": {},
  "_key": "!items!dkNv2dZffnho5ESv"
}