{
  "_id": "WjKK9DlkOtTeVkQG",
  "name": "Collector (Gnome)",
  "type": "feat",
  "img": "systems/pf1/icons/skills/light_07.jpg",
  "folder": "FeKDEoyX2eafWdJl",
  "system": {
    "description": {
      "value": "<p><em>You have a small, bizarre collection of apparently worthless items, such as rusty nails, animal droppings, clockwork cogs, or bent spoons. You find this strange menagerie useful in ways no non-gnome could understand. Seeking new items to add to this collection is endlessly fascinating to you, and while no one else may understand why a Chelish horsenail is worthy to add to your collection when a dwarven wheelbarrow nail is not, it all makes sense to you.</em></p><p><strong>Requirements</strong></p><p>Gnome</p><p><strong>Benefits</strong></p><p>Select one of the following skills: Craft (any one), Disable Device, Escape Artist, Perform (any one), or Spellcraft. Whenever you have your collection within 5 feet of you, you gain a +2 trait bonus on all checks made with the selected skill. Once this skill has been selected, it cannot be changed, nor can you gain it for any other collection you begin amassing.</p>",
      "unidentified": ""
    },
    "tags": [
      "PFS",
      "Gnome"
    ],
    "actions": [],
    "uses": {
      "per": null,
      "value": 0,
      "maxFormula": "",
      "autoDeductChargesCost": "1"
    },
    "attackNotes": [],
    "effectNotes": [],
    "changes": [],
    "changeFlags": {
      "loseDexToAC": false,
      "noEncumbrance": false,
      "mediumArmorFullSpeed": false,
      "heavyArmorFullSpeed": false
    },
    "contextNotes": [],
    "links": {
      "children": [],
      "charges": []
    },
    "tag": "collectorGnomeSocial",
    "useCustomTag": false,
    "armorProf": {
      "value": [],
      "custom": ""
    },
    "weaponProf": {
      "value": [],
      "custom": ""
    },
    "languages": {
      "value": [],
      "custom": ""
    },
    "flags": {
      "boolean": {},
      "dictionary": {}
    },
    "scriptCalls": [],
    "subType": "trait",
    "associations": {
      "classes": []
    },
    "showInQuickbar": false,
    "abilityType": "none",
    "crOffset": "",
    "disabled": false,
    "classSkills": {},
    "traitType": "social"
  },
  "ownership": {
    "default": 0
  },
  "_stats": {
    "systemId": "pf1",
    "systemVersion": "9.1",
    "coreVersion": "10.291",
    "createdTime": 1665428391284,
    "modifiedTime": 1689797965485,
    "lastModifiedBy": "ppv91YxratjWnkJi"
  },
  "effects": [],
  "sort": 0,
  "flags": {},
  "_key": "!items!WjKK9DlkOtTeVkQG"
}