{
  "_id": "ZfMlN4uVzoZ37gZq",
  "name": "Condescending",
  "type": "feat",
  "img": "systems/pf1/icons/feats/shatter-defenses.jpg",
  "system": {
    "description": {
      "value": "<p><em>Raised with the assurance that only those like you are truly worthy of respect, you have an offputting way of demonstrating that you look down on those not of your race and ethnicity or nationality.</em></p><p><strong>Effects</strong></p><p>You take a &ndash;5 penalty on Diplomacy and Intimidate checks to improve other creatures&rsquo; attitudes toward you.</p>",
      "unidentified": ""
    },
    "tags": [],
    "actions": [],
    "uses": {
      "per": null,
      "value": 0,
      "maxFormula": "",
      "autoDeductChargesCost": "1"
    },
    "attackNotes": [],
    "effectNotes": [],
    "changes": [],
    "changeFlags": {
      "loseDexToAC": false,
      "noEncumbrance": false,
      "mediumArmorFullSpeed": false,
      "heavyArmorFullSpeed": false
    },
    "contextNotes": [],
    "links": {
      "children": [],
      "charges": []
    },
    "tag": "savannaChildPlains",
    "useCustomTag": false,
    "armorProf": {
      "value": [],
      "custom": ""
    },
    "weaponProf": {
      "value": [],
      "custom": ""
    },
    "languages": {
      "value": [],
      "custom": ""
    },
    "flags": {
      "boolean": {},
      "dictionary": {}
    },
    "scriptCalls": [],
    "subType": "trait",
    "associations": {
      "classes": []
    },
    "showInQuickbar": false,
    "abilityType": "none",
    "crOffset": "",
    "disabled": false,
    "classSkills": {},
    "traitType": "drawback"
  },
  "ownership": {
    "default": 0
  },
  "_stats": {
    "systemId": "pf1",
    "systemVersion": "9.1",
    "coreVersion": "10.291",
    "createdTime": 1665428391378,
    "modifiedTime": 1689797966162,
    "lastModifiedBy": "ppv91YxratjWnkJi"
  },
  "effects": [],
  "folder": "n1kBJ9yG8vwL71rY",
  "sort": 0,
  "flags": {},
  "_key": "!items!ZfMlN4uVzoZ37gZq"
}