{
  "_id": "GqEv1skToaFjrnNS",
  "name": "Covenant of Abaddon (any Four Horsemen)",
  "type": "feat",
  "img": "icons/environment/settlement/temple-night.webp",
  "system": {
    "description": {
      "value": "<p><em>Your soul is pledged to one of the Horsemen.</em></p><p><strong>Requirements</strong></p><p>Any of the Four Horsemen</p><p><strong>Benefits</strong></p><p>You gain a +2 trait bonus on Fortitude saving throws against level-draining effects.</p>",
      "unidentified": ""
    },
    "tags": [
      "PFS"
    ],
    "actions": [],
    "uses": {
      "per": null,
      "value": 0,
      "maxFormula": "",
      "autoDeductChargesCost": "1"
    },
    "attackNotes": [],
    "effectNotes": [],
    "changes": [],
    "changeFlags": {
      "loseDexToAC": false,
      "noEncumbrance": false,
      "mediumArmorFullSpeed": false,
      "heavyArmorFullSpeed": false
    },
    "contextNotes": [],
    "links": {
      "children": [],
      "charges": []
    },
    "tag": "savannaChildPlains",
    "useCustomTag": false,
    "armorProf": {
      "value": [],
      "custom": ""
    },
    "weaponProf": {
      "value": [],
      "custom": ""
    },
    "languages": {
      "value": [],
      "custom": ""
    },
    "flags": {
      "boolean": {},
      "dictionary": {}
    },
    "scriptCalls": [],
    "subType": "trait",
    "associations": {
      "classes": []
    },
    "showInQuickbar": false,
    "abilityType": "none",
    "crOffset": "",
    "disabled": false,
    "classSkills": {},
    "traitType": "religion"
  },
  "ownership": {
    "default": 0
  },
  "_stats": {
    "systemId": "pf1",
    "systemVersion": "9.1",
    "coreVersion": "10.291",
    "createdTime": 1665428390443,
    "modifiedTime": 1689797961405,
    "lastModifiedBy": "ppv91YxratjWnkJi"
  },
  "effects": [],
  "folder": "MB4DGP9uns7VLmaa",
  "sort": 0,
  "flags": {},
  "_key": "!items!GqEv1skToaFjrnNS"
}