{
  "_id": "F2HyQLf4zf4X3Dqn",
  "name": "Deathkeeper (Dwarf; Pahmet)",
  "type": "feat",
  "img": "systems/pf1/icons/skills/blue_35.jpg",
  "system": {
    "description": {
      "value": "<p><em>You have lived for a time deep inside the necropolises of the pharaohs.&nbsp;Your exposure to undead creatures and their necromantic energies has strengthened your ability to resist the powers of the unliving.</em></p><p><strong>Requirements</strong></p><p>Pahmet Dwarf Heritage</p><p><strong>Benefits</strong></p><p>You gain a +1 trait bonus on saving throws against the supernatural abilities of undead creatures.</p>",
      "unidentified": ""
    },
    "tags": [
      "PFS",
      "Dwarf",
      "Pahmet"
    ],
    "actions": [],
    "uses": {
      "per": null,
      "value": 0,
      "maxFormula": "",
      "autoDeductChargesCost": "1"
    },
    "attackNotes": [],
    "effectNotes": [],
    "changes": [],
    "changeFlags": {
      "loseDexToAC": false,
      "noEncumbrance": false,
      "mediumArmorFullSpeed": false,
      "heavyArmorFullSpeed": false
    },
    "contextNotes": [],
    "links": {
      "children": [],
      "charges": []
    },
    "tag": "adventurousExplorerSongo",
    "useCustomTag": false,
    "armorProf": {
      "value": [],
      "custom": ""
    },
    "weaponProf": {
      "value": [],
      "custom": ""
    },
    "languages": {
      "value": [],
      "custom": ""
    },
    "flags": {
      "boolean": {},
      "dictionary": {}
    },
    "scriptCalls": [],
    "subType": "trait",
    "associations": {
      "classes": []
    },
    "showInQuickbar": false,
    "abilityType": "none",
    "crOffset": "",
    "disabled": false,
    "classSkills": {},
    "traitType": "race"
  },
  "ownership": {
    "default": 0
  },
  "_stats": {
    "systemId": "pf1",
    "systemVersion": "9.1",
    "coreVersion": "10.291",
    "createdTime": 1665428390254,
    "modifiedTime": 1689797960609,
    "lastModifiedBy": "ppv91YxratjWnkJi"
  },
  "effects": [],
  "folder": "OJcM9ZeR3TB33I5m",
  "sort": 0,
  "flags": {},
  "_key": "!items!F2HyQLf4zf4X3Dqn"
}