{
  "_id": "5aImAix5dl3dbzQ7",
  "name": "Deathspeaker (Urgathoa)",
  "type": "feat",
  "img": "icons/environment/settlement/temple-night.webp",
  "folder": "MB4DGP9uns7VLmaa",
  "system": {
    "description": {
      "value": "<p><em>Your have experience in dealing with undead. </em></p><p><strong>Requirements</strong></p><p>Urgathoa</p><p><strong>Benefits</strong></p><p>Your experience gives you a +2 trait bonus on Diplomacy checks when dealing with undead, as well as a +2 trait bonus on Charisma checks made to influence undead (for example, as part of the command undead spell).</p>",
      "unidentified": ""
    },
    "tags": [
      "PFS"
    ],
    "actions": [],
    "uses": {
      "per": null,
      "value": 0,
      "maxFormula": "",
      "autoDeductChargesCost": "1"
    },
    "attackNotes": [],
    "effectNotes": [],
    "changes": [],
    "changeFlags": {
      "loseDexToAC": false,
      "noEncumbrance": false,
      "mediumArmorFullSpeed": false,
      "heavyArmorFullSpeed": false
    },
    "contextNotes": [],
    "links": {
      "children": [],
      "charges": []
    },
    "tag": "deathspeakerUrgathoa",
    "useCustomTag": false,
    "armorProf": {
      "value": [],
      "custom": ""
    },
    "weaponProf": {
      "value": [],
      "custom": ""
    },
    "languages": {
      "value": [],
      "custom": ""
    },
    "flags": {
      "boolean": {},
      "dictionary": {}
    },
    "scriptCalls": [],
    "subType": "trait",
    "associations": {
      "classes": []
    },
    "showInQuickbar": false,
    "abilityType": "none",
    "crOffset": "",
    "disabled": false,
    "classSkills": {},
    "traitType": "religion"
  },
  "ownership": {
    "default": 0
  },
  "_stats": {
    "systemId": "pf1",
    "systemVersion": "9.1",
    "coreVersion": "10.291",
    "createdTime": 1665428389776,
    "modifiedTime": 1689797958321,
    "lastModifiedBy": "ppv91YxratjWnkJi"
  },
  "effects": [],
  "sort": 0,
  "flags": {},
  "_key": "!items!5aImAix5dl3dbzQ7"
}