{
  "_id": "k7nz4lD8dFuxicOx",
  "name": "Deft Dodger",
  "type": "feat",
  "img": "icons/weapons/swords/swords-short.webp",
  "folder": "rasdJf3aELQxqSwG",
  "system": {
    "description": {
      "value": "<p><em>Growing up in a rough neighborhood or a dangerous environment has honed your senses.</em></p><p><strong>Benefits</strong></p><p>You gain a +1 trait bonus on Reflex saves.</p>",
      "unidentified": ""
    },
    "tags": [
      "PFS"
    ],
    "actions": [],
    "uses": {
      "per": null,
      "value": 0,
      "maxFormula": "",
      "autoDeductChargesCost": "1"
    },
    "attackNotes": [],
    "effectNotes": [],
    "changes": [
      {
        "_id": "1apotvtm",
        "formula": "1",
        "operator": "add",
        "subTarget": "ref",
        "modifier": "untyped",
        "priority": 0,
        "value": 1,
        "target": "savingThrows"
      }
    ],
    "changeFlags": {
      "loseDexToAC": false,
      "noEncumbrance": false,
      "mediumArmorFullSpeed": false,
      "heavyArmorFullSpeed": false
    },
    "contextNotes": [],
    "links": {
      "children": [],
      "charges": []
    },
    "tag": "deftDodger",
    "useCustomTag": false,
    "armorProf": {
      "value": [],
      "custom": ""
    },
    "weaponProf": {
      "value": [],
      "custom": ""
    },
    "languages": {
      "value": [],
      "custom": ""
    },
    "flags": {
      "boolean": {},
      "dictionary": {}
    },
    "scriptCalls": [],
    "subType": "trait",
    "associations": {
      "classes": []
    },
    "showInQuickbar": false,
    "abilityType": "none",
    "crOffset": "",
    "disabled": false,
    "classSkills": {},
    "traitType": "combat"
  },
  "ownership": {
    "default": 0
  },
  "_stats": {
    "systemId": "pf1",
    "systemVersion": "9.1",
    "coreVersion": "10.291",
    "createdTime": 1665428391878,
    "modifiedTime": 1689797969093,
    "lastModifiedBy": "ppv91YxratjWnkJi"
  },
  "effects": [],
  "sort": 0,
  "flags": {},
  "_key": "!items!k7nz4lD8dFuxicOx"
}