{
  "_id": "S6R3LkkK8bwalHLD",
  "name": "Dirty Trickster",
  "type": "feat",
  "img": "icons/weapons/swords/swords-short.webp",
  "system": {
    "description": {
      "value": "<p><em>You learned early that there&rsquo;s no point in fighting fair when you&rsquo;re fighting for your life. Others may look down their noses at your tactics, but you know you wouldn&rsquo;t have survived this long without breaking a few conventions of fair play.</em></p><p><strong>Benefits</strong></p><p>You can take the Improved Dirty Trick feat without meeting its prerequisites, and you gain a +1 trait bonus on combat maneuver checks to attempt a dirty trick.</p>",
      "unidentified": ""
    },
    "tags": [
      "PFS"
    ],
    "actions": [],
    "uses": {
      "per": null,
      "value": 0,
      "maxFormula": "",
      "autoDeductChargesCost": "1"
    },
    "attackNotes": [],
    "effectNotes": [],
    "changes": [],
    "changeFlags": {
      "loseDexToAC": false,
      "noEncumbrance": false,
      "mediumArmorFullSpeed": false,
      "heavyArmorFullSpeed": false
    },
    "contextNotes": [],
    "links": {
      "children": [],
      "charges": []
    },
    "tag": "dirtyTrickster",
    "useCustomTag": false,
    "armorProf": {
      "value": [],
      "custom": ""
    },
    "weaponProf": {
      "value": [],
      "custom": ""
    },
    "languages": {
      "value": [],
      "custom": ""
    },
    "flags": {
      "boolean": {},
      "dictionary": {}
    },
    "scriptCalls": [],
    "subType": "trait",
    "associations": {
      "classes": []
    },
    "showInQuickbar": false,
    "abilityType": "none",
    "crOffset": "",
    "disabled": false,
    "classSkills": {},
    "traitType": "combat"
  },
  "ownership": {
    "default": 0
  },
  "_stats": {
    "systemId": "pf1",
    "systemVersion": "9.1",
    "coreVersion": "10.291",
    "createdTime": 1665428390947,
    "modifiedTime": 1689797964239,
    "lastModifiedBy": "ppv91YxratjWnkJi"
  },
  "effects": [],
  "folder": "rasdJf3aELQxqSwG",
  "sort": 0,
  "flags": {},
  "_key": "!items!S6R3LkkK8bwalHLD"
}