{
  "_id": "VEZTbXRm7oY7bUlz",
  "name": "Dockside Avenger (Curse of the Crimson Throne)",
  "type": "feat",
  "img": "icons/tools/navigation/map-chart-tan.webp",
  "system": {
    "description": {
      "value": "<p><em>No crime is too despicable for Gaedren Lamm and his thugs&mdash;a gang of lowlife murderers, kidnappers, and drug dealers that operate in Korvosa&rsquo;s Midland district. You&rsquo;ve lost someone to Lamm and now you&rsquo;re out for revenge.</em></p><p><strong>Benefits</strong></p><p>While Lamm remains alive and free, you are not slain until your hit point total reaches a negative number equal to your Constitution score + 3. Once Lamm is imprisoned or killed, you lose the former benefit but gain 3 permanent hit points.</p>",
      "unidentified": ""
    },
    "tags": [],
    "actions": [],
    "uses": {
      "per": null,
      "value": 0,
      "maxFormula": "",
      "autoDeductChargesCost": "1"
    },
    "attackNotes": [],
    "effectNotes": [],
    "changes": [],
    "changeFlags": {
      "loseDexToAC": false,
      "noEncumbrance": false,
      "mediumArmorFullSpeed": false,
      "heavyArmorFullSpeed": false
    },
    "contextNotes": [],
    "links": {
      "children": [],
      "charges": []
    },
    "tag": "docksideAvengerCurseOfTheCrimsonThrone",
    "useCustomTag": false,
    "armorProf": {
      "value": [],
      "custom": ""
    },
    "weaponProf": {
      "value": [],
      "custom": ""
    },
    "languages": {
      "value": [],
      "custom": ""
    },
    "flags": {
      "boolean": {},
      "dictionary": {}
    },
    "scriptCalls": [],
    "subType": "trait",
    "associations": {
      "classes": []
    },
    "showInQuickbar": false,
    "abilityType": "none",
    "crOffset": "",
    "disabled": false,
    "classSkills": {},
    "traitType": "campaign"
  },
  "ownership": {
    "default": 0
  },
  "_stats": {
    "systemId": "pf1",
    "systemVersion": "9.1",
    "coreVersion": "10.291",
    "createdTime": 1665428391076,
    "modifiedTime": 1689797964982,
    "lastModifiedBy": "ppv91YxratjWnkJi"
  },
  "effects": [],
  "folder": "pCbPxzsBnEH3Mz08",
  "sort": 0,
  "flags": {},
  "_key": "!items!VEZTbXRm7oY7bUlz"
}