{
  "_id": "gAePZuufJvK7mRsc",
  "name": "Doubt",
  "type": "feat",
  "img": "systems/pf1/icons/feats/shatter-defenses.jpg",
  "system": {
    "description": {
      "value": "<p><em>You lack confidence in your abilities or confidence in the universe at large.</em></p><p><strong>Effects</strong></p><p>Whenever you fail a skill or ability check, you take a &ndash;4 penalty on that type of skill or ability check for the next hour.</p>",
      "unidentified": ""
    },
    "tags": [],
    "actions": [],
    "uses": {
      "per": null,
      "value": 0,
      "maxFormula": "",
      "autoDeductChargesCost": "1"
    },
    "attackNotes": [],
    "effectNotes": [],
    "changes": [],
    "changeFlags": {
      "loseDexToAC": false,
      "noEncumbrance": false,
      "mediumArmorFullSpeed": false,
      "heavyArmorFullSpeed": false
    },
    "contextNotes": [],
    "links": {
      "children": [],
      "charges": []
    },
    "tag": "savannaChildPlains",
    "useCustomTag": false,
    "armorProf": {
      "value": [],
      "custom": ""
    },
    "weaponProf": {
      "value": [],
      "custom": ""
    },
    "languages": {
      "value": [],
      "custom": ""
    },
    "flags": {
      "boolean": {},
      "dictionary": {}
    },
    "scriptCalls": [],
    "subType": "trait",
    "associations": {
      "classes": []
    },
    "showInQuickbar": false,
    "abilityType": "none",
    "crOffset": "",
    "disabled": false,
    "classSkills": {},
    "traitType": "drawback"
  },
  "ownership": {
    "default": 0
  },
  "_stats": {
    "systemId": "pf1",
    "systemVersion": "9.1",
    "coreVersion": "10.291",
    "createdTime": 1665428391750,
    "modifiedTime": 1689797968246,
    "lastModifiedBy": "ppv91YxratjWnkJi"
  },
  "effects": [],
  "folder": "n1kBJ9yG8vwL71rY",
  "sort": 0,
  "flags": {},
  "_key": "!items!gAePZuufJvK7mRsc"
}