{
  "_id": "iatLeMTe5r0iPmf4",
  "name": "Eagle Knight Recruit (Ruins of Azlant)",
  "type": "feat",
  "img": "icons/tools/navigation/map-chart-tan.webp",
  "system": {
    "description": {
      "value": "<p><em>Since Talmandor&rsquo;s Bounty is an Andoren colony and is unlikely to see the threat of slavery, the presence of the Eagle Knights isn&rsquo;t strongly needed, and the Bountiful Venture Company would prefer to not have that organization immediately associated with the colony (despite the colony&rsquo;s name having been derived from the Eagle Knights&rsquo; patron, Talmandor). However, the need for safety can&rsquo;t be overlooked. You were a soldier in the Andoren army or you were a civilian who showed great promise in military matters. The Eagle Knights recruited you and offered unofficial Eagle Knight status if you managed to make it into the ranks of the colonists. There, you would see to the safety of the colony and send back reports with each supply ship regarding the general state of the colony and any threats you notice. The Bountiful Venture Company admired your military prowess and selected you for the second wave of colonists to arrive at Talmandor&rsquo;s Bounty.</em></p><p><strong>Benefits</strong></p><p>You begin play with a breastplate, a longsword (or some other martial or simple weapon), and an additional 100 gp of gear. In addition, you gain a +1 trait bonus on saving throws against mind-affecting effects.</p>",
      "unidentified": ""
    },
    "tags": [],
    "actions": [],
    "uses": {
      "per": null,
      "value": 0,
      "maxFormula": "",
      "autoDeductChargesCost": "1"
    },
    "attackNotes": [],
    "effectNotes": [],
    "changes": [],
    "changeFlags": {
      "loseDexToAC": false,
      "noEncumbrance": false,
      "mediumArmorFullSpeed": false,
      "heavyArmorFullSpeed": false
    },
    "contextNotes": [],
    "links": {
      "children": [],
      "charges": []
    },
    "tag": "eagleKnightRecruitRuinsOfAzlant",
    "useCustomTag": false,
    "armorProf": {
      "value": [],
      "custom": ""
    },
    "weaponProf": {
      "value": [],
      "custom": ""
    },
    "languages": {
      "value": [],
      "custom": ""
    },
    "flags": {
      "boolean": {},
      "dictionary": {}
    },
    "scriptCalls": [],
    "subType": "trait",
    "associations": {
      "classes": []
    },
    "showInQuickbar": false,
    "abilityType": "none",
    "crOffset": "",
    "disabled": false,
    "classSkills": {},
    "traitType": "campaign"
  },
  "ownership": {
    "default": 0
  },
  "_stats": {
    "systemId": "pf1",
    "systemVersion": "9.1",
    "coreVersion": "10.291",
    "createdTime": 1665428391840,
    "modifiedTime": 1689797968825,
    "lastModifiedBy": "ppv91YxratjWnkJi"
  },
  "effects": [],
  "folder": "pCbPxzsBnEH3Mz08",
  "sort": 0,
  "flags": {},
  "_key": "!items!iatLeMTe5r0iPmf4"
}