{
  "_id": "l0xjDdu1Gx6S2xui",
  "name": "Earning Your Freedom (Legacy of Fire)",
  "type": "feat",
  "img": "icons/tools/navigation/map-chart-tan.webp",
  "folder": "pCbPxzsBnEH3Mz08",
  "system": {
    "description": {
      "value": "<p>You've been a slave your whole life, and have passed from master to master more times than you can count. Some of those masters were cruel, others kindly. In all cases, you've yearned to be free. When your most recent master fell on hard times, he sold many of his slaves to the city government, and as luck would have it, a recent opportunity to earn your freedom has manifested. The Pactmasters of Katapesh are looking to revitalize an old trade route to Osirion, and a band of mercenaries and guards is gathering to go out and supplement forces already in place near the ruined village of Kelmarane, now said to be infested by gnolls. You've secured a place among those mercenaries, under the watchful eye of Garavel. If you help in retaking Kelmarane, you've been promised your freedom. In any event, your life as a slave has toughened you and made you more resistant to hardship.</p><p><strong>Benefits</strong></p><p>Choose one of the three categories of saving throw (Fortitude, Reflex, or Will); you gain a +1 trait bonus on all saving throws of that type.</p>",
      "unidentified": ""
    },
    "tags": [],
    "actions": [],
    "uses": {
      "per": null,
      "value": 0,
      "maxFormula": "",
      "autoDeductChargesCost": "1"
    },
    "attackNotes": [],
    "effectNotes": [],
    "changes": [],
    "changeFlags": {
      "loseDexToAC": false,
      "noEncumbrance": false,
      "mediumArmorFullSpeed": false,
      "heavyArmorFullSpeed": false
    },
    "contextNotes": [],
    "links": {
      "children": [],
      "charges": []
    },
    "tag": "earningYourFreedomLegacyOfFire",
    "useCustomTag": false,
    "armorProf": {
      "value": [],
      "custom": ""
    },
    "weaponProf": {
      "value": [],
      "custom": ""
    },
    "languages": {
      "value": [],
      "custom": ""
    },
    "flags": {
      "boolean": {},
      "dictionary": {}
    },
    "scriptCalls": [],
    "subType": "trait",
    "associations": {
      "classes": []
    },
    "showInQuickbar": false,
    "abilityType": "none",
    "crOffset": "",
    "disabled": false,
    "classSkills": {},
    "traitType": "campaign"
  },
  "ownership": {
    "default": 0
  },
  "_stats": {
    "systemId": "pf1",
    "systemVersion": "9.1",
    "coreVersion": "10.291",
    "createdTime": 1665428391911,
    "modifiedTime": 1689797969310,
    "lastModifiedBy": "ppv91YxratjWnkJi"
  },
  "effects": [],
  "sort": 0,
  "flags": {},
  "_key": "!items!l0xjDdu1Gx6S2xui"
}