{
  "_id": "48fJWcDerCZ3KzFT",
  "name": "Earthbound (Dwarf)",
  "type": "feat",
  "img": "icons/sundries/books/book-embossed-jewel-gold-purple.webp",
  "folder": "qFbWInuNDuv3JE0T",
  "system": {
    "description": {
      "value": "<p><em>Your druid spells use a handful of earth or sand as a divine focus in addition to the normal components.</em></p><p><strong>Requirements</strong></p><p>Dwarf</p><p><strong>Benefits</strong></p><p>While you are touching the ground, you add a +2 trait bonus to saving throw DCs and on caster level checks to overcome spell resistance for all spells you cast against creatures with the air subtype.</p>",
      "unidentified": ""
    },
    "tags": [
      "PFS",
      "Dwarf"
    ],
    "actions": [],
    "uses": {
      "per": null,
      "value": 0,
      "maxFormula": "",
      "autoDeductChargesCost": "1"
    },
    "attackNotes": [],
    "effectNotes": [],
    "changes": [],
    "changeFlags": {
      "loseDexToAC": false,
      "noEncumbrance": false,
      "mediumArmorFullSpeed": false,
      "heavyArmorFullSpeed": false
    },
    "contextNotes": [],
    "links": {
      "children": [],
      "charges": []
    },
    "tag": "earthboundDwarfMagicTrait",
    "useCustomTag": false,
    "armorProf": {
      "value": [],
      "custom": ""
    },
    "weaponProf": {
      "value": [],
      "custom": ""
    },
    "languages": {
      "value": [],
      "custom": ""
    },
    "flags": {
      "boolean": {},
      "dictionary": {}
    },
    "scriptCalls": [],
    "subType": "trait",
    "associations": {
      "classes": []
    },
    "showInQuickbar": false,
    "abilityType": "none",
    "crOffset": "",
    "disabled": false,
    "classSkills": {},
    "traitType": "magic"
  },
  "ownership": {
    "default": 0
  },
  "_stats": {
    "systemId": "pf1",
    "systemVersion": "9.1",
    "coreVersion": "10.291",
    "createdTime": 1665428389730,
    "modifiedTime": 1689797958049,
    "lastModifiedBy": "ppv91YxratjWnkJi"
  },
  "effects": [],
  "sort": 0,
  "flags": {},
  "_key": "!items!48fJWcDerCZ3KzFT"
}