{
  "_id": "6i2YcBegU5Zov7Ex",
  "name": "Eldritch Smith (Dwarf)",
  "type": "feat",
  "img": "icons/sundries/books/book-embossed-jewel-gold-purple.webp",
  "folder": "qFbWInuNDuv3JE0T",
  "system": {
    "description": {
      "value": "<p><em>You are learned in the secret lore of the forge, rituals handed down for generations that some say&nbsp;come from Torag himself.</em></p><p><strong>Requirements</strong></p><p>Dwarf</p><p><strong>Benefits</strong></p><p>Whenever you use the Craft skill or a crafting feat to make a stone or metal item, you reduce the cost of making the item by 5%. This includes metal-headed weapons with nonmetal parts, such as axes and spears.</p>",
      "unidentified": ""
    },
    "tags": [
      "Dwarf"
    ],
    "actions": [],
    "uses": {
      "per": null,
      "value": 0,
      "maxFormula": "",
      "autoDeductChargesCost": "1"
    },
    "attackNotes": [],
    "effectNotes": [],
    "changes": [],
    "changeFlags": {
      "loseDexToAC": false,
      "noEncumbrance": false,
      "mediumArmorFullSpeed": false,
      "heavyArmorFullSpeed": false
    },
    "contextNotes": [],
    "links": {
      "children": [],
      "charges": []
    },
    "tag": "eldritchSmithDwarfMagicTrait",
    "useCustomTag": false,
    "armorProf": {
      "value": [],
      "custom": ""
    },
    "weaponProf": {
      "value": [],
      "custom": ""
    },
    "languages": {
      "value": [],
      "custom": ""
    },
    "flags": {
      "boolean": {},
      "dictionary": {}
    },
    "scriptCalls": [],
    "subType": "trait",
    "associations": {
      "classes": []
    },
    "showInQuickbar": false,
    "abilityType": "none",
    "crOffset": "",
    "disabled": false,
    "classSkills": {},
    "traitType": "magic"
  },
  "ownership": {
    "default": 0
  },
  "_stats": {
    "systemId": "pf1",
    "systemVersion": "9.1",
    "coreVersion": "10.291",
    "createdTime": 1665428389811,
    "modifiedTime": 1689797958534,
    "lastModifiedBy": "ppv91YxratjWnkJi"
  },
  "effects": [],
  "sort": 0,
  "flags": {},
  "_key": "!items!6i2YcBegU5Zov7Ex"
}