{
  "_id": "S9MZOvNWWwoZoksS",
  "name": "Elemental Accident",
  "type": "feat",
  "img": "icons/sundries/books/book-embossed-jewel-gold-purple.webp",
  "system": {
    "description": {
      "value": "<p><em>A traumatic experience in your childhood, such as surviving a violent earthquake, fleeing a shipwreck, escaping a devastating fire, or getting struck by lightning, caused you to develop a fear of the corresponding element. You can instinctively shield yourself against elemental dangers of that type.</em></p><p><strong>Benefits</strong></p><p>Select acid, cold, electricity, or fire at character creation (once chosen, this damage type can&rsquo;t be changed). Once per day when you are subjected to an attack or effect that deals energy damage of that type, you can gain resistance 10 against that damage type for 1 round as an immediate action. This resistance does not stack with any existing resistance you might have against that energy type.</p>",
      "unidentified": ""
    },
    "tags": [
      "PFS"
    ],
    "actions": [],
    "uses": {
      "per": null,
      "value": 0,
      "maxFormula": "",
      "autoDeductChargesCost": "1"
    },
    "attackNotes": [],
    "effectNotes": [],
    "changes": [],
    "changeFlags": {
      "loseDexToAC": false,
      "noEncumbrance": false,
      "mediumArmorFullSpeed": false,
      "heavyArmorFullSpeed": false
    },
    "contextNotes": [],
    "links": {
      "children": [],
      "charges": []
    },
    "tag": "1FamilyTemplate",
    "useCustomTag": false,
    "armorProf": {
      "value": [],
      "custom": ""
    },
    "weaponProf": {
      "value": [],
      "custom": ""
    },
    "languages": {
      "value": [],
      "custom": ""
    },
    "flags": {
      "boolean": {},
      "dictionary": {}
    },
    "scriptCalls": [],
    "subType": "trait",
    "associations": {
      "classes": []
    },
    "showInQuickbar": false,
    "abilityType": "none",
    "crOffset": "",
    "disabled": false,
    "classSkills": {},
    "traitType": "magic"
  },
  "ownership": {
    "default": 0
  },
  "_stats": {
    "systemId": "pf1",
    "systemVersion": "9.1",
    "coreVersion": "10.291",
    "createdTime": 1665428390951,
    "modifiedTime": 1689797964250,
    "lastModifiedBy": "ppv91YxratjWnkJi"
  },
  "effects": [],
  "folder": "qFbWInuNDuv3JE0T",
  "sort": 0,
  "flags": {},
  "_key": "!items!S9MZOvNWWwoZoksS"
}