{
  "_id": "qXSx4JLyJz2F85r5",
  "name": "Empyreal Pantheon",
  "type": "feat",
  "img": "icons/equipment/shield/pavise-wooden-wings-blue-white.webp",
  "system": {
    "description": {
      "value": "<p><em>Your faith in the empyreal lords accommodates numerous gods, and you are gifted at adapting their wide variety of focuses and lessons to your own life.</em></p><p><strong>Benefits</strong></p><p>Select either the law or chaos alignment descriptor. You may cast spells with that descriptor, even if your alignment or that of your god would normally not allow it. Doing so applies the good descriptor to the spell if it does not already apply.</p>",
      "unidentified": ""
    },
    "tags": [
      "PFS"
    ],
    "actions": [],
    "uses": {
      "per": null,
      "value": 0,
      "maxFormula": "",
      "autoDeductChargesCost": "1"
    },
    "attackNotes": [],
    "effectNotes": [],
    "changes": [],
    "changeFlags": {
      "loseDexToAC": false,
      "noEncumbrance": false,
      "mediumArmorFullSpeed": false,
      "heavyArmorFullSpeed": false
    },
    "contextNotes": [],
    "links": {
      "children": [],
      "charges": []
    },
    "tag": "adventurousExplorerSongo",
    "useCustomTag": false,
    "armorProf": {
      "value": [],
      "custom": ""
    },
    "weaponProf": {
      "value": [],
      "custom": ""
    },
    "languages": {
      "value": [],
      "custom": ""
    },
    "flags": {
      "boolean": {},
      "dictionary": {}
    },
    "scriptCalls": [],
    "subType": "trait",
    "associations": {
      "classes": []
    },
    "showInQuickbar": false,
    "abilityType": "none",
    "crOffset": "",
    "disabled": false,
    "classSkills": {},
    "traitType": "faith"
  },
  "ownership": {
    "default": 0
  },
  "_stats": {
    "systemId": "pf1",
    "systemVersion": "9.1",
    "coreVersion": "10.291",
    "createdTime": 1665428392253,
    "modifiedTime": 1689797970827,
    "lastModifiedBy": "ppv91YxratjWnkJi"
  },
  "effects": [],
  "folder": "13dReUJWCsEjXV2p",
  "sort": 0,
  "flags": {},
  "_key": "!items!qXSx4JLyJz2F85r5"
}