{
  "_id": "JalH63VxUIp3urjY",
  "name": "Envoy of Healing (Sarenrae)",
  "type": "feat",
  "img": "icons/environment/settlement/temple-night.webp",
  "system": {
    "description": {
      "value": "<p><em>You strive to spread the Dawnflower&rsquo;s message of kindness and compassion throughout the land, no matter how dangerous the road may be.</em></p><p><strong>Requirements</strong></p><p>Sarenrae</p><p><strong>Benefits</strong></p><p>Whenever you use channel energy, fervor, or lay on hands to heal a living creature, you can reroll any healing die roll that results in a natural 1 (you must use the new result).</p>",
      "unidentified": ""
    },
    "tags": [],
    "actions": [],
    "uses": {
      "per": null,
      "value": 0,
      "maxFormula": "",
      "autoDeductChargesCost": "1"
    },
    "attackNotes": [],
    "effectNotes": [],
    "changes": [],
    "changeFlags": {
      "loseDexToAC": false,
      "noEncumbrance": false,
      "mediumArmorFullSpeed": false,
      "heavyArmorFullSpeed": false
    },
    "contextNotes": [],
    "links": {
      "children": [],
      "charges": []
    },
    "tag": "savannaChildPlains",
    "useCustomTag": false,
    "armorProf": {
      "value": [],
      "custom": ""
    },
    "weaponProf": {
      "value": [],
      "custom": ""
    },
    "languages": {
      "value": [],
      "custom": ""
    },
    "flags": {
      "boolean": {},
      "dictionary": {}
    },
    "scriptCalls": [],
    "subType": "trait",
    "associations": {
      "classes": []
    },
    "showInQuickbar": false,
    "abilityType": "none",
    "crOffset": "",
    "disabled": false,
    "classSkills": {},
    "traitType": "religion"
  },
  "ownership": {
    "default": 0
  },
  "_stats": {
    "systemId": "pf1",
    "systemVersion": "9.1",
    "coreVersion": "10.291",
    "createdTime": 1665428390527,
    "modifiedTime": 1689797962047,
    "lastModifiedBy": "ppv91YxratjWnkJi"
  },
  "effects": [],
  "folder": "MB4DGP9uns7VLmaa",
  "sort": 0,
  "flags": {},
  "_key": "!items!JalH63VxUIp3urjY"
}