{
  "_id": "sUshfdsjoqMcHI40",
  "name": "Etymologist (Gnome)",
  "type": "feat",
  "img": "systems/pf1/icons/skills/light_07.jpg",
  "folder": "FeKDEoyX2eafWdJl",
  "system": {
    "description": {
      "value": "<p><em>When you, like all other young gnomes, were taught the hodgepodge Gnome language, you became curious about the original meaning of each word and what language it was derived from. Anytime you come across a new language, you are immediately absorbed by both how it works and what words you can co-opt from it for the Gnome language.</em></p><p><strong>Requirements</strong></p><p>Gnome</p><p><strong>Benefits</strong></p><p>You gain a +1 trait bonus on Linguistics checks, know one additional bonus language, and treat Linguistics as a class skill.</p>",
      "unidentified": ""
    },
    "tags": [
      "PFS",
      "Gnome"
    ],
    "actions": [],
    "uses": {
      "per": null,
      "value": 0,
      "maxFormula": "",
      "autoDeductChargesCost": "1"
    },
    "attackNotes": [],
    "effectNotes": [],
    "changes": [],
    "changeFlags": {
      "loseDexToAC": false,
      "noEncumbrance": false,
      "mediumArmorFullSpeed": false,
      "heavyArmorFullSpeed": false
    },
    "contextNotes": [],
    "links": {
      "children": [],
      "charges": []
    },
    "tag": "etymologistGnomeSocial",
    "useCustomTag": false,
    "armorProf": {
      "value": [],
      "custom": ""
    },
    "weaponProf": {
      "value": [],
      "custom": ""
    },
    "languages": {
      "value": [],
      "custom": ""
    },
    "flags": {
      "boolean": {},
      "dictionary": {}
    },
    "scriptCalls": [],
    "subType": "trait",
    "associations": {
      "classes": []
    },
    "showInQuickbar": false,
    "abilityType": "none",
    "crOffset": "",
    "disabled": false,
    "classSkills": {},
    "traitType": "social"
  },
  "ownership": {
    "default": 0
  },
  "_stats": {
    "systemId": "pf1",
    "systemVersion": "9.1",
    "coreVersion": "10.291",
    "createdTime": 1665428392306,
    "modifiedTime": 1689797971190,
    "lastModifiedBy": "ppv91YxratjWnkJi"
  },
  "effects": [],
  "sort": 0,
  "flags": {},
  "_key": "!items!sUshfdsjoqMcHI40"
}