{
  "_id": "G8mq4sMz2tnvCCa3",
  "name": "Excellent Penmanship",
  "type": "feat",
  "img": "systems/pf1/icons/feats/persuasive.jpg",
  "system": {
    "description": {
      "value": "<p><em>You are a master of calligraphy, an art once highly valued in Lung Wa and still held in high esteem in Lingshen.</em></p><p><strong>Benefits</strong></p><p>The DC to detect forgeries you create increases by 2. If you attempt to persuade someone via a written message, you gain a +2 bonus on any Bluff, Diplomacy, or Intimidate check attempted for that communication. Linguistics is always a class skill for you.</p>",
      "unidentified": ""
    },
    "tags": [
      "PFS"
    ],
    "actions": [],
    "uses": {
      "per": null,
      "value": 0,
      "maxFormula": "",
      "autoDeductChargesCost": "1"
    },
    "attackNotes": [],
    "effectNotes": [],
    "changes": [],
    "changeFlags": {
      "loseDexToAC": false,
      "noEncumbrance": false,
      "mediumArmorFullSpeed": false,
      "heavyArmorFullSpeed": false
    },
    "contextNotes": [],
    "links": {
      "children": [],
      "charges": []
    },
    "tag": "savannaChildPlains",
    "useCustomTag": false,
    "armorProf": {
      "value": [],
      "custom": ""
    },
    "weaponProf": {
      "value": [],
      "custom": ""
    },
    "languages": {
      "value": [],
      "custom": ""
    },
    "flags": {
      "boolean": {},
      "dictionary": {}
    },
    "scriptCalls": [],
    "subType": "trait",
    "associations": {
      "classes": []
    },
    "showInQuickbar": false,
    "abilityType": "none",
    "crOffset": "",
    "disabled": false,
    "classSkills": {
      "lin": true
    },
    "traitType": "social"
  },
  "ownership": {
    "default": 0
  },
  "_stats": {
    "systemId": "pf1",
    "systemVersion": "9.1",
    "coreVersion": "10.291",
    "createdTime": 1665428390274,
    "modifiedTime": 1689797960761,
    "lastModifiedBy": "ppv91YxratjWnkJi"
  },
  "effects": [],
  "folder": "FeKDEoyX2eafWdJl",
  "sort": 0,
  "flags": {},
  "_key": "!items!G8mq4sMz2tnvCCa3"
}