{
  "_id": "snZMLrrtcmNH4hrJ",
  "name": "Fed-Up Citizen (Hell's Rebels)",
  "type": "feat",
  "img": "icons/tools/navigation/map-chart-tan.webp",
  "system": {
    "description": {
      "value": "<p><em>Kintargo is a tough place to live if you count yourself as a law-abiding citizen. While you likely agree with most others of Kintargo that many of the laws put in place by House Thrune seem excessive, you always respected the law and honored it as best you could. You likely worship a deity such as Abadar or Iomedae &mdash;a lawful neutral or perhaps lawful good power allowed to practice within Cheliax, but only under restrictions. Yet despite this, Thrune has always made Cheliax a safer place to live. But with recent events, enough is enough. As much as it pains you to admit, the law of the land is now manifestly and obviously not correct, and something must be done to oppose this misuse of power. If that means aligning yourself to a rebel faction such as the Silver Ravens, so be it.</em></p><p><strong>Notes</strong></p><p>This trait works particularly well for paladins or other characters who wish to venerate lawful causes but still oppose the government. Your GM should be open to allowing lawful characters to perform actions out of character for someone of lawful alignment, provided the end goal is a new and better government for Kintargo, but with this feat, characters tied strongly to law (such as lawful clerics, monks, or paladins) can hide those ties in ways that help them perform as rebels without giving up their actual convictions.</p><p><strong>Benefits</strong></p><p>You&rsquo;re good at hiding your true colors and faith to avoid attracting the wrong kind of attention. You gain a +1 bonus on Disguise checks, and Disguise is always a class skill for you. In addition, when someone uses detect good or detect law on you, your effective Hit Dice are 4 lower than their actual total when someone discerns the strength of your aura. If you are a cleric, paladin, or similar divine spellcaster, you treat yourself as if you were a standard-aligned creature rather than a divine spellcaster for these purposes. This means that until you become 9th level, you won&rsquo;t radiate an aura of good or law at all when someone casts one of these detection spells. Finally, your internal convictions that you&rsquo;re on the actual right of law help bolster your mindset, and you gain a +1 trait bonus on all saving throws against mind-affecting effects.</p>",
      "unidentified": ""
    },
    "tags": [],
    "actions": [],
    "uses": {
      "per": null,
      "value": 0,
      "maxFormula": "",
      "autoDeductChargesCost": "1"
    },
    "attackNotes": [],
    "effectNotes": [],
    "changes": [],
    "changeFlags": {
      "loseDexToAC": false,
      "noEncumbrance": false,
      "mediumArmorFullSpeed": false,
      "heavyArmorFullSpeed": false
    },
    "contextNotes": [],
    "links": {
      "children": [],
      "charges": []
    },
    "tag": "fedupCitizenHellsRebels",
    "useCustomTag": false,
    "armorProf": {
      "value": [],
      "custom": ""
    },
    "weaponProf": {
      "value": [],
      "custom": ""
    },
    "languages": {
      "value": [],
      "custom": ""
    },
    "flags": {
      "boolean": {},
      "dictionary": {}
    },
    "scriptCalls": [],
    "subType": "trait",
    "associations": {
      "classes": []
    },
    "showInQuickbar": false,
    "abilityType": "none",
    "crOffset": "",
    "disabled": false,
    "classSkills": {},
    "traitType": "campaign"
  },
  "ownership": {
    "default": 0
  },
  "_stats": {
    "systemId": "pf1",
    "systemVersion": "9.1",
    "coreVersion": "10.291",
    "createdTime": 1665428392316,
    "modifiedTime": 1689797971246,
    "lastModifiedBy": "ppv91YxratjWnkJi"
  },
  "effects": [],
  "folder": "pCbPxzsBnEH3Mz08",
  "sort": 0,
  "flags": {},
  "_key": "!items!snZMLrrtcmNH4hrJ"
}