{
  "_id": "A20xwmcXQiEPk7ph",
  "name": "Fey-Taken",
  "type": "feat",
  "img": "systems/pf1/icons/feats/shatter-defenses.jpg",
  "system": {
    "description": {
      "value": "<p><em>As a child, you were whisked away to the First World by mischievous fey for a time. When you returned, you were ever after considered odd and distant.</em></p><p><strong>Effects</strong></p><p>You long to return there, and find the mortal world dull and at times revolting, so you do not eat as you should and do not question strange visions. You take a &ndash;2 penalty on saving throws against disease, illusions, and poison of all kinds, as well as against the spells, spell-like abilities, and supernatural abilities of fey.</p>",
      "unidentified": ""
    },
    "tags": [],
    "actions": [],
    "uses": {
      "per": null,
      "value": 0,
      "maxFormula": "",
      "autoDeductChargesCost": "1"
    },
    "attackNotes": [],
    "effectNotes": [],
    "changes": [],
    "changeFlags": {
      "loseDexToAC": false,
      "noEncumbrance": false,
      "mediumArmorFullSpeed": false,
      "heavyArmorFullSpeed": false
    },
    "contextNotes": [],
    "links": {
      "children": [],
      "charges": []
    },
    "tag": "savannaChildPlains",
    "useCustomTag": false,
    "armorProf": {
      "value": [],
      "custom": ""
    },
    "weaponProf": {
      "value": [],
      "custom": ""
    },
    "languages": {
      "value": [],
      "custom": ""
    },
    "flags": {
      "boolean": {},
      "dictionary": {}
    },
    "scriptCalls": [],
    "subType": "trait",
    "associations": {
      "classes": []
    },
    "showInQuickbar": false,
    "abilityType": "none",
    "crOffset": "",
    "disabled": false,
    "classSkills": {},
    "traitType": "drawback"
  },
  "ownership": {
    "default": 0
  },
  "_stats": {
    "systemId": "pf1",
    "systemVersion": "9.1",
    "coreVersion": "10.291",
    "createdTime": 1665428390093,
    "modifiedTime": 1689797959498,
    "lastModifiedBy": "ppv91YxratjWnkJi"
  },
  "effects": [],
  "folder": "n1kBJ9yG8vwL71rY",
  "sort": 0,
  "flags": {},
  "_key": "!items!A20xwmcXQiEPk7ph"
}