{
  "_id": "QHq81p175NK4Qeld",
  "name": "Giant Slayer (Rise of the Runelords)",
  "type": "feat",
  "img": "icons/tools/navigation/map-chart-tan.webp",
  "system": {
    "description": {
      "value": "<p><em>Your family&rsquo;s village was plundered by giants in the wilds of Varisia, leaving nothing but a smoldering ruin. After the destruction of your village, your family trained for combat against giants to prevent such a tragedy from ever happening again. Since hearing of giants mobilizing throughout the countryside, you ventured to Sandpoint to help the town prepare for a possible incursion.</em></p><p><strong>Benefits</strong></p><p>You gain a +1 trait bonus on Bluff, Perception, and Sense Motive checks and +1 trait bonus on attack rolls and damage rolls against creatures of the giant subtype.</p>",
      "unidentified": ""
    },
    "tags": [],
    "actions": [],
    "uses": {
      "per": null,
      "value": 0,
      "maxFormula": "",
      "autoDeductChargesCost": "1"
    },
    "attackNotes": [],
    "effectNotes": [],
    "changes": [],
    "changeFlags": {
      "loseDexToAC": false,
      "noEncumbrance": false,
      "mediumArmorFullSpeed": false,
      "heavyArmorFullSpeed": false
    },
    "contextNotes": [],
    "links": {
      "children": [],
      "charges": []
    },
    "tag": "giantSlayerRiseOfTheRunelords",
    "useCustomTag": false,
    "armorProf": {
      "value": [],
      "custom": ""
    },
    "weaponProf": {
      "value": [],
      "custom": ""
    },
    "languages": {
      "value": [],
      "custom": ""
    },
    "flags": {
      "boolean": {},
      "dictionary": {}
    },
    "scriptCalls": [],
    "subType": "trait",
    "associations": {
      "classes": []
    },
    "showInQuickbar": false,
    "abilityType": "none",
    "crOffset": "",
    "disabled": false,
    "classSkills": {},
    "traitType": "campaign"
  },
  "ownership": {
    "default": 0
  },
  "_stats": {
    "systemId": "pf1",
    "systemVersion": "9.1",
    "coreVersion": "10.291",
    "createdTime": 1665428390877,
    "modifiedTime": 1689797963787,
    "lastModifiedBy": "ppv91YxratjWnkJi"
  },
  "effects": [],
  "folder": "pCbPxzsBnEH3Mz08",
  "sort": 0,
  "flags": {},
  "_key": "!items!QHq81p175NK4Qeld"
}