{
  "_id": "qW6TikoPcwleBZ8c",
  "name": "Grit Goggles (Darklands*)",
  "type": "feat",
  "img": "icons/environment/settlement/watchtower-city.webp",
  "system": {
    "description": {
      "value": "<p><em>Exposure to the constant hazards of airborne particles (such as during a sandstorm or cave-in) has made your eyes less susceptible to irritants, such as sand, dust, and even liquids and gases.</em></p><p><strong>Requirements</strong></p><p>Darklands, usually under deserts</p><p><strong>Benefits</strong></p><p>You gain a +2 trait bonus against being blinded by foreign objects (such as from a Dirty Trick combat maneuver) and you halve any reductions in visibility from the environment (such as from certain storms) and their corresponding penalties. For example, if you were in a sandstorm that normally reduces visibility to 25 feet and imparts a &ndash;4 penalty on Perception checks, you reduce visibility to 50 feet and take only a &ndash;2 penalty on Perception checks.</p>",
      "unidentified": ""
    },
    "tags": [],
    "actions": [],
    "uses": {
      "per": null,
      "value": 0,
      "maxFormula": "",
      "autoDeductChargesCost": "1"
    },
    "attackNotes": [],
    "effectNotes": [],
    "changes": [],
    "changeFlags": {
      "loseDexToAC": false,
      "noEncumbrance": false,
      "mediumArmorFullSpeed": false,
      "heavyArmorFullSpeed": false
    },
    "contextNotes": [],
    "links": {
      "children": [],
      "charges": []
    },
    "tag": "savannaChildPlains",
    "useCustomTag": false,
    "armorProf": {
      "value": [],
      "custom": ""
    },
    "weaponProf": {
      "value": [],
      "custom": ""
    },
    "languages": {
      "value": [],
      "custom": ""
    },
    "flags": {
      "boolean": {},
      "dictionary": {}
    },
    "scriptCalls": [],
    "subType": "trait",
    "associations": {
      "classes": []
    },
    "showInQuickbar": false,
    "abilityType": "none",
    "crOffset": "",
    "disabled": false,
    "classSkills": {},
    "traitType": "region"
  },
  "ownership": {
    "default": 0
  },
  "_stats": {
    "systemId": "pf1",
    "systemVersion": "9.1",
    "coreVersion": "10.291",
    "createdTime": 1665428392253,
    "modifiedTime": 1689797970820,
    "lastModifiedBy": "ppv91YxratjWnkJi"
  },
  "effects": [],
  "folder": "6b4Oq2nNMw3BxL6l",
  "sort": 0,
  "flags": {},
  "_key": "!items!qW6TikoPcwleBZ8c"
}