{
  "_id": "CbLYC95RZ3DTRBUc",
  "name": "Hellknight Inquisitor",
  "type": "feat",
  "img": "icons/equipment/shield/pavise-wooden-wings-blue-white.webp",
  "system": {
    "description": {
      "value": "<p><strong>Benefits</strong></p><p>If you are an inquisitor, you can select any inquisition associated with your preferred Hellknight order (see below), as long as you and your patron deity are of a lawful alignment. Additionally, you gain a +1 trait bonus on saving throws against spells and effects with the chaos descriptor.</p>",
      "unidentified": ""
    },
    "tags": [
      "PFS"
    ],
    "actions": [],
    "uses": {
      "per": null,
      "value": 0,
      "maxFormula": "",
      "autoDeductChargesCost": "1"
    },
    "attackNotes": [],
    "effectNotes": [],
    "changes": [],
    "changeFlags": {
      "loseDexToAC": false,
      "noEncumbrance": false,
      "mediumArmorFullSpeed": false,
      "heavyArmorFullSpeed": false
    },
    "contextNotes": [],
    "links": {
      "children": [],
      "charges": []
    },
    "tag": "adventurousExplorerSongo",
    "useCustomTag": false,
    "armorProf": {
      "value": [],
      "custom": ""
    },
    "weaponProf": {
      "value": [],
      "custom": ""
    },
    "languages": {
      "value": [],
      "custom": ""
    },
    "flags": {
      "boolean": {},
      "dictionary": {}
    },
    "scriptCalls": [],
    "subType": "trait",
    "associations": {
      "classes": []
    },
    "showInQuickbar": false,
    "abilityType": "none",
    "crOffset": "",
    "disabled": false,
    "classSkills": {},
    "traitType": "faith"
  },
  "ownership": {
    "default": 0
  },
  "_stats": {
    "systemId": "pf1",
    "systemVersion": "9.1",
    "coreVersion": "10.291",
    "createdTime": 1665428390181,
    "modifiedTime": 1689797960115,
    "lastModifiedBy": "ppv91YxratjWnkJi"
  },
  "effects": [],
  "folder": "13dReUJWCsEjXV2p",
  "sort": 0,
  "flags": {},
  "_key": "!items!CbLYC95RZ3DTRBUc"
}