{
  "_id": "Ka04bvc1PcMxl8uW",
  "name": "Hero Worship (Jade Regent)",
  "type": "feat",
  "img": "icons/tools/navigation/map-chart-tan.webp",
  "folder": "pCbPxzsBnEH3Mz08",
  "system": {
    "description": {
      "value": "<p><em>Everyone in town seems to admire Ameiko and Shalelu,they're heroes, after all, and played key roles in the recent troubles that plagued Sandpoint. You, though, take this admiration to a new level,you practically worship one of these two. This could be because you saw one of them perform a particularly impressive act of bravery at some point in the past, or maybe they just happened to give you the exact right words of encouragement or a kind gift at some point a few years ago when you were young and impressionable. In any case, you've done your best to emulate your hero's talents at spellcasting or combat.</em></p><p><strong>Benefits</strong></p><p>You gain a +1 trait bonus on all attack rolls against foes that threaten your hero as well as one of the following:</p><p>If your hero is Ameiko, you gain a +2 bonus on concentration checks. If your hero is Shalelu, you gain a +1 bonus to your AC against attacks of opportunity.</p><p><strong>NPC Choices</strong></p><p>Ameiko, Shalelu</p>",
      "unidentified": ""
    },
    "tags": [],
    "actions": [],
    "uses": {
      "per": null,
      "value": 0,
      "maxFormula": "",
      "autoDeductChargesCost": "1"
    },
    "attackNotes": [],
    "effectNotes": [],
    "changes": [],
    "changeFlags": {
      "loseDexToAC": false,
      "noEncumbrance": false,
      "mediumArmorFullSpeed": false,
      "heavyArmorFullSpeed": false
    },
    "contextNotes": [],
    "links": {
      "children": [],
      "charges": []
    },
    "tag": "heroWorshipJadeRegent",
    "useCustomTag": false,
    "armorProf": {
      "value": [],
      "custom": ""
    },
    "weaponProf": {
      "value": [],
      "custom": ""
    },
    "languages": {
      "value": [],
      "custom": ""
    },
    "flags": {
      "boolean": {},
      "dictionary": {}
    },
    "scriptCalls": [],
    "subType": "trait",
    "associations": {
      "classes": []
    },
    "showInQuickbar": false,
    "abilityType": "none",
    "crOffset": "",
    "disabled": false,
    "classSkills": {},
    "traitType": "campaign"
  },
  "ownership": {
    "default": 0
  },
  "_stats": {
    "systemId": "pf1",
    "systemVersion": "9.1",
    "coreVersion": "10.291",
    "createdTime": 1665428390557,
    "modifiedTime": 1689797962281,
    "lastModifiedBy": "ppv91YxratjWnkJi"
  },
  "effects": [],
  "sort": 0,
  "flags": {},
  "_key": "!items!Ka04bvc1PcMxl8uW"
}