{
  "_id": "X3y66cCksYNc6BXv",
  "name": "Honored Fist of the Society (Monk, Pathfinder Society)",
  "type": "feat",
  "img": "icons/weapons/swords/swords-short.webp",
  "folder": "rasdJf3aELQxqSwG",
  "system": {
    "description": {
      "value": "<p><em>You have studied dozens of ancient texts on martial arts that only the Society possesses, and are more learned in these arts than most.</em></p><p><strong>Requirements</strong></p><p>Monk, Pathfinder Society</p><p><strong>Benefits</strong></p><p>You increase your ki pool by 1 point.</p>",
      "unidentified": ""
    },
    "tags": [
      "PFS"
    ],
    "actions": [],
    "uses": {
      "per": null,
      "value": 0,
      "maxFormula": "",
      "autoDeductChargesCost": "1"
    },
    "attackNotes": [],
    "effectNotes": [],
    "changes": [],
    "changeFlags": {
      "loseDexToAC": false,
      "noEncumbrance": false,
      "mediumArmorFullSpeed": false,
      "heavyArmorFullSpeed": false
    },
    "contextNotes": [],
    "links": {
      "children": [],
      "charges": []
    },
    "tag": "honoredFistOfTheSocietyMonkPathfinderSociety",
    "useCustomTag": false,
    "armorProf": {
      "value": [],
      "custom": ""
    },
    "weaponProf": {
      "value": [],
      "custom": ""
    },
    "languages": {
      "value": [],
      "custom": ""
    },
    "flags": {
      "boolean": {},
      "dictionary": {}
    },
    "scriptCalls": [],
    "subType": "trait",
    "associations": {
      "classes": []
    },
    "showInQuickbar": false,
    "abilityType": "none",
    "crOffset": "",
    "disabled": false,
    "classSkills": {},
    "traitType": "combat"
  },
  "ownership": {
    "default": 0
  },
  "_stats": {
    "systemId": "pf1",
    "systemVersion": "9.1",
    "coreVersion": "10.291",
    "createdTime": 1665428391293,
    "modifiedTime": 1689797965561,
    "lastModifiedBy": "ppv91YxratjWnkJi"
  },
  "effects": [],
  "sort": 0,
  "flags": {},
  "_key": "!items!X3y66cCksYNc6BXv"
}