{
  "_id": "huYjtjFEB0AFRhDq",
  "name": "Horrifying Mind",
  "type": "feat",
  "img": "icons/sundries/books/book-embossed-jewel-gold-purple.webp",
  "system": {
    "description": {
      "value": "<p><em>When a nonevil humanoid attempts to read your mind via a magical effect, the reader must attempt a Will save opposed by your Wisdom or Charisma check (your choice).</em></p><p><strong>Benefits</strong></p><p>If the reader fails this save, she is shaken for 1 round. If she fails by 10 or more, she is instead frightened for 1 round, then shaken for 1 round.</p>",
      "unidentified": ""
    },
    "tags": [],
    "actions": [],
    "uses": {
      "per": null,
      "value": 0,
      "maxFormula": "",
      "autoDeductChargesCost": "1"
    },
    "attackNotes": [],
    "effectNotes": [],
    "changes": [],
    "changeFlags": {
      "loseDexToAC": false,
      "noEncumbrance": false,
      "mediumArmorFullSpeed": false,
      "heavyArmorFullSpeed": false
    },
    "contextNotes": [],
    "links": {
      "children": [],
      "charges": []
    },
    "tag": "1FamilyTemplate",
    "useCustomTag": false,
    "armorProf": {
      "value": [],
      "custom": ""
    },
    "weaponProf": {
      "value": [],
      "custom": ""
    },
    "languages": {
      "value": [],
      "custom": ""
    },
    "flags": {
      "boolean": {},
      "dictionary": {}
    },
    "scriptCalls": [],
    "subType": "trait",
    "associations": {
      "classes": []
    },
    "showInQuickbar": false,
    "abilityType": "none",
    "crOffset": "",
    "disabled": false,
    "classSkills": {},
    "traitType": "magic"
  },
  "ownership": {
    "default": 0
  },
  "_stats": {
    "systemId": "pf1",
    "systemVersion": "9.1",
    "coreVersion": "10.291",
    "createdTime": 1665428391819,
    "modifiedTime": 1689797968657,
    "lastModifiedBy": "ppv91YxratjWnkJi"
  },
  "effects": [],
  "folder": "qFbWInuNDuv3JE0T",
  "sort": 0,
  "flags": {},
  "_key": "!items!huYjtjFEB0AFRhDq"
}