{
  "_id": "gD0Dr8vukuLyYWPc",
  "name": "Influential (Sovereign Court)",
  "type": "feat",
  "img": "icons/environment/people/charge.webp",
  "system": {
    "description": {
      "value": "<p><em>When you make a suggestion, strangers often assume that it was their idea to begin with.</em></p><p><strong>Requirements</strong></p><p>Sovereign Court</p><p><strong>Benefits</strong></p><p>You gain a +3 bonus on Diplomacy checks to make requests of a creature. Once per day, you may select one single spell you are casting with the language dependent descriptor; you increase the saving throw DC of that spell by 1.</p>",
      "unidentified": ""
    },
    "tags": [
      "PFS"
    ],
    "actions": [],
    "uses": {
      "per": null,
      "value": 0,
      "maxFormula": "",
      "autoDeductChargesCost": "1"
    },
    "attackNotes": [],
    "effectNotes": [],
    "changes": [],
    "changeFlags": {
      "loseDexToAC": false,
      "noEncumbrance": false,
      "mediumArmorFullSpeed": false,
      "heavyArmorFullSpeed": false
    },
    "contextNotes": [],
    "links": {
      "children": [],
      "charges": []
    },
    "tag": "influentialSovereignCourt",
    "useCustomTag": false,
    "armorProf": {
      "value": [],
      "custom": ""
    },
    "weaponProf": {
      "value": [],
      "custom": ""
    },
    "languages": {
      "value": [],
      "custom": ""
    },
    "flags": {
      "boolean": {},
      "dictionary": {}
    },
    "scriptCalls": [],
    "subType": "trait",
    "associations": {
      "classes": []
    },
    "showInQuickbar": false,
    "abilityType": "none",
    "crOffset": "",
    "disabled": false,
    "classSkills": {},
    "traitType": "faction"
  },
  "ownership": {
    "default": 0
  },
  "_stats": {
    "systemId": "pf1",
    "systemVersion": "9.1",
    "coreVersion": "10.291",
    "createdTime": 1665428391754,
    "modifiedTime": 1689797968269,
    "lastModifiedBy": "ppv91YxratjWnkJi"
  },
  "effects": [],
  "folder": "Deq32iqkuiMz2xsk",
  "sort": 0,
  "flags": {},
  "_key": "!items!gD0Dr8vukuLyYWPc"
}