{
  "_id": "q61ix5B2ubzg04Du",
  "name": "Inquisitive Banterer (Catfolk)",
  "type": "feat",
  "img": "systems/pf1/icons/skills/blue_35.jpg",
  "system": {
    "description": {
      "value": "<p><em>You are able to learn information by bombarding others with questions that come across as conversational.</em></p><p><strong>Requirements</strong></p><p>Catfolk</p><p><strong>Benefits</strong></p><p>You gain a +1 trait bonus on Diplomacy checks. In addition, you can use Diplomacy to gather information in 1d2 hours instead of 1d4.</p>",
      "unidentified": ""
    },
    "tags": [
      "PFS",
      "Catfolk"
    ],
    "actions": [],
    "uses": {
      "per": null,
      "value": 0,
      "maxFormula": "",
      "autoDeductChargesCost": "1"
    },
    "attackNotes": [],
    "effectNotes": [],
    "changes": [],
    "changeFlags": {
      "loseDexToAC": false,
      "noEncumbrance": false,
      "mediumArmorFullSpeed": false,
      "heavyArmorFullSpeed": false
    },
    "contextNotes": [],
    "links": {
      "children": [],
      "charges": []
    },
    "tag": "adventurousExplorerSongo",
    "useCustomTag": false,
    "armorProf": {
      "value": [],
      "custom": ""
    },
    "weaponProf": {
      "value": [],
      "custom": ""
    },
    "languages": {
      "value": [],
      "custom": ""
    },
    "flags": {
      "boolean": {},
      "dictionary": {}
    },
    "scriptCalls": [],
    "subType": "trait",
    "associations": {
      "classes": []
    },
    "showInQuickbar": false,
    "abilityType": "none",
    "crOffset": "",
    "disabled": false,
    "classSkills": {},
    "traitType": "race"
  },
  "ownership": {
    "default": 0
  },
  "_stats": {
    "systemId": "pf1",
    "systemVersion": "9.1",
    "coreVersion": "10.291",
    "createdTime": 1665428392234,
    "modifiedTime": 1689797970687,
    "lastModifiedBy": "ppv91YxratjWnkJi"
  },
  "effects": [],
  "folder": "OJcM9ZeR3TB33I5m",
  "sort": 0,
  "flags": {},
  "_key": "!items!q61ix5B2ubzg04Du"
}