{
  "_id": "DvDOCRNLk3zHSOht",
  "name": "Librarian (Dark Archive)",
  "type": "feat",
  "img": "icons/environment/people/charge.webp",
  "system": {
    "description": {
      "value": "<p><em>You are trained to manage and maintain books, and you find it easy to procure information from tomes.</em></p><p><strong>Requirements</strong></p><p>Dark Archive</p><p><strong>Benefits</strong></p><p>You gain a +1 bonus on Linguistics or Profession (librarian) checks, and one of these skills (your choice) becomes a class skill for you. Once per day when you would gain a bonus on a skill check from reading a book, you can increase that bonus by 1.</p>",
      "unidentified": ""
    },
    "tags": [
      "PFS"
    ],
    "actions": [],
    "uses": {
      "per": null,
      "value": 0,
      "maxFormula": "",
      "autoDeductChargesCost": "1"
    },
    "attackNotes": [],
    "effectNotes": [],
    "changes": [
      {
        "_id": "dz7fwgdz",
        "formula": "1",
        "operator": "add",
        "subTarget": "skill.lin",
        "modifier": "trait",
        "priority": 0,
        "value": 1,
        "target": "skill"
      }
    ],
    "changeFlags": {
      "loseDexToAC": false,
      "noEncumbrance": false,
      "mediumArmorFullSpeed": false,
      "heavyArmorFullSpeed": false
    },
    "contextNotes": [],
    "links": {
      "children": [],
      "charges": []
    },
    "tag": "librarianDarkArchive",
    "useCustomTag": false,
    "armorProf": {
      "value": [],
      "custom": ""
    },
    "weaponProf": {
      "value": [],
      "custom": ""
    },
    "languages": {
      "value": [],
      "custom": ""
    },
    "flags": {
      "boolean": {},
      "dictionary": {}
    },
    "scriptCalls": [],
    "subType": "trait",
    "associations": {
      "classes": []
    },
    "showInQuickbar": false,
    "abilityType": "none",
    "crOffset": "",
    "disabled": false,
    "classSkills": {},
    "traitType": "faction"
  },
  "ownership": {
    "default": 0
  },
  "_stats": {
    "systemId": "pf1",
    "systemVersion": "9.1",
    "coreVersion": "10.291",
    "createdTime": 1665428390224,
    "modifiedTime": 1689797960390,
    "lastModifiedBy": "ppv91YxratjWnkJi"
  },
  "effects": [],
  "folder": "Deq32iqkuiMz2xsk",
  "sort": 0,
  "flags": {},
  "_key": "!items!DvDOCRNLk3zHSOht"
}