{
  "_id": "TXh0uuo5ox0y5ijt",
  "name": "Lovesick",
  "type": "feat",
  "img": "systems/pf1/icons/feats/shatter-defenses.jpg",
  "system": {
    "description": {
      "value": "<p><em>Your love for another occupies your every thought, and you become despondent when you are away from that person.</em></p><p><strong>Effects</strong></p><p>A person is chosen by your GM (with consideration to your roll on the Romantic Relationships table below if you used the background generator). At the start of each day, if you are away from this person you take a &ndash;2 penalty on initiative checks and Perception checks. If you ever lose or fall out of love with this person, exchange this drawback for the Doubt drawback.</p><p><strong>Romantic Relationships</strong></p><table style=\"width: 98.6014%; height: 136px;\" border=\"1\"><tbody><tr style=\"text-align: center;\"><td style=\"width: 11.7834%; height: 17px;\"><strong>d20</strong></td><td style=\"width: 87.3497%; height: 17px;\"><strong>RESULT</strong></td></tr><tr style=\"text-align: center;\"><td style=\"width: 11.7834%; height: 17px;\">1&ndash;2</td><td style=\"width: 87.3497%; height: 17px;\"><strong>One Significant Relationship:</strong> You had a true love once, but that time has passed.</td></tr><tr style=\"height: 17px; text-align: center;\"><td style=\"width: 11.7834%; text-align: center; height: 17px;\">3&ndash;6</td><td style=\"width: 87.3497%; height: 17px;\"><strong>A Few Significant Relationships:</strong> You&rsquo;ve tried to make deep connections with individuals on several occasions, but it&rsquo;s never worked out.</td></tr><tr style=\"height: 17px; text-align: center;\"><td style=\"width: 11.7834%; text-align: center; height: 17px;\">7&ndash;9</td><td style=\"width: 87.3497%; height: 17px;\"><strong>Several Significant Relationships:</strong> You&rsquo;ve engaged in a number of partnerships, but for some reason or another your relationships always fail.</td></tr><tr style=\"height: 17px; text-align: center;\"><td style=\"width: 11.7834%; text-align: center; height: 17px;\">10&ndash;12</td><td style=\"width: 87.3497%; height: 17px;\"><strong>Current Lover:</strong> You are currently involved in a romantic relationship. You gain access to the True Love story feat.</td></tr><tr style=\"height: 17px; text-align: center;\"><td style=\"width: 11.7834%; text-align: center; height: 17px;\">13&ndash;16</td><td style=\"width: 87.3497%; height: 17px;\"><strong>Several Inconsequential Relationships:</strong> You have had many lovers but no long-lasting, meaningful relationships.</td></tr><tr style=\"height: 17px; text-align: center;\"><td style=\"width: 11.7834%; text-align: center; height: 17px;\">17&ndash;18</td><td style=\"width: 87.3497%; height: 17px;\"><strong>Experience But No Substantial Relationships:</strong> You&rsquo;ve had a fling or two, but have so far shied away from any ties or commitments.</td></tr><tr style=\"height: 17px; text-align: center;\"><td style=\"width: 11.7834%; text-align: center; height: 17px;\">19&ndash;20</td><td style=\"width: 87.3497%; height: 17px;\"><strong>No Experience:</strong> You have never experienced any kind of romantic connection whatsoever.</td></tr></tbody></table>\n",
      "unidentified": ""
    },
    "tags": [],
    "actions": [],
    "uses": {
      "per": null,
      "value": 0,
      "maxFormula": "",
      "autoDeductChargesCost": "1"
    },
    "attackNotes": [],
    "effectNotes": [],
    "changes": [],
    "changeFlags": {
      "loseDexToAC": false,
      "noEncumbrance": false,
      "mediumArmorFullSpeed": false,
      "heavyArmorFullSpeed": false
    },
    "contextNotes": [],
    "links": {
      "children": [],
      "charges": []
    },
    "tag": "savannaChildPlains",
    "useCustomTag": false,
    "armorProf": {
      "value": [],
      "custom": ""
    },
    "weaponProf": {
      "value": [],
      "custom": ""
    },
    "languages": {
      "value": [],
      "custom": ""
    },
    "flags": {
      "boolean": {},
      "dictionary": {}
    },
    "scriptCalls": [],
    "subType": "trait",
    "associations": {
      "classes": []
    },
    "showInQuickbar": false,
    "abilityType": "none",
    "crOffset": "",
    "disabled": false,
    "classSkills": {},
    "traitType": "drawback"
  },
  "ownership": {
    "default": 0
  },
  "_stats": {
    "systemId": "pf1",
    "systemVersion": "9.1",
    "coreVersion": "10.291",
    "createdTime": 1665428390991,
    "modifiedTime": 1689797964485,
    "lastModifiedBy": "ppv91YxratjWnkJi"
  },
  "effects": [],
  "folder": "n1kBJ9yG8vwL71rY",
  "sort": 0,
  "flags": {},
  "_key": "!items!TXh0uuo5ox0y5ijt"
}