{
  "_id": "Ots6NMyC4CQzKiP8",
  "name": "Marked by Nature's Magic (Skinwalker)",
  "type": "feat",
  "img": "systems/pf1/icons/skills/blue_35.jpg",
  "system": {
    "description": {
      "value": "<p><em>You hail from a community&mdash;perhaps in Arcadia or the Lands of the Linnorm Kings&mdash;that encouraged you to interact with fey.</em></p><p><strong>Requirements</strong></p><p>Skinwalker</p><p><strong>Benefits</strong></p><p>You gain a +1 trait bonus on Knowledge (nature) checks involving fey and on Diplomacy checks to influence fey. Knowledge (nature) is always a class skill for you.</p>",
      "unidentified": ""
    },
    "tags": [
      "PFS",
      "Skinwalker"
    ],
    "actions": [],
    "uses": {
      "per": null,
      "value": 0,
      "maxFormula": "",
      "autoDeductChargesCost": "1"
    },
    "attackNotes": [],
    "effectNotes": [],
    "changes": [],
    "changeFlags": {
      "loseDexToAC": false,
      "noEncumbrance": false,
      "mediumArmorFullSpeed": false,
      "heavyArmorFullSpeed": false
    },
    "contextNotes": [],
    "links": {
      "children": [],
      "charges": []
    },
    "tag": "adventurousExplorerSongo",
    "useCustomTag": false,
    "armorProf": {
      "value": [],
      "custom": ""
    },
    "weaponProf": {
      "value": [],
      "custom": ""
    },
    "languages": {
      "value": [],
      "custom": ""
    },
    "flags": {
      "boolean": {},
      "dictionary": {}
    },
    "scriptCalls": [],
    "subType": "trait",
    "associations": {
      "classes": []
    },
    "showInQuickbar": false,
    "abilityType": "none",
    "crOffset": "",
    "disabled": false,
    "classSkills": {
      "kna": true
    },
    "traitType": "race"
  },
  "ownership": {
    "default": 0
  },
  "_stats": {
    "systemId": "pf1",
    "systemVersion": "9.1",
    "coreVersion": "10.291",
    "createdTime": 1665428390841,
    "modifiedTime": 1689797963529,
    "lastModifiedBy": "ppv91YxratjWnkJi"
  },
  "effects": [],
  "folder": "OJcM9ZeR3TB33I5m",
  "sort": 0,
  "flags": {},
  "_key": "!items!Ots6NMyC4CQzKiP8"
}