{
  "_id": "qHulLMFoibYb4MOW",
  "name": "Mechanical Aptitude",
  "type": "feat",
  "img": "icons/sundries/books/book-embossed-jewel-gold-purple.webp",
  "system": {
    "description": {
      "value": "<p><em>You have learned much from tinkering with ancient technology from the Jistka Imperium.</em></p><p><strong>Benefits</strong></p><p>Choose one of the following skills: Disable Device, Knowledge (engineering), or Use Magic Device. Once per day, you can reroll a check with that skill before the outcome of the check is revealed. You must take the second result, even if it is worse.</p>",
      "unidentified": ""
    },
    "tags": [
      "PFS"
    ],
    "actions": [],
    "uses": {
      "per": null,
      "value": 0,
      "maxFormula": "",
      "autoDeductChargesCost": "1"
    },
    "attackNotes": [],
    "effectNotes": [],
    "changes": [],
    "changeFlags": {
      "loseDexToAC": false,
      "noEncumbrance": false,
      "mediumArmorFullSpeed": false,
      "heavyArmorFullSpeed": false
    },
    "contextNotes": [],
    "links": {
      "children": [],
      "charges": []
    },
    "tag": "1FamilyTemplate",
    "useCustomTag": false,
    "armorProf": {
      "value": [],
      "custom": ""
    },
    "weaponProf": {
      "value": [],
      "custom": ""
    },
    "languages": {
      "value": [],
      "custom": ""
    },
    "flags": {
      "boolean": {},
      "dictionary": {}
    },
    "scriptCalls": [],
    "subType": "trait",
    "associations": {
      "classes": []
    },
    "showInQuickbar": false,
    "abilityType": "none",
    "crOffset": "",
    "disabled": false,
    "classSkills": {},
    "traitType": "magic"
  },
  "ownership": {
    "default": 0
  },
  "_stats": {
    "systemId": "pf1",
    "systemVersion": "9.1",
    "coreVersion": "10.291",
    "createdTime": 1665428392247,
    "modifiedTime": 1689797970781,
    "lastModifiedBy": "ppv91YxratjWnkJi"
  },
  "effects": [],
  "folder": "qFbWInuNDuv3JE0T",
  "sort": 0,
  "flags": {},
  "_key": "!items!qHulLMFoibYb4MOW"
}