{
  "_id": "Z3wxmjI2LHnlXWx2",
  "name": "Memorable",
  "type": "feat",
  "img": "systems/pf1/icons/feats/persuasive.jpg",
  "system": {
    "description": {
      "value": "<p><em>Growing up amid a large number of children, you learned quickly how to get others&rsquo; attention and keep it.</em></p><p><strong>Benefits</strong></p><p>When you modify a character&rsquo;s attitude with the Diplomacy or Intimidate skill, the attitude change lasts 1-1/2 times longer than it otherwise would. Whenever you create a fear or mind-affecting effect that imposes a penalty or bonus with a duration of at least 2 rounds, it lasts 1 additional round after it would normally end. For example, if you demoralize a foe with an Intimidate check and beat the DC by 5, the victim is shaken for 3 rounds instead of the usual 2 rounds.</p><p><strong>Suggested Characters</strong></p><p>Free Captains, gnomes, Keleshites.</p>",
      "unidentified": ""
    },
    "tags": [
      "PFS"
    ],
    "actions": [],
    "uses": {
      "per": null,
      "value": 0,
      "maxFormula": "",
      "autoDeductChargesCost": "1"
    },
    "attackNotes": [],
    "effectNotes": [],
    "changes": [],
    "changeFlags": {
      "loseDexToAC": false,
      "noEncumbrance": false,
      "mediumArmorFullSpeed": false,
      "heavyArmorFullSpeed": false
    },
    "contextNotes": [],
    "links": {
      "children": [],
      "charges": []
    },
    "tag": "savannaChildPlains",
    "useCustomTag": false,
    "armorProf": {
      "value": [],
      "custom": ""
    },
    "weaponProf": {
      "value": [],
      "custom": ""
    },
    "languages": {
      "value": [],
      "custom": ""
    },
    "flags": {
      "boolean": {},
      "dictionary": {}
    },
    "scriptCalls": [],
    "subType": "trait",
    "associations": {
      "classes": []
    },
    "showInQuickbar": false,
    "abilityType": "none",
    "crOffset": "",
    "disabled": false,
    "classSkills": {},
    "traitType": "social"
  },
  "ownership": {
    "default": 0
  },
  "_stats": {
    "systemId": "pf1",
    "systemVersion": "9.1",
    "coreVersion": "10.291",
    "createdTime": 1665428391357,
    "modifiedTime": 1689797966004,
    "lastModifiedBy": "ppv91YxratjWnkJi"
  },
  "effects": [],
  "folder": "FeKDEoyX2eafWdJl",
  "sort": 0,
  "flags": {},
  "_key": "!items!Z3wxmjI2LHnlXWx2"
}