{
  "_id": "Ws8NnpodhmiUG6K8",
  "name": "Monastic",
  "type": "feat",
  "img": "icons/equipment/shield/pavise-wooden-wings-blue-white.webp",
  "system": {
    "description": {
      "value": "<p><em>Either your parents sent you to be raised in a monastery, or you traveled there yourself later in life in order to escape the conf lict and distractions of the greater world. There you learned to eschew the material concerns that plague so many and cloud their minds, instead embracing an ascetic lifestyle. You readily let go and step away from trouble, free from any tie or baggage that might slow your path to enlightenment&mdash;figuratively or literally.</em></p><p><strong>Benefits</strong></p><p>Once per day as a swift action, you gain a +1 trait bonus to Armor Class as long as you are wearing no armor, not using a shield, carrying a light load, and have nothing in your hands. This bonus lasts for 1 minute.</p>",
      "unidentified": ""
    },
    "tags": [
      "PFS"
    ],
    "actions": [],
    "uses": {
      "per": null,
      "value": 0,
      "maxFormula": "",
      "autoDeductChargesCost": "1"
    },
    "attackNotes": [],
    "effectNotes": [],
    "changes": [],
    "changeFlags": {
      "loseDexToAC": false,
      "noEncumbrance": false,
      "mediumArmorFullSpeed": false,
      "heavyArmorFullSpeed": false
    },
    "contextNotes": [],
    "links": {
      "children": [],
      "charges": []
    },
    "tag": "adventurousExplorerSongo",
    "useCustomTag": false,
    "armorProf": {
      "value": [],
      "custom": ""
    },
    "weaponProf": {
      "value": [],
      "custom": ""
    },
    "languages": {
      "value": [],
      "custom": ""
    },
    "flags": {
      "boolean": {},
      "dictionary": {}
    },
    "scriptCalls": [],
    "subType": "trait",
    "associations": {
      "classes": []
    },
    "showInQuickbar": false,
    "abilityType": "none",
    "crOffset": "",
    "disabled": false,
    "classSkills": {},
    "traitType": "faith"
  },
  "ownership": {
    "default": 0
  },
  "_stats": {
    "systemId": "pf1",
    "systemVersion": "9.1",
    "coreVersion": "10.291",
    "createdTime": 1665428391289,
    "modifiedTime": 1689797965521,
    "lastModifiedBy": "ppv91YxratjWnkJi"
  },
  "effects": [],
  "folder": "13dReUJWCsEjXV2p",
  "sort": 0,
  "flags": {},
  "_key": "!items!Ws8NnpodhmiUG6K8"
}