{
  "_id": "ekCbjEgdlV15iSp5",
  "name": "Nature Worshiper",
  "type": "feat",
  "img": "icons/equipment/shield/pavise-wooden-wings-blue-white.webp",
  "system": {
    "description": {
      "value": "<p><em>When you were young, you saw a dead creature&rsquo;s body fertilize a field. Witnessing the connection between life and death moved you to recognize your own connection with the world, and ever since you have revered nature and feared death less.</em></p><p><strong>Benefits</strong></p><p>You gain a +1 trait bonus on saving throws against death effects and effects that use negative energy, such as energy drain and inflict spells.</p>",
      "unidentified": ""
    },
    "tags": [
      "PFS"
    ],
    "actions": [],
    "uses": {
      "per": null,
      "value": 0,
      "maxFormula": "",
      "autoDeductChargesCost": "1"
    },
    "attackNotes": [],
    "effectNotes": [],
    "changes": [],
    "changeFlags": {
      "loseDexToAC": false,
      "noEncumbrance": false,
      "mediumArmorFullSpeed": false,
      "heavyArmorFullSpeed": false
    },
    "contextNotes": [],
    "links": {
      "children": [],
      "charges": []
    },
    "tag": "adventurousExplorerSongo",
    "useCustomTag": false,
    "armorProf": {
      "value": [],
      "custom": ""
    },
    "weaponProf": {
      "value": [],
      "custom": ""
    },
    "languages": {
      "value": [],
      "custom": ""
    },
    "flags": {
      "boolean": {},
      "dictionary": {}
    },
    "scriptCalls": [],
    "subType": "trait",
    "associations": {
      "classes": []
    },
    "showInQuickbar": false,
    "abilityType": "none",
    "crOffset": "",
    "disabled": false,
    "classSkills": {},
    "traitType": "faith"
  },
  "ownership": {
    "default": 0
  },
  "_stats": {
    "systemId": "pf1",
    "systemVersion": "9.1",
    "coreVersion": "10.291",
    "createdTime": 1665428391712,
    "modifiedTime": 1689797967994,
    "lastModifiedBy": "ppv91YxratjWnkJi"
  },
  "effects": [],
  "folder": "13dReUJWCsEjXV2p",
  "sort": 0,
  "flags": {},
  "_key": "!items!ekCbjEgdlV15iSp5"
}