{
  "_id": "PvWOQAmsV6LF6mAy",
  "name": "Neutralizing Gut (Tiefling)",
  "type": "feat",
  "img": "systems/pf1/icons/skills/blue_35.jpg",
  "system": {
    "description": {
      "value": "<p><em>Your fiendish heritage has made you more resilient to the many poisonous threats in wastelands.</em></p><p><strong>Requirements</strong></p><p>Tiefling</p><p><strong>Benefits</strong></p><p>You gain a +2 trait bonus on saving throws against contact and inhaled poisons, and a +3 trait bonus on saving throws against ingested poisons.</p>",
      "unidentified": ""
    },
    "tags": [
      "PFS",
      "Tiefling"
    ],
    "actions": [],
    "uses": {
      "per": null,
      "value": 0,
      "maxFormula": "",
      "autoDeductChargesCost": "1"
    },
    "attackNotes": [],
    "effectNotes": [],
    "changes": [],
    "changeFlags": {
      "loseDexToAC": false,
      "noEncumbrance": false,
      "mediumArmorFullSpeed": false,
      "heavyArmorFullSpeed": false
    },
    "contextNotes": [],
    "links": {
      "children": [],
      "charges": []
    },
    "tag": "adventurousExplorerSongo",
    "useCustomTag": false,
    "armorProf": {
      "value": [],
      "custom": ""
    },
    "weaponProf": {
      "value": [],
      "custom": ""
    },
    "languages": {
      "value": [],
      "custom": ""
    },
    "flags": {
      "boolean": {},
      "dictionary": {}
    },
    "scriptCalls": [],
    "subType": "trait",
    "associations": {
      "classes": []
    },
    "showInQuickbar": false,
    "abilityType": "none",
    "crOffset": "",
    "disabled": false,
    "classSkills": {},
    "traitType": "race"
  },
  "ownership": {
    "default": 0
  },
  "_stats": {
    "systemId": "pf1",
    "systemVersion": "9.1",
    "coreVersion": "10.291",
    "createdTime": 1665428390864,
    "modifiedTime": 1689797963700,
    "lastModifiedBy": "ppv91YxratjWnkJi"
  },
  "effects": [],
  "folder": "OJcM9ZeR3TB33I5m",
  "sort": 0,
  "flags": {},
  "_key": "!items!PvWOQAmsV6LF6mAy"
}