{
  "_id": "CvXyQAcP2AbqEc6y",
  "name": "Noble Savage (Ulfen Guard)",
  "type": "feat",
  "img": "systems/pf1/icons/skills/light_07.jpg",
  "folder": "FeKDEoyX2eafWdJl",
  "system": {
    "description": {
      "value": "<p><em>You hail from the fringes of civilization or the bottommost strata of society, but something in your character makes that seem endearing.</em></p><p><strong>Requirements</strong></p><p>Ulfen Guard</p><p><strong>Benefits</strong></p><p>You gain a +2 trait bonus on Diplomacy and Perform checks when dealing with people of high social standing.</p>",
      "unidentified": ""
    },
    "tags": [
      "Human",
      "Ulfen"
    ],
    "actions": [],
    "uses": {
      "per": null,
      "value": 0,
      "maxFormula": "",
      "autoDeductChargesCost": "1"
    },
    "attackNotes": [],
    "effectNotes": [],
    "changes": [],
    "changeFlags": {
      "loseDexToAC": false,
      "noEncumbrance": false,
      "mediumArmorFullSpeed": false,
      "heavyArmorFullSpeed": false
    },
    "contextNotes": [],
    "links": {
      "children": [],
      "charges": []
    },
    "tag": "nobleSavageUlfenGuard",
    "useCustomTag": false,
    "armorProf": {
      "value": [],
      "custom": ""
    },
    "weaponProf": {
      "value": [],
      "custom": ""
    },
    "languages": {
      "value": [],
      "custom": ""
    },
    "flags": {
      "boolean": {},
      "dictionary": {}
    },
    "scriptCalls": [],
    "subType": "trait",
    "associations": {
      "classes": []
    },
    "showInQuickbar": false,
    "abilityType": "none",
    "crOffset": "",
    "disabled": false,
    "classSkills": {},
    "traitType": "social"
  },
  "ownership": {
    "default": 0
  },
  "_stats": {
    "systemId": "pf1",
    "systemVersion": "9.1",
    "coreVersion": "10.291",
    "createdTime": 1665428390195,
    "modifiedTime": 1689797960205,
    "lastModifiedBy": "ppv91YxratjWnkJi"
  },
  "effects": [],
  "sort": 0,
  "flags": {},
  "_key": "!items!CvXyQAcP2AbqEc6y"
}