{
  "_id": "YCXygk5gCaa2pjq7",
  "name": "Nontraditional Native (Shattered Star)",
  "type": "feat",
  "img": "icons/tools/navigation/map-chart-tan.webp",
  "folder": "pCbPxzsBnEH3Mz08",
  "system": {
    "description": {
      "value": "<p><em>You are a member of the Shoanti or Varisian ethnicity who left your people to learn more about the mysteries of your strange homeland. Your travels have recently brought you to the Pathfinder lodge in Magnimar. Although none of your family members are present, you carry them and your family traditions with you.</em></p><p><strong>Benefits</strong></p><p>If you are a Varisian, you gain a +1 trait bonus on Knowledge (geography) checks made relating to Varisia and gain a +1 trait bonus on damage rolls made during the surprise round when you're wielding a bladed scarf or starknife. If you are a Shoanti, you gain a +1 trait bonus on Survival checks made while in Varisia and gain a +1 trait bonus on rolls to confirm critical hits made using an earth breaker or a klar.</p>",
      "unidentified": ""
    },
    "tags": [],
    "actions": [],
    "uses": {
      "per": null,
      "value": 0,
      "maxFormula": "",
      "autoDeductChargesCost": "1"
    },
    "attackNotes": [],
    "effectNotes": [],
    "changes": [],
    "changeFlags": {
      "loseDexToAC": false,
      "noEncumbrance": false,
      "mediumArmorFullSpeed": false,
      "heavyArmorFullSpeed": false
    },
    "contextNotes": [],
    "links": {
      "children": [],
      "charges": []
    },
    "tag": "nontraditionalNativeShatteredStar",
    "useCustomTag": false,
    "armorProf": {
      "value": [],
      "custom": ""
    },
    "weaponProf": {
      "value": [],
      "custom": ""
    },
    "languages": {
      "value": [],
      "custom": ""
    },
    "flags": {
      "boolean": {},
      "dictionary": {}
    },
    "scriptCalls": [],
    "subType": "trait",
    "associations": {
      "classes": []
    },
    "showInQuickbar": false,
    "abilityType": "none",
    "crOffset": "",
    "disabled": false,
    "classSkills": {},
    "traitType": "campaign"
  },
  "ownership": {
    "default": 0
  },
  "_stats": {
    "systemId": "pf1",
    "systemVersion": "9.1",
    "coreVersion": "10.291",
    "createdTime": 1665428391332,
    "modifiedTime": 1689797965817,
    "lastModifiedBy": "ppv91YxratjWnkJi"
  },
  "effects": [],
  "sort": 0,
  "flags": {},
  "_key": "!items!YCXygk5gCaa2pjq7"
}