{
  "_id": "bWBejH89n9JYTVNI",
  "name": "Numerian Archaeologist (Iron Gods)",
  "type": "feat",
  "img": "icons/tools/navigation/map-chart-tan.webp",
  "system": {
    "description": {
      "value": "<p><em>Numeria is a land ripe for archaeological exploration, since so many of the strange technological dungeons have been either avoided by the superstitious barbarian tribes or have been locked down by the Technic League, leaving many of them untouched and ripe for exploration. You&rsquo;ve studied the strange language associated with these eerie technological ruins, and are eager to start exploring them&mdash;you suspect that Torch&rsquo;s namesake is in fact part of a larger buried ruin, and you hope to enter these ruins and learn their original purpose by exploring the caves below town.</em></p><p><strong>Benefits</strong></p><p>You gain Androffan as an additional language. In addition, you possess a knack for technological items; when you use a timeworn technological item, roll twice when determining any glitches the item might cause and choose which result to use as your actual result. Talk to your GM for more information about resolving glitches.</p>",
      "unidentified": ""
    },
    "tags": [],
    "actions": [],
    "uses": {
      "per": null,
      "value": 0,
      "maxFormula": "",
      "autoDeductChargesCost": "1"
    },
    "attackNotes": [],
    "effectNotes": [],
    "changes": [],
    "changeFlags": {
      "loseDexToAC": false,
      "noEncumbrance": false,
      "mediumArmorFullSpeed": false,
      "heavyArmorFullSpeed": false
    },
    "contextNotes": [],
    "links": {
      "children": [],
      "charges": []
    },
    "tag": "numerianArchaeologistIronGods",
    "useCustomTag": false,
    "armorProf": {
      "value": [],
      "custom": ""
    },
    "weaponProf": {
      "value": [],
      "custom": ""
    },
    "languages": {
      "value": [],
      "custom": ""
    },
    "flags": {
      "boolean": {},
      "dictionary": {}
    },
    "scriptCalls": [],
    "subType": "trait",
    "associations": {
      "classes": []
    },
    "showInQuickbar": false,
    "abilityType": "none",
    "crOffset": "",
    "disabled": false,
    "classSkills": {},
    "traitType": "campaign"
  },
  "ownership": {
    "default": 0
  },
  "_stats": {
    "systemId": "pf1",
    "systemVersion": "9.1",
    "coreVersion": "10.291",
    "createdTime": 1665428391447,
    "modifiedTime": 1689797967071,
    "lastModifiedBy": "ppv91YxratjWnkJi"
  },
  "effects": [],
  "folder": "pCbPxzsBnEH3Mz08",
  "sort": 0,
  "flags": {},
  "_key": "!items!bWBejH89n9JYTVNI"
}