{
  "_id": "ftX8GMIMMfVZC3KF",
  "name": "Operatic (Human; Chelaxian)",
  "type": "feat",
  "img": "systems/pf1/icons/skills/blue_35.jpg",
  "folder": "OJcM9ZeR3TB33I5m",
  "system": {
    "description": {
      "value": "<p><em>You grew up in wonder of Chelish theater, and spent countless hours in the opera houses across Cheliax and even more time perfecting your voice.</em></p><p><strong>Requirements</strong></p><p>Chelaxian Human Heritage</p><p><strong>Benefits</strong></p><p>You gain a +1 trait bonus on Perform (sing) checks. Furthermore you have memorized the librettos of many works sung in the ancient Azlanti tongue, granting you a +2 trait bonus on Linguistics checks when trying to decipher the ancient Azlanti language.</p>",
      "unidentified": ""
    },
    "tags": [
      "PFS",
      "Human",
      "Chelaxian"
    ],
    "actions": [],
    "uses": {
      "per": null,
      "value": 0,
      "maxFormula": "",
      "autoDeductChargesCost": "1"
    },
    "attackNotes": [],
    "effectNotes": [],
    "changes": [],
    "changeFlags": {
      "loseDexToAC": false,
      "noEncumbrance": false,
      "mediumArmorFullSpeed": false,
      "heavyArmorFullSpeed": false
    },
    "contextNotes": [],
    "links": {
      "children": [],
      "charges": []
    },
    "tag": "operaticChelaxian",
    "useCustomTag": false,
    "armorProf": {
      "value": [],
      "custom": ""
    },
    "weaponProf": {
      "value": [],
      "custom": ""
    },
    "languages": {
      "value": [],
      "custom": ""
    },
    "flags": {
      "boolean": {},
      "dictionary": {}
    },
    "scriptCalls": [],
    "subType": "trait",
    "associations": {
      "classes": []
    },
    "showInQuickbar": false,
    "abilityType": "none",
    "crOffset": "",
    "disabled": false,
    "classSkills": {},
    "traitType": "race"
  },
  "ownership": {
    "default": 0
  },
  "_stats": {
    "systemId": "pf1",
    "systemVersion": "9.1",
    "coreVersion": "10.291",
    "createdTime": 1665428391743,
    "modifiedTime": 1689797968210,
    "lastModifiedBy": "ppv91YxratjWnkJi"
  },
  "effects": [],
  "sort": 0,
  "flags": {},
  "_key": "!items!ftX8GMIMMfVZC3KF"
}