{
  "_id": "iZjoWPKpcYtNZ3zg",
  "name": "Palm Potion (Razmiran)",
  "type": "feat",
  "img": "icons/environment/settlement/watchtower-city.webp",
  "system": {
    "description": {
      "value": "<p><em>Priests of Razmiran often make subtle use of potions to hide the fact that they do not receive spells from their deity, and they have become quite adept at imbibing potions surreptitiously.</em></p><p><strong>Requirements</strong></p><p>Razmiran</p><p><strong>Benefits</strong></p><p>You have mastered these techniques; whenever you consume a potion, you can attempt a Sleight of Hand check with a +2 trait bonus opposed by onlookers&rsquo; Perception checks to hide the fact that you are drinking a potion (as if you were using Sleight of Hand to hide an object). The observer&rsquo;s success doesn&rsquo;t prevent you from drinking the potion, just from doing so unnoticed. This does not hide any visible effects that the potion might have on you, only the physical act of drinking the potion.</p>",
      "unidentified": ""
    },
    "tags": [
      "PFS"
    ],
    "actions": [],
    "uses": {
      "per": null,
      "value": 0,
      "maxFormula": "",
      "autoDeductChargesCost": "1"
    },
    "attackNotes": [],
    "effectNotes": [],
    "changes": [],
    "changeFlags": {
      "loseDexToAC": false,
      "noEncumbrance": false,
      "mediumArmorFullSpeed": false,
      "heavyArmorFullSpeed": false
    },
    "contextNotes": [],
    "links": {
      "children": [],
      "charges": []
    },
    "tag": "savannaChildPlains",
    "useCustomTag": false,
    "armorProf": {
      "value": [],
      "custom": ""
    },
    "weaponProf": {
      "value": [],
      "custom": ""
    },
    "languages": {
      "value": [],
      "custom": ""
    },
    "flags": {
      "boolean": {},
      "dictionary": {}
    },
    "scriptCalls": [],
    "subType": "trait",
    "associations": {
      "classes": []
    },
    "showInQuickbar": false,
    "abilityType": "none",
    "crOffset": "",
    "disabled": false,
    "classSkills": {},
    "traitType": "region"
  },
  "ownership": {
    "default": 0
  },
  "_stats": {
    "systemId": "pf1",
    "systemVersion": "9.1",
    "coreVersion": "10.291",
    "createdTime": 1665428391838,
    "modifiedTime": 1689797968813,
    "lastModifiedBy": "ppv91YxratjWnkJi"
  },
  "effects": [],
  "folder": "6b4Oq2nNMw3BxL6l",
  "sort": 0,
  "flags": {},
  "_key": "!items!iZjoWPKpcYtNZ3zg"
}