{
  "_id": "yqzl1l9WQka8kgXf",
  "name": "Pattern Seeker (Hell's Rebels)",
  "type": "feat",
  "img": "icons/tools/navigation/map-chart-tan.webp",
  "system": {
    "description": {
      "value": "<p><em>There are patterns in the world, both natural and artificial, that if only one can interpret them correctly, great secrets could be divined. You have long been fascinated by the idea of these hidden patterns, perhaps because a sibling or parent went to the grave obsessed with seeking a pattern, or maybe because you feel that you&rsquo;ve uncovered a previously unknown pattern. Kintargo has a particularly unique pattern of its own; the belfry atop the Temple of Asmodeus rings at what seem to be random intervals. None know who or what rings the bells, and no true pattern by which the so-called Devil&rsquo;s Bells has yet accurately predicted the tolling. Many have tried, and extensive but always incomplete documents exist that track the dates and times of recorded ringings back to the end of the Chelish Civil War, when the church of Asmodeus first claimed the abandoned temple of Aroden as their own. Maybe you will be the one to solve the pattern of the Devil&rsquo;s Bells?</em></p><p><strong>Benefits</strong></p><p>You gain a +1 trait bonus on all Perception checks, and Perception is always a class skill for you. In addition, you increase the save DC of any illusion (pattern) spell you cast by 1, and you gain a +1 trait bonus on all saving throws against illusion effects.</p>",
      "unidentified": ""
    },
    "tags": [],
    "actions": [],
    "uses": {
      "per": null,
      "value": 0,
      "maxFormula": "",
      "autoDeductChargesCost": "1"
    },
    "attackNotes": [],
    "effectNotes": [],
    "changes": [],
    "changeFlags": {
      "loseDexToAC": false,
      "noEncumbrance": false,
      "mediumArmorFullSpeed": false,
      "heavyArmorFullSpeed": false
    },
    "contextNotes": [],
    "links": {
      "children": [],
      "charges": []
    },
    "tag": "patternSeekerHellsRebels",
    "useCustomTag": false,
    "armorProf": {
      "value": [],
      "custom": ""
    },
    "weaponProf": {
      "value": [],
      "custom": ""
    },
    "languages": {
      "value": [],
      "custom": ""
    },
    "flags": {
      "boolean": {},
      "dictionary": {}
    },
    "scriptCalls": [],
    "subType": "trait",
    "associations": {
      "classes": []
    },
    "showInQuickbar": false,
    "abilityType": "none",
    "crOffset": "",
    "disabled": false,
    "classSkills": {
      "per": true
    },
    "traitType": "campaign"
  },
  "ownership": {
    "default": 0
  },
  "_stats": {
    "systemId": "pf1",
    "systemVersion": "9.1",
    "coreVersion": "10.291",
    "createdTime": 1665428392677,
    "modifiedTime": 1689797972659,
    "lastModifiedBy": "ppv91YxratjWnkJi"
  },
  "effects": [],
  "folder": "pCbPxzsBnEH3Mz08",
  "sort": 0,
  "flags": {},
  "_key": "!items!yqzl1l9WQka8kgXf"
}