{
  "_id": "XFMHusYaZdIe0kFF",
  "name": "Perseverance (Five Kings Mountains)",
  "type": "feat",
  "img": "icons/environment/settlement/watchtower-city.webp",
  "folder": "6b4Oq2nNMw3BxL6l",
  "system": {
    "description": {
      "value": "<p><em>Your time in the Five Kings Mountains has taught you that any obstacle can be endured and overcome.</em></p><p><strong>Requirements</strong></p><p>Five King Mountains</p><p><strong>Benefits</strong></p><p>When you have more than one Will saving throw to overcome an effect (such as from <em>greater command</em> or <em>hold person</em>, or by using the good fortune ability of the Luck domain), you receive a +3 trait bonus on the extra Will saves against that effect.</p>",
      "unidentified": ""
    },
    "tags": [
      "PFS"
    ],
    "actions": [],
    "uses": {
      "per": null,
      "value": 0,
      "maxFormula": "",
      "autoDeductChargesCost": "1"
    },
    "attackNotes": [],
    "effectNotes": [],
    "changes": [],
    "changeFlags": {
      "loseDexToAC": false,
      "noEncumbrance": false,
      "mediumArmorFullSpeed": false,
      "heavyArmorFullSpeed": false
    },
    "contextNotes": [],
    "links": {
      "children": [],
      "charges": []
    },
    "tag": "perseveranceFiveKingsMountains",
    "useCustomTag": false,
    "armorProf": {
      "value": [],
      "custom": ""
    },
    "weaponProf": {
      "value": [],
      "custom": ""
    },
    "languages": {
      "value": [],
      "custom": ""
    },
    "flags": {
      "boolean": {},
      "dictionary": {}
    },
    "scriptCalls": [],
    "subType": "trait",
    "associations": {
      "classes": []
    },
    "showInQuickbar": false,
    "abilityType": "none",
    "crOffset": "",
    "disabled": false,
    "classSkills": {},
    "traitType": "region"
  },
  "ownership": {
    "default": 0
  },
  "_stats": {
    "systemId": "pf1",
    "systemVersion": "9.1",
    "coreVersion": "10.291",
    "createdTime": 1665428391301,
    "modifiedTime": 1689797965602,
    "lastModifiedBy": "ppv91YxratjWnkJi"
  },
  "effects": [],
  "sort": 0,
  "flags": {},
  "_key": "!items!XFMHusYaZdIe0kFF"
}