{
  "_id": "bGXNSqTBzVbuQZbT",
  "name": "Planar Wayfarer (Onos)",
  "type": "feat",
  "img": "icons/environment/settlement/temple-night.webp",
  "system": {
    "description": {
      "value": "<p><em>The countless natural hazards of the planes cannot deter you from witnessing their grandeur.</em></p><p><strong>Requirements</strong></p><p>Onos</p><p><strong>Benefits</strong></p><p>Once per day you can meditate on the nature of the planes for 1 hour to gain energy resistance 2 against acid, cold, electricity, fire, or sonic damage. This resistance lasts 24 hours or until you perform this meditation again and choose a new resistance.</p>",
      "unidentified": ""
    },
    "tags": [
      "PFS"
    ],
    "actions": [],
    "uses": {
      "per": null,
      "value": 0,
      "maxFormula": "",
      "autoDeductChargesCost": "1"
    },
    "attackNotes": [],
    "effectNotes": [],
    "changes": [],
    "changeFlags": {
      "loseDexToAC": false,
      "noEncumbrance": false,
      "mediumArmorFullSpeed": false,
      "heavyArmorFullSpeed": false
    },
    "contextNotes": [],
    "links": {
      "children": [],
      "charges": []
    },
    "tag": "savannaChildPlains",
    "useCustomTag": false,
    "armorProf": {
      "value": [],
      "custom": ""
    },
    "weaponProf": {
      "value": [],
      "custom": ""
    },
    "languages": {
      "value": [],
      "custom": ""
    },
    "flags": {
      "boolean": {},
      "dictionary": {}
    },
    "scriptCalls": [],
    "subType": "trait",
    "associations": {
      "classes": []
    },
    "showInQuickbar": false,
    "abilityType": "none",
    "crOffset": "",
    "disabled": false,
    "classSkills": {},
    "traitType": "religion"
  },
  "ownership": {
    "default": 0
  },
  "_stats": {
    "systemId": "pf1",
    "systemVersion": "9.1",
    "coreVersion": "10.291",
    "createdTime": 1665428391434,
    "modifiedTime": 1689797966979,
    "lastModifiedBy": "ppv91YxratjWnkJi"
  },
  "effects": [],
  "folder": "MB4DGP9uns7VLmaa",
  "sort": 0,
  "flags": {},
  "_key": "!items!bGXNSqTBzVbuQZbT"
}