{
  "_id": "b0yplGvlBFm0WQIi",
  "name": "Planar Negotiator (Aasimar)",
  "type": "feat",
  "img": "systems/pf1/icons/skills/blue_35.jpg",
  "folder": "OJcM9ZeR3TB33I5m",
  "system": {
    "description": {
      "value": "<p><em><em>You are skilled at convincing outsiders that you require their aid.</em> </em></p><p><strong>Requirements</strong></p><p>Aasimar</p><p><strong>Benefits</strong></p><p>Whenever you cast lesser planar ally, planar ally, or greater planar ally, you receive a 10% discount on the monetary cost required by the summoned outsiders. This bonus has no effect on services the outsiders may demand in order to strike a bargain.</p>",
      "unidentified": ""
    },
    "tags": [
      "PFS",
      "Aasimar"
    ],
    "actions": [],
    "uses": {
      "per": null,
      "value": 0,
      "maxFormula": "",
      "autoDeductChargesCost": "1"
    },
    "attackNotes": [],
    "effectNotes": [],
    "changes": [],
    "changeFlags": {
      "loseDexToAC": false,
      "noEncumbrance": false,
      "mediumArmorFullSpeed": false,
      "heavyArmorFullSpeed": false
    },
    "contextNotes": [],
    "links": {
      "children": [],
      "charges": []
    },
    "tag": "planarNegotiatorAasimar",
    "useCustomTag": false,
    "armorProf": {
      "value": [],
      "custom": ""
    },
    "weaponProf": {
      "value": [],
      "custom": ""
    },
    "languages": {
      "value": [],
      "custom": ""
    },
    "flags": {
      "boolean": {},
      "dictionary": {}
    },
    "scriptCalls": [],
    "subType": "trait",
    "associations": {
      "classes": []
    },
    "showInQuickbar": false,
    "abilityType": "none",
    "crOffset": "",
    "disabled": false,
    "classSkills": {},
    "traitType": "race"
  },
  "ownership": {
    "default": 0
  },
  "_stats": {
    "systemId": "pf1",
    "systemVersion": "9.1",
    "coreVersion": "10.291",
    "createdTime": 1665428391425,
    "modifiedTime": 1689797966905,
    "lastModifiedBy": "ppv91YxratjWnkJi"
  },
  "effects": [],
  "sort": 0,
  "flags": {},
  "_key": "!items!b0yplGvlBFm0WQIi"
}