{
  "_id": "YD5T6kLoG8XrgvkG",
  "name": "Poverty-Stricken",
  "type": "feat",
  "img": "systems/pf1/icons/skills/light_07.jpg",
  "folder": "FeKDEoyX2eafWdJl",
  "system": {
    "description": {
      "value": "<p><em>Your childhood was tough, and your parents had to make every copper piece count. Hunger was your constant companion, and you often had to live off the land or sleep in the wild.</em></p><p><strong>Benefits</strong></p><p>You gain a +1 bonus on Survival checks, and Survival is always a class skill for you.</p>",
      "unidentified": ""
    },
    "tags": [
      "PFS"
    ],
    "actions": [],
    "uses": {
      "per": null,
      "value": 0,
      "maxFormula": "",
      "autoDeductChargesCost": "1"
    },
    "attackNotes": [],
    "effectNotes": [],
    "changes": [],
    "changeFlags": {
      "loseDexToAC": false,
      "noEncumbrance": false,
      "mediumArmorFullSpeed": false,
      "heavyArmorFullSpeed": false
    },
    "contextNotes": [],
    "links": {
      "children": [],
      "charges": []
    },
    "tag": "povertystricken",
    "useCustomTag": false,
    "armorProf": {
      "value": [],
      "custom": ""
    },
    "weaponProf": {
      "value": [],
      "custom": ""
    },
    "languages": {
      "value": [],
      "custom": ""
    },
    "flags": {
      "boolean": {},
      "dictionary": {}
    },
    "scriptCalls": [],
    "subType": "trait",
    "associations": {
      "classes": []
    },
    "showInQuickbar": false,
    "abilityType": "none",
    "crOffset": "",
    "disabled": false,
    "classSkills": {
      "sur": true
    },
    "traitType": "social"
  },
  "ownership": {
    "default": 0
  },
  "_stats": {
    "systemId": "pf1",
    "systemVersion": "9.1",
    "coreVersion": "10.291",
    "createdTime": 1665428391333,
    "modifiedTime": 1689797965825,
    "lastModifiedBy": "ppv91YxratjWnkJi"
  },
  "effects": [],
  "sort": 0,
  "flags": {},
  "_key": "!items!YD5T6kLoG8XrgvkG"
}