{
  "_id": "fIfPNWLCPFGhEC0I",
  "name": "Quick Learner",
  "type": "feat",
  "img": "icons/containers/bags/satchel-leather-brown.webp",
  "system": {
    "description": {
      "value": "<p><em>You&rsquo;re skilled at learning the feel of a particular weapon after a few swings in combat.</em></p><p><strong>Benefits</strong></p><p>After your first attack with a weapon in which you are not proficient, the non-proficiency penalty decreases by 2 (to a &ndash;2 penalty). This effect lasts only while you have the weapon in hand; you must &ldquo;relearn&rdquo; the weapon each time you pick it up.</p>",
      "unidentified": ""
    },
    "tags": [
      "PFS"
    ],
    "actions": [],
    "uses": {
      "per": null,
      "value": 0,
      "maxFormula": "",
      "autoDeductChargesCost": "1"
    },
    "attackNotes": [],
    "effectNotes": [],
    "changes": [],
    "changeFlags": {
      "loseDexToAC": false,
      "noEncumbrance": false,
      "mediumArmorFullSpeed": false,
      "heavyArmorFullSpeed": false
    },
    "contextNotes": [],
    "links": {
      "children": [],
      "charges": []
    },
    "tag": "1MountTemplate",
    "useCustomTag": false,
    "armorProf": {
      "value": [],
      "custom": ""
    },
    "weaponProf": {
      "value": [],
      "custom": ""
    },
    "languages": {
      "value": [],
      "custom": ""
    },
    "flags": {
      "boolean": {},
      "dictionary": {}
    },
    "scriptCalls": [],
    "subType": "trait",
    "associations": {
      "classes": []
    },
    "showInQuickbar": false,
    "abilityType": "none",
    "crOffset": "",
    "disabled": false,
    "classSkills": {},
    "traitType": "equipment"
  },
  "ownership": {
    "default": 0
  },
  "_stats": {
    "systemId": "pf1",
    "systemVersion": "9.1",
    "coreVersion": "10.291",
    "createdTime": 1665428391729,
    "modifiedTime": 1689797968111,
    "lastModifiedBy": "ppv91YxratjWnkJi"
  },
  "effects": [],
  "folder": "JADO8YDnM5A87OCO",
  "sort": 0,
  "flags": {},
  "_key": "!items!fIfPNWLCPFGhEC0I"
}