{
  "_id": "DL5ZOB38uykt2QoK",
  "name": "Redeemer",
  "type": "feat",
  "img": "icons/equipment/shield/pavise-wooden-wings-blue-white.webp",
  "system": {
    "description": {
      "value": "<p><em>You&rsquo;ve always held the strong belief that morality is everyone&rsquo;s choice, and that those who act in wicked ways have simply never been shown how their actions truly affect others. If they could be shown their errors, then they would accept a more positive course of action&mdash;and you have just enough patience to see this through.</em></p><p><strong>Benefits</strong></p><p>When acting as a sponsor for an evil creature seeking redemption, your patience and kindness grant the creature a +3 bonus on its save rather than a +1 bonus.</p>",
      "unidentified": ""
    },
    "tags": [
      "PFS"
    ],
    "actions": [],
    "uses": {
      "per": null,
      "value": 0,
      "maxFormula": "",
      "autoDeductChargesCost": "1"
    },
    "attackNotes": [],
    "effectNotes": [],
    "changes": [],
    "changeFlags": {
      "loseDexToAC": false,
      "noEncumbrance": false,
      "mediumArmorFullSpeed": false,
      "heavyArmorFullSpeed": false
    },
    "contextNotes": [],
    "links": {
      "children": [],
      "charges": []
    },
    "tag": "adventurousExplorerSongo",
    "useCustomTag": false,
    "armorProf": {
      "value": [],
      "custom": ""
    },
    "weaponProf": {
      "value": [],
      "custom": ""
    },
    "languages": {
      "value": [],
      "custom": ""
    },
    "flags": {
      "boolean": {},
      "dictionary": {}
    },
    "scriptCalls": [],
    "subType": "trait",
    "associations": {
      "classes": []
    },
    "showInQuickbar": false,
    "abilityType": "none",
    "crOffset": "",
    "disabled": false,
    "classSkills": {},
    "traitType": "faith"
  },
  "ownership": {
    "default": 0
  },
  "_stats": {
    "systemId": "pf1",
    "systemVersion": "9.1",
    "coreVersion": "10.291",
    "createdTime": 1665428390206,
    "modifiedTime": 1689797960276,
    "lastModifiedBy": "ppv91YxratjWnkJi"
  },
  "effects": [],
  "folder": "13dReUJWCsEjXV2p",
  "sort": 0,
  "flags": {},
  "_key": "!items!DL5ZOB38uykt2QoK"
}