{
  "_id": "QezjzIjvbfIxTLPD",
  "name": "Regional Recluse (Varisia)",
  "type": "feat",
  "img": "icons/environment/settlement/watchtower-city.webp",
  "system": {
    "description": {
      "value": "<p><em>Your home community prides itself on remaining independent from Varisia&rsquo;s city-states.</em></p><p><strong>Requirements</strong></p><p>Varisia</p><p><strong>Benefits</strong></p><p>Choose one of Varisia&rsquo;s unaffiliated settlements from this list below. You gain a +1 trait bonus on Survival checks and one of the following benefits.</p><p><strong>Arsmeril or Crying Leaf</strong></p><p>Gain a +1 trait bonus on Perception checks made at night.</p><p><strong>Ilsurian</strong></p><p>Gain proficiency with light shields.</p><p><strong>Sanos Forest or Whistledown</strong></p><p>Gain Gnome as a bonus language. If you already have this language, gain a +1 trait bonus on Stealth checks made in forested areas.</p><p><strong>Turtleback Ferry</strong></p><p>Gain a +1 bonus to damage on all attacks against creatures of the giant type.</p><p><strong>Urglin</strong></p><p>Gain Orc as a bonus language. If you already know this language, gain a +1 trait bonus on Intimidate checks.</p>",
      "unidentified": ""
    },
    "tags": [
      "PFS"
    ],
    "actions": [],
    "uses": {
      "per": null,
      "value": 0,
      "maxFormula": "",
      "autoDeductChargesCost": "1"
    },
    "attackNotes": [],
    "effectNotes": [],
    "changes": [],
    "changeFlags": {
      "loseDexToAC": false,
      "noEncumbrance": false,
      "mediumArmorFullSpeed": false,
      "heavyArmorFullSpeed": false
    },
    "contextNotes": [],
    "links": {
      "children": [],
      "charges": []
    },
    "tag": "savannaChildPlains",
    "useCustomTag": false,
    "armorProf": {
      "value": [],
      "custom": ""
    },
    "weaponProf": {
      "value": [],
      "custom": ""
    },
    "languages": {
      "value": [],
      "custom": ""
    },
    "flags": {
      "boolean": {},
      "dictionary": {}
    },
    "scriptCalls": [],
    "subType": "trait",
    "associations": {
      "classes": []
    },
    "showInQuickbar": false,
    "abilityType": "none",
    "crOffset": "",
    "disabled": false,
    "classSkills": {},
    "traitType": "region"
  },
  "ownership": {
    "default": 0
  },
  "_stats": {
    "systemId": "pf1",
    "systemVersion": "9.1",
    "coreVersion": "10.291",
    "createdTime": 1665428390887,
    "modifiedTime": 1689797963877,
    "lastModifiedBy": "ppv91YxratjWnkJi"
  },
  "effects": [],
  "folder": "6b4Oq2nNMw3BxL6l",
  "sort": 0,
  "flags": {},
  "_key": "!items!QezjzIjvbfIxTLPD"
}