{
  "_id": "M14DmA6SOWvTh4cF",
  "name": "Relentless Duty (Kol)",
  "type": "feat",
  "img": "icons/environment/settlement/temple-night.webp",
  "system": {
    "description": {
      "value": "<p><em>You were raised with the mantra that fulfilling your duty must always come first. Now living up to a promise comes as easily as breathing.</em></p><p><strong>Requirements</strong></p><p>Kol</p><p><strong>Benefits</strong></p><p>Once per day, you can take 10 on a skill check attempted as part of fulfilling a prior promise even if you are distracted or in combat.</p>",
      "unidentified": ""
    },
    "tags": [
      "PFS"
    ],
    "actions": [],
    "uses": {
      "per": null,
      "value": 0,
      "maxFormula": "",
      "autoDeductChargesCost": "1"
    },
    "attackNotes": [],
    "effectNotes": [],
    "changes": [],
    "changeFlags": {
      "loseDexToAC": false,
      "noEncumbrance": false,
      "mediumArmorFullSpeed": false,
      "heavyArmorFullSpeed": false
    },
    "contextNotes": [],
    "links": {
      "children": [],
      "charges": []
    },
    "tag": "savannaChildPlains",
    "useCustomTag": false,
    "armorProf": {
      "value": [],
      "custom": ""
    },
    "weaponProf": {
      "value": [],
      "custom": ""
    },
    "languages": {
      "value": [],
      "custom": ""
    },
    "flags": {
      "boolean": {},
      "dictionary": {}
    },
    "scriptCalls": [],
    "subType": "trait",
    "associations": {
      "classes": []
    },
    "showInQuickbar": false,
    "abilityType": "none",
    "crOffset": "",
    "disabled": false,
    "classSkills": {},
    "traitType": "religion"
  },
  "ownership": {
    "default": 0
  },
  "_stats": {
    "systemId": "pf1",
    "systemVersion": "9.1",
    "coreVersion": "10.291",
    "createdTime": 1665428390594,
    "modifiedTime": 1689797962554,
    "lastModifiedBy": "ppv91YxratjWnkJi"
  },
  "effects": [],
  "folder": "MB4DGP9uns7VLmaa",
  "sort": 0,
  "flags": {},
  "_key": "!items!M14DmA6SOWvTh4cF"
}