{
  "_id": "U5xQHpnzCcIwCuyd",
  "name": "Rising Star (War for the Crown)",
  "type": "feat",
  "img": "icons/tools/navigation/map-chart-tan.webp",
  "system": {
    "description": {
      "value": "<p><em>All too often, great minds must suffer for their art, but you&rsquo;re one of the lucky ones. Your skills attracted the attention of a noble patron who pays for your food, housing, and tools. As your patron introduces you to other cultural elites, you&rsquo;re slowly learning to navigate the treacherous waters of high society, but you still remember the lean times when each meal was a hard-won treasure.</em></p><p><strong>Benefits</strong></p><p>You gain a +1 trait bonus on Sense Motive and Survival checks, as well as checks using a single Craft or Perform skill of your choice; one of these skills is always a class skill for you. Once each day, you can invoke your patron&rsquo;s reputation or name one of your own prominent works to gain a +2 circumstance bonus on a single Bluff, Diplomacy, or Intimidate check. You begin the game with a masterwork musical instrument or tool appropriate to the Craft or Perform skill you selected, a gift from your patron.</p>",
      "unidentified": ""
    },
    "tags": [],
    "actions": [],
    "uses": {
      "per": null,
      "value": 0,
      "maxFormula": "",
      "autoDeductChargesCost": "1"
    },
    "attackNotes": [],
    "effectNotes": [],
    "changes": [],
    "changeFlags": {
      "loseDexToAC": false,
      "noEncumbrance": false,
      "mediumArmorFullSpeed": false,
      "heavyArmorFullSpeed": false
    },
    "contextNotes": [],
    "links": {
      "children": [],
      "charges": []
    },
    "tag": "risingStarWarForTheCrown",
    "useCustomTag": false,
    "armorProf": {
      "value": [],
      "custom": ""
    },
    "weaponProf": {
      "value": [],
      "custom": ""
    },
    "languages": {
      "value": [],
      "custom": ""
    },
    "flags": {
      "boolean": {},
      "dictionary": {}
    },
    "scriptCalls": [],
    "subType": "trait",
    "associations": {
      "classes": []
    },
    "showInQuickbar": false,
    "abilityType": "none",
    "crOffset": "",
    "disabled": false,
    "classSkills": {},
    "traitType": "campaign"
  },
  "ownership": {
    "default": 0
  },
  "_stats": {
    "systemId": "pf1",
    "systemVersion": "9.1",
    "coreVersion": "10.291",
    "createdTime": 1665428391032,
    "modifiedTime": 1689797964616,
    "lastModifiedBy": "ppv91YxratjWnkJi"
  },
  "effects": [],
  "folder": "pCbPxzsBnEH3Mz08",
  "sort": 0,
  "flags": {},
  "_key": "!items!U5xQHpnzCcIwCuyd"
}