{
  "_id": "OfBXlIRVfXFhUzLz",
  "name": "Rivalry",
  "type": "feat",
  "img": "icons/environment/people/group.webp",
  "system": {
    "description": {
      "value": "<p><strong>Benefits</strong></p><p>If you see a family member with this trait within 60 feet of you fail a combat maneuver check or a skill check, you gain a +1 trait bonus on checks to perform the same combat maneuver or use the same skill for 1 round.</p>",
      "unidentified": ""
    },
    "tags": [],
    "actions": [],
    "uses": {
      "per": null,
      "value": 0,
      "maxFormula": "",
      "autoDeductChargesCost": "1"
    },
    "attackNotes": [],
    "effectNotes": [],
    "changes": [],
    "changeFlags": {
      "loseDexToAC": false,
      "noEncumbrance": false,
      "mediumArmorFullSpeed": false,
      "heavyArmorFullSpeed": false
    },
    "contextNotes": [],
    "links": {
      "children": [],
      "charges": []
    },
    "tag": "rivalry",
    "useCustomTag": false,
    "armorProf": {
      "value": [],
      "custom": ""
    },
    "weaponProf": {
      "value": [],
      "custom": ""
    },
    "languages": {
      "value": [],
      "custom": ""
    },
    "flags": {
      "boolean": {},
      "dictionary": {}
    },
    "scriptCalls": [],
    "subType": "trait",
    "associations": {
      "classes": []
    },
    "showInQuickbar": false,
    "abilityType": "none",
    "crOffset": "",
    "disabled": false,
    "classSkills": {},
    "traitType": "family"
  },
  "ownership": {
    "default": 0
  },
  "_stats": {
    "systemId": "pf1",
    "systemVersion": "9.1",
    "coreVersion": "10.291",
    "createdTime": 1665428390832,
    "modifiedTime": 1689797963458,
    "lastModifiedBy": "ppv91YxratjWnkJi"
  },
  "effects": [],
  "folder": "VYAE9lKSB1c1VMNw",
  "sort": 0,
  "flags": {},
  "_key": "!items!OfBXlIRVfXFhUzLz"
}