{
  "_id": "CJ5f4OIW2xAEJzA9",
  "name": "Robot Slayer (Iron Gods)",
  "type": "feat",
  "img": "icons/tools/navigation/map-chart-tan.webp",
  "system": {
    "description": {
      "value": "<p><em>The strange automatons that plague the wilds of Numeria are a blight upon the world, and the idea that there could be countless more of these creatures lying in wait in the unknown ruins scattered throughout the region chills your blood. Khonnir&rsquo;s recovery of a deactivated robot from the caves below Torch worries you&mdash;not only could that thing wake up and run amok in town, but there may well be more lurking below!</em></p><p><strong>Benefits</strong></p><p>You want to explore the caves under Torch to determine if there is indeed a lurking robot threat below town. You gain a +1 trait bonus on attack rolls against robots and a +1 dodge bonus to AC against attacks made by robots.</p>",
      "unidentified": ""
    },
    "tags": [],
    "actions": [],
    "uses": {
      "per": null,
      "value": 0,
      "maxFormula": "",
      "autoDeductChargesCost": "1"
    },
    "attackNotes": [],
    "effectNotes": [],
    "changes": [],
    "changeFlags": {
      "loseDexToAC": false,
      "noEncumbrance": false,
      "mediumArmorFullSpeed": false,
      "heavyArmorFullSpeed": false
    },
    "contextNotes": [],
    "links": {
      "children": [],
      "charges": []
    },
    "tag": "robotSlayerIronGods",
    "useCustomTag": false,
    "armorProf": {
      "value": [],
      "custom": ""
    },
    "weaponProf": {
      "value": [],
      "custom": ""
    },
    "languages": {
      "value": [],
      "custom": ""
    },
    "flags": {
      "boolean": {},
      "dictionary": {}
    },
    "scriptCalls": [],
    "subType": "trait",
    "associations": {
      "classes": []
    },
    "showInQuickbar": false,
    "abilityType": "none",
    "crOffset": "",
    "disabled": false,
    "classSkills": {},
    "traitType": "campaign"
  },
  "ownership": {
    "default": 0
  },
  "_stats": {
    "systemId": "pf1",
    "systemVersion": "9.1",
    "coreVersion": "10.291",
    "createdTime": 1665428390164,
    "modifiedTime": 1689797960021,
    "lastModifiedBy": "ppv91YxratjWnkJi"
  },
  "effects": [],
  "folder": "pCbPxzsBnEH3Mz08",
  "sort": 0,
  "flags": {},
  "_key": "!items!CJ5f4OIW2xAEJzA9"
}