{
  "_id": "jEGy03vJZ71x7fE1",
  "name": "Roof Racer (Varisia; Korvosa)",
  "type": "feat",
  "img": "icons/environment/settlement/watchtower-city.webp",
  "system": {
    "description": {
      "value": "<p><em>You&rsquo;ve spent more than your fair share of time among the strange sloping slums that cover the rooftops of much of Old Korvosa.</em></p><p><strong>Requirements</strong></p><p>Korvosa in Varisia</p><p><strong>Benefits</strong></p><p>When using the Acrobatics skill to make a long jump, you treat the DC of the skill check as if the distance being jumped were 5 feet shorter than it actually is.</p>",
      "unidentified": ""
    },
    "tags": [
      "PFS"
    ],
    "actions": [],
    "uses": {
      "per": null,
      "value": 0,
      "maxFormula": "",
      "autoDeductChargesCost": "1"
    },
    "attackNotes": [],
    "effectNotes": [],
    "changes": [],
    "changeFlags": {
      "loseDexToAC": false,
      "noEncumbrance": false,
      "mediumArmorFullSpeed": false,
      "heavyArmorFullSpeed": false
    },
    "contextNotes": [],
    "links": {
      "children": [],
      "charges": []
    },
    "tag": "savannaChildPlains",
    "useCustomTag": false,
    "armorProf": {
      "value": [],
      "custom": ""
    },
    "weaponProf": {
      "value": [],
      "custom": ""
    },
    "languages": {
      "value": [],
      "custom": ""
    },
    "flags": {
      "boolean": {},
      "dictionary": {}
    },
    "scriptCalls": [],
    "subType": "trait",
    "associations": {
      "classes": []
    },
    "showInQuickbar": false,
    "abilityType": "none",
    "crOffset": "",
    "disabled": false,
    "classSkills": {},
    "traitType": "region"
  },
  "ownership": {
    "default": 0
  },
  "_stats": {
    "systemId": "pf1",
    "systemVersion": "9.1",
    "coreVersion": "10.291",
    "createdTime": 1665428391855,
    "modifiedTime": 1689797968934,
    "lastModifiedBy": "ppv91YxratjWnkJi"
  },
  "effects": [],
  "folder": "6b4Oq2nNMw3BxL6l",
  "sort": 0,
  "flags": {},
  "_key": "!items!jEGy03vJZ71x7fE1"
}