{
  "_id": "i1Rn2f1hATPQ1a6G",
  "name": "Scarred by War (Dalenydra)",
  "type": "feat",
  "img": "icons/environment/settlement/temple-night.webp",
  "system": {
    "description": {
      "value": "<p><em>You have experienced firsthand the horrors of war, which have left you physically or mentally scarred. Now you have committed yourself to the teachings of the Blessed Attendant, seeking to heal those wounded in combat and to prevent battles from occurring whenever you can.</em></p><p><strong>Requirements</strong></p><p>Dalenydra</p><p><strong>Benefits</strong></p><p>You gain a +1 trait bonus on Diplomacy checks outside of combat. In addition, when you heal creatures other than yourself using class abilities, feats, spells, and spell-completion or spell-trigger magic items, you restore 1 additional hit point.</p>",
      "unidentified": ""
    },
    "tags": [
      "PFS"
    ],
    "actions": [],
    "uses": {
      "per": null,
      "value": 0,
      "maxFormula": "",
      "autoDeductChargesCost": "1"
    },
    "attackNotes": [],
    "effectNotes": [],
    "changes": [],
    "changeFlags": {
      "loseDexToAC": false,
      "noEncumbrance": false,
      "mediumArmorFullSpeed": false,
      "heavyArmorFullSpeed": false
    },
    "contextNotes": [],
    "links": {
      "children": [],
      "charges": []
    },
    "tag": "savannaChildPlains",
    "useCustomTag": false,
    "armorProf": {
      "value": [],
      "custom": ""
    },
    "weaponProf": {
      "value": [],
      "custom": ""
    },
    "languages": {
      "value": [],
      "custom": ""
    },
    "flags": {
      "boolean": {},
      "dictionary": {}
    },
    "scriptCalls": [],
    "subType": "trait",
    "associations": {
      "classes": []
    },
    "showInQuickbar": false,
    "abilityType": "none",
    "crOffset": "",
    "disabled": false,
    "classSkills": {},
    "traitType": "religion"
  },
  "ownership": {
    "default": 0
  },
  "_stats": {
    "systemId": "pf1",
    "systemVersion": "9.1",
    "coreVersion": "10.291",
    "createdTime": 1665428391823,
    "modifiedTime": 1689797968691,
    "lastModifiedBy": "ppv91YxratjWnkJi"
  },
  "effects": [],
  "folder": "MB4DGP9uns7VLmaa",
  "sort": 0,
  "flags": {},
  "_key": "!items!i1Rn2f1hATPQ1a6G"
}