{
  "_id": "A7IyTMzJRauORoEt",
  "name": "Scion of Legend (Return of the Runelords)",
  "type": "feat",
  "img": "icons/tools/navigation/map-chart-tan.webp",
  "system": {
    "description": {
      "value": "<p><em>Your character has a personal link or association with one of Varisia&rsquo;s established heroes. This hero should be a PC you played in a previous campaign (and could be, but need not be, one of the Sihedron Heroes). Your character could be a younger sibling, younger cousin, or even an apprentice of the hero. If enough time has passed, you might be the hero&rsquo;s child, or your character could have reincarnated from the soul of a hero that died before your character was born.</em></p><p><strong>Benefits</strong></p><p>Choose two skills for which your associated hero has skill ranks. You gain a +1 trait bonus on checks with both of those skills, and those two skills are class skills for you.</p><p>Once per adventure as a free action, you can call upon a previously forgotten bit of advice or lore imparted to you by the hero to gain an insight bonus equal to your class level (minimum +10) to a skill check. You may choose to apply this bonus after you roll the skill check, but must do so before the result of the roll is known.</p>",
      "unidentified": ""
    },
    "tags": [],
    "actions": [],
    "uses": {
      "per": null,
      "value": 0,
      "maxFormula": "",
      "autoDeductChargesCost": "1"
    },
    "attackNotes": [],
    "effectNotes": [],
    "changes": [],
    "changeFlags": {
      "loseDexToAC": false,
      "noEncumbrance": false,
      "mediumArmorFullSpeed": false,
      "heavyArmorFullSpeed": false
    },
    "contextNotes": [],
    "links": {
      "children": [],
      "charges": []
    },
    "tag": "scionOfLegendReturnOfTheRunelords",
    "useCustomTag": false,
    "armorProf": {
      "value": [],
      "custom": ""
    },
    "weaponProf": {
      "value": [],
      "custom": ""
    },
    "languages": {
      "value": [],
      "custom": ""
    },
    "flags": {
      "boolean": {},
      "dictionary": {}
    },
    "scriptCalls": [],
    "subType": "trait",
    "associations": {
      "classes": []
    },
    "showInQuickbar": false,
    "abilityType": "none",
    "crOffset": "",
    "disabled": false,
    "classSkills": {},
    "traitType": "campaign"
  },
  "ownership": {
    "default": 0
  },
  "_stats": {
    "systemId": "pf1",
    "systemVersion": "9.1",
    "coreVersion": "10.291",
    "createdTime": 1665428390099,
    "modifiedTime": 1689797959530,
    "lastModifiedBy": "ppv91YxratjWnkJi"
  },
  "effects": [],
  "folder": "pCbPxzsBnEH3Mz08",
  "sort": 0,
  "flags": {},
  "_key": "!items!A7IyTMzJRauORoEt"
}