{
  "_id": "bYKSrXSzIJjdt9ul",
  "name": "Scrounger (Halfling)",
  "type": "feat",
  "img": "systems/pf1/icons/skills/blue_35.jpg",
  "folder": "OJcM9ZeR3TB33I5m",
  "system": {
    "description": {
      "value": "<p><em>Others may call it junk, but you call it a bargain.</em></p><p><strong>Requirements</strong></p><p>Halfling</p><p><strong>Benefits</strong></p><p>You can buy objects with the broken condition at half price (instead of the normal three-quarters price). The value of the unbroken version of these objects cannot exceed four times your character level. The price you pay for this object can never exceed more than twice your character level in gp (for example, at 5th level you can spend up to 10 gp on a broken object, meaning you can buy any object that, if not broken, has a value of 20 gp or less).</p>",
      "unidentified": ""
    },
    "tags": [
      "PFS",
      "Halfling"
    ],
    "actions": [],
    "uses": {
      "per": null,
      "value": 0,
      "maxFormula": "",
      "autoDeductChargesCost": "1"
    },
    "attackNotes": [],
    "effectNotes": [],
    "changes": [],
    "changeFlags": {
      "loseDexToAC": false,
      "noEncumbrance": false,
      "mediumArmorFullSpeed": false,
      "heavyArmorFullSpeed": false
    },
    "contextNotes": [],
    "links": {
      "children": [],
      "charges": []
    },
    "tag": "scroungerHalfling",
    "useCustomTag": false,
    "armorProf": {
      "value": [],
      "custom": ""
    },
    "weaponProf": {
      "value": [],
      "custom": ""
    },
    "languages": {
      "value": [],
      "custom": ""
    },
    "flags": {
      "boolean": {},
      "dictionary": {}
    },
    "scriptCalls": [],
    "subType": "trait",
    "associations": {
      "classes": []
    },
    "showInQuickbar": false,
    "abilityType": "none",
    "crOffset": "",
    "disabled": false,
    "classSkills": {},
    "traitType": "race"
  },
  "ownership": {
    "default": 0
  },
  "_stats": {
    "systemId": "pf1",
    "systemVersion": "9.1",
    "coreVersion": "10.291",
    "createdTime": 1665428391447,
    "modifiedTime": 1689797967076,
    "lastModifiedBy": "ppv91YxratjWnkJi"
  },
  "effects": [],
  "sort": 0,
  "flags": {},
  "_key": "!items!bYKSrXSzIJjdt9ul"
}