{
  "_id": "urRn3p01CDFswdIW",
  "name": "Self-Reliant",
  "type": "feat",
  "img": "systems/pf1/icons/feats/persuasive.jpg",
  "system": {
    "description": {
      "value": "<p><em>You know how to work with your hands and aren&rsquo;t dependent on complex tools.</em></p><p><strong>Benefits</strong></p><p>When attempting Craft checks, you take no penalty when using improvised tools. At the GM&rsquo;s discretion, you can attempt certain Craft checks even when no tools are available, though you take a &ndash;2 penalty.</p>",
      "unidentified": ""
    },
    "tags": [
      "PFS"
    ],
    "actions": [],
    "uses": {
      "per": null,
      "value": 0,
      "maxFormula": "",
      "autoDeductChargesCost": "1"
    },
    "attackNotes": [],
    "effectNotes": [],
    "changes": [],
    "changeFlags": {
      "loseDexToAC": false,
      "noEncumbrance": false,
      "mediumArmorFullSpeed": false,
      "heavyArmorFullSpeed": false
    },
    "contextNotes": [],
    "links": {
      "children": [],
      "charges": []
    },
    "tag": "savannaChildPlains",
    "useCustomTag": false,
    "armorProf": {
      "value": [],
      "custom": ""
    },
    "weaponProf": {
      "value": [],
      "custom": ""
    },
    "languages": {
      "value": [],
      "custom": ""
    },
    "flags": {
      "boolean": {},
      "dictionary": {}
    },
    "scriptCalls": [],
    "subType": "trait",
    "associations": {
      "classes": []
    },
    "showInQuickbar": false,
    "abilityType": "none",
    "crOffset": "",
    "disabled": false,
    "classSkills": {},
    "traitType": "social"
  },
  "ownership": {
    "default": 0
  },
  "_stats": {
    "systemId": "pf1",
    "systemVersion": "9.1",
    "coreVersion": "10.291",
    "createdTime": 1665428392565,
    "modifiedTime": 1689797971877,
    "lastModifiedBy": "ppv91YxratjWnkJi"
  },
  "effects": [],
  "folder": "FeKDEoyX2eafWdJl",
  "sort": 0,
  "flags": {},
  "_key": "!items!urRn3p01CDFswdIW"
}