{
  "_id": "YhZuLdovj12d0JoX",
  "name": "Self-Sacrifice (Shelyn)",
  "type": "feat",
  "img": "icons/environment/settlement/temple-night.webp",
  "folder": "MB4DGP9uns7VLmaa",
  "system": {
    "description": {
      "value": "<p><em>You honor your goddess through your willingness to take risks for those you care about. </em></p><p><strong>Requirements</strong></p><p>Shelyn</p><p><strong>Benefits</strong></p><p>As a move action, you can use your own body to grant soft cover to an adjacent ally regardless of the difference in your respective sizes.</p>",
      "unidentified": ""
    },
    "tags": [
      "PFS"
    ],
    "actions": [],
    "uses": {
      "per": null,
      "value": 0,
      "maxFormula": "",
      "autoDeductChargesCost": "1"
    },
    "attackNotes": [],
    "effectNotes": [],
    "changes": [],
    "changeFlags": {
      "loseDexToAC": false,
      "noEncumbrance": false,
      "mediumArmorFullSpeed": false,
      "heavyArmorFullSpeed": false
    },
    "contextNotes": [],
    "links": {
      "children": [],
      "charges": []
    },
    "tag": "selfsacrificeShelyn",
    "useCustomTag": false,
    "armorProf": {
      "value": [],
      "custom": ""
    },
    "weaponProf": {
      "value": [],
      "custom": ""
    },
    "languages": {
      "value": [],
      "custom": ""
    },
    "flags": {
      "boolean": {},
      "dictionary": {}
    },
    "scriptCalls": [],
    "subType": "trait",
    "associations": {
      "classes": []
    },
    "showInQuickbar": false,
    "abilityType": "none",
    "crOffset": "",
    "disabled": false,
    "classSkills": {},
    "traitType": "religion"
  },
  "ownership": {
    "default": 0
  },
  "_stats": {
    "systemId": "pf1",
    "systemVersion": "9.1",
    "coreVersion": "10.291",
    "createdTime": 1665428391344,
    "modifiedTime": 1689797965910,
    "lastModifiedBy": "ppv91YxratjWnkJi"
  },
  "effects": [],
  "sort": 0,
  "flags": {},
  "_key": "!items!YhZuLdovj12d0JoX"
}