{
  "_id": "oWnuyNLamsYGO5li",
  "name": "Shackles Seafarer (the Shackles)",
  "type": "feat",
  "img": "icons/environment/settlement/watchtower-city.webp",
  "folder": "6b4Oq2nNMw3BxL6l",
  "system": {
    "description": {
      "value": "<p><em>You're familiar with the treacherous coastlines, currents, and tides of the Shackles, and can use that knowledge anywhere. </em></p><p><strong>Requirements</strong></p><p>The Shackles</p><p><strong>Benefits</strong></p><p>You gain a +1 trait bonus on Knowledge (nature) and Knowledge (geography) checks while on the ocean. You also gain a +1 trait bonus on Swim checks, and Swim is always a class skill for you.</p>",
      "unidentified": ""
    },
    "tags": [
      "PFS"
    ],
    "actions": [],
    "uses": {
      "per": null,
      "value": 0,
      "maxFormula": "",
      "autoDeductChargesCost": "1"
    },
    "attackNotes": [],
    "effectNotes": [],
    "changes": [],
    "changeFlags": {
      "loseDexToAC": false,
      "noEncumbrance": false,
      "mediumArmorFullSpeed": false,
      "heavyArmorFullSpeed": false
    },
    "contextNotes": [],
    "links": {
      "children": [],
      "charges": []
    },
    "tag": "shacklesSeafarerTheShackles",
    "useCustomTag": false,
    "armorProf": {
      "value": [],
      "custom": ""
    },
    "weaponProf": {
      "value": [],
      "custom": ""
    },
    "languages": {
      "value": [],
      "custom": ""
    },
    "flags": {
      "boolean": {},
      "dictionary": {}
    },
    "scriptCalls": [],
    "subType": "trait",
    "associations": {
      "classes": []
    },
    "showInQuickbar": false,
    "abilityType": "none",
    "crOffset": "",
    "disabled": false,
    "classSkills": {
      "swm": true
    },
    "traitType": "region"
  },
  "ownership": {
    "default": 0
  },
  "_stats": {
    "systemId": "pf1",
    "systemVersion": "9.1",
    "coreVersion": "10.291",
    "createdTime": 1665428392199,
    "modifiedTime": 1689797970273,
    "lastModifiedBy": "ppv91YxratjWnkJi"
  },
  "effects": [],
  "sort": 0,
  "flags": {},
  "_key": "!items!oWnuyNLamsYGO5li"
}