{
  "_id": "ZBGxphjICOSSmJpJ",
  "name": "Shoanti Tribesman (Varisia)",
  "type": "feat",
  "img": "icons/environment/settlement/watchtower-city.webp",
  "folder": "6b4Oq2nNMw3BxL6l",
  "system": {
    "description": {
      "value": "<p><em>You were born or adopted into a Shoanti tribe. </em></p><p><strong>Requirements</strong></p><p>Varisia</p><p><strong>Benefits</strong></p><p>Choose one of the following skills: Climb, Survival, or Swim.</p>",
      "unidentified": ""
    },
    "tags": [
      "PFS"
    ],
    "actions": [],
    "uses": {
      "per": null,
      "value": 0,
      "maxFormula": "",
      "autoDeductChargesCost": "1"
    },
    "attackNotes": [],
    "effectNotes": [],
    "changes": [
      {
        "_id": "2opo9w53",
        "formula": "1",
        "operator": "add",
        "subTarget": "skill.clm",
        "modifier": "trait",
        "priority": 0,
        "value": 1,
        "target": "skill"
      }
    ],
    "changeFlags": {
      "loseDexToAC": false,
      "noEncumbrance": false,
      "mediumArmorFullSpeed": false,
      "heavyArmorFullSpeed": false
    },
    "contextNotes": [],
    "links": {
      "children": [],
      "charges": []
    },
    "tag": "shoantiTribesmanVarisia",
    "useCustomTag": false,
    "armorProf": {
      "value": [],
      "custom": ""
    },
    "weaponProf": {
      "value": [],
      "custom": ""
    },
    "languages": {
      "value": [],
      "custom": ""
    },
    "flags": {
      "boolean": {},
      "dictionary": {}
    },
    "scriptCalls": [],
    "subType": "trait",
    "associations": {
      "classes": []
    },
    "showInQuickbar": false,
    "abilityType": "none",
    "crOffset": "",
    "disabled": false,
    "classSkills": {},
    "traitType": "region"
  },
  "ownership": {
    "default": 0
  },
  "_stats": {
    "systemId": "pf1",
    "systemVersion": "9.1",
    "coreVersion": "10.291",
    "createdTime": 1665428391362,
    "modifiedTime": 1689797966044,
    "lastModifiedBy": "ppv91YxratjWnkJi"
  },
  "effects": [],
  "sort": 0,
  "flags": {},
  "_key": "!items!ZBGxphjICOSSmJpJ"
}