{
  "_id": "tKrx8VnGk4xg6o5p",
  "name": "Stage Magic",
  "type": "feat",
  "img": "icons/containers/bags/satchel-leather-brown.webp",
  "system": {
    "description": {
      "value": "<p><em>You have put in many hours practicing with flashy alchemical items that enhance your Perform skill.</em></p><p><strong>Benefits</strong></p><p>When you use an attention-getting alchemical item such as a flask of alchemist&rsquo;s fire, smokestick, thunderstone, or another appropriate alchemical item (GM&rsquo;s discretion) as part of a performance, you gain a +2 trait bonus on your Perform check for the duration of that performance. The item is expended without its normal effects and only serves to make your performance more impressive; for example, you could pretend to ignite yourself with alchemist&rsquo;s fire as part of a Perform (comedy) check or make a dramatic appearance with a smokestick as part of a Perform (act) check, but you would not actually take fire damage or gain concealment from smoke.</p>",
      "unidentified": ""
    },
    "tags": [
      "PFS"
    ],
    "actions": [],
    "uses": {
      "per": null,
      "value": 0,
      "maxFormula": "",
      "autoDeductChargesCost": "1"
    },
    "attackNotes": [],
    "effectNotes": [],
    "changes": [],
    "changeFlags": {
      "loseDexToAC": false,
      "noEncumbrance": false,
      "mediumArmorFullSpeed": false,
      "heavyArmorFullSpeed": false
    },
    "contextNotes": [],
    "links": {
      "children": [],
      "charges": []
    },
    "tag": "1MountTemplate",
    "useCustomTag": false,
    "armorProf": {
      "value": [],
      "custom": ""
    },
    "weaponProf": {
      "value": [],
      "custom": ""
    },
    "languages": {
      "value": [],
      "custom": ""
    },
    "flags": {
      "boolean": {},
      "dictionary": {}
    },
    "scriptCalls": [],
    "subType": "trait",
    "associations": {
      "classes": []
    },
    "showInQuickbar": false,
    "abilityType": "none",
    "crOffset": "",
    "disabled": false,
    "classSkills": {},
    "traitType": "equipment"
  },
  "ownership": {
    "default": 0
  },
  "_stats": {
    "systemId": "pf1",
    "systemVersion": "9.1",
    "coreVersion": "10.291",
    "createdTime": 1665428392337,
    "modifiedTime": 1689797971359,
    "lastModifiedBy": "ppv91YxratjWnkJi"
  },
  "effects": [],
  "folder": "JADO8YDnM5A87OCO",
  "sort": 0,
  "flags": {},
  "_key": "!items!tKrx8VnGk4xg6o5p"
}