{
  "_id": "vy7NaDgxDSKLuuKR",
  "name": "Stoic Dignity (Oread)",
  "type": "feat",
  "img": "systems/pf1/icons/skills/blue_35.jpg",
  "system": {
    "description": {
      "value": "<p><em>You are an unmoving rock for those who see you as an authority figure.</em></p><p><strong>Requirements</strong></p><p>Oread</p><p><strong>Benefits</strong></p><p>As long as you are conscious, you and all allies within 10 feet gain a +1 bonus on saving throws against mind-affecting effects you are not already suffering from. This is a trait bonus for you and a morale bonus for your allies.</p><p><strong>Pathfinder Society</strong></p><p>Only legal if your character is of the same ethnicity as the section of this trait.</p>",
      "unidentified": ""
    },
    "tags": [
      "PFS",
      "Oread"
    ],
    "actions": [],
    "uses": {
      "per": null,
      "value": 0,
      "maxFormula": "",
      "autoDeductChargesCost": "1"
    },
    "attackNotes": [],
    "effectNotes": [],
    "changes": [],
    "changeFlags": {
      "loseDexToAC": false,
      "noEncumbrance": false,
      "mediumArmorFullSpeed": false,
      "heavyArmorFullSpeed": false
    },
    "contextNotes": [],
    "links": {
      "children": [],
      "charges": []
    },
    "tag": "adventurousExplorerSongo",
    "useCustomTag": false,
    "armorProf": {
      "value": [],
      "custom": ""
    },
    "weaponProf": {
      "value": [],
      "custom": ""
    },
    "languages": {
      "value": [],
      "custom": ""
    },
    "flags": {
      "boolean": {},
      "dictionary": {}
    },
    "scriptCalls": [],
    "subType": "trait",
    "associations": {
      "classes": []
    },
    "showInQuickbar": false,
    "abilityType": "none",
    "crOffset": "",
    "disabled": false,
    "classSkills": {},
    "traitType": "race"
  },
  "ownership": {
    "default": 0
  },
  "_stats": {
    "systemId": "pf1",
    "systemVersion": "9.1",
    "coreVersion": "10.291",
    "createdTime": 1665428392610,
    "modifiedTime": 1689797972156,
    "lastModifiedBy": "ppv91YxratjWnkJi"
  },
  "effects": [],
  "folder": "OJcM9ZeR3TB33I5m",
  "sort": 0,
  "flags": {},
  "_key": "!items!vy7NaDgxDSKLuuKR"
}