{
  "_id": "tY8jV7WQLJD8ZSzR",
  "name": "Strength of the Land (Dwarf)",
  "type": "feat",
  "img": "icons/sundries/books/book-embossed-jewel-gold-purple.webp",
  "folder": "qFbWInuNDuv3JE0T",
  "system": {
    "description": {
      "value": "<p><em>You are able to tap into the living energy of the world to shatter lesser magic.</em></p><p><strong>Benefits</strong></p><p>You gain a +1 trait bonus on caster level checks while touching the ground or unworked stone. This includes dispel checks and checks to overcome spell resistance. <strong> </strong></p>",
      "unidentified": ""
    },
    "tags": [
      "PFS",
      "Dwarf"
    ],
    "actions": [],
    "uses": {
      "per": null,
      "value": 0,
      "maxFormula": "",
      "autoDeductChargesCost": "1"
    },
    "attackNotes": [],
    "effectNotes": [],
    "changes": [],
    "changeFlags": {
      "loseDexToAC": false,
      "noEncumbrance": false,
      "mediumArmorFullSpeed": false,
      "heavyArmorFullSpeed": false
    },
    "contextNotes": [],
    "links": {
      "children": [],
      "charges": []
    },
    "tag": "strengthOfTheLandDwarfMagicTrait",
    "useCustomTag": false,
    "armorProf": {
      "value": [],
      "custom": ""
    },
    "weaponProf": {
      "value": [],
      "custom": ""
    },
    "languages": {
      "value": [],
      "custom": ""
    },
    "flags": {
      "boolean": {},
      "dictionary": {}
    },
    "scriptCalls": [],
    "subType": "trait",
    "associations": {
      "classes": []
    },
    "showInQuickbar": false,
    "abilityType": "none",
    "crOffset": "",
    "disabled": false,
    "classSkills": {},
    "traitType": "magic"
  },
  "ownership": {
    "default": 0
  },
  "_stats": {
    "systemId": "pf1",
    "systemVersion": "9.1",
    "coreVersion": "10.291",
    "createdTime": 1665428392343,
    "modifiedTime": 1689797971403,
    "lastModifiedBy": "ppv91YxratjWnkJi"
  },
  "effects": [],
  "sort": 0,
  "flags": {},
  "_key": "!items!tY8jV7WQLJD8ZSzR"
}