{
  "_id": "XdwtdCH6f0kiFCCG",
  "name": "Subject of Study (Carrion Crown)",
  "type": "feat",
  "img": "icons/tools/navigation/map-chart-tan.webp",
  "folder": "pCbPxzsBnEH3Mz08",
  "system": {
    "description": {
      "value": "<p><em>Professor Lorrimor approached you as part of his studies, as he had heard that you had survived a recent encounter with a strange monster or had another fateful encounter. Interested in the conditions of the run-in and the means by which you avoided death or injury, he met with you and maintained frequent correspondence until several months ago. The scars of your experience and his continual reminders of the encounter prompted you to hone your skills lest you someday face the same type of creature again. The professor assisted you in this endeavor, providing you with insight into the anatomy and defenses of the creature that attacked you. Years of study have improved your combat effectiveness against your chosen foe.</em></p><p><strong>Benefits</strong></p><p>Choose a non-humanoid creature type (and subtype if outsider). You gain a +1 bonus on damage rolls against creatures of this type.</p>",
      "unidentified": ""
    },
    "tags": [],
    "actions": [],
    "uses": {
      "per": null,
      "value": 0,
      "maxFormula": "",
      "autoDeductChargesCost": "1"
    },
    "attackNotes": [],
    "effectNotes": [],
    "changes": [],
    "changeFlags": {
      "loseDexToAC": false,
      "noEncumbrance": false,
      "mediumArmorFullSpeed": false,
      "heavyArmorFullSpeed": false
    },
    "contextNotes": [],
    "links": {
      "children": [],
      "charges": []
    },
    "tag": "subjectOfStudyCarrionCrown",
    "useCustomTag": false,
    "armorProf": {
      "value": [],
      "custom": ""
    },
    "weaponProf": {
      "value": [],
      "custom": ""
    },
    "languages": {
      "value": [],
      "custom": ""
    },
    "flags": {
      "boolean": {},
      "dictionary": {}
    },
    "scriptCalls": [],
    "subType": "trait",
    "associations": {
      "classes": []
    },
    "showInQuickbar": false,
    "abilityType": "none",
    "crOffset": "",
    "disabled": false,
    "classSkills": {},
    "traitType": "campaign"
  },
  "ownership": {
    "default": 0
  },
  "_stats": {
    "systemId": "pf1",
    "systemVersion": "9.1",
    "coreVersion": "10.291",
    "createdTime": 1665428391309,
    "modifiedTime": 1689797965663,
    "lastModifiedBy": "ppv91YxratjWnkJi"
  },
  "effects": [],
  "sort": 0,
  "flags": {},
  "_key": "!items!XdwtdCH6f0kiFCCG"
}