{
  "_id": "aiCMy7zUX7enO10K",
  "name": "Terrifying Lunge (Skinwalker; Werecrocodile-Kin)",
  "type": "feat",
  "img": "systems/pf1/icons/skills/blue_35.jpg",
  "system": {
    "description": {
      "value": "<p><em>Once badly bitten by a stronger werecrocodile-kin, you learned the importance of showing your strength.</em></p><p><strong>Requirements</strong></p><p>Werecrocodile-Kin Skinwalker Heritage</p><p><strong>Benefits</strong></p><p>Once per day, when you hit a flat-footed foe with a melee attack, you can make an Intimidate check to demoralize that foe as a swift action. Intimidate becomes a class skill for you.</p>",
      "unidentified": ""
    },
    "tags": [
      "PFS",
      "Skinwalker"
    ],
    "actions": [],
    "uses": {
      "per": null,
      "value": 0,
      "maxFormula": "",
      "autoDeductChargesCost": "1"
    },
    "attackNotes": [],
    "effectNotes": [],
    "changes": [],
    "changeFlags": {
      "loseDexToAC": false,
      "noEncumbrance": false,
      "mediumArmorFullSpeed": false,
      "heavyArmorFullSpeed": false
    },
    "contextNotes": [],
    "links": {
      "children": [],
      "charges": []
    },
    "tag": "adventurousExplorerSongo",
    "useCustomTag": false,
    "armorProf": {
      "value": [],
      "custom": ""
    },
    "weaponProf": {
      "value": [],
      "custom": ""
    },
    "languages": {
      "value": [],
      "custom": ""
    },
    "flags": {
      "boolean": {},
      "dictionary": {}
    },
    "scriptCalls": [],
    "subType": "trait",
    "associations": {
      "classes": []
    },
    "showInQuickbar": false,
    "abilityType": "none",
    "crOffset": "",
    "disabled": false,
    "classSkills": {},
    "traitType": "race"
  },
  "ownership": {
    "default": 0
  },
  "_stats": {
    "systemId": "pf1",
    "systemVersion": "9.1",
    "coreVersion": "10.291",
    "createdTime": 1665428391412,
    "modifiedTime": 1689797966803,
    "lastModifiedBy": "ppv91YxratjWnkJi"
  },
  "effects": [],
  "folder": "OJcM9ZeR3TB33I5m",
  "sort": 0,
  "flags": {},
  "_key": "!items!aiCMy7zUX7enO10K"
}