{
  "_id": "dXEOBz7U0qUejTF0",
  "name": "The Stranger",
  "type": "feat",
  "img": "systems/pf1/icons/skills/yellow_01.jpg",
  "system": {
    "description": {
      "value": "<p><em>Like the lone traveler that walks alongside the caravan for but a brief while, you have a way with strangers.</em></p><p><strong>Requirements</strong></p><p>21 Neth - 29 Neth</p><p><strong>Benefits</strong></p><p>You gain a +1 trait bonus on Diplomacy and Knowledge (local) checks to gather information. Additionally, either Diplomacy or Knowledge (local) becomes a class skill for you.</p>",
      "unidentified": ""
    },
    "tags": [
      "PFS"
    ],
    "actions": [],
    "uses": {
      "per": null,
      "value": 0,
      "maxFormula": "",
      "autoDeductChargesCost": "1"
    },
    "attackNotes": [],
    "effectNotes": [],
    "changes": [],
    "changeFlags": {
      "loseDexToAC": false,
      "noEncumbrance": false,
      "mediumArmorFullSpeed": false,
      "heavyArmorFullSpeed": false
    },
    "contextNotes": [],
    "links": {
      "children": [],
      "charges": []
    },
    "tag": "theStranger",
    "useCustomTag": false,
    "armorProf": {
      "value": [],
      "custom": ""
    },
    "weaponProf": {
      "value": [],
      "custom": ""
    },
    "languages": {
      "value": [],
      "custom": ""
    },
    "flags": {
      "boolean": {},
      "dictionary": {}
    },
    "scriptCalls": [],
    "subType": "trait",
    "associations": {
      "classes": []
    },
    "showInQuickbar": false,
    "abilityType": "none",
    "crOffset": "",
    "disabled": false,
    "classSkills": {},
    "traitType": "cosmic"
  },
  "ownership": {
    "default": 0
  },
  "_stats": {
    "systemId": "pf1",
    "systemVersion": "9.1",
    "coreVersion": "10.291",
    "createdTime": 1665428391513,
    "modifiedTime": 1689797967478,
    "lastModifiedBy": "ppv91YxratjWnkJi"
  },
  "effects": [],
  "folder": "uFWvsCAH0jX3fq16",
  "sort": 0,
  "flags": {},
  "_key": "!items!dXEOBz7U0qUejTF0"
}