{
  "_id": "mlTjuO0A4uyUfySL",
  "name": "Toilcrafter (Droskar)",
  "type": "feat",
  "img": "icons/environment/settlement/temple-night.webp",
  "folder": "MB4DGP9uns7VLmaa",
  "system": {
    "description": {
      "value": "<p><em>You can craft passable if inferior magical weapons, armors, and shields through diligence and toil.</em></p><p><strong>Requirements</strong></p><p>Droskar</p><p><strong>Benefits</strong></p><p>Choose one Craft or Profession skill in which you have at least 1 rank. Ranks in your chosen skill count as your caster level for the purpose of qualifying for the Craft Magic Arms and Armor feat. You may craft +1 armor, weapons, or shields (with no special qualities), substituting your rank in the chosen skill for your caster level. You must use the chosen skill for the check to create the item. Crafting in this fashion takes twice as long as normal. These items cannot be upgraded with new abilities.</p>",
      "unidentified": ""
    },
    "tags": [],
    "actions": [],
    "uses": {
      "per": null,
      "value": 0,
      "maxFormula": "",
      "autoDeductChargesCost": "1"
    },
    "attackNotes": [],
    "effectNotes": [],
    "changes": [],
    "changeFlags": {
      "loseDexToAC": false,
      "noEncumbrance": false,
      "mediumArmorFullSpeed": false,
      "heavyArmorFullSpeed": false
    },
    "contextNotes": [],
    "links": {
      "children": [],
      "charges": []
    },
    "tag": "toilcrafterDwarf",
    "useCustomTag": false,
    "armorProf": {
      "value": [],
      "custom": ""
    },
    "weaponProf": {
      "value": [],
      "custom": ""
    },
    "languages": {
      "value": [],
      "custom": ""
    },
    "flags": {
      "boolean": {},
      "dictionary": {}
    },
    "scriptCalls": [],
    "subType": "trait",
    "associations": {
      "classes": []
    },
    "showInQuickbar": false,
    "abilityType": "none",
    "crOffset": "",
    "disabled": false,
    "classSkills": {},
    "traitType": "religion"
  },
  "ownership": {
    "default": 0
  },
  "_stats": {
    "systemId": "pf1",
    "systemVersion": "9.1",
    "coreVersion": "10.291",
    "createdTime": 1665428392136,
    "modifiedTime": 1689797969880,
    "lastModifiedBy": "ppv91YxratjWnkJi"
  },
  "effects": [],
  "sort": 0,
  "flags": {},
  "_key": "!items!mlTjuO0A4uyUfySL"
}