{
  "_id": "72rjIVdWGSftgxKV",
  "name": "True Devotion (Strange Aeons)",
  "type": "feat",
  "img": "icons/tools/navigation/map-chart-tan.webp",
  "system": {
    "description": {
      "value": "<p><em>You wake from your recent ordeal with a sense of shame, as if you had sinned deeply against your morals and beliefs. However, you feel a bit of relief as well, as if your god had granted you a second chance. You not only have a drive to figure out what happened to you, but an urge to fight back against the unspeakable forces of evil. If, during the course of your investigation, you discover that you took part in unsavory activities that would normally be opposed to your faith or alignment, this event no longer has any impact with your standing in the eyes of your god due to your renewed righteous convictions.</em></p><p><strong>Benefits</strong></p><p>Once per day when casting a divine spell, you can attempt to cast the spell without losing the spell from its spell slot or using one of your allotted spells per day. There is a 20% chance that this attempt is successful. In addition, select one domain or inquisition you have. You can use the first granted power of that domain or inquisition one additional time per day. You must have a good alignment and be class capable of casting divine spells in order to select this trait.</p>",
      "unidentified": ""
    },
    "tags": [],
    "actions": [],
    "uses": {
      "per": null,
      "value": 0,
      "maxFormula": "",
      "autoDeductChargesCost": "1"
    },
    "attackNotes": [],
    "effectNotes": [],
    "changes": [],
    "changeFlags": {
      "loseDexToAC": false,
      "noEncumbrance": false,
      "mediumArmorFullSpeed": false,
      "heavyArmorFullSpeed": false
    },
    "contextNotes": [],
    "links": {
      "children": [],
      "charges": []
    },
    "tag": "trueDevotionStrangeAeons",
    "useCustomTag": false,
    "armorProf": {
      "value": [],
      "custom": ""
    },
    "weaponProf": {
      "value": [],
      "custom": ""
    },
    "languages": {
      "value": [],
      "custom": ""
    },
    "flags": {
      "boolean": {},
      "dictionary": {}
    },
    "scriptCalls": [],
    "subType": "trait",
    "associations": {
      "classes": []
    },
    "showInQuickbar": false,
    "abilityType": "none",
    "crOffset": "",
    "disabled": false,
    "classSkills": {},
    "traitType": "campaign"
  },
  "ownership": {
    "default": 0
  },
  "_stats": {
    "systemId": "pf1",
    "systemVersion": "9.1",
    "coreVersion": "10.291",
    "createdTime": 1665428389824,
    "modifiedTime": 1689797958608,
    "lastModifiedBy": "ppv91YxratjWnkJi"
  },
  "effects": [],
  "folder": "pCbPxzsBnEH3Mz08",
  "sort": 0,
  "flags": {},
  "_key": "!items!72rjIVdWGSftgxKV"
}