{
  "_id": "7zrNqzq4UyVleKiF",
  "name": "Trunau Native (Giantslayer)",
  "type": "feat",
  "img": "icons/tools/navigation/map-chart-tan.webp",
  "system": {
    "description": {
      "value": "<p><em>You were born and raised in the town of Trunau, one of the few human settlements in the orc-dominated Hold of Belkzen. Orc attacks are an ever-present threat, and like all Trunauans, you have made the Standing Vow: to hold Trunau against all attackers, orc or otherwise, to stand your ground, and to live free or die trying. Upon coming of age, you were given a hopeknife&mdash;a small, sheathed dagger, usually worn on a chain under your clothes&mdash;and taught how to use it to take your own life to avoid capture by orcs, or to grant the mercy of a quick death to the wounded. As a native, you have served in Trunau&rsquo;s militia, and fought alongside Patrol Captains Kurst and Rodrik Grath.</em></p><p><strong>Benefits</strong></p><p>You begin play with a hopeknife (a masterwork dagger), and your tenacity in the face of adversity grants you a +1 trait bonus on Will saves.</p>",
      "unidentified": ""
    },
    "tags": [],
    "actions": [],
    "uses": {
      "per": null,
      "value": 0,
      "maxFormula": "",
      "autoDeductChargesCost": "1"
    },
    "attackNotes": [],
    "effectNotes": [],
    "changes": [],
    "changeFlags": {
      "loseDexToAC": false,
      "noEncumbrance": false,
      "mediumArmorFullSpeed": false,
      "heavyArmorFullSpeed": false
    },
    "contextNotes": [],
    "links": {
      "children": [],
      "charges": []
    },
    "tag": "trunauNativeGiantslayer",
    "useCustomTag": false,
    "armorProf": {
      "value": [],
      "custom": ""
    },
    "weaponProf": {
      "value": [],
      "custom": ""
    },
    "languages": {
      "value": [],
      "custom": ""
    },
    "flags": {
      "boolean": {},
      "dictionary": {}
    },
    "scriptCalls": [],
    "subType": "trait",
    "associations": {
      "classes": []
    },
    "showInQuickbar": false,
    "abilityType": "none",
    "crOffset": "",
    "disabled": false,
    "classSkills": {},
    "traitType": "campaign"
  },
  "ownership": {
    "default": 0
  },
  "_stats": {
    "systemId": "pf1",
    "systemVersion": "9.1",
    "coreVersion": "10.291",
    "createdTime": 1665428389859,
    "modifiedTime": 1689797959066,
    "lastModifiedBy": "ppv91YxratjWnkJi"
  },
  "effects": [],
  "folder": "pCbPxzsBnEH3Mz08",
  "sort": 0,
  "flags": {},
  "_key": "!items!7zrNqzq4UyVleKiF"
}