{
  "_id": "q5UhLOOkU0Qdja1w",
  "name": "Tunnel Fighter (Dwarf)",
  "type": "feat",
  "img": "systems/pf1/icons/skills/blue_35.jpg",
  "folder": "OJcM9ZeR3TB33I5m",
  "system": {
    "description": {
      "value": "<p><em>Caves and tunnels are a second home to you.</em></p><p><strong>Requirements</strong></p><p>Dwarf</p><p><strong>Benefits</strong></p><p>While underground, you receive a +2 trait bonus to initiative checks and a +1 trait bonus on weapon damage rolls for critical hits (this damage is multiplied on a critical hit).</p>",
      "unidentified": ""
    },
    "tags": [
      "PFS",
      "Dwarf"
    ],
    "actions": [],
    "uses": {
      "per": null,
      "value": 0,
      "maxFormula": "",
      "autoDeductChargesCost": "1"
    },
    "attackNotes": [],
    "effectNotes": [],
    "changes": [],
    "changeFlags": {
      "loseDexToAC": false,
      "noEncumbrance": false,
      "mediumArmorFullSpeed": false,
      "heavyArmorFullSpeed": false
    },
    "contextNotes": [],
    "links": {
      "children": [],
      "charges": []
    },
    "tag": "tunnelFighterDwarf",
    "useCustomTag": false,
    "armorProf": {
      "value": [],
      "custom": ""
    },
    "weaponProf": {
      "value": [],
      "custom": ""
    },
    "languages": {
      "value": [],
      "custom": ""
    },
    "flags": {
      "boolean": {},
      "dictionary": {}
    },
    "scriptCalls": [],
    "subType": "trait",
    "associations": {
      "classes": []
    },
    "showInQuickbar": false,
    "abilityType": "none",
    "crOffset": "",
    "disabled": false,
    "classSkills": {},
    "traitType": "race"
  },
  "ownership": {
    "default": 0
  },
  "_stats": {
    "systemId": "pf1",
    "systemVersion": "9.1",
    "coreVersion": "10.291",
    "createdTime": 1665428392232,
    "modifiedTime": 1689797970672,
    "lastModifiedBy": "ppv91YxratjWnkJi"
  },
  "effects": [],
  "sort": 0,
  "flags": {},
  "_key": "!items!q5UhLOOkU0Qdja1w"
}