{
  "_id": "Cz6pjXtEzfK0ZqXt",
  "name": "Undead Crusader (Mummy's Mask)",
  "type": "feat",
  "img": "icons/tools/navigation/map-chart-tan.webp",
  "system": {
    "description": {
      "value": "<p><em>You have dedicated your life to eradicating the scourge of the undead from Golarion. You have spent countless hours studying the different types of undead and have trained endlessly to learn the best ways to defeat them. If any undead creatures come out of the tombs of Wati&rsquo;s necropolis, you&rsquo;ll be ready for them!</em></p><p><strong>Benefits</strong></p><p>You gain a +1 trait bonus on damage rolls against undead creatures. In addition, you gain a +1 trait bonus on Knowledge (religion) checks, and that skill is always a class skill for you.</p>",
      "unidentified": ""
    },
    "tags": [],
    "actions": [],
    "uses": {
      "per": null,
      "value": 0,
      "maxFormula": "",
      "autoDeductChargesCost": "1"
    },
    "attackNotes": [],
    "effectNotes": [],
    "changes": [],
    "changeFlags": {
      "loseDexToAC": false,
      "noEncumbrance": false,
      "mediumArmorFullSpeed": false,
      "heavyArmorFullSpeed": false
    },
    "contextNotes": [],
    "links": {
      "children": [],
      "charges": []
    },
    "tag": "undeadCrusaderMummysMask",
    "useCustomTag": false,
    "armorProf": {
      "value": [],
      "custom": ""
    },
    "weaponProf": {
      "value": [],
      "custom": ""
    },
    "languages": {
      "value": [],
      "custom": ""
    },
    "flags": {
      "boolean": {},
      "dictionary": {}
    },
    "scriptCalls": [],
    "subType": "trait",
    "associations": {
      "classes": []
    },
    "showInQuickbar": false,
    "abilityType": "none",
    "crOffset": "",
    "disabled": false,
    "classSkills": {
      "kre": true
    },
    "traitType": "campaign"
  },
  "ownership": {
    "default": 0
  },
  "_stats": {
    "systemId": "pf1",
    "systemVersion": "9.1",
    "coreVersion": "10.291",
    "createdTime": 1665428390198,
    "modifiedTime": 1689797960233,
    "lastModifiedBy": "ppv91YxratjWnkJi"
  },
  "effects": [],
  "folder": "pCbPxzsBnEH3Mz08",
  "sort": 0,
  "flags": {},
  "_key": "!items!Cz6pjXtEzfK0ZqXt"
}