{
  "_id": "JI099zztZv0U0d9K",
  "name": "Unorthodox Strategy (Silver Crusade)",
  "type": "feat",
  "img": "icons/environment/people/charge.webp",
  "system": {
    "description": {
      "value": "<p><em>You are particularly quick on your feet.</em></p><p><strong>Requirements</strong></p><p>Silver Crusade</p><p><strong>Benefits</strong></p><p>You gain a +2 trait bonus on Acrobatics checks made to move through an enemy&rsquo;s threatened squares.</p>",
      "unidentified": ""
    },
    "tags": [
      "PFS"
    ],
    "actions": [],
    "uses": {
      "per": null,
      "value": 0,
      "maxFormula": "",
      "autoDeductChargesCost": "1"
    },
    "attackNotes": [],
    "effectNotes": [],
    "changes": [],
    "changeFlags": {
      "loseDexToAC": false,
      "noEncumbrance": false,
      "mediumArmorFullSpeed": false,
      "heavyArmorFullSpeed": false
    },
    "contextNotes": [],
    "links": {
      "children": [],
      "charges": []
    },
    "tag": "unorthodoxStrategySilverCrusade",
    "useCustomTag": false,
    "armorProf": {
      "value": [],
      "custom": ""
    },
    "weaponProf": {
      "value": [],
      "custom": ""
    },
    "languages": {
      "value": [],
      "custom": ""
    },
    "flags": {
      "boolean": {},
      "dictionary": {}
    },
    "scriptCalls": [],
    "subType": "trait",
    "associations": {
      "classes": []
    },
    "showInQuickbar": false,
    "abilityType": "none",
    "crOffset": "",
    "disabled": false,
    "classSkills": {},
    "traitType": "faction"
  },
  "ownership": {
    "default": 0
  },
  "_stats": {
    "systemId": "pf1",
    "systemVersion": "9.1",
    "coreVersion": "10.291",
    "createdTime": 1665428390514,
    "modifiedTime": 1689797961948,
    "lastModifiedBy": "ppv91YxratjWnkJi"
  },
  "effects": [],
  "folder": "Deq32iqkuiMz2xsk",
  "sort": 0,
  "flags": {},
  "_key": "!items!JI099zztZv0U0d9K"
}