{
  "_id": "q3BC9DduZdySR839",
  "name": "Vainglory",
  "type": "feat",
  "img": "systems/pf1/icons/feats/shatter-defenses.jpg",
  "system": {
    "description": {
      "value": "<p><em>You compulsively seek recognition for your deeds, making it hard to act with subtlety.</em></p><p><strong>Effects</strong></p><p>You take a -1 penalty on Bluff, Disguise, and Stealth checks, and the save DC of any illusion you create is 1 lower than normal.</p>",
      "unidentified": ""
    },
    "tags": [],
    "actions": [],
    "uses": {
      "per": null,
      "value": 0,
      "maxFormula": "",
      "autoDeductChargesCost": "1"
    },
    "attackNotes": [],
    "effectNotes": [],
    "changes": [],
    "changeFlags": {
      "loseDexToAC": false,
      "noEncumbrance": false,
      "mediumArmorFullSpeed": false,
      "heavyArmorFullSpeed": false
    },
    "contextNotes": [],
    "links": {
      "children": [],
      "charges": []
    },
    "tag": "savannaChildPlains",
    "useCustomTag": false,
    "armorProf": {
      "value": [],
      "custom": ""
    },
    "weaponProf": {
      "value": [],
      "custom": ""
    },
    "languages": {
      "value": [],
      "custom": ""
    },
    "flags": {
      "boolean": {},
      "dictionary": {}
    },
    "scriptCalls": [],
    "subType": "trait",
    "associations": {
      "classes": []
    },
    "showInQuickbar": false,
    "abilityType": "none",
    "crOffset": "",
    "disabled": false,
    "classSkills": {},
    "traitType": "drawback"
  },
  "ownership": {
    "default": 0
  },
  "_stats": {
    "systemId": "pf1",
    "systemVersion": "9.1",
    "coreVersion": "10.291",
    "createdTime": 1665428392230,
    "modifiedTime": 1689797970657,
    "lastModifiedBy": "ppv91YxratjWnkJi"
  },
  "effects": [],
  "folder": "n1kBJ9yG8vwL71rY",
  "sort": 0,
  "flags": {},
  "_key": "!items!q3BC9DduZdySR839"
}