{
  "_id": "3PdHIZjMCngKWogv",
  "name": "Venom Resistance",
  "type": "feat",
  "img": "icons/weapons/swords/swords-short.webp",
  "system": {
    "description": {
      "value": "<p><em>You have spent considerable time in arid wastelands where girtablilus and other venomous creatures are common, and you have built up a resistance to poison.</em></p><p><strong>Benefits</strong></p><p>You gain a +2 trait bonus on Fortitude saving throws against poison, and once per day when attempting a saving throw to resist girtablilu poison, you can roll twice and take the higher result.</p>",
      "unidentified": ""
    },
    "tags": [
      "PFS"
    ],
    "actions": [],
    "uses": {
      "per": null,
      "value": 0,
      "maxFormula": "",
      "autoDeductChargesCost": "1"
    },
    "attackNotes": [],
    "effectNotes": [],
    "changes": [],
    "changeFlags": {
      "loseDexToAC": false,
      "noEncumbrance": false,
      "mediumArmorFullSpeed": false,
      "heavyArmorFullSpeed": false
    },
    "contextNotes": [],
    "links": {
      "children": [],
      "charges": []
    },
    "tag": "venomResistance",
    "useCustomTag": false,
    "armorProf": {
      "value": [],
      "custom": ""
    },
    "weaponProf": {
      "value": [],
      "custom": ""
    },
    "languages": {
      "value": [],
      "custom": ""
    },
    "flags": {
      "boolean": {},
      "dictionary": {}
    },
    "scriptCalls": [],
    "subType": "trait",
    "associations": {
      "classes": []
    },
    "showInQuickbar": false,
    "abilityType": "none",
    "crOffset": "",
    "disabled": false,
    "classSkills": {},
    "traitType": "combat"
  },
  "ownership": {
    "default": 0
  },
  "_stats": {
    "systemId": "pf1",
    "systemVersion": "9.1",
    "coreVersion": "10.291",
    "createdTime": 1665428389714,
    "modifiedTime": 1689797957962,
    "lastModifiedBy": "ppv91YxratjWnkJi"
  },
  "effects": [],
  "folder": "rasdJf3aELQxqSwG",
  "sort": 0,
  "flags": {},
  "_key": "!items!3PdHIZjMCngKWogv"
}