{
  "_id": "S5hJHdvxFPhN0KuK",
  "name": "Veteran of Battle (Gorum)",
  "type": "feat",
  "img": "icons/environment/settlement/temple-night.webp",
  "folder": "MB4DGP9uns7VLmaa",
  "system": {
    "description": {
      "value": "<p><em>You have fought in several battles, and each time felt the presence of Gorum guiding your sword-arm, making you ready to act at a moment's notice.</em></p><p><strong>Requirements</strong></p><p>Gorum</p><p><strong>Benefits</strong></p><p>You gain a +1 trait bonus on Initiative checks, and if you are able to act during a surprise round, you may a draw a weapon (but not a potion or magic item) as a free action during that round.</p>",
      "unidentified": ""
    },
    "tags": [
      "PFS"
    ],
    "actions": [],
    "uses": {
      "per": null,
      "value": 0,
      "maxFormula": "",
      "autoDeductChargesCost": "1"
    },
    "attackNotes": [],
    "effectNotes": [],
    "changes": [],
    "changeFlags": {
      "loseDexToAC": false,
      "noEncumbrance": false,
      "mediumArmorFullSpeed": false,
      "heavyArmorFullSpeed": false
    },
    "contextNotes": [],
    "links": {
      "children": [],
      "charges": []
    },
    "tag": "veteranOfBattleGorum",
    "useCustomTag": false,
    "armorProf": {
      "value": [],
      "custom": ""
    },
    "weaponProf": {
      "value": [],
      "custom": ""
    },
    "languages": {
      "value": [],
      "custom": ""
    },
    "flags": {
      "boolean": {},
      "dictionary": {}
    },
    "scriptCalls": [],
    "subType": "trait",
    "associations": {
      "classes": []
    },
    "showInQuickbar": false,
    "abilityType": "none",
    "crOffset": "",
    "disabled": false,
    "classSkills": {},
    "traitType": "religion"
  },
  "ownership": {
    "default": 0
  },
  "_stats": {
    "systemId": "pf1",
    "systemVersion": "9.1",
    "coreVersion": "10.291",
    "createdTime": 1665428390945,
    "modifiedTime": 1689797964232,
    "lastModifiedBy": "ppv91YxratjWnkJi"
  },
  "effects": [],
  "sort": 0,
  "flags": {},
  "_key": "!items!S5hJHdvxFPhN0KuK"
}