{
  "_id": "DiPPiCbdKeA56VIE",
  "name": "Vigilante Witch Hunter (Reign of Winter)",
  "type": "feat",
  "img": "icons/tools/navigation/map-chart-tan.webp",
  "system": {
    "description": {
      "value": "<p><em>You don&rsquo;t trust witches. They deal with otherworldly beings, consort with beasts, and brew vile poisons in their cauldrons. As a child, perhaps you barely escaped some horrid fate at the hands of an evil witch, or maybe a loved one was stolen from you by a witch&rsquo;s charms. Perhaps you wanted to be a witch yourself, but the local witch refused to take you on as an apprentice. Whatever the reason, you now hate witches, and have dedicated your life to ferreting them out and exposing their wickedness for all to see. You know that the North is full of winter witches, and should you ever find yourself there, you&rsquo;ll relish bringing your justice to them as well.</em></p><p><strong>Benefits</strong></p><p>You gain a +1 trait bonus on Sense Motive checks, and Sense Motive is a class skill for you. In addition, you begin the campaign with 1d4 @UUID[Compendium.pf-content.pf-wondrous.Item.Z3o9VAPaIvzT4nzf]{Hex Nails}.</p>",
      "unidentified": ""
    },
    "tags": [],
    "actions": [],
    "uses": {
      "per": null,
      "value": 0,
      "maxFormula": "",
      "autoDeductChargesCost": "1"
    },
    "attackNotes": [],
    "effectNotes": [],
    "changes": [],
    "changeFlags": {
      "loseDexToAC": false,
      "noEncumbrance": false,
      "mediumArmorFullSpeed": false,
      "heavyArmorFullSpeed": false
    },
    "contextNotes": [],
    "links": {
      "children": [],
      "charges": []
    },
    "tag": "vigilanteWitchHunterReignOfWinter",
    "useCustomTag": false,
    "armorProf": {
      "value": [],
      "custom": ""
    },
    "weaponProf": {
      "value": [],
      "custom": ""
    },
    "languages": {
      "value": [],
      "custom": ""
    },
    "flags": {
      "boolean": {},
      "dictionary": {}
    },
    "scriptCalls": [],
    "subType": "trait",
    "associations": {
      "classes": []
    },
    "showInQuickbar": false,
    "abilityType": "none",
    "crOffset": "",
    "disabled": false,
    "classSkills": {},
    "traitType": "campaign"
  },
  "ownership": {
    "default": 0
  },
  "_stats": {
    "systemId": "pf1",
    "systemVersion": "9.1",
    "coreVersion": "10.291",
    "createdTime": 1665428390215,
    "modifiedTime": 1689797960330,
    "lastModifiedBy": "ppv91YxratjWnkJi"
  },
  "effects": [],
  "folder": "pCbPxzsBnEH3Mz08",
  "sort": 0,
  "flags": {},
  "_key": "!items!DiPPiCbdKeA56VIE"
}