{
  "_id": "Bqk4IvGRhlKptQqj",
  "name": "Wardbreaker (The Worldwound)",
  "type": "feat",
  "img": "icons/environment/settlement/watchtower-city.webp",
  "system": {
    "description": {
      "value": "<p><em>You have studied techniques designed to pierce magical protections, with the goal of assisting your Abyssal masters in bringing down the wardstones that guard the borders of Mendev.</em></p><p><strong>Requirements</strong></p><p>The Worldwound</p><p><strong>Benefits</strong></p><p>Once per day, you can attempt a melee touch attack against an opponent that you believe has a deflection bonus to AC. If your attack is successful, your foe&rsquo;s deflection bonus to AC is halved (to a minimum of +0) for a number of rounds equal to your Charisma modifier. You can use this ability twice per day at 10th level and three times per day at 20th level.</p>",
      "unidentified": ""
    },
    "tags": [],
    "actions": [],
    "uses": {
      "per": null,
      "value": 0,
      "maxFormula": "",
      "autoDeductChargesCost": "1"
    },
    "attackNotes": [],
    "effectNotes": [],
    "changes": [],
    "changeFlags": {
      "loseDexToAC": false,
      "noEncumbrance": false,
      "mediumArmorFullSpeed": false,
      "heavyArmorFullSpeed": false
    },
    "contextNotes": [],
    "links": {
      "children": [],
      "charges": []
    },
    "tag": "savannaChildPlains",
    "useCustomTag": false,
    "armorProf": {
      "value": [],
      "custom": ""
    },
    "weaponProf": {
      "value": [],
      "custom": ""
    },
    "languages": {
      "value": [],
      "custom": ""
    },
    "flags": {
      "boolean": {},
      "dictionary": {}
    },
    "scriptCalls": [],
    "subType": "trait",
    "associations": {
      "classes": []
    },
    "showInQuickbar": false,
    "abilityType": "none",
    "crOffset": "",
    "disabled": false,
    "classSkills": {},
    "traitType": "region"
  },
  "ownership": {
    "default": 0
  },
  "_stats": {
    "systemId": "pf1",
    "systemVersion": "9.1",
    "coreVersion": "10.291",
    "createdTime": 1665428390153,
    "modifiedTime": 1689797959926,
    "lastModifiedBy": "ppv91YxratjWnkJi"
  },
  "effects": [],
  "folder": "6b4Oq2nNMw3BxL6l",
  "sort": 0,
  "flags": {},
  "_key": "!items!Bqk4IvGRhlKptQqj"
}