{
  "_id": "QSe1ejZnAuOnirnY",
  "name": "Weapon Training (Human; Ulfen)",
  "type": "feat",
  "img": "systems/pf1/icons/skills/blue_35.jpg",
  "system": {
    "description": {
      "value": "<p><em>As soon as you were old enough to hold it, you were trained to defend yourself with traditional Ulfen weapons.</em></p><p><strong>Requirements</strong></p><p>Ulfen Human Heritage</p><p><strong>Benefits</strong></p><p>You gain a +1 trait bonus on damage rolls with the following weapons: bastard sword, battleaxe, greataxe, greatsword, handaxe, light hammer, longbow, longsword, shortbow, short sword, throwing axe, and warhammer.</p>",
      "unidentified": ""
    },
    "tags": [
      "Human",
      "Ulfen"
    ],
    "actions": [],
    "uses": {
      "per": null,
      "value": 0,
      "maxFormula": "",
      "autoDeductChargesCost": "1"
    },
    "attackNotes": [],
    "effectNotes": [],
    "changes": [],
    "changeFlags": {
      "loseDexToAC": false,
      "noEncumbrance": false,
      "mediumArmorFullSpeed": false,
      "heavyArmorFullSpeed": false
    },
    "contextNotes": [],
    "links": {
      "children": [],
      "charges": []
    },
    "tag": "adventurousExplorerSongo",
    "useCustomTag": false,
    "armorProf": {
      "value": [],
      "custom": ""
    },
    "weaponProf": {
      "value": [],
      "custom": ""
    },
    "languages": {
      "value": [],
      "custom": ""
    },
    "flags": {
      "boolean": {},
      "dictionary": {}
    },
    "scriptCalls": [],
    "subType": "trait",
    "associations": {
      "classes": []
    },
    "showInQuickbar": false,
    "abilityType": "none",
    "crOffset": "",
    "disabled": false,
    "classSkills": {},
    "traitType": "race"
  },
  "ownership": {
    "default": 0
  },
  "_stats": {
    "systemId": "pf1",
    "systemVersion": "9.1",
    "coreVersion": "10.291",
    "createdTime": 1665428390880,
    "modifiedTime": 1689797963816,
    "lastModifiedBy": "ppv91YxratjWnkJi"
  },
  "effects": [],
  "folder": "OJcM9ZeR3TB33I5m",
  "sort": 0,
  "flags": {},
  "_key": "!items!QSe1ejZnAuOnirnY"
}