{
  "_id": "rLLBy3mrz9T7eycO",
  "name": "Weather-Beaten (Erutaki Husky)",
  "type": "feat",
  "img": "icons/environment/creatures/horse-tan.webp",
  "system": {
    "description": {
      "value": "<p><strong>Requirements</strong></p><p>Riding Dog (Erutaki Husky)</p><p>Erutaki huskies gain a +4 trait bonus on Fortitude saves to avoid nonlethal damage from cold environments, and only take a &ndash;2 penalty on Perception checks made in inclement weather such as rain or snow (instead of the usual &ndash;4 penalty).</p>",
      "unidentified": ""
    },
    "tags": [
      "PFS"
    ],
    "actions": [],
    "uses": {
      "per": null,
      "value": 0,
      "maxFormula": "",
      "autoDeductChargesCost": "1"
    },
    "attackNotes": [],
    "effectNotes": [],
    "changes": [],
    "changeFlags": {
      "loseDexToAC": false,
      "noEncumbrance": false,
      "mediumArmorFullSpeed": false,
      "heavyArmorFullSpeed": false
    },
    "contextNotes": [],
    "links": {
      "children": [],
      "charges": []
    },
    "tag": "weatherbeatenErutakiHusky",
    "useCustomTag": false,
    "armorProf": {
      "value": [],
      "custom": ""
    },
    "weaponProf": {
      "value": [],
      "custom": ""
    },
    "languages": {
      "value": [],
      "custom": ""
    },
    "flags": {
      "boolean": {},
      "dictionary": {}
    },
    "scriptCalls": [],
    "subType": "trait",
    "associations": {
      "classes": []
    },
    "showInQuickbar": false,
    "abilityType": "none",
    "crOffset": "",
    "disabled": false,
    "classSkills": {},
    "traitType": "mount"
  },
  "ownership": {
    "default": 0
  },
  "_stats": {
    "systemId": "pf1",
    "systemVersion": "9.1",
    "coreVersion": "10.291",
    "createdTime": 1665428392273,
    "modifiedTime": 1689797970960,
    "lastModifiedBy": "ppv91YxratjWnkJi"
  },
  "effects": [],
  "folder": "blGAJ1WAWJ1P9rmt",
  "sort": 0,
  "flags": {},
  "_key": "!items!rLLBy3mrz9T7eycO"
}