{
  "_id": "TBrLZTQA4klSxx94",
  "name": "Well-Informed (Halfling)",
  "type": "feat",
  "img": "systems/pf1/icons/skills/blue_35.jpg",
  "folder": "OJcM9ZeR3TB33I5m",
  "system": {
    "description": {
      "value": "<p><em>You make it a point to know everyone and to be connected to everything around you. You frequent the best taverns, attend all of the right events, and graciously help anyone who needs it.</em></p><p><strong>Requirements</strong></p><p>Halfling</p><p><strong>Benefits</strong></p><p>You gain a +1 trait bonus on Diplomacy checks to gather information and Knowledge (local) checks. One of these skills (your choice) is always a class skill for you.</p>",
      "unidentified": ""
    },
    "tags": [
      "PFS",
      "Halfling"
    ],
    "actions": [],
    "uses": {
      "per": null,
      "value": 0,
      "maxFormula": "",
      "autoDeductChargesCost": "1"
    },
    "attackNotes": [],
    "effectNotes": [],
    "changes": [],
    "changeFlags": {
      "loseDexToAC": false,
      "noEncumbrance": false,
      "mediumArmorFullSpeed": false,
      "heavyArmorFullSpeed": false
    },
    "contextNotes": [],
    "links": {
      "children": [],
      "charges": []
    },
    "tag": "wellinformedHalfling",
    "useCustomTag": false,
    "armorProf": {
      "value": [],
      "custom": ""
    },
    "weaponProf": {
      "value": [],
      "custom": ""
    },
    "languages": {
      "value": [],
      "custom": ""
    },
    "flags": {
      "boolean": {},
      "dictionary": {}
    },
    "scriptCalls": [],
    "subType": "trait",
    "associations": {
      "classes": []
    },
    "showInQuickbar": false,
    "abilityType": "none",
    "crOffset": "",
    "disabled": false,
    "classSkills": {},
    "traitType": "race"
  },
  "ownership": {
    "default": 0
  },
  "_stats": {
    "systemId": "pf1",
    "systemVersion": "9.1",
    "coreVersion": "10.291",
    "createdTime": 1665428390975,
    "modifiedTime": 1689797964386,
    "lastModifiedBy": "ppv91YxratjWnkJi"
  },
  "effects": [],
  "sort": 0,
  "flags": {},
  "_key": "!items!TBrLZTQA4klSxx94"
}