{
  "_id": "UBhRAON3gTRf2ehg",
  "name": "Wise Teacher (Erastil)",
  "type": "feat",
  "img": "icons/environment/settlement/temple-night.webp",
  "folder": "MB4DGP9uns7VLmaa",
  "system": {
    "description": {
      "value": "<p><em>You are skilled in passing along knowledge of rural matters.</em></p><p><strong>Requirements</strong></p><p>Erastil</p><p><strong>Benefits</strong></p><p>If you have 4 or more ranks in Survival or Knowledge (Nature), when you aid another with these skills, you grant a +4 bonus on the check you are aiding instead of the normal +2.</p>",
      "unidentified": ""
    },
    "tags": [
      "PFS"
    ],
    "actions": [],
    "uses": {
      "per": null,
      "value": 0,
      "maxFormula": "",
      "autoDeductChargesCost": "1"
    },
    "attackNotes": [],
    "effectNotes": [],
    "changes": [],
    "changeFlags": {
      "loseDexToAC": false,
      "noEncumbrance": false,
      "mediumArmorFullSpeed": false,
      "heavyArmorFullSpeed": false
    },
    "contextNotes": [],
    "links": {
      "children": [],
      "charges": []
    },
    "tag": "wiseTeacherErastil",
    "useCustomTag": false,
    "armorProf": {
      "value": [],
      "custom": ""
    },
    "weaponProf": {
      "value": [],
      "custom": ""
    },
    "languages": {
      "value": [],
      "custom": ""
    },
    "flags": {
      "boolean": {},
      "dictionary": {}
    },
    "scriptCalls": [],
    "subType": "trait",
    "associations": {
      "classes": []
    },
    "showInQuickbar": false,
    "abilityType": "none",
    "crOffset": "",
    "disabled": false,
    "classSkills": {},
    "traitType": "religion"
  },
  "ownership": {
    "default": 0
  },
  "_stats": {
    "systemId": "pf1",
    "systemVersion": "9.1",
    "coreVersion": "10.291",
    "createdTime": 1665428391045,
    "modifiedTime": 1689797964698,
    "lastModifiedBy": "ppv91YxratjWnkJi"
  },
  "effects": [],
  "sort": 0,
  "flags": {},
  "_key": "!items!UBhRAON3gTRf2ehg"
}