{
  "_id": "Ldqe8ZqX8J93gFab",
  "name": "Youthful Infiltrator",
  "type": "feat",
  "img": "icons/weapons/swords/swords-short.webp",
  "system": {
    "description": {
      "value": "<p>You were trained from a young age to ambush the enemies of your order or organization, which makes you hard to trust for most outside your organization if they learn your affiliation.</p><p><strong>Benefits</strong></p><p>You gain a +1 trait bonus on attack rolls against flat-footed foes, as long as they have not seen you make an attack with this bonus before.</p>",
      "unidentified": ""
    },
    "tags": [
      "PFS"
    ],
    "actions": [],
    "uses": {
      "per": null,
      "value": 0,
      "maxFormula": "",
      "autoDeductChargesCost": "1"
    },
    "attackNotes": [],
    "effectNotes": [],
    "changes": [],
    "changeFlags": {
      "loseDexToAC": false,
      "noEncumbrance": false,
      "mediumArmorFullSpeed": false,
      "heavyArmorFullSpeed": false
    },
    "contextNotes": [],
    "links": {
      "children": [],
      "charges": []
    },
    "tag": "youthfulInfiltrator",
    "useCustomTag": false,
    "armorProf": {
      "value": [],
      "custom": ""
    },
    "weaponProf": {
      "value": [],
      "custom": ""
    },
    "languages": {
      "value": [],
      "custom": ""
    },
    "flags": {
      "boolean": {},
      "dictionary": {}
    },
    "scriptCalls": [],
    "subType": "trait",
    "associations": {
      "classes": []
    },
    "showInQuickbar": false,
    "abilityType": "none",
    "crOffset": "",
    "disabled": false,
    "classSkills": {},
    "traitType": "combat"
  },
  "ownership": {
    "default": 0
  },
  "_stats": {
    "systemId": "pf1",
    "systemVersion": "9.1",
    "coreVersion": "10.291",
    "createdTime": 1665428390587,
    "modifiedTime": 1689797962496,
    "lastModifiedBy": "ppv91YxratjWnkJi"
  },
  "effects": [],
  "folder": "rasdJf3aELQxqSwG",
  "sort": 0,
  "flags": {},
  "_key": "!items!Ldqe8ZqX8J93gFab"
}