{
  "_id": "Y1T1vAuuUgCKneHS",
  "name": "Zealous (Human; Garundi)",
  "type": "feat",
  "img": "systems/pf1/icons/skills/blue_35.jpg",
  "system": {
    "description": {
      "value": "<p><em>You felt lost and aimless in your youth until a patron&rsquo;s emotional intervention showed you the power of throwing yourself completely into what you do.</em></p><p><strong>Requirements</strong></p><p>Garundi Human Heritage</p><p><strong>Benefits</strong></p><p>Once per day, you can add a +2 trait bonus on any attack roll, saving throw, or skill check. You must choose to apply this bonus before rolling the die. When you use this ability, you take a &ndash;2 penalty to your AC and on saving throws until the end of your next turn.</p>",
      "unidentified": ""
    },
    "tags": [
      "PFS",
      "Human",
      "Garundi"
    ],
    "actions": [],
    "uses": {
      "per": null,
      "value": 0,
      "maxFormula": "",
      "autoDeductChargesCost": "1"
    },
    "attackNotes": [],
    "effectNotes": [],
    "changes": [],
    "changeFlags": {
      "loseDexToAC": false,
      "noEncumbrance": false,
      "mediumArmorFullSpeed": false,
      "heavyArmorFullSpeed": false
    },
    "contextNotes": [],
    "links": {
      "children": [],
      "charges": []
    },
    "tag": "adventurousExplorerSongo",
    "useCustomTag": false,
    "armorProf": {
      "value": [],
      "custom": ""
    },
    "weaponProf": {
      "value": [],
      "custom": ""
    },
    "languages": {
      "value": [],
      "custom": ""
    },
    "flags": {
      "boolean": {},
      "dictionary": {}
    },
    "scriptCalls": [],
    "subType": "trait",
    "associations": {
      "classes": []
    },
    "showInQuickbar": false,
    "abilityType": "none",
    "crOffset": "",
    "disabled": false,
    "classSkills": {},
    "traitType": "race"
  },
  "ownership": {
    "default": 0
  },
  "_stats": {
    "systemId": "pf1",
    "systemVersion": "9.1",
    "coreVersion": "10.291",
    "createdTime": 1665428391329,
    "modifiedTime": 1689797965790,
    "lastModifiedBy": "ppv91YxratjWnkJi"
  },
  "effects": [],
  "folder": "OJcM9ZeR3TB33I5m",
  "sort": 0,
  "flags": {},
  "_key": "!items!Y1T1vAuuUgCKneHS"
}