{
  "_id": "csm9oHlldPZAusJT",
  "name": "Zealot's Bearing",
  "type": "feat",
  "img": "icons/equipment/shield/pavise-wooden-wings-blue-white.webp",
  "system": {
    "description": {
      "value": "<p><em>Your fiery passion for your faith or philosophy is obvious to everyone around you. Those who share your convictions automatically find themselves wanting to defer to your zealous authority, making you a natural leader of your faith. Unfortunately, your scorn for those who haven&rsquo;t yet seen the wisdom of converting is equally obvious, and makes you a poor ambassador or missionary to the &ldquo;ignorant masses&rdquo; (as you notso- secretly think of them).</em></p><p><strong>Benefits</strong></p><p>You gain a +2 bonus on Diplomacy and Intimidate checks when dealing with adherents of your faith or philosophy, but a &ndash;1 penalty on Diplomacy and Intimidate checks when dealing with anyone else.</p>",
      "unidentified": ""
    },
    "tags": [
      "PFS"
    ],
    "actions": [],
    "uses": {
      "per": null,
      "value": 0,
      "maxFormula": "",
      "autoDeductChargesCost": "1"
    },
    "attackNotes": [],
    "effectNotes": [],
    "changes": [],
    "changeFlags": {
      "loseDexToAC": false,
      "noEncumbrance": false,
      "mediumArmorFullSpeed": false,
      "heavyArmorFullSpeed": false
    },
    "contextNotes": [],
    "links": {
      "children": [],
      "charges": []
    },
    "tag": "adventurousExplorerSongo",
    "useCustomTag": false,
    "armorProf": {
      "value": [],
      "custom": ""
    },
    "weaponProf": {
      "value": [],
      "custom": ""
    },
    "languages": {
      "value": [],
      "custom": ""
    },
    "flags": {
      "boolean": {},
      "dictionary": {}
    },
    "scriptCalls": [],
    "subType": "trait",
    "associations": {
      "classes": []
    },
    "showInQuickbar": false,
    "abilityType": "none",
    "crOffset": "",
    "disabled": false,
    "classSkills": {},
    "traitType": "faith"
  },
  "ownership": {
    "default": 0
  },
  "_stats": {
    "systemId": "pf1",
    "systemVersion": "9.1",
    "coreVersion": "10.291",
    "createdTime": 1665428391494,
    "modifiedTime": 1689797967376,
    "lastModifiedBy": "ppv91YxratjWnkJi"
  },
  "effects": [],
  "folder": "13dReUJWCsEjXV2p",
  "sort": 0,
  "flags": {},
  "_key": "!items!csm9oHlldPZAusJT"
}