{
  "_id": "bC4MB1A6ywBUQIQ6",
  "name": "Acrobatic Spellcaster",
  "type": "feat",
  "img": "systems/pf1/icons/feats/acrobatic.jpg",
  "system": {
    "description": {
      "value": "<em>Your skillful movements prevent foes from disrupting your spells.</em><br/><br/><b>Prerequisites</b><br/>Combat Casting, Skill Focus (Acrobatics).<br/><br/><b>Benefits</b><br/>When you succeed at an Acrobatics check to move through a threatened square without provoking attacks of opportunity or to move through an enemy's space, creatures denied attacks of opportunity by your Acrobatics check also cannot make attacks of opportunity against you when you cast spells for the remainder of your turn.<br/><br/><b>Normal</b><br/>Casting a spell within an enemy's reach provokes attacks of opportunity even after you succeed at an Acrobatics check to move through a threatened square.",
      "unidentified": ""
    },
    "tags": [
      "PFS",
      "Combat"
    ],
    "actions": [],
    "uses": {
      "per": null,
      "value": 0,
      "maxFormula": "",
      "autoDeductChargesCost": "1"
    },
    "attackNotes": [],
    "effectNotes": [],
    "changes": [],
    "changeFlags": {
      "loseDexToAC": false,
      "noEncumbrance": false,
      "mediumArmorFullSpeed": false,
      "heavyArmorFullSpeed": false
    },
    "contextNotes": [],
    "links": {
      "children": [],
      "charges": []
    },
    "tag": "",
    "useCustomTag": false,
    "armorProf": {
      "value": [],
      "custom": ""
    },
    "weaponProf": {
      "value": [],
      "custom": ""
    },
    "languages": {
      "value": [],
      "custom": ""
    },
    "flags": {
      "boolean": {},
      "dictionary": {}
    },
    "scriptCalls": [],
    "subType": "feat",
    "associations": {
      "classes": []
    },
    "showInQuickbar": false,
    "abilityType": "none",
    "crOffset": "",
    "disabled": false,
    "classSkills": {}
  },
  "ownership": {
    "default": 0
  },
  "_stats": {
    "systemId": "pf1",
    "systemVersion": "9.1",
    "coreVersion": "10.291",
    "createdTime": 1665428355645,
    "modifiedTime": 1689797892956,
    "lastModifiedBy": "ppv91YxratjWnkJi"
  },
  "effects": [],
  "folder": null,
  "sort": 0,
  "flags": {},
  "_key": "!items!bC4MB1A6ywBUQIQ6"
}