{
  "_id": "D7Dk6wC8q2JXfrWs",
  "name": "Alien Mindpaths",
  "type": "feat",
  "img": "systems/pf1/icons/spells/link-royal-1.jpg",
  "system": {
    "description": {
      "value": "<em>When you're in the company of other aliens, your thoughts become difficult to follow.</em><br/><br/><b>Prerequisites</b><br/>Android, kasatha, lashunta, or Triaxian.<br/><br/><b>Benefits</b><br/>Whenever you're adjacent to at least one other android, kasatha, lashunta, or Triaxian ally who also has this feat, you gain a +4 circumstance bonus on saves against mind-affecting effects and divination (scrying) effects, unless the effect comes from an android, kasatha, lashunta, or Triaxian.",
      "unidentified": ""
    },
    "tags": [
      "PFS",
      "Teamwork",
      "Racial",
      "Android",
      "Kasatha",
      "Lashunta",
      "Triaxian"
    ],
    "actions": [],
    "uses": {
      "per": null,
      "value": 0,
      "maxFormula": "",
      "autoDeductChargesCost": "1"
    },
    "attackNotes": [],
    "effectNotes": [],
    "changes": [],
    "changeFlags": {
      "loseDexToAC": false,
      "noEncumbrance": false,
      "mediumArmorFullSpeed": false,
      "heavyArmorFullSpeed": false
    },
    "contextNotes": [],
    "links": {
      "children": [],
      "charges": []
    },
    "tag": "",
    "useCustomTag": false,
    "armorProf": {
      "value": [],
      "custom": ""
    },
    "weaponProf": {
      "value": [],
      "custom": ""
    },
    "languages": {
      "value": [],
      "custom": ""
    },
    "flags": {
      "boolean": {},
      "dictionary": {}
    },
    "scriptCalls": [],
    "subType": "feat",
    "associations": {
      "classes": []
    },
    "showInQuickbar": false,
    "abilityType": "none",
    "crOffset": "",
    "disabled": false,
    "classSkills": {}
  },
  "ownership": {
    "default": 0
  },
  "_stats": {
    "systemId": "pf1",
    "systemVersion": "9.1",
    "coreVersion": "10.291",
    "createdTime": 1665428352175,
    "modifiedTime": 1689797879542,
    "lastModifiedBy": "ppv91YxratjWnkJi"
  },
  "effects": [],
  "folder": null,
  "sort": 0,
  "flags": {},
  "_key": "!items!D7Dk6wC8q2JXfrWs"
}