{
  "_id": "luqd0AODfDsBFI4Q",
  "name": "Altitude Affinity",
  "type": "feat",
  "img": "systems/pf1/icons/spells/wind-grasp-air-2.jpg",
  "system": {
    "description": {
      "value": "<em>You have hardened your body against the grueling rigors of surviving at high altitudes.</em><br/><br/><b>Prerequisites</b><br/>Endurance.<br/><br/><b>Benefits</b><br/>You are automatically acclimated at high altitudes (Pathfinder RPG Core Rulebook 430). In addition, you gain a +2 competence bonus on all Survival checks made at altitudes of 5,000 feet or higher.",
      "unidentified": ""
    },
    "tags": [
      "PFS",
      "General"
    ],
    "actions": [],
    "uses": {
      "per": null,
      "value": 0,
      "maxFormula": "",
      "autoDeductChargesCost": "1"
    },
    "attackNotes": [],
    "effectNotes": [],
    "changes": [],
    "changeFlags": {
      "loseDexToAC": false,
      "noEncumbrance": false,
      "mediumArmorFullSpeed": false,
      "heavyArmorFullSpeed": false
    },
    "contextNotes": [],
    "links": {
      "children": [],
      "charges": []
    },
    "tag": "",
    "useCustomTag": false,
    "armorProf": {
      "value": [],
      "custom": ""
    },
    "weaponProf": {
      "value": [],
      "custom": ""
    },
    "languages": {
      "value": [],
      "custom": ""
    },
    "flags": {
      "boolean": {},
      "dictionary": {}
    },
    "scriptCalls": [],
    "subType": "feat",
    "associations": {
      "classes": []
    },
    "showInQuickbar": false,
    "abilityType": "none",
    "crOffset": "",
    "disabled": false,
    "classSkills": {}
  },
  "ownership": {
    "default": 0
  },
  "_stats": {
    "systemId": "pf1",
    "systemVersion": "9.1",
    "coreVersion": "10.291",
    "createdTime": 1665428357425,
    "modifiedTime": 1689797898939,
    "lastModifiedBy": "ppv91YxratjWnkJi"
  },
  "effects": [],
  "folder": null,
  "sort": 0,
  "flags": {},
  "_key": "!items!luqd0AODfDsBFI4Q"
}