{
  "_id": "n2a0E7XdJnezzvju",
  "name": "Ambush Awareness",
  "type": "feat",
  "img": "systems/pf1/icons/feats/alertness.jpg",
  "system": {
    "description": {
      "value": "<em>You are always on your toes and are rarely caught off-guard for long, even when an enemy gets the jump on you.</em><br/><br/><b>Prerequisites</b><br/>Alertness.<br/><br/><b>Benefits</b><br/>If you are unable to act in the surprise round because you failed a Perception check, you can still act on your initiative count in the surprise round, but only to take the total defense action.<br/><br/><b>Normal</b><br/>If you are unable to act in the surprise round because you failed a Perception check, you can't take any actions during the surprise round.<br/><br/><b>Combat Trick</b><br/>You can spend 3 stamina points to grant the benefit of this feat to an adjacent ally. (Dirty Tactics Toolbox 12)",
      "unidentified": ""
    },
    "tags": [
      "PFS",
      "General"
    ],
    "actions": [],
    "uses": {
      "per": null,
      "value": 0,
      "maxFormula": "",
      "autoDeductChargesCost": "1"
    },
    "attackNotes": [],
    "effectNotes": [],
    "changes": [],
    "changeFlags": {
      "loseDexToAC": false,
      "noEncumbrance": false,
      "mediumArmorFullSpeed": false,
      "heavyArmorFullSpeed": false
    },
    "contextNotes": [],
    "links": {
      "children": [],
      "charges": []
    },
    "tag": "",
    "useCustomTag": false,
    "armorProf": {
      "value": [],
      "custom": ""
    },
    "weaponProf": {
      "value": [],
      "custom": ""
    },
    "languages": {
      "value": [],
      "custom": ""
    },
    "flags": {
      "boolean": {},
      "dictionary": {}
    },
    "scriptCalls": [],
    "subType": "feat",
    "associations": {
      "classes": []
    },
    "showInQuickbar": false,
    "abilityType": "none",
    "crOffset": "",
    "disabled": false,
    "classSkills": {}
  },
  "ownership": {
    "default": 0
  },
  "_stats": {
    "systemId": "pf1",
    "systemVersion": "9.1",
    "coreVersion": "10.291",
    "createdTime": 1665428357493,
    "modifiedTime": 1689797899297,
    "lastModifiedBy": "ppv91YxratjWnkJi"
  },
  "effects": [],
  "folder": null,
  "sort": 0,
  "flags": {},
  "_key": "!items!n2a0E7XdJnezzvju"
}