{
  "_id": "UYsqaM9WQEGOJSfU",
  "name": "Ammo Drop",
  "type": "feat",
  "img": "systems/pf1/icons/items/weapons/sling-double.png",
  "system": {
    "description": {
      "value": "<em>Your coordination is so perfect that you can simply drop ammunition from your hand at the exact moment required for it to fall into an open sling as your twirl it around.</em><br/><br/><b>Prerequisites</b><br/>Sleight of Hand 1 rank, proficient with sling.<br/><br/><b>Benefits</b><br/>You can load a sling or one end of a double sling with one hand as a swift action or move action. This does not provoke an attack of opportunity.",
      "unidentified": ""
    },
    "tags": [
      "PFS",
      "Combat"
    ],
    "actions": [],
    "uses": {
      "per": null,
      "value": 0,
      "maxFormula": "",
      "autoDeductChargesCost": "1"
    },
    "attackNotes": [],
    "effectNotes": [],
    "changes": [],
    "changeFlags": {
      "loseDexToAC": false,
      "noEncumbrance": false,
      "mediumArmorFullSpeed": false,
      "heavyArmorFullSpeed": false
    },
    "contextNotes": [],
    "links": {
      "children": [],
      "charges": []
    },
    "tag": "",
    "useCustomTag": false,
    "armorProf": {
      "value": [],
      "custom": ""
    },
    "weaponProf": {
      "value": [],
      "custom": ""
    },
    "languages": {
      "value": [],
      "custom": ""
    },
    "flags": {
      "boolean": {},
      "dictionary": {}
    },
    "scriptCalls": [],
    "subType": "feat",
    "associations": {
      "classes": []
    },
    "showInQuickbar": false,
    "abilityType": "none",
    "crOffset": "",
    "disabled": false,
    "classSkills": {}
  },
  "ownership": {
    "default": 0
  },
  "_stats": {
    "systemId": "pf1",
    "systemVersion": "9.1",
    "coreVersion": "10.291",
    "createdTime": 1665428354928,
    "modifiedTime": 1689797889815,
    "lastModifiedBy": "ppv91YxratjWnkJi"
  },
  "effects": [],
  "folder": null,
  "sort": 0,
  "flags": {},
  "_key": "!items!UYsqaM9WQEGOJSfU"
}