{
  "_id": "jA0H5MRaiOtysx6r",
  "name": "Amplified Radiance",
  "type": "feat",
  "img": "systems/pf1/icons/skills/yellow_13.jpg",
  "system": {
    "description": {
      "value": "<em>The vicinity of another of your kind ignites your inner light into a shining aurora.</em><br/><br/><b>Prerequisites</b><br/>Aasimar, daylight racial spell-like ability.<br/><br/><b>Benefits</b><br/>Whenever you are within 15 feet of an aasimar ally who has both the daylight racial spell-like ability and this feat, you gain an aura of radiance. You and your ally must both have at least one use of your daylight racial spell-like ability available to gain this benefit. This aura functions as per the daylight spell, except that it's a 10-foot-radius emanation centered on you without additional areas of weaker illumination. Creatures within this aura who take penalties in bright light double those penalties. The effects of overlapping auras of radiance don't stack. You can activate or suppress this aura as a swift action.",
      "unidentified": ""
    },
    "tags": [
      "PFS",
      "Teamwork",
      "Racial",
      "Aasimar"
    ],
    "actions": [],
    "uses": {
      "per": null,
      "value": 0,
      "maxFormula": "",
      "autoDeductChargesCost": "1"
    },
    "attackNotes": [],
    "effectNotes": [],
    "changes": [],
    "changeFlags": {
      "loseDexToAC": false,
      "noEncumbrance": false,
      "mediumArmorFullSpeed": false,
      "heavyArmorFullSpeed": false
    },
    "contextNotes": [],
    "links": {
      "children": [],
      "charges": []
    },
    "tag": "",
    "useCustomTag": false,
    "armorProf": {
      "value": [],
      "custom": ""
    },
    "weaponProf": {
      "value": [],
      "custom": ""
    },
    "languages": {
      "value": [],
      "custom": ""
    },
    "flags": {
      "boolean": {},
      "dictionary": {}
    },
    "scriptCalls": [],
    "subType": "feat",
    "associations": {
      "classes": []
    },
    "showInQuickbar": false,
    "abilityType": "none",
    "crOffset": "",
    "disabled": false,
    "classSkills": {}
  },
  "ownership": {
    "default": 0
  },
  "_stats": {
    "systemId": "pf1",
    "systemVersion": "9.1",
    "coreVersion": "10.291",
    "createdTime": 1665428356833,
    "modifiedTime": 1689797896996,
    "lastModifiedBy": "ppv91YxratjWnkJi"
  },
  "effects": [],
  "folder": null,
  "sort": 0,
  "flags": {},
  "_key": "!items!jA0H5MRaiOtysx6r"
}