{
  "_id": "exSxrsQTxIhk6qht",
  "name": "Animal Call",
  "type": "feat",
  "img": "systems/pf1/icons/skills/emerald_05.jpg",
  "system": {
    "description": {
      "value": "<em>You've learn how to replicate a number of animal calls native to wilderness environments.</em><br/><br/><b>Prerequisites</b><br/>Bluff 1 rank, Knowledge (nature) 1 rank.<br/><br/><b>Benefits</b><br/>Pick one of the ranger's favored terrains. You can use your Bluff skill to mimic the calls of animals native to that terrain. Creatures with ranks in Knowledge (nature) can use that skill in place of Sense Motive to detect your mimicry and realize that the sound is false.<br/><br/><b>Special</b><br/>You can take this feat multiple times. Each time you do, select an additional favored terrain to which this feat applies.",
      "unidentified": ""
    },
    "tags": [
      "PFS",
      "General"
    ],
    "actions": [],
    "uses": {
      "per": null,
      "value": 0,
      "maxFormula": "",
      "autoDeductChargesCost": "1"
    },
    "attackNotes": [],
    "effectNotes": [],
    "changes": [],
    "changeFlags": {
      "loseDexToAC": false,
      "noEncumbrance": false,
      "mediumArmorFullSpeed": false,
      "heavyArmorFullSpeed": false
    },
    "contextNotes": [],
    "links": {
      "children": [],
      "charges": []
    },
    "tag": "",
    "useCustomTag": false,
    "armorProf": {
      "value": [],
      "custom": ""
    },
    "weaponProf": {
      "value": [],
      "custom": ""
    },
    "languages": {
      "value": [],
      "custom": ""
    },
    "flags": {
      "boolean": {},
      "dictionary": {}
    },
    "scriptCalls": [],
    "subType": "feat",
    "associations": {
      "classes": []
    },
    "showInQuickbar": false,
    "abilityType": "none",
    "crOffset": "",
    "disabled": false,
    "classSkills": {}
  },
  "ownership": {
    "default": 0
  },
  "_stats": {
    "systemId": "pf1",
    "systemVersion": "9.1",
    "coreVersion": "10.291",
    "createdTime": 1665428356220,
    "modifiedTime": 1689797894913,
    "lastModifiedBy": "ppv91YxratjWnkJi"
  },
  "effects": [],
  "folder": null,
  "sort": 0,
  "flags": {},
  "_key": "!items!exSxrsQTxIhk6qht"
}