{
  "_id": "KGqomQHiJXWehUnv",
  "name": "Animal Affinity",
  "type": "feat",
  "img": "systems/pf1/icons/feats/animal-affinity.jpg",
  "system": {
    "description": {
      "value": "<em>You are skilled at working with animals and mounts.</em><br/><br/><b>Benefits</b><br/>You get a +2 bonus on all Handle Animal and Ride skill checks. If you have 10 or more ranks in one of these skills, the bonus increases to +4 for that skill.",
      "unidentified": ""
    },
    "tags": [
      "PFS",
      "General"
    ],
    "actions": [],
    "uses": {
      "per": null,
      "value": 0,
      "maxFormula": "",
      "autoDeductChargesCost": "1"
    },
    "attackNotes": [],
    "effectNotes": [],
    "changes": [
      {
        "_id": "twf87ij3",
        "formula": "@skills.han.rank >= 10 ? 4 : 2",
        "operator": "add",
        "subTarget": "skill.han",
        "modifier": "untyped",
        "priority": 0,
        "value": 4
      },
      {
        "_id": "6cfv98e5",
        "formula": "@skills.rid.rank >= 10 ? 4 : 2",
        "operator": "add",
        "subTarget": "skill.rid",
        "modifier": "untyped",
        "priority": 0,
        "value": 4
      }
    ],
    "changeFlags": {
      "loseDexToAC": false,
      "noEncumbrance": false,
      "mediumArmorFullSpeed": false,
      "heavyArmorFullSpeed": false
    },
    "contextNotes": [],
    "links": {
      "children": [],
      "charges": []
    },
    "tag": "animalAffinity",
    "useCustomTag": false,
    "armorProf": {
      "value": [],
      "custom": ""
    },
    "weaponProf": {
      "value": [],
      "custom": ""
    },
    "languages": {
      "value": [],
      "custom": ""
    },
    "flags": {
      "boolean": {},
      "dictionary": {}
    },
    "scriptCalls": [],
    "subType": "feat",
    "associations": {
      "classes": []
    },
    "showInQuickbar": false,
    "abilityType": "none",
    "crOffset": "",
    "disabled": false,
    "classSkills": {},
    "auraStrength": 0
  },
  "ownership": {
    "default": 0
  },
  "_stats": {
    "systemId": "pf1",
    "systemVersion": "9.1",
    "coreVersion": "10.291",
    "createdTime": 1665428353384,
    "modifiedTime": 1689797884303,
    "lastModifiedBy": "ppv91YxratjWnkJi"
  },
  "effects": [],
  "folder": null,
  "sort": 0,
  "flags": {},
  "_key": "!items!KGqomQHiJXWehUnv"
}