{
  "_id": "EMxHJaJHiPI5Wwgd",
  "name": "Apotheosis",
  "type": "feat",
  "img": "systems/pf1/icons/feats/alignment-channel.jpg",
  "system": {
    "description": {
      "value": "<p><em>You are marked by fate as a future deity--even before this destiny is realized, fate bends to your will.</em><br /><br /><strong>Prerequisites</strong><br />You must have had direct contact with a deity or godlike being, or have been risen from the dead at the personal behest of a deity or godlike being.<br /><br /><strong>Benefits</strong><br />You gain a +2 bonus on Constitution checks to stabilize while dying. Anytime you or an ally who worships the god that contacted you casts augury or a similar effect, your chance of receiving a meaningful reply is increased by 5% (to a maximum of 95%).</p>\n<p><strong>Goal</strong><br />You must be acknowledged by another divine being (directly or through a representative) as a peer, even if only a minor one.</p>\n<p><strong>Completion Benefit<br /></strong>Once per day as an immediate action, you can cause any die roll made by a creature within 100 feet of you to be rerolled. You choose which result you prefer. You must decide to use this ability after the first roll is made but before the results are revealed by the GM.</p>\n<p>&nbsp;</p>\n<p><strong>Suggested Traits</strong><br/> Called, Fortunate, Inspiring.</p>\n<h2>Possible Apotheosis Quests</h2>\n<p><strong>&nbsp; d8<span style=\"white-space: pre;\"> </span>Quest</strong></p>\n<ol>\n<li>You seek to prove your worth and acquire followers who will exalt you as a living ideal or preeminent martyr, like Kurgess (page 229).</li>\n<li>Omens indicate that if you give all in service to your deity, you will become his demigod servant, much as Hanspur was deified by Gozreh (page 229).</li>\n<li>You believe the mad whispers of those cultists who claim that if one were to travel far enough into the Dark Tapestry, one might tap into the divine power of the Great Old Ones (page 235).</li>\n<li>The Test of the Starstone is among the best-known paths to divinity; you adventure in preparation to take the test yourself and join the ranks of ascended deities (page 39).</li>\n<li>While studying the mysteries of Ancient Osirion, you stumble across clues to the mythic divination that elevated Nethys from mortal king to deity (page 223).</li>\n<li>You challenge yourself in the ways described in Irori&rsquo;s holy book, Unbinding the Fetters, as you seek the mental and physical perfection that will lead you to divinity (page 222).</li>\n<li>By tracking down and confronting one of the legendary titans of Elysium, you hope to unlock the secret to achieving divinity in the celestial realms (page 243).</li>\n<li>You have learned that one of your ancestors was a deity (such as the prolific Cayden Cailean) and you now quest to get his attention and earn a similar station (page 219).</li>\n</ol>\n<p>&nbsp;</p>\n<p>&nbsp;</p>",
      "unidentified": ""
    },
    "tags": [
      "Story"
    ],
    "actions": [],
    "uses": {
      "per": null,
      "value": 0,
      "maxFormula": "",
      "autoDeductChargesCost": "1"
    },
    "attackNotes": [],
    "effectNotes": [],
    "changes": [],
    "changeFlags": {
      "loseDexToAC": false,
      "noEncumbrance": false,
      "mediumArmorFullSpeed": false,
      "heavyArmorFullSpeed": false
    },
    "contextNotes": [],
    "links": {
      "children": [],
      "charges": []
    },
    "tag": "",
    "useCustomTag": false,
    "armorProf": {
      "value": [],
      "custom": ""
    },
    "weaponProf": {
      "value": [],
      "custom": ""
    },
    "languages": {
      "value": [],
      "custom": ""
    },
    "flags": {
      "boolean": {},
      "dictionary": {}
    },
    "scriptCalls": [],
    "subType": "feat",
    "associations": {
      "classes": []
    },
    "showInQuickbar": false,
    "abilityType": "none",
    "crOffset": "",
    "disabled": false,
    "classSkills": {}
  },
  "ownership": {
    "default": 0
  },
  "_stats": {
    "systemId": "pf1",
    "systemVersion": "9.1",
    "coreVersion": "10.291",
    "createdTime": 1665428352553,
    "modifiedTime": 1689797880998,
    "lastModifiedBy": "ppv91YxratjWnkJi"
  },
  "effects": [],
  "folder": null,
  "sort": 0,
  "flags": {},
  "_key": "!items!EMxHJaJHiPI5Wwgd"
}