{
  "_id": "Ta1GLdnipoC2qpCO",
  "name": "Aquadynamic Focus",
  "type": "feat",
  "img": "systems/pf1/icons/skills/blue_36.jpg",
  "system": {
    "description": {
      "value": "<em>Your skill with your chosen weapons is so great that you can use them underwater without impediment.</em><br/><br/><b>Prerequisites</b><br/>Weapon Focus, base attack bonus +1.<br/><br/><b>Benefits</b><br/>You don't take additional penalties on attack and damage rolls for fighting underwater with bludgeoning and slashing melee weapons for which you have taken the Weapon Focus feat.<br/><br/><b>Normal</b><br/>When using bludgeoning and slashing melee weapons underwater, you take a -2 penalty on attack rolls and deal half damage.",
      "unidentified": ""
    },
    "tags": [
      "PFS",
      "Combat"
    ],
    "actions": [],
    "uses": {
      "per": null,
      "value": 0,
      "maxFormula": "",
      "autoDeductChargesCost": "1"
    },
    "attackNotes": [],
    "effectNotes": [],
    "changes": [],
    "changeFlags": {
      "loseDexToAC": false,
      "noEncumbrance": false,
      "mediumArmorFullSpeed": false,
      "heavyArmorFullSpeed": false
    },
    "contextNotes": [],
    "links": {
      "children": [],
      "charges": []
    },
    "tag": "",
    "useCustomTag": false,
    "armorProf": {
      "value": [],
      "custom": ""
    },
    "weaponProf": {
      "value": [],
      "custom": ""
    },
    "languages": {
      "value": [],
      "custom": ""
    },
    "flags": {
      "boolean": {},
      "dictionary": {}
    },
    "scriptCalls": [],
    "subType": "feat",
    "associations": {
      "classes": []
    },
    "showInQuickbar": false,
    "abilityType": "none",
    "crOffset": "",
    "disabled": false,
    "classSkills": {}
  },
  "ownership": {
    "default": 0
  },
  "_stats": {
    "systemId": "pf1",
    "systemVersion": "9.1",
    "coreVersion": "10.291",
    "createdTime": 1665428354577,
    "modifiedTime": 1689797888768,
    "lastModifiedBy": "ppv91YxratjWnkJi"
  },
  "effects": [],
  "folder": null,
  "sort": 0,
  "flags": {},
  "_key": "!items!Ta1GLdnipoC2qpCO"
}