{
  "_id": "5X0iLon184CkZ1sI",
  "name": "Aquadynamic Shot",
  "type": "feat",
  "img": "systems/pf1/icons/skills/emerald_01.jpg",
  "system": {
    "description": {
      "value": "<em>You use projectiles and special trick shots that lose less accuracy when underwater.</em><br/><br/><b>Prerequisites</b><br/>Far Shot, Point-Blank Shot, base attack bonus +4.<br/><br/><b>Benefits</b><br/>Your projectile attacks take a -1 penalty per 5 feet of water between you and the target. You still can't use thrown weapons effectively underwater except in special circumstances (see page 44).<br/><br/><b>Normal</b><br/>Projectile attacks underwater take a -2 penalty per 5 feet of water between the shooter and the target.",
      "unidentified": ""
    },
    "tags": [
      "PFS",
      "Combat"
    ],
    "actions": [],
    "uses": {
      "per": null,
      "value": 0,
      "maxFormula": "",
      "autoDeductChargesCost": "1"
    },
    "attackNotes": [],
    "effectNotes": [],
    "changes": [],
    "changeFlags": {
      "loseDexToAC": false,
      "noEncumbrance": false,
      "mediumArmorFullSpeed": false,
      "heavyArmorFullSpeed": false
    },
    "contextNotes": [],
    "links": {
      "children": [],
      "charges": []
    },
    "tag": "",
    "useCustomTag": false,
    "armorProf": {
      "value": [],
      "custom": ""
    },
    "weaponProf": {
      "value": [],
      "custom": ""
    },
    "languages": {
      "value": [],
      "custom": ""
    },
    "flags": {
      "boolean": {},
      "dictionary": {}
    },
    "scriptCalls": [],
    "subType": "feat",
    "associations": {
      "classes": []
    },
    "showInQuickbar": false,
    "abilityType": "none",
    "crOffset": "",
    "disabled": false,
    "classSkills": {}
  },
  "ownership": {
    "default": 0
  },
  "_stats": {
    "systemId": "pf1",
    "systemVersion": "9.1",
    "coreVersion": "10.291",
    "createdTime": 1665428351254,
    "modifiedTime": 1689797876295,
    "lastModifiedBy": "ppv91YxratjWnkJi"
  },
  "effects": [],
  "folder": null,
  "sort": 0,
  "flags": {},
  "_key": "!items!5X0iLon184CkZ1sI"
}