{
  "_id": "8XOqxvhecIx8r5ST",
  "name": "Arcane Armor Mastery",
  "type": "feat",
  "img": "systems/pf1/icons/feats/arcane-armor-mastery.jpg",
  "system": {
    "description": {
      "value": "<p><em>You have mastered the ability to cast spells while wearing armor.</em><br /><br /><strong>Prerequisites</strong><br />Arcane Armor Training, Medium Armor Proficiency, caster level 7th.<br /><br /><strong>Benefits</strong><br />As a swift action, reduce the arcane spell failure chance due to the armor you are wearing by 20% for any spells you cast this round. This bonus replaces, and does not stack with, the bonus granted by Arcane Armor Training.<br /><br /><strong>Combat Trick</strong><br />When casting a spell while wearing armor, you can spend 1 stamina point to activate Arcane Armor Mastery as a free action, or spend a number of stamina points equal to the spell's level (minimum 1) to ignore your armor's arcane spell failure chance entirely for that casting.</p>",
      "unidentified": ""
    },
    "tags": [
      "PFS",
      "Combat"
    ],
    "actions": [],
    "uses": {
      "per": null,
      "value": 0,
      "maxFormula": "",
      "autoDeductChargesCost": "1"
    },
    "attackNotes": [],
    "effectNotes": [],
    "changes": [],
    "changeFlags": {
      "loseDexToAC": false,
      "noEncumbrance": false,
      "mediumArmorFullSpeed": false,
      "heavyArmorFullSpeed": false
    },
    "contextNotes": [
      {
        "subTarget": "spellEffect",
        "text": "Arcane Armor Mastery: [[-20]]% arcane spell failure. This bonus replaces Arcane Armor Training."
      }
    ],
    "links": {
      "children": [],
      "charges": []
    },
    "tag": "arcaneArmorMastery",
    "useCustomTag": false,
    "armorProf": {
      "value": [],
      "custom": ""
    },
    "weaponProf": {
      "value": [],
      "custom": ""
    },
    "languages": {
      "value": [],
      "custom": ""
    },
    "flags": {
      "boolean": {},
      "dictionary": {}
    },
    "scriptCalls": [],
    "subType": "feat",
    "associations": {
      "classes": []
    },
    "showInQuickbar": false,
    "abilityType": "none",
    "crOffset": "",
    "disabled": false,
    "classSkills": {},
    "auraStrength": 0
  },
  "ownership": {
    "default": 0
  },
  "_stats": {
    "systemId": "pf1",
    "systemVersion": "9.1",
    "coreVersion": "10.291",
    "createdTime": 1665428351575,
    "modifiedTime": 1689797877459,
    "lastModifiedBy": "ppv91YxratjWnkJi"
  },
  "effects": [],
  "folder": null,
  "sort": 0,
  "flags": {},
  "_key": "!items!8XOqxvhecIx8r5ST"
}