{
  "_id": "iPPRGhSLfR5LUGUp",
  "name": "Arcane Trap Suppressor",
  "type": "feat",
  "img": "systems/pf1/icons/skills/emerald_09.jpg",
  "system": {
    "description": {
      "value": "<em>Your magic can suppress magic traps longer than usual.</em><br/><br/><b>Prerequisites</b><br/>Ability to cast dispel magic or greater dispel magic as a spell or spell-like ability.<br/><br/><b>Benefits</b><br/>When you target a magic trap with dispel magic or greater dispel magic, if your caster level check exceeds the Disable Device DC of the trap, the trap is disabled for 1d4 minutes.<br/><br/><b>Normal</b><br/>Dispel magic suppresses an item's magical properties for 1d4 rounds.",
      "unidentified": ""
    },
    "tags": [
      "PFS",
      "General"
    ],
    "actions": [],
    "uses": {
      "per": null,
      "value": 0,
      "maxFormula": "",
      "autoDeductChargesCost": "1"
    },
    "attackNotes": [],
    "effectNotes": [],
    "changes": [],
    "changeFlags": {
      "loseDexToAC": false,
      "noEncumbrance": false,
      "mediumArmorFullSpeed": false,
      "heavyArmorFullSpeed": false
    },
    "contextNotes": [],
    "links": {
      "children": [],
      "charges": []
    },
    "tag": "",
    "useCustomTag": false,
    "armorProf": {
      "value": [],
      "custom": ""
    },
    "weaponProf": {
      "value": [],
      "custom": ""
    },
    "languages": {
      "value": [],
      "custom": ""
    },
    "flags": {
      "boolean": {},
      "dictionary": {}
    },
    "scriptCalls": [],
    "subType": "feat",
    "associations": {
      "classes": []
    },
    "showInQuickbar": false,
    "abilityType": "none",
    "crOffset": "",
    "disabled": false,
    "classSkills": {}
  },
  "ownership": {
    "default": 0
  },
  "_stats": {
    "systemId": "pf1",
    "systemVersion": "9.1",
    "coreVersion": "10.291",
    "createdTime": 1665428356786,
    "modifiedTime": 1689797896701,
    "lastModifiedBy": "ppv91YxratjWnkJi"
  },
  "effects": [],
  "folder": null,
  "sort": 0,
  "flags": {},
  "_key": "!items!iPPRGhSLfR5LUGUp"
}