{
  "_id": "C21z5LlIXxmH1CPq",
  "name": "Arming Grab",
  "type": "feat",
  "img": "systems/pf1/icons/skills/red_05.jpg",
  "system": {
    "description": {
      "value": "<em>Opponents would be foolish to underestimate you, even if you appear unarmed and helpless. You are practiced at turning the tables on armed foes and using their own weapons against them.</em><br/><br/><b>Prerequisites</b><br/>Int 13, Catch Off-Guard, Combat Expertise, Improved Disarm.<br/><br/><b>Benefits</b><br/>You take no penalty on your attack roll when attempting to disarm an opponent while you are unarmed. If you succeed at a disarm attempt without using a weapon and choose to pick up the disarmed weapon, you can attack with that weapon as though you were proficient with it until the end of your next turn. If you are already proficient with that type of weapon, you gain a +2 morale bonus to your attack rolls with that weapon until the end of your next turn.<br/><br/><b>Normal</b><br/>Attempting to disarm a foe while unarmed imposes a -4 penalty on the attack.",
      "unidentified": ""
    },
    "tags": [
      "PFS",
      "Combat"
    ],
    "actions": [],
    "uses": {
      "per": null,
      "value": 0,
      "maxFormula": "",
      "autoDeductChargesCost": "1"
    },
    "attackNotes": [],
    "effectNotes": [],
    "changes": [],
    "changeFlags": {
      "loseDexToAC": false,
      "noEncumbrance": false,
      "mediumArmorFullSpeed": false,
      "heavyArmorFullSpeed": false
    },
    "contextNotes": [],
    "links": {
      "children": [],
      "charges": []
    },
    "tag": "",
    "useCustomTag": false,
    "armorProf": {
      "value": [],
      "custom": ""
    },
    "weaponProf": {
      "value": [],
      "custom": ""
    },
    "languages": {
      "value": [],
      "custom": ""
    },
    "flags": {
      "boolean": {},
      "dictionary": {}
    },
    "scriptCalls": [],
    "subType": "feat",
    "associations": {
      "classes": []
    },
    "showInQuickbar": false,
    "abilityType": "none",
    "crOffset": "",
    "disabled": false,
    "classSkills": {}
  },
  "ownership": {
    "default": 0
  },
  "_stats": {
    "systemId": "pf1",
    "systemVersion": "9.1",
    "coreVersion": "10.291",
    "createdTime": 1665428352103,
    "modifiedTime": 1689797879155,
    "lastModifiedBy": "ppv91YxratjWnkJi"
  },
  "effects": [],
  "folder": null,
  "sort": 0,
  "flags": {},
  "_key": "!items!C21z5LlIXxmH1CPq"
}