{
  "_id": "k58vl7VmOMWiFEjl",
  "name": "Armor Adept",
  "type": "feat",
  "img": "systems/pf1/icons/items/armor/fortress-plate.PNG",
  "system": {
    "description": {
      "value": "<em>You are skilled at using customized armor.</em><br/><br/><b>Benefits</b><br/>Choose two armor modifications (such as deflecting or jarring). You no longer suffer the drawbacks of wearing armor with those modifications.<br/><br/><b>Normal</b><br/>Each type of armor modification imparts a drawback on a wearer.<br/><br/><b>Special</b><br/>You can gain this feat multiple times, choosing two different armor modifications each time.",
      "unidentified": ""
    },
    "tags": [
      "PFS",
      "Combat"
    ],
    "actions": [],
    "uses": {
      "per": null,
      "value": 0,
      "maxFormula": "",
      "autoDeductChargesCost": "1"
    },
    "attackNotes": [],
    "effectNotes": [],
    "changes": [],
    "changeFlags": {
      "loseDexToAC": false,
      "noEncumbrance": false,
      "mediumArmorFullSpeed": false,
      "heavyArmorFullSpeed": false
    },
    "contextNotes": [],
    "links": {
      "children": [],
      "charges": []
    },
    "tag": "",
    "useCustomTag": false,
    "armorProf": {
      "value": [],
      "custom": ""
    },
    "weaponProf": {
      "value": [],
      "custom": ""
    },
    "languages": {
      "value": [],
      "custom": ""
    },
    "flags": {
      "boolean": {},
      "dictionary": {}
    },
    "scriptCalls": [],
    "subType": "feat",
    "associations": {
      "classes": []
    },
    "showInQuickbar": false,
    "abilityType": "none",
    "crOffset": "",
    "disabled": false,
    "classSkills": {}
  },
  "ownership": {
    "default": 0
  },
  "_stats": {
    "systemId": "pf1",
    "systemVersion": "9.1",
    "coreVersion": "10.291",
    "createdTime": 1665428356887,
    "modifiedTime": 1689797897385,
    "lastModifiedBy": "ppv91YxratjWnkJi"
  },
  "effects": [],
  "folder": null,
  "sort": 0,
  "flags": {},
  "_key": "!items!k58vl7VmOMWiFEjl"
}