{
  "_id": "lpvWukLlgo24EMGv",
  "name": "Armor Proficiency, Medium",
  "type": "feat",
  "img": "systems/pf1/icons/feats/armor-proficiency-medium.png",
  "system": {
    "description": {
      "value": "<em>You are skilled at wearing medium armor.</em><br/><br/><b>Prerequisites</b><br/>Light Armor Proficiency.<br/><br/><b>Benefits</b><br/>See Armor Proficiency, Light.<br/><br/><b>Normal</b><br/>See Armor Proficiency, Light.<br/><br/><b>Special</b><br/>Barbarians, clerics, druids, fighters, paladins, and rangers automatically have Medium Armor Proficiency as a bonus feat. They need not select it.",
      "unidentified": ""
    },
    "tags": [
      "PFS",
      "Combat"
    ],
    "actions": [],
    "uses": {
      "per": null,
      "value": 0,
      "maxFormula": "",
      "autoDeductChargesCost": "1"
    },
    "attackNotes": [],
    "effectNotes": [],
    "changes": [],
    "changeFlags": {
      "loseDexToAC": false,
      "noEncumbrance": false,
      "mediumArmorFullSpeed": false,
      "heavyArmorFullSpeed": false
    },
    "contextNotes": [],
    "links": {
      "children": [],
      "charges": []
    },
    "tag": "armorProficiencyMedium",
    "useCustomTag": false,
    "armorProf": {
      "value": [
        "med"
      ],
      "custom": ""
    },
    "weaponProf": {
      "value": [],
      "custom": ""
    },
    "languages": {
      "value": [],
      "custom": ""
    },
    "flags": {
      "boolean": {},
      "dictionary": {}
    },
    "scriptCalls": [],
    "subType": "feat",
    "associations": {
      "classes": []
    },
    "showInQuickbar": false,
    "abilityType": "none",
    "crOffset": "",
    "disabled": false,
    "classSkills": {},
    "auraStrength": 0
  },
  "ownership": {
    "default": 0
  },
  "_stats": {
    "systemId": "pf1",
    "systemVersion": "9.1",
    "coreVersion": "10.291",
    "createdTime": 1665428357420,
    "modifiedTime": 1689797898904,
    "lastModifiedBy": "ppv91YxratjWnkJi"
  },
  "effects": [],
  "folder": null,
  "sort": 0,
  "flags": {},
  "_key": "!items!lpvWukLlgo24EMGv"
}