{
  "_id": "WONOffiRAPS2vErv",
  "name": "Ascetic Style",
  "type": "feat",
  "img": "systems/pf1/icons/skills/red_05.jpg",
  "system": {
    "description": {
      "value": "<em>You blend arms and martial arts, using weapons with the same ease as unarmed strikes.</em><br/><br/><b>Prerequisites</b><br/>Weapon Focus with the chosen melee weapon; base attack bonus +1 or monk level 1st.<br/><br/><b>Benefits</b><br/>Choose one weapon from the monk fighter weapon group. While using this style and wielding the chosen weapon, you can apply the effects of feats that have Improved Unarmed Strike as a prerequisite, as well as effects that augment an unarmed strike, as if attacks with the weapon were unarmed attacks.",
      "unidentified": ""
    },
    "tags": [
      "Combat",
      "Style"
    ],
    "actions": [],
    "uses": {
      "per": null,
      "value": 0,
      "maxFormula": "",
      "autoDeductChargesCost": "1"
    },
    "attackNotes": [],
    "effectNotes": [],
    "changes": [],
    "changeFlags": {
      "loseDexToAC": false,
      "noEncumbrance": false,
      "mediumArmorFullSpeed": false,
      "heavyArmorFullSpeed": false
    },
    "contextNotes": [],
    "links": {
      "children": [],
      "charges": []
    },
    "tag": "",
    "useCustomTag": false,
    "armorProf": {
      "value": [],
      "custom": ""
    },
    "weaponProf": {
      "value": [],
      "custom": ""
    },
    "languages": {
      "value": [],
      "custom": ""
    },
    "flags": {
      "boolean": {},
      "dictionary": {}
    },
    "scriptCalls": [],
    "subType": "feat",
    "associations": {
      "classes": []
    },
    "showInQuickbar": false,
    "abilityType": "none",
    "crOffset": "",
    "disabled": false,
    "classSkills": {}
  },
  "ownership": {
    "default": 0
  },
  "_stats": {
    "systemId": "pf1",
    "systemVersion": "9.1",
    "coreVersion": "10.291",
    "createdTime": 1665428355044,
    "modifiedTime": 1689797890470,
    "lastModifiedBy": "ppv91YxratjWnkJi"
  },
  "effects": [],
  "folder": null,
  "sort": 0,
  "flags": {},
  "_key": "!items!WONOffiRAPS2vErv"
}