{
  "_id": "BQz1tSIvJDc4GJKV",
  "name": "Ascetic Form",
  "type": "feat",
  "img": "systems/pf1/icons/skills/blue_23.jpg",
  "system": {
    "description": {
      "value": "<em>You have mastered the ability to blend the use of arms with martial arts.</em><br/><br/><b>Prerequisites</b><br/>Ascetic Style; Weapon Focus with the chosen melee weapon; base attack bonus +5 or monk level 5th.<br/><br/><b>Benefits</b><br/>You can use the chosen melee weapon with any class ability that can be used with an unarmed strike, such as an unchained monk's style strike ability. In addition, you are treated as a monk with a level equal to your character level for the purpose of determining the number of times per day that you can use feats with uses per day that depend upon your monk level, such as the Stunning Fist or Perfect Strike feats.",
      "unidentified": ""
    },
    "tags": [
      "Combat"
    ],
    "actions": [],
    "uses": {
      "per": null,
      "value": 0,
      "maxFormula": "",
      "autoDeductChargesCost": "1"
    },
    "attackNotes": [],
    "effectNotes": [],
    "changes": [],
    "changeFlags": {
      "loseDexToAC": false,
      "noEncumbrance": false,
      "mediumArmorFullSpeed": false,
      "heavyArmorFullSpeed": false
    },
    "contextNotes": [],
    "links": {
      "children": [],
      "charges": []
    },
    "tag": "",
    "useCustomTag": false,
    "armorProf": {
      "value": [],
      "custom": ""
    },
    "weaponProf": {
      "value": [],
      "custom": ""
    },
    "languages": {
      "value": [],
      "custom": ""
    },
    "flags": {
      "boolean": {},
      "dictionary": {}
    },
    "scriptCalls": [],
    "subType": "feat",
    "associations": {
      "classes": []
    },
    "showInQuickbar": false,
    "abilityType": "none",
    "crOffset": "",
    "disabled": false,
    "classSkills": {}
  },
  "ownership": {
    "default": 0
  },
  "_stats": {
    "systemId": "pf1",
    "systemVersion": "9.1",
    "coreVersion": "10.291",
    "createdTime": 1665428352071,
    "modifiedTime": 1689797878982,
    "lastModifiedBy": "ppv91YxratjWnkJi"
  },
  "effects": [],
  "folder": null,
  "sort": 0,
  "flags": {},
  "_key": "!items!BQz1tSIvJDc4GJKV"
}