{
  "_id": "TR0lX92mqnPzb3sN",
  "name": "Aspect of the Beast",
  "type": "feat",
  "img": "systems/pf1/icons/skills/beast_01.jpg",
  "system": {
    "description": {
      "value": "<p><em>Whether by magic or a curse of your blood, some part of you is more beast than man.</em><br /><br /><strong>Prerequisites</strong><br />wild shape class feature, see Special.<br /><br /><strong>Benefits</strong><br />Your bestial nature manifests itself in one of the following ways. You choose the manifestation when you choose the feat, and then you cannot change it.</p>\n<hr />\n<p><strong>Night Senses (Ex)</strong><br />If your base race has normal vision, you gain low-light vision. If your base race has low-light vision, you gain darkvision out to a range of 30 feet. If your base race has darkvision, the range of your darkvision increases by 30 feet.</p>\n<p><br /><strong>Claws of the Beast (Ex)</strong><br />You grow a pair of claws. These claws are primary attacks that deal 1d4 points of damage (1d3 if you are Small). <br /><br /><strong>Predator's Leap (Ex)</strong><br />You can make a running jump without needing to run 10 feet before you jump.<br /><br /><strong>Wild Instinct (Ex)</strong><br />You gain a +2 bonus on initiative checks and a +2 bonus on Survival skill checks.</p>\n<hr />\n<p><strong>Special</strong><br />A character that has contracted lycanthropy can take this feat without having to meet the prerequisites. A ranger who selects the natural weapon combat style can take this feat without having to meet the prerequisites (even if he does not select Aspect of the Beast as a bonus feat).</p>",
      "unidentified": ""
    },
    "tags": [
      "PFS",
      "General"
    ],
    "actions": [],
    "uses": {
      "per": null,
      "value": 0,
      "maxFormula": "",
      "autoDeductChargesCost": "1"
    },
    "attackNotes": [],
    "effectNotes": [],
    "changes": [],
    "changeFlags": {
      "loseDexToAC": false,
      "noEncumbrance": false,
      "mediumArmorFullSpeed": false,
      "heavyArmorFullSpeed": false
    },
    "contextNotes": [],
    "links": {
      "children": [],
      "charges": []
    },
    "tag": "",
    "useCustomTag": false,
    "armorProf": {
      "value": [],
      "custom": ""
    },
    "weaponProf": {
      "value": [],
      "custom": ""
    },
    "languages": {
      "value": [],
      "custom": ""
    },
    "flags": {
      "boolean": {},
      "dictionary": {}
    },
    "scriptCalls": [],
    "subType": "feat",
    "associations": {
      "classes": []
    },
    "showInQuickbar": false,
    "abilityType": "none",
    "crOffset": "",
    "disabled": false,
    "classSkills": {}
  },
  "ownership": {
    "default": 0
  },
  "_stats": {
    "systemId": "pf1",
    "systemVersion": "9.1",
    "coreVersion": "10.291",
    "createdTime": 1665428354570,
    "modifiedTime": 1689797888720,
    "lastModifiedBy": "ppv91YxratjWnkJi"
  },
  "effects": [],
  "folder": null,
  "sort": 0,
  "flags": {},
  "_key": "!items!TR0lX92mqnPzb3sN"
}