{
  "_id": "Pu84yvFrs9Ww58lT",
  "name": "Asura Style",
  "type": "feat",
  "img": "systems/pf1/icons/skills/weapon_31.jpg",
  "system": {
    "description": {
      "value": "<em>Blasphemy comes quite naturally to you. When you interrupt your foes' divine spells, you use words, symbols, or gestures so abhorrent to their faith that they are repulsed by your deeds.</em><br/><br/><b>Prerequisites</b><br/>Wis 13, Improved Unarmed Strike, base attack bonus +5 or monk level 5th.<br/><br/><b>Benefits</b><br/>When you use a monk weapon or unarmed strike to attack a creature that is casting a divine spell, the target is sickened for 1d4 rounds. A target can attempt a Fortitude save (DC = 10 + half your character level + your Wisdom modifier) to reduce the duration of the sickened effect to 1 round.",
      "unidentified": ""
    },
    "tags": [
      "PFS",
      "Combat",
      "Style"
    ],
    "actions": [],
    "uses": {
      "per": null,
      "value": 0,
      "maxFormula": "",
      "autoDeductChargesCost": "1"
    },
    "attackNotes": [],
    "effectNotes": [],
    "changes": [],
    "changeFlags": {
      "loseDexToAC": false,
      "noEncumbrance": false,
      "mediumArmorFullSpeed": false,
      "heavyArmorFullSpeed": false
    },
    "contextNotes": [],
    "links": {
      "children": [],
      "charges": []
    },
    "tag": "",
    "useCustomTag": false,
    "armorProf": {
      "value": [],
      "custom": ""
    },
    "weaponProf": {
      "value": [],
      "custom": ""
    },
    "languages": {
      "value": [],
      "custom": ""
    },
    "flags": {
      "boolean": {},
      "dictionary": {}
    },
    "scriptCalls": [],
    "subType": "feat",
    "associations": {
      "classes": []
    },
    "showInQuickbar": false,
    "abilityType": "none",
    "crOffset": "",
    "disabled": false,
    "classSkills": {}
  },
  "ownership": {
    "default": 0
  },
  "_stats": {
    "systemId": "pf1",
    "systemVersion": "9.1",
    "coreVersion": "10.291",
    "createdTime": 1665428354346,
    "modifiedTime": 1689797887180,
    "lastModifiedBy": "ppv91YxratjWnkJi"
  },
  "effects": [],
  "folder": null,
  "sort": 0,
  "flags": {},
  "_key": "!items!Pu84yvFrs9Ww58lT"
}