{
  "_id": "fckcTrSaQ5mpDXsR",
  "name": "Auspicious Birth",
  "type": "feat",
  "img": "systems/pf1/icons/spells/runes-royal-3.jpg",
  "system": {
    "description": {
      "value": "<p><em>You were born under favorable astrological conditions, such as during a celestial conjunction.</em><br /><br /><strong>Prerequisites</strong><br />Must be taken at 1st level.<br /><br /><strong>Benefits</strong><br />Choose one of the following benefits based on the astrological event that occurred during your birth.<br />Apparent Retrograde: You gain a +1 luck bonus on Reflex saves. A natural 1 on a Reflex save is not considered an automatic failure for you.</p>\n<hr />\n<p><strong>Conjunction</strong><br />When benefiting from a teamwork feat, increase the bonus you and your allies receive from that feat by 1, if any.<br /><br /><strong>Eclipse<br /></strong>When benefiting from soft cover from an attack or effect, you are treated as if benefiting from hard cover instead. You cannot use this ability to use soft cover for Stealth checks.<br /><br /><strong>Meteor Shower</strong><br />You receive a cumulative +1 dodge bonus to AC against ranged attacks for each ranged attack beyond the first made against you in a single round, up to a maximum of +4. This bonus lasts until the beginning of your next turn.<br /><br /><strong>Passing Comet</strong><br />You gain a +2 insight bonus on skill checks used with an occult skill unlock (Pathfinder RPG Occult Adventures 194-197).<br /><br /><strong>Sun Sign</strong><br />Your spells and spell-like abilities with the light descriptor are treated as if they were 1 spell level higher for determining spell save DCs. The level of spell with the darkness descriptor that they can counter or dispel also increases by 1.</p>",
      "unidentified": ""
    },
    "tags": [
      "PFS",
      "General"
    ],
    "actions": [],
    "uses": {
      "per": null,
      "value": 0,
      "maxFormula": "",
      "autoDeductChargesCost": "1"
    },
    "attackNotes": [],
    "effectNotes": [],
    "changes": [],
    "changeFlags": {
      "loseDexToAC": false,
      "noEncumbrance": false,
      "mediumArmorFullSpeed": false,
      "heavyArmorFullSpeed": false
    },
    "contextNotes": [],
    "links": {
      "children": [],
      "charges": []
    },
    "tag": "",
    "useCustomTag": false,
    "armorProf": {
      "value": [],
      "custom": ""
    },
    "weaponProf": {
      "value": [],
      "custom": ""
    },
    "languages": {
      "value": [],
      "custom": ""
    },
    "flags": {
      "boolean": {},
      "dictionary": {}
    },
    "scriptCalls": [],
    "subType": "feat",
    "associations": {
      "classes": []
    },
    "showInQuickbar": false,
    "abilityType": "none",
    "crOffset": "",
    "disabled": false,
    "classSkills": {}
  },
  "ownership": {
    "default": 0
  },
  "_stats": {
    "systemId": "pf1",
    "systemVersion": "9.1",
    "coreVersion": "10.291",
    "createdTime": 1665428356273,
    "modifiedTime": 1689797895138,
    "lastModifiedBy": "ppv91YxratjWnkJi"
  },
  "effects": [],
  "folder": null,
  "sort": 0,
  "flags": {},
  "_key": "!items!fckcTrSaQ5mpDXsR"
}