{
  "_id": "gynj6DcyIRh2bFQX",
  "name": "Axiomatic Discourse",
  "type": "feat",
  "img": "systems/pf1/icons/skills/light_07.jpg",
  "system": {
    "description": {
      "value": "<p><em>You take inspiration from the greatest debaters and speakers of Axis and weave words with precision, limiting misunderstandings and sharpening comprehension.</em><br /><br /><strong>Prerequisites</strong><br />Diplomacy 3 ranks, Knowledge (planes) 3 ranks.<br /><br /><strong>Benefits</strong><br />You can activate this feat's benefits as part of a Diplomacy check to influence a creature's attitude (before determining the outcome). If you fail the Diplomacy check, the target's attitude towards you does not decrease unless you fail the check by 10 or more. Also, you can attempt a Diplomacy check to influence creatures that do not understand your language, but you take a -4 penalty on the check.<br /><br />Once per day for every 5 ranks you have in Knowledge (planes), you can attempt a Diplomacy check twice and take the better result.</p>",
      "unidentified": ""
    },
    "tags": [
      "PFS",
      "Conduit"
    ],
    "actions": [],
    "uses": {
      "per": null,
      "value": 0,
      "maxFormula": "",
      "autoDeductChargesCost": "1"
    },
    "attackNotes": [],
    "effectNotes": [],
    "changes": [],
    "changeFlags": {
      "loseDexToAC": false,
      "noEncumbrance": false,
      "mediumArmorFullSpeed": false,
      "heavyArmorFullSpeed": false
    },
    "contextNotes": [],
    "links": {
      "children": [],
      "charges": []
    },
    "tag": "",
    "useCustomTag": false,
    "armorProf": {
      "value": [],
      "custom": ""
    },
    "weaponProf": {
      "value": [],
      "custom": ""
    },
    "languages": {
      "value": [],
      "custom": ""
    },
    "flags": {
      "boolean": {},
      "dictionary": {}
    },
    "scriptCalls": [],
    "subType": "feat",
    "associations": {
      "classes": []
    },
    "showInQuickbar": false,
    "abilityType": "none",
    "crOffset": "",
    "disabled": false,
    "classSkills": {}
  },
  "ownership": {
    "default": 0
  },
  "_stats": {
    "systemId": "pf1",
    "systemVersion": "9.1",
    "coreVersion": "10.291",
    "createdTime": 1665428356685,
    "modifiedTime": 1689797896086,
    "lastModifiedBy": "ppv91YxratjWnkJi"
  },
  "effects": [],
  "folder": null,
  "sort": 0,
  "flags": {},
  "_key": "!items!gynj6DcyIRh2bFQX"
}