{
  "_id": "GT15HcCVnR4eb4g5",
  "name": "Bag of Bones",
  "type": "feat",
  "img": "systems/pf1/icons/skills/emerald_04.jpg",
  "system": {
    "description": {
      "value": "<em>Your undead form ignores the limits of mortal physiology.</em><br/><br/><b>Prerequisites</b><br/>Ghoul.<br/><br/><b>Benefits</b><br/>You are treated as one size smaller for the purpose of calculating penalties for squeezing, and gain a +5 competence bonus on Escape Artist checks. If you possess 10 or more Hit Dice, this bonus increases to +4.",
      "unidentified": ""
    },
    "tags": [
      "Racial",
      "Ghoul"
    ],
    "actions": [],
    "uses": {
      "per": null,
      "value": 0,
      "maxFormula": "",
      "autoDeductChargesCost": "1"
    },
    "attackNotes": [],
    "effectNotes": [],
    "changes": [],
    "changeFlags": {
      "loseDexToAC": false,
      "noEncumbrance": false,
      "mediumArmorFullSpeed": false,
      "heavyArmorFullSpeed": false
    },
    "contextNotes": [],
    "links": {
      "children": [],
      "charges": []
    },
    "tag": "",
    "useCustomTag": false,
    "armorProf": {
      "value": [],
      "custom": ""
    },
    "weaponProf": {
      "value": [],
      "custom": ""
    },
    "languages": {
      "value": [],
      "custom": ""
    },
    "flags": {
      "boolean": {},
      "dictionary": {}
    },
    "scriptCalls": [],
    "subType": "feat",
    "associations": {
      "classes": []
    },
    "showInQuickbar": false,
    "abilityType": "none",
    "crOffset": "",
    "disabled": false,
    "classSkills": {}
  },
  "ownership": {
    "default": 0
  },
  "_stats": {
    "systemId": "pf1",
    "systemVersion": "9.1",
    "coreVersion": "10.291",
    "createdTime": 1665428352761,
    "modifiedTime": 1689797882456,
    "lastModifiedBy": "ppv91YxratjWnkJi"
  },
  "effects": [],
  "folder": null,
  "sort": 0,
  "flags": {},
  "_key": "!items!GT15HcCVnR4eb4g5"
}