{
  "_id": "U3OOzQ6h1kt096wI",
  "name": "Barracuda Style",
  "type": "feat",
  "img": "icons/environment/creatures/fish-spotted-blue-grey.webp",
  "system": {
    "description": {
      "value": "<em>You study a combat style consisting of fluid, circular motions suited for moving and fighting underwater.</em><br/><br/><b>Prerequisites</b><br/>Wis 13, Improved Unarmed Strike, Acrobatics 3 ranks, Swim 3 ranks.<br/><br/><b>Benefits</b><br/>Your unarmed strikes deal normal damage underwater, and you don't take penalties on attack rolls with unarmed strikes made underwater. You add your Wisdom modifier in addition to your Strength modifier on Swim checks.<br/><br/><b>Normal</b><br/>Attacks with bludgeoning weapons (such as unarmed strikes) deal half damage and take a -2 penalty on attack rolls underwater.",
      "unidentified": ""
    },
    "tags": [
      "PFS",
      "Combat",
      "Style"
    ],
    "actions": [],
    "uses": {
      "per": null,
      "value": 0,
      "maxFormula": "",
      "autoDeductChargesCost": "1"
    },
    "attackNotes": [],
    "effectNotes": [],
    "changes": [],
    "changeFlags": {
      "loseDexToAC": false,
      "noEncumbrance": false,
      "mediumArmorFullSpeed": false,
      "heavyArmorFullSpeed": false
    },
    "contextNotes": [],
    "links": {
      "children": [],
      "charges": []
    },
    "tag": "",
    "useCustomTag": false,
    "armorProf": {
      "value": [],
      "custom": ""
    },
    "weaponProf": {
      "value": [],
      "custom": ""
    },
    "languages": {
      "value": [],
      "custom": ""
    },
    "flags": {
      "boolean": {},
      "dictionary": {}
    },
    "scriptCalls": [],
    "subType": "feat",
    "associations": {
      "classes": []
    },
    "showInQuickbar": false,
    "abilityType": "none",
    "crOffset": "",
    "disabled": false,
    "classSkills": {}
  },
  "ownership": {
    "default": 0
  },
  "_stats": {
    "systemId": "pf1",
    "systemVersion": "9.1",
    "coreVersion": "10.291",
    "createdTime": 1665428354601,
    "modifiedTime": 1689797888876,
    "lastModifiedBy": "ppv91YxratjWnkJi"
  },
  "effects": [],
  "folder": null,
  "sort": 0,
  "flags": {},
  "_key": "!items!U3OOzQ6h1kt096wI"
}