{
  "_id": "rtZhpqhsUk8IMNi9",
  "name": "Battering Ram",
  "type": "feat",
  "img": "icons/weapons/guns/gun-pistol-brass.webp",
  "system": {
    "description": {
      "value": "<em>Sometimes smacking your firearm against a solid surface is all that's needed to unjam it. Sometimes that solid surface is a creature.</em><br/><br/><b>Prerequisites</b><br/>Craft (alchemy) 3 ranks; grit class feature or Amateur Gunslinger; pistol-whip gunslinger deed; quick clear gunslinger deed.<br/><br/><b>Benefits</b><br/>You can ignore the broken condition of a firearm you're wielding to perform the pistol-whip deed. If you hit a creature with this deed, you can spend 1 grit point as an immediate action to remove the broken condition from the firearm, but only if the firearm gained that condition from a misfire.",
      "unidentified": ""
    },
    "tags": [
      "PFS",
      "Grit"
    ],
    "actions": [],
    "uses": {
      "per": null,
      "value": 0,
      "maxFormula": "",
      "autoDeductChargesCost": "1"
    },
    "attackNotes": [],
    "effectNotes": [],
    "changes": [],
    "changeFlags": {
      "loseDexToAC": false,
      "noEncumbrance": false,
      "mediumArmorFullSpeed": false,
      "heavyArmorFullSpeed": false
    },
    "contextNotes": [],
    "links": {
      "children": [],
      "charges": []
    },
    "tag": "",
    "useCustomTag": false,
    "armorProf": {
      "value": [],
      "custom": ""
    },
    "weaponProf": {
      "value": [],
      "custom": ""
    },
    "languages": {
      "value": [],
      "custom": ""
    },
    "flags": {
      "boolean": {},
      "dictionary": {}
    },
    "scriptCalls": [],
    "subType": "feat",
    "associations": {
      "classes": []
    },
    "showInQuickbar": false,
    "abilityType": "none",
    "crOffset": "",
    "disabled": false,
    "classSkills": {}
  },
  "ownership": {
    "default": 0
  },
  "_stats": {
    "systemId": "pf1",
    "systemVersion": "9.1",
    "coreVersion": "10.291",
    "createdTime": 1665428358165,
    "modifiedTime": 1689797901494,
    "lastModifiedBy": "ppv91YxratjWnkJi"
  },
  "effects": [],
  "folder": null,
  "sort": 0,
  "flags": {},
  "_key": "!items!rtZhpqhsUk8IMNi9"
}