{
  "_id": "ABcDhcXLpa377PUt",
  "name": "Bear's Balance",
  "type": "feat",
  "img": "systems/pf1/icons/skills/red_01.jpg",
  "system": {
    "description": {
      "value": "<em>Your anger is always available below the surface, but can be carefully directed. Those who would force you to lose control encounter an unpleasant surprise.</em><br/><br/><b>Prerequisites</b><br/>Iron Will, rage class feature.<br/><br/><b>Benefits</b><br/>You gain a +2 bonus on Intimidate checks when not raging. When you fail a saving throw against a fear effect, you can choose to enter your rage rather than succumb to fear. You can not voluntarily end your rage until the fear effect expires or is ended in some other way (such as due to the death of the fear-inducing creature) or you exhaust your rounds of rage for the day. This feat has no effect if you are already raging when exposed to a fear effect.",
      "unidentified": ""
    },
    "tags": [
      "PFS",
      "Combat"
    ],
    "actions": [],
    "uses": {
      "per": null,
      "value": 0,
      "maxFormula": "",
      "autoDeductChargesCost": "1"
    },
    "attackNotes": [],
    "effectNotes": [],
    "changes": [],
    "changeFlags": {
      "loseDexToAC": false,
      "noEncumbrance": false,
      "mediumArmorFullSpeed": false,
      "heavyArmorFullSpeed": false
    },
    "contextNotes": [],
    "links": {
      "children": [],
      "charges": []
    },
    "tag": "",
    "useCustomTag": false,
    "armorProf": {
      "value": [],
      "custom": ""
    },
    "weaponProf": {
      "value": [],
      "custom": ""
    },
    "languages": {
      "value": [],
      "custom": ""
    },
    "flags": {
      "boolean": {},
      "dictionary": {}
    },
    "scriptCalls": [],
    "subType": "feat",
    "associations": {
      "classes": []
    },
    "showInQuickbar": false,
    "abilityType": "none",
    "crOffset": "",
    "disabled": false,
    "classSkills": {}
  },
  "ownership": {
    "default": 0
  },
  "_stats": {
    "systemId": "pf1",
    "systemVersion": "9.1",
    "coreVersion": "10.291",
    "createdTime": 1665428351952,
    "modifiedTime": 1689797878535,
    "lastModifiedBy": "ppv91YxratjWnkJi"
  },
  "effects": [],
  "folder": null,
  "sort": 0,
  "flags": {},
  "_key": "!items!ABcDhcXLpa377PUt"
}