{
  "_id": "1Q8MEwLBfL0Wio3d",
  "name": "Beast Hunter",
  "type": "feat",
  "img": "icons/environment/wilderness/statue-hound-horned.webp",
  "system": {
    "description": {
      "value": "<em>Thanks to your experience hunting in the wilds, you are capable of tracking animals in your most often traveled terrains, and you can easily take down animals larger than yourself.</em><br/><br/><b>Prerequisites</b><br/>Base attack bonus +1; Knowledge (nature) or Survival 1 rank.<br/><br/><b>Benefits</b><br/>Pick one of the ranger's favored terrains. You gain a +2 bonus on Survival checks to track animals native to that terrain. Additionally, against animals native to that terrain that are at least one size category larger than you, you gain a +1 dodge bonus to your AC and a +1 insight bonus on attack rolls.<br/><br/><b>Special</b><br/>You can take this feat multiple times. Each time you select this feat, you can choose an additional favored terrain to gain the listed benefits in.",
      "unidentified": ""
    },
    "tags": [
      "PFS",
      "Combat"
    ],
    "actions": [],
    "uses": {
      "per": null,
      "value": 0,
      "maxFormula": "",
      "autoDeductChargesCost": "1"
    },
    "attackNotes": [],
    "effectNotes": [],
    "changes": [],
    "changeFlags": {
      "loseDexToAC": false,
      "noEncumbrance": false,
      "mediumArmorFullSpeed": false,
      "heavyArmorFullSpeed": false
    },
    "contextNotes": [],
    "links": {
      "children": [],
      "charges": []
    },
    "tag": "",
    "useCustomTag": false,
    "armorProf": {
      "value": [],
      "custom": ""
    },
    "weaponProf": {
      "value": [],
      "custom": ""
    },
    "languages": {
      "value": [],
      "custom": ""
    },
    "flags": {
      "boolean": {},
      "dictionary": {}
    },
    "scriptCalls": [],
    "subType": "feat",
    "associations": {
      "classes": []
    },
    "showInQuickbar": false,
    "abilityType": "none",
    "crOffset": "",
    "disabled": false,
    "classSkills": {}
  },
  "ownership": {
    "default": 0
  },
  "_stats": {
    "systemId": "pf1",
    "systemVersion": "9.1",
    "coreVersion": "10.291",
    "createdTime": 1665428350672,
    "modifiedTime": 1689797874466,
    "lastModifiedBy": "ppv91YxratjWnkJi"
  },
  "effects": [],
  "folder": null,
  "sort": 0,
  "flags": {},
  "_key": "!items!1Q8MEwLBfL0Wio3d"
}