{
  "_id": "A4J42zZNpgKhgKI7",
  "name": "Binding Throw",
  "type": "feat",
  "img": "systems/pf1/icons/feats/improved-grapple.jpg",
  "system": {
    "description": {
      "value": "<em>You can strike your enemy and use the blow as an opportunity to grab and hold him.</em><br/><br/><b>Prerequisites</b><br/>Improved Grapple, Improved Trip, Improved Unarmed Strike, Ki Throw.<br/><br/><b>Benefits</b><br/>After you successfully use the Ki Throw feat on an opponent, you can use a swift action to attempt a grapple combat maneuver against that opponent.<br/><br/><b>Normal</b><br/>The grapple combat maneuver is a standard action.<br/><br/><b>Special</b><br/>A monk can gain Binding Throw as a bonus feat starting at 14th level.<br/><br/><b>Combat Trick</b><br/>You can spend 1 stamina point to gain a +2 bonus on a grapple check made as a swift action with this feat.",
      "unidentified": ""
    },
    "tags": [
      "PFS",
      "Combat"
    ],
    "actions": [],
    "uses": {
      "per": null,
      "value": 0,
      "maxFormula": "",
      "autoDeductChargesCost": "1"
    },
    "attackNotes": [],
    "effectNotes": [],
    "changes": [],
    "changeFlags": {
      "loseDexToAC": false,
      "noEncumbrance": false,
      "mediumArmorFullSpeed": false,
      "heavyArmorFullSpeed": false
    },
    "contextNotes": [],
    "links": {
      "children": [],
      "charges": []
    },
    "tag": "",
    "useCustomTag": false,
    "armorProf": {
      "value": [],
      "custom": ""
    },
    "weaponProf": {
      "value": [],
      "custom": ""
    },
    "languages": {
      "value": [],
      "custom": ""
    },
    "flags": {
      "boolean": {},
      "dictionary": {}
    },
    "scriptCalls": [],
    "subType": "feat",
    "associations": {
      "classes": []
    },
    "showInQuickbar": false,
    "abilityType": "none",
    "crOffset": "",
    "disabled": false,
    "classSkills": {}
  },
  "ownership": {
    "default": 0
  },
  "_stats": {
    "systemId": "pf1",
    "systemVersion": "9.1",
    "coreVersion": "10.291",
    "createdTime": 1665428351944,
    "modifiedTime": 1689797878503,
    "lastModifiedBy": "ppv91YxratjWnkJi"
  },
  "effects": [],
  "folder": null,
  "sort": 0,
  "flags": {},
  "_key": "!items!A4J42zZNpgKhgKI7"
}