{
  "_id": "r2L4ee5TBspFyE4L",
  "name": "Biological Lattice",
  "type": "feat",
  "img": "systems/pf1/icons/skills/green_31.jpg",
  "system": {
    "description": {
      "value": "<em>You have practiced storing items in and retrieving them from the tangled vines on your back.</em><br/><br/><b>Prerequisites</b><br/>Gathlain, racial fly speed.<br/><br/><b>Benefits</b><br/>As a move action, you can store an item you are carrying in your vines. While you are holding an item in your vines, you lose your fly speed. You can retrieve the stored item as a swift action or drop it as a free action, immediately regaining your fly speed in either case.",
      "unidentified": ""
    },
    "tags": [
      "PFS",
      "Racial",
      "Gathlain"
    ],
    "actions": [],
    "uses": {
      "per": null,
      "value": 0,
      "maxFormula": "",
      "autoDeductChargesCost": "1"
    },
    "attackNotes": [],
    "effectNotes": [],
    "changes": [],
    "changeFlags": {
      "loseDexToAC": false,
      "noEncumbrance": false,
      "mediumArmorFullSpeed": false,
      "heavyArmorFullSpeed": false
    },
    "contextNotes": [],
    "links": {
      "children": [],
      "charges": []
    },
    "tag": "",
    "useCustomTag": false,
    "armorProf": {
      "value": [],
      "custom": ""
    },
    "weaponProf": {
      "value": [],
      "custom": ""
    },
    "languages": {
      "value": [],
      "custom": ""
    },
    "flags": {
      "boolean": {},
      "dictionary": {}
    },
    "scriptCalls": [],
    "subType": "feat",
    "associations": {
      "classes": []
    },
    "showInQuickbar": false,
    "abilityType": "none",
    "crOffset": "",
    "disabled": false,
    "classSkills": {}
  },
  "ownership": {
    "default": 0
  },
  "_stats": {
    "systemId": "pf1",
    "systemVersion": "9.1",
    "coreVersion": "10.291",
    "createdTime": 1665428358106,
    "modifiedTime": 1689797901200,
    "lastModifiedBy": "ppv91YxratjWnkJi"
  },
  "effects": [],
  "folder": null,
  "sort": 0,
  "flags": {},
  "_key": "!items!r2L4ee5TBspFyE4L"
}