{
  "_id": "7OnSE8xUePeW10OQ",
  "name": "Blades Above and Below",
  "type": "feat",
  "img": "systems/pf1/icons/skills/weapon_12.jpg",
  "system": {
    "description": {
      "value": "<em>You attack high and your ally attacks low, denying your foe the chance to dodge your attacks.</em><br/><br/><b>Prerequisites</b><br/>Base attack bonus +6.<br/><br/><b>Benefits</b><br/>When you and your ally who also has this feat threaten the same enemy, you're both considered to be flanking that enemy, regardless of your actual positioning. To gain this benefit, you and your ally must be of different size categories, and your target must be the same size category as either you or your ally.",
      "unidentified": ""
    },
    "tags": [
      "PFS",
      "Combat",
      "Teamwork"
    ],
    "actions": [],
    "uses": {
      "per": null,
      "value": 0,
      "maxFormula": "",
      "autoDeductChargesCost": "1"
    },
    "attackNotes": [],
    "effectNotes": [],
    "changes": [],
    "changeFlags": {
      "loseDexToAC": false,
      "noEncumbrance": false,
      "mediumArmorFullSpeed": false,
      "heavyArmorFullSpeed": false
    },
    "contextNotes": [],
    "links": {
      "children": [],
      "charges": []
    },
    "tag": "",
    "useCustomTag": false,
    "armorProf": {
      "value": [],
      "custom": ""
    },
    "weaponProf": {
      "value": [],
      "custom": ""
    },
    "languages": {
      "value": [],
      "custom": ""
    },
    "flags": {
      "boolean": {},
      "dictionary": {}
    },
    "scriptCalls": [],
    "subType": "feat",
    "associations": {
      "classes": []
    },
    "showInQuickbar": false,
    "abilityType": "none",
    "crOffset": "",
    "disabled": false,
    "classSkills": {}
  },
  "ownership": {
    "default": 0
  },
  "_stats": {
    "systemId": "pf1",
    "systemVersion": "9.1",
    "coreVersion": "10.291",
    "createdTime": 1665428351462,
    "modifiedTime": 1689797876973,
    "lastModifiedBy": "ppv91YxratjWnkJi"
  },
  "effects": [],
  "folder": null,
  "sort": 0,
  "flags": {},
  "_key": "!items!7OnSE8xUePeW10OQ"
}