{
  "_id": "Oa7VMd6NKsq24M7Q",
  "name": "Blade of the Purge",
  "type": "feat",
  "img": "systems/pf1/icons/skills/yellow_22.jpg",
  "system": {
    "description": {
      "value": "<em>Emulating the fervor of Grand Prince Stavian I, you can identify a religion you perceive to be opposed to your own and empower your weapons to strike deadly blows against its adherents.</em><br/><br/><b>Prerequisites</b><br/>Bane class feature.<br/><br/><b>Benefits</b><br/>When you activate your bane class feature, you can select a deity or religion other than your own. Your bane effect applies only to followers of that deity or religion.",
      "unidentified": ""
    },
    "tags": [
      "PFS",
      "General"
    ],
    "actions": [],
    "uses": {
      "per": null,
      "value": 0,
      "maxFormula": "",
      "autoDeductChargesCost": "1"
    },
    "attackNotes": [],
    "effectNotes": [],
    "changes": [],
    "changeFlags": {
      "loseDexToAC": false,
      "noEncumbrance": false,
      "mediumArmorFullSpeed": false,
      "heavyArmorFullSpeed": false
    },
    "contextNotes": [],
    "links": {
      "children": [],
      "charges": []
    },
    "tag": "",
    "useCustomTag": false,
    "armorProf": {
      "value": [],
      "custom": ""
    },
    "weaponProf": {
      "value": [],
      "custom": ""
    },
    "languages": {
      "value": [],
      "custom": ""
    },
    "flags": {
      "boolean": {},
      "dictionary": {}
    },
    "scriptCalls": [],
    "subType": "feat",
    "associations": {
      "classes": []
    },
    "showInQuickbar": false,
    "abilityType": "none",
    "crOffset": "",
    "disabled": false,
    "classSkills": {}
  },
  "ownership": {
    "default": 0
  },
  "_stats": {
    "systemId": "pf1",
    "systemVersion": "9.1",
    "coreVersion": "10.291",
    "createdTime": 1665428353964,
    "modifiedTime": 1689797886338,
    "lastModifiedBy": "ppv91YxratjWnkJi"
  },
  "effects": [],
  "folder": null,
  "sort": 0,
  "flags": {},
  "_key": "!items!Oa7VMd6NKsq24M7Q"
}