{
  "_id": "4z58fGzm6d5phgw5",
  "name": "Blasting Boulder",
  "type": "feat",
  "img": "systems/pf1/icons/spells/rock-orange-3.jpg",
  "system": {
    "description": {
      "value": "<em>The boulders you hurl explode upon impact, laying waste to nearby creatures.</em><br/><br/><b>Prerequisites</b><br/>Smoking Boulder, base attack bonus +13, heat rock special attack.<br/><br/><b>Benefits</b><br/>You can infuse rocks thrown as part of an attack action with volatile fire energies, adding one of the following effects to a thrown rock affected by your Smoking Boulder feat.",
      "unidentified": ""
    },
    "tags": [
      "General"
    ],
    "actions": [],
    "uses": {
      "per": null,
      "value": 0,
      "maxFormula": "",
      "autoDeductChargesCost": "1"
    },
    "attackNotes": [],
    "effectNotes": [],
    "changes": [],
    "changeFlags": {
      "loseDexToAC": false,
      "noEncumbrance": false,
      "mediumArmorFullSpeed": false,
      "heavyArmorFullSpeed": false
    },
    "contextNotes": [],
    "links": {
      "children": [],
      "charges": []
    },
    "tag": "",
    "useCustomTag": false,
    "armorProf": {
      "value": [],
      "custom": ""
    },
    "weaponProf": {
      "value": [],
      "custom": ""
    },
    "languages": {
      "value": [],
      "custom": ""
    },
    "flags": {
      "boolean": {},
      "dictionary": {}
    },
    "scriptCalls": [],
    "subType": "feat",
    "associations": {
      "classes": []
    },
    "showInQuickbar": false,
    "abilityType": "none",
    "crOffset": "",
    "disabled": false,
    "classSkills": {}
  },
  "ownership": {
    "default": 0
  },
  "_stats": {
    "systemId": "pf1",
    "systemVersion": "9.1",
    "coreVersion": "10.291",
    "createdTime": 1665428351208,
    "modifiedTime": 1689797876080,
    "lastModifiedBy": "ppv91YxratjWnkJi"
  },
  "effects": [],
  "folder": null,
  "sort": 0,
  "flags": {},
  "_key": "!items!4z58fGzm6d5phgw5"
}