{
  "_id": "az2mFEKTctwTd3XP",
  "name": "Bleeding Critical",
  "type": "feat",
  "img": "systems/pf1/icons/skills/blood_03.jpg",
  "system": {
    "description": {
      "value": "<p><em>Your critical hits cause opponents to bleed profusely.</em><br /><br /><strong>Prerequisites</strong><br />Critical Focus, base attack bonus +11.<br /><br /><strong>Benefits</strong><br />Whenever you score a critical hit with a slashing or piercing weapon, your opponent takes 2d6 points of bleed damage (see Conditions) each round on his turn, in addition to the damage dealt by the critical hit. Bleed damage can be stopped by a DC 15 Heal skill check or through any magical healing. The effects of this feat stack.<br /><br /><strong>Special</strong><br />You can only apply the effects of one critical feat to a given critical hit unless you possess Critical Mastery.<br /><br /></p>\n<p><strong>Combat Trick</strong><br />When you deal bleed damage with this feat, you can spend up to 3 stamina points to increase the amount of bleed damage dealt by double the number of stamina points you spent.</p>\n<p>&nbsp;</p>",
      "unidentified": ""
    },
    "tags": [
      "PFS",
      "Combat",
      "Critical"
    ],
    "actions": [],
    "uses": {
      "per": null,
      "value": 0,
      "maxFormula": "",
      "autoDeductChargesCost": "1"
    },
    "attackNotes": [],
    "effectNotes": [],
    "changes": [],
    "changeFlags": {
      "loseDexToAC": false,
      "noEncumbrance": false,
      "mediumArmorFullSpeed": false,
      "heavyArmorFullSpeed": false
    },
    "contextNotes": [
      {
        "subTarget": "attack",
        "text": "Bleeding Critical: [[2d6]] bleed damage on critical hit with a slashing or piercing weapon."
      }
    ],
    "links": {
      "children": [],
      "charges": []
    },
    "tag": "bleedingCritical",
    "useCustomTag": false,
    "armorProf": {
      "value": [],
      "custom": ""
    },
    "weaponProf": {
      "value": [],
      "custom": ""
    },
    "languages": {
      "value": [],
      "custom": ""
    },
    "flags": {
      "boolean": {},
      "dictionary": {}
    },
    "scriptCalls": [],
    "subType": "feat",
    "associations": {
      "classes": []
    },
    "showInQuickbar": false,
    "abilityType": "none",
    "crOffset": "",
    "disabled": false,
    "classSkills": {},
    "auraStrength": 0
  },
  "ownership": {
    "default": 0
  },
  "_stats": {
    "systemId": "pf1",
    "systemVersion": "9.1",
    "coreVersion": "10.291",
    "createdTime": 1665428355629,
    "modifiedTime": 1689797892864,
    "lastModifiedBy": "ppv91YxratjWnkJi"
  },
  "effects": [],
  "folder": null,
  "sort": 0,
  "flags": {},
  "_key": "!items!az2mFEKTctwTd3XP"
}