{
  "_id": "Pf433QDJtHGNf1sw",
  "name": "Bleeding Stare",
  "type": "feat",
  "img": "systems/pf1/icons/skills/blood_02.jpg",
  "system": {
    "description": {
      "value": "<em>Your stare causes your foe to bleed out of its eyes.</em><br/><br/><b>Prerequisites</b><br/>Mesmerist level 5th, painful stare class feature.<br/><br/><b>Benefits</b><br/>When you trigger your painful stare, the target takes an amount of bleed damage equal to 1/3 your mesmerist level. Bleed damage from multiple uses of Bleeding Stare doesn't stack.",
      "unidentified": ""
    },
    "tags": [
      "PFS",
      "Combat",
      "Stare"
    ],
    "actions": [],
    "uses": {
      "per": null,
      "value": 0,
      "maxFormula": "",
      "autoDeductChargesCost": "1"
    },
    "attackNotes": [],
    "effectNotes": [],
    "changes": [],
    "changeFlags": {
      "loseDexToAC": false,
      "noEncumbrance": false,
      "mediumArmorFullSpeed": false,
      "heavyArmorFullSpeed": false
    },
    "contextNotes": [],
    "links": {
      "children": [],
      "charges": []
    },
    "tag": "",
    "useCustomTag": false,
    "armorProf": {
      "value": [],
      "custom": ""
    },
    "weaponProf": {
      "value": [],
      "custom": ""
    },
    "languages": {
      "value": [],
      "custom": ""
    },
    "flags": {
      "boolean": {},
      "dictionary": {}
    },
    "scriptCalls": [],
    "subType": "feat",
    "associations": {
      "classes": []
    },
    "showInQuickbar": false,
    "abilityType": "none",
    "crOffset": "",
    "disabled": false,
    "classSkills": {}
  },
  "ownership": {
    "default": 0
  },
  "_stats": {
    "systemId": "pf1",
    "systemVersion": "9.1",
    "coreVersion": "10.291",
    "createdTime": 1665428354043,
    "modifiedTime": 1689797886655,
    "lastModifiedBy": "ppv91YxratjWnkJi"
  },
  "effects": [],
  "folder": null,
  "sort": 0,
  "flags": {},
  "_key": "!items!Pf433QDJtHGNf1sw"
}