{
  "_id": "TNQFrD31sZ2x5Vpe",
  "name": "Blessed Striker",
  "type": "feat",
  "img": "systems/pf1/icons/skills/light_05.jpg",
  "system": {
    "description": {
      "value": "<em>You attacks are augmented by the strength of your and your deity's shared alignment.</em><br/><br/><b>Prerequisites</b><br/>Base attack bonus +11, ability to cast divine spells, alignment must be within one step of your deity's.<br/><br/><b>Benefits</b><br/>All of your attacks are treated as having whatever alignment components you and your deity share for the purpose of overcoming damage reduction.<br/><br/><b>Special</b><br/>If you grossly violate the code of conduct required by your deity or no longer worship your deity, you lose access to this feat. You can regain it once you atone for your misdeeds to your deity (see the atonement spell on page 245 of the Core Rulebook).",
      "unidentified": ""
    },
    "tags": [
      "PFS",
      "General"
    ],
    "actions": [],
    "uses": {
      "per": null,
      "value": 0,
      "maxFormula": "",
      "autoDeductChargesCost": "1"
    },
    "attackNotes": [],
    "effectNotes": [],
    "changes": [],
    "changeFlags": {
      "loseDexToAC": false,
      "noEncumbrance": false,
      "mediumArmorFullSpeed": false,
      "heavyArmorFullSpeed": false
    },
    "contextNotes": [],
    "links": {
      "children": [],
      "charges": []
    },
    "tag": "",
    "useCustomTag": false,
    "armorProf": {
      "value": [],
      "custom": ""
    },
    "weaponProf": {
      "value": [],
      "custom": ""
    },
    "languages": {
      "value": [],
      "custom": ""
    },
    "flags": {
      "boolean": {},
      "dictionary": {}
    },
    "scriptCalls": [],
    "subType": "feat",
    "associations": {
      "classes": []
    },
    "showInQuickbar": false,
    "abilityType": "none",
    "crOffset": "",
    "disabled": false,
    "classSkills": {}
  },
  "ownership": {
    "default": 0
  },
  "_stats": {
    "systemId": "pf1",
    "systemVersion": "9.1",
    "coreVersion": "10.291",
    "createdTime": 1665428354566,
    "modifiedTime": 1689797888690,
    "lastModifiedBy": "ppv91YxratjWnkJi"
  },
  "effects": [],
  "folder": null,
  "sort": 0,
  "flags": {},
  "_key": "!items!TNQFrD31sZ2x5Vpe"
}