{
  "_id": "OZGTN4tTw006xLV2",
  "name": "Blight Survivalist",
  "type": "feat",
  "img": "systems/pf1/icons/skills/nature_08.jpg",
  "system": {
    "description": {
      "value": "<em>You have learned to survive in dangerous environments.</em><br/><br/><b>Prerequisites</b><br/>Skill Focus (Survival).<br/><br/><b>Benefits</b><br/>You gain a +3 bonus on saving throws against environmental hazards and weather effects.<br/><br/><b>Special</b><br/>If you have the favored terrain class feature and the blighted land being explored matches one of those terrains, you can choose to use your favored terrain bonus in place of the +3 bonus granted by this feat.",
      "unidentified": ""
    },
    "tags": [
      "PFS",
      "General"
    ],
    "actions": [],
    "uses": {
      "per": null,
      "value": 0,
      "maxFormula": "",
      "autoDeductChargesCost": "1"
    },
    "attackNotes": [],
    "effectNotes": [],
    "changes": [],
    "changeFlags": {
      "loseDexToAC": false,
      "noEncumbrance": false,
      "mediumArmorFullSpeed": false,
      "heavyArmorFullSpeed": false
    },
    "contextNotes": [],
    "links": {
      "children": [],
      "charges": []
    },
    "tag": "",
    "useCustomTag": false,
    "armorProf": {
      "value": [],
      "custom": ""
    },
    "weaponProf": {
      "value": [],
      "custom": ""
    },
    "languages": {
      "value": [],
      "custom": ""
    },
    "flags": {
      "boolean": {},
      "dictionary": {}
    },
    "scriptCalls": [],
    "subType": "feat",
    "associations": {
      "classes": []
    },
    "showInQuickbar": false,
    "abilityType": "none",
    "crOffset": "",
    "disabled": false,
    "classSkills": {}
  },
  "ownership": {
    "default": 0
  },
  "_stats": {
    "systemId": "pf1",
    "systemVersion": "9.1",
    "coreVersion": "10.291",
    "createdTime": 1665428353962,
    "modifiedTime": 1689797886331,
    "lastModifiedBy": "ppv91YxratjWnkJi"
  },
  "effects": [],
  "folder": null,
  "sort": 0,
  "flags": {},
  "_key": "!items!OZGTN4tTw006xLV2"
}