{
  "_id": "IwXxsUgBs5UhvWxf",
  "name": "Blinding Sneak Attack",
  "type": "feat",
  "img": "systems/pf1/icons/feats/blinding-critical.jpg",
  "system": {
    "description": {
      "value": "<em>When you strike from the cover of darkness, you inject foes with a fraction of your foul magic.</em><br/><br/><b>Prerequisites</b><br/>Base attack bonus +5, darkness spell-like ability, sneak attack class feature, tiefling.<br/><br/><b>Benefits</b><br/>When you successfully deal sneak attack damage to a foe while you are within an area of magical darkness, you temporarily blind your opponent for 1 round. A successful Fortitude save (DC 10 + the amount of sneak attack damage dealt) negates this effect.",
      "unidentified": ""
    },
    "tags": [
      "PFS",
      "Combat",
      "Racial",
      "Tiefling"
    ],
    "actions": [],
    "uses": {
      "per": null,
      "value": 0,
      "maxFormula": "",
      "autoDeductChargesCost": "1"
    },
    "attackNotes": [],
    "effectNotes": [],
    "changes": [],
    "changeFlags": {
      "loseDexToAC": false,
      "noEncumbrance": false,
      "mediumArmorFullSpeed": false,
      "heavyArmorFullSpeed": false
    },
    "contextNotes": [],
    "links": {
      "children": [],
      "charges": []
    },
    "tag": "",
    "useCustomTag": false,
    "armorProf": {
      "value": [],
      "custom": ""
    },
    "weaponProf": {
      "value": [],
      "custom": ""
    },
    "languages": {
      "value": [],
      "custom": ""
    },
    "flags": {
      "boolean": {},
      "dictionary": {}
    },
    "scriptCalls": [],
    "subType": "feat",
    "associations": {
      "classes": []
    },
    "showInQuickbar": false,
    "abilityType": "none",
    "crOffset": "",
    "disabled": false,
    "classSkills": {}
  },
  "ownership": {
    "default": 0
  },
  "_stats": {
    "systemId": "pf1",
    "systemVersion": "9.1",
    "coreVersion": "10.291",
    "createdTime": 1665428353283,
    "modifiedTime": 1689797883857,
    "lastModifiedBy": "ppv91YxratjWnkJi"
  },
  "effects": [],
  "folder": null,
  "sort": 0,
  "flags": {},
  "_key": "!items!IwXxsUgBs5UhvWxf"
}