{
  "_id": "CcXmEc6a5M5DXwjd",
  "name": "Blinding Stare",
  "type": "feat",
  "img": "systems/pf1/icons/feats/blinding-critical.jpg",
  "system": {
    "description": {
      "value": "<em>Your stare robs your foe of all sight.</em><br/><br/><b>Prerequisites</b><br/>Mesmerist level 7th, painful stare class feature.<br/><br/><b>Benefits</b><br/>When you trigger your painful stare, the target must succeed at a Will save (DC = 10 + half your mesmerist level + your Charisma modifier) or be blinded for 1 round.",
      "unidentified": ""
    },
    "tags": [
      "Combat",
      "Stare"
    ],
    "actions": [],
    "uses": {
      "per": null,
      "value": 0,
      "maxFormula": "",
      "autoDeductChargesCost": "1"
    },
    "attackNotes": [],
    "effectNotes": [],
    "changes": [],
    "changeFlags": {
      "loseDexToAC": false,
      "noEncumbrance": false,
      "mediumArmorFullSpeed": false,
      "heavyArmorFullSpeed": false
    },
    "contextNotes": [],
    "links": {
      "children": [],
      "charges": []
    },
    "tag": "",
    "useCustomTag": false,
    "armorProf": {
      "value": [],
      "custom": ""
    },
    "weaponProf": {
      "value": [],
      "custom": ""
    },
    "languages": {
      "value": [],
      "custom": ""
    },
    "flags": {
      "boolean": {},
      "dictionary": {}
    },
    "scriptCalls": [],
    "subType": "feat",
    "associations": {
      "classes": []
    },
    "showInQuickbar": false,
    "abilityType": "none",
    "crOffset": "",
    "disabled": false,
    "classSkills": {}
  },
  "ownership": {
    "default": 0
  },
  "_stats": {
    "systemId": "pf1",
    "systemVersion": "9.1",
    "coreVersion": "10.291",
    "createdTime": 1665428352146,
    "modifiedTime": 1689797879380,
    "lastModifiedBy": "ppv91YxratjWnkJi"
  },
  "effects": [],
  "folder": null,
  "sort": 0,
  "flags": {},
  "_key": "!items!CcXmEc6a5M5DXwjd"
}