{
  "_id": "rBV1rkB5g6dhdqi1",
  "name": "Blinding Flash",
  "type": "feat",
  "img": "systems/pf1/icons/skills/yellow_01.jpg",
  "system": {
    "description": {
      "value": "<em>You can temporarily blind your opponent by using your weapon or shield to flash sunlight into its eyes.</em><br/><br/><b>Prerequisites</b><br/>Dex 13, Combat Expertise.<br/><br/><b>Benefits</b><br/>As a move action, you can expertly angle the blade of your weapon or shield to reflect light into an opponent's eyes, dazzling your foe for 1 round. This feat functions as a gaze attack, and the target must make a Fortitude save (DC 10 + 1/2 your character level + your Dex modifier) to resist the effect. This is a sight-dependent effect, and does not work on creatures that are already blinded or creatures that do not rely on sight as their primary sense. You must be wielding a weapon or shield with a polished or reflective surface in order to use this feat. You must be in an area of bright light to use this feat.",
      "unidentified": ""
    },
    "tags": [
      "PFS",
      "Combat"
    ],
    "actions": [],
    "uses": {
      "per": null,
      "value": 0,
      "maxFormula": "",
      "autoDeductChargesCost": "1"
    },
    "attackNotes": [],
    "effectNotes": [],
    "changes": [],
    "changeFlags": {
      "loseDexToAC": false,
      "noEncumbrance": false,
      "mediumArmorFullSpeed": false,
      "heavyArmorFullSpeed": false
    },
    "contextNotes": [],
    "links": {
      "children": [],
      "charges": []
    },
    "tag": "",
    "useCustomTag": false,
    "armorProf": {
      "value": [],
      "custom": ""
    },
    "weaponProf": {
      "value": [],
      "custom": ""
    },
    "languages": {
      "value": [],
      "custom": ""
    },
    "flags": {
      "boolean": {},
      "dictionary": {}
    },
    "scriptCalls": [],
    "subType": "feat",
    "associations": {
      "classes": []
    },
    "showInQuickbar": false,
    "abilityType": "none",
    "crOffset": "",
    "disabled": false,
    "classSkills": {}
  },
  "ownership": {
    "default": 0
  },
  "_stats": {
    "systemId": "pf1",
    "systemVersion": "9.1",
    "coreVersion": "10.291",
    "createdTime": 1665428358124,
    "modifiedTime": 1689797901292,
    "lastModifiedBy": "ppv91YxratjWnkJi"
  },
  "effects": [],
  "folder": null,
  "sort": 0,
  "flags": {},
  "_key": "!items!rBV1rkB5g6dhdqi1"
}