{
  "_id": "n4ovICgxC1B0m6Td",
  "name": "Blood Vengeance",
  "type": "feat",
  "img": "systems/pf1/icons/skills/red_34.jpg",
  "system": {
    "description": {
      "value": "<p><em>Seeing an ally fall in combat fills you with a raging and murderous fury.</em><br /><br /><strong>Prerequisites</strong><br />Half-orc or orc, nonlawful.<br /><br /><strong>Benefits</strong><br />Whenever one of your allies is reduced to negative hit points or killed, you may enter a state similar to but less powerful than a barbarian's rage as a free action on your next turn. If you have the rage class feature and are already raging, your morale bonuses to Strength and Constitution increase by +2 for the duration of your rage. If you do not have the rage class feature, or you have no more rage rounds left, this weaker rage gives you all the benefits and penalties of a barbarian's rage, except your morale bonus to Strength and Constitution is only +2. In either case, this state lasts for 4 rounds.<br /><br />As with a barbarian's rage, when this weaker rage ends, you are fatigued; if another ally falls before this duration ends, the weaker rage lasts for an additional 4 rounds. This feat does not allow you to enter a rage if you are fatigued. You may only use this feat if the fallen ally had at least as many Hit Dice as you (excluding conjured or summoned allies).</p>",
      "unidentified": ""
    },
    "tags": [
      "PFS",
      "Racial",
      "Half-orc",
      "Orc"
    ],
    "actions": [],
    "uses": {
      "per": null,
      "value": 0,
      "maxFormula": "",
      "autoDeductChargesCost": "1"
    },
    "attackNotes": [],
    "effectNotes": [],
    "changes": [],
    "changeFlags": {
      "loseDexToAC": false,
      "noEncumbrance": false,
      "mediumArmorFullSpeed": false,
      "heavyArmorFullSpeed": false
    },
    "contextNotes": [],
    "links": {
      "children": [],
      "charges": []
    },
    "tag": "",
    "useCustomTag": false,
    "armorProf": {
      "value": [],
      "custom": ""
    },
    "weaponProf": {
      "value": [],
      "custom": ""
    },
    "languages": {
      "value": [],
      "custom": ""
    },
    "flags": {
      "boolean": {},
      "dictionary": {}
    },
    "scriptCalls": [],
    "subType": "feat",
    "associations": {
      "classes": []
    },
    "showInQuickbar": false,
    "abilityType": "none",
    "crOffset": "",
    "disabled": false,
    "classSkills": {}
  },
  "ownership": {
    "default": 0
  },
  "_stats": {
    "systemId": "pf1",
    "systemVersion": "9.1",
    "coreVersion": "10.291",
    "createdTime": 1665428357496,
    "modifiedTime": 1689797899312,
    "lastModifiedBy": "ppv91YxratjWnkJi"
  },
  "effects": [],
  "folder": null,
  "sort": 0,
  "flags": {},
  "_key": "!items!n4ovICgxC1B0m6Td"
}