{
  "_id": "xKJhMF8gS9c53RGl",
  "name": "Bloody Assault",
  "type": "feat",
  "img": "systems/pf1/icons/skills/red_12.jpg",
  "system": {
    "description": {
      "value": "<em>Sacrificing accuracy, you can inflict bloody wounds that are slow to heal.</em><br/><br/><b>Prerequisites</b><br/>Str 13, Power Attack, base attack bonus +6.<br/><br/><b>Benefits</b><br/>You can choose to take a -5 penalty on all melee attack rolls and combat maneuver checks to inflict 1d4 points of bleed damage with your weapon melee attacks, in addition to the normal damage dealt by the weapon. A creature continues to take bleed damage every round at the start of its turn. Bleed damage can be stopped by a DC 15 Heal check or through any magical healing. Bleed damage from this feat does not stack with itself. You must choose to use this feat before making the attack roll, and its effects last until your next turn (although the bleeding lasts until healed, as normal).<br/><br/><b>Combat Trick</b><br/>Each round you use this feat, you can spend up to 5 stamina points. If you do, until the end of your next turn, you reduce the penalty on all your attack rolls by an amount equal to the number of stamina points you spent.",
      "unidentified": ""
    },
    "tags": [
      "PFS",
      "Combat"
    ],
    "actions": [],
    "uses": {
      "per": null,
      "value": 0,
      "maxFormula": "",
      "autoDeductChargesCost": "1"
    },
    "attackNotes": [],
    "effectNotes": [],
    "changes": [],
    "changeFlags": {
      "loseDexToAC": false,
      "noEncumbrance": false,
      "mediumArmorFullSpeed": false,
      "heavyArmorFullSpeed": false
    },
    "contextNotes": [],
    "links": {
      "children": [],
      "charges": []
    },
    "tag": "",
    "useCustomTag": false,
    "armorProf": {
      "value": [],
      "custom": ""
    },
    "weaponProf": {
      "value": [],
      "custom": ""
    },
    "languages": {
      "value": [],
      "custom": ""
    },
    "flags": {
      "boolean": {},
      "dictionary": {}
    },
    "scriptCalls": [],
    "subType": "feat",
    "associations": {
      "classes": []
    },
    "showInQuickbar": false,
    "abilityType": "none",
    "crOffset": "",
    "disabled": false,
    "classSkills": {}
  },
  "ownership": {
    "default": 0
  },
  "_stats": {
    "systemId": "pf1",
    "systemVersion": "9.1",
    "coreVersion": "10.291",
    "createdTime": 1665428358862,
    "modifiedTime": 1689797903688,
    "lastModifiedBy": "ppv91YxratjWnkJi"
  },
  "effects": [],
  "folder": null,
  "sort": 0,
  "flags": {},
  "_key": "!items!xKJhMF8gS9c53RGl"
}