{
  "_id": "bzuIInNrxfViegVt",
  "name": "Blood Spurt",
  "type": "feat",
  "img": "systems/pf1/icons/skills/blood_05.jpg",
  "system": {
    "description": {
      "value": "<em>When cut in combat, you spray your blood into the faces of your foes.</em><br/><br/><b>Prerequisites</b><br/>Base attack bonus +2, susceptibility to bleed damage.<br/><br/><b>Benefits</b><br/>Whenever a creature adjacent to you hits you with a melee attack that deals bleed damage, that creature must succeed at a Fortitude save (DC = 10 + 1/2 your character level + your Constitution modifier) or become blinded for 1d4 rounds as your blood sprays it in the face. Additionally, if you have a special ability that deals bleed damage (such as a rogue's bleeding strike rogue talent), as a standard action, you can deal 1 point of bleed damage to yourself to spray blood in the face of an adjacent creature of your choice, causing the same effect. The creature only needs to attempt the saving throw for the first of its attacks that deals bleed damage.",
      "unidentified": ""
    },
    "tags": [
      "PFS",
      "Combat"
    ],
    "actions": [],
    "uses": {
      "per": null,
      "value": 0,
      "maxFormula": "",
      "autoDeductChargesCost": "1"
    },
    "attackNotes": [],
    "effectNotes": [],
    "changes": [],
    "changeFlags": {
      "loseDexToAC": false,
      "noEncumbrance": false,
      "mediumArmorFullSpeed": false,
      "heavyArmorFullSpeed": false
    },
    "contextNotes": [],
    "links": {
      "children": [],
      "charges": []
    },
    "tag": "",
    "useCustomTag": false,
    "armorProf": {
      "value": [],
      "custom": ""
    },
    "weaponProf": {
      "value": [],
      "custom": ""
    },
    "languages": {
      "value": [],
      "custom": ""
    },
    "flags": {
      "boolean": {},
      "dictionary": {}
    },
    "scriptCalls": [],
    "subType": "feat",
    "associations": {
      "classes": []
    },
    "showInQuickbar": false,
    "abilityType": "none",
    "crOffset": "",
    "disabled": false,
    "classSkills": {}
  },
  "ownership": {
    "default": 0
  },
  "_stats": {
    "systemId": "pf1",
    "systemVersion": "9.1",
    "coreVersion": "10.291",
    "createdTime": 1665428355694,
    "modifiedTime": 1689797893229,
    "lastModifiedBy": "ppv91YxratjWnkJi"
  },
  "effects": [],
  "folder": null,
  "sort": 0,
  "flags": {},
  "_key": "!items!bzuIInNrxfViegVt"
}