{
  "_id": "9Ag9jqvvt0aHeNQp",
  "name": "Blood Frenzy Style",
  "type": "feat",
  "img": "systems/pf1/icons/skills/weapon_39.jpg",
  "system": {
    "description": {
      "value": "<em>You have learned to turn your pain into power, whipping yourself into a blood frenzy whenever you take damage.</em><br/><br/><b>Prerequisites</b><br/>Str 13, Improved Unarmed Strike, base attack bonus +1, aquatic subtype.<br/><br/><b>Benefits</b><br/>While you are using Blood Frenzy Style, you gain a +2 bonus to your Strength and Constitution, and you take a -2 penalty to AC.<br/><br/><b>Special</b><br/>You can enter Blood Frenzy Style only as an immediate action when you take damage. You cannot enter this style as a swift action, as with other style feats.",
      "unidentified": ""
    },
    "tags": [
      "PFS",
      "Combat",
      "Style"
    ],
    "actions": [],
    "uses": {
      "per": null,
      "value": 0,
      "maxFormula": "",
      "autoDeductChargesCost": "1"
    },
    "attackNotes": [],
    "effectNotes": [],
    "changes": [],
    "changeFlags": {
      "loseDexToAC": false,
      "noEncumbrance": false,
      "mediumArmorFullSpeed": false,
      "heavyArmorFullSpeed": false
    },
    "contextNotes": [],
    "links": {
      "children": [],
      "charges": []
    },
    "tag": "",
    "useCustomTag": false,
    "armorProf": {
      "value": [],
      "custom": ""
    },
    "weaponProf": {
      "value": [],
      "custom": ""
    },
    "languages": {
      "value": [],
      "custom": ""
    },
    "flags": {
      "boolean": {},
      "dictionary": {}
    },
    "scriptCalls": [],
    "subType": "feat",
    "associations": {
      "classes": []
    },
    "showInQuickbar": false,
    "abilityType": "none",
    "crOffset": "",
    "disabled": false,
    "classSkills": {}
  },
  "ownership": {
    "default": 0
  },
  "_stats": {
    "systemId": "pf1",
    "systemVersion": "9.1",
    "coreVersion": "10.291",
    "createdTime": 1665428351889,
    "modifiedTime": 1689797878189,
    "lastModifiedBy": "ppv91YxratjWnkJi"
  },
  "effects": [],
  "folder": null,
  "sort": 0,
  "flags": {},
  "_key": "!items!9Ag9jqvvt0aHeNQp"
}