{
  "_id": "4myztyDSmO1uFflO",
  "name": "Bloodmarked Flight",
  "type": "feat",
  "img": "systems/pf1/icons/skills/blue_02.jpg",
  "system": {
    "description": {
      "value": "<em>Your attunement to your werebat ancestry has allowed you to master a crude form of flight.</em><br/><br/><b>Prerequisites</b><br/>Base attack bonus +5, werebat-kin.<br/><br/><b>Benefits</b><br/>As an additional bestial feature, you can use your change shape ability to gain a fly speed of 30 feet with poor maneuverability if carrying a light load and wearing no armor or light armor, or a fly speed of 20 feet with clumsy maneuverability if carrying a medium or heavy load or wearing medium or heavy armor.",
      "unidentified": ""
    },
    "tags": [
      "PFS",
      "Racial",
      "Skinwalker"
    ],
    "actions": [],
    "uses": {
      "per": null,
      "value": 0,
      "maxFormula": "",
      "autoDeductChargesCost": "1"
    },
    "attackNotes": [],
    "effectNotes": [],
    "changes": [],
    "changeFlags": {
      "loseDexToAC": false,
      "noEncumbrance": false,
      "mediumArmorFullSpeed": false,
      "heavyArmorFullSpeed": false
    },
    "contextNotes": [],
    "links": {
      "children": [],
      "charges": []
    },
    "tag": "",
    "useCustomTag": false,
    "armorProf": {
      "value": [],
      "custom": ""
    },
    "weaponProf": {
      "value": [],
      "custom": ""
    },
    "languages": {
      "value": [],
      "custom": ""
    },
    "flags": {
      "boolean": {},
      "dictionary": {}
    },
    "scriptCalls": [],
    "subType": "feat",
    "associations": {
      "classes": []
    },
    "showInQuickbar": false,
    "abilityType": "none",
    "crOffset": "",
    "disabled": false,
    "classSkills": {}
  },
  "ownership": {
    "default": 0
  },
  "_stats": {
    "systemId": "pf1",
    "systemVersion": "9.1",
    "coreVersion": "10.291",
    "createdTime": 1665428351190,
    "modifiedTime": 1689797875996,
    "lastModifiedBy": "ppv91YxratjWnkJi"
  },
  "effects": [],
  "folder": null,
  "sort": 0,
  "flags": {},
  "_key": "!items!4myztyDSmO1uFflO"
}