{
  "_id": "RfllrdJLenSlGDR0",
  "name": "Blood for the Empire",
  "type": "feat",
  "img": "systems/pf1/icons/skills/blood_12.jpg",
  "system": {
    "description": {
      "value": "<em>When fighting alongside your allies, the sight of a bloodied foe inspires you to greatness, while a martyred comrade compels you to vengeance.</em><br/><br/><b>Prerequisites</b><br/>Base attack bonus +4.<br/><br/><b>Benefits</b><br/>You gain a +2 morale bonus on attack and damage rolls against a target that was damaged by an ally with this feat within the last round. When an ally with this feat dies within 30 feet of you, you gain the effects of haste for 1 round.",
      "unidentified": ""
    },
    "tags": [
      "PFS",
      "Teamwork"
    ],
    "actions": [],
    "uses": {
      "per": null,
      "value": 0,
      "maxFormula": "",
      "autoDeductChargesCost": "1"
    },
    "attackNotes": [],
    "effectNotes": [],
    "changes": [],
    "changeFlags": {
      "loseDexToAC": false,
      "noEncumbrance": false,
      "mediumArmorFullSpeed": false,
      "heavyArmorFullSpeed": false
    },
    "contextNotes": [],
    "links": {
      "children": [],
      "charges": []
    },
    "tag": "",
    "useCustomTag": false,
    "armorProf": {
      "value": [],
      "custom": ""
    },
    "weaponProf": {
      "value": [],
      "custom": ""
    },
    "languages": {
      "value": [],
      "custom": ""
    },
    "flags": {
      "boolean": {},
      "dictionary": {}
    },
    "scriptCalls": [],
    "subType": "feat",
    "associations": {
      "classes": []
    },
    "showInQuickbar": false,
    "abilityType": "none",
    "crOffset": "",
    "disabled": false,
    "classSkills": {}
  },
  "ownership": {
    "default": 0
  },
  "_stats": {
    "systemId": "pf1",
    "systemVersion": "9.1",
    "coreVersion": "10.291",
    "createdTime": 1665428354463,
    "modifiedTime": 1689797887799,
    "lastModifiedBy": "ppv91YxratjWnkJi"
  },
  "effects": [],
  "folder": null,
  "sort": 0,
  "flags": {},
  "_key": "!items!RfllrdJLenSlGDR0"
}