{
  "_id": "GPug5Xucoq4JgnJm",
  "name": "Bloodstone Manhunter",
  "type": "feat",
  "img": "systems/pf1/icons/skills/blood_01.jpg",
  "system": {
    "description": {
      "value": "<em>You are skilled at fighting criminal humans such as bandits.</em><br/><br/><b>Prerequisites</b><br/>Bloodstone Swords 10 TPA.<br/><br/><b>Benefits</b><br/>You gain a +1 bonus on Bluff, Knowledge, Perception, Sense Motive, and Survival checks against humans, and a +1 bonus on weapon attack and damage rolls against humans. If you have a favored enemy bonus against humans, this feat does not stack with that bonus.",
      "unidentified": ""
    },
    "tags": [
      "Faction"
    ],
    "actions": [],
    "uses": {
      "per": null,
      "value": 0,
      "maxFormula": "",
      "autoDeductChargesCost": "1"
    },
    "attackNotes": [],
    "effectNotes": [],
    "changes": [],
    "changeFlags": {
      "loseDexToAC": false,
      "noEncumbrance": false,
      "mediumArmorFullSpeed": false,
      "heavyArmorFullSpeed": false
    },
    "contextNotes": [],
    "links": {
      "children": [],
      "charges": []
    },
    "tag": "",
    "useCustomTag": false,
    "armorProf": {
      "value": [],
      "custom": ""
    },
    "weaponProf": {
      "value": [],
      "custom": ""
    },
    "languages": {
      "value": [],
      "custom": ""
    },
    "flags": {
      "boolean": {},
      "dictionary": {}
    },
    "scriptCalls": [],
    "subType": "feat",
    "associations": {
      "classes": []
    },
    "showInQuickbar": false,
    "abilityType": "none",
    "crOffset": "",
    "disabled": false,
    "classSkills": {}
  },
  "ownership": {
    "default": 0
  },
  "_stats": {
    "systemId": "pf1",
    "systemVersion": "9.1",
    "coreVersion": "10.291",
    "createdTime": 1665428352757,
    "modifiedTime": 1689797882431,
    "lastModifiedBy": "ppv91YxratjWnkJi"
  },
  "effects": [],
  "folder": null,
  "sort": 0,
  "flags": {},
  "_key": "!items!GPug5Xucoq4JgnJm"
}