{
  "_id": "FzgYIJkO0HLUUyhr",
  "name": "Blustering Bluff",
  "type": "feat",
  "img": "systems/pf1/icons/skills/red_10.jpg",
  "system": {
    "description": {
      "value": "<p><em>You can verbally bully others into believing unlikely or outrageous lies.</em><br /><br /><strong>Prerequisites</strong><br />Cha 13, Bluff 1 rank, Intimidate 1 rank.<br /><br /><strong>Benefits</strong><br />When using Bluff to fool a foe, you can bully that person to reduce the penalty for telling an unlikely or far-fetched lie by 5. If you do so and your check would not have succeeded otherwise, after 1d6 x10 minutes, the person you fooled realizes you bullied him into believing a lie, treats you as unfriendly, and might report you or take other actions against you.<br /><br /><strong>Normal</strong><br />The penalty for telling unlikely lies is -5, and the penalty for telling far-fetched lies is -10.</p>",
      "unidentified": ""
    },
    "tags": [
      "PFS",
      "General"
    ],
    "actions": [],
    "uses": {
      "per": null,
      "value": 0,
      "maxFormula": "",
      "autoDeductChargesCost": "1"
    },
    "attackNotes": [],
    "effectNotes": [],
    "changes": [],
    "changeFlags": {
      "loseDexToAC": false,
      "noEncumbrance": false,
      "mediumArmorFullSpeed": false,
      "heavyArmorFullSpeed": false
    },
    "contextNotes": [],
    "links": {
      "children": [],
      "charges": []
    },
    "tag": "",
    "useCustomTag": false,
    "armorProf": {
      "value": [],
      "custom": ""
    },
    "weaponProf": {
      "value": [],
      "custom": ""
    },
    "languages": {
      "value": [],
      "custom": ""
    },
    "flags": {
      "boolean": {},
      "dictionary": {}
    },
    "scriptCalls": [],
    "subType": "feat",
    "associations": {
      "classes": []
    },
    "showInQuickbar": false,
    "abilityType": "none",
    "crOffset": "",
    "disabled": false,
    "classSkills": {}
  },
  "ownership": {
    "default": 0
  },
  "_stats": {
    "systemId": "pf1",
    "systemVersion": "9.1",
    "coreVersion": "10.291",
    "createdTime": 1665428352700,
    "modifiedTime": 1689797882069,
    "lastModifiedBy": "ppv91YxratjWnkJi"
  },
  "effects": [],
  "folder": null,
  "sort": 0,
  "flags": {},
  "_key": "!items!FzgYIJkO0HLUUyhr"
}