{
  "_id": "14LVyS60Qg1McdDO",
  "name": "Boar Style",
  "type": "feat",
  "img": "systems/pf1/icons/skills/beast_02.jpg",
  "system": {
    "description": {
      "value": "<p><em>Your sharp teeth and nails rip your foes open.</em><br /><br /><strong>Prerequisites</strong><br />Improved Unarmed Strike, Intimidate 3 ranks.<br /><br /><strong>Benefits</strong><br />You can deal bludgeoning damage or slashing damage with your unarmed strikes--changing damage type is a free action. While using this style, once per round when you hit a single foe with two or more unarmed strikes, you can tear flesh. When you do, you deal 2d6 extra points of damage with the attack.<br /><br /><strong>Combat Trick</strong><br />While using this style, you can spend 3 stamina points when you hit a target with only one unarmed strike during a round to tear flesh and deal 2d6 points of damage with the attack. You can still only tear flesh once per round.</p>",
      "unidentified": ""
    },
    "tags": [
      "PFS",
      "Combat",
      "Style"
    ],
    "actions": [],
    "uses": {
      "per": null,
      "value": 0,
      "maxFormula": "",
      "autoDeductChargesCost": "1"
    },
    "attackNotes": [],
    "effectNotes": [],
    "changes": [],
    "changeFlags": {
      "loseDexToAC": false,
      "noEncumbrance": false,
      "mediumArmorFullSpeed": false,
      "heavyArmorFullSpeed": false
    },
    "contextNotes": [],
    "links": {
      "children": [],
      "charges": []
    },
    "tag": "",
    "useCustomTag": false,
    "armorProf": {
      "value": [],
      "custom": ""
    },
    "weaponProf": {
      "value": [],
      "custom": ""
    },
    "languages": {
      "value": [],
      "custom": ""
    },
    "flags": {
      "boolean": {},
      "dictionary": {}
    },
    "scriptCalls": [],
    "subType": "feat",
    "associations": {
      "classes": []
    },
    "showInQuickbar": false,
    "abilityType": "none",
    "crOffset": "",
    "disabled": false,
    "classSkills": {}
  },
  "ownership": {
    "default": 0
  },
  "_stats": {
    "systemId": "pf1",
    "systemVersion": "9.1",
    "coreVersion": "10.291",
    "createdTime": 1665428350649,
    "modifiedTime": 1689797874330,
    "lastModifiedBy": "ppv91YxratjWnkJi"
  },
  "effects": [],
  "folder": null,
  "sort": 0,
  "flags": {},
  "_key": "!items!14LVyS60Qg1McdDO"
}