{
  "_id": "DQCAvp1U26OcgjL9",
  "name": "Body Control",
  "type": "feat",
  "img": "systems/pf1/icons/skills/blue_35.jpg",
  "system": {
    "description": {
      "value": "<em>You can directly manipulate your autonomic functions.</em><br/><br/><b>Prerequisites</b><br/>Wis 11, Meditation Master.<br/><br/><b>Benefits</b><br/>For 24 hours after you meditate, you gain a +1 bonus on Fortitude saving throws against poison, disease, starvation, and effects that would make you fatigued or exhausted. You need only half as much food to avoid starvation, half as much water to avoid dehydration, and half as much sleep to heal injuries, avoid fatigue or exhaustion, and prepare spells.",
      "unidentified": ""
    },
    "tags": [
      "PFS",
      "Meditation"
    ],
    "actions": [],
    "uses": {
      "per": null,
      "value": 0,
      "maxFormula": "",
      "autoDeductChargesCost": "1"
    },
    "attackNotes": [],
    "effectNotes": [],
    "changes": [],
    "changeFlags": {
      "loseDexToAC": false,
      "noEncumbrance": false,
      "mediumArmorFullSpeed": false,
      "heavyArmorFullSpeed": false
    },
    "contextNotes": [],
    "links": {
      "children": [],
      "charges": []
    },
    "tag": "",
    "useCustomTag": false,
    "armorProf": {
      "value": [],
      "custom": ""
    },
    "weaponProf": {
      "value": [],
      "custom": ""
    },
    "languages": {
      "value": [],
      "custom": ""
    },
    "flags": {
      "boolean": {},
      "dictionary": {}
    },
    "scriptCalls": [],
    "subType": "feat",
    "associations": {
      "classes": []
    },
    "showInQuickbar": false,
    "abilityType": "none",
    "crOffset": "",
    "disabled": false,
    "classSkills": {}
  },
  "ownership": {
    "default": 0
  },
  "_stats": {
    "systemId": "pf1",
    "systemVersion": "9.1",
    "coreVersion": "10.291",
    "createdTime": 1665428352465,
    "modifiedTime": 1689797880277,
    "lastModifiedBy": "ppv91YxratjWnkJi"
  },
  "effects": [],
  "folder": null,
  "sort": 0,
  "flags": {},
  "_key": "!items!DQCAvp1U26OcgjL9"
}