{
  "_id": "j2bq4CvpXtqkwWqL",
  "name": "Bonded Mind",
  "type": "feat",
  "img": "systems/pf1/icons/spells/link-blue-1.jpg",
  "system": {
    "description": {
      "value": "<p><em>You and your partner are so close that you can almost read each other's minds.</em><br /><br /><strong>Benefits</strong><br />As long as you can see each other, you and an ally who also has this feat can trade nonverbal messages. These function as the message spell, except that you don't need to whisper or point, and you cannot be overheard.</p>\n<p><br /><strong>Pathfinder Society<br /></strong>A PC cannot benefit from the feat Bonded Mind or any teamwork feats that use it as a prerequisite unless he permanently possesses the feat; this is an exception to how an inquisitor's solo tactics ability, a cavalier's tactician ability, and similar abilities function.</p>",
      "unidentified": ""
    },
    "tags": [
      "PFS",
      "Teamwork"
    ],
    "actions": [],
    "uses": {
      "per": null,
      "value": 0,
      "maxFormula": "",
      "autoDeductChargesCost": "1"
    },
    "attackNotes": [],
    "effectNotes": [],
    "changes": [],
    "changeFlags": {
      "loseDexToAC": false,
      "noEncumbrance": false,
      "mediumArmorFullSpeed": false,
      "heavyArmorFullSpeed": false
    },
    "contextNotes": [],
    "links": {
      "children": [],
      "charges": []
    },
    "tag": "",
    "useCustomTag": false,
    "armorProf": {
      "value": [],
      "custom": ""
    },
    "weaponProf": {
      "value": [],
      "custom": ""
    },
    "languages": {
      "value": [],
      "custom": ""
    },
    "flags": {
      "boolean": {},
      "dictionary": {}
    },
    "scriptCalls": [],
    "subType": "feat",
    "associations": {
      "classes": []
    },
    "showInQuickbar": false,
    "abilityType": "none",
    "crOffset": "",
    "disabled": false,
    "classSkills": {}
  },
  "ownership": {
    "default": 0
  },
  "_stats": {
    "systemId": "pf1",
    "systemVersion": "9.1",
    "coreVersion": "10.291",
    "createdTime": 1665428356823,
    "modifiedTime": 1689797896933,
    "lastModifiedBy": "ppv91YxratjWnkJi"
  },
  "effects": [],
  "folder": null,
  "sort": 0,
  "flags": {},
  "_key": "!items!j2bq4CvpXtqkwWqL"
}