{
  "_id": "oyzaX8DIZ0bMMv3s",
  "name": "Born Alone",
  "type": "feat",
  "img": "systems/pf1/icons/skills/red_29.jpg",
  "system": {
    "description": {
      "value": "<em>You are so tough and vicious that you killed and ate the rest of your litter while still in the womb.</em><br/><br/><b>Prerequisites</b><br/>Orc.<br/><br/><b>Benefits</b><br/>Whenever you kill or knock unconscious an opponent with a melee attack, you gain temporary hit points equal to your Constitution bonus (minimum 1) until your next turn. These temporary hit points do not stack. You do not gain this bonus if the opponent is helpless or has less than half your Hit Dice.",
      "unidentified": ""
    },
    "tags": [
      "Racial",
      "Orc"
    ],
    "actions": [],
    "uses": {
      "per": null,
      "value": 0,
      "maxFormula": "",
      "autoDeductChargesCost": "1"
    },
    "attackNotes": [],
    "effectNotes": [],
    "changes": [],
    "changeFlags": {
      "loseDexToAC": false,
      "noEncumbrance": false,
      "mediumArmorFullSpeed": false,
      "heavyArmorFullSpeed": false
    },
    "contextNotes": [],
    "links": {
      "children": [],
      "charges": []
    },
    "tag": "",
    "useCustomTag": false,
    "armorProf": {
      "value": [],
      "custom": ""
    },
    "weaponProf": {
      "value": [],
      "custom": ""
    },
    "languages": {
      "value": [],
      "custom": ""
    },
    "flags": {
      "boolean": {},
      "dictionary": {}
    },
    "scriptCalls": [],
    "subType": "feat",
    "associations": {
      "classes": []
    },
    "showInQuickbar": false,
    "abilityType": "none",
    "crOffset": "",
    "disabled": false,
    "classSkills": {}
  },
  "ownership": {
    "default": 0
  },
  "_stats": {
    "systemId": "pf1",
    "systemVersion": "9.1",
    "coreVersion": "10.291",
    "createdTime": 1665428357624,
    "modifiedTime": 1689797899903,
    "lastModifiedBy": "ppv91YxratjWnkJi"
  },
  "effects": [],
  "folder": null,
  "sort": 0,
  "flags": {},
  "_key": "!items!oyzaX8DIZ0bMMv3s"
}