{
  "_id": "gsIJoSzfex2hHYPg",
  "name": "Bounding Step",
  "type": "feat",
  "img": "systems/pf1/icons/skills/green_13.jpg",
  "system": {
    "description": {
      "value": "<em>You can leap through difficult terrain like a deer or elk.</em><br/><br/><b>Prerequisites</b><br/>Dex 15, Nimble Moves.<br/><br/><b>Benefits</b><br/>You gain a +2 bonus on Acrobatics checks to keep your balance and Reflex saves to avoid falling. Additionally, select one terrain type from the ranger list of favored terrains. Within that terrain, the maximum number of feet of difficult terrain you can move through as if it were normal terrain increases by 10 feet.<br/><br/><b>Normal</b><br/>Nimble Moves allows you to move through 5 feet of difficult terrain each round as if it were normal terrain.<br/><br/><b>Special</b><br/>If you have the favored terrain class feature, you do not select a terrain with this feat. Instead, this feat's increased movement through difficult terrain applies to all of your favored terrains.",
      "unidentified": ""
    },
    "tags": [
      "PFS",
      "General"
    ],
    "actions": [],
    "uses": {
      "per": null,
      "value": 0,
      "maxFormula": "",
      "autoDeductChargesCost": "1"
    },
    "attackNotes": [],
    "effectNotes": [],
    "changes": [],
    "changeFlags": {
      "loseDexToAC": false,
      "noEncumbrance": false,
      "mediumArmorFullSpeed": false,
      "heavyArmorFullSpeed": false
    },
    "contextNotes": [],
    "links": {
      "children": [],
      "charges": []
    },
    "tag": "",
    "useCustomTag": false,
    "armorProf": {
      "value": [],
      "custom": ""
    },
    "weaponProf": {
      "value": [],
      "custom": ""
    },
    "languages": {
      "value": [],
      "custom": ""
    },
    "flags": {
      "boolean": {},
      "dictionary": {}
    },
    "scriptCalls": [],
    "subType": "feat",
    "associations": {
      "classes": []
    },
    "showInQuickbar": false,
    "abilityType": "none",
    "crOffset": "",
    "disabled": false,
    "classSkills": {}
  },
  "ownership": {
    "default": 0
  },
  "_stats": {
    "systemId": "pf1",
    "systemVersion": "9.1",
    "coreVersion": "10.291",
    "createdTime": 1665428356676,
    "modifiedTime": 1689797896036,
    "lastModifiedBy": "ppv91YxratjWnkJi"
  },
  "effects": [],
  "folder": null,
  "sort": 0,
  "flags": {},
  "_key": "!items!gsIJoSzfex2hHYPg"
}