{
  "_id": "eYlp0y98cTJdNsbs",
  "name": "Brain Eater",
  "type": "feat",
  "img": "systems/pf1/icons/skills/beast_04.jpg",
  "system": {
    "description": {
      "value": "<em>You gain some of the skills and knowledge of a consumed foe by eating its brain.</em><br/><br/><b>Prerequisites</b><br/>Ghoul, Int 17.<br/><br/><b>Benefits</b><br/>If you eat a portion of the brain of a creature with Intelligence 3 or higher, you gain a +2 insight bonus on all skill checks and Will saving throws for 1 hour. Eating a brain is a full-round action, and the target must be dead or helpless. If the target is living, you may attempt to eat its brain as a coup de grace attack on the target, but you gain the insight bonus only if your attempt results in the victim's death.",
      "unidentified": ""
    },
    "tags": [
      "Monster",
      "Ghoul"
    ],
    "actions": [],
    "uses": {
      "per": null,
      "value": 0,
      "maxFormula": "",
      "autoDeductChargesCost": "1"
    },
    "attackNotes": [],
    "effectNotes": [],
    "changes": [],
    "changeFlags": {
      "loseDexToAC": false,
      "noEncumbrance": false,
      "mediumArmorFullSpeed": false,
      "heavyArmorFullSpeed": false
    },
    "contextNotes": [],
    "links": {
      "children": [],
      "charges": []
    },
    "tag": "",
    "useCustomTag": false,
    "armorProf": {
      "value": [],
      "custom": ""
    },
    "weaponProf": {
      "value": [],
      "custom": ""
    },
    "languages": {
      "value": [],
      "custom": ""
    },
    "flags": {
      "boolean": {},
      "dictionary": {}
    },
    "scriptCalls": [],
    "subType": "feat",
    "associations": {
      "classes": []
    },
    "showInQuickbar": false,
    "abilityType": "none",
    "crOffset": "",
    "disabled": false,
    "classSkills": {}
  },
  "ownership": {
    "default": 0
  },
  "_stats": {
    "systemId": "pf1",
    "systemVersion": "9.1",
    "coreVersion": "10.291",
    "createdTime": 1665428356196,
    "modifiedTime": 1689797894792,
    "lastModifiedBy": "ppv91YxratjWnkJi"
  },
  "effects": [],
  "folder": null,
  "sort": 0,
  "flags": {},
  "_key": "!items!eYlp0y98cTJdNsbs"
}