{
  "_id": "AWbHuUTcceeZ5Wxr",
  "name": "Brash Stride",
  "type": "feat",
  "img": "icons/equipment/feet/boots-armored-leather-brown.webp",
  "system": {
    "description": {
      "value": "<em>You have studied the bold fighting style of Grand Prince Cyricas and emulate his intrepid tread through jungles and other dangerous lands.</em><br/><br/><b>Prerequisites</b><br/>Dex 15, Acrobatic Steps, Nimble Moves.<br/><br/><b>Benefits</b><br/>When you charge or run, you treat difficult terrain as normal terrain.",
      "unidentified": ""
    },
    "tags": [
      "PFS",
      "General"
    ],
    "actions": [],
    "uses": {
      "per": null,
      "value": 0,
      "maxFormula": "",
      "autoDeductChargesCost": "1"
    },
    "attackNotes": [],
    "effectNotes": [],
    "changes": [],
    "changeFlags": {
      "loseDexToAC": false,
      "noEncumbrance": false,
      "mediumArmorFullSpeed": false,
      "heavyArmorFullSpeed": false
    },
    "contextNotes": [],
    "links": {
      "children": [],
      "charges": []
    },
    "tag": "",
    "useCustomTag": false,
    "armorProf": {
      "value": [],
      "custom": ""
    },
    "weaponProf": {
      "value": [],
      "custom": ""
    },
    "languages": {
      "value": [],
      "custom": ""
    },
    "flags": {
      "boolean": {},
      "dictionary": {}
    },
    "scriptCalls": [],
    "subType": "feat",
    "associations": {
      "classes": []
    },
    "showInQuickbar": false,
    "abilityType": "none",
    "crOffset": "",
    "disabled": false,
    "classSkills": {}
  },
  "ownership": {
    "default": 0
  },
  "_stats": {
    "systemId": "pf1",
    "systemVersion": "9.1",
    "coreVersion": "10.291",
    "createdTime": 1665428351993,
    "modifiedTime": 1689797878665,
    "lastModifiedBy": "ppv91YxratjWnkJi"
  },
  "effects": [],
  "folder": null,
  "sort": 0,
  "flags": {},
  "_key": "!items!AWbHuUTcceeZ5Wxr"
}