{
  "_id": "bkw0OuBdByzeWF0N",
  "name": "Breadth of Experience",
  "type": "feat",
  "img": "icons/sundries/documents/document-bound-white.webp",
  "system": {
    "description": {
      "value": "<em>Although still young for your kind, you have a lifetime of knowledge and training.</em><br/><br/><b>Prerequisites</b><br/>Dwarf, elf, or gnome; 100+ years old.<br/><br/><b>Benefits</b><br/>You get a +2 bonus on all Knowledge and Profession skill checks, and can make checks with those skills untrained.",
      "unidentified": ""
    },
    "tags": [
      "PFS",
      "Racial",
      "Gnome",
      "Elf",
      "Dwarf"
    ],
    "actions": [],
    "uses": {
      "per": null,
      "value": 0,
      "maxFormula": "",
      "autoDeductChargesCost": "1"
    },
    "attackNotes": [],
    "effectNotes": [],
    "changes": [],
    "changeFlags": {
      "loseDexToAC": false,
      "noEncumbrance": false,
      "mediumArmorFullSpeed": false,
      "heavyArmorFullSpeed": false
    },
    "contextNotes": [],
    "links": {
      "children": [],
      "charges": []
    },
    "tag": "",
    "useCustomTag": false,
    "armorProf": {
      "value": [],
      "custom": ""
    },
    "weaponProf": {
      "value": [],
      "custom": ""
    },
    "languages": {
      "value": [],
      "custom": ""
    },
    "flags": {
      "boolean": {},
      "dictionary": {}
    },
    "scriptCalls": [],
    "subType": "feat",
    "associations": {
      "classes": []
    },
    "showInQuickbar": false,
    "abilityType": "none",
    "crOffset": "",
    "disabled": false,
    "classSkills": {}
  },
  "ownership": {
    "default": 0
  },
  "_stats": {
    "systemId": "pf1",
    "systemVersion": "9.1",
    "coreVersion": "10.291",
    "createdTime": 1665428355676,
    "modifiedTime": 1689797893126,
    "lastModifiedBy": "ppv91YxratjWnkJi"
  },
  "effects": [],
  "folder": null,
  "sort": 0,
  "flags": {},
  "_key": "!items!bkw0OuBdByzeWF0N"
}