{
  "_id": "ZybkUDeuOiDd0ZRP",
  "name": "Breaker of Barriers",
  "type": "feat",
  "img": "systems/pf1/icons/feats/spirited-charge.jpg",
  "system": {
    "description": {
      "value": "<em>You see it as your sacred duty to destroy all obstacles.</em><br/><br/><b>Prerequisites</b><br/>Str 17, worshiper of Rovagug.<br/><br/><b>Benefits</b><br/>You gain a +2 bonus on Strength checks to break down doors, walls, dams, and other barriers and on combat maneuver checks to bull rush and overrun opponents. You ignore the first 5 points of hardness when you deal damage to doors, walls, dams, and other barriers.",
      "unidentified": ""
    },
    "tags": [
      "PFS",
      "Combat"
    ],
    "actions": [],
    "uses": {
      "per": null,
      "value": 0,
      "maxFormula": "",
      "autoDeductChargesCost": "1"
    },
    "attackNotes": [],
    "effectNotes": [],
    "changes": [],
    "changeFlags": {
      "loseDexToAC": false,
      "noEncumbrance": false,
      "mediumArmorFullSpeed": false,
      "heavyArmorFullSpeed": false
    },
    "contextNotes": [],
    "links": {
      "children": [],
      "charges": []
    },
    "tag": "",
    "useCustomTag": false,
    "armorProf": {
      "value": [],
      "custom": ""
    },
    "weaponProf": {
      "value": [],
      "custom": ""
    },
    "languages": {
      "value": [],
      "custom": ""
    },
    "flags": {
      "boolean": {},
      "dictionary": {}
    },
    "scriptCalls": [],
    "subType": "feat",
    "associations": {
      "classes": []
    },
    "showInQuickbar": false,
    "abilityType": "none",
    "crOffset": "",
    "disabled": false,
    "classSkills": {}
  },
  "ownership": {
    "default": 0
  },
  "_stats": {
    "systemId": "pf1",
    "systemVersion": "9.1",
    "coreVersion": "10.291",
    "createdTime": 1665428355553,
    "modifiedTime": 1689797892461,
    "lastModifiedBy": "ppv91YxratjWnkJi"
  },
  "effects": [],
  "folder": null,
  "sort": 0,
  "flags": {},
  "_key": "!items!ZybkUDeuOiDd0ZRP"
}