{
  "_id": "fqZym8k7Q2WhKwFy",
  "name": "Brood Defender",
  "type": "feat",
  "img": "systems/pf1/icons/skills/weapon_14.jpg",
  "system": {
    "description": {
      "value": "<em>When someone under your protection is set upon, you react viciously against the attacker.</em><br/><br/><b>Prerequisites</b><br/>Bodyguard, Combat Reflexes, wyvaran.<br/><br/><b>Benefits</b><br/>If an opponent misses its attack on an ally after you successfully used the aid another action to improve that ally's AC this round, you can attempt an Intimidate check as an immediate action to demoralize that opponent.",
      "unidentified": ""
    },
    "tags": [
      "Racial",
      "Wyvaran"
    ],
    "actions": [],
    "uses": {
      "per": null,
      "value": 0,
      "maxFormula": "",
      "autoDeductChargesCost": "1"
    },
    "attackNotes": [],
    "effectNotes": [],
    "changes": [],
    "changeFlags": {
      "loseDexToAC": false,
      "noEncumbrance": false,
      "mediumArmorFullSpeed": false,
      "heavyArmorFullSpeed": false
    },
    "contextNotes": [],
    "links": {
      "children": [],
      "charges": []
    },
    "tag": "",
    "useCustomTag": false,
    "armorProf": {
      "value": [],
      "custom": ""
    },
    "weaponProf": {
      "value": [],
      "custom": ""
    },
    "languages": {
      "value": [],
      "custom": ""
    },
    "flags": {
      "boolean": {},
      "dictionary": {}
    },
    "scriptCalls": [],
    "subType": "feat",
    "associations": {
      "classes": []
    },
    "showInQuickbar": false,
    "abilityType": "none",
    "crOffset": "",
    "disabled": false,
    "classSkills": {}
  },
  "ownership": {
    "default": 0
  },
  "_stats": {
    "systemId": "pf1",
    "systemVersion": "9.1",
    "coreVersion": "10.291",
    "createdTime": 1665428356288,
    "modifiedTime": 1689797895206,
    "lastModifiedBy": "ppv91YxratjWnkJi"
  },
  "effects": [],
  "folder": null,
  "sort": 0,
  "flags": {},
  "_key": "!items!fqZym8k7Q2WhKwFy"
}