{
  "_id": "iz70tTKUwyHkxh5s",
  "name": "Bulette Leap",
  "type": "feat",
  "img": "systems/pf1/icons/feats/spirited-charge.jpg",
  "system": {
    "description": {
      "value": "<em>You can shove aside multiple opponents while leaping into the air.</em><br/><br/><b>Prerequisites</b><br/>Str 15, Bulette Charge Style, Improved Overrun, Power Attack, proficiency with heavy armor.<br/><br/><b>Benefits</b><br/>While using Bulette Charge Style, you gain a bonus on Acrobatics checks to jump equal to your Strength bonus. Additionally, when you perform an overrun combat maneuver, you can attempt to overrun multiple foes, but you take a cumulative -2 penalty on each successive overrun attempt in the same round. If an overrun attempt fails, you cannot make any further attempts until your next round.",
      "unidentified": ""
    },
    "tags": [
      "PFS",
      "Combat"
    ],
    "actions": [],
    "uses": {
      "per": null,
      "value": 0,
      "maxFormula": "",
      "autoDeductChargesCost": "1"
    },
    "attackNotes": [],
    "effectNotes": [],
    "changes": [],
    "changeFlags": {
      "loseDexToAC": false,
      "noEncumbrance": false,
      "mediumArmorFullSpeed": false,
      "heavyArmorFullSpeed": false
    },
    "contextNotes": [],
    "links": {
      "children": [],
      "charges": []
    },
    "tag": "",
    "useCustomTag": false,
    "armorProf": {
      "value": [],
      "custom": ""
    },
    "weaponProf": {
      "value": [],
      "custom": ""
    },
    "languages": {
      "value": [],
      "custom": ""
    },
    "flags": {
      "boolean": {},
      "dictionary": {}
    },
    "scriptCalls": [],
    "subType": "feat",
    "associations": {
      "classes": []
    },
    "showInQuickbar": false,
    "abilityType": "none",
    "crOffset": "",
    "disabled": false,
    "classSkills": {}
  },
  "ownership": {
    "default": 0
  },
  "_stats": {
    "systemId": "pf1",
    "systemVersion": "9.1",
    "coreVersion": "10.291",
    "createdTime": 1665428356818,
    "modifiedTime": 1689797896902,
    "lastModifiedBy": "ppv91YxratjWnkJi"
  },
  "effects": [],
  "folder": null,
  "sort": 0,
  "flags": {},
  "_key": "!items!iz70tTKUwyHkxh5s"
}