{
  "_id": "e8YkUZicuswmniIe",
  "name": "Bullying Blow",
  "type": "feat",
  "img": "systems/pf1/icons/skills/red_10.jpg",
  "system": {
    "description": {
      "value": "<em>With a simple hit, you more easily intimidate an opponent.</em><br/><br/><b>Prerequisites</b><br/>Intimidate 1 rank, orc.<br/><br/><b>Benefits</b><br/>As a standard action, you may make a melee attack with a -2 penalty on the attack roll. If the attack damages your opponent, you may make an Intimidate check to demoralize that opponent as a free action.",
      "unidentified": ""
    },
    "tags": [
      "Combat",
      "Racial",
      "Orc"
    ],
    "actions": [],
    "uses": {
      "per": null,
      "value": 0,
      "maxFormula": "",
      "autoDeductChargesCost": "1"
    },
    "attackNotes": [],
    "effectNotes": [],
    "changes": [],
    "changeFlags": {
      "loseDexToAC": false,
      "noEncumbrance": false,
      "mediumArmorFullSpeed": false,
      "heavyArmorFullSpeed": false
    },
    "contextNotes": [],
    "links": {
      "children": [],
      "charges": []
    },
    "tag": "",
    "useCustomTag": false,
    "armorProf": {
      "value": [],
      "custom": ""
    },
    "weaponProf": {
      "value": [],
      "custom": ""
    },
    "languages": {
      "value": [],
      "custom": ""
    },
    "flags": {
      "boolean": {},
      "dictionary": {}
    },
    "scriptCalls": [],
    "subType": "feat",
    "associations": {
      "classes": []
    },
    "showInQuickbar": false,
    "abilityType": "none",
    "crOffset": "",
    "disabled": false,
    "classSkills": {}
  },
  "ownership": {
    "default": 0
  },
  "_stats": {
    "systemId": "pf1",
    "systemVersion": "9.1",
    "coreVersion": "10.291",
    "createdTime": 1665428356152,
    "modifiedTime": 1689797894541,
    "lastModifiedBy": "ppv91YxratjWnkJi"
  },
  "effects": [],
  "folder": null,
  "sort": 0,
  "flags": {},
  "_key": "!items!e8YkUZicuswmniIe"
}