{
  "_id": "HjPc9WT7tHZfSOuL",
  "name": "Bull-Catcher Toss",
  "type": "feat",
  "img": "systems/pf1/icons/feats/greater-bull-rush.jpg",
  "system": {
    "description": {
      "value": "<em>You can use a charging foe's momentum to throw them aside.</em><br/><br/><b>Prerequisites</b><br/>Dex 13, Bull-Catcher Style, Improved Grapple, Improved Unarmed Strike; base attack bonus +8, brawler level 4th, or monk level 4th.<br/><br/><b>Benefits</b><br/>When you successfully grapple a creature with the Bull-Catcher Style feat, you can immediately move that creature into any square you threaten. After it is placed, you can break your grapple as an immediate action to move the creature an additional 5 feet in any direction. You can't use this maneuver to move a foe into a space that is intrinsically dangerous or unstable, such as a pit, wall of fire, or midair.",
      "unidentified": ""
    },
    "tags": [
      "PFS",
      "Combat"
    ],
    "actions": [],
    "uses": {
      "per": null,
      "value": 0,
      "maxFormula": "",
      "autoDeductChargesCost": "1"
    },
    "attackNotes": [],
    "effectNotes": [],
    "changes": [],
    "changeFlags": {
      "loseDexToAC": false,
      "noEncumbrance": false,
      "mediumArmorFullSpeed": false,
      "heavyArmorFullSpeed": false
    },
    "contextNotes": [],
    "links": {
      "children": [],
      "charges": []
    },
    "tag": "",
    "useCustomTag": false,
    "armorProf": {
      "value": [],
      "custom": ""
    },
    "weaponProf": {
      "value": [],
      "custom": ""
    },
    "languages": {
      "value": [],
      "custom": ""
    },
    "flags": {
      "boolean": {},
      "dictionary": {}
    },
    "scriptCalls": [],
    "subType": "feat",
    "associations": {
      "classes": []
    },
    "showInQuickbar": false,
    "abilityType": "none",
    "crOffset": "",
    "disabled": false,
    "classSkills": {}
  },
  "ownership": {
    "default": 0
  },
  "_stats": {
    "systemId": "pf1",
    "systemVersion": "9.1",
    "coreVersion": "10.291",
    "createdTime": 1665428353177,
    "modifiedTime": 1689797883372,
    "lastModifiedBy": "ppv91YxratjWnkJi"
  },
  "effects": [],
  "folder": null,
  "sort": 0,
  "flags": {},
  "_key": "!items!HjPc9WT7tHZfSOuL"
}