{
  "_id": "rflY8e0Dp1pLpn1b",
  "name": "Burning Amplification",
  "type": "feat",
  "img": "systems/pf1/icons/spells/light-air-fire-2.jpg",
  "system": {
    "description": {
      "value": "<em>You can expend some of the energy of your fire spells to make the flames linger long enough to cause your opponents to catch ablaze.</em><br/><br/><b>Benefits</b><br/>Whenever you cast a spell with the fire descriptor, you can take a -1 penalty on the spells' attack rolls and reduce the spell's saving throw DC by 1 to cause any target that is dealt fire damage to catch on fire. The targets do not take burning damage for catching on fire until their next turn, and each target can attempt a Reflex saving throw to put out the fire before being damaged each round. Rather than the normal DC 15 Reflex saving throw to put the fire out, the target must succeed at a Reflex saving throw with a DC equal 10 + the spell's level + the modifier of your spellcasting ability score). You must choose to use this feat before making an attack roll or before your targets attempt their saving throws. This feat has no effect on spells that neither allow a saving throw nor require an attack roll.",
      "unidentified": ""
    },
    "tags": [
      "PFS",
      "General"
    ],
    "actions": [],
    "uses": {
      "per": null,
      "value": 0,
      "maxFormula": "",
      "autoDeductChargesCost": "1"
    },
    "attackNotes": [],
    "effectNotes": [],
    "changes": [],
    "changeFlags": {
      "loseDexToAC": false,
      "noEncumbrance": false,
      "mediumArmorFullSpeed": false,
      "heavyArmorFullSpeed": false
    },
    "contextNotes": [],
    "links": {
      "children": [],
      "charges": []
    },
    "tag": "",
    "useCustomTag": false,
    "armorProf": {
      "value": [],
      "custom": ""
    },
    "weaponProf": {
      "value": [],
      "custom": ""
    },
    "languages": {
      "value": [],
      "custom": ""
    },
    "flags": {
      "boolean": {},
      "dictionary": {}
    },
    "scriptCalls": [],
    "subType": "feat",
    "associations": {
      "classes": []
    },
    "showInQuickbar": false,
    "abilityType": "none",
    "crOffset": "",
    "disabled": false,
    "classSkills": {}
  },
  "ownership": {
    "default": 0
  },
  "_stats": {
    "systemId": "pf1",
    "systemVersion": "9.1",
    "coreVersion": "10.291",
    "createdTime": 1665428358149,
    "modifiedTime": 1689797901422,
    "lastModifiedBy": "ppv91YxratjWnkJi"
  },
  "effects": [],
  "folder": null,
  "sort": 0,
  "flags": {},
  "_key": "!items!rflY8e0Dp1pLpn1b"
}