{
  "_id": "OeX7m8QjG8ZsLb5n",
  "name": "Bushwhack",
  "type": "feat",
  "img": "icons/environment/traps/trap-jaw-steel.webp",
  "system": {
    "description": {
      "value": "<em>You can subdue an unsuspecting foe quickly.</em><br/><br/><b>Prerequisites</b><br/>Dex 13, Improved Grapple, Improved Unarmed Strike.<br/><br/><b>Benefits</b><br/>When a flat-footed creature is unaware of your presence and you successfully grapple it, you can attempt a second grapple combat maneuver check to pin the creature as a free action. If you have the Chokehold feat (Pathfinder RPG Ultimate Combat 92), you can instead use this second combat maneuver check to initiate a chokehold.",
      "unidentified": ""
    },
    "tags": [
      "PFS",
      "Combat"
    ],
    "actions": [],
    "uses": {
      "per": null,
      "value": 0,
      "maxFormula": "",
      "autoDeductChargesCost": "1"
    },
    "attackNotes": [],
    "effectNotes": [],
    "changes": [],
    "changeFlags": {
      "loseDexToAC": false,
      "noEncumbrance": false,
      "mediumArmorFullSpeed": false,
      "heavyArmorFullSpeed": false
    },
    "contextNotes": [],
    "links": {
      "children": [],
      "charges": []
    },
    "tag": "",
    "useCustomTag": false,
    "armorProf": {
      "value": [],
      "custom": ""
    },
    "weaponProf": {
      "value": [],
      "custom": ""
    },
    "languages": {
      "value": [],
      "custom": ""
    },
    "flags": {
      "boolean": {},
      "dictionary": {}
    },
    "scriptCalls": [],
    "subType": "feat",
    "associations": {
      "classes": []
    },
    "showInQuickbar": false,
    "abilityType": "none",
    "crOffset": "",
    "disabled": false,
    "classSkills": {}
  },
  "ownership": {
    "default": 0
  },
  "_stats": {
    "systemId": "pf1",
    "systemVersion": "9.1",
    "coreVersion": "10.291",
    "createdTime": 1665428353968,
    "modifiedTime": 1689797886354,
    "lastModifiedBy": "ppv91YxratjWnkJi"
  },
  "effects": [],
  "folder": null,
  "sort": 0,
  "flags": {},
  "_key": "!items!OeX7m8QjG8ZsLb5n"
}