{
  "_id": "UOMK9A0wgK0YhaIc",
  "name": "Camouflaged Trap",
  "type": "feat",
  "img": "icons/environment/traps/spike-skull-white-brown.webp",
  "system": {
    "description": {
      "value": "<em>You excel at hiding your traps in the wilderness, making them more difficult for your enemies to locate and avoid.</em><br/><br/><b>Prerequisites</b><br/>Craft (traps) 4 ranks, Survival 4 ranks.<br/><br/><b>Benefits</b><br/>When you craft and set a trap in a wilderness environment, you increase the DC of the Perception check required to find it by 5.",
      "unidentified": ""
    },
    "tags": [
      "PFS",
      "General"
    ],
    "actions": [],
    "uses": {
      "per": null,
      "value": 0,
      "maxFormula": "",
      "autoDeductChargesCost": "1"
    },
    "attackNotes": [],
    "effectNotes": [],
    "changes": [],
    "changeFlags": {
      "loseDexToAC": false,
      "noEncumbrance": false,
      "mediumArmorFullSpeed": false,
      "heavyArmorFullSpeed": false
    },
    "contextNotes": [],
    "links": {
      "children": [],
      "charges": []
    },
    "tag": "",
    "useCustomTag": false,
    "armorProf": {
      "value": [],
      "custom": ""
    },
    "weaponProf": {
      "value": [],
      "custom": ""
    },
    "languages": {
      "value": [],
      "custom": ""
    },
    "flags": {
      "boolean": {},
      "dictionary": {}
    },
    "scriptCalls": [],
    "subType": "feat",
    "associations": {
      "classes": []
    },
    "showInQuickbar": false,
    "abilityType": "none",
    "crOffset": "",
    "disabled": false,
    "classSkills": {}
  },
  "ownership": {
    "default": 0
  },
  "_stats": {
    "systemId": "pf1",
    "systemVersion": "9.1",
    "coreVersion": "10.291",
    "createdTime": 1665428354909,
    "modifiedTime": 1689797889665,
    "lastModifiedBy": "ppv91YxratjWnkJi"
  },
  "effects": [],
  "folder": null,
  "sort": 0,
  "flags": {},
  "_key": "!items!UOMK9A0wgK0YhaIc"
}