{
  "_id": "5UMIEve3HUHJOFTE",
  "name": "Casual Illusionist",
  "type": "feat",
  "img": "systems/pf1/icons/spells/air-burst-air-2.jpg",
  "system": {
    "description": {
      "value": "<em>You can use your innate magic to create minor illusions that augment your efforts at trickery and deceit.</em><br/><br/><b>Prerequisites</b><br/>Gnome, gnome magic racial trait.<br/><br/><b>Benefits</b><br/>As long as you have at least one spell-like ability unused from your gnome magic racial trait, you gain a +2 racial bonus on all Bluff, Disguise, and Sleight of Hand checks you make. At 10th level, these bonuses increase to +4.<br/><br/><b>Special</b><br/>This feat counts as the Deceitful feat for the purposes of all prerequisites.",
      "unidentified": ""
    },
    "tags": [
      "PFS",
      "Racial",
      "Gnome"
    ],
    "actions": [],
    "uses": {
      "per": null,
      "value": 0,
      "maxFormula": "",
      "autoDeductChargesCost": "1"
    },
    "attackNotes": [],
    "effectNotes": [],
    "changes": [],
    "changeFlags": {
      "loseDexToAC": false,
      "noEncumbrance": false,
      "mediumArmorFullSpeed": false,
      "heavyArmorFullSpeed": false
    },
    "contextNotes": [],
    "links": {
      "children": [],
      "charges": []
    },
    "tag": "",
    "useCustomTag": false,
    "armorProf": {
      "value": [],
      "custom": ""
    },
    "weaponProf": {
      "value": [],
      "custom": ""
    },
    "languages": {
      "value": [],
      "custom": ""
    },
    "flags": {
      "boolean": {},
      "dictionary": {}
    },
    "scriptCalls": [],
    "subType": "feat",
    "associations": {
      "classes": []
    },
    "showInQuickbar": false,
    "abilityType": "none",
    "crOffset": "",
    "disabled": false,
    "classSkills": {}
  },
  "ownership": {
    "default": 0
  },
  "_stats": {
    "systemId": "pf1",
    "systemVersion": "9.1",
    "coreVersion": "10.291",
    "createdTime": 1665428351251,
    "modifiedTime": 1689797876282,
    "lastModifiedBy": "ppv91YxratjWnkJi"
  },
  "effects": [],
  "folder": null,
  "sort": 0,
  "flags": {},
  "_key": "!items!5UMIEve3HUHJOFTE"
}