{
  "_id": "vMe1ES46UArLGG98",
  "name": "Caustic Slur",
  "type": "feat",
  "img": "systems/pf1/icons/skills/red_10.jpg",
  "system": {
    "description": {
      "value": "<em>You know exactly how to insult your favored enemies in order to make them lose their heads.</em><br/><br/><b>Prerequisites</b><br/>Bluff 1 rank, favored enemy class feature, gnome.<br/><br/><b>Benefits</b><br/>As a standard action, you can make a Bluff check against one sort of favored enemy. Any creature of that type within 60 feet of you must make a Will saving throw or become angered. If an affected creature attacks you, it's treated as if it were using Power Attack (taking a penalty on attack rolls but gaining a bonus on damage rolls). If the creature already has the power attack feat, the attack penalty increases by 1 and the damage bonus increases by 2. These modifiers end when combat ends.<br/>This ability does not work on creatures that cannot understand you, though sometimes a simple gesture is sufficient for an intelligent opponent to catch your gist regardless of any language barrier.",
      "unidentified": ""
    },
    "tags": [
      "PFS",
      "Racial",
      "Gnome"
    ],
    "actions": [],
    "uses": {
      "per": null,
      "value": 0,
      "maxFormula": "",
      "autoDeductChargesCost": "1"
    },
    "attackNotes": [],
    "effectNotes": [],
    "changes": [],
    "changeFlags": {
      "loseDexToAC": false,
      "noEncumbrance": false,
      "mediumArmorFullSpeed": false,
      "heavyArmorFullSpeed": false
    },
    "contextNotes": [],
    "links": {
      "children": [],
      "charges": []
    },
    "tag": "",
    "useCustomTag": false,
    "armorProf": {
      "value": [],
      "custom": ""
    },
    "weaponProf": {
      "value": [],
      "custom": ""
    },
    "languages": {
      "value": [],
      "custom": ""
    },
    "flags": {
      "boolean": {},
      "dictionary": {}
    },
    "scriptCalls": [],
    "subType": "feat",
    "associations": {
      "classes": []
    },
    "showInQuickbar": false,
    "abilityType": "none",
    "crOffset": "",
    "disabled": false,
    "classSkills": {}
  },
  "ownership": {
    "default": 0
  },
  "_stats": {
    "systemId": "pf1",
    "systemVersion": "9.1",
    "coreVersion": "10.291",
    "createdTime": 1665428358752,
    "modifiedTime": 1689797903026,
    "lastModifiedBy": "ppv91YxratjWnkJi"
  },
  "effects": [],
  "folder": null,
  "sort": 0,
  "flags": {},
  "_key": "!items!vMe1ES46UArLGG98"
}