{
  "_id": "pxdIZET6b77AwZoA",
  "name": "Celestial Servant",
  "type": "feat",
  "img": "systems/pf1/icons/races/aasimar.png",
  "system": {
    "description": {
      "value": "<em>Rather than being a normal animal or beast, your companion or familiar hails from the heavenly realms.</em><br/><br/><b>Prerequisites</b><br/>Aasimar, animal companion, familiar, or mount class feature.<br/><br/><b>Benefits</b><br/>Your animal companion, familiar, or mount gains the celestial template and becomes a magical beast, though you may still treat it as an animal when using Handle Animal, wild empathy, or any other spells or class abilities that specifically affect animals.",
      "unidentified": ""
    },
    "tags": [
      "PFS",
      "Racial",
      "Aasimar"
    ],
    "actions": [],
    "uses": {
      "per": null,
      "value": 0,
      "maxFormula": "",
      "autoDeductChargesCost": "1"
    },
    "attackNotes": [],
    "effectNotes": [],
    "changes": [],
    "changeFlags": {
      "loseDexToAC": false,
      "noEncumbrance": false,
      "mediumArmorFullSpeed": false,
      "heavyArmorFullSpeed": false
    },
    "contextNotes": [],
    "links": {
      "children": [],
      "charges": []
    },
    "tag": "",
    "useCustomTag": false,
    "armorProf": {
      "value": [],
      "custom": ""
    },
    "weaponProf": {
      "value": [],
      "custom": ""
    },
    "languages": {
      "value": [],
      "custom": ""
    },
    "flags": {
      "boolean": {},
      "dictionary": {}
    },
    "scriptCalls": [],
    "subType": "feat",
    "associations": {
      "classes": []
    },
    "showInQuickbar": false,
    "abilityType": "none",
    "crOffset": "",
    "disabled": false,
    "classSkills": {}
  },
  "ownership": {
    "default": 0
  },
  "_stats": {
    "systemId": "pf1",
    "systemVersion": "9.1",
    "coreVersion": "10.291",
    "createdTime": 1665428358025,
    "modifiedTime": 1689797900703,
    "lastModifiedBy": "ppv91YxratjWnkJi"
  },
  "effects": [],
  "folder": null,
  "sort": 0,
  "flags": {},
  "_key": "!items!pxdIZET6b77AwZoA"
}