{
  "_id": "eaj6hH3rDXAEBxb7",
  "name": "Cerberus Crush",
  "type": "feat",
  "img": "systems/pf1/icons/skills/red_34.jpg",
  "system": {
    "description": {
      "value": "<em>When you strike from three directions, you channel deadly force into each blow.</em><br/><br/><b>Prerequisites</b><br/>Cerberus Snare, Cerberus Style, Vital Strike, base attack bonus +13 or monk level 13th.<br/><br/><b>Benefits</b><br/>You can apply the benefits of Vital Strike, Improved Vital Strike, and Greater Vital Strike to all attacks made using Cerberus Style.",
      "unidentified": ""
    },
    "tags": [
      "PFS",
      "Combat"
    ],
    "actions": [],
    "uses": {
      "per": null,
      "value": 0,
      "maxFormula": "",
      "autoDeductChargesCost": "1"
    },
    "attackNotes": [],
    "effectNotes": [],
    "changes": [],
    "changeFlags": {
      "loseDexToAC": false,
      "noEncumbrance": false,
      "mediumArmorFullSpeed": false,
      "heavyArmorFullSpeed": false
    },
    "contextNotes": [],
    "links": {
      "children": [],
      "charges": []
    },
    "tag": "",
    "useCustomTag": false,
    "armorProf": {
      "value": [],
      "custom": ""
    },
    "weaponProf": {
      "value": [],
      "custom": ""
    },
    "languages": {
      "value": [],
      "custom": ""
    },
    "flags": {
      "boolean": {},
      "dictionary": {}
    },
    "scriptCalls": [],
    "subType": "feat",
    "associations": {
      "classes": []
    },
    "showInQuickbar": false,
    "abilityType": "none",
    "crOffset": "",
    "disabled": false,
    "classSkills": {}
  },
  "ownership": {
    "default": 0
  },
  "_stats": {
    "systemId": "pf1",
    "systemVersion": "9.1",
    "coreVersion": "10.291",
    "createdTime": 1665428356199,
    "modifiedTime": 1689797894807,
    "lastModifiedBy": "ppv91YxratjWnkJi"
  },
  "effects": [],
  "folder": null,
  "sort": 0,
  "flags": {},
  "_key": "!items!eaj6hH3rDXAEBxb7"
}