{
  "_id": "ekp6ReMD6Ee5qXRl",
  "name": "Chainbreaker",
  "type": "feat",
  "img": "systems/pf1/icons/skills/red_06.jpg",
  "system": {
    "description": {
      "value": "<em>Nothing rouses your fury and makes you more deadly in battle than the sight of slaves cowering before their masters.</em><br/><br/><b>Prerequisites</b><br/>Over the course of at least five different occasions, free a cumulative total of 50+ sentient beings held in unjust captivity.<br/><br/><b>Benefits</b><br/>When in combat with an opponent that you know owns or trades in slaves, once per round you may add a bonus to damage rolls for a melee attack, ranged attack, or targeted spell against that opponent. This bonus damage is +1 for every four Hit Dice you have.",
      "unidentified": ""
    },
    "tags": [
      "Achievement"
    ],
    "actions": [],
    "uses": {
      "per": null,
      "value": 0,
      "maxFormula": "",
      "autoDeductChargesCost": "1"
    },
    "attackNotes": [],
    "effectNotes": [],
    "changes": [],
    "changeFlags": {
      "loseDexToAC": false,
      "noEncumbrance": false,
      "mediumArmorFullSpeed": false,
      "heavyArmorFullSpeed": false
    },
    "contextNotes": [],
    "links": {
      "children": [],
      "charges": []
    },
    "tag": "",
    "useCustomTag": false,
    "armorProf": {
      "value": [],
      "custom": ""
    },
    "weaponProf": {
      "value": [],
      "custom": ""
    },
    "languages": {
      "value": [],
      "custom": ""
    },
    "flags": {
      "boolean": {},
      "dictionary": {}
    },
    "scriptCalls": [],
    "subType": "feat",
    "associations": {
      "classes": []
    },
    "showInQuickbar": false,
    "abilityType": "none",
    "crOffset": "",
    "disabled": false,
    "classSkills": {}
  },
  "ownership": {
    "default": 0
  },
  "_stats": {
    "systemId": "pf1",
    "systemVersion": "9.1",
    "coreVersion": "10.291",
    "createdTime": 1665428356207,
    "modifiedTime": 1689797894856,
    "lastModifiedBy": "ppv91YxratjWnkJi"
  },
  "effects": [],
  "folder": null,
  "sort": 0,
  "flags": {},
  "_key": "!items!ekp6ReMD6Ee5qXRl"
}