{
  "_id": "VhuZIy0qp9d5JCH0",
  "name": "Chakra Adept",
  "type": "feat",
  "img": "systems/pf1/icons/spells/runes-royal-2.jpg",
  "system": {
    "description": {
      "value": "<p><em>Your body and soul have grown more accustomed to kundalini energy.</em><br /><br /><strong>Prerequisites</strong><br />Chakra Initiate, ability to awaken the heart chakra.<br /><br /><strong>Benefits</strong><br />Your pool of serpent-fire ki increases to 4 points. When you maintain your chakras as a swift action without opening a new chakra, you can choose to attempt either the Fortitude save or the Will save instead of both.<br /><br />In addition, after you stop spending ki to maintain your chakras, the kundalini energy lingers in your body. On the first round during which you spend no ki to maintain your chakras, your highest chakra closes and you can spend a swift action to use any one of the abilities of your remaining open chakras. On the next round after that, all of your chakras close, and you must spend 1 point of ki and a swift action to start again from your root chakra.</p>",
      "unidentified": ""
    },
    "tags": [
      "PFS",
      "General"
    ],
    "actions": [],
    "uses": {
      "per": null,
      "value": 0,
      "maxFormula": "",
      "autoDeductChargesCost": "1"
    },
    "attackNotes": [],
    "effectNotes": [],
    "changes": [],
    "changeFlags": {
      "loseDexToAC": false,
      "noEncumbrance": false,
      "mediumArmorFullSpeed": false,
      "heavyArmorFullSpeed": false
    },
    "contextNotes": [],
    "links": {
      "children": [],
      "charges": []
    },
    "tag": "",
    "useCustomTag": false,
    "armorProf": {
      "value": [],
      "custom": ""
    },
    "weaponProf": {
      "value": [],
      "custom": ""
    },
    "languages": {
      "value": [],
      "custom": ""
    },
    "flags": {
      "boolean": {},
      "dictionary": {}
    },
    "scriptCalls": [],
    "subType": "feat",
    "associations": {
      "classes": []
    },
    "showInQuickbar": false,
    "abilityType": "none",
    "crOffset": "",
    "disabled": false,
    "classSkills": {}
  },
  "ownership": {
    "default": 0
  },
  "_stats": {
    "systemId": "pf1",
    "systemVersion": "9.1",
    "coreVersion": "10.291",
    "createdTime": 1665428354992,
    "modifiedTime": 1689797890167,
    "lastModifiedBy": "ppv91YxratjWnkJi"
  },
  "effects": [],
  "folder": null,
  "sort": 0,
  "flags": {},
  "_key": "!items!VhuZIy0qp9d5JCH0"
}