{
  "_id": "lTMRzWTOvbcoxheH",
  "name": "Chakra Master",
  "type": "feat",
  "img": "systems/pf1/icons/spells/runes-royal-3.jpg",
  "system": {
    "description": {
      "value": "<em>You have mastered all seven chakras, and use your ki to pull more power from the kundalini flow.</em><br/><br/><b>Prerequisites</b><br/>Chakra Adept, Chakra Initiate, ability to awaken the crown chakra.<br/><br/><b>Benefits</b><br/>Your pool of serpent-fire ki increases to 5 points. You can spend 3 ki points instead of 1 when you open or maintain a chakra to gain the benefits of two chakras instead of one in that round. If you are opening or maintaining your crown chakra, this stacks with the crown chakra's special power, allowing you to gain the benefits of three chakras in a round.",
      "unidentified": ""
    },
    "tags": [
      "PFS",
      "General"
    ],
    "actions": [],
    "uses": {
      "per": null,
      "value": 0,
      "maxFormula": "",
      "autoDeductChargesCost": "1"
    },
    "attackNotes": [],
    "effectNotes": [],
    "changes": [],
    "changeFlags": {
      "loseDexToAC": false,
      "noEncumbrance": false,
      "mediumArmorFullSpeed": false,
      "heavyArmorFullSpeed": false
    },
    "contextNotes": [],
    "links": {
      "children": [],
      "charges": []
    },
    "tag": "",
    "useCustomTag": false,
    "armorProf": {
      "value": [],
      "custom": ""
    },
    "weaponProf": {
      "value": [],
      "custom": ""
    },
    "languages": {
      "value": [],
      "custom": ""
    },
    "flags": {
      "boolean": {},
      "dictionary": {}
    },
    "scriptCalls": [],
    "subType": "feat",
    "associations": {
      "classes": []
    },
    "showInQuickbar": false,
    "abilityType": "none",
    "crOffset": "",
    "disabled": false,
    "classSkills": {}
  },
  "ownership": {
    "default": 0
  },
  "_stats": {
    "systemId": "pf1",
    "systemVersion": "9.1",
    "coreVersion": "10.291",
    "createdTime": 1665428357386,
    "modifiedTime": 1689797898639,
    "lastModifiedBy": "ppv91YxratjWnkJi"
  },
  "effects": [],
  "folder": null,
  "sort": 0,
  "flags": {},
  "_key": "!items!lTMRzWTOvbcoxheH"
}