{
  "_id": "QJRX8iNwqoFtXDlj",
  "name": "Channel Hate",
  "type": "feat",
  "img": "systems/pf1/icons/skills/red_10.jpg",
  "system": {
    "description": {
      "value": "<em>You masterfully inspire in others violence toward those you hate.</em><br/><br/><b>Prerequisites</b><br/>Channel energy 6d6, worshiper of Gyronna.<br/><br/><b>Benefits</b><br/>As a standard action, you can expend one use of your channel energy ability to affect a single creature within 30 feet as if you had cast vengeful outrage (caster level equal to your effective cleric level). Upon obtaining channel energy 9d6, you can affect a number of creatures within 30 feet equal to your Charisma bonus (minimum 2 creatures) with this feat instead. If you expend an extra use of channel energy when using this feat, the target does not gain a second saving throw against this effect if you designate the target's friend or loved one as its hated enemy.",
      "unidentified": ""
    },
    "tags": [
      "PFS",
      "Channeling"
    ],
    "actions": [],
    "uses": {
      "per": null,
      "value": 0,
      "maxFormula": "",
      "autoDeductChargesCost": "1"
    },
    "attackNotes": [],
    "effectNotes": [],
    "changes": [],
    "changeFlags": {
      "loseDexToAC": false,
      "noEncumbrance": false,
      "mediumArmorFullSpeed": false,
      "heavyArmorFullSpeed": false
    },
    "contextNotes": [],
    "links": {
      "children": [],
      "charges": []
    },
    "tag": "",
    "useCustomTag": false,
    "armorProf": {
      "value": [],
      "custom": ""
    },
    "weaponProf": {
      "value": [],
      "custom": ""
    },
    "languages": {
      "value": [],
      "custom": ""
    },
    "flags": {
      "boolean": {},
      "dictionary": {}
    },
    "scriptCalls": [],
    "subType": "feat",
    "associations": {
      "classes": []
    },
    "showInQuickbar": false,
    "abilityType": "none",
    "crOffset": "",
    "disabled": false,
    "classSkills": {}
  },
  "ownership": {
    "default": 0
  },
  "_stats": {
    "systemId": "pf1",
    "systemVersion": "9.1",
    "coreVersion": "10.291",
    "createdTime": 1665428354373,
    "modifiedTime": 1689797887325,
    "lastModifiedBy": "ppv91YxratjWnkJi"
  },
  "effects": [],
  "folder": null,
  "sort": 0,
  "flags": {},
  "_key": "!items!QJRX8iNwqoFtXDlj"
}