{
  "_id": "EJzARncPvjL645XK",
  "name": "Channeled Shield Wall",
  "type": "feat",
  "img": "systems/pf1/icons/spells/protect-sky-2.jpg",
  "system": {
    "description": {
      "value": "<em>You draw upon your channel energy to enhance the protective ability of your shield and those of allies while they are adjacent to you.</em><br/><br/><b>Prerequisites</b><br/>Channel energy, 3d6 proficiency with a shield.<br/><br/><b>Benefits</b><br/>As a swift action, you can spend a use of your channel energy to grant yourself a +2 deflection bonus while using a shield. This bonus lasts 1 minute per cleric level or effective cleric level. While you benefit from this bonus, allies with shields also gain a +2 deflection bonus while they are adjacent to you.",
      "unidentified": ""
    },
    "tags": [
      "PFS",
      "Channeling"
    ],
    "actions": [],
    "uses": {
      "per": null,
      "value": 0,
      "maxFormula": "",
      "autoDeductChargesCost": "1"
    },
    "attackNotes": [],
    "effectNotes": [],
    "changes": [],
    "changeFlags": {
      "loseDexToAC": false,
      "noEncumbrance": false,
      "mediumArmorFullSpeed": false,
      "heavyArmorFullSpeed": false
    },
    "contextNotes": [],
    "links": {
      "children": [],
      "charges": []
    },
    "tag": "",
    "useCustomTag": false,
    "armorProf": {
      "value": [],
      "custom": ""
    },
    "weaponProf": {
      "value": [],
      "custom": ""
    },
    "languages": {
      "value": [],
      "custom": ""
    },
    "flags": {
      "boolean": {},
      "dictionary": {}
    },
    "scriptCalls": [],
    "subType": "feat",
    "associations": {
      "classes": []
    },
    "showInQuickbar": false,
    "abilityType": "none",
    "crOffset": "",
    "disabled": false,
    "classSkills": {}
  },
  "ownership": {
    "default": 0
  },
  "_stats": {
    "systemId": "pf1",
    "systemVersion": "9.1",
    "coreVersion": "10.291",
    "createdTime": 1665428352547,
    "modifiedTime": 1689797880975,
    "lastModifiedBy": "ppv91YxratjWnkJi"
  },
  "effects": [],
  "folder": null,
  "sort": 0,
  "flags": {},
  "_key": "!items!EJzARncPvjL645XK"
}