{
  "_id": "fxCtqefm2Tv6VwKt",
  "name": "Charge Through",
  "type": "feat",
  "img": "systems/pf1/icons/feats/trample.jpg",
  "system": {
    "description": {
      "value": "<em>You can overrun enemies when charging.</em><br/><br/><b>Prerequisites</b><br/>Str 13, Improved Overrun, Power Attack, base attack bonus +1.<br/><br/><b>Benefits</b><br/>When making a charge, you can attempt to overrun one creature in the path of the charge as a free action. If you successfully overrun that creature, you can complete the charge. If the overrun is unsuccessful, the charge ends in the space directly in front of that creature.<br/><br/><b>Normal</b><br/>You must have a clear path toward the target of your charge.<br/><br/><b>Combat Trick</b><br/>When you attempt and fail to overrun a creature in the path of your charge, you can spend 5 stamina points to finish your charge against that creature instead of losing your charge.",
      "unidentified": ""
    },
    "tags": [
      "PFS",
      "Combat"
    ],
    "actions": [],
    "uses": {
      "per": null,
      "value": 0,
      "maxFormula": "",
      "autoDeductChargesCost": "1"
    },
    "attackNotes": [],
    "effectNotes": [],
    "changes": [],
    "changeFlags": {
      "loseDexToAC": false,
      "noEncumbrance": false,
      "mediumArmorFullSpeed": false,
      "heavyArmorFullSpeed": false
    },
    "contextNotes": [],
    "links": {
      "children": [],
      "charges": []
    },
    "tag": "",
    "useCustomTag": false,
    "armorProf": {
      "value": [],
      "custom": ""
    },
    "weaponProf": {
      "value": [],
      "custom": ""
    },
    "languages": {
      "value": [],
      "custom": ""
    },
    "flags": {
      "boolean": {},
      "dictionary": {}
    },
    "scriptCalls": [],
    "subType": "feat",
    "associations": {
      "classes": []
    },
    "showInQuickbar": false,
    "abilityType": "none",
    "crOffset": "",
    "disabled": false,
    "classSkills": {}
  },
  "ownership": {
    "default": 0
  },
  "_stats": {
    "systemId": "pf1",
    "systemVersion": "9.1",
    "coreVersion": "10.291",
    "createdTime": 1665428356299,
    "modifiedTime": 1689797895253,
    "lastModifiedBy": "ppv91YxratjWnkJi"
  },
  "effects": [],
  "folder": null,
  "sort": 0,
  "flags": {},
  "_key": "!items!fxCtqefm2Tv6VwKt"
}