{
  "_id": "7AARwpVoXzTyElD4",
  "name": "Choral Support",
  "type": "feat",
  "img": "icons/tools/instruments/harp-lap-brown.webp",
  "system": {
    "description": {
      "value": "<em>Raising your voice together with your allies', you wield sound itself as a weapon.</em><br/><br/><b>Prerequisites</b><br/>Perform (sing) 3 ranks.<br/><br/><b>Benefits</b><br/>As a standard action, you can attempt a DC 10 Perform (sing) check to aid an ally who also has this feat. If you succeed at the check, spells cast by your ally before the start of your next turn that deal acid, cold, electricity, or fire damage instead deal sonic damage. Spells that would normally deal sonic damage deal half sonic damage and half damage resulting directly from divine power that is not subject to being reduced by resistance to sonic attacks.",
      "unidentified": ""
    },
    "tags": [
      "Teamwork"
    ],
    "actions": [],
    "uses": {
      "per": null,
      "value": 0,
      "maxFormula": "",
      "autoDeductChargesCost": "1"
    },
    "attackNotes": [],
    "effectNotes": [],
    "changes": [],
    "changeFlags": {
      "loseDexToAC": false,
      "noEncumbrance": false,
      "mediumArmorFullSpeed": false,
      "heavyArmorFullSpeed": false
    },
    "contextNotes": [],
    "links": {
      "children": [],
      "charges": []
    },
    "tag": "",
    "useCustomTag": false,
    "armorProf": {
      "value": [],
      "custom": ""
    },
    "weaponProf": {
      "value": [],
      "custom": ""
    },
    "languages": {
      "value": [],
      "custom": ""
    },
    "flags": {
      "boolean": {},
      "dictionary": {}
    },
    "scriptCalls": [],
    "subType": "feat",
    "associations": {
      "classes": []
    },
    "showInQuickbar": false,
    "abilityType": "none",
    "crOffset": "",
    "disabled": false,
    "classSkills": {}
  },
  "ownership": {
    "default": 0
  },
  "_stats": {
    "systemId": "pf1",
    "systemVersion": "9.1",
    "coreVersion": "10.291",
    "createdTime": 1665428351438,
    "modifiedTime": 1689797876875,
    "lastModifiedBy": "ppv91YxratjWnkJi"
  },
  "effects": [],
  "folder": null,
  "sort": 0,
  "flags": {},
  "_key": "!items!7AARwpVoXzTyElD4"
}