{
  "_id": "E5t85p3uCSpZjENk",
  "name": "City-Locked",
  "type": "feat",
  "img": "icons/environment/settlement/city-gate.webp",
  "system": {
    "description": {
      "value": "<em>Your soul craves travel through wild places, but you are stuck in a sedentary urban life by legal matters, honor-bound duties, or other responsibilities.</em><br/><br/><b>Prerequisites</b><br/>You must permanently dwell in a settlement at least as large as a large town. You must also have a fey ancestor somewhere in your family line, or have The Wanderer background (Ultimate Campaign 45).<br/><br/><b>Benefits</b><br/>When interacting with NPCs who live in your settlement, you gain a +1 bonus on Bluff, Diplomacy, and Sense Motive checks.<br/><br/><b>Goal</b><br/> Complete the tasks to satisfy the terms of the law, matter of honor, or other responsibility, freeing you to leave the settlement without shame.<br/><br/><b>Special</b><br/>Your newfound freedom inspires your body and mind. You gain a +1 bonus on Dexterity- and Intelligence-based ability checks and skill checks and on Will saving throws.",
      "unidentified": ""
    },
    "tags": [
      "Story"
    ],
    "actions": [],
    "uses": {
      "per": null,
      "value": 0,
      "maxFormula": "",
      "autoDeductChargesCost": "1"
    },
    "attackNotes": [],
    "effectNotes": [],
    "changes": [],
    "changeFlags": {
      "loseDexToAC": false,
      "noEncumbrance": false,
      "mediumArmorFullSpeed": false,
      "heavyArmorFullSpeed": false
    },
    "contextNotes": [],
    "links": {
      "children": [],
      "charges": []
    },
    "tag": "",
    "useCustomTag": false,
    "armorProf": {
      "value": [],
      "custom": ""
    },
    "weaponProf": {
      "value": [],
      "custom": ""
    },
    "languages": {
      "value": [],
      "custom": ""
    },
    "flags": {
      "boolean": {},
      "dictionary": {}
    },
    "scriptCalls": [],
    "subType": "feat",
    "associations": {
      "classes": []
    },
    "showInQuickbar": false,
    "abilityType": "none",
    "crOffset": "",
    "disabled": false,
    "classSkills": {}
  },
  "ownership": {
    "default": 0
  },
  "_stats": {
    "systemId": "pf1",
    "systemVersion": "9.1",
    "coreVersion": "10.291",
    "createdTime": 1665428352525,
    "modifiedTime": 1689797880862,
    "lastModifiedBy": "ppv91YxratjWnkJi"
  },
  "effects": [],
  "folder": null,
  "sort": 0,
  "flags": {},
  "_key": "!items!E5t85p3uCSpZjENk"
}