{
  "_id": "m6qdPfScQ4dvKHah",
  "name": "Cloak of Stone",
  "type": "feat",
  "img": "icons/commodities/stone/stone-pile-grey.webp",
  "system": {
    "description": {
      "value": "<em>You can use the stone around you to hide, even observed by your foes.</em><br/><br/><b>Prerequisites</b><br/>Wis 17, Stone Cover, Stone Shroud, Stealth 11 ranks, dwarf, stonecunning racial trait.<br/><br/><b>Benefits</b><br/>You can use the Stealth skill to hide even while being observed while you are in areas of rocky terrain or while underground. Y0u can hide yourself from view in the open without anything to actually hide behind as long as you are within 10 feet of rocky terrain, or at any time while you are underground.",
      "unidentified": ""
    },
    "tags": [
      "PFS",
      "Racial",
      "Dwarf"
    ],
    "actions": [],
    "uses": {
      "per": null,
      "value": 0,
      "maxFormula": "",
      "autoDeductChargesCost": "1"
    },
    "attackNotes": [],
    "effectNotes": [],
    "changes": [],
    "changeFlags": {
      "loseDexToAC": false,
      "noEncumbrance": false,
      "mediumArmorFullSpeed": false,
      "heavyArmorFullSpeed": false
    },
    "contextNotes": [],
    "links": {
      "children": [],
      "charges": []
    },
    "tag": "",
    "useCustomTag": false,
    "armorProf": {
      "value": [],
      "custom": ""
    },
    "weaponProf": {
      "value": [],
      "custom": ""
    },
    "languages": {
      "value": [],
      "custom": ""
    },
    "flags": {
      "boolean": {},
      "dictionary": {}
    },
    "scriptCalls": [],
    "subType": "feat",
    "associations": {
      "classes": []
    },
    "showInQuickbar": false,
    "abilityType": "none",
    "crOffset": "",
    "disabled": false,
    "classSkills": {}
  },
  "ownership": {
    "default": 0
  },
  "_stats": {
    "systemId": "pf1",
    "systemVersion": "9.1",
    "coreVersion": "10.291",
    "createdTime": 1665428357439,
    "modifiedTime": 1689797899008,
    "lastModifiedBy": "ppv91YxratjWnkJi"
  },
  "effects": [],
  "folder": null,
  "sort": 0,
  "flags": {},
  "_key": "!items!m6qdPfScQ4dvKHah"
}