{
  "_id": "K1id8nMV3fXXYz6k",
  "name": "Close Call",
  "type": "feat",
  "img": "icons/tools/hand/lockpicks-steel-grey.webp",
  "system": {
    "description": {
      "value": "<em>Your nimble fingers are able to catch small slips before they become big disasters.</em><br/><br/><b>Prerequisites</b><br/>Deft Hands.<br/><br/><b>Benefits</b><br/>Once per day, you may reroll either a Disable Device or Sleight of Hand check. You must decide to use this ability after the first attempt but before the results are revealed by the GM. You must take the second roll, even if it's worse.",
      "unidentified": ""
    },
    "tags": [
      "PFS",
      "General"
    ],
    "actions": [],
    "uses": {
      "per": null,
      "value": 0,
      "maxFormula": "",
      "autoDeductChargesCost": "1"
    },
    "attackNotes": [],
    "effectNotes": [],
    "changes": [],
    "changeFlags": {
      "loseDexToAC": false,
      "noEncumbrance": false,
      "mediumArmorFullSpeed": false,
      "heavyArmorFullSpeed": false
    },
    "contextNotes": [],
    "links": {
      "children": [],
      "charges": []
    },
    "tag": "",
    "useCustomTag": false,
    "armorProf": {
      "value": [],
      "custom": ""
    },
    "weaponProf": {
      "value": [],
      "custom": ""
    },
    "languages": {
      "value": [],
      "custom": ""
    },
    "flags": {
      "boolean": {},
      "dictionary": {}
    },
    "scriptCalls": [],
    "subType": "feat",
    "associations": {
      "classes": []
    },
    "showInQuickbar": false,
    "abilityType": "none",
    "crOffset": "",
    "disabled": false,
    "classSkills": {}
  },
  "ownership": {
    "default": 0
  },
  "_stats": {
    "systemId": "pf1",
    "systemVersion": "9.1",
    "coreVersion": "10.291",
    "createdTime": 1665428353364,
    "modifiedTime": 1689797884214,
    "lastModifiedBy": "ppv91YxratjWnkJi"
  },
  "effects": [],
  "folder": null,
  "sort": 0,
  "flags": {},
  "_key": "!items!K1id8nMV3fXXYz6k"
}