{
  "_id": "6b29HYy9MgWVO7oW",
  "name": "Clustered Shots",
  "type": "feat",
  "img": "icons/weapons/ammunition/arrows-fletching.webp",
  "system": {
    "description": {
      "value": "<em>You take a moment to carefully aim your shots, causing them all to strike nearly the same spot.</em><br/><br/><b>Prerequisites</b><br/>Point-Blank Shot, Precise Shot, base attack bonus +6.<br/><br/><b>Benefits</b><br/>When you use a full-attack action to make multiple ranged weapon attacks against the same opponent, total the damage from all hits before applying that opponent's damage reduction.<br/><br/><b>Special</b><br/>If the massive damage optional rule is being used (Core Rulebook 189), that rule applies if the total damage you deal with this feat is equal to or exceeds half the opponent's full normal hit points (minimum 50 points of damage).<br/><br/><b>Combat Trick</b><br/>When using this feat, you can spend up to 2 stamina points for each attack that hit the same target. Increase the damage pooled by this feat by an amount equal to the number of stamina points you spent.",
      "unidentified": ""
    },
    "tags": [
      "PFS",
      "Combat"
    ],
    "actions": [],
    "uses": {
      "per": null,
      "value": 0,
      "maxFormula": "",
      "autoDeductChargesCost": "1"
    },
    "attackNotes": [],
    "effectNotes": [],
    "changes": [],
    "changeFlags": {
      "loseDexToAC": false,
      "noEncumbrance": false,
      "mediumArmorFullSpeed": false,
      "heavyArmorFullSpeed": false
    },
    "contextNotes": [
      {
        "subTarget": "attack",
        "target": "attacks",
        "text": "Total the damage from all ranged hits to the same enemy before applying that opponent's damage reduction."
      }
    ],
    "links": {
      "children": [],
      "charges": []
    },
    "tag": "clusteredShots",
    "useCustomTag": false,
    "armorProf": {
      "value": [],
      "custom": ""
    },
    "weaponProf": {
      "value": [],
      "custom": ""
    },
    "languages": {
      "value": [],
      "custom": ""
    },
    "flags": {
      "boolean": {},
      "dictionary": {}
    },
    "scriptCalls": [],
    "subType": "feat",
    "associations": {
      "classes": []
    },
    "showInQuickbar": false,
    "abilityType": "none",
    "crOffset": "",
    "disabled": false,
    "classSkills": {}
  },
  "ownership": {
    "default": 0
  },
  "_stats": {
    "systemId": "pf1",
    "systemVersion": "9.1",
    "coreVersion": "10.291",
    "createdTime": 1665428351391,
    "modifiedTime": 1689797876750,
    "lastModifiedBy": "ppv91YxratjWnkJi"
  },
  "effects": [],
  "folder": null,
  "sort": 0,
  "flags": {},
  "_key": "!items!6b29HYy9MgWVO7oW"
}