{
  "_id": "zqCO5EJVJTEoa4Ee",
  "name": "Collector's Boon",
  "type": "feat",
  "img": "icons/weapons/wands/wand-gem-violet.webp",
  "system": {
    "description": {
      "value": "<em>You have a knack for unlocking the true potential of your magical equipment.</em><br/><br/><b>Prerequisites</b><br/>Character level 5th.<br/><br/><b>Benefits</b><br/>You can enhance the effects of certain magical items when wearing or wielding two or more sympathetic magic items. While you are wearing or wielding at least two items from a set, you gain the two-item benefit listed in the set, as well as any specific benefits detailed in the item description entries for the pieces of that set. You do not gain any benefits that require three or more set pieces; such benefits must be unlocked by taking the Improved Collector's Boon feat.<br/><br/><b>Special</b><br/>You can't gain the set bonuses of more than one set at a time due to the interference of incompatible sympathetic magical effects. If you have multiple pieces of two or more sets, you must choose the set you gain the benefits of at the start of each day and can't change this decision for 24 hours.",
      "unidentified": ""
    },
    "tags": [
      "General"
    ],
    "actions": [],
    "uses": {
      "per": null,
      "value": 0,
      "maxFormula": "",
      "autoDeductChargesCost": "1"
    },
    "attackNotes": [],
    "effectNotes": [],
    "changes": [],
    "changeFlags": {
      "loseDexToAC": false,
      "noEncumbrance": false,
      "mediumArmorFullSpeed": false,
      "heavyArmorFullSpeed": false
    },
    "contextNotes": [],
    "links": {
      "children": [],
      "charges": []
    },
    "tag": "",
    "useCustomTag": false,
    "armorProf": {
      "value": [],
      "custom": ""
    },
    "weaponProf": {
      "value": [],
      "custom": ""
    },
    "languages": {
      "value": [],
      "custom": ""
    },
    "flags": {
      "boolean": {},
      "dictionary": {}
    },
    "scriptCalls": [],
    "subType": "feat",
    "associations": {
      "classes": []
    },
    "showInQuickbar": false,
    "abilityType": "none",
    "crOffset": "",
    "disabled": false,
    "classSkills": {}
  },
  "ownership": {
    "default": 0
  },
  "_stats": {
    "systemId": "pf1",
    "systemVersion": "9.1",
    "coreVersion": "10.291",
    "createdTime": 1665428359391,
    "modifiedTime": 1689797905127,
    "lastModifiedBy": "ppv91YxratjWnkJi"
  },
  "effects": [],
  "folder": null,
  "sort": 0,
  "flags": {},
  "_key": "!items!zqCO5EJVJTEoa4Ee"
}