{
  "_id": "WeJcQy0ORsPc9OUV",
  "name": "Combat Expertise (Mythic)",
  "type": "feat",
  "img": "systems/pf1/icons/feats/combat-expertise.jpg",
  "system": {
    "description": {
      "value": "<em>You can dart out of the way of attacks with skill and defiance.</em><br/><br/><b>Prerequisites</b><br/>Combat Expertise.<br/><br/><b>Benefits</b><br/>Whenever you use Combat Expertise, you gain an additional +2 dodge bonus to your Armor Class. You can expend one use of mythic power to negate the penalties on melee attack rolls and combat maneuver checks caused by using Combat Expertise for 1 minute.",
      "unidentified": ""
    },
    "tags": [
      "PFS",
      "Combat",
      "Mythic"
    ],
    "actions": [],
    "uses": {
      "per": null,
      "value": 0,
      "maxFormula": "",
      "autoDeductChargesCost": "1"
    },
    "attackNotes": [],
    "effectNotes": [],
    "changes": [],
    "changeFlags": {
      "loseDexToAC": false,
      "noEncumbrance": false,
      "mediumArmorFullSpeed": false,
      "heavyArmorFullSpeed": false
    },
    "contextNotes": [],
    "links": {
      "children": [],
      "charges": []
    },
    "tag": "",
    "useCustomTag": false,
    "armorProf": {
      "value": [],
      "custom": ""
    },
    "weaponProf": {
      "value": [],
      "custom": ""
    },
    "languages": {
      "value": [],
      "custom": ""
    },
    "flags": {
      "boolean": {},
      "dictionary": {}
    },
    "scriptCalls": [],
    "subType": "feat",
    "associations": {
      "classes": []
    },
    "showInQuickbar": false,
    "abilityType": "none",
    "crOffset": "",
    "disabled": false,
    "classSkills": {}
  },
  "ownership": {
    "default": 0
  },
  "_stats": {
    "systemId": "pf1",
    "systemVersion": "9.1",
    "coreVersion": "10.291",
    "createdTime": 1665428355060,
    "modifiedTime": 1689797890554,
    "lastModifiedBy": "ppv91YxratjWnkJi"
  },
  "effects": [],
  "folder": null,
  "sort": 0,
  "flags": {},
  "_key": "!items!WeJcQy0ORsPc9OUV"
}