{
  "_id": "PR1IO4ZQNrwZ286M",
  "name": "Compelling Harmonies",
  "type": "feat",
  "img": "systems/pf1/icons/spells/link-spirit-2.jpg",
  "system": {
    "description": {
      "value": "<em>Your harmonies reinforce and empower your allies' magic.</em><br/><br/><b>Prerequisites</b><br/>Basic Harmony, Perform (keyboard, percussion, sing, string, or wind) 10 ranks, bardic performance or raging song.<br/><br/><b>Benefits</b><br/>As a standard action, you may expend one round of bardic performance to boost the effectiveness of the bardic performance of an ally within 60 feet who also has this feat. Until the beginning of your next turn, if that ally uses a bardic performance that allows a saving throw, increase that saving throw DC by 2.",
      "unidentified": ""
    },
    "tags": [
      "PFS",
      "Teamwork"
    ],
    "actions": [],
    "uses": {
      "per": null,
      "value": 0,
      "maxFormula": "",
      "autoDeductChargesCost": "1"
    },
    "attackNotes": [],
    "effectNotes": [],
    "changes": [],
    "changeFlags": {
      "loseDexToAC": false,
      "noEncumbrance": false,
      "mediumArmorFullSpeed": false,
      "heavyArmorFullSpeed": false
    },
    "contextNotes": [],
    "links": {
      "children": [],
      "charges": []
    },
    "tag": "",
    "useCustomTag": false,
    "armorProf": {
      "value": [],
      "custom": ""
    },
    "weaponProf": {
      "value": [],
      "custom": ""
    },
    "languages": {
      "value": [],
      "custom": ""
    },
    "flags": {
      "boolean": {},
      "dictionary": {}
    },
    "scriptCalls": [],
    "subType": "feat",
    "associations": {
      "classes": []
    },
    "showInQuickbar": false,
    "abilityType": "none",
    "crOffset": "",
    "disabled": false,
    "classSkills": {}
  },
  "ownership": {
    "default": 0
  },
  "_stats": {
    "systemId": "pf1",
    "systemVersion": "9.1",
    "coreVersion": "10.291",
    "createdTime": 1665428354020,
    "modifiedTime": 1689797886577,
    "lastModifiedBy": "ppv91YxratjWnkJi"
  },
  "effects": [],
  "folder": null,
  "sort": 0,
  "flags": {},
  "_key": "!items!PR1IO4ZQNrwZ286M"
}