{
  "_id": "Pq6K4I3O5hQfRlKh",
  "name": "Concussive Spell",
  "type": "feat",
  "img": "systems/pf1/icons/spells/explosion-sky-2.jpg",
  "system": {
    "description": {
      "value": "<em>You cause creatures to be disoriented when you affect them with a spell that has the sonic descriptor.</em><br/><br/><b>Benefits</b><br/>With sonic damage comes a concussive wave of energy that rattles creatures affected by the spell. A concussive spell causes creatures that take damage from a spell that has the sonic descriptor to take a -2 penalty on attack rolls, saving throws, skill checks, and ability checks for a number of rounds equal to the actual spell level of the spell. A concussive spell only affects spells with the sonic descriptor. A concussive spell uses up a spell slot two levels higher than the spell's actual level.",
      "unidentified": ""
    },
    "tags": [
      "PFS",
      "Metamagic"
    ],
    "actions": [],
    "uses": {
      "per": null,
      "value": 0,
      "maxFormula": "",
      "autoDeductChargesCost": "1"
    },
    "attackNotes": [],
    "effectNotes": [],
    "changes": [],
    "changeFlags": {
      "loseDexToAC": false,
      "noEncumbrance": false,
      "mediumArmorFullSpeed": false,
      "heavyArmorFullSpeed": false
    },
    "contextNotes": [],
    "links": {
      "children": [],
      "charges": []
    },
    "tag": "",
    "useCustomTag": false,
    "armorProf": {
      "value": [],
      "custom": ""
    },
    "weaponProf": {
      "value": [],
      "custom": ""
    },
    "languages": {
      "value": [],
      "custom": ""
    },
    "flags": {
      "boolean": {},
      "dictionary": {}
    },
    "scriptCalls": [],
    "subType": "feat",
    "associations": {
      "classes": []
    },
    "showInQuickbar": false,
    "abilityType": "none",
    "crOffset": "",
    "disabled": false,
    "classSkills": {}
  },
  "ownership": {
    "default": 0
  },
  "_stats": {
    "systemId": "pf1",
    "systemVersion": "9.1",
    "coreVersion": "10.291",
    "createdTime": 1665428354342,
    "modifiedTime": 1689797887150,
    "lastModifiedBy": "ppv91YxratjWnkJi"
  },
  "effects": [],
  "folder": null,
  "sort": 0,
  "flags": {},
  "_key": "!items!Pq6K4I3O5hQfRlKh"
}