{
  "_id": "Q6ZevELVTfNvEenx",
  "name": "Cooperative Counterspelling",
  "type": "feat",
  "img": "systems/pf1/icons/spells/shielding-eerie-3.jpg",
  "system": {
    "description": {
      "value": "<em>Thanks to your heritage, you can thwart magical attacks almost instinctively.</em><br/><br/><b>Prerequisites</b><br/>Spellcraft 5 ranks, racial spell-like ability replicating a spell of 1st level or higher.<br/><br/><b>Benefits</b><br/>When you and an ally who also has this feat both ready an action to counterspell, you can counter a spell if you both expend any spell of the same level and school as the spell you wish to counter. If you both attempt to counterspell with dispel magic, you each gain a +2 bonus on your caster level checks. If you have more than one ally readying an action to counterspell, you can select only one of those allies for the purpose of this feat, and that ally must also select you.",
      "unidentified": ""
    },
    "tags": [
      "PFS",
      "Teamwork"
    ],
    "actions": [],
    "uses": {
      "per": null,
      "value": 0,
      "maxFormula": "",
      "autoDeductChargesCost": "1"
    },
    "attackNotes": [],
    "effectNotes": [],
    "changes": [],
    "changeFlags": {
      "loseDexToAC": false,
      "noEncumbrance": false,
      "mediumArmorFullSpeed": false,
      "heavyArmorFullSpeed": false
    },
    "contextNotes": [],
    "links": {
      "children": [],
      "charges": []
    },
    "tag": "",
    "useCustomTag": false,
    "armorProf": {
      "value": [],
      "custom": ""
    },
    "weaponProf": {
      "value": [],
      "custom": ""
    },
    "languages": {
      "value": [],
      "custom": ""
    },
    "flags": {
      "boolean": {},
      "dictionary": {}
    },
    "scriptCalls": [],
    "subType": "feat",
    "associations": {
      "classes": []
    },
    "showInQuickbar": false,
    "abilityType": "none",
    "crOffset": "",
    "disabled": false,
    "classSkills": {}
  },
  "ownership": {
    "default": 0
  },
  "_stats": {
    "systemId": "pf1",
    "systemVersion": "9.1",
    "coreVersion": "10.291",
    "createdTime": 1665428354362,
    "modifiedTime": 1689797887269,
    "lastModifiedBy": "ppv91YxratjWnkJi"
  },
  "effects": [],
  "folder": null,
  "sort": 0,
  "flags": {},
  "_key": "!items!Q6ZevELVTfNvEenx"
}