{
  "_id": "bBoGn6h0OgJTJrs9",
  "name": "Coordinated Defense",
  "type": "feat",
  "img": "systems/pf1/icons/skills/weapon_16.jpg",
  "system": {
    "description": {
      "value": "<em>You are adept at working with allies to avoid being tripped, grappled, and subjected to other maneuvers.</em><br/><br/><b>Benefits</b><br/>Whenever you are adjacent to an ally who also has this feat, you receive a +2 competence bonus to your Combat Maneuver Defense. This bonus increases to +4 if the creature attempting the maneuver is larger than both you and your ally.<br/><br/><b>Combat Trick</b><br/>When you are targeted with a combat maneuver while you are adjacent to an ally who also has this feat, you can spend 1 or 2 stamina points. If you do, your bonus to Combat Maneuver Defense against that combat maneuver attempt increases by an amount equal to the number of stamina points you spent.",
      "unidentified": ""
    },
    "tags": [
      "PFS",
      "Combat",
      "Teamwork"
    ],
    "actions": [],
    "uses": {
      "per": null,
      "value": 0,
      "maxFormula": "",
      "autoDeductChargesCost": "1"
    },
    "attackNotes": [],
    "effectNotes": [],
    "changes": [],
    "changeFlags": {
      "loseDexToAC": false,
      "noEncumbrance": false,
      "mediumArmorFullSpeed": false,
      "heavyArmorFullSpeed": false
    },
    "contextNotes": [],
    "links": {
      "children": [],
      "charges": []
    },
    "tag": "",
    "useCustomTag": false,
    "armorProf": {
      "value": [],
      "custom": ""
    },
    "weaponProf": {
      "value": [],
      "custom": ""
    },
    "languages": {
      "value": [],
      "custom": ""
    },
    "flags": {
      "boolean": {},
      "dictionary": {}
    },
    "scriptCalls": [],
    "subType": "feat",
    "associations": {
      "classes": []
    },
    "showInQuickbar": false,
    "abilityType": "none",
    "crOffset": "",
    "disabled": false,
    "classSkills": {}
  },
  "ownership": {
    "default": 0
  },
  "_stats": {
    "systemId": "pf1",
    "systemVersion": "9.1",
    "coreVersion": "10.291",
    "createdTime": 1665428355644,
    "modifiedTime": 1689797892949,
    "lastModifiedBy": "ppv91YxratjWnkJi"
  },
  "effects": [],
  "folder": null,
  "sort": 0,
  "flags": {},
  "_key": "!items!bBoGn6h0OgJTJrs9"
}