{
  "_id": "HDO5E11kSUb7BgBc",
  "name": "Coordinated Capture",
  "type": "feat",
  "img": "systems/pf1/icons/feats/improved-grapple.jpg",
  "system": {
    "description": {
      "value": "<em>You work with allies to prevent foes from escaping.</em><br/><br/><b>Prerequisites</b><br/>Base attack bonus +1.<br/><br/><b>Benefits</b><br/>Whenever you and one or more allies with this feat threaten the same enemy, the enemy takes a penalty on Acrobatics checks and concentration checks to avoid provoking attacks of opportunity equal to the number of creatures with this feat that are threatening him (maximum +5).",
      "unidentified": ""
    },
    "tags": [
      "PFS",
      "Combat",
      "Teamwork"
    ],
    "actions": [],
    "uses": {
      "per": null,
      "value": 0,
      "maxFormula": "",
      "autoDeductChargesCost": "1"
    },
    "attackNotes": [],
    "effectNotes": [],
    "changes": [],
    "changeFlags": {
      "loseDexToAC": false,
      "noEncumbrance": false,
      "mediumArmorFullSpeed": false,
      "heavyArmorFullSpeed": false
    },
    "contextNotes": [],
    "links": {
      "children": [],
      "charges": []
    },
    "tag": "",
    "useCustomTag": false,
    "armorProf": {
      "value": [],
      "custom": ""
    },
    "weaponProf": {
      "value": [],
      "custom": ""
    },
    "languages": {
      "value": [],
      "custom": ""
    },
    "flags": {
      "boolean": {},
      "dictionary": {}
    },
    "scriptCalls": [],
    "subType": "feat",
    "associations": {
      "classes": []
    },
    "showInQuickbar": false,
    "abilityType": "none",
    "crOffset": "",
    "disabled": false,
    "classSkills": {}
  },
  "ownership": {
    "default": 0
  },
  "_stats": {
    "systemId": "pf1",
    "systemVersion": "9.1",
    "coreVersion": "10.291",
    "createdTime": 1665428352822,
    "modifiedTime": 1689797882727,
    "lastModifiedBy": "ppv91YxratjWnkJi"
  },
  "effects": [],
  "folder": null,
  "sort": 0,
  "flags": {},
  "_key": "!items!HDO5E11kSUb7BgBc"
}