{
  "_id": "GrL8sRp2GJPLH3Z3",
  "name": "Cornugon Stun",
  "type": "feat",
  "img": "systems/pf1/icons/races/creature-types/outsider.png",
  "system": {
    "description": {
      "value": "<em>You are able to make stunning attacks with special monk weapons.</em><br/><br/><b>Prerequisites</b><br/>Stunning Fist.<br/><br/><b>Benefits</b><br/>You may use Stunning Fist when making melee attacks with special monk weapons as well as when making unarmed attacks.<br/><br/><b>Normal</b><br/>You can only use Stunning Fist when making an attack with an unarmed strike.",
      "unidentified": ""
    },
    "tags": [
      "PFS",
      "Combat"
    ],
    "actions": [],
    "uses": {
      "per": null,
      "value": 0,
      "maxFormula": "",
      "autoDeductChargesCost": "1"
    },
    "attackNotes": [],
    "effectNotes": [],
    "changes": [],
    "changeFlags": {
      "loseDexToAC": false,
      "noEncumbrance": false,
      "mediumArmorFullSpeed": false,
      "heavyArmorFullSpeed": false
    },
    "contextNotes": [],
    "links": {
      "children": [],
      "charges": []
    },
    "tag": "",
    "useCustomTag": false,
    "armorProf": {
      "value": [],
      "custom": ""
    },
    "weaponProf": {
      "value": [],
      "custom": ""
    },
    "languages": {
      "value": [],
      "custom": ""
    },
    "flags": {
      "boolean": {},
      "dictionary": {}
    },
    "scriptCalls": [],
    "subType": "feat",
    "associations": {
      "classes": []
    },
    "showInQuickbar": false,
    "abilityType": "none",
    "crOffset": "",
    "disabled": false,
    "classSkills": {}
  },
  "ownership": {
    "default": 0
  },
  "_stats": {
    "systemId": "pf1",
    "systemVersion": "9.1",
    "coreVersion": "10.291",
    "createdTime": 1665428352793,
    "modifiedTime": 1689797882577,
    "lastModifiedBy": "ppv91YxratjWnkJi"
  },
  "effects": [],
  "folder": null,
  "sort": 0,
  "flags": {},
  "_key": "!items!GrL8sRp2GJPLH3Z3"
}