{
  "_id": "9cnHk5PluNEk2lq3",
  "name": "Corpse Companion",
  "type": "feat",
  "img": "systems/pf1/icons/skills/blue_32.jpg",
  "system": {
    "description": {
      "value": "<em>You have an undead animal companion.</em><br/><br/><b>Prerequisites</b><br/>Animal companion class feature, ghoul.<br/><br/><b>Benefits</b><br/>Your animal companion's type changes to undead, but its Hit Dice, base attack bonus, saving throws, skills, and tricks are retained from the base creature. The creature loses its Constitution score and its Charisma score becomes 12. If your companion is destroyed, your new companion is undead as well, using these same modifications.",
      "unidentified": ""
    },
    "tags": [
      "General"
    ],
    "actions": [],
    "uses": {
      "per": null,
      "value": 0,
      "maxFormula": "",
      "autoDeductChargesCost": "1"
    },
    "attackNotes": [],
    "effectNotes": [],
    "changes": [],
    "changeFlags": {
      "loseDexToAC": false,
      "noEncumbrance": false,
      "mediumArmorFullSpeed": false,
      "heavyArmorFullSpeed": false
    },
    "contextNotes": [],
    "links": {
      "children": [],
      "charges": []
    },
    "tag": "",
    "useCustomTag": false,
    "armorProf": {
      "value": [],
      "custom": ""
    },
    "weaponProf": {
      "value": [],
      "custom": ""
    },
    "languages": {
      "value": [],
      "custom": ""
    },
    "flags": {
      "boolean": {},
      "dictionary": {}
    },
    "scriptCalls": [],
    "subType": "feat",
    "associations": {
      "classes": []
    },
    "showInQuickbar": false,
    "abilityType": "none",
    "crOffset": "",
    "disabled": false,
    "classSkills": {}
  },
  "ownership": {
    "default": 0
  },
  "_stats": {
    "systemId": "pf1",
    "systemVersion": "9.1",
    "coreVersion": "10.291",
    "createdTime": 1665428351910,
    "modifiedTime": 1689797878320,
    "lastModifiedBy": "ppv91YxratjWnkJi"
  },
  "effects": [],
  "folder": null,
  "sort": 0,
  "flags": {},
  "_key": "!items!9cnHk5PluNEk2lq3"
}