{
  "_id": "42ATak9QpcFk3qvg",
  "name": "Corrupted Flesh",
  "type": "feat",
  "img": "systems/pf1/icons/skills/affliction_16.jpg",
  "system": {
    "description": {
      "value": "<em>You have sickened, rotting flesh from some deformity or vestigial limb that has turned fetid and necrotic, yet refuses to heal or fall off.</em><br/><br/><b>Prerequisites</b><br/>Con 15, 6 HD, ogre.<br/><br/><b>Benefits</b><br/>You gain the stench special ability (DC 10 + 1/2 your HD + your Constitution modifier).",
      "unidentified": ""
    },
    "tags": [
      "Racial",
      "Ogre"
    ],
    "actions": [],
    "uses": {
      "per": null,
      "value": 0,
      "maxFormula": "",
      "autoDeductChargesCost": "1"
    },
    "attackNotes": [],
    "effectNotes": [],
    "changes": [],
    "changeFlags": {
      "loseDexToAC": false,
      "noEncumbrance": false,
      "mediumArmorFullSpeed": false,
      "heavyArmorFullSpeed": false
    },
    "contextNotes": [],
    "links": {
      "children": [],
      "charges": []
    },
    "tag": "",
    "useCustomTag": false,
    "armorProf": {
      "value": [],
      "custom": ""
    },
    "weaponProf": {
      "value": [],
      "custom": ""
    },
    "languages": {
      "value": [],
      "custom": ""
    },
    "flags": {
      "boolean": {},
      "dictionary": {}
    },
    "scriptCalls": [],
    "subType": "feat",
    "associations": {
      "classes": []
    },
    "showInQuickbar": false,
    "abilityType": "none",
    "crOffset": "",
    "disabled": false,
    "classSkills": {}
  },
  "ownership": {
    "default": 0
  },
  "_stats": {
    "systemId": "pf1",
    "systemVersion": "9.1",
    "coreVersion": "10.291",
    "createdTime": 1665428350859,
    "modifiedTime": 1689797875361,
    "lastModifiedBy": "ppv91YxratjWnkJi"
  },
  "effects": [],
  "folder": null,
  "sort": 0,
  "flags": {},
  "_key": "!items!42ATak9QpcFk3qvg"
}