{
  "_id": "twegYvMTdh6M3BPB",
  "name": "Counterpunch",
  "type": "feat",
  "img": "systems/pf1/icons/items/weapons/brass-knuckles.PNG",
  "system": {
    "description": {
      "value": "<em>With deft reflexes, you capitalize on opponents' mistake.</em><br/><br/><b>Prerequisites</b><br/>Dex 18, Combat Reflexes, Improved Unarmed Strike, Weapon Focus (unarmed strike); base attack bonus +16 or brawler level 12th.<br/><br/><b>Benefits</b><br/>Once per round, when you are fighting unarmed with both hands free and an opponent misses you with a melee attack, it provokes an attack of opportunity from you. You must use an unarmed strike for this attack of opportunity.<br/><br/><b>Combat Trick</b><br/>You can spend 5 stamina points to use this feat a second time during the same round.",
      "unidentified": ""
    },
    "tags": [
      "PFS",
      "Combat"
    ],
    "actions": [],
    "uses": {
      "per": null,
      "value": 0,
      "maxFormula": "",
      "autoDeductChargesCost": "1"
    },
    "attackNotes": [],
    "effectNotes": [],
    "changes": [],
    "changeFlags": {
      "loseDexToAC": false,
      "noEncumbrance": false,
      "mediumArmorFullSpeed": false,
      "heavyArmorFullSpeed": false
    },
    "contextNotes": [],
    "links": {
      "children": [],
      "charges": []
    },
    "tag": "",
    "useCustomTag": false,
    "armorProf": {
      "value": [],
      "custom": ""
    },
    "weaponProf": {
      "value": [],
      "custom": ""
    },
    "languages": {
      "value": [],
      "custom": ""
    },
    "flags": {
      "boolean": {},
      "dictionary": {}
    },
    "scriptCalls": [],
    "subType": "feat",
    "associations": {
      "classes": []
    },
    "showInQuickbar": false,
    "abilityType": "none",
    "crOffset": "",
    "disabled": false,
    "classSkills": {}
  },
  "ownership": {
    "default": 0
  },
  "_stats": {
    "systemId": "pf1",
    "systemVersion": "9.1",
    "coreVersion": "10.291",
    "createdTime": 1665428358307,
    "modifiedTime": 1689797902112,
    "lastModifiedBy": "ppv91YxratjWnkJi"
  },
  "effects": [],
  "folder": null,
  "sort": 0,
  "flags": {},
  "_key": "!items!twegYvMTdh6M3BPB"
}