{
  "_id": "jbZtEl3S5vTRdJ68",
  "name": "Countering Loophole",
  "type": "feat",
  "img": "systems/pf1/icons/skills/blue_06.jpg",
  "system": {
    "description": {
      "value": "<em>You can spot loopholes in magical commands, escape their effect, and bind the caster in turn.</em><br/><br/><b>Prerequisites</b><br/>Improved Counterspell.<br/><br/><b>Benefits</b><br/>When you successfully counter a charm or compulsion spell, you immediately redirect the spell against the caster as though you were the caster of the spell and the caster were the target (as long as you can cast a spell of that level). Even if the spell originally targeted multiple creatures, the caster becomes the sole target of the redirected spell. The spell's save DC remains the same, but you make any decisions about the effects of the spell (revising a suggestion or the conditions of a lesser geas, for example).<br/><br/><b>Normal</b><br/>If you successfully counter a spell, both spells automatically negate each other with no other results.",
      "unidentified": ""
    },
    "tags": [
      "PFS",
      "General"
    ],
    "actions": [],
    "uses": {
      "per": null,
      "value": 0,
      "maxFormula": "",
      "autoDeductChargesCost": "1"
    },
    "attackNotes": [],
    "effectNotes": [],
    "changes": [],
    "changeFlags": {
      "loseDexToAC": false,
      "noEncumbrance": false,
      "mediumArmorFullSpeed": false,
      "heavyArmorFullSpeed": false
    },
    "contextNotes": [],
    "links": {
      "children": [],
      "charges": []
    },
    "tag": "",
    "useCustomTag": false,
    "armorProf": {
      "value": [],
      "custom": ""
    },
    "weaponProf": {
      "value": [],
      "custom": ""
    },
    "languages": {
      "value": [],
      "custom": ""
    },
    "flags": {
      "boolean": {},
      "dictionary": {}
    },
    "scriptCalls": [],
    "subType": "feat",
    "associations": {
      "classes": []
    },
    "showInQuickbar": false,
    "abilityType": "none",
    "crOffset": "",
    "disabled": false,
    "classSkills": {}
  },
  "ownership": {
    "default": 0
  },
  "_stats": {
    "systemId": "pf1",
    "systemVersion": "9.1",
    "coreVersion": "10.291",
    "createdTime": 1665428356863,
    "modifiedTime": 1689797897275,
    "lastModifiedBy": "ppv91YxratjWnkJi"
  },
  "effects": [],
  "folder": null,
  "sort": 0,
  "flags": {},
  "_key": "!items!jbZtEl3S5vTRdJ68"
}