{
  "_id": "04T7gRsbHZasATM7",
  "name": "Courageous Resolve",
  "type": "feat",
  "img": "systems/pf1/icons/feats/iron-will.jpg",
  "system": {
    "description": {
      "value": "<em>Even when others run, you tend to stand your ground.</em><br/><br/><b>Prerequisites</b><br/>Craven racial trait or fearless racial trait, halfling.<br/><br/><b>Benefits</b><br/>If you have the fearless racial trait, your racial bonus on saving throws against fear effects increases to +4. If you have the craven racial trait, you still take the -2 penalty on fear saves, but you can gain the benefit of morale bonuses on saving throws against fear effects.",
      "unidentified": ""
    },
    "tags": [
      "PFS",
      "Racial",
      "Halfling"
    ],
    "actions": [],
    "uses": {
      "per": null,
      "value": 0,
      "maxFormula": "",
      "autoDeductChargesCost": "1"
    },
    "attackNotes": [],
    "effectNotes": [],
    "changes": [],
    "changeFlags": {
      "loseDexToAC": false,
      "noEncumbrance": false,
      "mediumArmorFullSpeed": false,
      "heavyArmorFullSpeed": false
    },
    "contextNotes": [],
    "links": {
      "children": [],
      "charges": []
    },
    "tag": "",
    "useCustomTag": false,
    "armorProf": {
      "value": [],
      "custom": ""
    },
    "weaponProf": {
      "value": [],
      "custom": ""
    },
    "languages": {
      "value": [],
      "custom": ""
    },
    "flags": {
      "boolean": {},
      "dictionary": {}
    },
    "scriptCalls": [],
    "subType": "feat",
    "associations": {
      "classes": []
    },
    "showInQuickbar": false,
    "abilityType": "none",
    "crOffset": "",
    "disabled": false,
    "classSkills": {}
  },
  "ownership": {
    "default": 0
  },
  "_stats": {
    "systemId": "pf1",
    "systemVersion": "9.1",
    "coreVersion": "10.291",
    "createdTime": 1665428350575,
    "modifiedTime": 1689797873738,
    "lastModifiedBy": "ppv91YxratjWnkJi"
  },
  "effects": [],
  "folder": null,
  "sort": 0,
  "flags": {},
  "_key": "!items!04T7gRsbHZasATM7"
}