{
  "_id": "am74O6DOxDWCIfU6",
  "name": "Courage in a Bottle",
  "type": "feat",
  "img": "icons/containers/kitchenware/goblet-jeweled-red.webp",
  "system": {
    "description": {
      "value": "<em>You show little fear while inebriated.</em><br/><br/><b>Prerequisites</b><br/>Bravery class feature, worshiper of Cayden Cailean.<br/><br/><b>Benefits</b><br/>While you are intoxicated, the bonus you gain from your bravery class feature increases by 2. If this increase grants you a total bonus of +6 or higher against fear effects, you become immune to fear instead.",
      "unidentified": ""
    },
    "tags": [
      "PFS",
      "General"
    ],
    "actions": [],
    "uses": {
      "per": null,
      "value": 0,
      "maxFormula": "",
      "autoDeductChargesCost": "1"
    },
    "attackNotes": [],
    "effectNotes": [],
    "changes": [],
    "changeFlags": {
      "loseDexToAC": false,
      "noEncumbrance": false,
      "mediumArmorFullSpeed": false,
      "heavyArmorFullSpeed": false
    },
    "contextNotes": [],
    "links": {
      "children": [],
      "charges": []
    },
    "tag": "",
    "useCustomTag": false,
    "armorProf": {
      "value": [],
      "custom": ""
    },
    "weaponProf": {
      "value": [],
      "custom": ""
    },
    "languages": {
      "value": [],
      "custom": ""
    },
    "flags": {
      "boolean": {},
      "dictionary": {}
    },
    "scriptCalls": [],
    "subType": "feat",
    "associations": {
      "classes": []
    },
    "showInQuickbar": false,
    "abilityType": "none",
    "crOffset": "",
    "disabled": false,
    "classSkills": {}
  },
  "ownership": {
    "default": 0
  },
  "_stats": {
    "systemId": "pf1",
    "systemVersion": "9.1",
    "coreVersion": "10.291",
    "createdTime": 1665428355613,
    "modifiedTime": 1689797892773,
    "lastModifiedBy": "ppv91YxratjWnkJi"
  },
  "effects": [],
  "folder": null,
  "sort": 0,
  "flags": {},
  "_key": "!items!am74O6DOxDWCIfU6"
}