{
  "_id": "0Ezfgppnp3JruYBa",
  "name": "Crepuscular Cowl",
  "type": "feat",
  "img": "systems/pf1/icons/skills/violet_12.jpg",
  "system": {
    "description": {
      "value": "<em>Your affinity with the Shadow Plane allows you to draw a cloak of concealing gloom around you, even in bright light.</em><br/><br/><b>Prerequisites</b><br/>Stealth 9 ranks, shadow blending racial trait or shadow call shadowdancer prestige class feature.<br/><br/><b>Benefits</b><br/>As a swift action, you can pull a haze of shadow around you, granting yourself concealment (20% miss chance) in bright light or normal light for 1 minute. You can use this ability once per day, plus one additional time per day when your character level reaches 12th, 15th, and 18th.",
      "unidentified": ""
    },
    "tags": [
      "PFS",
      "General"
    ],
    "actions": [],
    "uses": {
      "per": null,
      "value": 0,
      "maxFormula": "",
      "autoDeductChargesCost": "1"
    },
    "attackNotes": [],
    "effectNotes": [],
    "changes": [],
    "changeFlags": {
      "loseDexToAC": false,
      "noEncumbrance": false,
      "mediumArmorFullSpeed": false,
      "heavyArmorFullSpeed": false
    },
    "contextNotes": [],
    "links": {
      "children": [],
      "charges": []
    },
    "tag": "",
    "useCustomTag": false,
    "armorProf": {
      "value": [],
      "custom": ""
    },
    "weaponProf": {
      "value": [],
      "custom": ""
    },
    "languages": {
      "value": [],
      "custom": ""
    },
    "flags": {
      "boolean": {},
      "dictionary": {}
    },
    "scriptCalls": [],
    "subType": "feat",
    "associations": {
      "classes": []
    },
    "showInQuickbar": false,
    "abilityType": "none",
    "crOffset": "",
    "disabled": false,
    "classSkills": {}
  },
  "ownership": {
    "default": 0
  },
  "_stats": {
    "systemId": "pf1",
    "systemVersion": "9.1",
    "coreVersion": "10.291",
    "createdTime": 1665428350594,
    "modifiedTime": 1689797873855,
    "lastModifiedBy": "ppv91YxratjWnkJi"
  },
  "effects": [],
  "folder": null,
  "sort": 0,
  "flags": {},
  "_key": "!items!0Ezfgppnp3JruYBa"
}