{
  "_id": "Y1uE1B8EHv7Jm1IB",
  "name": "Crippling Critical",
  "type": "feat",
  "img": "systems/pf1/icons/skills/yellow_03.jpg",
  "system": {
    "description": {
      "value": "<em>You are able to maim a target and hinder its movement.</em><br/><br/><b>Prerequisites</b><br/>Critical Focus, base attack bonus +13.<br/><br/><b>Benefits</b><br/>Whenever you score a critical hit against an opponent, its speed is halved for 1 minute. A successful Fortitude save reduces this duration to 1d4 rounds. The DC of this save is equal to 10 + your base attack bonus. Against creatures with multiple types of movement, you must choose which movement type to affect. A flying creature hit by this attack must make a DC 10 Fly check to remain airborne, and has its maneuverability reduced by one step.<br/><br/><b>Special</b><br/>You can only apply the effects of one critical feat to a given critical hit unless you possess Critical Mastery.<br/><br/><b>Combat Trick</b><br/>When you confirm a critical hit and attempt to cripple an opponent with this feat, you can spend up to 5 stamina points to increase the DC of this feat's saving throw by an amount equal to the number of stamina points you spent.",
      "unidentified": ""
    },
    "tags": [
      "PFS",
      "Combat",
      "Critical"
    ],
    "actions": [],
    "uses": {
      "per": null,
      "value": 0,
      "maxFormula": "",
      "autoDeductChargesCost": "1"
    },
    "attackNotes": [],
    "effectNotes": [],
    "changes": [],
    "changeFlags": {
      "loseDexToAC": false,
      "noEncumbrance": false,
      "mediumArmorFullSpeed": false,
      "heavyArmorFullSpeed": false
    },
    "contextNotes": [],
    "links": {
      "children": [],
      "charges": []
    },
    "tag": "",
    "useCustomTag": false,
    "armorProf": {
      "value": [],
      "custom": ""
    },
    "weaponProf": {
      "value": [],
      "custom": ""
    },
    "languages": {
      "value": [],
      "custom": ""
    },
    "flags": {
      "boolean": {},
      "dictionary": {}
    },
    "scriptCalls": [],
    "subType": "feat",
    "associations": {
      "classes": []
    },
    "showInQuickbar": false,
    "abilityType": "none",
    "crOffset": "",
    "disabled": false,
    "classSkills": {}
  },
  "ownership": {
    "default": 0
  },
  "_stats": {
    "systemId": "pf1",
    "systemVersion": "9.1",
    "coreVersion": "10.291",
    "createdTime": 1665428355146,
    "modifiedTime": 1689797890981,
    "lastModifiedBy": "ppv91YxratjWnkJi"
  },
  "effects": [],
  "folder": null,
  "sort": 0,
  "flags": {},
  "_key": "!items!Y1uE1B8EHv7Jm1IB"
}