{
  "_id": "ErR70rxQ6NALu4Qf",
  "name": "Crowd of Bullies",
  "type": "feat",
  "img": "systems/pf1/icons/skills/red_02.jpg",
  "system": {
    "description": {
      "value": "<em>Your failed attempt to humiliate a foe reveals its weaknesses to your allies.</em><br/><br/><b>Prerequisites</b><br/>Half-orc.<br/><br/><b>Benefits</b><br/>Whenever you fail a combat maneuver check, your allies within 30 feet who also have this feat gain a +2 circumstance bonus on combat maneuver checks of the same type against the same foe for 1 round.",
      "unidentified": ""
    },
    "tags": [
      "PFS",
      "Combat",
      "Teamwork"
    ],
    "actions": [],
    "uses": {
      "per": null,
      "value": 0,
      "maxFormula": "",
      "autoDeductChargesCost": "1"
    },
    "attackNotes": [],
    "effectNotes": [],
    "changes": [],
    "changeFlags": {
      "loseDexToAC": false,
      "noEncumbrance": false,
      "mediumArmorFullSpeed": false,
      "heavyArmorFullSpeed": false
    },
    "contextNotes": [],
    "links": {
      "children": [],
      "charges": []
    },
    "tag": "",
    "useCustomTag": false,
    "armorProf": {
      "value": [],
      "custom": ""
    },
    "weaponProf": {
      "value": [],
      "custom": ""
    },
    "languages": {
      "value": [],
      "custom": ""
    },
    "flags": {
      "boolean": {},
      "dictionary": {}
    },
    "scriptCalls": [],
    "subType": "feat",
    "associations": {
      "classes": []
    },
    "showInQuickbar": false,
    "abilityType": "none",
    "crOffset": "",
    "disabled": false,
    "classSkills": {}
  },
  "ownership": {
    "default": 0
  },
  "_stats": {
    "systemId": "pf1",
    "systemVersion": "9.1",
    "coreVersion": "10.291",
    "createdTime": 1665428352601,
    "modifiedTime": 1689797881202,
    "lastModifiedBy": "ppv91YxratjWnkJi"
  },
  "effects": [],
  "folder": null,
  "sort": 0,
  "flags": {},
  "_key": "!items!ErR70rxQ6NALu4Qf"
}