{
  "_id": "AnnhZwmTfHpuzEzy",
  "name": "Crypt Spell",
  "type": "feat",
  "img": "systems/pf1/icons/skills/affliction_04.jpg",
  "system": {
    "description": {
      "value": "<em>You can infuse your magic with the unswayable power of the Boneyard, sending foes to face ineluctable judgment.</em><br/><br/><b>Benefits</b><br/>You can enhance any spell that inflicts hit point damage to become a crypt spell. A creature that dies within 1 round of being damaged by a crypt spell is considered to have been killed by a death effect for the purpose of being returned to life. An undead creature damaged by a crypt spell gains the sickened condition for a number of rounds equal to the spell's original spell level; this duration is halved if the undead creature succeeds at its saving throw against the spell. If the spell does not allow a save, the target can attempt a Will save to negate the sickened effect. A crypt spell gains the death descriptor.<br/><br/> A crypt spell uses a spell slot 1 level higher than the spell's normal spell level.",
      "unidentified": ""
    },
    "tags": [
      "PFS",
      "Metamagic"
    ],
    "actions": [],
    "uses": {
      "per": null,
      "value": 0,
      "maxFormula": "",
      "autoDeductChargesCost": "1"
    },
    "attackNotes": [],
    "effectNotes": [],
    "changes": [],
    "changeFlags": {
      "loseDexToAC": false,
      "noEncumbrance": false,
      "mediumArmorFullSpeed": false,
      "heavyArmorFullSpeed": false
    },
    "contextNotes": [],
    "links": {
      "children": [],
      "charges": []
    },
    "tag": "",
    "useCustomTag": false,
    "armorProf": {
      "value": [],
      "custom": ""
    },
    "weaponProf": {
      "value": [],
      "custom": ""
    },
    "languages": {
      "value": [],
      "custom": ""
    },
    "flags": {
      "boolean": {},
      "dictionary": {}
    },
    "scriptCalls": [],
    "subType": "feat",
    "associations": {
      "classes": []
    },
    "showInQuickbar": false,
    "abilityType": "none",
    "crOffset": "",
    "disabled": false,
    "classSkills": {}
  },
  "ownership": {
    "default": 0
  },
  "_stats": {
    "systemId": "pf1",
    "systemVersion": "9.1",
    "coreVersion": "10.291",
    "createdTime": 1665428352022,
    "modifiedTime": 1689797878760,
    "lastModifiedBy": "ppv91YxratjWnkJi"
  },
  "effects": [],
  "folder": null,
  "sort": 0,
  "flags": {},
  "_key": "!items!AnnhZwmTfHpuzEzy"
}