{
  "_id": "KfOR0XTHFEDgVjkT",
  "name": "Cunning Intuition",
  "type": "feat",
  "img": "systems/pf1/icons/skills/shadow_11.jpg",
  "system": {
    "description": {
      "value": "<em>You can read your foe's body language to gauge your foe and gain an edge in combat.</em><br/><br/><b>Prerequisites</b><br/>Alertness, Improved Initiative, Lightning Reflexes, Quick Draw, Ready for Anything, base attack bonus +13 or rogue level 13th, Sense Motive 13 ranks.<br/><br/><b>Benefits</b><br/>When you ready an action, you do not need to declare what action you will take, only the trigger for that action and an action type (either standard, move, swift, or free). If you choose the standard action type, you can take a move action instead when your readied action triggers. When the condition triggers, you can choose a specific action of the appropriate type to take.",
      "unidentified": ""
    },
    "tags": [
      "PFS",
      "Combat"
    ],
    "actions": [],
    "uses": {
      "per": null,
      "value": 0,
      "maxFormula": "",
      "autoDeductChargesCost": "1"
    },
    "attackNotes": [],
    "effectNotes": [],
    "changes": [],
    "changeFlags": {
      "loseDexToAC": false,
      "noEncumbrance": false,
      "mediumArmorFullSpeed": false,
      "heavyArmorFullSpeed": false
    },
    "contextNotes": [],
    "links": {
      "children": [],
      "charges": []
    },
    "tag": "",
    "useCustomTag": false,
    "armorProf": {
      "value": [],
      "custom": ""
    },
    "weaponProf": {
      "value": [],
      "custom": ""
    },
    "languages": {
      "value": [],
      "custom": ""
    },
    "flags": {
      "boolean": {},
      "dictionary": {}
    },
    "scriptCalls": [],
    "subType": "feat",
    "associations": {
      "classes": []
    },
    "showInQuickbar": false,
    "abilityType": "none",
    "crOffset": "",
    "disabled": false,
    "classSkills": {}
  },
  "ownership": {
    "default": 0
  },
  "_stats": {
    "systemId": "pf1",
    "systemVersion": "9.1",
    "coreVersion": "10.291",
    "createdTime": 1665428353420,
    "modifiedTime": 1689797884465,
    "lastModifiedBy": "ppv91YxratjWnkJi"
  },
  "effects": [],
  "folder": null,
  "sort": 0,
  "flags": {},
  "_key": "!items!KfOR0XTHFEDgVjkT"
}