{
  "_id": "n0V2MR6FKmr3dohW",
  "name": "Cursed Item Detection",
  "type": "feat",
  "img": "systems/pf1/icons/skills/violet_09.jpg",
  "system": {
    "description": {
      "value": "<em>Your arcane prowess is so great that even cursed items fail to befuddle you.</em><br/><br/><b>Prerequisites</b><br/>Spellcraft 5 ranks, ability to cast detect magic as a spell or spell-like ability.<br/><br/><b>Benefits</b><br/>You gain a +2 bonus on checks made to identify the properties of magic items. In addition, you need only exceed the DC of these checks by 5 in order to determine whether or not an item is cursed.<br/><br/><b>Normal</b><br/>Unless the check made to identify a cursed item exceeds the DC by 10 or more, the item's curse cannot be detected.",
      "unidentified": ""
    },
    "tags": [
      "PFS",
      "General"
    ],
    "actions": [],
    "uses": {
      "per": null,
      "value": 0,
      "maxFormula": "",
      "autoDeductChargesCost": "1"
    },
    "attackNotes": [],
    "effectNotes": [],
    "changes": [],
    "changeFlags": {
      "loseDexToAC": false,
      "noEncumbrance": false,
      "mediumArmorFullSpeed": false,
      "heavyArmorFullSpeed": false
    },
    "contextNotes": [],
    "links": {
      "children": [],
      "charges": []
    },
    "tag": "",
    "useCustomTag": false,
    "armorProf": {
      "value": [],
      "custom": ""
    },
    "weaponProf": {
      "value": [],
      "custom": ""
    },
    "languages": {
      "value": [],
      "custom": ""
    },
    "flags": {
      "boolean": {},
      "dictionary": {}
    },
    "scriptCalls": [],
    "subType": "feat",
    "associations": {
      "classes": []
    },
    "showInQuickbar": false,
    "abilityType": "none",
    "crOffset": "",
    "disabled": false,
    "classSkills": {}
  },
  "ownership": {
    "default": 0
  },
  "_stats": {
    "systemId": "pf1",
    "systemVersion": "9.1",
    "coreVersion": "10.291",
    "createdTime": 1665428357490,
    "modifiedTime": 1689797899278,
    "lastModifiedBy": "ppv91YxratjWnkJi"
  },
  "effects": [],
  "folder": null,
  "sort": 0,
  "flags": {},
  "_key": "!items!n0V2MR6FKmr3dohW"
}