{
  "_id": "lRXmk6FRBdJSICCU",
  "name": "Cushioning Armor",
  "type": "feat",
  "img": "icons/equipment/chest/coat-leather-blue.webp",
  "system": {
    "description": {
      "value": "<em>You twist in your armor, allowing it to mitigate your fall.</em><br/><br/><b>Prerequisites</b><br/>Armor training class feature, proficiency with medium or heavy armor.<br/><br/><b>Benefits</b><br/>When you take falling damage, you can direct half of the damage to your armor. This damage ignores the armor's hardness.<br/><br/><b>Combat Trick</b><br/>You can spend 5 stamina points to utilize your armor's hardness when directing falling damage to it. (See page 16.)",
      "unidentified": ""
    },
    "tags": [
      "PFS",
      "Armor Mastery",
      "Combat"
    ],
    "actions": [],
    "uses": {
      "per": null,
      "value": 0,
      "maxFormula": "",
      "autoDeductChargesCost": "1"
    },
    "attackNotes": [],
    "effectNotes": [],
    "changes": [],
    "changeFlags": {
      "loseDexToAC": false,
      "noEncumbrance": false,
      "mediumArmorFullSpeed": false,
      "heavyArmorFullSpeed": false
    },
    "contextNotes": [],
    "links": {
      "children": [],
      "charges": []
    },
    "tag": "",
    "useCustomTag": false,
    "armorProf": {
      "value": [],
      "custom": ""
    },
    "weaponProf": {
      "value": [],
      "custom": ""
    },
    "languages": {
      "value": [],
      "custom": ""
    },
    "flags": {
      "boolean": {},
      "dictionary": {}
    },
    "scriptCalls": [],
    "subType": "feat",
    "associations": {
      "classes": []
    },
    "showInQuickbar": false,
    "abilityType": "none",
    "crOffset": "",
    "disabled": false,
    "classSkills": {}
  },
  "ownership": {
    "default": 0
  },
  "_stats": {
    "systemId": "pf1",
    "systemVersion": "9.1",
    "coreVersion": "10.291",
    "createdTime": 1665428357383,
    "modifiedTime": 1689797898597,
    "lastModifiedBy": "ppv91YxratjWnkJi"
  },
  "effects": [],
  "folder": null,
  "sort": 0,
  "flags": {},
  "_key": "!items!lRXmk6FRBdJSICCU"
}