{
  "_id": "3yhIdVmYVXXjusw9",
  "name": "Cutting Humiliation",
  "type": "feat",
  "img": "systems/pf1/icons/skills/red_22.jpg",
  "system": {
    "description": {
      "value": "<em>You know how to cut a foe deeply with humiliation.</em><br/><br/><b>Prerequisites</b><br/>Persuasive, Intimidate 5 ranks.<br/><br/><b>Benefits</b><br/>When you successfully demoralize a target by using a verbal Intimidate check in a social situation (rather than an Intimidate check you can make via an ability such as Dazzling Display or Enforcer), you can instead humiliate the target, causing it to take a -2 penalty on Charisma-based skill checks and Charisma ability checks for 1 hour + 1 additional hour for every 5 by which the result of your check exceeds the DC. The target can remove the effect early by taking 10 minutes to compose herself. If you fail this check, any creature who witnessed the failure is immune to your humiliation from this feat for 24 hours. If you fail by 5 or more, you become humiliated for 1 hour instead of your target.",
      "unidentified": ""
    },
    "tags": [
      "PFS",
      "General"
    ],
    "actions": [],
    "uses": {
      "per": null,
      "value": 0,
      "maxFormula": "",
      "autoDeductChargesCost": "1"
    },
    "attackNotes": [],
    "effectNotes": [],
    "changes": [],
    "changeFlags": {
      "loseDexToAC": false,
      "noEncumbrance": false,
      "mediumArmorFullSpeed": false,
      "heavyArmorFullSpeed": false
    },
    "contextNotes": [],
    "links": {
      "children": [],
      "charges": []
    },
    "tag": "",
    "useCustomTag": false,
    "armorProf": {
      "value": [],
      "custom": ""
    },
    "weaponProf": {
      "value": [],
      "custom": ""
    },
    "languages": {
      "value": [],
      "custom": ""
    },
    "flags": {
      "boolean": {},
      "dictionary": {}
    },
    "scriptCalls": [],
    "subType": "feat",
    "associations": {
      "classes": []
    },
    "showInQuickbar": false,
    "abilityType": "none",
    "crOffset": "",
    "disabled": false,
    "classSkills": {}
  },
  "ownership": {
    "default": 0
  },
  "_stats": {
    "systemId": "pf1",
    "systemVersion": "9.1",
    "coreVersion": "10.291",
    "createdTime": 1665428350848,
    "modifiedTime": 1689797875326,
    "lastModifiedBy": "ppv91YxratjWnkJi"
  },
  "effects": [],
  "folder": null,
  "sort": 0,
  "flags": {},
  "_key": "!items!3yhIdVmYVXXjusw9"
}