{
  "_id": "A5GuCqMZVH8H6hi4",
  "name": "Daggermark Lore",
  "type": "feat",
  "img": "systems/pf1/icons/skills/weapon_43.jpg",
  "system": {
    "description": {
      "value": "<em>You understand the exclusive poisons brewed by your guild far better than the buyers you sell to, and you can deliver them so they are more difficult to weather.</em><br/><br/><b>Prerequisites</b><br/>Craft (alchemy) 5 ranks, member of the Daggermark Poisoner's Guild, poison lore or poison use class feature.<br/><br/><b>Benefits</b><br/>Choose one poison. When you deliver that poison, the number of saves needed to cure it increases by 1, and the DC to cure it with neutralize poison increases by 5. Succeeding at the initial save still negates the poison. Typical poisons used by Daggermark poisoners are listed in Pathfinder Player Companion: Alchemy Manual and Pathfinder Chronicles: Guide to the River Kingdoms.<br/><br/> Additionally, if you have the poison lore class feature, you're considered to have the poison use class feature for the purpose of meeting prerequisites.",
      "unidentified": ""
    },
    "tags": [
      "PFS",
      "General"
    ],
    "actions": [],
    "uses": {
      "per": null,
      "value": 0,
      "maxFormula": "",
      "autoDeductChargesCost": "1"
    },
    "attackNotes": [],
    "effectNotes": [],
    "changes": [],
    "changeFlags": {
      "loseDexToAC": false,
      "noEncumbrance": false,
      "mediumArmorFullSpeed": false,
      "heavyArmorFullSpeed": false
    },
    "contextNotes": [],
    "links": {
      "children": [],
      "charges": []
    },
    "tag": "",
    "useCustomTag": false,
    "armorProf": {
      "value": [],
      "custom": ""
    },
    "weaponProf": {
      "value": [],
      "custom": ""
    },
    "languages": {
      "value": [],
      "custom": ""
    },
    "flags": {
      "boolean": {},
      "dictionary": {}
    },
    "scriptCalls": [],
    "subType": "feat",
    "associations": {
      "classes": []
    },
    "showInQuickbar": false,
    "abilityType": "none",
    "crOffset": "",
    "disabled": false,
    "classSkills": {}
  },
  "ownership": {
    "default": 0
  },
  "_stats": {
    "systemId": "pf1",
    "systemVersion": "9.1",
    "coreVersion": "10.291",
    "createdTime": 1665428351947,
    "modifiedTime": 1689797878514,
    "lastModifiedBy": "ppv91YxratjWnkJi"
  },
  "effects": [],
  "folder": null,
  "sort": 0,
  "flags": {},
  "_key": "!items!A5GuCqMZVH8H6hi4"
}