{
  "_id": "r1OOuKqA5SzApyVf",
  "name": "Dangerous Tail",
  "type": "feat",
  "img": "icons/commodities/biological/tail-scaled-green.webp",
  "system": {
    "description": {
      "value": "<em>You have trained your tail into a powerful weapon, and wield it with deadly skill.</em><br/><br/><b>Prerequisites</b><br/>Base attack bonus +5, Lizardfolk.<br/><br/><b>Benefits</b><br/>You gain a tail swipe attack. If used as part of a full-attack action, the attack is made at your full base attack bonus - 5. If the tail swipe hits, it deals 1d4 points of damage (assuming you are Medium) + 1/2 your Strength modifier. If you confirm a critical hit against a target with your tail swipe, as a free action you can attempt a trip combat maneuver against that target.",
      "unidentified": ""
    },
    "tags": [
      "Combat",
      "Racial",
      "Lizardfolk"
    ],
    "actions": [],
    "uses": {
      "per": null,
      "value": 0,
      "maxFormula": "",
      "autoDeductChargesCost": "1"
    },
    "attackNotes": [],
    "effectNotes": [],
    "changes": [],
    "changeFlags": {
      "loseDexToAC": false,
      "noEncumbrance": false,
      "mediumArmorFullSpeed": false,
      "heavyArmorFullSpeed": false
    },
    "contextNotes": [],
    "links": {
      "children": [],
      "charges": []
    },
    "tag": "",
    "useCustomTag": false,
    "armorProf": {
      "value": [],
      "custom": ""
    },
    "weaponProf": {
      "value": [],
      "custom": ""
    },
    "languages": {
      "value": [],
      "custom": ""
    },
    "flags": {
      "boolean": {},
      "dictionary": {}
    },
    "scriptCalls": [],
    "subType": "feat",
    "associations": {
      "classes": []
    },
    "showInQuickbar": false,
    "abilityType": "none",
    "crOffset": "",
    "disabled": false,
    "classSkills": {}
  },
  "ownership": {
    "default": 0
  },
  "_stats": {
    "systemId": "pf1",
    "systemVersion": "9.1",
    "coreVersion": "10.291",
    "createdTime": 1665428358105,
    "modifiedTime": 1689797901191,
    "lastModifiedBy": "ppv91YxratjWnkJi"
  },
  "effects": [],
  "folder": null,
  "sort": 0,
  "flags": {},
  "_key": "!items!r1OOuKqA5SzApyVf"
}