{
  "_id": "K5a98x9vcYz3s8vS",
  "name": "Darkness Trick",
  "type": "feat",
  "img": "systems/pf1/icons/skills/shadow_13.jpg",
  "system": {
    "description": {
      "value": "<em>You can manipulate the luminescence of magic weapons.</em><br/><br/><b>Prerequisites</b><br/>Use Magic Device 5 ranks, ability to cast darkness.<br/><br/><b>Benefits</b><br/>When wielding a magic weapon that sheds light or that features a luminescent quality, such as a flaming or brilliant energy weapon, you can deactivate that illumination as a swift action. You can reignite the illumination at any time as a free action. Any intrinsic magic properties that would force the weapon to shed light, such as the extra damage of a flaming weapon, do not function while the illumination is deactivated, and the 'significant portion' of a brilliant energy weapon that is normally made of light ceases to exist.<br/><br/> If a weapon affected by this ability ever leaves your possession (for instance, if you drop the weapon or pass it to another creature), its illumination and related abilities instantly return.",
      "unidentified": ""
    },
    "tags": [
      "PFS",
      "General"
    ],
    "actions": [],
    "uses": {
      "per": null,
      "value": 0,
      "maxFormula": "",
      "autoDeductChargesCost": "1"
    },
    "attackNotes": [],
    "effectNotes": [],
    "changes": [],
    "changeFlags": {
      "loseDexToAC": false,
      "noEncumbrance": false,
      "mediumArmorFullSpeed": false,
      "heavyArmorFullSpeed": false
    },
    "contextNotes": [],
    "links": {
      "children": [],
      "charges": []
    },
    "tag": "",
    "useCustomTag": false,
    "armorProf": {
      "value": [],
      "custom": ""
    },
    "weaponProf": {
      "value": [],
      "custom": ""
    },
    "languages": {
      "value": [],
      "custom": ""
    },
    "flags": {
      "boolean": {},
      "dictionary": {}
    },
    "scriptCalls": [],
    "subType": "feat",
    "associations": {
      "classes": []
    },
    "showInQuickbar": false,
    "abilityType": "none",
    "crOffset": "",
    "disabled": false,
    "classSkills": {}
  },
  "ownership": {
    "default": 0
  },
  "_stats": {
    "systemId": "pf1",
    "systemVersion": "9.1",
    "coreVersion": "10.291",
    "createdTime": 1665428353368,
    "modifiedTime": 1689797884231,
    "lastModifiedBy": "ppv91YxratjWnkJi"
  },
  "effects": [],
  "folder": null,
  "sort": 0,
  "flags": {},
  "_key": "!items!K5a98x9vcYz3s8vS"
}