{
  "_id": "LJldOFL26oA86IdD",
  "name": "Darting Viper",
  "type": "feat",
  "img": "systems/pf1/icons/items/weapons/dwarven-dorn-dergar.png",
  "system": {
    "description": {
      "value": "<em>When using a dorn-dergar, you can quickly attack both near and distant foes.</em><br/><br/><b>Prerequisites</b><br/>Base attack bonus +4, proficiency with the dwarven dorn-dergar.<br/><br/><b>Benefits</b><br/>You can change whether you're using the dorndergar as a normal or reach weapon as a swift action.<br/><br/><b>Normal</b><br/>Changing whether a dorn-dergar is a normal or reach weapon is a move action.",
      "unidentified": ""
    },
    "tags": [
      "PFS",
      "Combat"
    ],
    "actions": [],
    "uses": {
      "per": null,
      "value": 0,
      "maxFormula": "",
      "autoDeductChargesCost": "1"
    },
    "attackNotes": [],
    "effectNotes": [],
    "changes": [],
    "changeFlags": {
      "loseDexToAC": false,
      "noEncumbrance": false,
      "mediumArmorFullSpeed": false,
      "heavyArmorFullSpeed": false
    },
    "contextNotes": [],
    "links": {
      "children": [],
      "charges": []
    },
    "tag": "",
    "useCustomTag": false,
    "armorProf": {
      "value": [],
      "custom": ""
    },
    "weaponProf": {
      "value": [],
      "custom": ""
    },
    "languages": {
      "value": [],
      "custom": ""
    },
    "flags": {
      "boolean": {},
      "dictionary": {}
    },
    "scriptCalls": [],
    "subType": "feat",
    "associations": {
      "classes": []
    },
    "showInQuickbar": false,
    "abilityType": "none",
    "crOffset": "",
    "disabled": false,
    "classSkills": {}
  },
  "ownership": {
    "default": 0
  },
  "_stats": {
    "systemId": "pf1",
    "systemVersion": "9.1",
    "coreVersion": "10.291",
    "createdTime": 1665428353739,
    "modifiedTime": 1689797885128,
    "lastModifiedBy": "ppv91YxratjWnkJi"
  },
  "effects": [],
  "folder": null,
  "sort": 0,
  "flags": {},
  "_key": "!items!LJldOFL26oA86IdD"
}