{
  "_id": "rDRzOUISiKOwM5CC",
  "name": "Deadhand Master",
  "type": "feat",
  "img": "systems/pf1/icons/skills/shadow_01.jpg",
  "system": {
    "description": {
      "value": "<em>Your death-infused punch drains life force from your foes.</em><br/><br/><b>Prerequisites</b><br/>Wis 23, Deadhand Initiate, Deadhand Style, Improved Unarmed Strike, Knowledge (religion) 14 ranks, ki pool class feature, nongood alignment.<br/><br/><b>Benefits</b><br/>While using Deadhand Style, when you damage a living creature with an unarmed strike, you can spend 2 points from your ki pool as a swift action to inflict 2 temporary negative levels on your enemy with no saving throw. Effects that reduce the ki cost also reduce the number of negative levels you inflict on your foe, but effects that increase the ki cost do not increase the number of negative levels you inflict. As long as the foe is affected by the temporary negative levels, you can't recover the ki points you spent, effectively reducing the size of your ki pool. The Fortitude save DC to remove the negative levels and prevent them from becoming permanent is equal to 10 + 1/2 your Hit Dice + your Wisdom modifier. Once the negative levels become permanent or the foe removes them, you can recover your spent ki points. If the foe dies before either happens, you can recover the spent ki after 24 hours.",
      "unidentified": ""
    },
    "tags": [
      "PFS",
      "Combat"
    ],
    "actions": [],
    "uses": {
      "per": null,
      "value": 0,
      "maxFormula": "",
      "autoDeductChargesCost": "1"
    },
    "attackNotes": [],
    "effectNotes": [],
    "changes": [],
    "changeFlags": {
      "loseDexToAC": false,
      "noEncumbrance": false,
      "mediumArmorFullSpeed": false,
      "heavyArmorFullSpeed": false
    },
    "contextNotes": [],
    "links": {
      "children": [],
      "charges": []
    },
    "tag": "",
    "useCustomTag": false,
    "armorProf": {
      "value": [],
      "custom": ""
    },
    "weaponProf": {
      "value": [],
      "custom": ""
    },
    "languages": {
      "value": [],
      "custom": ""
    },
    "flags": {
      "boolean": {},
      "dictionary": {}
    },
    "scriptCalls": [],
    "subType": "feat",
    "associations": {
      "classes": []
    },
    "showInQuickbar": false,
    "abilityType": "none",
    "crOffset": "",
    "disabled": false,
    "classSkills": {}
  },
  "ownership": {
    "default": 0
  },
  "_stats": {
    "systemId": "pf1",
    "systemVersion": "9.1",
    "coreVersion": "10.291",
    "createdTime": 1665428358125,
    "modifiedTime": 1689797901301,
    "lastModifiedBy": "ppv91YxratjWnkJi"
  },
  "effects": [],
  "folder": null,
  "sort": 0,
  "flags": {},
  "_key": "!items!rDRzOUISiKOwM5CC"
}