{
  "_id": "lc65nHZBRADWVync",
  "name": "Deadly Grappler",
  "type": "feat",
  "img": "systems/pf1/icons/feats/greater-grapple.jpg",
  "system": {
    "description": {
      "value": "<em>While you're grappled, you become even more dangerous.</em><br/><br/><b>Prerequisites</b><br/>Dex 13, Improved Grapple, Improved Unarmed Strike.<br/><br/><b>Benefits</b><br/>You have learned to leverage a grappling creature's weight against it. While you're grappled, attacks you make against the grappler using armor spikes, a light or one-handed weapon, a natural weapon, or an unarmed strike deal damage as if the strike or weapon were one size category larger than it actually is.",
      "unidentified": ""
    },
    "tags": [
      "PFS",
      "Combat"
    ],
    "actions": [],
    "uses": {
      "per": null,
      "value": 0,
      "maxFormula": "",
      "autoDeductChargesCost": "1"
    },
    "attackNotes": [],
    "effectNotes": [],
    "changes": [],
    "changeFlags": {
      "loseDexToAC": false,
      "noEncumbrance": false,
      "mediumArmorFullSpeed": false,
      "heavyArmorFullSpeed": false
    },
    "contextNotes": [],
    "links": {
      "children": [],
      "charges": []
    },
    "tag": "",
    "useCustomTag": false,
    "armorProf": {
      "value": [],
      "custom": ""
    },
    "weaponProf": {
      "value": [],
      "custom": ""
    },
    "languages": {
      "value": [],
      "custom": ""
    },
    "flags": {
      "boolean": {},
      "dictionary": {}
    },
    "scriptCalls": [],
    "subType": "feat",
    "associations": {
      "classes": []
    },
    "showInQuickbar": false,
    "abilityType": "none",
    "crOffset": "",
    "disabled": false,
    "classSkills": {}
  },
  "ownership": {
    "default": 0
  },
  "_stats": {
    "systemId": "pf1",
    "systemVersion": "9.1",
    "coreVersion": "10.291",
    "createdTime": 1665428357402,
    "modifiedTime": 1689797898795,
    "lastModifiedBy": "ppv91YxratjWnkJi"
  },
  "effects": [],
  "folder": null,
  "sort": 0,
  "flags": {},
  "_key": "!items!lc65nHZBRADWVync"
}