{
  "_id": "dBDeUve3Ul0GZ89N",
  "name": "Deafening Explosion",
  "type": "feat",
  "img": "systems/pf1/icons/spells/explosion-red-3.jpg",
  "system": {
    "description": {
      "value": "<em>Your bombs explode with deafening force.</em><br/><br/><b>Prerequisites</b><br/>Bomb class feature, hobgoblin.<br/><br/><b>Benefits</b><br/>You may reduce your bomb damage by one die to give it the ability to deafen the creature struck by it. The bomb must deal fire, force, or sonic damage. If a creature takes a direct hit from your bomb, it must make a saving throw against the bomb's DC or be deafened for 1 minute. This deafening is in addition to any other effects the bomb would normally have.",
      "unidentified": ""
    },
    "tags": [
      "Racial",
      "Hobgoblin"
    ],
    "actions": [],
    "uses": {
      "per": null,
      "value": 0,
      "maxFormula": "",
      "autoDeductChargesCost": "1"
    },
    "attackNotes": [],
    "effectNotes": [],
    "changes": [],
    "changeFlags": {
      "loseDexToAC": false,
      "noEncumbrance": false,
      "mediumArmorFullSpeed": false,
      "heavyArmorFullSpeed": false
    },
    "contextNotes": [],
    "links": {
      "children": [],
      "charges": []
    },
    "tag": "",
    "useCustomTag": false,
    "armorProf": {
      "value": [],
      "custom": ""
    },
    "weaponProf": {
      "value": [],
      "custom": ""
    },
    "languages": {
      "value": [],
      "custom": ""
    },
    "flags": {
      "boolean": {},
      "dictionary": {}
    },
    "scriptCalls": [],
    "subType": "feat",
    "associations": {
      "classes": []
    },
    "showInQuickbar": false,
    "abilityType": "none",
    "crOffset": "",
    "disabled": false,
    "classSkills": {}
  },
  "ownership": {
    "default": 0
  },
  "_stats": {
    "systemId": "pf1",
    "systemVersion": "9.1",
    "coreVersion": "10.291",
    "createdTime": 1665428356074,
    "modifiedTime": 1689797894094,
    "lastModifiedBy": "ppv91YxratjWnkJi"
  },
  "effects": [],
  "folder": null,
  "sort": 0,
  "flags": {},
  "_key": "!items!dBDeUve3Ul0GZ89N"
}