{
  "_id": "Pk1F8a86UIMbmKm5",
  "name": "Death from Above (Mythic)",
  "type": "feat",
  "img": "systems/pf1/icons/skills/weapon_31.jpg",
  "system": {
    "description": {
      "value": "<em>When attacking from the air or higher ground, you bear down on your enemy to deadly effect.</em><br/><br/><b>Prerequisites</b><br/>Death from Above.<br/><br/><b>Benefits</b><br/>Whenever you charge an opponent from higher ground, or from above while flying, the critical multiplier of your weapon increases by 2 (to a maximum of x6). This doesn't stack with other abilities that increase a weapon's critical multiplier. If your charge attack hits, you can perform a trip combat maneuver against the attack's target as a free action without provoking attacks of opportunity.",
      "unidentified": ""
    },
    "tags": [
      "PFS",
      "Combat",
      "Mythic"
    ],
    "actions": [],
    "uses": {
      "per": null,
      "value": 0,
      "maxFormula": "",
      "autoDeductChargesCost": "1"
    },
    "attackNotes": [],
    "effectNotes": [],
    "changes": [],
    "changeFlags": {
      "loseDexToAC": false,
      "noEncumbrance": false,
      "mediumArmorFullSpeed": false,
      "heavyArmorFullSpeed": false
    },
    "contextNotes": [],
    "links": {
      "children": [],
      "charges": []
    },
    "tag": "",
    "useCustomTag": false,
    "armorProf": {
      "value": [],
      "custom": ""
    },
    "weaponProf": {
      "value": [],
      "custom": ""
    },
    "languages": {
      "value": [],
      "custom": ""
    },
    "flags": {
      "boolean": {},
      "dictionary": {}
    },
    "scriptCalls": [],
    "subType": "feat",
    "associations": {
      "classes": []
    },
    "showInQuickbar": false,
    "abilityType": "none",
    "crOffset": "",
    "disabled": false,
    "classSkills": {}
  },
  "ownership": {
    "default": 0
  },
  "_stats": {
    "systemId": "pf1",
    "systemVersion": "9.1",
    "coreVersion": "10.291",
    "createdTime": 1665428354047,
    "modifiedTime": 1689797886675,
    "lastModifiedBy": "ppv91YxratjWnkJi"
  },
  "effects": [],
  "folder": null,
  "sort": 0,
  "flags": {},
  "_key": "!items!Pk1F8a86UIMbmKm5"
}