{
  "_id": "RWLcDxKOhOGApil8",
  "name": "Death Field",
  "type": "feat",
  "img": "systems/pf1/icons/skills/violet_12.jpg",
  "system": {
    "description": {
      "value": "<em>The deadly power of the Negative Energy Plane creates a field that snuffs out life forces at the cost of your own vitality.</em><br/><br/><b>Prerequisites</b><br/>Knowledge (planes) 5 ranks.<br/><br/><b>Benefits</b><br/>As a move action, you can exude deadly energy from your body. While this death field is in effect, small plants wither and recoil from you, allowing you to ignore the effects of difficult terrain caused by plant life and ignore the effects of spells like entangle that compel vegetation to grasp at you, provided the spell's level is 3rd or lower (the death field cannot affect more powerful plant magic).<br/><br/> Any swarm that enters your space takes 1d6 points of negative energy damage; this damage is applied before you are affected by any swarm attacks, so if the damage is enough to destroy the swarm, it does not harm you.<br/><br/> At the end of your turn each round the death field is active, you take 1 point of negative energy damage, and you cannot be healed by positive energy effects while the death field is in place. Magic items and spells that protect against negative energy damage do not protect against this damage, but if you are undead or have negative energy affinity (or a similar ability), the death field instead grants fast healing 1 while it is in effect.<br/><br/> You can use this feat's benefit for a number of rounds per day equal to your ranks in Knowledge (planes). These rounds need not be consecutive. If you have at least 11 ranks in Knowledge (planes), you can activate your death field as a swift action.",
      "unidentified": ""
    },
    "tags": [
      "PFS",
      "Conduit"
    ],
    "actions": [],
    "uses": {
      "per": null,
      "value": 0,
      "maxFormula": "",
      "autoDeductChargesCost": "1"
    },
    "attackNotes": [],
    "effectNotes": [],
    "changes": [],
    "changeFlags": {
      "loseDexToAC": false,
      "noEncumbrance": false,
      "mediumArmorFullSpeed": false,
      "heavyArmorFullSpeed": false
    },
    "contextNotes": [],
    "links": {
      "children": [],
      "charges": []
    },
    "tag": "",
    "useCustomTag": false,
    "armorProf": {
      "value": [],
      "custom": ""
    },
    "weaponProf": {
      "value": [],
      "custom": ""
    },
    "languages": {
      "value": [],
      "custom": ""
    },
    "flags": {
      "boolean": {},
      "dictionary": {}
    },
    "scriptCalls": [],
    "subType": "feat",
    "associations": {
      "classes": []
    },
    "showInQuickbar": false,
    "abilityType": "none",
    "crOffset": "",
    "disabled": false,
    "classSkills": {}
  },
  "ownership": {
    "default": 0
  },
  "_stats": {
    "systemId": "pf1",
    "systemVersion": "9.1",
    "coreVersion": "10.291",
    "createdTime": 1665428354452,
    "modifiedTime": 1689797887727,
    "lastModifiedBy": "ppv91YxratjWnkJi"
  },
  "effects": [],
  "folder": null,
  "sort": 0,
  "flags": {},
  "_key": "!items!RWLcDxKOhOGApil8"
}