{
  "_id": "glm6vYbIvkxHBMBy",
  "name": "Deathless Zealot",
  "type": "feat",
  "img": "systems/pf1/icons/skills/affliction_04.jpg",
  "system": {
    "description": {
      "value": "<em>Only the most serious wounds can stop you.</em><br/><br/><b>Prerequisites</b><br/>Str 13, Con 17, orc or half-orc, Deathless Initiate, Deathless Master, Diehard, Endurance, Ironhide, base attack bonus +12.<br/><br/><b>Benefits</b><br/>Whenever a creature rolls to confirm a critical hit against you, it must roll twice and take the lowest result.<br/><br/><b>Combat Trick</b><br/>Whenever a creature threatens a critical hit against you and neither of its confirmation rolls would succeed, you can spend 5 stamina points to make an attack of opportunity against that creature.",
      "unidentified": ""
    },
    "tags": [
      "PFS",
      "Combat",
      "Racial",
      "Half-orc",
      "Orc"
    ],
    "actions": [],
    "uses": {
      "per": null,
      "value": 0,
      "maxFormula": "",
      "autoDeductChargesCost": "1"
    },
    "attackNotes": [],
    "effectNotes": [],
    "changes": [],
    "changeFlags": {
      "loseDexToAC": false,
      "noEncumbrance": false,
      "mediumArmorFullSpeed": false,
      "heavyArmorFullSpeed": false
    },
    "contextNotes": [],
    "links": {
      "children": [],
      "charges": []
    },
    "tag": "",
    "useCustomTag": false,
    "armorProf": {
      "value": [],
      "custom": ""
    },
    "weaponProf": {
      "value": [],
      "custom": ""
    },
    "languages": {
      "value": [],
      "custom": ""
    },
    "flags": {
      "boolean": {},
      "dictionary": {}
    },
    "scriptCalls": [],
    "subType": "feat",
    "associations": {
      "classes": []
    },
    "showInQuickbar": false,
    "abilityType": "none",
    "crOffset": "",
    "disabled": false,
    "classSkills": {}
  },
  "ownership": {
    "default": 0
  },
  "_stats": {
    "systemId": "pf1",
    "systemVersion": "9.1",
    "coreVersion": "10.291",
    "createdTime": 1665428356669,
    "modifiedTime": 1689797896001,
    "lastModifiedBy": "ppv91YxratjWnkJi"
  },
  "effects": [],
  "folder": null,
  "sort": 0,
  "flags": {},
  "_key": "!items!glm6vYbIvkxHBMBy"
}