{
  "_id": "dfPVUgc8F1giQDN3",
  "name": "Dedicated Adversary",
  "type": "feat",
  "img": "systems/pf1/icons/skills/yellow_14.jpg",
  "system": {
    "description": {
      "value": "<p><em>Your repeated encounters with a particular type of enemy have honed your skills against that foe.</em><br /><br /><strong>Prerequisites</strong><br />No levels in a class that has the favored enemy class feature.<br /><br /><strong>Benefits</strong><br />When you select this feat, choose a specific kind of creature, such as wolf, frost giant, goblin, or babau demon. You gain the ranger's favored enemy class ability against this particular type of creature with a bonus of +2. This feat does not grant the favored enemy class feature for the purposes of prerequisites. If you later gain the favored enemy class feature, you can replace this feat with a feat for which you qualify and whose prerequisites include the favored enemy class feature.<br /><br /><strong>Special</strong><br />You can gain this feat multiple times. Its effects do not stack. Each time you take the feat, it applies to a different creature.</p>\n<p><br /><strong>Pathfinder Society<br /></strong>'Human' is not a legal choice for the Dedicated Adversary feat, but a human ethnicity such as 'Ulfen' is legal</p>",
      "unidentified": ""
    },
    "tags": [
      "PFS",
      "Combat"
    ],
    "actions": [],
    "uses": {
      "per": null,
      "value": 0,
      "maxFormula": "",
      "autoDeductChargesCost": "1"
    },
    "attackNotes": [],
    "effectNotes": [],
    "changes": [],
    "changeFlags": {
      "loseDexToAC": false,
      "noEncumbrance": false,
      "mediumArmorFullSpeed": false,
      "heavyArmorFullSpeed": false
    },
    "contextNotes": [],
    "links": {
      "children": [],
      "charges": []
    },
    "tag": "",
    "useCustomTag": false,
    "armorProf": {
      "value": [],
      "custom": ""
    },
    "weaponProf": {
      "value": [],
      "custom": ""
    },
    "languages": {
      "value": [],
      "custom": ""
    },
    "flags": {
      "boolean": {},
      "dictionary": {}
    },
    "scriptCalls": [],
    "subType": "feat",
    "associations": {
      "classes": []
    },
    "showInQuickbar": false,
    "abilityType": "none",
    "crOffset": "",
    "disabled": false,
    "classSkills": {}
  },
  "ownership": {
    "default": 0
  },
  "_stats": {
    "systemId": "pf1",
    "systemVersion": "9.1",
    "coreVersion": "10.291",
    "createdTime": 1665428356111,
    "modifiedTime": 1689797894303,
    "lastModifiedBy": "ppv91YxratjWnkJi"
  },
  "effects": [],
  "folder": null,
  "sort": 0,
  "flags": {},
  "_key": "!items!dfPVUgc8F1giQDN3"
}