{
  "_id": "tFNdXov4ogrmq0PA",
  "name": "Deliberate Death",
  "type": "feat",
  "img": "systems/pf1/icons/items/inventory/grave.jpg",
  "system": {
    "description": {
      "value": "<p><em>Someone killed you: a monster, a murderer, a soldier, an executioner, it doesn't matter--someone made a conscious decision to end your life.</em><br /><br /><strong>Prerequisites</strong><br />Duskwalker.<br /><br /><strong>Benefits</strong><br />Once per day, if you are reduced below 0 hit points as a result of an attack or ability used by another character, as an immediate action you can take a single standard action. You must use this action to attack or harm the creature that damaged you. At 11th level, you can use this feat a second time per day.</p>\n<p><br /><strong>Pathfinder Society<br /></strong>A Duskwalker can only gain one origin feat</p>",
      "unidentified": ""
    },
    "tags": [
      "PFS",
      "Origin",
      "Racial",
      "Duskwalker"
    ],
    "actions": [],
    "uses": {
      "per": null,
      "value": 0,
      "maxFormula": "",
      "autoDeductChargesCost": "1"
    },
    "attackNotes": [],
    "effectNotes": [],
    "changes": [],
    "changeFlags": {
      "loseDexToAC": false,
      "noEncumbrance": false,
      "mediumArmorFullSpeed": false,
      "heavyArmorFullSpeed": false
    },
    "contextNotes": [],
    "links": {
      "children": [],
      "charges": []
    },
    "tag": "",
    "useCustomTag": false,
    "armorProf": {
      "value": [],
      "custom": ""
    },
    "weaponProf": {
      "value": [],
      "custom": ""
    },
    "languages": {
      "value": [],
      "custom": ""
    },
    "flags": {
      "boolean": {},
      "dictionary": {}
    },
    "scriptCalls": [],
    "subType": "feat",
    "associations": {
      "classes": []
    },
    "showInQuickbar": false,
    "abilityType": "none",
    "crOffset": "",
    "disabled": false,
    "classSkills": {}
  },
  "ownership": {
    "default": 0
  },
  "_stats": {
    "systemId": "pf1",
    "systemVersion": "9.1",
    "coreVersion": "10.291",
    "createdTime": 1665428358256,
    "modifiedTime": 1689797901897,
    "lastModifiedBy": "ppv91YxratjWnkJi"
  },
  "effects": [],
  "folder": null,
  "sort": 0,
  "flags": {},
  "_key": "!items!tFNdXov4ogrmq0PA"
}