{
  "_id": "amFEdi4O5RmoDzsY",
  "name": "Demonic Nemesis",
  "type": "feat",
  "img": "systems/pf1/icons/skills/blood_13.jpg",
  "system": {
    "description": {
      "value": "<em>You are well acquainted with the machinations of a particular demon lord. You're resistant to his tricks, and have no fear of his minions.</em><br/><br/><b>Prerequisites</b><br/>Demon Hunter, Knowledge (planes) 6 ranks.<br/><br/><b>Benefits</b><br/>When you take this feat, choose a demon lord. When fighting followers of that demon lord, including cultists or demons, you gain a +2 bonus on damage rolls and rolls to confirm critical hits against these creatures.<br/><br/><b>Special</b><br/>You can take this feat more than once. Each time you do, you must choose a new demon lord.",
      "unidentified": ""
    },
    "tags": [
      "PFS",
      "Combat"
    ],
    "actions": [],
    "uses": {
      "per": null,
      "value": 0,
      "maxFormula": "",
      "autoDeductChargesCost": "1"
    },
    "attackNotes": [],
    "effectNotes": [],
    "changes": [],
    "changeFlags": {
      "loseDexToAC": false,
      "noEncumbrance": false,
      "mediumArmorFullSpeed": false,
      "heavyArmorFullSpeed": false
    },
    "contextNotes": [],
    "links": {
      "children": [],
      "charges": []
    },
    "tag": "",
    "useCustomTag": false,
    "armorProf": {
      "value": [],
      "custom": ""
    },
    "weaponProf": {
      "value": [],
      "custom": ""
    },
    "languages": {
      "value": [],
      "custom": ""
    },
    "flags": {
      "boolean": {},
      "dictionary": {}
    },
    "scriptCalls": [],
    "subType": "feat",
    "associations": {
      "classes": []
    },
    "showInQuickbar": false,
    "abilityType": "none",
    "crOffset": "",
    "disabled": false,
    "classSkills": {}
  },
  "ownership": {
    "default": 0
  },
  "_stats": {
    "systemId": "pf1",
    "systemVersion": "9.1",
    "coreVersion": "10.291",
    "createdTime": 1665428355616,
    "modifiedTime": 1689797892787,
    "lastModifiedBy": "ppv91YxratjWnkJi"
  },
  "effects": [],
  "folder": null,
  "sort": 0,
  "flags": {},
  "_key": "!items!amFEdi4O5RmoDzsY"
}