{
  "_id": "qSxk9HqTyrmGibr5",
  "name": "Demonic Style",
  "type": "feat",
  "img": "systems/pf1/icons/skills/blood_13.jpg",
  "system": {
    "description": {
      "value": "<em>Self-preservation is irrelevant in the face of your fury.</em><br/><br/><b>Prerequisites</b><br/>Power Attack, base attack bonus +1.<br/><br/><b>Benefits</b><br/>While using this style, when you use the charge action, the bonus on your attack roll increases by 1 and you deal 2 additional points of damage with melee attacks made as part of the charge.<br/><br/><b>Special</b><br/>If you have the rage or bloodrage class feature, you can enter Demonic Style's stance as part of the free action to enter a rage. If you do, the style stance ends when your rage ends.",
      "unidentified": ""
    },
    "tags": [
      "PFS",
      "Combat",
      "Style"
    ],
    "actions": [],
    "uses": {
      "per": null,
      "value": 0,
      "maxFormula": "",
      "autoDeductChargesCost": "1"
    },
    "attackNotes": [],
    "effectNotes": [],
    "changes": [],
    "changeFlags": {
      "loseDexToAC": false,
      "noEncumbrance": false,
      "mediumArmorFullSpeed": false,
      "heavyArmorFullSpeed": false
    },
    "contextNotes": [],
    "links": {
      "children": [],
      "charges": []
    },
    "tag": "",
    "useCustomTag": false,
    "armorProf": {
      "value": [],
      "custom": ""
    },
    "weaponProf": {
      "value": [],
      "custom": ""
    },
    "languages": {
      "value": [],
      "custom": ""
    },
    "flags": {
      "boolean": {},
      "dictionary": {}
    },
    "scriptCalls": [],
    "subType": "feat",
    "associations": {
      "classes": []
    },
    "showInQuickbar": false,
    "abilityType": "none",
    "crOffset": "",
    "disabled": false,
    "classSkills": {}
  },
  "ownership": {
    "default": 0
  },
  "_stats": {
    "systemId": "pf1",
    "systemVersion": "9.1",
    "coreVersion": "10.291",
    "createdTime": 1665428358055,
    "modifiedTime": 1689797900923,
    "lastModifiedBy": "ppv91YxratjWnkJi"
  },
  "effects": [],
  "folder": null,
  "sort": 0,
  "flags": {},
  "_key": "!items!qSxk9HqTyrmGibr5"
}