{
  "_id": "hyFrnv9ztfX0ZYbE",
  "name": "Demonic Possession",
  "type": "feat",
  "img": "systems/pf1/icons/spells/link-royal-1.jpg",
  "system": {
    "description": {
      "value": "<em>You can possess creatures.</em><br/><br/><b>Prerequisites</b><br/>Demon or half-demon, Cha 21, Wis 17<br/><br/><b>Benefits</b><br/>You gain the ability to use magic jar as a spell-like ability once per day.<br/><br/><b>Special</b><br/>You may take this feat more than once. Each time you select this feat, you gain the ability to use your magic jar spell-like ability one additional time per day.",
      "unidentified": ""
    },
    "tags": [
      "General"
    ],
    "actions": [],
    "uses": {
      "per": null,
      "value": 0,
      "maxFormula": "",
      "autoDeductChargesCost": "1"
    },
    "attackNotes": [],
    "effectNotes": [],
    "changes": [],
    "changeFlags": {
      "loseDexToAC": false,
      "noEncumbrance": false,
      "mediumArmorFullSpeed": false,
      "heavyArmorFullSpeed": false
    },
    "contextNotes": [],
    "links": {
      "children": [],
      "charges": []
    },
    "tag": "",
    "useCustomTag": false,
    "armorProf": {
      "value": [],
      "custom": ""
    },
    "weaponProf": {
      "value": [],
      "custom": ""
    },
    "languages": {
      "value": [],
      "custom": ""
    },
    "flags": {
      "boolean": {},
      "dictionary": {}
    },
    "scriptCalls": [],
    "subType": "feat",
    "associations": {
      "classes": []
    },
    "showInQuickbar": false,
    "abilityType": "none",
    "crOffset": "",
    "disabled": false,
    "classSkills": {}
  },
  "ownership": {
    "default": 0
  },
  "_stats": {
    "systemId": "pf1",
    "systemVersion": "9.1",
    "coreVersion": "10.291",
    "createdTime": 1665428356752,
    "modifiedTime": 1689797896470,
    "lastModifiedBy": "ppv91YxratjWnkJi"
  },
  "effects": [],
  "folder": null,
  "sort": 0,
  "flags": {},
  "_key": "!items!hyFrnv9ztfX0ZYbE"
}