{
  "_id": "Y1aMkPtXHixaRObs",
  "name": "Demoralizing Stare",
  "type": "feat",
  "img": "systems/pf1/icons/skills/violet_09.jpg",
  "system": {
    "description": {
      "value": "<em>Your painful stare inspires fear in your foes.</em><br/><br/><b>Prerequisites</b><br/>Mesmerist level 9th, painful stare class feature.<br/><br/><b>Benefits</b><br/>When you trigger your painful stare, the target must succeed at a Will Save (DC = 10 + 1/2 your mesmerist level + your Charisma modifier) or become shaken for 1 round. This can't cause the target to become frightened, even if the target is already shaken.",
      "unidentified": ""
    },
    "tags": [
      "PFS",
      "Combat",
      "Stare"
    ],
    "actions": [],
    "uses": {
      "per": null,
      "value": 0,
      "maxFormula": "",
      "autoDeductChargesCost": "1"
    },
    "attackNotes": [],
    "effectNotes": [],
    "changes": [],
    "changeFlags": {
      "loseDexToAC": false,
      "noEncumbrance": false,
      "mediumArmorFullSpeed": false,
      "heavyArmorFullSpeed": false
    },
    "contextNotes": [],
    "links": {
      "children": [],
      "charges": []
    },
    "tag": "",
    "useCustomTag": false,
    "armorProf": {
      "value": [],
      "custom": ""
    },
    "weaponProf": {
      "value": [],
      "custom": ""
    },
    "languages": {
      "value": [],
      "custom": ""
    },
    "flags": {
      "boolean": {},
      "dictionary": {}
    },
    "scriptCalls": [],
    "subType": "feat",
    "associations": {
      "classes": []
    },
    "showInQuickbar": false,
    "abilityType": "none",
    "crOffset": "",
    "disabled": false,
    "classSkills": {}
  },
  "ownership": {
    "default": 0
  },
  "_stats": {
    "systemId": "pf1",
    "systemVersion": "9.1",
    "coreVersion": "10.291",
    "createdTime": 1665428355144,
    "modifiedTime": 1689797890977,
    "lastModifiedBy": "ppv91YxratjWnkJi"
  },
  "effects": [],
  "folder": null,
  "sort": 0,
  "flags": {},
  "_key": "!items!Y1aMkPtXHixaRObs"
}