{
  "_id": "1iCzafnWv1zYsR09",
  "name": "Desert Dweller",
  "type": "feat",
  "img": "icons/environment/wilderness/cave-entrance-rocky.webp",
  "system": {
    "description": {
      "value": "<em>The endless sands and waterless wastes are your home, and neither the heat nor dehydration presents as lethal of a threat to you as it does to other travelers.</em><br/><br/><b>Prerequisites</b><br/>Favored terrain (desert) class feature.<br/><br/><b>Benefits</b><br/>You treat hot environments (Core Rulebook 444) as though they were one step less severe; if you have a similar ability from another feat, such as Torrid Tolerance, the benefits stack and you treat hot conditions as if they were two steps less severe. You need to consume only half the normal amount of water for a creature of your size, and you gain a +4 bonus on Constitution checks to resist the effects of thirst. You also gain a +4 bonus on saving throws and checks to avoid becoming blinded or dazzled by glare or being deceived by a desert mirage.",
      "unidentified": ""
    },
    "tags": [
      "PFS",
      "General"
    ],
    "actions": [],
    "uses": {
      "per": null,
      "value": 0,
      "maxFormula": "",
      "autoDeductChargesCost": "1"
    },
    "attackNotes": [],
    "effectNotes": [],
    "changes": [],
    "changeFlags": {
      "loseDexToAC": false,
      "noEncumbrance": false,
      "mediumArmorFullSpeed": false,
      "heavyArmorFullSpeed": false
    },
    "contextNotes": [],
    "links": {
      "children": [],
      "charges": []
    },
    "tag": "",
    "useCustomTag": false,
    "armorProf": {
      "value": [],
      "custom": ""
    },
    "weaponProf": {
      "value": [],
      "custom": ""
    },
    "languages": {
      "value": [],
      "custom": ""
    },
    "flags": {
      "boolean": {},
      "dictionary": {}
    },
    "scriptCalls": [],
    "subType": "feat",
    "associations": {
      "classes": []
    },
    "showInQuickbar": false,
    "abilityType": "none",
    "crOffset": "",
    "disabled": false,
    "classSkills": {}
  },
  "ownership": {
    "default": 0
  },
  "_stats": {
    "systemId": "pf1",
    "systemVersion": "9.1",
    "coreVersion": "10.291",
    "createdTime": 1665428350699,
    "modifiedTime": 1689797874583,
    "lastModifiedBy": "ppv91YxratjWnkJi"
  },
  "effects": [],
  "folder": null,
  "sort": 0,
  "flags": {},
  "_key": "!items!1iCzafnWv1zYsR09"
}