{
  "_id": "XF4ggdnxpTeX14jn",
  "name": "Detect Expertise",
  "type": "feat",
  "img": "systems/pf1/icons/skills/yellow_01.jpg",
  "system": {
    "description": {
      "value": "<em>You can detect the mystic specialty of a foe.</em><br/><br/><b>Prerequisites</b><br/>Int 13; ability to cast detect chaos, detect evil, detect good, detect law, or detect magic.<br/><br/><b>Benefits</b><br/>When you use any of the spells listed in this feat's prerequisites to detect a creature's alignment or its magic, you have a chance of detecting what spellcasting expertise it has. After you observe a creature with the detect spell for 3 rounds, it must make a Will save (DC 10 + 1/2 your caster level + your Intelligence modifier). If it fails the saving throw, you learn what bloodlines, domains, hexes, schools, or mysteries (if any) the creature possesses. If the creature makes its save, it is immune to the effects of this feat for 24 hours.",
      "unidentified": ""
    },
    "tags": [
      "PFS",
      "General"
    ],
    "actions": [],
    "uses": {
      "per": null,
      "value": 0,
      "maxFormula": "",
      "autoDeductChargesCost": "1"
    },
    "attackNotes": [],
    "effectNotes": [],
    "changes": [],
    "changeFlags": {
      "loseDexToAC": false,
      "noEncumbrance": false,
      "mediumArmorFullSpeed": false,
      "heavyArmorFullSpeed": false
    },
    "contextNotes": [],
    "links": {
      "children": [],
      "charges": []
    },
    "tag": "",
    "useCustomTag": false,
    "armorProf": {
      "value": [],
      "custom": ""
    },
    "weaponProf": {
      "value": [],
      "custom": ""
    },
    "languages": {
      "value": [],
      "custom": ""
    },
    "flags": {
      "boolean": {},
      "dictionary": {}
    },
    "scriptCalls": [],
    "subType": "feat",
    "associations": {
      "classes": []
    },
    "showInQuickbar": false,
    "abilityType": "none",
    "crOffset": "",
    "disabled": false,
    "classSkills": {}
  },
  "ownership": {
    "default": 0
  },
  "_stats": {
    "systemId": "pf1",
    "systemVersion": "9.1",
    "coreVersion": "10.291",
    "createdTime": 1665428355100,
    "modifiedTime": 1689797890744,
    "lastModifiedBy": "ppv91YxratjWnkJi"
  },
  "effects": [],
  "folder": null,
  "sort": 0,
  "flags": {},
  "_key": "!items!XF4ggdnxpTeX14jn"
}