{
  "_id": "JD1ox7C2ghErhCmg",
  "name": "Devil's Foe",
  "type": "feat",
  "img": "systems/pf1/icons/skills/light_05.jpg",
  "system": {
    "description": {
      "value": "<em>Once you were just another helpless victim, but now even the deepest pits of Hell ring with the lamentations of your adversaries.</em><br/><br/><b>Prerequisites</b><br/>Face 10 different devils in combat and take damage or suffer some other sort of injury from five or more attacks made by each one without falling unconscious, fleeing, or otherwise becoming unable to strike back at them.<br/><br/><b>Benefits</b><br/>Your attacks count as good-aligned for the purposes of bypassing the damage reduction of devils.",
      "unidentified": ""
    },
    "tags": [
      "Achievement"
    ],
    "actions": [],
    "uses": {
      "per": null,
      "value": 0,
      "maxFormula": "",
      "autoDeductChargesCost": "1"
    },
    "attackNotes": [],
    "effectNotes": [],
    "changes": [],
    "changeFlags": {
      "loseDexToAC": false,
      "noEncumbrance": false,
      "mediumArmorFullSpeed": false,
      "heavyArmorFullSpeed": false
    },
    "contextNotes": [],
    "links": {
      "children": [],
      "charges": []
    },
    "tag": "",
    "useCustomTag": false,
    "armorProf": {
      "value": [],
      "custom": ""
    },
    "weaponProf": {
      "value": [],
      "custom": ""
    },
    "languages": {
      "value": [],
      "custom": ""
    },
    "flags": {
      "boolean": {},
      "dictionary": {}
    },
    "scriptCalls": [],
    "subType": "feat",
    "associations": {
      "classes": []
    },
    "showInQuickbar": false,
    "abilityType": "none",
    "crOffset": "",
    "disabled": false,
    "classSkills": {}
  },
  "ownership": {
    "default": 0
  },
  "_stats": {
    "systemId": "pf1",
    "systemVersion": "9.1",
    "coreVersion": "10.291",
    "createdTime": 1665428353309,
    "modifiedTime": 1689797883967,
    "lastModifiedBy": "ppv91YxratjWnkJi"
  },
  "effects": [],
  "folder": null,
  "sort": 0,
  "flags": {},
  "_key": "!items!JD1ox7C2ghErhCmg"
}