{
  "_id": "o0Rn4mr9onl8fvTf",
  "name": "Diabolic Style",
  "type": "feat",
  "img": "systems/pf1/icons/skills/red_22.jpg",
  "system": {
    "description": {
      "value": "<em>You utilize combat as an opportunity to inflict humiliation upon those who provoke your attacks of opportunity.</em><br/><br/><b>Prerequisites</b><br/>Combat Reflexes; Improved Unarmed Strike or Weapon Focus (unarmed strike); base attack bonus +2 or monk level 1st.<br/><br/><b>Benefits</b><br/>While using this style, you can make an attack of opportunity with an unarmed strike to deliver a humiliating swat to the target. If you hit the target, you inflict 1 point of nonlethal damage and the target must succeed at a Will saving throw (DC = 10 + half your level + your Charisma modifier) or become staggered for 1 round.<br/><br/><b>Special</b><br/>A monk of at least 6th level with this feat can select Vital Strike as a monk bonus feat.",
      "unidentified": ""
    },
    "tags": [
      "PFS",
      "Combat",
      "Style"
    ],
    "actions": [],
    "uses": {
      "per": null,
      "value": 0,
      "maxFormula": "",
      "autoDeductChargesCost": "1"
    },
    "attackNotes": [],
    "effectNotes": [],
    "changes": [],
    "changeFlags": {
      "loseDexToAC": false,
      "noEncumbrance": false,
      "mediumArmorFullSpeed": false,
      "heavyArmorFullSpeed": false
    },
    "contextNotes": [],
    "links": {
      "children": [],
      "charges": []
    },
    "tag": "",
    "useCustomTag": false,
    "armorProf": {
      "value": [],
      "custom": ""
    },
    "weaponProf": {
      "value": [],
      "custom": ""
    },
    "languages": {
      "value": [],
      "custom": ""
    },
    "flags": {
      "boolean": {},
      "dictionary": {}
    },
    "scriptCalls": [],
    "subType": "feat",
    "associations": {
      "classes": []
    },
    "showInQuickbar": false,
    "abilityType": "none",
    "crOffset": "",
    "disabled": false,
    "classSkills": {}
  },
  "ownership": {
    "default": 0
  },
  "_stats": {
    "systemId": "pf1",
    "systemVersion": "9.1",
    "coreVersion": "10.291",
    "createdTime": 1665428357566,
    "modifiedTime": 1689797899630,
    "lastModifiedBy": "ppv91YxratjWnkJi"
  },
  "effects": [],
  "folder": null,
  "sort": 0,
  "flags": {},
  "_key": "!items!o0Rn4mr9onl8fvTf"
}