{
  "_id": "Kobg15t8PLRH2QSw",
  "name": "Dispelling Blood",
  "type": "feat",
  "img": "systems/pf1/icons/skills/violet_24.jpg",
  "system": {
    "description": {
      "value": "<em>You can change your toxic blood to unravel magic itself.</em><br/><br/><b>Prerequisites</b><br/>Knowledge (arcana) 7 ranks, vishkanya.<br/><br/><b>Benefits</b><br/>As a swift action, you can alter the effects of your venom to affect magic instead of flesh. Your venom functions as a targeted dispel magic effect when it strikes a creature, using your character level as your caster level. This dispelling effect affects creatures even if they are immune to poison effects.<br/><br/><b>Normal</b><br/>Vishkanya venom deals Dexterity damage.",
      "unidentified": ""
    },
    "tags": [
      "PFS",
      "Racial",
      "Vishkanya"
    ],
    "actions": [],
    "uses": {
      "per": null,
      "value": 0,
      "maxFormula": "",
      "autoDeductChargesCost": "1"
    },
    "attackNotes": [],
    "effectNotes": [],
    "changes": [],
    "changeFlags": {
      "loseDexToAC": false,
      "noEncumbrance": false,
      "mediumArmorFullSpeed": false,
      "heavyArmorFullSpeed": false
    },
    "contextNotes": [],
    "links": {
      "children": [],
      "charges": []
    },
    "tag": "",
    "useCustomTag": false,
    "armorProf": {
      "value": [],
      "custom": ""
    },
    "weaponProf": {
      "value": [],
      "custom": ""
    },
    "languages": {
      "value": [],
      "custom": ""
    },
    "flags": {
      "boolean": {},
      "dictionary": {}
    },
    "scriptCalls": [],
    "subType": "feat",
    "associations": {
      "classes": []
    },
    "showInQuickbar": false,
    "abilityType": "none",
    "crOffset": "",
    "disabled": false,
    "classSkills": {}
  },
  "ownership": {
    "default": 0
  },
  "_stats": {
    "systemId": "pf1",
    "systemVersion": "9.1",
    "coreVersion": "10.291",
    "createdTime": 1665428353435,
    "modifiedTime": 1689797884528,
    "lastModifiedBy": "ppv91YxratjWnkJi"
  },
  "effects": [],
  "folder": null,
  "sort": 0,
  "flags": {},
  "_key": "!items!Kobg15t8PLRH2QSw"
}