{
  "_id": "1AFtj6grymZbXs4L",
  "name": "Dispel Mastery",
  "type": "feat",
  "img": "systems/pf1/icons/spells/slice-sky-2.jpg",
  "system": {
    "description": {
      "value": "<p><em>You can dispel magic with abjuration magic items.</em><br /><br /><strong>Prerequisites</strong><br />Use Magic Device 3 ranks, base Fortitude save bonus +6.<br /><br /><strong>Benefits</strong><br />You can cause an item that has an abjuration spell of 2nd level or higher in its construction requirements to cast dispel magic, but only to perform a targeted dispel. You can use this feat once per day, plus an additional time per day at base Fortitude save bonus +9 and +12.</p>\n<p><br /><strong>Pathfinder Society<br /></strong>When qualifying for and calculating the benefits of an item mastery feat, a PC uses the base Fortitude save bonus from only one of his classes.</p>",
      "unidentified": ""
    },
    "tags": [
      "PFS",
      "Item Mastery"
    ],
    "actions": [],
    "uses": {
      "per": null,
      "value": 0,
      "maxFormula": "",
      "autoDeductChargesCost": "1"
    },
    "attackNotes": [],
    "effectNotes": [],
    "changes": [],
    "changeFlags": {
      "loseDexToAC": false,
      "noEncumbrance": false,
      "mediumArmorFullSpeed": false,
      "heavyArmorFullSpeed": false
    },
    "contextNotes": [],
    "links": {
      "children": [],
      "charges": []
    },
    "tag": "",
    "useCustomTag": false,
    "armorProf": {
      "value": [],
      "custom": ""
    },
    "weaponProf": {
      "value": [],
      "custom": ""
    },
    "languages": {
      "value": [],
      "custom": ""
    },
    "flags": {
      "boolean": {},
      "dictionary": {}
    },
    "scriptCalls": [],
    "subType": "feat",
    "associations": {
      "classes": []
    },
    "showInQuickbar": false,
    "abilityType": "none",
    "crOffset": "",
    "disabled": false,
    "classSkills": {}
  },
  "ownership": {
    "default": 0
  },
  "_stats": {
    "systemId": "pf1",
    "systemVersion": "9.1",
    "coreVersion": "10.291",
    "createdTime": 1665428350657,
    "modifiedTime": 1689797874376,
    "lastModifiedBy": "ppv91YxratjWnkJi"
  },
  "effects": [],
  "folder": null,
  "sort": 0,
  "flags": {},
  "_key": "!items!1AFtj6grymZbXs4L"
}