{
  "_id": "BUJBehfzyujrPlIj",
  "name": "Disruptive",
  "type": "feat",
  "img": "systems/pf1/icons/feats/disruptive.jpg",
  "system": {
    "description": {
      "value": "<em>Your training makes it difficult for enemy spellcasters to safely cast spells near you.</em><br/><br/><b>Prerequisites</b><br/>6th-level fighter.<br/><br/><b>Benefits</b><br/>The DC to cast spells defensively increases by +4 for all enemies that are within your threatened area. This increase to casting spells defensively only applies if you are aware of the enemy's location and are capable of taking an attack of opportunity. If you can only take one attack of opportunity per round and have already used that attack, this increase does not apply.<br/><br/><b>Combat Trick</b><br/>When you use your last attack of opportunity available to you in a round, you can spend 2 stamina points to extend the duration of this feat's increase to DCs for enemies casting defensively within your threatened area until the start of your next turn.",
      "unidentified": ""
    },
    "tags": [
      "PFS",
      "Combat"
    ],
    "actions": [],
    "uses": {
      "per": null,
      "value": 0,
      "maxFormula": "",
      "autoDeductChargesCost": "1"
    },
    "attackNotes": [],
    "effectNotes": [],
    "changes": [],
    "changeFlags": {
      "loseDexToAC": false,
      "noEncumbrance": false,
      "mediumArmorFullSpeed": false,
      "heavyArmorFullSpeed": false
    },
    "contextNotes": [],
    "links": {
      "children": [],
      "charges": []
    },
    "tag": "disruptive",
    "useCustomTag": false,
    "armorProf": {
      "value": [],
      "custom": ""
    },
    "weaponProf": {
      "value": [],
      "custom": ""
    },
    "languages": {
      "value": [],
      "custom": ""
    },
    "flags": {
      "boolean": {},
      "dictionary": {}
    },
    "scriptCalls": [],
    "subType": "feat",
    "associations": {
      "classes": []
    },
    "showInQuickbar": false,
    "abilityType": "none",
    "crOffset": "",
    "disabled": false,
    "classSkills": {},
    "auraStrength": 0
  },
  "ownership": {
    "default": 0
  },
  "_stats": {
    "systemId": "pf1",
    "systemVersion": "9.1",
    "coreVersion": "10.291",
    "createdTime": 1665428352078,
    "modifiedTime": 1689797879008,
    "lastModifiedBy": "ppv91YxratjWnkJi"
  },
  "effects": [],
  "folder": null,
  "sort": 0,
  "flags": {},
  "_key": "!items!BUJBehfzyujrPlIj"
}