{
  "_id": "W6qEx9OlLPYnRy6b",
  "name": "Diverse Palate",
  "type": "feat",
  "img": "systems/pf1/icons/races/dhampir.png",
  "system": {
    "description": {
      "value": "<em>Your taste for blood is broader than that of other dhampirs.</em><br/><br/><b>Prerequisites</b><br/>Blood Drinker, dhampir.<br/><br/><b>Benefits</b><br/>Choose a humanoid subtype or the monstrous humanoid type. You may use your Blood Drinker feat on creatures of this subtype or type.<br/><br/><b>Special</b><br/>You can take this feat multiple times. Each time you select it, choose a new humanoid subtype or the monstrous humanoid.",
      "unidentified": ""
    },
    "tags": [
      "General"
    ],
    "actions": [],
    "uses": {
      "per": null,
      "value": 0,
      "maxFormula": "",
      "autoDeductChargesCost": "1"
    },
    "attackNotes": [],
    "effectNotes": [],
    "changes": [],
    "changeFlags": {
      "loseDexToAC": false,
      "noEncumbrance": false,
      "mediumArmorFullSpeed": false,
      "heavyArmorFullSpeed": false
    },
    "contextNotes": [],
    "links": {
      "children": [],
      "charges": []
    },
    "tag": "",
    "useCustomTag": false,
    "armorProf": {
      "value": [],
      "custom": ""
    },
    "weaponProf": {
      "value": [],
      "custom": ""
    },
    "languages": {
      "value": [],
      "custom": ""
    },
    "flags": {
      "boolean": {},
      "dictionary": {}
    },
    "scriptCalls": [],
    "subType": "feat",
    "associations": {
      "classes": []
    },
    "showInQuickbar": false,
    "abilityType": "none",
    "crOffset": "",
    "disabled": false,
    "classSkills": {}
  },
  "ownership": {
    "default": 0
  },
  "_stats": {
    "systemId": "pf1",
    "systemVersion": "9.1",
    "coreVersion": "10.291",
    "createdTime": 1665428355026,
    "modifiedTime": 1689797890357,
    "lastModifiedBy": "ppv91YxratjWnkJi"
  },
  "effects": [],
  "folder": null,
  "sort": 0,
  "flags": {},
  "_key": "!items!W6qEx9OlLPYnRy6b"
}