{
  "_id": "s6QrabM8XDQwAAuq",
  "name": "Diversion Shot",
  "type": "feat",
  "img": "systems/pf1/icons/skills/arrow_17.jpg",
  "system": {
    "description": {
      "value": "<em>You can use your shots to distract opponents.</em><br/><br/><b>Prerequisites</b><br/>Stealthy, Target of Opportunity.<br/><br/><b>Benefits</b><br/>When you hit a target using Target of Opportunity, the ally who triggered your ranged attack can attempt a Stealth check to hide from your target as an immediate action, even if your target is aware of your ally's presence. Your ally must also have this feat to benefit from this effect. This Stealth check applies only to the target you hit, and the stealth ends if the ally takes any action other than to move into cover or concealment.",
      "unidentified": ""
    },
    "tags": [
      "PFS",
      "Combat",
      "Teamwork"
    ],
    "actions": [],
    "uses": {
      "per": null,
      "value": 0,
      "maxFormula": "",
      "autoDeductChargesCost": "1"
    },
    "attackNotes": [],
    "effectNotes": [],
    "changes": [],
    "changeFlags": {
      "loseDexToAC": false,
      "noEncumbrance": false,
      "mediumArmorFullSpeed": false,
      "heavyArmorFullSpeed": false
    },
    "contextNotes": [],
    "links": {
      "children": [],
      "charges": []
    },
    "tag": "",
    "useCustomTag": false,
    "armorProf": {
      "value": [],
      "custom": ""
    },
    "weaponProf": {
      "value": [],
      "custom": ""
    },
    "languages": {
      "value": [],
      "custom": ""
    },
    "flags": {
      "boolean": {},
      "dictionary": {}
    },
    "scriptCalls": [],
    "subType": "feat",
    "associations": {
      "classes": []
    },
    "showInQuickbar": false,
    "abilityType": "none",
    "crOffset": "",
    "disabled": false,
    "classSkills": {}
  },
  "ownership": {
    "default": 0
  },
  "_stats": {
    "systemId": "pf1",
    "systemVersion": "9.1",
    "coreVersion": "10.291",
    "createdTime": 1665428358187,
    "modifiedTime": 1689797901588,
    "lastModifiedBy": "ppv91YxratjWnkJi"
  },
  "effects": [],
  "folder": null,
  "sort": 0,
  "flags": {},
  "_key": "!items!s6QrabM8XDQwAAuq"
}