{
  "_id": "LJaggtzrXVMZ8cmM",
  "name": "Divine Interference (Mythic)",
  "type": "feat",
  "img": "systems/pf1/icons/spells/shielding-spirit-3.jpg",
  "system": {
    "description": {
      "value": "<em>Your divine power thwarts enemies of your faith.</em><br/><br/><b>Prerequisites</b><br/>Divine Interference.<br/><br/><b>Benefits</b><br/>When you use Divine Interference, the penalty on your opponent's attack roll is equal to twice the level of the spell sacrificed. You can expend one use of mythic power when you sacrifice the spell to increase the penalty to triple the level of the spell sacrificed.",
      "unidentified": ""
    },
    "tags": [
      "PFS",
      "General",
      "Mythic"
    ],
    "actions": [],
    "uses": {
      "per": null,
      "value": 0,
      "maxFormula": "",
      "autoDeductChargesCost": "1"
    },
    "attackNotes": [],
    "effectNotes": [],
    "changes": [],
    "changeFlags": {
      "loseDexToAC": false,
      "noEncumbrance": false,
      "mediumArmorFullSpeed": false,
      "heavyArmorFullSpeed": false
    },
    "contextNotes": [],
    "links": {
      "children": [],
      "charges": []
    },
    "tag": "",
    "useCustomTag": false,
    "armorProf": {
      "value": [],
      "custom": ""
    },
    "weaponProf": {
      "value": [],
      "custom": ""
    },
    "languages": {
      "value": [],
      "custom": ""
    },
    "flags": {
      "boolean": {},
      "dictionary": {}
    },
    "scriptCalls": [],
    "subType": "feat",
    "associations": {
      "classes": []
    },
    "showInQuickbar": false,
    "abilityType": "none",
    "crOffset": "",
    "disabled": false,
    "classSkills": {}
  },
  "ownership": {
    "default": 0
  },
  "_stats": {
    "systemId": "pf1",
    "systemVersion": "9.1",
    "coreVersion": "10.291",
    "createdTime": 1665428353736,
    "modifiedTime": 1689797885114,
    "lastModifiedBy": "ppv91YxratjWnkJi"
  },
  "effects": [],
  "folder": null,
  "sort": 0,
  "flags": {},
  "_key": "!items!LJaggtzrXVMZ8cmM"
}