{
  "_id": "7RD7QkPB9mCVfNta",
  "name": "Divine Expression",
  "type": "feat",
  "img": "systems/pf1/icons/skills/light_03.jpg",
  "system": {
    "description": {
      "value": "<em>You mix faith with art to empower your performances.</em><br/><br/><b>Prerequisites</b><br/>Bard level 1st, cleric or oracle level 1st, worshiper of Shelyn.<br/><br/><b>Benefits</b><br/>When you take this feat, choose either the cleric or oracle class. Levels in the selected class stack with your bard level when determining the number of rounds per day you can use your bardic performance and the type of action it takes to start a bardic performance.",
      "unidentified": ""
    },
    "tags": [
      "PFS",
      "General"
    ],
    "actions": [],
    "uses": {
      "per": null,
      "value": 0,
      "maxFormula": "",
      "autoDeductChargesCost": "1"
    },
    "attackNotes": [],
    "effectNotes": [],
    "changes": [],
    "changeFlags": {
      "loseDexToAC": false,
      "noEncumbrance": false,
      "mediumArmorFullSpeed": false,
      "heavyArmorFullSpeed": false
    },
    "contextNotes": [],
    "links": {
      "children": [],
      "charges": []
    },
    "tag": "",
    "useCustomTag": false,
    "armorProf": {
      "value": [],
      "custom": ""
    },
    "weaponProf": {
      "value": [],
      "custom": ""
    },
    "languages": {
      "value": [],
      "custom": ""
    },
    "flags": {
      "boolean": {},
      "dictionary": {}
    },
    "scriptCalls": [],
    "subType": "feat",
    "associations": {
      "classes": []
    },
    "showInQuickbar": false,
    "abilityType": "none",
    "crOffset": "",
    "disabled": false,
    "classSkills": {}
  },
  "ownership": {
    "default": 0
  },
  "_stats": {
    "systemId": "pf1",
    "systemVersion": "9.1",
    "coreVersion": "10.291",
    "createdTime": 1665428351469,
    "modifiedTime": 1689797876992,
    "lastModifiedBy": "ppv91YxratjWnkJi"
  },
  "effects": [],
  "folder": null,
  "sort": 0,
  "flags": {},
  "_key": "!items!7RD7QkPB9mCVfNta"
}