{
  "_id": "CGKJrAvv0HaDJfCD",
  "name": "Djinni Style",
  "type": "feat",
  "img": "systems/pf1/icons/races/sylph.png",
  "system": {
    "description": {
      "value": "<em>Your hands sheathed in an auras of lightning, you move like the wind.</em><br/><br/><b>Prerequisites</b><br/>Con 13, Wis 15, Elemental Fist, Improved Unarmed Strike, base attack bonus +9 or monk level 5th.<br/><br/><b>Benefits</b><br/>You gain one additional Elemental Fist (Advanced Player's Guide 158) attempt per day. While you are in this style you must use Elemental Fist to deal electricity damage and you gain a bonus on electricity damage rolls equal to your Wisdom bonus. Further, while you are using this style and have remaining Elemental Fist attempts, you also gain a +2 dodge bonus to Armor Class against attacks of opportunity. A condition that makes you lose your Dexterity bonus to AC also makes you lose this dodge bonus.<br/><br/><b>Combat Trick</b><br/>When you make an Elemental Fist attack to deal electricity damage, you can spend up to 5 stamina points. If you do, you deal an amount of additional electricity damage equal to double the number of stamina points you spent.",
      "unidentified": ""
    },
    "tags": [
      "PFS",
      "Combat",
      "Style"
    ],
    "actions": [],
    "uses": {
      "per": null,
      "value": 0,
      "maxFormula": "",
      "autoDeductChargesCost": "1"
    },
    "attackNotes": [],
    "effectNotes": [],
    "changes": [],
    "changeFlags": {
      "loseDexToAC": false,
      "noEncumbrance": false,
      "mediumArmorFullSpeed": false,
      "heavyArmorFullSpeed": false
    },
    "contextNotes": [],
    "links": {
      "children": [],
      "charges": []
    },
    "tag": "",
    "useCustomTag": false,
    "armorProf": {
      "value": [],
      "custom": ""
    },
    "weaponProf": {
      "value": [],
      "custom": ""
    },
    "languages": {
      "value": [],
      "custom": ""
    },
    "flags": {
      "boolean": {},
      "dictionary": {}
    },
    "scriptCalls": [],
    "subType": "feat",
    "associations": {
      "classes": []
    },
    "showInQuickbar": false,
    "abilityType": "none",
    "crOffset": "",
    "disabled": false,
    "classSkills": {}
  },
  "ownership": {
    "default": 0
  },
  "_stats": {
    "systemId": "pf1",
    "systemVersion": "9.1",
    "coreVersion": "10.291",
    "createdTime": 1665428352120,
    "modifiedTime": 1689797879254,
    "lastModifiedBy": "ppv91YxratjWnkJi"
  },
  "effects": [],
  "folder": null,
  "sort": 0,
  "flags": {},
  "_key": "!items!CGKJrAvv0HaDJfCD"
}