{
  "_id": "fHvNPNa91KL197Qg",
  "name": "Draconic Glide",
  "type": "feat",
  "img": "systems/pf1/icons/skills/blue_02.jpg",
  "system": {
    "description": {
      "value": "<em>You possess draconic defenses and wings that allow you to glide.</em><br/><br/><b>Prerequisites</b><br/>Draconic Aspect, kobold.<br/><br/><b>Benefits</b><br/>You gain a +2 bonus against sleep and paralysis effects. You grow a pair of wings that you can use to fall and glide at a safe pace. You can make a DC 15 Fly check to fall safely from any height without taking falling damage, as if using feather fall. When falling safely, you may make an additional DC 15 Fly check to glide, moving 5 feet laterally for every 20 feet you fall.<br/><br/><b>Special</b><br/>If you have the gliding wings racial trait, you don't need to make a Fly check to glide, and you can move 10 feet laterally for every 20 feet you fall.",
      "unidentified": ""
    },
    "tags": [
      "Racial",
      "Kobold"
    ],
    "actions": [],
    "uses": {
      "per": null,
      "value": 0,
      "maxFormula": "",
      "autoDeductChargesCost": "1"
    },
    "attackNotes": [],
    "effectNotes": [],
    "changes": [],
    "changeFlags": {
      "loseDexToAC": false,
      "noEncumbrance": false,
      "mediumArmorFullSpeed": false,
      "heavyArmorFullSpeed": false
    },
    "contextNotes": [],
    "links": {
      "children": [],
      "charges": []
    },
    "tag": "",
    "useCustomTag": false,
    "armorProf": {
      "value": [],
      "custom": ""
    },
    "weaponProf": {
      "value": [],
      "custom": ""
    },
    "languages": {
      "value": [],
      "custom": ""
    },
    "flags": {
      "boolean": {},
      "dictionary": {}
    },
    "scriptCalls": [],
    "subType": "feat",
    "associations": {
      "classes": []
    },
    "showInQuickbar": false,
    "abilityType": "none",
    "crOffset": "",
    "disabled": false,
    "classSkills": {}
  },
  "ownership": {
    "default": 0
  },
  "_stats": {
    "systemId": "pf1",
    "systemVersion": "9.1",
    "coreVersion": "10.291",
    "createdTime": 1665428356253,
    "modifiedTime": 1689797895049,
    "lastModifiedBy": "ppv91YxratjWnkJi"
  },
  "effects": [],
  "folder": null,
  "sort": 0,
  "flags": {},
  "_key": "!items!fHvNPNa91KL197Qg"
}