{
  "_id": "dqN0sYhNpssPLNpE",
  "name": "Dragon Gold Crown",
  "type": "feat",
  "img": "icons/equipment/head/crown-feather-brown.webp",
  "system": {
    "description": {
      "value": "<em>Inspired by tales of First Emperor Taldaris pulling the gold from the gullet of the terrible dragon Verksaris to forge the Primogen Crown, you have learned to fashion potent headgear from the remains of magical creatures you defeat.</em><br/><br/><b>Prerequisites</b><br/>Knowledge (arcana) 5 ranks, Survival 5 ranks.<br/><br/><b>Benefits</b><br/>You can use the remains of a dragon or magical beast that you helped to defeat to craft a crown, as if you were harvesting and creating a trophy (Pathfinder RPG Ultimate Wilderness 162). If you successfully create the trophy, it has no monetary value but it functions for you as a headband of alluring charisma. The bonus the trophy provides to you is based on the creature's base CR (not including class levels) or your character level at the time the crown was created, whichever is lower: +2 at CR 5 or 5th level, +4 at CR 10 or 10th level, and +6 at CR 15 or 15th level.",
      "unidentified": ""
    },
    "tags": [
      "General"
    ],
    "actions": [],
    "uses": {
      "per": null,
      "value": 0,
      "maxFormula": "",
      "autoDeductChargesCost": "1"
    },
    "attackNotes": [],
    "effectNotes": [],
    "changes": [],
    "changeFlags": {
      "loseDexToAC": false,
      "noEncumbrance": false,
      "mediumArmorFullSpeed": false,
      "heavyArmorFullSpeed": false
    },
    "contextNotes": [],
    "links": {
      "children": [],
      "charges": []
    },
    "tag": "",
    "useCustomTag": false,
    "armorProf": {
      "value": [],
      "custom": ""
    },
    "weaponProf": {
      "value": [],
      "custom": ""
    },
    "languages": {
      "value": [],
      "custom": ""
    },
    "flags": {
      "boolean": {},
      "dictionary": {}
    },
    "scriptCalls": [],
    "subType": "feat",
    "associations": {
      "classes": []
    },
    "showInQuickbar": false,
    "abilityType": "none",
    "crOffset": "",
    "disabled": false,
    "classSkills": {}
  },
  "ownership": {
    "default": 0
  },
  "_stats": {
    "systemId": "pf1",
    "systemVersion": "9.1",
    "coreVersion": "10.291",
    "createdTime": 1665428356122,
    "modifiedTime": 1689797894370,
    "lastModifiedBy": "ppv91YxratjWnkJi"
  },
  "effects": [],
  "folder": null,
  "sort": 0,
  "flags": {},
  "_key": "!items!dqN0sYhNpssPLNpE"
}