{
  "_id": "LgJXpA7m3Hcw72rJ",
  "name": "Dragon-Touched",
  "type": "feat",
  "img": "systems/pf1/icons/races/creature-types/dragon.png",
  "system": {
    "description": {
      "value": "<em>Your life has been shaped by an encounter with a powerful dragon, and you have dedicated your life to seeing that dragon dead.</em><br/><br/><b>Prerequisites</b><br/>You must have been knocked unconscious in an encounter with a challenging draconic foe or have a regional background tied to a specific dragon (such as those presented in this section or a similar trait).<br/><br/><b>Benefits</b><br/>Choose one kind of dragon (such as blue, green, or silver). You gain a +2 bonus on Reflex saves against the breath weapons of dragons of the chosen kind, as well as a +1 bonus on attack rolls and a +1 dodge bonus to AC against members of the same dragon kind.<br/><br/><b>Goal</b><br/> Defeat the specific dragon linked to your prerequisite.<br/><br/><b>Completion Benefit</b><br/>You gain the ability to select a new dragon kind whenever you wish. You must first defeat a member of the selected kind with a CR equal to or greater than your character level. In addition, you gain a +2 bonus on initiative checks when facing a dragon of your selected kind.",
      "unidentified": ""
    },
    "tags": [
      "Story"
    ],
    "actions": [],
    "uses": {
      "per": null,
      "value": 0,
      "maxFormula": "",
      "autoDeductChargesCost": "1"
    },
    "attackNotes": [],
    "effectNotes": [],
    "changes": [],
    "changeFlags": {
      "loseDexToAC": false,
      "noEncumbrance": false,
      "mediumArmorFullSpeed": false,
      "heavyArmorFullSpeed": false
    },
    "contextNotes": [],
    "links": {
      "children": [],
      "charges": []
    },
    "tag": "",
    "useCustomTag": false,
    "armorProf": {
      "value": [],
      "custom": ""
    },
    "weaponProf": {
      "value": [],
      "custom": ""
    },
    "languages": {
      "value": [],
      "custom": ""
    },
    "flags": {
      "boolean": {},
      "dictionary": {}
    },
    "scriptCalls": [],
    "subType": "feat",
    "associations": {
      "classes": []
    },
    "showInQuickbar": false,
    "abilityType": "none",
    "crOffset": "",
    "disabled": false,
    "classSkills": {}
  },
  "ownership": {
    "default": 0
  },
  "_stats": {
    "systemId": "pf1",
    "systemVersion": "9.1",
    "coreVersion": "10.291",
    "createdTime": 1665428353759,
    "modifiedTime": 1689797885244,
    "lastModifiedBy": "ppv91YxratjWnkJi"
  },
  "effects": [],
  "folder": null,
  "sort": 0,
  "flags": {},
  "_key": "!items!LgJXpA7m3Hcw72rJ"
}