{
  "_id": "N2JSufB6LGiaGtp7",
  "name": "Dramatic Display",
  "type": "feat",
  "img": "systems/pf1/icons/items/weapons/ratfolk-tail-blade.png",
  "system": {
    "description": {
      "value": "<p><em>Your skill with your weapon is obvious to enemies and onlookers alike.</em><br /><br /><strong>Prerequisites</strong><br />Dazzling Display.<br /><br /><strong>Benefits</strong><br />When you spend a swift action to make a performance check, you exude an aura of awe-inspiring skill. You gain a +2 bonus on your performance check, and gain a +2 bonus on all attack rolls and combat maneuver checks until the end of your next turn.<br /><br /></p>\n<p><strong>Combat Trick</strong></p>\n<p>When using this feat, you can spend 5 stamina points to also gain a +2 dodge bonus to AC until the end of your next turn.</p>",
      "unidentified": ""
    },
    "tags": [
      "Combat",
      "Performance"
    ],
    "actions": [],
    "uses": {
      "per": null,
      "value": 0,
      "maxFormula": "",
      "autoDeductChargesCost": "1"
    },
    "attackNotes": [],
    "effectNotes": [],
    "changes": [],
    "changeFlags": {
      "loseDexToAC": false,
      "noEncumbrance": false,
      "mediumArmorFullSpeed": false,
      "heavyArmorFullSpeed": false
    },
    "contextNotes": [],
    "links": {
      "children": [],
      "charges": []
    },
    "tag": "",
    "useCustomTag": false,
    "armorProf": {
      "value": [],
      "custom": ""
    },
    "weaponProf": {
      "value": [],
      "custom": ""
    },
    "languages": {
      "value": [],
      "custom": ""
    },
    "flags": {
      "boolean": {},
      "dictionary": {}
    },
    "scriptCalls": [],
    "subType": "feat",
    "associations": {
      "classes": []
    },
    "showInQuickbar": false,
    "abilityType": "none",
    "crOffset": "",
    "disabled": false,
    "classSkills": {}
  },
  "ownership": {
    "default": 0
  },
  "_stats": {
    "systemId": "pf1",
    "systemVersion": "9.1",
    "coreVersion": "10.291",
    "createdTime": 1665428353850,
    "modifiedTime": 1689797885742,
    "lastModifiedBy": "ppv91YxratjWnkJi"
  },
  "effects": [],
  "folder": null,
  "sort": 0,
  "flags": {},
  "_key": "!items!N2JSufB6LGiaGtp7"
}