{
  "_id": "ySsoK8dR0dkZe49F",
  "name": "Dryad's Apprentice",
  "type": "feat",
  "img": "systems/pf1/icons/skills/nature_05.jpg",
  "system": {
    "description": {
      "value": "<em>You have learned secrets of woodworking from dryads.</em><br/><br/><b>Prerequisites</b><br/>Cha 13, gathlain.<br/><br/><b>Benefits</b><br/>You can cast wood shape as a spell-like ability at will, but only on a piece of wood no larger than 1 pound. You gain a +4 bonus on Craft checks involving wood, and you are always treated as if you had masterwork artisan's woodworking tools when attempting such checks.",
      "unidentified": ""
    },
    "tags": [
      "Racial",
      "Gathlain"
    ],
    "actions": [],
    "uses": {
      "per": null,
      "value": 0,
      "maxFormula": "",
      "autoDeductChargesCost": "1"
    },
    "attackNotes": [],
    "effectNotes": [],
    "changes": [],
    "changeFlags": {
      "loseDexToAC": false,
      "noEncumbrance": false,
      "mediumArmorFullSpeed": false,
      "heavyArmorFullSpeed": false
    },
    "contextNotes": [],
    "links": {
      "children": [],
      "charges": []
    },
    "tag": "",
    "useCustomTag": false,
    "armorProf": {
      "value": [],
      "custom": ""
    },
    "weaponProf": {
      "value": [],
      "custom": ""
    },
    "languages": {
      "value": [],
      "custom": ""
    },
    "flags": {
      "boolean": {},
      "dictionary": {}
    },
    "scriptCalls": [],
    "subType": "feat",
    "associations": {
      "classes": []
    },
    "showInQuickbar": false,
    "abilityType": "none",
    "crOffset": "",
    "disabled": false,
    "classSkills": {}
  },
  "ownership": {
    "default": 0
  },
  "_stats": {
    "systemId": "pf1",
    "systemVersion": "9.1",
    "coreVersion": "10.291",
    "createdTime": 1665428358927,
    "modifiedTime": 1689797904140,
    "lastModifiedBy": "ppv91YxratjWnkJi"
  },
  "effects": [],
  "folder": null,
  "sort": 0,
  "flags": {},
  "_key": "!items!ySsoK8dR0dkZe49F"
}