{
  "_id": "xcjwG0vpWx7elPyz",
  "name": "Dwarf Blooded",
  "type": "feat",
  "img": "systems/pf1/icons/races/oread.png",
  "system": {
    "description": {
      "value": "<em>You have dwarven blood coursing through your veins.</em><br/><br/><b>Prerequisites</b><br/>Oread.<br/><br/><b>Benefits</b><br/>Your dwarven heritage manifests in two ways. First, your speed is never modified by armor or encumbrance, as the dwarf slow and steady racial trait. Second, you gain the stonecunning dwarf racial trait.",
      "unidentified": ""
    },
    "tags": [
      "PFS",
      "Racial",
      "Oread"
    ],
    "actions": [],
    "uses": {
      "per": null,
      "value": 0,
      "maxFormula": "",
      "autoDeductChargesCost": "1"
    },
    "attackNotes": [],
    "effectNotes": [],
    "changes": [],
    "changeFlags": {
      "loseDexToAC": false,
      "noEncumbrance": false,
      "mediumArmorFullSpeed": false,
      "heavyArmorFullSpeed": false
    },
    "contextNotes": [],
    "links": {
      "children": [],
      "charges": []
    },
    "tag": "",
    "useCustomTag": false,
    "armorProf": {
      "value": [],
      "custom": ""
    },
    "weaponProf": {
      "value": [],
      "custom": ""
    },
    "languages": {
      "value": [],
      "custom": ""
    },
    "flags": {
      "boolean": {},
      "dictionary": {}
    },
    "scriptCalls": [],
    "subType": "feat",
    "associations": {
      "classes": []
    },
    "showInQuickbar": false,
    "abilityType": "none",
    "crOffset": "",
    "disabled": false,
    "classSkills": {}
  },
  "ownership": {
    "default": 0
  },
  "_stats": {
    "systemId": "pf1",
    "systemVersion": "9.1",
    "coreVersion": "10.291",
    "createdTime": 1665428358882,
    "modifiedTime": 1689797903826,
    "lastModifiedBy": "ppv91YxratjWnkJi"
  },
  "effects": [],
  "folder": null,
  "sort": 0,
  "flags": {},
  "_key": "!items!xcjwG0vpWx7elPyz"
}