{
  "_id": "EYxZhPSy1H7A5NG2",
  "name": "Dynasty Founder",
  "type": "feat",
  "img": "icons/environment/settlement/castle.webp",
  "system": {
    "description": {
      "value": "<em>You will claim rulership of a city, whether under a larger government or independently.</em><br/><br/><b>Prerequisites</b><br/>You must have lived in the chosen city for at least 1 year or be the heir of a former city leader.<br/><br/><b>Benefits</b><br/>You gain followers as if you had the Leadership feat, although you cannot attract followers of a level higher than your level - 2. If you also have the Leadership feat, increase your Leadership score by 3 for the purpose of determining how many followers you have.<br/><br/><b>Goal</b><br/> Thwart all rivals to rulership over the chosen region, including at least one challenging foe.<br/><br/><b>Completion Benefit</b><br/>You gain control of the settlement (see the settlement rules in the Pathfinder RPG GameMastery Guide). Upon gaining this benefit and once per year thereafter, you can attempt to alter the settlement in one of the following ways by attempting a DC 25 Diplomacy check modified by the settlement's Society modifier or a DC 25 Intimidate check modified by its Law modifier: <ul><li>Move the settlement's alignment 1 step closer to yours along either the good-evil or law-chaos axis. </li><li>Replace one settlement quality with another. </li><li>Change the government type. </li><li>Significantly alter the laws.</li></ul> Failure indicates that popular opinion in the city successfully opposes you.<br/> In addition, from now on, your followers gain a +1 morale bonus on attack rolls and saving throws as long as they can see you.",
      "unidentified": ""
    },
    "tags": [
      "Story"
    ],
    "actions": [],
    "uses": {
      "per": null,
      "value": 0,
      "maxFormula": "",
      "autoDeductChargesCost": "1"
    },
    "attackNotes": [],
    "effectNotes": [],
    "changes": [],
    "changeFlags": {
      "loseDexToAC": false,
      "noEncumbrance": false,
      "mediumArmorFullSpeed": false,
      "heavyArmorFullSpeed": false
    },
    "contextNotes": [],
    "links": {
      "children": [],
      "charges": []
    },
    "tag": "",
    "useCustomTag": false,
    "armorProf": {
      "value": [],
      "custom": ""
    },
    "weaponProf": {
      "value": [],
      "custom": ""
    },
    "languages": {
      "value": [],
      "custom": ""
    },
    "flags": {
      "boolean": {},
      "dictionary": {}
    },
    "scriptCalls": [],
    "subType": "feat",
    "associations": {
      "classes": []
    },
    "showInQuickbar": false,
    "abilityType": "none",
    "crOffset": "",
    "disabled": false,
    "classSkills": {}
  },
  "ownership": {
    "default": 0
  },
  "_stats": {
    "systemId": "pf1",
    "systemVersion": "9.1",
    "coreVersion": "10.291",
    "createdTime": 1665428352573,
    "modifiedTime": 1689797881079,
    "lastModifiedBy": "ppv91YxratjWnkJi"
  },
  "effects": [],
  "folder": null,
  "sort": 0,
  "flags": {},
  "_key": "!items!EYxZhPSy1H7A5NG2"
}