{
  "_id": "kTxM3FRmhGH20dBB",
  "name": "Echoes of Stone",
  "type": "feat",
  "img": "systems/pf1/icons/races/oread.png",
  "system": {
    "description": {
      "value": "<em>Your senses are keener among the rocks and stones.</em><br/><br/><b>Prerequisites</b><br/>Oread.<br/><br/><b>Benefits</b><br/>You gain a +4 racial bonus on Perception checks underground, and on Survival checks to avoid becoming lost in caverns and rocky areas.",
      "unidentified": ""
    },
    "tags": [
      "PFS",
      "Racial",
      "Oread"
    ],
    "actions": [],
    "uses": {
      "per": null,
      "value": 0,
      "maxFormula": "",
      "autoDeductChargesCost": "1"
    },
    "attackNotes": [],
    "effectNotes": [],
    "changes": [],
    "changeFlags": {
      "loseDexToAC": false,
      "noEncumbrance": false,
      "mediumArmorFullSpeed": false,
      "heavyArmorFullSpeed": false
    },
    "contextNotes": [],
    "links": {
      "children": [],
      "charges": []
    },
    "tag": "",
    "useCustomTag": false,
    "armorProf": {
      "value": [],
      "custom": ""
    },
    "weaponProf": {
      "value": [],
      "custom": ""
    },
    "languages": {
      "value": [],
      "custom": ""
    },
    "flags": {
      "boolean": {},
      "dictionary": {}
    },
    "scriptCalls": [],
    "subType": "feat",
    "associations": {
      "classes": []
    },
    "showInQuickbar": false,
    "abilityType": "none",
    "crOffset": "",
    "disabled": false,
    "classSkills": {}
  },
  "ownership": {
    "default": 0
  },
  "_stats": {
    "systemId": "pf1",
    "systemVersion": "9.1",
    "coreVersion": "10.291",
    "createdTime": 1665428356917,
    "modifiedTime": 1689797897568,
    "lastModifiedBy": "ppv91YxratjWnkJi"
  },
  "effects": [],
  "folder": null,
  "sort": 0,
  "flags": {},
  "_key": "!items!kTxM3FRmhGH20dBB"
}