{
  "_id": "DpPjcc9pTyWua8lH",
  "name": "Eerily Centered",
  "type": "feat",
  "img": "systems/pf1/icons/races/gnome.png",
  "system": {
    "description": {
      "value": "<em>Little can shake your peaceful temperament.</em><br/><br/><b>Prerequisites</b><br/>Bleachling racial trait, gnome.<br/><br/><b>Benefits</b><br/>You gain a +4 racial bonus on saving throws against spells and effects with the emotion descriptor. Effects with the fear descriptor or that grant you a morale bonus affect you for only half the normal duration (minimum 1 round), and such effects that you can activate on yourself (such as a barbarian's rage) require you to expend daily uses or rounds of those abilities at twice the normal rate.",
      "unidentified": ""
    },
    "tags": [
      "PFS",
      "Racial",
      "Gnome"
    ],
    "actions": [],
    "uses": {
      "per": null,
      "value": 0,
      "maxFormula": "",
      "autoDeductChargesCost": "1"
    },
    "attackNotes": [],
    "effectNotes": [],
    "changes": [],
    "changeFlags": {
      "loseDexToAC": false,
      "noEncumbrance": false,
      "mediumArmorFullSpeed": false,
      "heavyArmorFullSpeed": false
    },
    "contextNotes": [],
    "links": {
      "children": [],
      "charges": []
    },
    "tag": "",
    "useCustomTag": false,
    "armorProf": {
      "value": [],
      "custom": ""
    },
    "weaponProf": {
      "value": [],
      "custom": ""
    },
    "languages": {
      "value": [],
      "custom": ""
    },
    "flags": {
      "boolean": {},
      "dictionary": {}
    },
    "scriptCalls": [],
    "subType": "feat",
    "associations": {
      "classes": []
    },
    "showInQuickbar": false,
    "abilityType": "none",
    "crOffset": "",
    "disabled": false,
    "classSkills": {}
  },
  "ownership": {
    "default": 0
  },
  "_stats": {
    "systemId": "pf1",
    "systemVersion": "9.1",
    "coreVersion": "10.291",
    "createdTime": 1665428352495,
    "modifiedTime": 1689797880706,
    "lastModifiedBy": "ppv91YxratjWnkJi"
  },
  "effects": [],
  "folder": null,
  "sort": 0,
  "flags": {},
  "_key": "!items!DpPjcc9pTyWua8lH"
}