{
  "_id": "YbDSTDNPm2FkFHVm",
  "name": "Efficient Focus Shift",
  "type": "feat",
  "img": "systems/pf1/icons/skills/violet_13.jpg",
  "system": {
    "description": {
      "value": "<em>You are more adept than most at shifting mental focus between your implements.</em><br/><br/><b>Prerequisites</b><br/>Occultist level 7th.<br/><br/><b>Benefits</b><br/>Twice per day when you shift mental focus from one implement to another, you can add the same number of points to the latter implement that you removed from the former.<br/><br/><b>Normal</b><br/>By removing points of mental focus from one implement, you can add the same amount - 1 to another.<br/><br/><b>Special</b><br/>You can take this feat multiple times. Its effects stack.",
      "unidentified": ""
    },
    "tags": [
      "PFS",
      "General"
    ],
    "actions": [],
    "uses": {
      "per": null,
      "value": 0,
      "maxFormula": "",
      "autoDeductChargesCost": "1"
    },
    "attackNotes": [],
    "effectNotes": [],
    "changes": [],
    "changeFlags": {
      "loseDexToAC": false,
      "noEncumbrance": false,
      "mediumArmorFullSpeed": false,
      "heavyArmorFullSpeed": false
    },
    "contextNotes": [],
    "links": {
      "children": [],
      "charges": []
    },
    "tag": "",
    "useCustomTag": false,
    "armorProf": {
      "value": [],
      "custom": ""
    },
    "weaponProf": {
      "value": [],
      "custom": ""
    },
    "languages": {
      "value": [],
      "custom": ""
    },
    "flags": {
      "boolean": {},
      "dictionary": {}
    },
    "scriptCalls": [],
    "subType": "feat",
    "associations": {
      "classes": []
    },
    "showInQuickbar": false,
    "abilityType": "none",
    "crOffset": "",
    "disabled": false,
    "classSkills": {}
  },
  "ownership": {
    "default": 0
  },
  "_stats": {
    "systemId": "pf1",
    "systemVersion": "9.1",
    "coreVersion": "10.291",
    "createdTime": 1665428355473,
    "modifiedTime": 1689797891977,
    "lastModifiedBy": "ppv91YxratjWnkJi"
  },
  "effects": [],
  "folder": null,
  "sort": 0,
  "flags": {},
  "_key": "!items!YbDSTDNPm2FkFHVm"
}