{
  "_id": "z94ffSZLIiZkZjl1",
  "name": "Efreeti Stance",
  "type": "feat",
  "img": "systems/pf1/icons/races/ifrit.png",
  "system": {
    "description": {
      "value": "<em>Calling upon the burning spirits of incarnate flame, you can manipulate fire to protect yourself and immolate your foes.</em><br/><br/><b>Prerequisites</b><br/>Con 15, Wis 15, Efreeti Style, Elemental Fist, Improved Unarmed Strike, base attack bonus +11 or monk level 9th.<br/><br/><b>Benefits</b><br/>You gain one additional Elemental Fist (Advanced Player's Guide 158) attempt per day. While using Efreeti Style, you gain fire resistance equal to your base attack bonus or your monk level plus any base attack bonus gained from levels in classes other than monk, whichever is higher. While denied your Dexterity bonus to AC you are also denied this resistance. Creatures that take fire damage from your Elemental Fist attack must succeed at a Reflex save (DC 10 + 1/2 your character level + your Wis modifier) or catch on fire.<br/><br/><b>Combat Trick</b><br/>When making an Elemental Fist attack, you can spend up to 5 stamina points to increase the DC of the saving throw to avoid catching on fire by an amount equal to the number of stamina points you spent.",
      "unidentified": ""
    },
    "tags": [
      "PFS",
      "Combat"
    ],
    "actions": [],
    "uses": {
      "per": null,
      "value": 0,
      "maxFormula": "",
      "autoDeductChargesCost": "1"
    },
    "attackNotes": [],
    "effectNotes": [],
    "changes": [],
    "changeFlags": {
      "loseDexToAC": false,
      "noEncumbrance": false,
      "mediumArmorFullSpeed": false,
      "heavyArmorFullSpeed": false
    },
    "contextNotes": [],
    "links": {
      "children": [],
      "charges": []
    },
    "tag": "",
    "useCustomTag": false,
    "armorProf": {
      "value": [],
      "custom": ""
    },
    "weaponProf": {
      "value": [],
      "custom": ""
    },
    "languages": {
      "value": [],
      "custom": ""
    },
    "flags": {
      "boolean": {},
      "dictionary": {}
    },
    "scriptCalls": [],
    "subType": "feat",
    "associations": {
      "classes": []
    },
    "showInQuickbar": false,
    "abilityType": "none",
    "crOffset": "",
    "disabled": false,
    "classSkills": {}
  },
  "ownership": {
    "default": 0
  },
  "_stats": {
    "systemId": "pf1",
    "systemVersion": "9.1",
    "coreVersion": "10.291",
    "createdTime": 1665428358962,
    "modifiedTime": 1689797904395,
    "lastModifiedBy": "ppv91YxratjWnkJi"
  },
  "effects": [],
  "folder": null,
  "sort": 0,
  "flags": {},
  "_key": "!items!z94ffSZLIiZkZjl1"
}