{
  "_id": "egFptFmGEz1ENGO3",
  "name": "Eidolon Mount",
  "type": "feat",
  "img": "systems/pf1/icons/skills/blue_32.jpg",
  "system": {
    "description": {
      "value": "<p><em>Your eidolon is capable of carrying you into combat with great skill.</em><br /><br /><strong>Prerequisites</strong><br />Eidolon able to choose quadruped or serpentine as a base form.<br /><br /><strong>Benefits</strong><br />Your eidolon is capable of serving you as a combat-trained mount. If the eidolon's base form is not quadruped or serpentine, it also gains the ability to transmute its physical body into a form suitable for you to ride. This functions as the change shape ability, except the eidolon's base form changes to either quadruped or serpentine and its size changes to be one size category larger than its summoner's base size. Unlike other changes to size, this ability doesn't increase the eidolon's ability scores, reach, or weapon damage beyond that of its true form. (However, if the eidolon's size is reduced by this ability, its reach and weapon damage are adjusted accordingly.)<br /><br />If the eidolon's base form is not quadruped or serpentine when it gains this feat, it chooses which base form (quadruped or serpentine) to assume when using this ability. The eidolon cannot choose a base form that is not available to its subtype with this ability. If both base forms are available to the eidolon's subtype, it can change which base form it assumes when using this ability whenever it gains a new Hit Die. The eidolon can select evolutions that have either base form as a requirement, but any evolutions that require one of the base forms (but not the other) provide no benefit while the eidolon is assuming the shape of its other base form.</p>\n<p><br /><strong>Pathfinder Society<br /></strong>Eidolon Mount is only available to unchained eidolons</p>",
      "unidentified": ""
    },
    "tags": [
      "PFS",
      "Combat"
    ],
    "actions": [],
    "uses": {
      "per": null,
      "value": 0,
      "maxFormula": "",
      "autoDeductChargesCost": "1"
    },
    "attackNotes": [],
    "effectNotes": [],
    "changes": [],
    "changeFlags": {
      "loseDexToAC": false,
      "noEncumbrance": false,
      "mediumArmorFullSpeed": false,
      "heavyArmorFullSpeed": false
    },
    "contextNotes": [],
    "links": {
      "children": [],
      "charges": []
    },
    "tag": "",
    "useCustomTag": false,
    "armorProf": {
      "value": [],
      "custom": ""
    },
    "weaponProf": {
      "value": [],
      "custom": ""
    },
    "languages": {
      "value": [],
      "custom": ""
    },
    "flags": {
      "boolean": {},
      "dictionary": {}
    },
    "scriptCalls": [],
    "subType": "feat",
    "associations": {
      "classes": []
    },
    "showInQuickbar": false,
    "abilityType": "none",
    "crOffset": "",
    "disabled": false,
    "classSkills": {}
  },
  "ownership": {
    "default": 0
  },
  "_stats": {
    "systemId": "pf1",
    "systemVersion": "9.1",
    "coreVersion": "10.291",
    "createdTime": 1665428356203,
    "modifiedTime": 1689797894833,
    "lastModifiedBy": "ppv91YxratjWnkJi"
  },
  "effects": [],
  "folder": null,
  "sort": 0,
  "flags": {},
  "_key": "!items!egFptFmGEz1ENGO3"
}