{
  "_id": "hKUr4z34XChiYgY1",
  "name": "Elemental Strike",
  "type": "feat",
  "img": "systems/pf1/icons/races/ifrit.png",
  "system": {
    "description": {
      "value": "<em>You draw upon your extraplanar heritage to imbue your weapons with elemental energies.</em><br/><br/><b>Prerequisites</b><br/>Ifrit, oread, sylph, or undine.<br/><br/><b>Benefits</b><br/>As a swift action, you can imbue your weapons with elemental energy. For 1 round, your weapons deal an additional 1 point of energy damage. The type of energy damage depends on your race: acid for oread, electricity for sylph, fire for ifrit, or cold for undine. For every 5 levels you possess, this bonus increases by 1, to a maximum of +5 at 20th level.<br/><br/><b>Special</b><br/>You can use this feat instead of Arcane Strike to qualify for or attack with the Deadly Dealer feat (Pathfinder Player Companion: The Harrow Handbook 15).",
      "unidentified": ""
    },
    "tags": [
      "PFS",
      "Combat",
      "Racial",
      "Ifrit",
      "Oread",
      "Sylph",
      "Undine"
    ],
    "actions": [],
    "uses": {
      "per": null,
      "value": 0,
      "maxFormula": "",
      "autoDeductChargesCost": "1"
    },
    "attackNotes": [],
    "effectNotes": [],
    "changes": [],
    "changeFlags": {
      "loseDexToAC": false,
      "noEncumbrance": false,
      "mediumArmorFullSpeed": false,
      "heavyArmorFullSpeed": false
    },
    "contextNotes": [],
    "links": {
      "children": [],
      "charges": []
    },
    "tag": "",
    "useCustomTag": false,
    "armorProf": {
      "value": [],
      "custom": ""
    },
    "weaponProf": {
      "value": [],
      "custom": ""
    },
    "languages": {
      "value": [],
      "custom": ""
    },
    "flags": {
      "boolean": {},
      "dictionary": {}
    },
    "scriptCalls": [],
    "subType": "feat",
    "associations": {
      "classes": []
    },
    "showInQuickbar": false,
    "abilityType": "none",
    "crOffset": "",
    "disabled": false,
    "classSkills": {}
  },
  "ownership": {
    "default": 0
  },
  "_stats": {
    "systemId": "pf1",
    "systemVersion": "9.1",
    "coreVersion": "10.291",
    "createdTime": 1665428356707,
    "modifiedTime": 1689797896210,
    "lastModifiedBy": "ppv91YxratjWnkJi"
  },
  "effects": [],
  "folder": null,
  "sort": 0,
  "flags": {},
  "_key": "!items!hKUr4z34XChiYgY1"
}