{
  "_id": "OZ8ei1QgOdsDij2N",
  "name": "Elven Accuracy (Mythic)",
  "type": "feat",
  "img": "systems/pf1/icons/feats/improved-precise-shot.jpg",
  "system": {
    "description": {
      "value": "<em>Your elven eyesight cuts though concealment.</em><br/><br/><b>Prerequisites</b><br/>Elven Accuracy.<br/><br/><b>Benefits</b><br/>When you make an attack with a longbow or short bow (including composite bows), you can ignore concealment, but not total concealment. You still suffer a miss chance for total concealment, but if you miss due to total concealment, you may reroll your miss chance as per Elven Accuracy.",
      "unidentified": ""
    },
    "tags": [
      "PFS",
      "Combat",
      "Mythic"
    ],
    "actions": [],
    "uses": {
      "per": null,
      "value": 0,
      "maxFormula": "",
      "autoDeductChargesCost": "1"
    },
    "attackNotes": [],
    "effectNotes": [],
    "changes": [],
    "changeFlags": {
      "loseDexToAC": false,
      "noEncumbrance": false,
      "mediumArmorFullSpeed": false,
      "heavyArmorFullSpeed": false
    },
    "contextNotes": [],
    "links": {
      "children": [],
      "charges": []
    },
    "tag": "",
    "useCustomTag": false,
    "armorProf": {
      "value": [],
      "custom": ""
    },
    "weaponProf": {
      "value": [],
      "custom": ""
    },
    "languages": {
      "value": [],
      "custom": ""
    },
    "flags": {
      "boolean": {},
      "dictionary": {}
    },
    "scriptCalls": [],
    "subType": "feat",
    "associations": {
      "classes": []
    },
    "showInQuickbar": false,
    "abilityType": "none",
    "crOffset": "",
    "disabled": false,
    "classSkills": {}
  },
  "ownership": {
    "default": 0
  },
  "_stats": {
    "systemId": "pf1",
    "systemVersion": "9.1",
    "coreVersion": "10.291",
    "createdTime": 1665428353961,
    "modifiedTime": 1689797886327,
    "lastModifiedBy": "ppv91YxratjWnkJi"
  },
  "effects": [],
  "folder": null,
  "sort": 0,
  "flags": {},
  "_key": "!items!OZ8ei1QgOdsDij2N"
}