{
  "_id": "LePbNg7kzBZlPLQU",
  "name": "Emissary's Emboldening",
  "type": "feat",
  "img": "systems/pf1/icons/skills/blue_18.jpg",
  "system": {
    "description": {
      "value": "<em>Your familiar lends you divine courage.</em><br/><br/><b>Prerequisites</b><br/>Must have a familiar with the emissary archetype (see page 10).<br/><br/><b>Benefits</b><br/>As long as your familiar is adjacent to you, you gain a +1 morale bonus against fear effects. This bonus increases by 1 at 4th level and every 4 levels thereafter (to a maximum of +5 at 16th level). At 20th level, you become immune to fear effects as long as your familiar is adjacent to you.",
      "unidentified": ""
    },
    "tags": [
      "PFS",
      "Familiar"
    ],
    "actions": [],
    "uses": {
      "per": null,
      "value": 0,
      "maxFormula": "",
      "autoDeductChargesCost": "1"
    },
    "attackNotes": [],
    "effectNotes": [],
    "changes": [],
    "changeFlags": {
      "loseDexToAC": false,
      "noEncumbrance": false,
      "mediumArmorFullSpeed": false,
      "heavyArmorFullSpeed": false
    },
    "contextNotes": [],
    "links": {
      "children": [],
      "charges": []
    },
    "tag": "",
    "useCustomTag": false,
    "armorProf": {
      "value": [],
      "custom": ""
    },
    "weaponProf": {
      "value": [],
      "custom": ""
    },
    "languages": {
      "value": [],
      "custom": ""
    },
    "flags": {
      "boolean": {},
      "dictionary": {}
    },
    "scriptCalls": [],
    "subType": "feat",
    "associations": {
      "classes": []
    },
    "showInQuickbar": false,
    "abilityType": "none",
    "crOffset": "",
    "disabled": false,
    "classSkills": {}
  },
  "ownership": {
    "default": 0
  },
  "_stats": {
    "systemId": "pf1",
    "systemVersion": "9.1",
    "coreVersion": "10.291",
    "createdTime": 1665428353758,
    "modifiedTime": 1689797885233,
    "lastModifiedBy": "ppv91YxratjWnkJi"
  },
  "effects": [],
  "folder": null,
  "sort": 0,
  "flags": {},
  "_key": "!items!LePbNg7kzBZlPLQU"
}