{
  "_id": "NJoSHKbpJj9aD84E",
  "name": "Empower Spell-Like Ability",
  "type": "feat",
  "img": "systems/pf1/icons/feats/empower-spell.jpg",
  "system": {
    "description": {
      "value": "<em>One of this creature's spell-like abilities is particularly potent and powerful.</em><br/><br/><b>Prerequisites</b><br/>Spell-like ability at caster level 6th or higher.<br/><br/><b>Benefits</b><br/>Choose one of the creature's spell-like abilities, subject to the restrictions below. The creature can use that ability as an empowered spell-like ability three times per day (or less, if the ability is normally usable only once or twice per day).<br/><br/> When a creature uses an empowered spell-like ability, all variable, numeric effects of the spell-like ability are increased by half (+50%). Saving throws and opposed rolls are not affected. Spell-like abilities without random variables are not affected.<br/><br/> The creature can only select a spell-like ability duplicating a spell with a level less than or equal to 1/2 its caster level (round down) - 2. For a summary, see the table in the description of the Quicken Spell-Like Ability.<br/><table class='inner'><tr><td> <b>Spell Level</b></td><td> <b>Caster Level to Empower</b></td><td> <b>Caster Level to Quicken</b></td></tr> <tr><td>0</td><td>4th</td><td>8th</td></tr> <tr><td>1st</td><td>6th</td><td>10th</td></tr> <tr><td>2nd</td><td>8th</td><td>12th</td></tr> <tr><td>3rd</td><td>10th</td><td>14th</td></tr> <tr><td>4th</td><td>12th</td><td>16th</td></tr> <tr><td>5th</td><td>14th</td><td>18th</td></tr> <tr><td>6th</td><td>16th</td><td>20th</td></tr> <tr><td>7th</td><td>18th</td><td>-</td></tr> <tr><td>8th</td><td>20th</td><td>-</td></tr> <tr><td>9th</td><td>-</td><td>-</td></tr></table>",
      "unidentified": ""
    },
    "tags": [
      "Monster"
    ],
    "actions": [],
    "uses": {
      "per": null,
      "value": 0,
      "maxFormula": "",
      "autoDeductChargesCost": "1"
    },
    "attackNotes": [],
    "effectNotes": [],
    "changes": [],
    "changeFlags": {
      "loseDexToAC": false,
      "noEncumbrance": false,
      "mediumArmorFullSpeed": false,
      "heavyArmorFullSpeed": false
    },
    "contextNotes": [],
    "links": {
      "children": [],
      "charges": []
    },
    "tag": "",
    "useCustomTag": false,
    "armorProf": {
      "value": [],
      "custom": ""
    },
    "weaponProf": {
      "value": [],
      "custom": ""
    },
    "languages": {
      "value": [],
      "custom": ""
    },
    "flags": {
      "boolean": {},
      "dictionary": {}
    },
    "scriptCalls": [],
    "subType": "feat",
    "associations": {
      "classes": []
    },
    "showInQuickbar": false,
    "abilityType": "none",
    "crOffset": "",
    "disabled": false,
    "classSkills": {}
  },
  "ownership": {
    "default": 0
  },
  "_stats": {
    "systemId": "pf1",
    "systemVersion": "9.1",
    "coreVersion": "10.291",
    "createdTime": 1665428353876,
    "modifiedTime": 1689797885951,
    "lastModifiedBy": "ppv91YxratjWnkJi"
  },
  "effects": [],
  "folder": null,
  "sort": 0,
  "flags": {},
  "_key": "!items!NJoSHKbpJj9aD84E"
}