{
  "_id": "T289QXrzcZzHVyIL",
  "name": "Empty Quiver Flurry",
  "type": "feat",
  "img": "icons/containers/ammunition/quiver-gold-red.webp",
  "system": {
    "description": {
      "value": "<em>You can use your ranged weapons to make melee attacks that keep foes at bay as you shoot them.</em><br/><br/><b>Prerequisites</b><br/>Empty Quiver Flexibility, Empty Quiver Style, Rapid Shot, Stabbing Shot, Weapon Focus with the chosen weapon.<br/><br/><b>Benefits</b><br/>While using Empty Quiver Style or Stabbing Shot to make melee attacks with a ranged weapon, if you successfully hit a foe, any ranged attacks you make with the same weapon until the beginning of your next turn do not provoke attacks of opportunity from that foe.<br/><br/><b>Special</b><br/>If you have the Rapid Reload feat in addition to this feat, your chosen weapon is a crossbow or firearm, that weapon is unloaded, and you successfully hit a foe in melee with it, you can automatically load it as a free action.",
      "unidentified": ""
    },
    "tags": [
      "PFS",
      "Combat"
    ],
    "actions": [],
    "uses": {
      "per": null,
      "value": 0,
      "maxFormula": "",
      "autoDeductChargesCost": "1"
    },
    "attackNotes": [],
    "effectNotes": [],
    "changes": [],
    "changeFlags": {
      "loseDexToAC": false,
      "noEncumbrance": false,
      "mediumArmorFullSpeed": false,
      "heavyArmorFullSpeed": false
    },
    "contextNotes": [],
    "links": {
      "children": [],
      "charges": []
    },
    "tag": "",
    "useCustomTag": false,
    "armorProf": {
      "value": [],
      "custom": ""
    },
    "weaponProf": {
      "value": [],
      "custom": ""
    },
    "languages": {
      "value": [],
      "custom": ""
    },
    "flags": {
      "boolean": {},
      "dictionary": {}
    },
    "scriptCalls": [],
    "subType": "feat",
    "associations": {
      "classes": []
    },
    "showInQuickbar": false,
    "abilityType": "none",
    "crOffset": "",
    "disabled": false,
    "classSkills": {}
  },
  "ownership": {
    "default": 0
  },
  "_stats": {
    "systemId": "pf1",
    "systemVersion": "9.1",
    "coreVersion": "10.291",
    "createdTime": 1665428354541,
    "modifiedTime": 1689797888348,
    "lastModifiedBy": "ppv91YxratjWnkJi"
  },
  "effects": [],
  "folder": null,
  "sort": 0,
  "flags": {},
  "_key": "!items!T289QXrzcZzHVyIL"
}