{
  "_id": "gqy8vg9t5XhFHEbN",
  "name": "Endurance",
  "type": "feat",
  "img": "systems/pf1/icons/feats/endurance.png",
  "system": {
    "description": {
      "value": "<em>Harsh conditions or long exertions do not easily tire you.</em><br/><br/><b>Benefits</b><br/>You gain a +4 bonus on the following checks and saves: Swim checks made to resist nonlethal damage from exhaustion; Constitution checks made to continue running; Constitution checks made to avoid nonlethal damage from a forced march; Constitution checks made to hold your breath; Constitution checks made to avoid nonlethal damage from starvation or thirst; Fortitude saves made to avoid nonlethal damage from hot or cold environments; and Fortitude saves made to resist damage from suffocation.<br/><br/>You may sleep in light or medium armor without becoming fatigued.<br/><br/><b>Normal</b><br/>A character without this feat who sleeps in medium or heavier armor is fatigued the next day.",
      "unidentified": ""
    },
    "tags": [
      "PFS",
      "General"
    ],
    "actions": [],
    "uses": {
      "per": null,
      "value": 0,
      "maxFormula": "",
      "autoDeductChargesCost": "1"
    },
    "attackNotes": [],
    "effectNotes": [],
    "changes": [],
    "changeFlags": {
      "loseDexToAC": false,
      "noEncumbrance": false,
      "mediumArmorFullSpeed": false,
      "heavyArmorFullSpeed": false
    },
    "contextNotes": [
      {
        "subTarget": "skill.swm",
        "target": "skill",
        "text": "+[[4]] to resist nonlethal damage from exhaustion"
      },
      {
        "subTarget": "conChecks",
        "target": "abilityChecks",
        "text": "+[[4]] to continue running\n+[[4]] to avoid nonlethal from forced march\n+[[4]] to hold breath\n+[[4]] to avoid nonlethal from starvation/thirst"
      },
      {
        "subTarget": "fort",
        "target": "savingThrows",
        "text": "+[[4]] to avoid nonlethal from hot/cold environments\n+[[4]] to resist damage from suffocation"
      }
    ],
    "links": {
      "children": [],
      "charges": []
    },
    "tag": "endurance",
    "useCustomTag": false,
    "armorProf": {
      "value": [],
      "custom": ""
    },
    "weaponProf": {
      "value": [],
      "custom": ""
    },
    "languages": {
      "value": [],
      "custom": ""
    },
    "flags": {
      "boolean": {},
      "dictionary": {}
    },
    "scriptCalls": [],
    "subType": "feat",
    "associations": {
      "classes": []
    },
    "showInQuickbar": false,
    "abilityType": "none",
    "crOffset": "",
    "disabled": false,
    "classSkills": {}
  },
  "ownership": {
    "default": 0
  },
  "_stats": {
    "systemId": "pf1",
    "systemVersion": "9.1",
    "coreVersion": "10.291",
    "createdTime": 1665428356674,
    "modifiedTime": 1689797896023,
    "lastModifiedBy": "ppv91YxratjWnkJi"
  },
  "effects": [],
  "folder": null,
  "sort": 0,
  "flags": {},
  "_key": "!items!gqy8vg9t5XhFHEbN"
}