{
  "_id": "5la0kPNSdx0tRyn0",
  "name": "Energy Channel",
  "type": "feat",
  "img": "systems/pf1/icons/feats/elemental-channel.jpg",
  "system": {
    "description": {
      "value": "<em>You distill your channeled energy into your weapon to empower it.</em><br/><br/><b>Prerequisites</b><br/>Channel energy class feature; Air, Earth, Fire, or Water domain or blessing.<br/><br/><b>Benefits</b><br/>A swift action, you can expend one use of channel energy to grant your weapon attacks a bonus on damage rolls equal to twice the number of dice rolled for your channel energy. This additional damage is of an energy type determined by your domain or blessing: acid (Earth), cold (Water), electricity (Air), or fire (Fire). If you have more than one of those domains or blessings, you must choose one of those damage types when you use this ability. This effect lasts for your next three weapon attacks or until the end of combat, whichever comes first.",
      "unidentified": ""
    },
    "tags": [
      "PFS",
      "General"
    ],
    "actions": [],
    "uses": {
      "per": null,
      "value": 0,
      "maxFormula": "",
      "autoDeductChargesCost": "1"
    },
    "attackNotes": [],
    "effectNotes": [],
    "changes": [],
    "changeFlags": {
      "loseDexToAC": false,
      "noEncumbrance": false,
      "mediumArmorFullSpeed": false,
      "heavyArmorFullSpeed": false
    },
    "contextNotes": [],
    "links": {
      "children": [],
      "charges": []
    },
    "tag": "",
    "useCustomTag": false,
    "armorProf": {
      "value": [],
      "custom": ""
    },
    "weaponProf": {
      "value": [],
      "custom": ""
    },
    "languages": {
      "value": [],
      "custom": ""
    },
    "flags": {
      "boolean": {},
      "dictionary": {}
    },
    "scriptCalls": [],
    "subType": "feat",
    "associations": {
      "classes": []
    },
    "showInQuickbar": false,
    "abilityType": "none",
    "crOffset": "",
    "disabled": false,
    "classSkills": {}
  },
  "ownership": {
    "default": 0
  },
  "_stats": {
    "systemId": "pf1",
    "systemVersion": "9.1",
    "coreVersion": "10.291",
    "createdTime": 1665428351277,
    "modifiedTime": 1689797876419,
    "lastModifiedBy": "ppv91YxratjWnkJi"
  },
  "effects": [],
  "folder": null,
  "sort": 0,
  "flags": {},
  "_key": "!items!5la0kPNSdx0tRyn0"
}