{
  "_id": "BRQdtFwqqLnoy6ru",
  "name": "Entwining Stare",
  "type": "feat",
  "img": "systems/pf1/icons/skills/violet_09.jpg",
  "system": {
    "description": {
      "value": "<em>Your painful stare makes your enemies easier to grab and constrict.</em><br/><br/><b>Prerequisites</b><br/>Mesmerist level 7th, painful stare class feature.<br/><br/><b>Benefits</b><br/>When you trigger your painful stare to add damage to an attack with grab, the target takes a -4 penalty to its CMD against the grab's grapple combat maneuver attempt.",
      "unidentified": ""
    },
    "tags": [
      "PFS",
      "Stare"
    ],
    "actions": [],
    "uses": {
      "per": null,
      "value": 0,
      "maxFormula": "",
      "autoDeductChargesCost": "1"
    },
    "attackNotes": [],
    "effectNotes": [],
    "changes": [],
    "changeFlags": {
      "loseDexToAC": false,
      "noEncumbrance": false,
      "mediumArmorFullSpeed": false,
      "heavyArmorFullSpeed": false
    },
    "contextNotes": [],
    "links": {
      "children": [],
      "charges": []
    },
    "tag": "",
    "useCustomTag": false,
    "armorProf": {
      "value": [],
      "custom": ""
    },
    "weaponProf": {
      "value": [],
      "custom": ""
    },
    "languages": {
      "value": [],
      "custom": ""
    },
    "flags": {
      "boolean": {},
      "dictionary": {}
    },
    "scriptCalls": [],
    "subType": "feat",
    "associations": {
      "classes": []
    },
    "showInQuickbar": false,
    "abilityType": "none",
    "crOffset": "",
    "disabled": false,
    "classSkills": {}
  },
  "ownership": {
    "default": 0
  },
  "_stats": {
    "systemId": "pf1",
    "systemVersion": "9.1",
    "coreVersion": "10.291",
    "createdTime": 1665428352073,
    "modifiedTime": 1689797878993,
    "lastModifiedBy": "ppv91YxratjWnkJi"
  },
  "effects": [],
  "folder": null,
  "sort": 0,
  "flags": {},
  "_key": "!items!BRQdtFwqqLnoy6ru"
}