{
  "_id": "cVjIeXABA0qqIccB",
  "name": "Expanded Summon Monster",
  "type": "feat",
  "img": "systems/pf1/icons/skills/violet_18.jpg",
  "system": {
    "description": {
      "value": "<em>You can summon allies beyond the reach of most conjurers.</em><br/><br/><b>Prerequisites</b><br/>Ability to cast a summon monster spell.<br/><br/><b>Benefits</b><br/>For each spell level 1-9, select two creatures from Table 2 below. You then add these creatures to the summon monster table of the same level, allowing you to summon them with the appropriate summon monster spell. Once made, these choices can't be changed.<br/><br/><b>Special</b><br/>You can take this feat multiple times. Each time you do, you can select two more monsters from the table below to add to the summon monster table of the same level. <br/> <table class='inner'><tr><td><b>1st Level</b></td><td><b>Source</b></td></tr> <tr><td>Antelope* (herd animal)</td><td>Bestiary 3 147</td></tr> <tr><td>Baboon* (primate)</td><td>Bestiary 2 212</td></tr> <tr><td>Badger*</td><td>Bestiary 2 40</td></tr> <tr><td>Great horned owl*</td><td>Bestiary 3 213</td></tr> <tr><td>Kangaroo* (marsupial)</td><td>Bestiary 3 191</td></tr> <tr><td>Snapping turtle*</td><td>Bestiary 2 273</td></tr> <tr><td>Stingray*</td><td>Bestiary 2 232</td></tr> <tr><td>Thylacine* (marsupial)</td><td>Bestiary 3 191</td></tr> <tr><td>Trumpeter swan*</td><td>Bestiary 4 257</td></tr> <tr><td>Vulture*</td><td>Bestiary 3 284</td></tr> </table> <br/> <table class='inner'><tr><td><b>2nd Level</b></td><td><b>Source</b></td></tr> <tr><td>Camel* (herd animal)</td><td>Bestiary 2 154</td></tr> <tr><td>Compsognathus* (dinosaur)</td><td>Bestiary 2 90</td></tr> <tr><td>Dimorphodon* (dinosaur)</td><td>Bestiary 4 58</td></tr> <tr><td>Gar*</td><td>Bestiary 2 128</td></tr> <tr><td>Giant gecko* (lizard)</td><td>Bestiary 3 186</td></tr> <tr><td>Giant tortoise*</td><td>Bestiary 4 263</td></tr> <tr><td>Giant weasel*</td><td>Bestiary 4 275</td></tr> <tr><td>Manta ray*</td><td>Bestiary 2 232</td></tr> <tr><td>Ram* (herd animal)</td><td>Bestiary 2 154</td></tr> <tr><td>Stag* (herd animal)</td><td>Bestiary 4 150</td></tr> </table> <br/> <table class='inner'><tr><td><b>3rd Level</b></td><td><b>Source</b></td></tr> <tr><td>Arbiter (inevitable)</td><td>Bestiary 2 162</td></tr> <tr><td>Augur (kyton)</td><td>Bestiary 3 171</td></tr> <tr><td>Axe beak*</td><td>Bestiary 3 29</td></tr> <tr><td>Azer</td><td>Bestiary 2 39</td></tr> <tr><td>Bull shark*</td><td>Bestiary 4 241</td></tr> <tr><td>Cacodaemon (daemon)</td><td>Bestiary 2 64</td></tr> <tr><td>Cassisian (angel)</td><td>Bestiary 2 26</td></tr> <tr><td>Cythnigot (qlippoth)</td><td>Bestiary 2 221</td></tr> <tr><td>Dire badger*</td><td>Bestiary 2 40</td></tr> <tr><td>Doru (div)</td><td>Bestiary 3 86</td></tr> <tr><td>Foo dog</td><td>Bestiary 3 120</td></tr> <tr><td>Giant porcupine*</td><td>Bestiary 3 222</td></tr> <tr><td>Lyrakien (azata)</td><td>Bestiary 2 38</td></tr> <tr><td>Paracletus (aeon)</td><td>Bestiary 2 11</td></tr> <tr><td>Silvanshee (agathion)</td><td>Bestiary 2 21</td></tr> <tr><td>Thoqqua</td><td>Bestiary 2 262</td></tr> <tr><td>Tripurasura (asura)</td><td>Bestiary 3 26</td></tr> <tr><td>Velociraptor (dinosaur)</td><td>Bestiary 4 59</td></tr> <tr><td>Voidworm (protean)</td><td>Bestiary 2 217</td></tr> </table> <br/> <table class='inner'><tr><td><b>4th Level</b></td><td><b>Source</b></td></tr> <tr><td>Crysmal</td><td>Bestiary 2 61</td></tr> <tr><td>Dimetrodon* (dinosaur)</td><td>Bestiary 3 78</td></tr> <tr><td>Dire weasel*</td><td>Bestiary 4 275</td></tr> <tr><td>D'ziriak</td><td>Bestiary 2 113</td></tr> <tr><td>Foo lion</td><td>Bestiary 3 120</td></tr> <tr><td>Giant seahorse*</td><td>Bestiary 4 234</td></tr> <tr><td>Giant skunk*</td><td>Bestiary 3 247</td></tr> <tr><td>Giant vulture*</td><td>Bestiary 3 284</td></tr> <tr><td>Giraffe* (herd animal)</td><td>Bestiary 4 150</td></tr> <tr><td>Great white shark*</td><td>Bestiary 4 241</td></tr> <tr><td>Howler</td><td>Bestiary 2 159</td></tr> <tr><td>Magmin</td><td>Bestiary 3 189</td></tr> <tr><td>Megaloceros* (megafauna)</td><td>Bestiary 2 187</td></tr> <tr><td>Pachycephalosaurus* (dinosaur)</td><td>Bestiary 3 79</td></tr> <tr><td>Parasaurolophus* (dinosaur)</td><td>Bestiary 2 91</td></tr> <tr><td>Schir (demon)</td><td>Bestiary 3 74</td></tr> <tr><td>Vulnudaemon (daemon)</td><td>Bestiary 3 63</td></tr> </table> <br/> <table class='inner'><tr><td><b>5th Level</b></td><td><b>Source</b></td></tr> <tr><td>Achaierai</td><td>Bestiary 2 7</td></tr> <tr><td>Archelon (megafauna)</td><td>Bestiary 3 192</td></tr> <tr><td>Belker</td><td>Bestiary 2 45</td></tr> <tr><td>Cerberi</td><td>Bestiary 3 51</td></tr> <tr><td>Emperor cobra* (snake)</td><td>Bestiary 2 252</td></tr> <tr><td>Giant gar*</td><td>Bestiary 2 128</td></tr> <tr><td>Glyptodon* (megafauna)</td><td>Bestiary 2 186</td></tr> <tr><td>Hippopotamus*</td><td>Bestiary 2 157</td></tr> <tr><td>Host devil</td><td>Bestiary 4 53</td></tr> <tr><td>Hypnalis</td><td>Bestiary 4 154</td></tr> <tr><td>Iguanodon* (dinosaur)</td><td>Bestiary 3 78</td></tr> <tr><td>Incubus (demon)</td><td>Bestiary 3 73</td></tr> <tr><td>Ceustodaemon (daemon)</td><td>Bestiary 2 65</td></tr> <tr><td>Megatherium* (megafauna)</td><td>Bestiary 2 187</td></tr> <tr><td>Mudlord</td><td>Bestiary 4 195</td></tr> <tr><td>Ostiarius (kyton)</td><td>Bestiary 4 176</td></tr> <tr><td>Shadow mastiff</td><td>Bestiary 3 241</td></tr> <tr><td>Styracosaurus (dinosaur)</td><td>Bestiary 4 59</td></tr> <tr><td>Tojanida</td><td>Bestiary 3 270</td></tr> <tr><td>Vulpinal (agathion)</td><td>Bestiary 2 22</td></tr> </table> <br/> <table class='inner'><tr><td><b>6th Level</b></td><td><b>Source</b></td></tr> <tr><td>Adhukait (asura)</td><td>Bestiary 3 22</td></tr> <tr><td>Allosaurus* (dinosaur)</td><td>Bestiary 2 90</td></tr> <tr><td>Animate dream</td><td>Bestiary 2 29</td></tr> <tr><td>Arsinoitherium* (megafauna)</td><td>Bestiary 2 186</td></tr> <tr><td>Axiomite</td><td>Bestiary 2 36</td></tr> <tr><td>Baluchitherium* (megafauna)</td><td>Bestiary 3 192</td></tr> <tr><td>Hellcat</td><td>Bestiary 2 153</td></tr> <tr><td>Hydrodaemon (daemon)</td><td>Bestiary 2 67</td></tr> <tr><td>Immense tortoise*</td><td>Bestiary 4 263</td></tr> <tr><td>Legion archon</td><td>Bestiary 3 19</td></tr> <tr><td>Megalania* (megafauna)</td><td>Bestiary 3 193</td></tr> <tr><td>Mihstu</td><td>Bestiary 2 190</td></tr> <tr><td>Naunet (protean)</td><td>Bestiary 2 216</td></tr> <tr><td>Pairaka (div)</td><td>Bestiary 3 88</td></tr> <tr><td>Shoggti (qlippoth)</td><td>Bestiary 2 225</td></tr> <tr><td>Theletos (aeon)</td><td>Bestiary 2 14</td></tr> <tr><td>Tylosaurus (dinosaur)</td><td>Bestiary 2 91</td></tr> </table> <br/> <table class='inner'><tr><td><b>7th Level</b></td><td><b>Source</b></td></tr> <tr><td>Avoral (agathion)</td><td>Bestiary 2 16</td></tr> <tr><td>Behemoth hippopotamus*</td><td>Bestiary 2 157</td></tr> <tr><td>Contract devil</td><td>Bestiary 3 76</td></tr> <tr><td>Ghawwas (div)</td><td>Bestiary 3 87</td></tr> <tr><td>Giant anaconda* (snake)</td><td>Bestiary 2 252</td></tr> <tr><td>Giant snapping turtle*</td><td>Bestiary 2 273</td></tr> <tr><td>Kalavakus (demon)</td><td>Bestiary 2 78</td></tr> <tr><td>Leukodaemon (daemon)</td><td>Bestiary 2 68</td></tr> <tr><td>Movanic deva (angel)</td><td>Bestiary 2 28</td></tr> <tr><td>Nyogoth (qlippoth)</td><td>Bestiary 2 224</td></tr> <tr><td>Piscodaemon (daemon)</td><td>Bestiary 2 72</td></tr> <tr><td>Sacristan (kyton)</td><td>Bestiary 4 177</td></tr> <tr><td>Shield archon</td><td>Bestiary 2 31</td></tr> <tr><td>Upasunda (asura)</td><td>Bestiary 3 27</td></tr> <tr><td>Whale*</td><td>Bestiary 2 282</td></tr> </table> <br/> <table class='inner'><tr><td><b>8th Level</b></td><td><b>Source</b></td></tr> <tr><td>Aghasura (asura)</td><td>Bestiary 3 23</td></tr> <tr><td>Baregara</td><td>Bestiary 3 34</td></tr> <tr><td>Basilosaurus* (megafauna)</td><td>Bestiary 3 193</td></tr> <tr><td>Chernobue (qlippoth)</td><td>Bestiary 2 220</td></tr> <tr><td>Coloxus (demon)</td><td>Bestiary 3 72</td></tr> <tr><td>Diplodocus* (dinosaur)</td><td>Bestiary 4 58</td></tr> <tr><td>Interlocutor (kyton)</td><td>Bestiary 3 174</td></tr> <tr><td>Kolyarut (inevitable)</td><td>Bestiary 2 163</td></tr> <tr><td>Leonal (agathion)</td><td>Bestiary 2 20</td></tr> <tr><td>Meladaemon (daemon)</td><td>Bestiary 2 69</td></tr> <tr><td>Monadic deva (angel)</td><td>Bestiary 2 27</td></tr> <tr><td>Omox (demon)</td><td>Bestiary 2 79</td></tr> <tr><td>Shira (div)</td><td>Bestiary 3 90</td></tr> <tr><td>Spinosaurus* (dinosaur)</td><td>Bestiary 3 79</td></tr> </table> <br/> <table class='inner'><tr><td><b>9th Level</b></td><td><b>Source</b></td></tr> <tr><td>Augnagar (qlippoth)</td><td>Bestiary 2 219</td></tr> <tr><td>Couatl</td><td>Bestiary 49</td></tr> <tr><td>Great white whale*</td><td>Bestiary 2 282</td></tr> <tr><td>Sepid (div)</td><td>Bestiary 3 89</td></tr> <tr><td>Storm giant</td><td>Bestiary 152</td></tr> <tr><td>Tarry demodand</td><td>Bestiary 3 71</td></tr> <tr><td>Valkyrie</td><td>Bestiary 3 277</td></tr></table>* This creature is summoned with the celestial template if you are good and the fiendish template if you are evil. If you are neutral, you can choose which template to apply to the creature. This summoned creature has an alignment that matches yours, regardless of its usual alignment. Summoning this creature makes the summoning spell's type match your alignment.</span>",
      "unidentified": ""
    },
    "tags": [
      "PFS",
      "General"
    ],
    "actions": [],
    "uses": {
      "per": null,
      "value": 0,
      "maxFormula": "",
      "autoDeductChargesCost": "1"
    },
    "attackNotes": [],
    "effectNotes": [],
    "changes": [],
    "changeFlags": {
      "loseDexToAC": false,
      "noEncumbrance": false,
      "mediumArmorFullSpeed": false,
      "heavyArmorFullSpeed": false
    },
    "contextNotes": [],
    "links": {
      "children": [],
      "charges": []
    },
    "tag": "",
    "useCustomTag": false,
    "armorProf": {
      "value": [],
      "custom": ""
    },
    "weaponProf": {
      "value": [],
      "custom": ""
    },
    "languages": {
      "value": [],
      "custom": ""
    },
    "flags": {
      "boolean": {},
      "dictionary": {}
    },
    "scriptCalls": [],
    "subType": "feat",
    "associations": {
      "classes": []
    },
    "showInQuickbar": false,
    "abilityType": "none",
    "crOffset": "",
    "disabled": false,
    "classSkills": {}
  },
  "ownership": {
    "default": 0
  },
  "_stats": {
    "systemId": "pf1",
    "systemVersion": "9.1",
    "coreVersion": "10.291",
    "createdTime": 1665428355729,
    "modifiedTime": 1689797893429,
    "lastModifiedBy": "ppv91YxratjWnkJi"
  },
  "effects": [],
  "folder": null,
  "sort": 0,
  "flags": {},
  "_key": "!items!cVjIeXABA0qqIccB"
}