{
  "_id": "I2XfbKBHjmI65Oxv",
  "name": "Expanded Enhance Arrows",
  "type": "feat",
  "img": "systems/pf1/icons/feats/lunge.jpg",
  "system": {
    "description": {
      "value": "<em>Your magical arrows produce a wider range of powers.</em><br/><br/><b>Prerequisites</b><br/>Enhance arrows class feature.<br/><br/><b>Benefits</b><br/>You add corrosive to the list of special properties you can grant your nonmagical arrows with your enhance arrows ability at 3rd level. At 5th level, you can add the ghost touch, limning, or planar special ability instead of distance. At 7th level, you can add the corrosive burst special ability.",
      "unidentified": ""
    },
    "tags": [
      "General"
    ],
    "actions": [],
    "uses": {
      "per": null,
      "value": 0,
      "maxFormula": "",
      "autoDeductChargesCost": "1"
    },
    "attackNotes": [],
    "effectNotes": [],
    "changes": [],
    "changeFlags": {
      "loseDexToAC": false,
      "noEncumbrance": false,
      "mediumArmorFullSpeed": false,
      "heavyArmorFullSpeed": false
    },
    "contextNotes": [],
    "links": {
      "children": [],
      "charges": []
    },
    "tag": "",
    "useCustomTag": false,
    "armorProf": {
      "value": [],
      "custom": ""
    },
    "weaponProf": {
      "value": [],
      "custom": ""
    },
    "languages": {
      "value": [],
      "custom": ""
    },
    "flags": {
      "boolean": {},
      "dictionary": {}
    },
    "scriptCalls": [],
    "subType": "feat",
    "associations": {
      "classes": []
    },
    "showInQuickbar": false,
    "abilityType": "none",
    "crOffset": "",
    "disabled": false,
    "classSkills": {}
  },
  "ownership": {
    "default": 0
  },
  "_stats": {
    "systemId": "pf1",
    "systemVersion": "9.1",
    "coreVersion": "10.291",
    "createdTime": 1665428353209,
    "modifiedTime": 1689797883513,
    "lastModifiedBy": "ppv91YxratjWnkJi"
  },
  "effects": [],
  "folder": null,
  "sort": 0,
  "flags": {},
  "_key": "!items!I2XfbKBHjmI65Oxv"
}