{
  "_id": "W3b80t8mcpoVcU3Z",
  "name": "Expanded Fiendish Resistance",
  "type": "feat",
  "img": "systems/pf1/icons/races/tiefling.png",
  "system": {
    "description": {
      "value": "<em>You gain extra fiendish resistances.</em><br/><br/><b>Prerequisites</b><br/>Tiefling.<br/><br/><b>Benefits</b><br/>Pick one of the following energy types that you do not already have resistance to: acid, cold, electricity, or fire. You gain resistance 5 to that energy type.<br/><br/><b>Special</b><br/>You can take this feat multiple times. Each time you do, pick another energy type you do not have resistance to. You gain resistance 5 to that energy type.",
      "unidentified": ""
    },
    "tags": [
      "PFS",
      "Racial",
      "Tiefling"
    ],
    "actions": [],
    "uses": {
      "per": null,
      "value": 0,
      "maxFormula": "",
      "autoDeductChargesCost": "1"
    },
    "attackNotes": [],
    "effectNotes": [],
    "changes": [],
    "changeFlags": {
      "loseDexToAC": false,
      "noEncumbrance": false,
      "mediumArmorFullSpeed": false,
      "heavyArmorFullSpeed": false
    },
    "contextNotes": [],
    "links": {
      "children": [],
      "charges": []
    },
    "tag": "",
    "useCustomTag": false,
    "armorProf": {
      "value": [],
      "custom": ""
    },
    "weaponProf": {
      "value": [],
      "custom": ""
    },
    "languages": {
      "value": [],
      "custom": ""
    },
    "flags": {
      "boolean": {},
      "dictionary": {}
    },
    "scriptCalls": [],
    "subType": "feat",
    "associations": {
      "classes": []
    },
    "showInQuickbar": false,
    "abilityType": "none",
    "crOffset": "",
    "disabled": false,
    "classSkills": {}
  },
  "ownership": {
    "default": 0
  },
  "_stats": {
    "systemId": "pf1",
    "systemVersion": "9.1",
    "coreVersion": "10.291",
    "createdTime": 1665428355020,
    "modifiedTime": 1689797890313,
    "lastModifiedBy": "ppv91YxratjWnkJi"
  },
  "effects": [],
  "folder": null,
  "sort": 0,
  "flags": {},
  "_key": "!items!W3b80t8mcpoVcU3Z"
}