{
  "_id": "J9N5K79IaXDmJkAQ",
  "name": "Experienced Ghost Hunter",
  "type": "feat",
  "img": "systems/pf1/icons/skills/blue_37.jpg",
  "system": {
    "description": {
      "value": "<em>You've fought enough specters that doing so has become second nature.</em><br/><br/><b>Prerequisites</b><br/>Character level 7th, duskwalker, ghost hunter racial trait.<br/><br/><b>Benefits</b><br/>You can use your ghost hunter ability to grant your weapons the ghost touchspecial ability as a swift action. You can activate ghost hunter an additional time each day.",
      "unidentified": ""
    },
    "tags": [
      "PFS",
      "Racial",
      "Duskwalker"
    ],
    "actions": [],
    "uses": {
      "per": null,
      "value": 0,
      "maxFormula": "",
      "autoDeductChargesCost": "1"
    },
    "attackNotes": [],
    "effectNotes": [],
    "changes": [],
    "changeFlags": {
      "loseDexToAC": false,
      "noEncumbrance": false,
      "mediumArmorFullSpeed": false,
      "heavyArmorFullSpeed": false
    },
    "contextNotes": [],
    "links": {
      "children": [],
      "charges": []
    },
    "tag": "",
    "useCustomTag": false,
    "armorProf": {
      "value": [],
      "custom": ""
    },
    "weaponProf": {
      "value": [],
      "custom": ""
    },
    "languages": {
      "value": [],
      "custom": ""
    },
    "flags": {
      "boolean": {},
      "dictionary": {}
    },
    "scriptCalls": [],
    "subType": "feat",
    "associations": {
      "classes": []
    },
    "showInQuickbar": false,
    "abilityType": "none",
    "crOffset": "",
    "disabled": false,
    "classSkills": {}
  },
  "ownership": {
    "default": 0
  },
  "_stats": {
    "systemId": "pf1",
    "systemVersion": "9.1",
    "coreVersion": "10.291",
    "createdTime": 1665428353305,
    "modifiedTime": 1689797883946,
    "lastModifiedBy": "ppv91YxratjWnkJi"
  },
  "effects": [],
  "folder": null,
  "sort": 0,
  "flags": {},
  "_key": "!items!J9N5K79IaXDmJkAQ"
}