{
  "_id": "UMILhEGQEBiLJDea",
  "name": "Extend the Bulwark",
  "type": "feat",
  "img": "systems/pf1/icons/items/armor/breastplate-agile.PNG",
  "system": {
    "description": {
      "value": "<em>You can bolster a trained ally's defenses by interposing your own armored body.</em><br/><br/><b>Benefits</b><br/>If you are wearing medium or heavy armor and are adjacent to an ally who also has this feat, as a free action, you may give your ally a circumstance bonus to her AC equal to half the armor bonus provided by your armor. This bonus lasts for 1 round. During this round, you gain no bonus to your AC from your armor.<br/><br/><b>Combat Trick</b><br/>You can spend 5 stamina points either to use this feat without losing your own armor bonus to AC, or to use this feat to grant the bonus to an ally. (Magical Marketplace 6)",
      "unidentified": ""
    },
    "tags": [
      "PFS",
      "Combat",
      "Teamwork"
    ],
    "actions": [],
    "uses": {
      "per": null,
      "value": 0,
      "maxFormula": "",
      "autoDeductChargesCost": "1"
    },
    "attackNotes": [],
    "effectNotes": [],
    "changes": [],
    "changeFlags": {
      "loseDexToAC": false,
      "noEncumbrance": false,
      "mediumArmorFullSpeed": false,
      "heavyArmorFullSpeed": false
    },
    "contextNotes": [],
    "links": {
      "children": [],
      "charges": []
    },
    "tag": "",
    "useCustomTag": false,
    "armorProf": {
      "value": [],
      "custom": ""
    },
    "weaponProf": {
      "value": [],
      "custom": ""
    },
    "languages": {
      "value": [],
      "custom": ""
    },
    "flags": {
      "boolean": {},
      "dictionary": {}
    },
    "scriptCalls": [],
    "subType": "feat",
    "associations": {
      "classes": []
    },
    "showInQuickbar": false,
    "abilityType": "none",
    "crOffset": "",
    "disabled": false,
    "classSkills": {}
  },
  "ownership": {
    "default": 0
  },
  "_stats": {
    "systemId": "pf1",
    "systemVersion": "9.1",
    "coreVersion": "10.291",
    "createdTime": 1665428354903,
    "modifiedTime": 1689797889615,
    "lastModifiedBy": "ppv91YxratjWnkJi"
  },
  "effects": [],
  "folder": null,
  "sort": 0,
  "flags": {},
  "_key": "!items!UMILhEGQEBiLJDea"
}