{
  "_id": "aRK7f1ZpAYsBXyZR",
  "name": "Extend Spell",
  "type": "feat",
  "img": "systems/pf1/icons/feats/extend-spell.jpg",
  "system": {
    "description": {
      "value": "<p><em>You can make your spells last twice as long.</em> <br /><br /></p>\n<p><strong>Benefits</strong></p>\n<p class=\"stat-block-1\">An extended spell lasts twice as long as normal. A spell with a duration of concentration, instantaneous, or permanent is not affected by this feat. An extended spell uses up a spell slot one level higher than the spell's actual level.</p>\n<p class=\"stat-block-1\"><strong><br class=\"Apple-interchange-newline\" />Usage</strong>: create copies of spells and adjust them.</p>",
      "unidentified": ""
    },
    "tags": [
      "Metamagic",
      "Magic"
    ],
    "actions": [],
    "uses": {
      "per": null,
      "value": 0,
      "maxFormula": "",
      "autoDeductChargesCost": "1"
    },
    "attackNotes": [],
    "effectNotes": [],
    "changes": [],
    "changeFlags": {
      "loseDexToAC": false,
      "noEncumbrance": false,
      "mediumArmorFullSpeed": false,
      "heavyArmorFullSpeed": false
    },
    "contextNotes": [],
    "links": {
      "children": [],
      "charges": []
    },
    "tag": "extendSpell",
    "useCustomTag": false,
    "armorProf": {
      "value": [],
      "custom": ""
    },
    "weaponProf": {
      "value": [],
      "custom": ""
    },
    "languages": {
      "value": [],
      "custom": ""
    },
    "flags": {
      "boolean": {},
      "dictionary": {}
    },
    "scriptCalls": [],
    "subType": "feat",
    "associations": {
      "classes": []
    },
    "showInQuickbar": false,
    "abilityType": "none",
    "crOffset": "",
    "disabled": false,
    "classSkills": {},
    "auraStrength": 0
  },
  "ownership": {
    "default": 0
  },
  "_stats": {
    "systemId": "pf1",
    "systemVersion": "9.1",
    "coreVersion": "10.291",
    "createdTime": 1665428355587,
    "modifiedTime": 1689797892628,
    "lastModifiedBy": "ppv91YxratjWnkJi"
  },
  "effects": [],
  "folder": null,
  "sort": 0,
  "flags": {},
  "_key": "!items!aRK7f1ZpAYsBXyZR"
}