{
  "_id": "WsIpJAKyQGc8g4Ta",
  "name": "Extreme Prejudice",
  "type": "feat",
  "img": "systems/pf1/icons/skills/red_01.jpg",
  "system": {
    "description": {
      "value": "<em>Your hatred of a particular type of creature has honed your killer instinct.</em><br/><br/><b>Prerequisites</b><br/>Seething Hatred, sneak attack +3d6, studied target class feature.<br/><br/><b>Benefits</b><br/>When you succeed at a sneak attack against a creature you selected as the target of your Seething Hatred feat, you use d8s to roll sneak attack damage instead of d6s.<br/><br/><b>Combat Trick</b><br/>When you succeed at a sneak attack against a creature that is not the target of your Seething Hatred feat, you can spend 5 stamina points to treat the creature as if it were the target of your Seething Hatred for that attack.",
      "unidentified": ""
    },
    "tags": [
      "PFS",
      "Combat"
    ],
    "actions": [],
    "uses": {
      "per": null,
      "value": 0,
      "maxFormula": "",
      "autoDeductChargesCost": "1"
    },
    "attackNotes": [],
    "effectNotes": [],
    "changes": [],
    "changeFlags": {
      "loseDexToAC": false,
      "noEncumbrance": false,
      "mediumArmorFullSpeed": false,
      "heavyArmorFullSpeed": false
    },
    "contextNotes": [],
    "links": {
      "children": [],
      "charges": []
    },
    "tag": "",
    "useCustomTag": false,
    "armorProf": {
      "value": [],
      "custom": ""
    },
    "weaponProf": {
      "value": [],
      "custom": ""
    },
    "languages": {
      "value": [],
      "custom": ""
    },
    "flags": {
      "boolean": {},
      "dictionary": {}
    },
    "scriptCalls": [],
    "subType": "feat",
    "associations": {
      "classes": []
    },
    "showInQuickbar": false,
    "abilityType": "none",
    "crOffset": "",
    "disabled": false,
    "classSkills": {}
  },
  "ownership": {
    "default": 0
  },
  "_stats": {
    "systemId": "pf1",
    "systemVersion": "9.1",
    "coreVersion": "10.291",
    "createdTime": 1665428355076,
    "modifiedTime": 1689797890629,
    "lastModifiedBy": "ppv91YxratjWnkJi"
  },
  "effects": [],
  "folder": null,
  "sort": 0,
  "flags": {},
  "_key": "!items!WsIpJAKyQGc8g4Ta"
}