{
  "_id": "zZCAMcfrQpXLO8hA",
  "name": "Extra Croaking",
  "type": "feat",
  "img": "systems/pf1/icons/skills/emerald_05.jpg",
  "system": {
    "description": {
      "value": "<em>Your vocal chords are especially tough and allow you to croak more often.</em><br/><br/><b>Prerequisites</b><br/>Boggard, terrifying croak.<br/><br/><b>Benefits</b><br/>You gain one extra use of terrifying croak per hour. If your recharge time is less than 1 hour, you instead gain an extra use each time the ability recharges.",
      "unidentified": ""
    },
    "tags": [
      "General"
    ],
    "actions": [],
    "uses": {
      "per": null,
      "value": 0,
      "maxFormula": "",
      "autoDeductChargesCost": "1"
    },
    "attackNotes": [],
    "effectNotes": [],
    "changes": [],
    "changeFlags": {
      "loseDexToAC": false,
      "noEncumbrance": false,
      "mediumArmorFullSpeed": false,
      "heavyArmorFullSpeed": false
    },
    "contextNotes": [],
    "links": {
      "children": [],
      "charges": []
    },
    "tag": "",
    "useCustomTag": false,
    "armorProf": {
      "value": [],
      "custom": ""
    },
    "weaponProf": {
      "value": [],
      "custom": ""
    },
    "languages": {
      "value": [],
      "custom": ""
    },
    "flags": {
      "boolean": {},
      "dictionary": {}
    },
    "scriptCalls": [],
    "subType": "feat",
    "associations": {
      "classes": []
    },
    "showInQuickbar": false,
    "abilityType": "none",
    "crOffset": "",
    "disabled": false,
    "classSkills": {}
  },
  "ownership": {
    "default": 0
  },
  "_stats": {
    "systemId": "pf1",
    "systemVersion": "9.1",
    "coreVersion": "10.291",
    "createdTime": 1665428359373,
    "modifiedTime": 1689797905045,
    "lastModifiedBy": "ppv91YxratjWnkJi"
  },
  "effects": [],
  "folder": null,
  "sort": 0,
  "flags": {},
  "_key": "!items!zZCAMcfrQpXLO8hA"
}