{
  "_id": "ynFJKewcWlKKV8KF",
  "name": "Extra Channel",
  "type": "feat",
  "img": "systems/pf1/icons/feats/extra-channel.jpg",
  "system": {
    "description": {
      "value": "<p><em>You can channel divine energy more often.</em><br /><br /><strong>Prerequisites</strong><br />Channel energy class feature.<br /><br /><strong>Benefits</strong><br />You can channel energy two additional times per day.<br /><br /><strong>Special</strong><br />If a paladin with the ability to channel positive energy takes this feat, she can use lay on hands four additional times per day, but only to channel positive energy. If a warpriest with the ability to channel energy takes this feat, he gains four additional uses of fervor per day, but can use them only to channel energy.</p>\n<p>&nbsp;</p>\n<p><strong>Usage</strong>: add additional charges to respective feature Maximum Usage Formula manually.</p>",
      "unidentified": ""
    },
    "tags": [
      "PFS",
      "Channeling"
    ],
    "actions": [],
    "uses": {
      "per": null,
      "value": 0,
      "maxFormula": "",
      "autoDeductChargesCost": "1"
    },
    "attackNotes": [],
    "effectNotes": [],
    "changes": [],
    "changeFlags": {
      "loseDexToAC": false,
      "noEncumbrance": false,
      "mediumArmorFullSpeed": false,
      "heavyArmorFullSpeed": false
    },
    "contextNotes": [],
    "links": {
      "children": [],
      "charges": []
    },
    "tag": "extraChannel",
    "useCustomTag": false,
    "armorProf": {
      "value": [],
      "custom": ""
    },
    "weaponProf": {
      "value": [],
      "custom": ""
    },
    "languages": {
      "value": [],
      "custom": ""
    },
    "flags": {
      "boolean": {},
      "dictionary": {}
    },
    "scriptCalls": [],
    "subType": "feat",
    "associations": {
      "classes": []
    },
    "showInQuickbar": false,
    "abilityType": "none",
    "crOffset": "",
    "disabled": false,
    "classSkills": {},
    "auraStrength": 0
  },
  "ownership": {
    "default": 0
  },
  "_stats": {
    "systemId": "pf1",
    "systemVersion": "9.1",
    "coreVersion": "10.291",
    "createdTime": 1665428358945,
    "modifiedTime": 1689797904276,
    "lastModifiedBy": "ppv91YxratjWnkJi"
  },
  "effects": [],
  "folder": null,
  "sort": 0,
  "flags": {},
  "_key": "!items!ynFJKewcWlKKV8KF"
}