{
  "_id": "RZIkQuamfSA2qpe8",
  "name": "Extra Investigator Talent",
  "type": "feat",
  "img": "icons/equipment/head/goggles-leather-blue.webp",
  "system": {
    "description": {
      "value": "<em>You learn a new way to use your training and inspiration.</em><br/><br/><b>Prerequisites</b><br/>Investigator talent class feature.<br/><br/><b>Benefits</b><br/>You gain one additional investigator talent. You must meet the prerequisites for this investigator talent.<br/><br/><b>Special</b><br/>You can take this feat multiple times. Each time you do, you gain another investigator talent.",
      "unidentified": ""
    },
    "tags": [
      "PFS",
      "General"
    ],
    "actions": [],
    "uses": {
      "per": null,
      "value": 0,
      "maxFormula": "",
      "autoDeductChargesCost": "1"
    },
    "attackNotes": [],
    "effectNotes": [],
    "changes": [],
    "changeFlags": {
      "loseDexToAC": false,
      "noEncumbrance": false,
      "mediumArmorFullSpeed": false,
      "heavyArmorFullSpeed": false
    },
    "contextNotes": [],
    "links": {
      "children": [],
      "charges": []
    },
    "tag": "",
    "useCustomTag": false,
    "armorProf": {
      "value": [],
      "custom": ""
    },
    "weaponProf": {
      "value": [],
      "custom": ""
    },
    "languages": {
      "value": [],
      "custom": ""
    },
    "flags": {
      "boolean": {},
      "dictionary": {}
    },
    "scriptCalls": [],
    "subType": "feat",
    "associations": {
      "classes": []
    },
    "showInQuickbar": false,
    "abilityType": "none",
    "crOffset": "",
    "disabled": false,
    "classSkills": {}
  },
  "ownership": {
    "default": 0
  },
  "_stats": {
    "systemId": "pf1",
    "systemVersion": "9.1",
    "coreVersion": "10.291",
    "createdTime": 1665428354454,
    "modifiedTime": 1689797887738,
    "lastModifiedBy": "ppv91YxratjWnkJi"
  },
  "effects": [],
  "folder": null,
  "sort": 0,
  "flags": {},
  "_key": "!items!RZIkQuamfSA2qpe8"
}