{
  "_id": "szokh2rwH9HEhi0M",
  "name": "Extra Panache",
  "type": "feat",
  "img": "systems/pf1/icons/skills/blue_10.jpg",
  "system": {
    "description": {
      "value": "<em>You have more panache than the ordinary swashbuckler.</em><br/><br/><b>Prerequisites</b><br/>Amateur Swashbuckler or panache class feature.<br/><br/><b>Benefits</b><br/>You gain two more panache points at the start of each day, and your maximum panache increases by two.<br/><br/><b>Special</b><br/>If you have levels in the swashbuckler class, you can take this feat multiple times. Its effects stack.",
      "unidentified": ""
    },
    "tags": [
      "PFS",
      "Panache"
    ],
    "actions": [],
    "uses": {
      "per": null,
      "value": 0,
      "maxFormula": "",
      "autoDeductChargesCost": "1"
    },
    "attackNotes": [],
    "effectNotes": [],
    "changes": [],
    "changeFlags": {
      "loseDexToAC": false,
      "noEncumbrance": false,
      "mediumArmorFullSpeed": false,
      "heavyArmorFullSpeed": false
    },
    "contextNotes": [],
    "links": {
      "children": [],
      "charges": []
    },
    "tag": "",
    "useCustomTag": false,
    "armorProf": {
      "value": [],
      "custom": ""
    },
    "weaponProf": {
      "value": [],
      "custom": ""
    },
    "languages": {
      "value": [],
      "custom": ""
    },
    "flags": {
      "boolean": {},
      "dictionary": {}
    },
    "scriptCalls": [],
    "subType": "feat",
    "associations": {
      "classes": []
    },
    "showInQuickbar": false,
    "abilityType": "none",
    "crOffset": "",
    "disabled": false,
    "classSkills": {}
  },
  "ownership": {
    "default": 0
  },
  "_stats": {
    "systemId": "pf1",
    "systemVersion": "9.1",
    "coreVersion": "10.291",
    "createdTime": 1665428358239,
    "modifiedTime": 1689797901832,
    "lastModifiedBy": "ppv91YxratjWnkJi"
  },
  "effects": [],
  "folder": null,
  "sort": 0,
  "flags": {},
  "_key": "!items!szokh2rwH9HEhi0M"
}