{
  "_id": "SUWo31FqTHbnQex4",
  "name": "Extra Contingency",
  "type": "feat",
  "img": "systems/pf1/icons/spells/evil-eye-eerie-3.jpg",
  "system": {
    "description": {
      "value": "<em>You can manage multiple contingency effects.</em><br/><br/><b>Prerequisites</b><br/>Character level 19th.<br/><br/><b>Benefits</b><br/>You can have two contingency effects active at one time. If they would both trigger on the same round, one (chosen randomly) does not trigger until 1 round later.<br/><br/><b>Normal</b><br/>You can benefit from only a single contingency active at a time.",
      "unidentified": ""
    },
    "tags": [
      "PFS",
      "General"
    ],
    "actions": [],
    "uses": {
      "per": null,
      "value": 0,
      "maxFormula": "",
      "autoDeductChargesCost": "1"
    },
    "attackNotes": [],
    "effectNotes": [],
    "changes": [],
    "changeFlags": {
      "loseDexToAC": false,
      "noEncumbrance": false,
      "mediumArmorFullSpeed": false,
      "heavyArmorFullSpeed": false
    },
    "contextNotes": [],
    "links": {
      "children": [],
      "charges": []
    },
    "tag": "",
    "useCustomTag": false,
    "armorProf": {
      "value": [],
      "custom": ""
    },
    "weaponProf": {
      "value": [],
      "custom": ""
    },
    "languages": {
      "value": [],
      "custom": ""
    },
    "flags": {
      "boolean": {},
      "dictionary": {}
    },
    "scriptCalls": [],
    "subType": "feat",
    "associations": {
      "classes": []
    },
    "showInQuickbar": false,
    "abilityType": "none",
    "crOffset": "",
    "disabled": false,
    "classSkills": {}
  },
  "ownership": {
    "default": 0
  },
  "_stats": {
    "systemId": "pf1",
    "systemVersion": "9.1",
    "coreVersion": "10.291",
    "createdTime": 1665428354518,
    "modifiedTime": 1689797888106,
    "lastModifiedBy": "ppv91YxratjWnkJi"
  },
  "effects": [],
  "folder": null,
  "sort": 0,
  "flags": {},
  "_key": "!items!SUWo31FqTHbnQex4"
}