{
  "_id": "HeMU8wIE6El4aHeX",
  "name": "Extra Lay on Hands",
  "type": "feat",
  "img": "systems/pf1/icons/feats/extra-lay-on-hands.jpg",
  "system": {
    "description": {
      "value": "<p><em>You can use your lay on hands ability more often.</em><br /><br /><strong>Prerequisites</strong><br />Lay on hands class feature.<br /><br /><strong>Benefits</strong><br />You can use your lay on hands ability two additional times per day.<br /><br /><strong>Special</strong><br />You can gain Extra Lay On Hands multiple times. Its effects stack.</p>\n<p>&nbsp;</p>\n<p><strong>Usage</strong>: add additional charges to Lay On Hands feature Maximum Usage Formula manually.</p>",
      "unidentified": ""
    },
    "tags": [
      "PFS",
      "General"
    ],
    "actions": [],
    "uses": {
      "per": null,
      "value": 0,
      "maxFormula": "",
      "autoDeductChargesCost": "1"
    },
    "attackNotes": [],
    "effectNotes": [],
    "changes": [],
    "changeFlags": {
      "loseDexToAC": false,
      "noEncumbrance": false,
      "mediumArmorFullSpeed": false,
      "heavyArmorFullSpeed": false
    },
    "contextNotes": [],
    "links": {
      "children": [],
      "charges": []
    },
    "tag": "extraLayOnHands",
    "useCustomTag": false,
    "armorProf": {
      "value": [],
      "custom": ""
    },
    "weaponProf": {
      "value": [],
      "custom": ""
    },
    "languages": {
      "value": [],
      "custom": ""
    },
    "flags": {
      "boolean": {},
      "dictionary": {}
    },
    "scriptCalls": [],
    "subType": "feat",
    "associations": {
      "classes": []
    },
    "showInQuickbar": false,
    "abilityType": "none",
    "crOffset": "",
    "disabled": false,
    "classSkills": {},
    "auraStrength": 0
  },
  "ownership": {
    "default": 0
  },
  "_stats": {
    "systemId": "pf1",
    "systemVersion": "9.1",
    "coreVersion": "10.291",
    "createdTime": 1665428353171,
    "modifiedTime": 1689797883350,
    "lastModifiedBy": "ppv91YxratjWnkJi"
  },
  "effects": [],
  "folder": null,
  "sort": 0,
  "flags": {},
  "_key": "!items!HeMU8wIE6El4aHeX"
}