{
  "_id": "OjzmebOWn08pSwcH",
  "name": "Eye for Ingredients",
  "type": "feat",
  "img": "icons/commodities/materials/powder-red-green-yellow.webp",
  "system": {
    "description": {
      "value": "<em>Your keen eyes help you find better deals on magical components for your spells.</em><br/><br/><b>Prerequisites</b><br/>Eschew Materials, Appraise 6 ranks, Spellcraft 6 ranks.<br/><br/><b>Benefits</b><br/>When in a large city or larger settlement, you can search the markets carefully for 4 hours in order to purchase material components for your spells at a 10% discount. You can purchase up to 1,000 gp worth of material components (which costs you 900 gp) each day. These cheaper components work perfectly well for their spells, but their resale value is also 10% less.",
      "unidentified": ""
    },
    "tags": [
      "General"
    ],
    "actions": [],
    "uses": {
      "per": null,
      "value": 0,
      "maxFormula": "",
      "autoDeductChargesCost": "1"
    },
    "attackNotes": [],
    "effectNotes": [],
    "changes": [],
    "changeFlags": {
      "loseDexToAC": false,
      "noEncumbrance": false,
      "mediumArmorFullSpeed": false,
      "heavyArmorFullSpeed": false
    },
    "contextNotes": [],
    "links": {
      "children": [],
      "charges": []
    },
    "tag": "",
    "useCustomTag": false,
    "armorProf": {
      "value": [],
      "custom": ""
    },
    "weaponProf": {
      "value": [],
      "custom": ""
    },
    "languages": {
      "value": [],
      "custom": ""
    },
    "flags": {
      "boolean": {},
      "dictionary": {}
    },
    "scriptCalls": [],
    "subType": "feat",
    "associations": {
      "classes": []
    },
    "showInQuickbar": false,
    "abilityType": "none",
    "crOffset": "",
    "disabled": false,
    "classSkills": {}
  },
  "ownership": {
    "default": 0
  },
  "_stats": {
    "systemId": "pf1",
    "systemVersion": "9.1",
    "coreVersion": "10.291",
    "createdTime": 1665428353972,
    "modifiedTime": 1689797886375,
    "lastModifiedBy": "ppv91YxratjWnkJi"
  },
  "effects": [],
  "folder": null,
  "sort": 0,
  "flags": {},
  "_key": "!items!OjzmebOWn08pSwcH"
}