{
  "_id": "UtPVPs0TCZUkFRkh",
  "name": "Familiar Bond",
  "type": "feat",
  "img": "systems/pf1/icons/skills/violet_18.jpg",
  "system": {
    "description": {
      "value": "<em>You have learned a ritual that allows you to gain a familiar.</em><br/><br/><b>Prerequisites</b><br/>Iron Will.<br/><br/><b>Benefits</b><br/>You gain a familiar, as the wizard arcane bond class feature. You do not gain the special ability the familiar normally grants its master, and the familiar does not gain the deliver touch spells, scry on familiar, share spells, speak with animals of its kind, or spell resistance special abilities. Otherwise, your total Hit Dice are used as your wizard level for determining the familiar's abilities.<br/><br/><b>Special</b><br/>If you have (or later gain) levels in a class that grants a familiar, whenever you select a familiar, you can either base your familiar's abilities on your total Hit Dice per this feat (including the restrictions on its special abilities), or choose to apply only your levels in classes that grant a familiar (and thus gain all the special abilities that familiar would grant based on those class levels). You can never have more than one familiar.",
      "unidentified": ""
    },
    "tags": [
      "PFS",
      "General"
    ],
    "actions": [],
    "uses": {
      "per": null,
      "value": 0,
      "maxFormula": "",
      "autoDeductChargesCost": "1"
    },
    "attackNotes": [],
    "effectNotes": [],
    "changes": [],
    "changeFlags": {
      "loseDexToAC": false,
      "noEncumbrance": false,
      "mediumArmorFullSpeed": false,
      "heavyArmorFullSpeed": false
    },
    "contextNotes": [],
    "links": {
      "children": [],
      "charges": []
    },
    "tag": "",
    "useCustomTag": false,
    "armorProf": {
      "value": [],
      "custom": ""
    },
    "weaponProf": {
      "value": [],
      "custom": ""
    },
    "languages": {
      "value": [],
      "custom": ""
    },
    "flags": {
      "boolean": {},
      "dictionary": {}
    },
    "scriptCalls": [],
    "subType": "feat",
    "associations": {
      "classes": []
    },
    "showInQuickbar": false,
    "abilityType": "none",
    "crOffset": "",
    "disabled": false,
    "classSkills": {}
  },
  "ownership": {
    "default": 0
  },
  "_stats": {
    "systemId": "pf1",
    "systemVersion": "9.1",
    "coreVersion": "10.291",
    "createdTime": 1665428354942,
    "modifiedTime": 1689797889904,
    "lastModifiedBy": "ppv91YxratjWnkJi"
  },
  "effects": [],
  "folder": null,
  "sort": 0,
  "flags": {},
  "_key": "!items!UtPVPs0TCZUkFRkh"
}