{
  "_id": "vAdKJHHSJhUI2vKs",
  "name": "Far-Roaming Familiar",
  "type": "feat",
  "img": "systems/pf1/icons/spells/wind-magenta-1.jpg",
  "system": {
    "description": {
      "value": "<em>Distance can't sever the bond between you and your familiar.</em><br/><br/><b>Prerequisites</b><br/>Intelligence 13, must have a familiar.<br/><br/><b>Benefits</b><br/>You retain your empathic link to your familiar regardless of distance, though lead blocks the link at distances greater than 1 mile (similar to the way lead blocks detect magic effects).",
      "unidentified": ""
    },
    "tags": [
      "PFS",
      "General"
    ],
    "actions": [],
    "uses": {
      "per": null,
      "value": 0,
      "maxFormula": "",
      "autoDeductChargesCost": "1"
    },
    "attackNotes": [],
    "effectNotes": [],
    "changes": [],
    "changeFlags": {
      "loseDexToAC": false,
      "noEncumbrance": false,
      "mediumArmorFullSpeed": false,
      "heavyArmorFullSpeed": false
    },
    "contextNotes": [],
    "links": {
      "children": [],
      "charges": []
    },
    "tag": "",
    "useCustomTag": false,
    "armorProf": {
      "value": [],
      "custom": ""
    },
    "weaponProf": {
      "value": [],
      "custom": ""
    },
    "languages": {
      "value": [],
      "custom": ""
    },
    "flags": {
      "boolean": {},
      "dictionary": {}
    },
    "scriptCalls": [],
    "subType": "feat",
    "associations": {
      "classes": []
    },
    "showInQuickbar": false,
    "abilityType": "none",
    "crOffset": "",
    "disabled": false,
    "classSkills": {}
  },
  "ownership": {
    "default": 0
  },
  "_stats": {
    "systemId": "pf1",
    "systemVersion": "9.1",
    "coreVersion": "10.291",
    "createdTime": 1665428358740,
    "modifiedTime": 1689797902914,
    "lastModifiedBy": "ppv91YxratjWnkJi"
  },
  "effects": [],
  "folder": null,
  "sort": 0,
  "flags": {},
  "_key": "!items!vAdKJHHSJhUI2vKs"
}