{
  "_id": "0eAUSb36NrbfESze",
  "name": "Fascination Jinx",
  "type": "feat",
  "img": "systems/pf1/icons/skills/violet_01.jpg",
  "system": {
    "description": {
      "value": "<em>If you jinx an already fascinated creature, it doesn't fully recover until the jinx ends.</em><br/><br/><b>Prerequisites</b><br/>Bardic performance class feature, Halfling Jinx trait.<br/><br/><b>Benefits</b><br/>If you jinx a creature under the effect of a bard's fascinate ability, it also takes a -10 penalty on initiative checks while affected by the jinx. A creature under the effect of your fascinate ability has a -2 penalty on its save against your jinx.",
      "unidentified": ""
    },
    "tags": [
      "PFS",
      "Racial",
      "Halfling"
    ],
    "actions": [],
    "uses": {
      "per": null,
      "value": 0,
      "maxFormula": "",
      "autoDeductChargesCost": "1"
    },
    "attackNotes": [],
    "effectNotes": [],
    "changes": [],
    "changeFlags": {
      "loseDexToAC": false,
      "noEncumbrance": false,
      "mediumArmorFullSpeed": false,
      "heavyArmorFullSpeed": false
    },
    "contextNotes": [],
    "links": {
      "children": [],
      "charges": []
    },
    "tag": "",
    "useCustomTag": false,
    "armorProf": {
      "value": [],
      "custom": ""
    },
    "weaponProf": {
      "value": [],
      "custom": ""
    },
    "languages": {
      "value": [],
      "custom": ""
    },
    "flags": {
      "boolean": {},
      "dictionary": {}
    },
    "scriptCalls": [],
    "subType": "feat",
    "associations": {
      "classes": []
    },
    "showInQuickbar": false,
    "abilityType": "none",
    "crOffset": "",
    "disabled": false,
    "classSkills": {}
  },
  "ownership": {
    "default": 0
  },
  "_stats": {
    "systemId": "pf1",
    "systemVersion": "9.1",
    "coreVersion": "10.291",
    "createdTime": 1665428350623,
    "modifiedTime": 1689797874135,
    "lastModifiedBy": "ppv91YxratjWnkJi"
  },
  "effects": [],
  "folder": null,
  "sort": 0,
  "flags": {},
  "_key": "!items!0eAUSb36NrbfESze"
}