{
  "_id": "ggHoBrRoLXJSozSQ",
  "name": "Favored Judgment",
  "type": "feat",
  "img": "systems/pf1/icons/skills/light_03.jpg",
  "system": {
    "description": {
      "value": "<em>Your judgment against a particular type of creature is particularly harsh.</em><br/><br/><b>Prerequisites</b><br/>Wis 13, judgment class feature.<br/><br/><b>Benefits</b><br/>Select a favored race from the ranger's favored enemies chart. Any sacred or profane bonus you gain from a judgment is 1 higher for attacks you make against or take from creatures that match the selected favored enemy.<br/><br/><b>Special</b><br/>You can gain this feat multiple times. Its effects do not stack. Each time you take the feat, it applies to a different favored enemy.",
      "unidentified": ""
    },
    "tags": [
      "PFS",
      "General"
    ],
    "actions": [],
    "uses": {
      "per": null,
      "value": 0,
      "maxFormula": "",
      "autoDeductChargesCost": "1"
    },
    "attackNotes": [],
    "effectNotes": [],
    "changes": [],
    "changeFlags": {
      "loseDexToAC": false,
      "noEncumbrance": false,
      "mediumArmorFullSpeed": false,
      "heavyArmorFullSpeed": false
    },
    "contextNotes": [],
    "links": {
      "children": [],
      "charges": []
    },
    "tag": "",
    "useCustomTag": false,
    "armorProf": {
      "value": [],
      "custom": ""
    },
    "weaponProf": {
      "value": [],
      "custom": ""
    },
    "languages": {
      "value": [],
      "custom": ""
    },
    "flags": {
      "boolean": {},
      "dictionary": {}
    },
    "scriptCalls": [],
    "subType": "feat",
    "associations": {
      "classes": []
    },
    "showInQuickbar": false,
    "abilityType": "none",
    "crOffset": "",
    "disabled": false,
    "classSkills": {}
  },
  "ownership": {
    "default": 0
  },
  "_stats": {
    "systemId": "pf1",
    "systemVersion": "9.1",
    "coreVersion": "10.291",
    "createdTime": 1665428356341,
    "modifiedTime": 1689797895516,
    "lastModifiedBy": "ppv91YxratjWnkJi"
  },
  "effects": [],
  "folder": null,
  "sort": 0,
  "flags": {},
  "_key": "!items!ggHoBrRoLXJSozSQ"
}