{
  "_id": "0bDdPQyIYkrmmBdZ",
  "name": "Fearsome Barricade",
  "type": "feat",
  "img": "icons/equipment/shield/buckler-wooden-boss-steel.webp",
  "system": {
    "description": {
      "value": "<em>Your wrath is as potent a barrier as your blades.</em><br/><br/><b>Prerequisites</b><br/>Intimidate 5 ranks, Ulfen Guard TPA 20.<br/><br/><b>Benefits</b><br/>Choose an adjacent ally as a free action on your turn. Once per round, when an opponent attacks that ally, you may make an Intimidate check to demoralize the opponent as an immediate action. This action counts as an attack of opportunity.",
      "unidentified": ""
    },
    "tags": [
      "Combat",
      "Faction"
    ],
    "actions": [],
    "uses": {
      "per": null,
      "value": 0,
      "maxFormula": "",
      "autoDeductChargesCost": "1"
    },
    "attackNotes": [],
    "effectNotes": [],
    "changes": [],
    "changeFlags": {
      "loseDexToAC": false,
      "noEncumbrance": false,
      "mediumArmorFullSpeed": false,
      "heavyArmorFullSpeed": false
    },
    "contextNotes": [],
    "links": {
      "children": [],
      "charges": []
    },
    "tag": "",
    "useCustomTag": false,
    "armorProf": {
      "value": [],
      "custom": ""
    },
    "weaponProf": {
      "value": [],
      "custom": ""
    },
    "languages": {
      "value": [],
      "custom": ""
    },
    "flags": {
      "boolean": {},
      "dictionary": {}
    },
    "scriptCalls": [],
    "subType": "feat",
    "associations": {
      "classes": []
    },
    "showInQuickbar": false,
    "abilityType": "none",
    "crOffset": "",
    "disabled": false,
    "classSkills": {}
  },
  "ownership": {
    "default": 0
  },
  "_stats": {
    "systemId": "pf1",
    "systemVersion": "9.1",
    "coreVersion": "10.291",
    "createdTime": 1665428350619,
    "modifiedTime": 1689797874107,
    "lastModifiedBy": "ppv91YxratjWnkJi"
  },
  "effects": [],
  "folder": null,
  "sort": 0,
  "flags": {},
  "_key": "!items!0bDdPQyIYkrmmBdZ"
}