{
  "_id": "7lVIDnHnrYYsYi9m",
  "name": "Feint Defender",
  "type": "feat",
  "img": "icons/equipment/shield/heater-steel-sword-yellow-black.webp",
  "system": {
    "description": {
      "value": "<em>You use your shield to conceal your own body language and keep your attention focused.</em><br/><br/><b>Prerequisites</b><br/>Shield Focus, base attack bonus +6 or fighter level 4th, Sense Motive 1 rank.<br/><br/><b>Benefits</b><br/>You add your shield's bonus to AC to the DC of feint attempts against you.<br/><br/><b>Combat Trick</b><br/>You can spend 5 stamina points to force a foe to attempt two Bluff checks when trying to feint against you in combat, and use the lower of the two results. (See page 18.)",
      "unidentified": ""
    },
    "tags": [
      "PFS",
      "Combat",
      "Shield Mastery"
    ],
    "actions": [],
    "uses": {
      "per": null,
      "value": 0,
      "maxFormula": "",
      "autoDeductChargesCost": "1"
    },
    "attackNotes": [],
    "effectNotes": [],
    "changes": [],
    "changeFlags": {
      "loseDexToAC": false,
      "noEncumbrance": false,
      "mediumArmorFullSpeed": false,
      "heavyArmorFullSpeed": false
    },
    "contextNotes": [],
    "links": {
      "children": [],
      "charges": []
    },
    "tag": "",
    "useCustomTag": false,
    "armorProf": {
      "value": [],
      "custom": ""
    },
    "weaponProf": {
      "value": [],
      "custom": ""
    },
    "languages": {
      "value": [],
      "custom": ""
    },
    "flags": {
      "boolean": {},
      "dictionary": {}
    },
    "scriptCalls": [],
    "subType": "feat",
    "associations": {
      "classes": []
    },
    "showInQuickbar": false,
    "abilityType": "none",
    "crOffset": "",
    "disabled": false,
    "classSkills": {}
  },
  "ownership": {
    "default": 0
  },
  "_stats": {
    "systemId": "pf1",
    "systemVersion": "9.1",
    "coreVersion": "10.291",
    "createdTime": 1665428351507,
    "modifiedTime": 1689797877144,
    "lastModifiedBy": "ppv91YxratjWnkJi"
  },
  "effects": [],
  "folder": null,
  "sort": 0,
  "flags": {},
  "_key": "!items!7lVIDnHnrYYsYi9m"
}