{
  "_id": "UxrMe5NVknPcnNmP",
  "name": "Feinting Flurry",
  "type": "feat",
  "img": "systems/pf1/icons/feats/combat-expertise.jpg",
  "system": {
    "description": {
      "value": "<em>Your subtle flourishes mislead your enemy, tricking it into changing its footing.</em><br/><br/><b>Prerequisites</b><br/>Dex 15, flurry of blows class feature, Combat Expertise.<br/><br/><b>Benefits</b><br/>While using flurry of blows to make melee attacks, you can forgo your first attack to make a Bluff check to feint.",
      "unidentified": ""
    },
    "tags": [
      "PFS",
      "Combat"
    ],
    "actions": [],
    "uses": {
      "per": null,
      "value": 0,
      "maxFormula": "",
      "autoDeductChargesCost": "1"
    },
    "attackNotes": [],
    "effectNotes": [],
    "changes": [],
    "changeFlags": {
      "loseDexToAC": false,
      "noEncumbrance": false,
      "mediumArmorFullSpeed": false,
      "heavyArmorFullSpeed": false
    },
    "contextNotes": [],
    "links": {
      "children": [],
      "charges": []
    },
    "tag": "",
    "useCustomTag": false,
    "armorProf": {
      "value": [],
      "custom": ""
    },
    "weaponProf": {
      "value": [],
      "custom": ""
    },
    "languages": {
      "value": [],
      "custom": ""
    },
    "flags": {
      "boolean": {},
      "dictionary": {}
    },
    "scriptCalls": [],
    "subType": "feat",
    "associations": {
      "classes": []
    },
    "showInQuickbar": false,
    "abilityType": "none",
    "crOffset": "",
    "disabled": false,
    "classSkills": {}
  },
  "ownership": {
    "default": 0
  },
  "_stats": {
    "systemId": "pf1",
    "systemVersion": "9.1",
    "coreVersion": "10.291",
    "createdTime": 1665428354949,
    "modifiedTime": 1689797889943,
    "lastModifiedBy": "ppv91YxratjWnkJi"
  },
  "effects": [],
  "folder": null,
  "sort": 0,
  "flags": {},
  "_key": "!items!UxrMe5NVknPcnNmP"
}