{
  "_id": "VKiygqYNaKA9BkbE",
  "name": "Fencing Grace",
  "type": "feat",
  "img": "icons/weapons/swords/sword-guard-engraved-worn.webp",
  "system": {
    "description": {
      "value": "<em>Your dashing style and fluid rapier forms allow you to use agility rather than brute force to fell your foes.</em><br/><br/><b>Prerequisites</b><br/>Dex 13, Weapon Finesse, Weapon Focus (rapier).<br/><br/><b>Benefits</b><br/>When wielding a rapier one-handed, you can add your Dexterity modifier instead of your Strength modifier to that weapon's damage. The rapier must be one appropriate for your size. You do not gain this benefit while fighting with two weapons or using flurry of blows, or anytime another hand is otherwise occupied.<br/><br/> In addition, if you have the panache class feature, you gain a +2 bonus to your CMD against attempts to disarm you of your rapier while you have at least 1 panache point.",
      "unidentified": ""
    },
    "tags": [
      "PFS",
      "Combat"
    ],
    "actions": [],
    "uses": {
      "per": null,
      "value": 0,
      "maxFormula": "",
      "autoDeductChargesCost": "1"
    },
    "attackNotes": [],
    "effectNotes": [],
    "changes": [],
    "changeFlags": {
      "loseDexToAC": false,
      "noEncumbrance": false,
      "mediumArmorFullSpeed": false,
      "heavyArmorFullSpeed": false
    },
    "contextNotes": [],
    "links": {
      "children": [],
      "charges": []
    },
    "tag": "",
    "useCustomTag": false,
    "armorProf": {
      "value": [],
      "custom": ""
    },
    "weaponProf": {
      "value": [],
      "custom": ""
    },
    "languages": {
      "value": [],
      "custom": ""
    },
    "flags": {
      "boolean": {},
      "dictionary": {}
    },
    "scriptCalls": [],
    "subType": "feat",
    "associations": {
      "classes": []
    },
    "showInQuickbar": false,
    "abilityType": "none",
    "crOffset": "",
    "disabled": false,
    "classSkills": {}
  },
  "ownership": {
    "default": 0
  },
  "_stats": {
    "systemId": "pf1",
    "systemVersion": "9.1",
    "coreVersion": "10.291",
    "createdTime": 1665428354971,
    "modifiedTime": 1689797890058,
    "lastModifiedBy": "ppv91YxratjWnkJi"
  },
  "effects": [],
  "folder": null,
  "sort": 0,
  "flags": {},
  "_key": "!items!VKiygqYNaKA9BkbE"
}