{
  "_id": "W6ToZsPehM62oUp5",
  "name": "Fey Obedience",
  "type": "feat",
  "img": "systems/pf1/icons/skills/green_09.jpg",
  "system": {
    "description": {
      "value": "<em>Your devotion to one of the Eldest is so great that daily prayer and offerings grant you special boons.</em><br/><br/><b>Prerequisites</b><br/>Knowledge (planes) 3 ranks, must worship one of the Eldest.<br/><br/><b>Benefits</b><br/>Each Eldest requires a different obedience, but each obedience takes only 1 hour to perform. Once you've performed the obedience, you gain the benefit of a special ability or resistance as indicated in the 'Obedience' entry for that Eldest.<br/><br/> If you have at least 12 Hit Dice, you also gain the first boon granted by your Eldest upon undertaking your obedience. If you have at least 16 Hit Dice, you also gain the Eldest's second boon. If you have at least 20 Hit Dice, you also gain the Eldest's third boon. Unless a specific duration or number of uses per day is listed, a boon's effects are constant. <br/><br/>Feysworn gain access to these boons at lower levels as a benefit of their prestige class. <br/><br/>If you ever fail to perform a daily obedience, you lose all access to the benefits and boons granted by this feat until you next perform the obedience.",
      "unidentified": ""
    },
    "tags": [
      "PFS",
      "General"
    ],
    "actions": [],
    "uses": {
      "per": null,
      "value": 0,
      "maxFormula": "",
      "autoDeductChargesCost": "1"
    },
    "attackNotes": [],
    "effectNotes": [],
    "changes": [],
    "changeFlags": {
      "loseDexToAC": false,
      "noEncumbrance": false,
      "mediumArmorFullSpeed": false,
      "heavyArmorFullSpeed": false
    },
    "contextNotes": [],
    "links": {
      "children": [],
      "charges": []
    },
    "tag": "",
    "useCustomTag": false,
    "armorProf": {
      "value": [],
      "custom": ""
    },
    "weaponProf": {
      "value": [],
      "custom": ""
    },
    "languages": {
      "value": [],
      "custom": ""
    },
    "flags": {
      "boolean": {},
      "dictionary": {}
    },
    "scriptCalls": [],
    "subType": "feat",
    "associations": {
      "classes": []
    },
    "showInQuickbar": false,
    "abilityType": "none",
    "crOffset": "",
    "disabled": false,
    "classSkills": {}
  },
  "ownership": {
    "default": 0
  },
  "_stats": {
    "systemId": "pf1",
    "systemVersion": "9.1",
    "coreVersion": "10.291",
    "createdTime": 1665428355024,
    "modifiedTime": 1689797890344,
    "lastModifiedBy": "ppv91YxratjWnkJi"
  },
  "effects": [],
  "folder": null,
  "sort": 0,
  "flags": {},
  "_key": "!items!W6ToZsPehM62oUp5"
}