{
  "_id": "q5HupncrnMifgTn3",
  "name": "Fey Spell Lore",
  "type": "feat",
  "img": "systems/pf1/icons/skills/green_15.jpg",
  "system": {
    "description": {
      "value": "<em>You have learned the treacherous spells employed by the fey.</em><br/><br/><b>Prerequisites</b><br/>Cha 13, Spellcraft 1 rank, ability to cast druid spells.<br/><br/><b>Benefits</b><br/>Add the following spells to your druid spell list at the indicated levels: 0--dancing lights, 1st--lesser confusion, 2nd--charm person, 3rd--invisibility, 4th--bestow curse, 5th--charm monster, 6th--major curse, 7th--cloak of dreams, 8th--insanity, 9th--irresistible dance.",
      "unidentified": ""
    },
    "tags": [
      "PFS",
      "General"
    ],
    "actions": [],
    "uses": {
      "per": null,
      "value": 0,
      "maxFormula": "",
      "autoDeductChargesCost": "1"
    },
    "attackNotes": [],
    "effectNotes": [],
    "changes": [],
    "changeFlags": {
      "loseDexToAC": false,
      "noEncumbrance": false,
      "mediumArmorFullSpeed": false,
      "heavyArmorFullSpeed": false
    },
    "contextNotes": [],
    "links": {
      "children": [],
      "charges": []
    },
    "tag": "",
    "useCustomTag": false,
    "armorProf": {
      "value": [],
      "custom": ""
    },
    "weaponProf": {
      "value": [],
      "custom": ""
    },
    "languages": {
      "value": [],
      "custom": ""
    },
    "flags": {
      "boolean": {},
      "dictionary": {}
    },
    "scriptCalls": [],
    "subType": "feat",
    "associations": {
      "classes": []
    },
    "showInQuickbar": false,
    "abilityType": "none",
    "crOffset": "",
    "disabled": false,
    "classSkills": {}
  },
  "ownership": {
    "default": 0
  },
  "_stats": {
    "systemId": "pf1",
    "systemVersion": "9.1",
    "coreVersion": "10.291",
    "createdTime": 1665428358030,
    "modifiedTime": 1689797900734,
    "lastModifiedBy": "ppv91YxratjWnkJi"
  },
  "effects": [],
  "folder": null,
  "sort": 0,
  "flags": {},
  "_key": "!items!q5HupncrnMifgTn3"
}