{
  "_id": "D5WWkbXdDf0IsQQH",
  "name": "Fiendish Wings",
  "type": "feat",
  "img": "icons/commodities/biological/wing-lizard-pink.webp",
  "system": {
    "description": {
      "value": "<em>You have great wings capable of bearing you aloft. The wings you gain this way vary, from the bat-like wings common among demons and devils, to the feathered wings of Szuriel's generals, to the stretched-skin membranes of kytons.</em><br/><br/><b>Prerequisites</b><br/>Non-native outsider with the evil subtype.<br/><br/><b>Benefits</b><br/>Your wings grant you a fly speed equal to your base speed with good maneuverability.",
      "unidentified": ""
    },
    "tags": [
      "General"
    ],
    "actions": [],
    "uses": {
      "per": null,
      "value": 0,
      "maxFormula": "",
      "autoDeductChargesCost": "1"
    },
    "attackNotes": [],
    "effectNotes": [],
    "changes": [],
    "changeFlags": {
      "loseDexToAC": false,
      "noEncumbrance": false,
      "mediumArmorFullSpeed": false,
      "heavyArmorFullSpeed": false
    },
    "contextNotes": [],
    "links": {
      "children": [],
      "charges": []
    },
    "tag": "",
    "useCustomTag": false,
    "armorProf": {
      "value": [],
      "custom": ""
    },
    "weaponProf": {
      "value": [],
      "custom": ""
    },
    "languages": {
      "value": [],
      "custom": ""
    },
    "flags": {
      "boolean": {},
      "dictionary": {}
    },
    "scriptCalls": [],
    "subType": "feat",
    "associations": {
      "classes": []
    },
    "showInQuickbar": false,
    "abilityType": "none",
    "crOffset": "",
    "disabled": false,
    "classSkills": {}
  },
  "ownership": {
    "default": 0
  },
  "_stats": {
    "systemId": "pf1",
    "systemVersion": "9.1",
    "coreVersion": "10.291",
    "createdTime": 1665428352169,
    "modifiedTime": 1689797879476,
    "lastModifiedBy": "ppv91YxratjWnkJi"
  },
  "effects": [],
  "folder": null,
  "sort": 0,
  "flags": {},
  "_key": "!items!D5WWkbXdDf0IsQQH"
}