{
  "_id": "6IKWLLSOXeNyJHjq",
  "name": "Fiendskin",
  "type": "feat",
  "img": "systems/pf1/icons/skills/blood_13.jpg",
  "system": {
    "description": {
      "value": "<p><em>The forces of darkness gird you against the light.</em><br /><br /><strong>Benefits</strong><br />You gain defensive abilities related to your patron's outsider subtype. For example, if your patron is a devil, the abilities listed below tie into the devil subtype (see Creature Subtypes, starting on page 310 of the Pathfinder RPG Bestiary). These benefits tie to your patron's subtype, not your specific patron (its abilities might differ from the norm).</p>\n<hr />\n<p><strong>One Damnation Feat</strong><br />Choose one of the energy types to which your patron's outsider subtype grants resistance. You gain resistance 5 against that energy type.<br /><br /><strong>Two Damnation Feats</strong><br />Choose one of the energy types to which your patron's outsider subtype grants resistance. You gain resistance 5 against that energy type. If you already have resistance to the chosen energy type (even from earlier benefits of this feat), this new resistance stacks with the existing resistance.<br /><br /><strong>Three Damnation Feats</strong><br />Choose one of the energy types to which your patron's outsider subtype grants resistance. You gain immunity to the selected energy type.<br /><br /><strong>Four Damnation Feats</strong><br />Your creature type changes to outsider (native). Additionally, choose one energy type to which your patron's outsider subtype grants immunity or resistance. You gain immunity to that energy type.</p>",
      "unidentified": ""
    },
    "tags": [
      "Damnation"
    ],
    "actions": [],
    "uses": {
      "per": null,
      "value": 0,
      "maxFormula": "",
      "autoDeductChargesCost": "1"
    },
    "attackNotes": [],
    "effectNotes": [],
    "changes": [],
    "changeFlags": {
      "loseDexToAC": false,
      "noEncumbrance": false,
      "mediumArmorFullSpeed": false,
      "heavyArmorFullSpeed": false
    },
    "contextNotes": [],
    "links": {
      "children": [],
      "charges": []
    },
    "tag": "",
    "useCustomTag": false,
    "armorProf": {
      "value": [],
      "custom": ""
    },
    "weaponProf": {
      "value": [],
      "custom": ""
    },
    "languages": {
      "value": [],
      "custom": ""
    },
    "flags": {
      "boolean": {},
      "dictionary": {}
    },
    "scriptCalls": [],
    "subType": "feat",
    "associations": {
      "classes": []
    },
    "showInQuickbar": false,
    "abilityType": "none",
    "crOffset": "",
    "disabled": false,
    "classSkills": {}
  },
  "ownership": {
    "default": 0
  },
  "_stats": {
    "systemId": "pf1",
    "systemVersion": "9.1",
    "coreVersion": "10.291",
    "createdTime": 1665428351343,
    "modifiedTime": 1689797876627,
    "lastModifiedBy": "ppv91YxratjWnkJi"
  },
  "effects": [],
  "folder": null,
  "sort": 0,
  "flags": {},
  "_key": "!items!6IKWLLSOXeNyJHjq"
}