{
  "_id": "7juKTgNQrri6lVHZ",
  "name": "Figment's Fluidity",
  "type": "feat",
  "img": "systems/pf1/icons/skills/emerald_08.jpg",
  "system": {
    "description": {
      "value": "<em>Your familiar can rework the dream-stuff it is made of.</em><br/><br/><b>Prerequisites</b><br/>Must have a familiar with the figment archetype (see page 10).<br/><br/><b>Benefits</b><br/>Once per day, your familiar can spend a full-round action to manually reshape itself, reassigning 1 evolution point of eidolon evolutions. The evolution it loses can't be a prerequisite for any other evolutions it has. It can use this ability twice per day at 7th level, and three times per day at 13th level.",
      "unidentified": ""
    },
    "tags": [
      "PFS",
      "Familiar"
    ],
    "actions": [],
    "uses": {
      "per": null,
      "value": 0,
      "maxFormula": "",
      "autoDeductChargesCost": "1"
    },
    "attackNotes": [],
    "effectNotes": [],
    "changes": [],
    "changeFlags": {
      "loseDexToAC": false,
      "noEncumbrance": false,
      "mediumArmorFullSpeed": false,
      "heavyArmorFullSpeed": false
    },
    "contextNotes": [],
    "links": {
      "children": [],
      "charges": []
    },
    "tag": "",
    "useCustomTag": false,
    "armorProf": {
      "value": [],
      "custom": ""
    },
    "weaponProf": {
      "value": [],
      "custom": ""
    },
    "languages": {
      "value": [],
      "custom": ""
    },
    "flags": {
      "boolean": {},
      "dictionary": {}
    },
    "scriptCalls": [],
    "subType": "feat",
    "associations": {
      "classes": []
    },
    "showInQuickbar": false,
    "abilityType": "none",
    "crOffset": "",
    "disabled": false,
    "classSkills": {}
  },
  "ownership": {
    "default": 0
  },
  "_stats": {
    "systemId": "pf1",
    "systemVersion": "9.1",
    "coreVersion": "10.291",
    "createdTime": 1665428351505,
    "modifiedTime": 1689797877132,
    "lastModifiedBy": "ppv91YxratjWnkJi"
  },
  "effects": [],
  "folder": null,
  "sort": 0,
  "flags": {},
  "_key": "!items!7juKTgNQrri6lVHZ"
}