{
  "_id": "AayU5wKBOAnKB9DG",
  "name": "Final Embrace",
  "type": "feat",
  "img": "systems/pf1/icons/skills/green_21.jpg",
  "system": {
    "description": {
      "value": "<em>Your coils are particularly deadly, allowing you to constrict opponents of your size or smaller.</em><br/><br/><b>Prerequisites</b><br/>Str 13, Int 3; naga, serpentfolk, or creature that has the constrict special attack as a racial ability; base attack bonus +3.<br/><br/><b>Benefits</b><br/>You gain the constrict and grab special attacks. Your constrict attack deals damage equal to your unarmed strike or primary natural weapon melee attack. Further, you can grab and constrict opponents up to your size.<br/><br/><b>Normal</b><br/>You can grab and constrict creatures one size smaller than you.<br/><br/><b>Combat Trick</b><br/>You can spend 2 stamina points to grab a creature one size category larger than you.",
      "unidentified": ""
    },
    "tags": [
      "PFS",
      "Combat",
      "Racial",
      "Serpentfolk"
    ],
    "actions": [],
    "uses": {
      "per": null,
      "value": 0,
      "maxFormula": "",
      "autoDeductChargesCost": "1"
    },
    "attackNotes": [],
    "effectNotes": [],
    "changes": [],
    "changeFlags": {
      "loseDexToAC": false,
      "noEncumbrance": false,
      "mediumArmorFullSpeed": false,
      "heavyArmorFullSpeed": false
    },
    "contextNotes": [],
    "links": {
      "children": [],
      "charges": []
    },
    "tag": "",
    "useCustomTag": false,
    "armorProf": {
      "value": [],
      "custom": ""
    },
    "weaponProf": {
      "value": [],
      "custom": ""
    },
    "languages": {
      "value": [],
      "custom": ""
    },
    "flags": {
      "boolean": {},
      "dictionary": {}
    },
    "scriptCalls": [],
    "subType": "feat",
    "associations": {
      "classes": []
    },
    "showInQuickbar": false,
    "abilityType": "none",
    "crOffset": "",
    "disabled": false,
    "classSkills": {}
  },
  "ownership": {
    "default": 0
  },
  "_stats": {
    "systemId": "pf1",
    "systemVersion": "9.1",
    "coreVersion": "10.291",
    "createdTime": 1665428352001,
    "modifiedTime": 1689797878683,
    "lastModifiedBy": "ppv91YxratjWnkJi"
  },
  "effects": [],
  "folder": null,
  "sort": 0,
  "flags": {},
  "_key": "!items!AayU5wKBOAnKB9DG"
}