{
  "_id": "A5G2JSutPtb3Zu6f",
  "name": "Fire Music",
  "type": "feat",
  "img": "systems/pf1/icons/skills/red_30.jpg",
  "system": {
    "description": {
      "value": "<em>Your ability to command fire and bardic music has created a strange blend of both magics.</em><br/><br/><b>Prerequisites</b><br/>Spellcraft 5 ranks, ability to cast bard spells, ability to cast an arcane fire spell from some other spellcasting class.<br/><br/><b>Benefits</b><br/>When you cast a bard spell that deals damage, you may replace the spell's normal damage with fire damage or split the spell's damage so that half of it is the normal damage type and half is fire damage.<br/><br/> If you cast a summon monster spell as a bard spell, you may choose to give the summoned creature a fiery appearance, which gives it fire resistance 5 and adds +1 fire damage to all of its natural attacks. The creature sheds dim light in a 5-foot radius. This aspect of the feat has no effect if the creature already has the fire subtype.<br/><br/> When you use this feat, the affected spell gains the fire descriptor.",
      "unidentified": ""
    },
    "tags": [
      "PFS",
      "General"
    ],
    "actions": [],
    "uses": {
      "per": null,
      "value": 0,
      "maxFormula": "",
      "autoDeductChargesCost": "1"
    },
    "attackNotes": [],
    "effectNotes": [],
    "changes": [],
    "changeFlags": {
      "loseDexToAC": false,
      "noEncumbrance": false,
      "mediumArmorFullSpeed": false,
      "heavyArmorFullSpeed": false
    },
    "contextNotes": [],
    "links": {
      "children": [],
      "charges": []
    },
    "tag": "",
    "useCustomTag": false,
    "armorProf": {
      "value": [],
      "custom": ""
    },
    "weaponProf": {
      "value": [],
      "custom": ""
    },
    "languages": {
      "value": [],
      "custom": ""
    },
    "flags": {
      "boolean": {},
      "dictionary": {}
    },
    "scriptCalls": [],
    "subType": "feat",
    "associations": {
      "classes": []
    },
    "showInQuickbar": false,
    "abilityType": "none",
    "crOffset": "",
    "disabled": false,
    "classSkills": {}
  },
  "ownership": {
    "default": 0
  },
  "_stats": {
    "systemId": "pf1",
    "systemVersion": "9.1",
    "coreVersion": "10.291",
    "createdTime": 1665428351945,
    "modifiedTime": 1689797878508,
    "lastModifiedBy": "ppv91YxratjWnkJi"
  },
  "effects": [],
  "folder": null,
  "sort": 0,
  "flags": {},
  "_key": "!items!A5G2JSutPtb3Zu6f"
}