{
  "_id": "X0JykBHa5Z48nACh",
  "name": "Flaring Spell",
  "type": "feat",
  "img": "systems/pf1/icons/spells/explosion-orange-2.jpg",
  "system": {
    "description": {
      "value": "<em>You dazzle creatures when you affect them with a spell that has the fire, light, or electricity descriptor.</em><br/><br/><b>Benefits</b><br/>The electricity, fire, or light effects of the affected spell create a flaring that dazzles creatures that take damage from the spell. A flare spell causes a creature that takes fire or electricity damage from the affected spell to become dazzled for a number of rounds equal to the actual level of the spell. A flaring spell only affects spells with a fire, light, or electricity descriptor. A flaring spell uses up a spell slot one level higher than the spell's actual level. ",
      "unidentified": ""
    },
    "tags": [
      "PFS",
      "Metamagic"
    ],
    "actions": [],
    "uses": {
      "per": null,
      "value": 0,
      "maxFormula": "",
      "autoDeductChargesCost": "1"
    },
    "attackNotes": [],
    "effectNotes": [],
    "changes": [],
    "changeFlags": {
      "loseDexToAC": false,
      "noEncumbrance": false,
      "mediumArmorFullSpeed": false,
      "heavyArmorFullSpeed": false
    },
    "contextNotes": [],
    "links": {
      "children": [],
      "charges": []
    },
    "tag": "",
    "useCustomTag": false,
    "armorProf": {
      "value": [],
      "custom": ""
    },
    "weaponProf": {
      "value": [],
      "custom": ""
    },
    "languages": {
      "value": [],
      "custom": ""
    },
    "flags": {
      "boolean": {},
      "dictionary": {}
    },
    "scriptCalls": [],
    "subType": "feat",
    "associations": {
      "classes": []
    },
    "showInQuickbar": false,
    "abilityType": "none",
    "crOffset": "",
    "disabled": false,
    "classSkills": {}
  },
  "ownership": {
    "default": 0
  },
  "_stats": {
    "systemId": "pf1",
    "systemVersion": "9.1",
    "coreVersion": "10.291",
    "createdTime": 1665428355090,
    "modifiedTime": 1689797890688,
    "lastModifiedBy": "ppv91YxratjWnkJi"
  },
  "effects": [],
  "folder": null,
  "sort": 0,
  "flags": {},
  "_key": "!items!X0JykBHa5Z48nACh"
}