{
  "_id": "7bCi7mC6Y31vC06S",
  "name": "Fleeting Spell",
  "type": "feat",
  "img": "systems/pf1/icons/spells/runes-royal-1.jpg",
  "system": {
    "description": {
      "value": "<em>Your spells vanish with unusual speed.</em><br/><br/><b>Benefits</b><br/>A fleeting spell's duration becomes dismissible, if it is not already. You can dismiss your own fleeting spell as a swift action. When you dismiss a fleeting spell, its lingering aura cannot be detected by magic unless the caster succeeds at a caster level check against a DC equal to 11 + your caster level. The DC of dispel checks to counter a fleeting spell is reduced by 2, and once active, dispel magic removes a fleeting spell without a caster level check. A fleeting spell has half its normal duration (with an extended fleeting spell, these duration adjustments cancel out). Only spells with a duration of at least 2 rounds can be made fleeting, and instantaneous or permanent spells cannot be fleeting spells. A fleeting spell does not use up a higher-level spell slot than the spell's actual level.<br/><br/><b>Normal</b><br/>It is a standard action to dismiss a dismissible spell, and only spells whose Duration entry is marked with a D are dismissible.",
      "unidentified": ""
    },
    "tags": [
      "PFS",
      "Metamagic"
    ],
    "actions": [],
    "uses": {
      "per": null,
      "value": 0,
      "maxFormula": "",
      "autoDeductChargesCost": "1"
    },
    "attackNotes": [],
    "effectNotes": [],
    "changes": [],
    "changeFlags": {
      "loseDexToAC": false,
      "noEncumbrance": false,
      "mediumArmorFullSpeed": false,
      "heavyArmorFullSpeed": false
    },
    "contextNotes": [],
    "links": {
      "children": [],
      "charges": []
    },
    "tag": "",
    "useCustomTag": false,
    "armorProf": {
      "value": [],
      "custom": ""
    },
    "weaponProf": {
      "value": [],
      "custom": ""
    },
    "languages": {
      "value": [],
      "custom": ""
    },
    "flags": {
      "boolean": {},
      "dictionary": {}
    },
    "scriptCalls": [],
    "subType": "feat",
    "associations": {
      "classes": []
    },
    "showInQuickbar": false,
    "abilityType": "none",
    "crOffset": "",
    "disabled": false,
    "classSkills": {}
  },
  "ownership": {
    "default": 0
  },
  "_stats": {
    "systemId": "pf1",
    "systemVersion": "9.1",
    "coreVersion": "10.291",
    "createdTime": 1665428351494,
    "modifiedTime": 1689797877090,
    "lastModifiedBy": "ppv91YxratjWnkJi"
  },
  "effects": [],
  "folder": null,
  "sort": 0,
  "flags": {},
  "_key": "!items!7bCi7mC6Y31vC06S"
}