{
  "_id": "5zQB4JVQ5NYHlO7e",
  "name": "Flinging Charge",
  "type": "feat",
  "img": "icons/weapons/thrown/daggers-guard-green.webp",
  "system": {
    "description": {
      "value": "<em>You hurl a weapon during your charge before drawing a new one to strike, enabling you to make another attack at the expense of the latter attack's accuracy.</em><br/><br/><b>Prerequisites</b><br/>Quick Draw, base attack bonus +6.<br/><br/><b>Benefits</b><br/>If you have a thrown weapon in hand when you begin charging, you can make a ranged attack with that weapon against the target of your charge at any point during your charge. You gain the +2 bonus for charging on the attack roll for this ranged attack. You can then immediately draw a melee weapon during your charge. You take a -5 penalty on the melee attack made at the end of the charge. When charging this way, you cannot use any effect that would grant you more than one attack at the end of your charge (such as pounce), nor can you use abilities that grant you other ranged attacks on a charge, such as the hurling charge rage power.",
      "unidentified": ""
    },
    "tags": [
      "PFS",
      "Combat"
    ],
    "actions": [],
    "uses": {
      "per": null,
      "value": 0,
      "maxFormula": "",
      "autoDeductChargesCost": "1"
    },
    "attackNotes": [],
    "effectNotes": [],
    "changes": [],
    "changeFlags": {
      "loseDexToAC": false,
      "noEncumbrance": false,
      "mediumArmorFullSpeed": false,
      "heavyArmorFullSpeed": false
    },
    "contextNotes": [],
    "links": {
      "children": [],
      "charges": []
    },
    "tag": "",
    "useCustomTag": false,
    "armorProf": {
      "value": [],
      "custom": ""
    },
    "weaponProf": {
      "value": [],
      "custom": ""
    },
    "languages": {
      "value": [],
      "custom": ""
    },
    "flags": {
      "boolean": {},
      "dictionary": {}
    },
    "scriptCalls": [],
    "subType": "feat",
    "associations": {
      "classes": []
    },
    "showInQuickbar": false,
    "abilityType": "none",
    "crOffset": "",
    "disabled": false,
    "classSkills": {}
  },
  "ownership": {
    "default": 0
  },
  "_stats": {
    "systemId": "pf1",
    "systemVersion": "9.1",
    "coreVersion": "10.291",
    "createdTime": 1665428351292,
    "modifiedTime": 1689797876485,
    "lastModifiedBy": "ppv91YxratjWnkJi"
  },
  "effects": [],
  "folder": null,
  "sort": 0,
  "flags": {},
  "_key": "!items!5zQB4JVQ5NYHlO7e"
}