{
  "_id": "zVUcdFSgoVENjmUa",
  "name": "Flyby Attack",
  "type": "feat",
  "img": "icons/commodities/biological/wing-lizard-brown.webp",
  "system": {
    "description": {
      "value": "<p><em>This creature can make an attack before and after it moves while flying.</em><br /><br /><strong>Prerequisites</strong><br />Fly speed.<br /><br /><strong>Benefits</strong><br />When flying, the creature can take a move action and another standard action at any point during the move. The creature cannot take a second move action during a round when it makes a flyby attack.<br /><br /><strong>Normal</strong><br />Without this feat, the creature takes a standard action either before or after its move.</p>",
      "unidentified": ""
    },
    "tags": [
      "Monster"
    ],
    "actions": [],
    "uses": {
      "per": null,
      "value": 0,
      "maxFormula": "",
      "autoDeductChargesCost": "1"
    },
    "attackNotes": [],
    "effectNotes": [],
    "changes": [],
    "changeFlags": {
      "loseDexToAC": false,
      "noEncumbrance": false,
      "mediumArmorFullSpeed": false,
      "heavyArmorFullSpeed": false
    },
    "contextNotes": [],
    "links": {
      "children": [],
      "charges": []
    },
    "tag": "",
    "useCustomTag": false,
    "armorProf": {
      "value": [],
      "custom": ""
    },
    "weaponProf": {
      "value": [],
      "custom": ""
    },
    "languages": {
      "value": [],
      "custom": ""
    },
    "flags": {
      "boolean": {},
      "dictionary": {}
    },
    "scriptCalls": [],
    "subType": "feat",
    "associations": {
      "classes": []
    },
    "showInQuickbar": false,
    "abilityType": "none",
    "crOffset": "",
    "disabled": false,
    "classSkills": {}
  },
  "ownership": {
    "default": 0
  },
  "_stats": {
    "systemId": "pf1",
    "systemVersion": "9.1",
    "coreVersion": "10.291",
    "createdTime": 1665428359369,
    "modifiedTime": 1689797905020,
    "lastModifiedBy": "ppv91YxratjWnkJi"
  },
  "effects": [],
  "folder": null,
  "sort": 0,
  "flags": {},
  "_key": "!items!zVUcdFSgoVENjmUa"
}