{
  "_id": "jjIG3FKAWS35a4cB",
  "name": "Focused Ooze Expertise",
  "type": "feat",
  "img": "systems/pf1/icons/races/creature-types/ooze.jpg",
  "system": {
    "description": {
      "value": "<em>You've learned to avoid and overcome the engulfing attacks of your studied prey.</em><br/><br/><b>Prerequisites</b><br/>Favored enemy (ooze) class feature.<br/><br/><b>Benefits</b><br/>You gain a bonus to your CMD equal to half your favored enemy (ooze) bonus. You also gain acid resistance equal to half your favored enemy (ooze) bonus. Against oozes, you instead apply your full favored enemy (ooze) bonus for both benefits.",
      "unidentified": ""
    },
    "tags": [
      "PFS",
      "Combat"
    ],
    "actions": [],
    "uses": {
      "per": null,
      "value": 0,
      "maxFormula": "",
      "autoDeductChargesCost": "1"
    },
    "attackNotes": [],
    "effectNotes": [],
    "changes": [],
    "changeFlags": {
      "loseDexToAC": false,
      "noEncumbrance": false,
      "mediumArmorFullSpeed": false,
      "heavyArmorFullSpeed": false
    },
    "contextNotes": [],
    "links": {
      "children": [],
      "charges": []
    },
    "tag": "",
    "useCustomTag": false,
    "armorProf": {
      "value": [],
      "custom": ""
    },
    "weaponProf": {
      "value": [],
      "custom": ""
    },
    "languages": {
      "value": [],
      "custom": ""
    },
    "flags": {
      "boolean": {},
      "dictionary": {}
    },
    "scriptCalls": [],
    "subType": "feat",
    "associations": {
      "classes": []
    },
    "showInQuickbar": false,
    "abilityType": "none",
    "crOffset": "",
    "disabled": false,
    "classSkills": {}
  },
  "ownership": {
    "default": 0
  },
  "_stats": {
    "systemId": "pf1",
    "systemVersion": "9.1",
    "coreVersion": "10.291",
    "createdTime": 1665428356871,
    "modifiedTime": 1689797897316,
    "lastModifiedBy": "ppv91YxratjWnkJi"
  },
  "effects": [],
  "folder": null,
  "sort": 0,
  "flags": {},
  "_key": "!items!jjIG3FKAWS35a4cB"
}