{
  "_id": "c6WT66xBw9y7KxUn",
  "name": "Focused Inspiration",
  "type": "feat",
  "img": "systems/pf1/icons/misc/brain.png",
  "system": {
    "description": {
      "value": "<em>Two of your skills gain a bit more from your inspiration than others.</em><br/><br/><b>Prerequisites</b><br/>Inspiration class feature, keen recollection class feature.<br/><br/><b>Benefits</b><br/>Choose two skills that you either are trained in or can otherwise use untrained. You must be able to use inspiration on these skills. When you use inspiration with those skills, roll a d8 instead of a d6, or a d10 if you would normally roll a d8. If you have the true inspiration class feature, you roll twice as many such dice (2d8 or 2d10) as normal.",
      "unidentified": ""
    },
    "tags": [
      "PFS",
      "General"
    ],
    "actions": [],
    "uses": {
      "per": null,
      "value": 0,
      "maxFormula": "",
      "autoDeductChargesCost": "1"
    },
    "attackNotes": [],
    "effectNotes": [],
    "changes": [],
    "changeFlags": {
      "loseDexToAC": false,
      "noEncumbrance": false,
      "mediumArmorFullSpeed": false,
      "heavyArmorFullSpeed": false
    },
    "contextNotes": [],
    "links": {
      "children": [],
      "charges": []
    },
    "tag": "",
    "useCustomTag": false,
    "armorProf": {
      "value": [],
      "custom": ""
    },
    "weaponProf": {
      "value": [],
      "custom": ""
    },
    "languages": {
      "value": [],
      "custom": ""
    },
    "flags": {
      "boolean": {},
      "dictionary": {}
    },
    "scriptCalls": [],
    "subType": "feat",
    "associations": {
      "classes": []
    },
    "showInQuickbar": false,
    "abilityType": "none",
    "crOffset": "",
    "disabled": false,
    "classSkills": {}
  },
  "ownership": {
    "default": 0
  },
  "_stats": {
    "systemId": "pf1",
    "systemVersion": "9.1",
    "coreVersion": "10.291",
    "createdTime": 1665428355699,
    "modifiedTime": 1689797893253,
    "lastModifiedBy": "ppv91YxratjWnkJi"
  },
  "effects": [],
  "folder": null,
  "sort": 0,
  "flags": {},
  "_key": "!items!c6WT66xBw9y7KxUn"
}