{
  "_id": "3gIQSiEisgt4ZW2u",
  "name": "Focused Outsider Expertise",
  "type": "feat",
  "img": "systems/pf1/icons/races/creature-types/outsider.png",
  "system": {
    "description": {
      "value": "<em>You've learned to attack in a way that stymies the natural resistances common in outsiders.</em><br/><br/><b>Prerequisites</b><br/>Favored enemy (outsider) class feature.<br/><br/><b>Benefits</b><br/>Your weapon attacks ignore a number of points of damage reduction equal to half your favored enemy (outsider [any one]) bonus. This feat allows you to ignore only damage reduction that is normally bypassed by chaotic-, evil-, good-, or lawful-aligned weapons. Against outsiders that match your favored enemy subtype, the amount of damage reduction and hardness you ignore is equal to your full favored class bonus.",
      "unidentified": ""
    },
    "tags": [
      "PFS",
      "Combat"
    ],
    "actions": [],
    "uses": {
      "per": null,
      "value": 0,
      "maxFormula": "",
      "autoDeductChargesCost": "1"
    },
    "attackNotes": [],
    "effectNotes": [],
    "changes": [],
    "changeFlags": {
      "loseDexToAC": false,
      "noEncumbrance": false,
      "mediumArmorFullSpeed": false,
      "heavyArmorFullSpeed": false
    },
    "contextNotes": [],
    "links": {
      "children": [],
      "charges": []
    },
    "tag": "",
    "useCustomTag": false,
    "armorProf": {
      "value": [],
      "custom": ""
    },
    "weaponProf": {
      "value": [],
      "custom": ""
    },
    "languages": {
      "value": [],
      "custom": ""
    },
    "flags": {
      "boolean": {},
      "dictionary": {}
    },
    "scriptCalls": [],
    "subType": "feat",
    "associations": {
      "classes": []
    },
    "showInQuickbar": false,
    "abilityType": "none",
    "crOffset": "",
    "disabled": false,
    "classSkills": {}
  },
  "ownership": {
    "default": 0
  },
  "_stats": {
    "systemId": "pf1",
    "systemVersion": "9.1",
    "coreVersion": "10.291",
    "createdTime": 1665428350824,
    "modifiedTime": 1689797875210,
    "lastModifiedBy": "ppv91YxratjWnkJi"
  },
  "effects": [],
  "folder": null,
  "sort": 0,
  "flags": {},
  "_key": "!items!3gIQSiEisgt4ZW2u"
}