{
  "_id": "ThyyhbYxRxu29CQ6",
  "name": "Focused Plant Expertise",
  "type": "feat",
  "img": "systems/pf1/icons/races/creature-types/plant.png",
  "system": {
    "description": {
      "value": "<em>You are quick to dodge and slash anything that would ensnare you.</em><br/><br/><b>Prerequisites</b><br/>Favored enemy (plant) class feature.<br/><br/><b>Benefits</b><br/>You gain a bonus equal to half your favored enemy (plant) bonus on Reflex saves to avoid being entangled and to your CMD whenever an opponent attempts to grapple you. Your weapons' critical hit multipliers increase by one against creatures with the plant type.",
      "unidentified": ""
    },
    "tags": [
      "PFS",
      "Combat"
    ],
    "actions": [],
    "uses": {
      "per": null,
      "value": 0,
      "maxFormula": "",
      "autoDeductChargesCost": "1"
    },
    "attackNotes": [],
    "effectNotes": [],
    "changes": [],
    "changeFlags": {
      "loseDexToAC": false,
      "noEncumbrance": false,
      "mediumArmorFullSpeed": false,
      "heavyArmorFullSpeed": false
    },
    "contextNotes": [],
    "links": {
      "children": [],
      "charges": []
    },
    "tag": "",
    "useCustomTag": false,
    "armorProf": {
      "value": [],
      "custom": ""
    },
    "weaponProf": {
      "value": [],
      "custom": ""
    },
    "languages": {
      "value": [],
      "custom": ""
    },
    "flags": {
      "boolean": {},
      "dictionary": {}
    },
    "scriptCalls": [],
    "subType": "feat",
    "associations": {
      "classes": []
    },
    "showInQuickbar": false,
    "abilityType": "none",
    "crOffset": "",
    "disabled": false,
    "classSkills": {}
  },
  "ownership": {
    "default": 0
  },
  "_stats": {
    "systemId": "pf1",
    "systemVersion": "9.1",
    "coreVersion": "10.291",
    "createdTime": 1665428354583,
    "modifiedTime": 1689797888790,
    "lastModifiedBy": "ppv91YxratjWnkJi"
  },
  "effects": [],
  "folder": null,
  "sort": 0,
  "flags": {},
  "_key": "!items!ThyyhbYxRxu29CQ6"
}