{
  "_id": "qMngVnu4yNXHYXYc",
  "name": "Foebane Magic",
  "type": "feat",
  "img": "systems/pf1/icons/skills/yellow_19.jpg",
  "system": {
    "description": {
      "value": "<em>The spells you cast are particularly effective against your favored enemies.</em><br/><br/><b>Prerequisites</b><br/>Ability to cast 1st-level spells, favored enemy class feature.<br/><br/><b>Benefits</b><br/>Your favored enemies take a -1 penalty on saving throws against spells you cast. Furthermore, you gain your favored enemy bonus on Spellcraft checks to identify spells cast by favored enemies.",
      "unidentified": ""
    },
    "tags": [
      "PFS",
      "General"
    ],
    "actions": [],
    "uses": {
      "per": null,
      "value": 0,
      "maxFormula": "",
      "autoDeductChargesCost": "1"
    },
    "attackNotes": [],
    "effectNotes": [],
    "changes": [],
    "changeFlags": {
      "loseDexToAC": false,
      "noEncumbrance": false,
      "mediumArmorFullSpeed": false,
      "heavyArmorFullSpeed": false
    },
    "contextNotes": [],
    "links": {
      "children": [],
      "charges": []
    },
    "tag": "",
    "useCustomTag": false,
    "armorProf": {
      "value": [],
      "custom": ""
    },
    "weaponProf": {
      "value": [],
      "custom": ""
    },
    "languages": {
      "value": [],
      "custom": ""
    },
    "flags": {
      "boolean": {},
      "dictionary": {}
    },
    "scriptCalls": [],
    "subType": "feat",
    "associations": {
      "classes": []
    },
    "showInQuickbar": false,
    "abilityType": "none",
    "crOffset": "",
    "disabled": false,
    "classSkills": {}
  },
  "ownership": {
    "default": 0
  },
  "_stats": {
    "systemId": "pf1",
    "systemVersion": "9.1",
    "coreVersion": "10.291",
    "createdTime": 1665428358048,
    "modifiedTime": 1689797900882,
    "lastModifiedBy": "ppv91YxratjWnkJi"
  },
  "effects": [],
  "folder": null,
  "sort": 0,
  "flags": {},
  "_key": "!items!qMngVnu4yNXHYXYc"
}