{
  "_id": "VFnu959BJNNr97Ox",
  "name": "Force Dash",
  "type": "feat",
  "img": "systems/pf1/icons/skills/armor_01.jpg",
  "system": {
    "description": {
      "value": "<p><em>You can absorb the magic in your force spells to give you a concentrated burst of speed.</em><br /><br /><strong>Prerequisites</strong><br />Base attack bonus +4, ability to cast 2nd-level arcane spells, ability to cast at least one arcane force spell.<br /><br/><strong>Benefits</strong><br />As a swift action, you can sacrifice a prepared arcane force spell (or if you are a spontaneous caster, a spell slot of the same level as an arcane force spell you know) to give yourself an enhancement bonus to speed. The bonus gained is equal to 10 feet x the level of the spell sacrificed. The bonus applies to all forms of movement, and it lasts 1 round. If you charge while this bonus is in effect, you do not take the normal -2 penalty to AC until the start of your next turn.</p>",
      "unidentified": ""
    },
    "tags": [
      "PFS",
      "General"
    ],
    "actions": [],
    "uses": {
      "per": null,
      "value": 0,
      "maxFormula": "",
      "autoDeductChargesCost": "1"
    },
    "attackNotes": [],
    "effectNotes": [],
    "changes": [],
    "changeFlags": {
      "loseDexToAC": false,
      "noEncumbrance": false,
      "mediumArmorFullSpeed": false,
      "heavyArmorFullSpeed": false
    },
    "contextNotes": [],
    "links": {
      "children": [],
      "charges": []
    },
    "tag": "",
    "useCustomTag": false,
    "armorProf": {
      "value": [],
      "custom": ""
    },
    "weaponProf": {
      "value": [],
      "custom": ""
    },
    "languages": {
      "value": [],
      "custom": ""
    },
    "flags": {
      "boolean": {},
      "dictionary": {}
    },
    "scriptCalls": [],
    "subType": "feat",
    "associations": {
      "classes": []
    },
    "showInQuickbar": false,
    "abilityType": "none",
    "crOffset": "",
    "disabled": false,
    "classSkills": {}
  },
  "ownership": {
    "default": 0
  },
  "_stats": {
    "systemId": "pf1",
    "systemVersion": "9.1",
    "coreVersion": "10.291",
    "createdTime": 1665428354963,
    "modifiedTime": 1689797890017,
    "lastModifiedBy": "ppv91YxratjWnkJi"
  },
  "effects": [],
  "folder": null,
  "sort": 0,
  "flags": {},
  "_key": "!items!VFnu959BJNNr97Ox"
}