{
  "_id": "b9ZovgOlEHw8rE6e",
  "name": "Fortuitous Vigor",
  "type": "feat",
  "img": "systems/pf1/icons/skills/blood_04.jpg",
  "system": {
    "description": {
      "value": "<em>Your determination and enthusiasm help you shake off the most grievous wounds and soldier on against your enemies.</em><br/><br/><b>Prerequisites</b><br/>Con 13, Combat Vigor, character level 4th.<br/><br/><b>Benefits</b><br/>Your vigor pool gains 1 vigor point. Whenever you roll a natural 20 on an ability check, attack roll, saving throw, or skill check, and whenever you threaten a critical hit with an attack, you can spend 1 or more vigor points as a swift action to regain hit points as described in the Combat Vigor feat.",
      "unidentified": ""
    },
    "tags": [
      "PFS",
      "Combat"
    ],
    "actions": [],
    "uses": {
      "per": null,
      "value": 0,
      "maxFormula": "",
      "autoDeductChargesCost": "1"
    },
    "attackNotes": [],
    "effectNotes": [],
    "changes": [],
    "changeFlags": {
      "loseDexToAC": false,
      "noEncumbrance": false,
      "mediumArmorFullSpeed": false,
      "heavyArmorFullSpeed": false
    },
    "contextNotes": [],
    "links": {
      "children": [],
      "charges": []
    },
    "tag": "",
    "useCustomTag": false,
    "armorProf": {
      "value": [],
      "custom": ""
    },
    "weaponProf": {
      "value": [],
      "custom": ""
    },
    "languages": {
      "value": [],
      "custom": ""
    },
    "flags": {
      "boolean": {},
      "dictionary": {}
    },
    "scriptCalls": [],
    "subType": "feat",
    "associations": {
      "classes": []
    },
    "showInQuickbar": false,
    "abilityType": "none",
    "crOffset": "",
    "disabled": false,
    "classSkills": {}
  },
  "ownership": {
    "default": 0
  },
  "_stats": {
    "systemId": "pf1",
    "systemVersion": "9.1",
    "coreVersion": "10.291",
    "createdTime": 1665428355643,
    "modifiedTime": 1689797892944,
    "lastModifiedBy": "ppv91YxratjWnkJi"
  },
  "effects": [],
  "folder": null,
  "sort": 0,
  "flags": {},
  "_key": "!items!b9ZovgOlEHw8rE6e"
}