{
  "_id": "HHQcDDhuWvytoPxl",
  "name": "Fox Insight",
  "type": "feat",
  "img": "icons/commodities/treasure/figurine-dog.webp",
  "system": {
    "description": {
      "value": "<em>Your foxlike movements protect you from your opponents' attempts to manipulate you.</em><br/><br/><b>Prerequisites</b><br/>Int 13, Fox Style.<br/><br/><b>Benefits</b><br/>While using Fox Style, you can use your base attack bonus in place of your ranks in Sense Motive to determine your Sense Motive skill bonus when foes attempt to feint against you, and creatures attempting to demoralize you don't gain a bonus for being bigger than you (though they still take a penalty for being smaller). If your Intelligence score is at least 19, the DC to demoralize or feint you increases by 4.",
      "unidentified": ""
    },
    "tags": [
      "PFS",
      "Combat"
    ],
    "actions": [],
    "uses": {
      "per": null,
      "value": 0,
      "maxFormula": "",
      "autoDeductChargesCost": "1"
    },
    "attackNotes": [],
    "effectNotes": [],
    "changes": [],
    "changeFlags": {
      "loseDexToAC": false,
      "noEncumbrance": false,
      "mediumArmorFullSpeed": false,
      "heavyArmorFullSpeed": false
    },
    "contextNotes": [],
    "links": {
      "children": [],
      "charges": []
    },
    "tag": "",
    "useCustomTag": false,
    "armorProf": {
      "value": [],
      "custom": ""
    },
    "weaponProf": {
      "value": [],
      "custom": ""
    },
    "languages": {
      "value": [],
      "custom": ""
    },
    "flags": {
      "boolean": {},
      "dictionary": {}
    },
    "scriptCalls": [],
    "subType": "feat",
    "associations": {
      "classes": []
    },
    "showInQuickbar": false,
    "abilityType": "none",
    "crOffset": "",
    "disabled": false,
    "classSkills": {}
  },
  "ownership": {
    "default": 0
  },
  "_stats": {
    "systemId": "pf1",
    "systemVersion": "9.1",
    "coreVersion": "10.291",
    "createdTime": 1665428353136,
    "modifiedTime": 1689797883197,
    "lastModifiedBy": "ppv91YxratjWnkJi"
  },
  "effects": [],
  "folder": null,
  "sort": 0,
  "flags": {},
  "_key": "!items!HHQcDDhuWvytoPxl"
}