{
  "_id": "o9pQvr3670R3NZ5r",
  "name": "Frost Warrior",
  "type": "feat",
  "img": "systems/pf1/icons/skills/ice_11.jpg",
  "system": {
    "description": {
      "value": "<em>The frigid cold of your body makes your melee attacks more formidable.</em><br/><br/><b>Prerequisites</b><br/>Cold subtype, giant subtype.<br/><br/><b>Benefits</b><br/>You naturally transfer the cold of your body to any metal melee weapons you wield, dealing 1d6 additional points of cold damage.",
      "unidentified": ""
    },
    "tags": [
      "Combat",
      "Monster",
      "Giant"
    ],
    "actions": [],
    "uses": {
      "per": null,
      "value": 0,
      "maxFormula": "",
      "autoDeductChargesCost": "1"
    },
    "attackNotes": [],
    "effectNotes": [],
    "changes": [],
    "changeFlags": {
      "loseDexToAC": false,
      "noEncumbrance": false,
      "mediumArmorFullSpeed": false,
      "heavyArmorFullSpeed": false
    },
    "contextNotes": [],
    "links": {
      "children": [],
      "charges": []
    },
    "tag": "",
    "useCustomTag": false,
    "armorProf": {
      "value": [],
      "custom": ""
    },
    "weaponProf": {
      "value": [],
      "custom": ""
    },
    "languages": {
      "value": [],
      "custom": ""
    },
    "flags": {
      "boolean": {},
      "dictionary": {}
    },
    "scriptCalls": [],
    "subType": "feat",
    "associations": {
      "classes": []
    },
    "showInQuickbar": false,
    "abilityType": "none",
    "crOffset": "",
    "disabled": false,
    "classSkills": {}
  },
  "ownership": {
    "default": 0
  },
  "_stats": {
    "systemId": "pf1",
    "systemVersion": "9.1",
    "coreVersion": "10.291",
    "createdTime": 1665428357579,
    "modifiedTime": 1689797899686,
    "lastModifiedBy": "ppv91YxratjWnkJi"
  },
  "effects": [],
  "folder": null,
  "sort": 0,
  "flags": {},
  "_key": "!items!o9pQvr3670R3NZ5r"
}