{
  "_id": "xQTsGbrEoZsqO2Tu",
  "name": "Garen's Discipline",
  "type": "feat",
  "img": "systems/pf1/icons/skills/weapon_07.jpg",
  "system": {
    "description": {
      "value": "<em>You've learned to defend yourself against spell and storm with dazzling flourishes of your weapon.</em><br/><br/><b>Prerequisites</b><br/>Alertness, Exotic Weapon Proficiency (Aldori dueling sword), Weapon Focus (Aldori dueling sword), base attack bonus +4.<br/><br/><b>Benefits</b><br/>Whenever you use Combat Expertise, fight defensively, or take the total defense action, choose a type of saving throw. (You can choose a different type each time you take such an action.) Once per round before attempting a saving throw using the selected save, you gain a +2 bonus on that save. If you have a base attack bonus of +11 or higher, this bonus increases to +3. If you have a base attack bonus of +16 or higher, the bonus instead increases to +4.",
      "unidentified": ""
    },
    "tags": [
      "PFS",
      "Combat"
    ],
    "actions": [],
    "uses": {
      "per": null,
      "value": 0,
      "maxFormula": "",
      "autoDeductChargesCost": "1"
    },
    "attackNotes": [],
    "effectNotes": [],
    "changes": [],
    "changeFlags": {
      "loseDexToAC": false,
      "noEncumbrance": false,
      "mediumArmorFullSpeed": false,
      "heavyArmorFullSpeed": false
    },
    "contextNotes": [],
    "links": {
      "children": [],
      "charges": []
    },
    "tag": "",
    "useCustomTag": false,
    "armorProf": {
      "value": [],
      "custom": ""
    },
    "weaponProf": {
      "value": [],
      "custom": ""
    },
    "languages": {
      "value": [],
      "custom": ""
    },
    "flags": {
      "boolean": {},
      "dictionary": {}
    },
    "scriptCalls": [],
    "subType": "feat",
    "associations": {
      "classes": []
    },
    "showInQuickbar": false,
    "abilityType": "none",
    "crOffset": "",
    "disabled": false,
    "classSkills": {}
  },
  "ownership": {
    "default": 0
  },
  "_stats": {
    "systemId": "pf1",
    "systemVersion": "9.1",
    "coreVersion": "10.291",
    "createdTime": 1665428358866,
    "modifiedTime": 1689797903721,
    "lastModifiedBy": "ppv91YxratjWnkJi"
  },
  "effects": [],
  "folder": null,
  "sort": 0,
  "flags": {},
  "_key": "!items!xQTsGbrEoZsqO2Tu"
}