{
  "_id": "pM6imATNTHL4ZoB7",
  "name": "Gather Might",
  "type": "feat",
  "img": "systems/pf1/icons/feats/athletic.jpg",
  "system": {
    "description": {
      "value": "<em>You can feed your body when you gather power.</em><br/><br/><b>Prerequisites</b><br/>Gather power class feature, kineticist level 8th.<br/><br/><b>Benefits</b><br/>When you gather power, instead of reducing the burn cost of a blast wild talent, you can send elemental energy flowing through your body to gain a +2 alchemical bonus to Strength, Dexterity, and Constitution until the end of your turn for each point of burn reduction your gather power would grant (to a maximum of +10 when spending a full round plus a move action to gather power with the supercharge class feature).",
      "unidentified": ""
    },
    "tags": [
      "PFS",
      "General"
    ],
    "actions": [],
    "uses": {
      "per": null,
      "value": 0,
      "maxFormula": "",
      "autoDeductChargesCost": "1"
    },
    "attackNotes": [],
    "effectNotes": [],
    "changes": [],
    "changeFlags": {
      "loseDexToAC": false,
      "noEncumbrance": false,
      "mediumArmorFullSpeed": false,
      "heavyArmorFullSpeed": false
    },
    "contextNotes": [],
    "links": {
      "children": [],
      "charges": []
    },
    "tag": "",
    "useCustomTag": false,
    "armorProf": {
      "value": [],
      "custom": ""
    },
    "weaponProf": {
      "value": [],
      "custom": ""
    },
    "languages": {
      "value": [],
      "custom": ""
    },
    "flags": {
      "boolean": {},
      "dictionary": {}
    },
    "scriptCalls": [],
    "subType": "feat",
    "associations": {
      "classes": []
    },
    "showInQuickbar": false,
    "abilityType": "none",
    "crOffset": "",
    "disabled": false,
    "classSkills": {}
  },
  "ownership": {
    "default": 0
  },
  "_stats": {
    "systemId": "pf1",
    "systemVersion": "9.1",
    "coreVersion": "10.291",
    "createdTime": 1665428357654,
    "modifiedTime": 1689797900031,
    "lastModifiedBy": "ppv91YxratjWnkJi"
  },
  "effects": [],
  "folder": null,
  "sort": 0,
  "flags": {},
  "_key": "!items!pM6imATNTHL4ZoB7"
}