{
  "_id": "I13eNmCFoQM0KQCZ",
  "name": "Giant Vendetta",
  "type": "feat",
  "img": "systems/pf1/icons/skills/yellow_14.jpg",
  "system": {
    "description": {
      "value": "<em>Your life has been shaped by an encounter with giants.</em><br/><br/><b>Prerequisites</b><br/>You must have been knocked unconscious in an encounter with a challenging giant foe or have a regional background trait tied to giants (such as those presented in this section).<br/><br/><b>Benefits</b><br/>Choose one kind of giant (such as hill or stone); you must choose a kind of giant that allows you to qualify for this feat. You gain a +1 bonus on attack rolls against giants of that kind. You also gain a +1 bonus on Knowledge (local) checks regarding giants of that kind and can attempt those Knowledge checks untrained. In addition, you gain a +1 dodge bonus to AC against all giants.<br/><br/><b>Goal</b><br/> Defeat a giant of the chosen kind that is a challenging foe.<br/><br/><b>Completion Benefit</b><br/>You gain a +1 bonus on initiative checks when facing a giant of any kind, which increases to +2 against giants of the selected kind. Whenever you defeat a giant of any kind that is a challenging foe, the benefits of this feat that apply only to a specific kind of giant now also apply to giants of the kind you defeated.",
      "unidentified": ""
    },
    "tags": [
      "Story"
    ],
    "actions": [],
    "uses": {
      "per": null,
      "value": 0,
      "maxFormula": "",
      "autoDeductChargesCost": "1"
    },
    "attackNotes": [],
    "effectNotes": [],
    "changes": [],
    "changeFlags": {
      "loseDexToAC": false,
      "noEncumbrance": false,
      "mediumArmorFullSpeed": false,
      "heavyArmorFullSpeed": false
    },
    "contextNotes": [],
    "links": {
      "children": [],
      "charges": []
    },
    "tag": "",
    "useCustomTag": false,
    "armorProf": {
      "value": [],
      "custom": ""
    },
    "weaponProf": {
      "value": [],
      "custom": ""
    },
    "languages": {
      "value": [],
      "custom": ""
    },
    "flags": {
      "boolean": {},
      "dictionary": {}
    },
    "scriptCalls": [],
    "subType": "feat",
    "associations": {
      "classes": []
    },
    "showInQuickbar": false,
    "abilityType": "none",
    "crOffset": "",
    "disabled": false,
    "classSkills": {}
  },
  "ownership": {
    "default": 0
  },
  "_stats": {
    "systemId": "pf1",
    "systemVersion": "9.1",
    "coreVersion": "10.291",
    "createdTime": 1665428353206,
    "modifiedTime": 1689797883497,
    "lastModifiedBy": "ppv91YxratjWnkJi"
  },
  "effects": [],
  "folder": null,
  "sort": 0,
  "flags": {},
  "_key": "!items!I13eNmCFoQM0KQCZ"
}