{
  "_id": "GmGA9Nk1MCrxb6cP",
  "name": "Gluttonous Gobbler",
  "type": "feat",
  "img": "systems/pf1/icons/skills/blood_07.jpg",
  "system": {
    "description": {
      "value": "<em>Some ogres are able to quickly choke down even the largest of meals so they can get on with other business.</em><br/><br/><b>Prerequisites</b><br/>Both Improved Unarmed Strike and Improved Grapple or the grab ability, ogre, size Large or larger.<br/><br/><b>Benefits</b><br/>If you start your turn grappling another creature at least two size categories smaller than you, you can put the grappled creature in your mouth as a move action and attempt another grapple combat maneuver check (as though attempting to pin the opponent). If you succeed, you swallow the opponent as if you had the swallow whole special ability.",
      "unidentified": ""
    },
    "tags": [
      "General"
    ],
    "actions": [],
    "uses": {
      "per": null,
      "value": 0,
      "maxFormula": "",
      "autoDeductChargesCost": "1"
    },
    "attackNotes": [],
    "effectNotes": [],
    "changes": [],
    "changeFlags": {
      "loseDexToAC": false,
      "noEncumbrance": false,
      "mediumArmorFullSpeed": false,
      "heavyArmorFullSpeed": false
    },
    "contextNotes": [],
    "links": {
      "children": [],
      "charges": []
    },
    "tag": "",
    "useCustomTag": false,
    "armorProf": {
      "value": [],
      "custom": ""
    },
    "weaponProf": {
      "value": [],
      "custom": ""
    },
    "languages": {
      "value": [],
      "custom": ""
    },
    "flags": {
      "boolean": {},
      "dictionary": {}
    },
    "scriptCalls": [],
    "subType": "feat",
    "associations": {
      "classes": []
    },
    "showInQuickbar": false,
    "abilityType": "none",
    "crOffset": "",
    "disabled": false,
    "classSkills": {}
  },
  "ownership": {
    "default": 0
  },
  "_stats": {
    "systemId": "pf1",
    "systemVersion": "9.1",
    "coreVersion": "10.291",
    "createdTime": 1665428352783,
    "modifiedTime": 1689797882540,
    "lastModifiedBy": "ppv91YxratjWnkJi"
  },
  "effects": [],
  "folder": null,
  "sort": 0,
  "flags": {},
  "_key": "!items!GmGA9Nk1MCrxb6cP"
}