{
  "_id": "AslD03spaoWrpAiM",
  "name": "Go Unnoticed",
  "type": "feat",
  "img": "systems/pf1/icons/feats/blind-fight.jpg",
  "system": {
    "description": {
      "value": "<em>Your small size lets you quickly duck out of sight.</em><br/><br/><b>Prerequisites</b><br/>Dex 13, Small size or smaller.<br/><br/><b>Benefits</b><br/>During the first round of combat, flat-footed opponents are considered not to have noticed you yet for the purposes of Stealth skill checks, allowing you to make a Stealth check that round to hide from them.",
      "unidentified": ""
    },
    "tags": [
      "PFS",
      "General"
    ],
    "actions": [],
    "uses": {
      "per": null,
      "value": 0,
      "maxFormula": "",
      "autoDeductChargesCost": "1"
    },
    "attackNotes": [],
    "effectNotes": [],
    "changes": [],
    "changeFlags": {
      "loseDexToAC": false,
      "noEncumbrance": false,
      "mediumArmorFullSpeed": false,
      "heavyArmorFullSpeed": false
    },
    "contextNotes": [],
    "links": {
      "children": [],
      "charges": []
    },
    "tag": "",
    "useCustomTag": false,
    "armorProf": {
      "value": [],
      "custom": ""
    },
    "weaponProf": {
      "value": [],
      "custom": ""
    },
    "languages": {
      "value": [],
      "custom": ""
    },
    "flags": {
      "boolean": {},
      "dictionary": {}
    },
    "scriptCalls": [],
    "subType": "feat",
    "associations": {
      "classes": []
    },
    "showInQuickbar": false,
    "abilityType": "none",
    "crOffset": "",
    "disabled": false,
    "classSkills": {}
  },
  "ownership": {
    "default": 0
  },
  "_stats": {
    "systemId": "pf1",
    "systemVersion": "9.1",
    "coreVersion": "10.291",
    "createdTime": 1665428352033,
    "modifiedTime": 1689797878814,
    "lastModifiedBy": "ppv91YxratjWnkJi"
  },
  "effects": [],
  "folder": null,
  "sort": 0,
  "flags": {},
  "_key": "!items!AslD03spaoWrpAiM"
}