{
  "_id": "NA0HRoG9W9QAbKDZ",
  "name": "Grabbing Master",
  "type": "feat",
  "img": "systems/pf1/icons/feats/improved-grapple.jpg",
  "system": {
    "description": {
      "value": "<em>You can grapple two foes as easily as one.</em><br/><br/><b>Prerequisites</b><br/>Grabbing Drag, Grabbing Style, Improved Grapple; base attack bonus +12, brawler level 8th, or monk level 8th.<br/><br/><b>Benefits</b><br/>When you are grabbing two opponents while using Grabbing Style, you can use your grapple to move or damage one or both opponents you are grappling, instead of just one.<br/><br/><b>Combat Trick</b><br/>When you are grappling only one opponent while using Grabbing Style, you can spend 5 stamina points to continue to threaten the area within your reach with your free hand until the beginning of your next turn.",
      "unidentified": ""
    },
    "tags": [
      "PFS",
      "Combat"
    ],
    "actions": [],
    "uses": {
      "per": null,
      "value": 0,
      "maxFormula": "",
      "autoDeductChargesCost": "1"
    },
    "attackNotes": [],
    "effectNotes": [],
    "changes": [],
    "changeFlags": {
      "loseDexToAC": false,
      "noEncumbrance": false,
      "mediumArmorFullSpeed": false,
      "heavyArmorFullSpeed": false
    },
    "contextNotes": [],
    "links": {
      "children": [],
      "charges": []
    },
    "tag": "",
    "useCustomTag": false,
    "armorProf": {
      "value": [],
      "custom": ""
    },
    "weaponProf": {
      "value": [],
      "custom": ""
    },
    "languages": {
      "value": [],
      "custom": ""
    },
    "flags": {
      "boolean": {},
      "dictionary": {}
    },
    "scriptCalls": [],
    "subType": "feat",
    "associations": {
      "classes": []
    },
    "showInQuickbar": false,
    "abilityType": "none",
    "crOffset": "",
    "disabled": false,
    "classSkills": {}
  },
  "ownership": {
    "default": 0
  },
  "_stats": {
    "systemId": "pf1",
    "systemVersion": "9.1",
    "coreVersion": "10.291",
    "createdTime": 1665428353859,
    "modifiedTime": 1689797885845,
    "lastModifiedBy": "ppv91YxratjWnkJi"
  },
  "effects": [],
  "folder": null,
  "sort": 0,
  "flags": {},
  "_key": "!items!NA0HRoG9W9QAbKDZ"
}