{
  "_id": "SfA1sbq09qa3S1GF",
  "name": "Grabbing Style",
  "type": "feat",
  "img": "systems/pf1/icons/feats/quick-draw.jpg",
  "system": {
    "description": {
      "value": "<em>You are adept at the one-handed grab.</em><br/><br/><b>Prerequisites</b><br/>Improved Grapple; base attack bonus +6, brawler's flurry class feature, or flurry of blows class feature.<br/><br/><b>Benefits</b><br/>When you use this style, you do not take a -4 penalty on combat maneuver checks to grapple a foe with only one hand. Additionally, you do not lose your Dexterity bonus to AC while pinning an opponent.<br/><br/><b>Normal</b><br/>Without two hands free, you take a -4 penalty on the combat maneuver roll to grapple a foe. While pinning a foe, you lose your Dexterity bonus to AC.<br/><br/><b>Combat Trick</b><br/>When you make a grapple attempt with two hands while using this style, you can spend 1 stamina point to gain a +2 bonus on the grapple combat maneuver check.",
      "unidentified": ""
    },
    "tags": [
      "PFS",
      "Combat",
      "Style"
    ],
    "actions": [],
    "uses": {
      "per": null,
      "value": 0,
      "maxFormula": "",
      "autoDeductChargesCost": "1"
    },
    "attackNotes": [],
    "effectNotes": [],
    "changes": [],
    "changeFlags": {
      "loseDexToAC": false,
      "noEncumbrance": false,
      "mediumArmorFullSpeed": false,
      "heavyArmorFullSpeed": false
    },
    "contextNotes": [],
    "links": {
      "children": [],
      "charges": []
    },
    "tag": "",
    "useCustomTag": false,
    "armorProf": {
      "value": [],
      "custom": ""
    },
    "weaponProf": {
      "value": [],
      "custom": ""
    },
    "languages": {
      "value": [],
      "custom": ""
    },
    "flags": {
      "boolean": {},
      "dictionary": {}
    },
    "scriptCalls": [],
    "subType": "feat",
    "associations": {
      "classes": []
    },
    "showInQuickbar": false,
    "abilityType": "none",
    "crOffset": "",
    "disabled": false,
    "classSkills": {}
  },
  "ownership": {
    "default": 0
  },
  "_stats": {
    "systemId": "pf1",
    "systemVersion": "9.1",
    "coreVersion": "10.291",
    "createdTime": 1665428354522,
    "modifiedTime": 1689797888155,
    "lastModifiedBy": "ppv91YxratjWnkJi"
  },
  "effects": [],
  "folder": null,
  "sort": 0,
  "flags": {},
  "_key": "!items!SfA1sbq09qa3S1GF"
}