{
  "_id": "2MSEpmMXV95Hz81R",
  "name": "Gravitational Vital Strike",
  "type": "feat",
  "img": "systems/pf1/icons/skills/shadow_13.jpg",
  "system": {
    "description": {
      "value": "<em>You use unusual gravities to adjust your vital strikes.</em><br/><br/><b>Prerequisites</b><br/>Vital Strike; Heavy Gravity Acclimation or Light Gravity Acclimation.<br/><br/><b>Benefits</b><br/>When using any Vital Strike feat in an area of light or heavy gravity, roll the weapon's damage dice for the attack one additional time. For example, if using Improved Vital Strike, you would roll the weapon's damage dice for the attack four times before adding other damage bonuses, instead of three times. You must have the appropriate prerequisite feat associated with the plane's gravity trait to gain this benefit.",
      "unidentified": ""
    },
    "tags": [
      "PFS",
      "Combat"
    ],
    "actions": [],
    "uses": {
      "per": null,
      "value": 0,
      "maxFormula": "",
      "autoDeductChargesCost": "1"
    },
    "attackNotes": [],
    "effectNotes": [],
    "changes": [],
    "changeFlags": {
      "loseDexToAC": false,
      "noEncumbrance": false,
      "mediumArmorFullSpeed": false,
      "heavyArmorFullSpeed": false
    },
    "contextNotes": [],
    "links": {
      "children": [],
      "charges": []
    },
    "tag": "",
    "useCustomTag": false,
    "armorProf": {
      "value": [],
      "custom": ""
    },
    "weaponProf": {
      "value": [],
      "custom": ""
    },
    "languages": {
      "value": [],
      "custom": ""
    },
    "flags": {
      "boolean": {},
      "dictionary": {}
    },
    "scriptCalls": [],
    "subType": "feat",
    "associations": {
      "classes": []
    },
    "showInQuickbar": false,
    "abilityType": "none",
    "crOffset": "",
    "disabled": false,
    "classSkills": {}
  },
  "ownership": {
    "default": 0
  },
  "_stats": {
    "systemId": "pf1",
    "systemVersion": "9.1",
    "coreVersion": "10.291",
    "createdTime": 1665428350749,
    "modifiedTime": 1689797874840,
    "lastModifiedBy": "ppv91YxratjWnkJi"
  },
  "effects": [],
  "folder": null,
  "sort": 0,
  "flags": {},
  "_key": "!items!2MSEpmMXV95Hz81R"
}