{
  "_id": "nLZLZb7KcizyMvow",
  "name": "Greater Called Shot",
  "type": "feat",
  "img": "systems/pf1/icons/skills/yellow_03.jpg",
  "system": {
    "description": {
      "value": "<p><em>You can make multiple called shots where others could land but one.</em><br /><br /><strong>Prerequisites</strong><br />Int 13, Combat Expertise, Improved Called Shot, base attack bonus +6.<br /><br /><strong>Benefits</strong><br />Whenever you make an attack, you can choose to replace that attack with a called shot. You can make multiple called shots in a single round. Each additional called shot after the first made in the same round takes a -5 penalty. In addition, a called shot that deals half the creature's hit points of damage (minimum 40) is a debilitating blow.<br /><br /><strong>Normal</strong><br />You can make only one called shot in a round as a full-round action. A called shot that deals 50 points of damage is a debilitating blow.</p>",
      "unidentified": ""
    },
    "tags": [
      "Called Shot"
    ],
    "actions": [],
    "uses": {
      "per": null,
      "value": 0,
      "maxFormula": "",
      "autoDeductChargesCost": "1"
    },
    "attackNotes": [],
    "effectNotes": [],
    "changes": [],
    "changeFlags": {
      "loseDexToAC": false,
      "noEncumbrance": false,
      "mediumArmorFullSpeed": false,
      "heavyArmorFullSpeed": false
    },
    "contextNotes": [],
    "links": {
      "children": [],
      "charges": []
    },
    "tag": "",
    "useCustomTag": false,
    "armorProf": {
      "value": [],
      "custom": ""
    },
    "weaponProf": {
      "value": [],
      "custom": ""
    },
    "languages": {
      "value": [],
      "custom": ""
    },
    "flags": {
      "boolean": {},
      "dictionary": {}
    },
    "scriptCalls": [],
    "subType": "feat",
    "associations": {
      "classes": []
    },
    "showInQuickbar": false,
    "abilityType": "none",
    "crOffset": "",
    "disabled": false,
    "classSkills": {}
  },
  "ownership": {
    "default": 0
  },
  "_stats": {
    "systemId": "pf1",
    "systemVersion": "9.1",
    "coreVersion": "10.291",
    "createdTime": 1665428357512,
    "modifiedTime": 1689797899389,
    "lastModifiedBy": "ppv91YxratjWnkJi"
  },
  "effects": [],
  "folder": null,
  "sort": 0,
  "flags": {},
  "_key": "!items!nLZLZb7KcizyMvow"
}