{
  "_id": "H87mFGETMg3AIKRN",
  "name": "Greater Gathlain Magic",
  "type": "feat",
  "img": "systems/pf1/icons/skills/green_17.jpg",
  "system": {
    "description": {
      "value": "<em>You have greatly developed your innate magical abilities.</em><br/><br/><b>Prerequisites</b><br/>Cha 15, Advanced Gathlain Magic, character level 9th, gathlain.<br/><br/><b>Benefits</b><br/>You gain the following spells as spell-like abilities, each of which are usable 1/day: command plants, thorny entanglement.",
      "unidentified": ""
    },
    "tags": [
      "PFS",
      "Racial",
      "Gathlain"
    ],
    "actions": [],
    "uses": {
      "per": null,
      "value": 0,
      "maxFormula": "",
      "autoDeductChargesCost": "1"
    },
    "attackNotes": [],
    "effectNotes": [],
    "changes": [],
    "changeFlags": {
      "loseDexToAC": false,
      "noEncumbrance": false,
      "mediumArmorFullSpeed": false,
      "heavyArmorFullSpeed": false
    },
    "contextNotes": [],
    "links": {
      "children": [],
      "charges": []
    },
    "tag": "",
    "useCustomTag": false,
    "armorProf": {
      "value": [],
      "custom": ""
    },
    "weaponProf": {
      "value": [],
      "custom": ""
    },
    "languages": {
      "value": [],
      "custom": ""
    },
    "flags": {
      "boolean": {},
      "dictionary": {}
    },
    "scriptCalls": [],
    "subType": "feat",
    "associations": {
      "classes": []
    },
    "showInQuickbar": false,
    "abilityType": "none",
    "crOffset": "",
    "disabled": false,
    "classSkills": {}
  },
  "ownership": {
    "default": 0
  },
  "_stats": {
    "systemId": "pf1",
    "systemVersion": "9.1",
    "coreVersion": "10.291",
    "createdTime": 1665428352818,
    "modifiedTime": 1689797882701,
    "lastModifiedBy": "ppv91YxratjWnkJi"
  },
  "effects": [],
  "folder": null,
  "sort": 0,
  "flags": {},
  "_key": "!items!H87mFGETMg3AIKRN"
}