{
  "_id": "xhq9h54iC3Lgwm70",
  "name": "Greater Grapple",
  "type": "feat",
  "img": "systems/pf1/icons/feats/greater-grapple.jpg",
  "system": {
    "description": {
      "value": "<em>Maintaining a grapple is second nature to you.</em><br/><br/><b>Prerequisites</b><br/>Improved Grapple, Improved Unarmed Strike, base attack bonus +6, Dex 13.<br/><br/><b>Benefits</b><br/>You receive a +2 bonus on checks made to grapple a foe. This bonus stacks with the bonus granted by Improved Grapple. Once you have grappled a creature, maintaining the grapple is a move action. This feat allows you to make two grapple checks each round (to move, harm, or pin your opponent), but you are not required to make two checks. You only need to succeed at one of these checks to maintain the grapple.<br/><br/><b>Normal</b><br/>Maintaining a grapple is a standard action.<br/><br/><b>Combat Trick</b><br/>After you take a move action to successfully maintain a grapple, you can spend 5 stamina points before the end of your turn to maintain that grapple as a swift action. This allows you to make up to three grapple checks to maintain a grapple during a round, but you still can't maintain a grapple until the round after you initiate it.",
      "unidentified": ""
    },
    "tags": [
      "PFS",
      "Combat"
    ],
    "actions": [],
    "uses": {
      "per": null,
      "value": 0,
      "maxFormula": "",
      "autoDeductChargesCost": "1"
    },
    "attackNotes": [],
    "effectNotes": [],
    "changes": [],
    "changeFlags": {
      "loseDexToAC": false,
      "noEncumbrance": false,
      "mediumArmorFullSpeed": false,
      "heavyArmorFullSpeed": false
    },
    "contextNotes": [
      {
        "subTarget": "cmb",
        "text": "+[[2]] to grapple"
      }
    ],
    "links": {
      "children": [],
      "charges": []
    },
    "tag": "greaterGrapple",
    "useCustomTag": false,
    "armorProf": {
      "value": [],
      "custom": ""
    },
    "weaponProf": {
      "value": [],
      "custom": ""
    },
    "languages": {
      "value": [],
      "custom": ""
    },
    "flags": {
      "boolean": {},
      "dictionary": {}
    },
    "scriptCalls": [],
    "subType": "feat",
    "associations": {
      "classes": []
    },
    "showInQuickbar": false,
    "abilityType": "none",
    "crOffset": "",
    "disabled": false,
    "classSkills": {},
    "auraStrength": 0
  },
  "ownership": {
    "default": 0
  },
  "_stats": {
    "systemId": "pf1",
    "systemVersion": "9.1",
    "coreVersion": "10.291",
    "createdTime": 1665428358887,
    "modifiedTime": 1689797903865,
    "lastModifiedBy": "ppv91YxratjWnkJi"
  },
  "effects": [],
  "folder": null,
  "sort": 0,
  "flags": {},
  "_key": "!items!xhq9h54iC3Lgwm70"
}