{
  "_id": "1d3xQt4XAgCQOTpB",
  "name": "Greater Hunter's Bond",
  "type": "feat",
  "img": "systems/pf1/icons/skills/green_15.jpg",
  "system": {
    "description": {
      "value": "<em>Your allies can target additional foes.</em><br/><br/><b>Prerequisites</b><br/>Improved Hunter's Bond, hunter's bond (hunting companions) class feature, ranger level 12th.<br/><br/><b>Benefits</b><br/>When you activate hunter's bond, you can select a number of targets equal to your Wisdom modifier as long as they all count as your favored enemy.<br/><br/><b>Normal</b><br/>You select one target against which your allies receive your favored enemy bonus.",
      "unidentified": ""
    },
    "tags": [
      "PFS",
      "Combat"
    ],
    "actions": [],
    "uses": {
      "per": null,
      "value": 0,
      "maxFormula": "",
      "autoDeductChargesCost": "1"
    },
    "attackNotes": [],
    "effectNotes": [],
    "changes": [],
    "changeFlags": {
      "loseDexToAC": false,
      "noEncumbrance": false,
      "mediumArmorFullSpeed": false,
      "heavyArmorFullSpeed": false
    },
    "contextNotes": [],
    "links": {
      "children": [],
      "charges": []
    },
    "tag": "",
    "useCustomTag": false,
    "armorProf": {
      "value": [],
      "custom": ""
    },
    "weaponProf": {
      "value": [],
      "custom": ""
    },
    "languages": {
      "value": [],
      "custom": ""
    },
    "flags": {
      "boolean": {},
      "dictionary": {}
    },
    "scriptCalls": [],
    "subType": "feat",
    "associations": {
      "classes": []
    },
    "showInQuickbar": false,
    "abilityType": "none",
    "crOffset": "",
    "disabled": false,
    "classSkills": {}
  },
  "ownership": {
    "default": 0
  },
  "_stats": {
    "systemId": "pf1",
    "systemVersion": "9.1",
    "coreVersion": "10.291",
    "createdTime": 1665428350692,
    "modifiedTime": 1689797874547,
    "lastModifiedBy": "ppv91YxratjWnkJi"
  },
  "effects": [],
  "folder": null,
  "sort": 0,
  "flags": {},
  "_key": "!items!1d3xQt4XAgCQOTpB"
}