{
  "_id": "Ui3yT3xxwb6ddvWR",
  "name": "Greater Blighted Critical",
  "type": "feat",
  "img": "systems/pf1/icons/skills/affliction_04.jpg",
  "system": {
    "description": {
      "value": "<em>Your critical hit from a spell or spell-like ability afflicts the target with a major spellblight.</em><br/><br/><b>Prerequisites</b><br/>Blighted Critical, caster level 12th.<br/><br/><b>Benefits</b><br/>Whenever you confirm a critical hit with a touch spell, ranged touch spell, or spell-like ability against an opponent, the victim gains a random major spellblight.<br/><br/><b>Special</b><br/>You can only apply the effects of one critical feat to a given critical hit unless you possess Critical Mastery.",
      "unidentified": ""
    },
    "tags": [
      "PFS",
      "Critical"
    ],
    "actions": [],
    "uses": {
      "per": null,
      "value": 0,
      "maxFormula": "",
      "autoDeductChargesCost": "1"
    },
    "attackNotes": [],
    "effectNotes": [],
    "changes": [],
    "changeFlags": {
      "loseDexToAC": false,
      "noEncumbrance": false,
      "mediumArmorFullSpeed": false,
      "heavyArmorFullSpeed": false
    },
    "contextNotes": [],
    "links": {
      "children": [],
      "charges": []
    },
    "tag": "",
    "useCustomTag": false,
    "armorProf": {
      "value": [],
      "custom": ""
    },
    "weaponProf": {
      "value": [],
      "custom": ""
    },
    "languages": {
      "value": [],
      "custom": ""
    },
    "flags": {
      "boolean": {},
      "dictionary": {}
    },
    "scriptCalls": [],
    "subType": "feat",
    "associations": {
      "classes": []
    },
    "showInQuickbar": false,
    "abilityType": "none",
    "crOffset": "",
    "disabled": false,
    "classSkills": {}
  },
  "ownership": {
    "default": 0
  },
  "_stats": {
    "systemId": "pf1",
    "systemVersion": "9.1",
    "coreVersion": "10.291",
    "createdTime": 1665428354932,
    "modifiedTime": 1689797889847,
    "lastModifiedBy": "ppv91YxratjWnkJi"
  },
  "effects": [],
  "folder": null,
  "sort": 0,
  "flags": {},
  "_key": "!items!Ui3yT3xxwb6ddvWR"
}