{
  "_id": "bL5YJVNZwPgKgA7M",
  "name": "Greater Meditation Master",
  "type": "feat",
  "img": "icons/commodities/currency/coin-yingyang.webp",
  "system": {
    "description": {
      "value": "<em>You are able to glean insight from your momentary meditation longer than most.</em><br/><br/><b>Prerequisites</b><br/>Wis 15, Combat Meditation, Meditation Master, character level 11th.<br/><br/><b>Benefits</b><br/>When you meditate, you gain a +2 insight bonus instead of a +1 insight bonus. You can split this bonus between any two d20 rolls made over the duration of the feat that you used to meditate, adding +1 to each d20 roll, or using the full bonus on any one d20 roll, adding +2 to that single roll.",
      "unidentified": ""
    },
    "tags": [
      "PFS",
      "Meditation"
    ],
    "actions": [],
    "uses": {
      "per": null,
      "value": 0,
      "maxFormula": "",
      "autoDeductChargesCost": "1"
    },
    "attackNotes": [],
    "effectNotes": [],
    "changes": [],
    "changeFlags": {
      "loseDexToAC": false,
      "noEncumbrance": false,
      "mediumArmorFullSpeed": false,
      "heavyArmorFullSpeed": false
    },
    "contextNotes": [],
    "links": {
      "children": [],
      "charges": []
    },
    "tag": "",
    "useCustomTag": false,
    "armorProf": {
      "value": [],
      "custom": ""
    },
    "weaponProf": {
      "value": [],
      "custom": ""
    },
    "languages": {
      "value": [],
      "custom": ""
    },
    "flags": {
      "boolean": {},
      "dictionary": {}
    },
    "scriptCalls": [],
    "subType": "feat",
    "associations": {
      "classes": []
    },
    "showInQuickbar": false,
    "abilityType": "none",
    "crOffset": "",
    "disabled": false,
    "classSkills": {}
  },
  "ownership": {
    "default": 0
  },
  "_stats": {
    "systemId": "pf1",
    "systemVersion": "9.1",
    "coreVersion": "10.291",
    "createdTime": 1665428355656,
    "modifiedTime": 1689797893008,
    "lastModifiedBy": "ppv91YxratjWnkJi"
  },
  "effects": [],
  "folder": null,
  "sort": 0,
  "flags": {},
  "_key": "!items!bL5YJVNZwPgKgA7M"
}