{
  "_id": "bw7S8aiHi8aIs4P5",
  "name": "Greater Spelleater",
  "type": "feat",
  "img": "systems/pf1/icons/races/creature-types/plant.png",
  "system": {
    "description": {
      "value": "<em>Your ability to defeat magic has grown stronger with use.</em><br/><br/><b>Prerequisites</b><br/>Cha 13, character level 5th, ghoran, spelleater racial trait.<br/><br/><b>Benefits</b><br/>Once per week, instead of casting dispel magic as a spell-like ability, you can cast greater dispel magic. This exhausts your daily use of dispel magic granted by the spelleater racial trait. In all other respects, this ability is treated as the spelleater racial trait.",
      "unidentified": ""
    },
    "tags": [
      "Racial",
      "Ghoran"
    ],
    "actions": [],
    "uses": {
      "per": null,
      "value": 0,
      "maxFormula": "",
      "autoDeductChargesCost": "1"
    },
    "attackNotes": [],
    "effectNotes": [],
    "changes": [],
    "changeFlags": {
      "loseDexToAC": false,
      "noEncumbrance": false,
      "mediumArmorFullSpeed": false,
      "heavyArmorFullSpeed": false
    },
    "contextNotes": [],
    "links": {
      "children": [],
      "charges": []
    },
    "tag": "",
    "useCustomTag": false,
    "armorProf": {
      "value": [],
      "custom": ""
    },
    "weaponProf": {
      "value": [],
      "custom": ""
    },
    "languages": {
      "value": [],
      "custom": ""
    },
    "flags": {
      "boolean": {},
      "dictionary": {}
    },
    "scriptCalls": [],
    "subType": "feat",
    "associations": {
      "classes": []
    },
    "showInQuickbar": false,
    "abilityType": "none",
    "crOffset": "",
    "disabled": false,
    "classSkills": {}
  },
  "ownership": {
    "default": 0
  },
  "_stats": {
    "systemId": "pf1",
    "systemVersion": "9.1",
    "coreVersion": "10.291",
    "createdTime": 1665428355689,
    "modifiedTime": 1689797893196,
    "lastModifiedBy": "ppv91YxratjWnkJi"
  },
  "effects": [],
  "folder": null,
  "sort": 0,
  "flags": {},
  "_key": "!items!bw7S8aiHi8aIs4P5"
}