{
  "_id": "4qyI2mTvlv4A7w6A",
  "name": "Greater Weapon of the Chosen",
  "type": "feat",
  "img": "systems/pf1/icons/skills/light_05.jpg",
  "system": {
    "description": {
      "value": "<em>Your deity guides your hand when you fight with her favored weapon.</em><br/><br/><b>Prerequisites</b><br/>Improved Weapon of the Chosen, Weapon Focus with deity's favored weapon, Weapon of the Chosen, worship and receive spells from a deity.<br/><br/><b>Benefits</b><br/>When you use your deity's favored weapon to attempt a single attack with the attack action, you roll two dice for your attack roll and take the higher result. You do not need to use your Weapon of the Chosen feat to gain this feat's benefit. As usual, the reroll does not apply to any confirmation rolls.<br/><br/><b>Combat Trick</b><br/>When making an attack as part of a full attack with the weapon designated by your Weapon of the Chosen feat, you can spend 5 stamina points to gain the benefits of this feat on that attack.",
      "unidentified": ""
    },
    "tags": [
      "PFS",
      "Combat"
    ],
    "actions": [],
    "uses": {
      "per": null,
      "value": 0,
      "maxFormula": "",
      "autoDeductChargesCost": "1"
    },
    "attackNotes": [],
    "effectNotes": [],
    "changes": [],
    "changeFlags": {
      "loseDexToAC": false,
      "noEncumbrance": false,
      "mediumArmorFullSpeed": false,
      "heavyArmorFullSpeed": false
    },
    "contextNotes": [],
    "links": {
      "children": [],
      "charges": []
    },
    "tag": "",
    "useCustomTag": false,
    "armorProf": {
      "value": [],
      "custom": ""
    },
    "weaponProf": {
      "value": [],
      "custom": ""
    },
    "languages": {
      "value": [],
      "custom": ""
    },
    "flags": {
      "boolean": {},
      "dictionary": {}
    },
    "scriptCalls": [],
    "subType": "feat",
    "associations": {
      "classes": []
    },
    "showInQuickbar": false,
    "abilityType": "none",
    "crOffset": "",
    "disabled": false,
    "classSkills": {}
  },
  "ownership": {
    "default": 0
  },
  "_stats": {
    "systemId": "pf1",
    "systemVersion": "9.1",
    "coreVersion": "10.291",
    "createdTime": 1665428351202,
    "modifiedTime": 1689797876047,
    "lastModifiedBy": "ppv91YxratjWnkJi"
  },
  "effects": [],
  "folder": null,
  "sort": 0,
  "flags": {},
  "_key": "!items!4qyI2mTvlv4A7w6A"
}