{
  "_id": "nKqfw6pq1Kdvqu4u",
  "name": "Grenade Expert",
  "type": "feat",
  "img": "systems/pf1/icons/skills/mech_15.jpg",
  "system": {
    "description": {
      "value": "<em>You are skilled at both manufacturing and using alchemical grenades.</em><br/><br/><b>Prerequisites</b><br/>Throw Anything.<br/><br/><b>Benefits</b><br/>When you light an alchemical grenade (such as a fuse grenade, pellet grenade, or sting grenade) you select how many rounds later the grenade explodes (minimum 1 round, maximum 3 rounds). In addition, you gain a +4 bonus on Craft (alchemy) checks to craft grenades.<br/><br/><b>Normal</b><br/>Alchemical grenades explode 1d3 rounds after the fuse is lit.",
      "unidentified": ""
    },
    "tags": [
      "PFS",
      "General"
    ],
    "actions": [],
    "uses": {
      "per": null,
      "value": 0,
      "maxFormula": "",
      "autoDeductChargesCost": "1"
    },
    "attackNotes": [],
    "effectNotes": [],
    "changes": [],
    "changeFlags": {
      "loseDexToAC": false,
      "noEncumbrance": false,
      "mediumArmorFullSpeed": false,
      "heavyArmorFullSpeed": false
    },
    "contextNotes": [],
    "links": {
      "children": [],
      "charges": []
    },
    "tag": "",
    "useCustomTag": false,
    "armorProf": {
      "value": [],
      "custom": ""
    },
    "weaponProf": {
      "value": [],
      "custom": ""
    },
    "languages": {
      "value": [],
      "custom": ""
    },
    "flags": {
      "boolean": {},
      "dictionary": {}
    },
    "scriptCalls": [],
    "subType": "feat",
    "associations": {
      "classes": []
    },
    "showInQuickbar": false,
    "abilityType": "none",
    "crOffset": "",
    "disabled": false,
    "classSkills": {}
  },
  "ownership": {
    "default": 0
  },
  "_stats": {
    "systemId": "pf1",
    "systemVersion": "9.1",
    "coreVersion": "10.291",
    "createdTime": 1665428357510,
    "modifiedTime": 1689797899382,
    "lastModifiedBy": "ppv91YxratjWnkJi"
  },
  "effects": [],
  "folder": null,
  "sort": 0,
  "flags": {},
  "_key": "!items!nKqfw6pq1Kdvqu4u"
}