{
  "_id": "dVUxoB6q6JWAzgWK",
  "name": "Groundling",
  "type": "feat",
  "img": "systems/pf1/icons/races/gnome.png",
  "system": {
    "description": {
      "value": "<em>You can speak with burrowing animals.</em><br/><br/><b>Prerequisites</b><br/>Cha 13, gnome, gnome magic racial trait.<br/><br/><b>Benefits</b><br/>You can use speak with animals as a spell-like ability at will, but only to communicate with burrowing animals like gophers, moles, and the like. You can still use your gnome speak with animals ability once per day to speak with any animal, as usual.",
      "unidentified": ""
    },
    "tags": [
      "PFS",
      "Racial",
      "Gnome"
    ],
    "actions": [],
    "uses": {
      "per": null,
      "value": 0,
      "maxFormula": "",
      "autoDeductChargesCost": "1"
    },
    "attackNotes": [],
    "effectNotes": [],
    "changes": [],
    "changeFlags": {
      "loseDexToAC": false,
      "noEncumbrance": false,
      "mediumArmorFullSpeed": false,
      "heavyArmorFullSpeed": false
    },
    "contextNotes": [],
    "links": {
      "children": [],
      "charges": []
    },
    "tag": "",
    "useCustomTag": false,
    "armorProf": {
      "value": [],
      "custom": ""
    },
    "weaponProf": {
      "value": [],
      "custom": ""
    },
    "languages": {
      "value": [],
      "custom": ""
    },
    "flags": {
      "boolean": {},
      "dictionary": {}
    },
    "scriptCalls": [],
    "subType": "feat",
    "associations": {
      "classes": []
    },
    "showInQuickbar": false,
    "abilityType": "none",
    "crOffset": "",
    "disabled": false,
    "classSkills": {}
  },
  "ownership": {
    "default": 0
  },
  "_stats": {
    "systemId": "pf1",
    "systemVersion": "9.1",
    "coreVersion": "10.291",
    "createdTime": 1665428356096,
    "modifiedTime": 1689797894244,
    "lastModifiedBy": "ppv91YxratjWnkJi"
  },
  "effects": [],
  "folder": null,
  "sort": 0,
  "flags": {},
  "_key": "!items!dVUxoB6q6JWAzgWK"
}