{
  "_id": "ZICGha4eZ4U4o2XU",
  "name": "Grudge Fighter",
  "type": "feat",
  "img": "systems/pf1/icons/races/orc.png",
  "system": {
    "description": {
      "value": "<p><em>You feel great anger at anyone who dares to attack you, and this fury makes your own attacks that much stronger.</em><br /><br /><strong>Prerequisites</strong><br />Orc.<br /><br /><strong>Benefits</strong><br />You gain a +1 morale bonus on attack and damage rolls made against any creature that attacked you in the current combat.<br /><br /></p>\n<p><strong>Combat Trick</strong></p>\n<p>When you hit a creature that attacked you in the current combat, you can spend up to 2 stamina points to deal an amount of extra damage to it equal to double the number of stamina points you spent.</p>",
      "unidentified": ""
    },
    "tags": [
      "Combat"
    ],
    "actions": [],
    "uses": {
      "per": null,
      "value": 0,
      "maxFormula": "",
      "autoDeductChargesCost": "1"
    },
    "attackNotes": [],
    "effectNotes": [],
    "changes": [],
    "changeFlags": {
      "loseDexToAC": false,
      "noEncumbrance": false,
      "mediumArmorFullSpeed": false,
      "heavyArmorFullSpeed": false
    },
    "contextNotes": [],
    "links": {
      "children": [],
      "charges": []
    },
    "tag": "",
    "useCustomTag": false,
    "armorProf": {
      "value": [],
      "custom": ""
    },
    "weaponProf": {
      "value": [],
      "custom": ""
    },
    "languages": {
      "value": [],
      "custom": ""
    },
    "flags": {
      "boolean": {},
      "dictionary": {}
    },
    "scriptCalls": [],
    "subType": "feat",
    "associations": {
      "classes": []
    },
    "showInQuickbar": false,
    "abilityType": "none",
    "crOffset": "",
    "disabled": false,
    "classSkills": {}
  },
  "ownership": {
    "default": 0
  },
  "_stats": {
    "systemId": "pf1",
    "systemVersion": "9.1",
    "coreVersion": "10.291",
    "createdTime": 1665428355517,
    "modifiedTime": 1689797892268,
    "lastModifiedBy": "ppv91YxratjWnkJi"
  },
  "effects": [],
  "folder": null,
  "sort": 0,
  "flags": {},
  "_key": "!items!ZICGha4eZ4U4o2XU"
}