{
  "_id": "shB7FYyOY0MAvc9M",
  "name": "Gruesome Slaughter",
  "type": "feat",
  "img": "systems/pf1/icons/skills/blood_10.jpg",
  "system": {
    "description": {
      "value": "<em>You can inspire extreme revulsion when you slaughter your enemies.</em><br/><br/><b>Prerequisites</b><br/>Intimidating Prowess, Killing Flourish, Intimidate 11 ranks, slayer level 11th.<br/><br/><b>Benefits</b><br/>Creatures you demoralize by using the Killing Flourish feat must succeed at a Fortitude save (DC = 10 + 1/2 your character level + the higher of your Strength or Dexterity modif ier) or become sickened for 1 minute.<br/><br/><b>Combat Trick</b><br/>When using this feat, you can spend up to 5 stamina points to increase the DC of the effect by an amount equal to the number of stamina points you spent.",
      "unidentified": ""
    },
    "tags": [
      "PFS",
      "Combat"
    ],
    "actions": [],
    "uses": {
      "per": null,
      "value": 0,
      "maxFormula": "",
      "autoDeductChargesCost": "1"
    },
    "attackNotes": [],
    "effectNotes": [],
    "changes": [],
    "changeFlags": {
      "loseDexToAC": false,
      "noEncumbrance": false,
      "mediumArmorFullSpeed": false,
      "heavyArmorFullSpeed": false
    },
    "contextNotes": [],
    "links": {
      "children": [],
      "charges": []
    },
    "tag": "",
    "useCustomTag": false,
    "armorProf": {
      "value": [],
      "custom": ""
    },
    "weaponProf": {
      "value": [],
      "custom": ""
    },
    "languages": {
      "value": [],
      "custom": ""
    },
    "flags": {
      "boolean": {},
      "dictionary": {}
    },
    "scriptCalls": [],
    "subType": "feat",
    "associations": {
      "classes": []
    },
    "showInQuickbar": false,
    "abilityType": "none",
    "crOffset": "",
    "disabled": false,
    "classSkills": {}
  },
  "ownership": {
    "default": 0
  },
  "_stats": {
    "systemId": "pf1",
    "systemVersion": "9.1",
    "coreVersion": "10.291",
    "createdTime": 1665428358221,
    "modifiedTime": 1689797901728,
    "lastModifiedBy": "ppv91YxratjWnkJi"
  },
  "effects": [],
  "folder": null,
  "sort": 0,
  "flags": {},
  "_key": "!items!shB7FYyOY0MAvc9M"
}