{
  "_id": "I2RUg9KkpJrodkeH",
  "name": "Halfling Slinger",
  "type": "feat",
  "img": "systems/pf1/icons/items/weapons/sling.png",
  "system": {
    "description": {
      "value": "<em>You have honed your racial talent for slingcraft.</em><br/><br/><b>Prerequisites</b><br/>Halfling.<br/><br/><b>Benefits</b><br/>You gain a +1 racial bonus on attack rolls made using a sling.",
      "unidentified": ""
    },
    "tags": [
      "PFS",
      "Combat",
      "Racial",
      "Halfling"
    ],
    "actions": [],
    "uses": {
      "per": null,
      "value": 0,
      "maxFormula": "",
      "autoDeductChargesCost": "1"
    },
    "attackNotes": [],
    "effectNotes": [],
    "changes": [],
    "changeFlags": {
      "loseDexToAC": false,
      "noEncumbrance": false,
      "mediumArmorFullSpeed": false,
      "heavyArmorFullSpeed": false
    },
    "contextNotes": [],
    "links": {
      "children": [],
      "charges": []
    },
    "tag": "",
    "useCustomTag": false,
    "armorProf": {
      "value": [],
      "custom": ""
    },
    "weaponProf": {
      "value": [],
      "custom": ""
    },
    "languages": {
      "value": [],
      "custom": ""
    },
    "flags": {
      "boolean": {},
      "dictionary": {}
    },
    "scriptCalls": [],
    "subType": "feat",
    "associations": {
      "classes": []
    },
    "showInQuickbar": false,
    "abilityType": "none",
    "crOffset": "",
    "disabled": false,
    "classSkills": {}
  },
  "ownership": {
    "default": 0
  },
  "_stats": {
    "systemId": "pf1",
    "systemVersion": "9.1",
    "coreVersion": "10.291",
    "createdTime": 1665428353208,
    "modifiedTime": 1689797883509,
    "lastModifiedBy": "ppv91YxratjWnkJi"
  },
  "effects": [],
  "folder": null,
  "sort": 0,
  "flags": {},
  "_key": "!items!I2RUg9KkpJrodkeH"
}