{
  "_id": "IlaWfFKEyUImZyqL",
  "name": "Hamatula Grasp",
  "type": "feat",
  "img": "systems/pf1/icons/items/weapons/katar-tribladed.PNG",
  "system": {
    "description": {
      "value": "<em>You deal terrible damage to impaled foes.</em><br/><br/><b>Prerequisites</b><br/>Hamatula Strike, Improved Grapple, Strength 13, base attack bonus +9.<br/><br/><b>Benefits</b><br/>When attacking an impaled opponent (see Hamatula Strike) with the weapon that impales them, you only suffer a -2 penalty to your grapple check. If the check succeeds, you deal an extra 1d6 damage.",
      "unidentified": ""
    },
    "tags": [
      "PFS",
      "Combat"
    ],
    "actions": [],
    "uses": {
      "per": null,
      "value": 0,
      "maxFormula": "",
      "autoDeductChargesCost": "1"
    },
    "attackNotes": [],
    "effectNotes": [],
    "changes": [],
    "changeFlags": {
      "loseDexToAC": false,
      "noEncumbrance": false,
      "mediumArmorFullSpeed": false,
      "heavyArmorFullSpeed": false
    },
    "contextNotes": [],
    "links": {
      "children": [],
      "charges": []
    },
    "tag": "",
    "useCustomTag": false,
    "armorProf": {
      "value": [],
      "custom": ""
    },
    "weaponProf": {
      "value": [],
      "custom": ""
    },
    "languages": {
      "value": [],
      "custom": ""
    },
    "flags": {
      "boolean": {},
      "dictionary": {}
    },
    "scriptCalls": [],
    "subType": "feat",
    "associations": {
      "classes": []
    },
    "showInQuickbar": false,
    "abilityType": "none",
    "crOffset": "",
    "disabled": false,
    "classSkills": {}
  },
  "ownership": {
    "default": 0
  },
  "_stats": {
    "systemId": "pf1",
    "systemVersion": "9.1",
    "coreVersion": "10.291",
    "createdTime": 1665428353265,
    "modifiedTime": 1689797883781,
    "lastModifiedBy": "ppv91YxratjWnkJi"
  },
  "effects": [],
  "folder": null,
  "sort": 0,
  "flags": {},
  "_key": "!items!IlaWfFKEyUImZyqL"
}