{
  "_id": "413yPPAq9XtkrX2E",
  "name": "Hand's Detachment",
  "type": "feat",
  "img": "systems/pf1/icons/skills/shadow_21.jpg",
  "system": {
    "description": {
      "value": "<em>Your possessed hand can painlessly pull free of your body or reattach itself, leaving you with a bloodless but rawlooking stump at the end of one arm while the hand itself performs remote tasks under your command, acting in many ways like a strange familiar.</em><br/><br/><b>Prerequisites</b><br/>Hand's Autonomy, Possessed Hand.<br/><br/><b>Benefits</b><br/>You can remove your possessed hand, allowing the possessing spirit to animate and control its motion. Removing or reattaching your possessed hand is a fullround action. This deals no damage to you, but you can't use the hand while it is removed. The hand acts as a wizard's familiar, using your character level as your effective wizard level, except it doesn't gain the alertness, share spells, deliver touch spells, spell resistance, or scry on familiar abilities. Use the statistics for a crawling hand (Pathfinder RPG Bestiary 2 59) to represent the detached hand, save that the hand isn't undead, doesn't have the mark quarry ability, and shares your alignment. If the hand is destroyed, the spirit regenerates your missing hand in 2d4 days. This process can be accelerated by regenerate or similar magic. You cannot use the Possessed Hand feat or any feat with the Possessed Hand feat as a prerequisite until the hand is fully regenerated. If you have the familiar class feature, you can choose for your possessed hand to become your familiar, granting it all familiar abilities as normal. If selected as a familiar, your possessed hand grants you a +3 bonus on Sleight of Hand checks.",
      "unidentified": ""
    },
    "tags": [
      "General"
    ],
    "actions": [],
    "uses": {
      "per": null,
      "value": 0,
      "maxFormula": "",
      "autoDeductChargesCost": "1"
    },
    "attackNotes": [],
    "effectNotes": [],
    "changes": [],
    "changeFlags": {
      "loseDexToAC": false,
      "noEncumbrance": false,
      "mediumArmorFullSpeed": false,
      "heavyArmorFullSpeed": false
    },
    "contextNotes": [],
    "links": {
      "children": [],
      "charges": []
    },
    "tag": "",
    "useCustomTag": false,
    "armorProf": {
      "value": [],
      "custom": ""
    },
    "weaponProf": {
      "value": [],
      "custom": ""
    },
    "languages": {
      "value": [],
      "custom": ""
    },
    "flags": {
      "boolean": {},
      "dictionary": {}
    },
    "scriptCalls": [],
    "subType": "feat",
    "associations": {
      "classes": []
    },
    "showInQuickbar": false,
    "abilityType": "none",
    "crOffset": "",
    "disabled": false,
    "classSkills": {}
  },
  "ownership": {
    "default": 0
  },
  "_stats": {
    "systemId": "pf1",
    "systemVersion": "9.1",
    "coreVersion": "10.291",
    "createdTime": 1665428350857,
    "modifiedTime": 1689797875351,
    "lastModifiedBy": "ppv91YxratjWnkJi"
  },
  "effects": [],
  "folder": null,
  "sort": 0,
  "flags": {},
  "_key": "!items!413yPPAq9XtkrX2E"
}