{
  "_id": "G0hVIjOcoZM6daTy",
  "name": "Harder They Fall",
  "type": "feat",
  "img": "systems/pf1/icons/skills/yellow_14.jpg",
  "system": {
    "description": {
      "value": "<em>You can work with an ally to move or knock over a foe thats too large for either of you to overcome alone.</em><br/><br/><b>Prerequisites</b><br/>Str 13, Int 13, Combat Expertise, Power Attack.<br/><br/><b>Benefits</b><br/>When you use the aid another action to grant an ally who also has this feat a +2 bonus on a bull rush or trip combat maneuver check, the ally can attempt that maneuver even against foes two or more size categories larger than herself.",
      "unidentified": ""
    },
    "tags": [
      "PFS",
      "Combat",
      "Teamwork"
    ],
    "actions": [],
    "uses": {
      "per": null,
      "value": 0,
      "maxFormula": "",
      "autoDeductChargesCost": "1"
    },
    "attackNotes": [],
    "effectNotes": [],
    "changes": [],
    "changeFlags": {
      "loseDexToAC": false,
      "noEncumbrance": false,
      "mediumArmorFullSpeed": false,
      "heavyArmorFullSpeed": false
    },
    "contextNotes": [],
    "links": {
      "children": [],
      "charges": []
    },
    "tag": "",
    "useCustomTag": false,
    "armorProf": {
      "value": [],
      "custom": ""
    },
    "weaponProf": {
      "value": [],
      "custom": ""
    },
    "languages": {
      "value": [],
      "custom": ""
    },
    "flags": {
      "boolean": {},
      "dictionary": {}
    },
    "scriptCalls": [],
    "subType": "feat",
    "associations": {
      "classes": []
    },
    "showInQuickbar": false,
    "abilityType": "none",
    "crOffset": "",
    "disabled": false,
    "classSkills": {}
  },
  "ownership": {
    "default": 0
  },
  "_stats": {
    "systemId": "pf1",
    "systemVersion": "9.1",
    "coreVersion": "10.291",
    "createdTime": 1665428352704,
    "modifiedTime": 1689797882094,
    "lastModifiedBy": "ppv91YxratjWnkJi"
  },
  "effects": [],
  "folder": null,
  "sort": 0,
  "flags": {},
  "_key": "!items!G0hVIjOcoZM6daTy"
}