{
  "_id": "hpmGO5Up2mnfQu4v",
  "name": "Harmonic Sage",
  "type": "feat",
  "img": "icons/tools/instruments/harp-lap-brown.webp",
  "system": {
    "description": {
      "value": "<em>Your thorough understanding of acoustics in artificial surroundings allows you to improve the power of your bardic performance.</em><br/><br/><b>Prerequisites</b><br/>Bardic performance class feature, Knowledge (engineering) 5 ranks.<br/><br/><b>Benefits</b><br/>While inside an artificial structure, you can spend a free action to make a DC 15 Knowledge (engineering) check when you begin your bardic performance. Success on this check allows you to do one of the following.<br/><br/> Self-Harmonize<br/>By performing over the acoustic reverberations of your performance, you increase the DC of your bardic performance effects +1.<br/><br/> Reverberation<br/>You can choose to have the effect of your current bardic performance continue for 1 round after you cease maintaining it, regardless of why you cease maintaining it. You can still have no more than one bardic performance in effect at one time.<br/><br/><b>Normal</b><br/>A bardic performance lasts only as long as you maintain it.",
      "unidentified": ""
    },
    "tags": [
      "PFS",
      "General"
    ],
    "actions": [],
    "uses": {
      "per": null,
      "value": 0,
      "maxFormula": "",
      "autoDeductChargesCost": "1"
    },
    "attackNotes": [],
    "effectNotes": [],
    "changes": [],
    "changeFlags": {
      "loseDexToAC": false,
      "noEncumbrance": false,
      "mediumArmorFullSpeed": false,
      "heavyArmorFullSpeed": false
    },
    "contextNotes": [],
    "links": {
      "children": [],
      "charges": []
    },
    "tag": "",
    "useCustomTag": false,
    "armorProf": {
      "value": [],
      "custom": ""
    },
    "weaponProf": {
      "value": [],
      "custom": ""
    },
    "languages": {
      "value": [],
      "custom": ""
    },
    "flags": {
      "boolean": {},
      "dictionary": {}
    },
    "scriptCalls": [],
    "subType": "feat",
    "associations": {
      "classes": []
    },
    "showInQuickbar": false,
    "abilityType": "none",
    "crOffset": "",
    "disabled": false,
    "classSkills": {}
  },
  "ownership": {
    "default": 0
  },
  "_stats": {
    "systemId": "pf1",
    "systemVersion": "9.1",
    "coreVersion": "10.291",
    "createdTime": 1665428356741,
    "modifiedTime": 1689797896420,
    "lastModifiedBy": "ppv91YxratjWnkJi"
  },
  "effects": [],
  "folder": null,
  "sort": 0,
  "flags": {},
  "_key": "!items!hpmGO5Up2mnfQu4v"
}