{
  "_id": "lkKeNrB5iwSdAsUL",
  "name": "Haruspicy",
  "type": "feat",
  "img": "systems/pf1/icons/skills/blood_03.jpg",
  "system": {
    "description": {
      "value": "<em>You observe the signs of the universe by studying how spilled blood and viscera fall, learning insights into how to best appease unseen forces.</em><br/><br/><b>Prerequisites</b><br/>Knowledge (religion) 3 ranks.<br/><br/><b>Benefits</b><br/>If you perform a successful coup de grace, you gain a +2 circumstance bonus on skill checks attempted as part of a single occult ritual or occult skill unlock performed within the next minute. Alternatively, you can instead gain a +1 caster level bonus on a single divination or necromancy spell. The ritual or spell must begin within 1 minute of the coup de grace.",
      "unidentified": ""
    },
    "tags": [
      "General"
    ],
    "actions": [],
    "uses": {
      "per": null,
      "value": 0,
      "maxFormula": "",
      "autoDeductChargesCost": "1"
    },
    "attackNotes": [],
    "effectNotes": [],
    "changes": [],
    "changeFlags": {
      "loseDexToAC": false,
      "noEncumbrance": false,
      "mediumArmorFullSpeed": false,
      "heavyArmorFullSpeed": false
    },
    "contextNotes": [],
    "links": {
      "children": [],
      "charges": []
    },
    "tag": "",
    "useCustomTag": false,
    "armorProf": {
      "value": [],
      "custom": ""
    },
    "weaponProf": {
      "value": [],
      "custom": ""
    },
    "languages": {
      "value": [],
      "custom": ""
    },
    "flags": {
      "boolean": {},
      "dictionary": {}
    },
    "scriptCalls": [],
    "subType": "feat",
    "associations": {
      "classes": []
    },
    "showInQuickbar": false,
    "abilityType": "none",
    "crOffset": "",
    "disabled": false,
    "classSkills": {}
  },
  "ownership": {
    "default": 0
  },
  "_stats": {
    "systemId": "pf1",
    "systemVersion": "9.1",
    "coreVersion": "10.291",
    "createdTime": 1665428357415,
    "modifiedTime": 1689797898873,
    "lastModifiedBy": "ppv91YxratjWnkJi"
  },
  "effects": [],
  "folder": null,
  "sort": 0,
  "flags": {},
  "_key": "!items!lkKeNrB5iwSdAsUL"
}