{
  "_id": "T09UshDZ4R6OJ4qR",
  "name": "Heaven's Step",
  "type": "feat",
  "img": "systems/pf1/icons/skills/weapon_22.jpg",
  "system": {
    "description": {
      "value": "<em>Like the daring Heaven's Step Offensive championed by Grand Prince Gennaris III of Taldor, you confidently take the fight to your enemy and strike an unexpected blow.</em><br/><br/><b>Prerequisites</b><br/>Dex 15, Following Step, Step Up, Step Up and Strike, Two-Weapon Fighting, base attack bonus +10.<br/><br/><b>Benefits</b><br/>When you make an attack using Step Up and Strike, you can also make an extra attack with your offhand weapon using your highest base attack bonus. Both attacks take the normal penalties for two-weapon fighting.",
      "unidentified": ""
    },
    "tags": [
      "PFS",
      "Combat"
    ],
    "actions": [],
    "uses": {
      "per": null,
      "value": 0,
      "maxFormula": "",
      "autoDeductChargesCost": "1"
    },
    "attackNotes": [],
    "effectNotes": [],
    "changes": [],
    "changeFlags": {
      "loseDexToAC": false,
      "noEncumbrance": false,
      "mediumArmorFullSpeed": false,
      "heavyArmorFullSpeed": false
    },
    "contextNotes": [],
    "links": {
      "children": [],
      "charges": []
    },
    "tag": "",
    "useCustomTag": false,
    "armorProf": {
      "value": [],
      "custom": ""
    },
    "weaponProf": {
      "value": [],
      "custom": ""
    },
    "languages": {
      "value": [],
      "custom": ""
    },
    "flags": {
      "boolean": {},
      "dictionary": {}
    },
    "scriptCalls": [],
    "subType": "feat",
    "associations": {
      "classes": []
    },
    "showInQuickbar": false,
    "abilityType": "none",
    "crOffset": "",
    "disabled": false,
    "classSkills": {}
  },
  "ownership": {
    "default": 0
  },
  "_stats": {
    "systemId": "pf1",
    "systemVersion": "9.1",
    "coreVersion": "10.291",
    "createdTime": 1665428354539,
    "modifiedTime": 1689797888324,
    "lastModifiedBy": "ppv91YxratjWnkJi"
  },
  "effects": [],
  "folder": null,
  "sort": 0,
  "flags": {},
  "_key": "!items!T09UshDZ4R6OJ4qR"
}