{
  "_id": "sP6WfQX0CzTDDBnh",
  "name": "Hellknight Aegis",
  "type": "feat",
  "img": "systems/pf1/icons/items/armor/hellknight-leather.PNG",
  "system": {
    "description": {
      "value": "<p><em>Your Hellknight armor guards you against many threats.</em><br /><br /><strong>Prerequisites</strong><br />Heavy Armor Proficiency, base attack bonus +5, must swear allegiance to a single Hellknight order.<br /><br /><strong>Benefits</strong><br />Once per day as a full-round action, you can give your Hellknight armor the broken condition. Upon doing so, you are affected by one of the following spells (your choice), using your character level as your caster level: break enchantment, neutralize poison, remove disease, or remove paralysis. Once you have used this benefit, your Hellknight armor must be repaired as normal to restore its full bonus to your Armor Class and return its armor check penalty to normal.<br /><br />You can use this ability even if paralyzed or otherwise restrained, but not if you are unconscious. For the purposes of this ability, 'Hellknight armor' means any armor with the word 'Hellknight' in its name. You cannot use this ability if your armor is already broken.</p>\n<p><br /><strong>Pathfinder Society<br /></strong>In order to swear allegiance to a Hellknight order for the purpose of qualifying for character options in this book, a PC must be lawful-aligned.</p>",
      "unidentified": ""
    },
    "tags": [
      "PFS",
      "General"
    ],
    "actions": [],
    "uses": {
      "per": null,
      "value": 0,
      "maxFormula": "",
      "autoDeductChargesCost": "1"
    },
    "attackNotes": [],
    "effectNotes": [],
    "changes": [],
    "changeFlags": {
      "loseDexToAC": false,
      "noEncumbrance": false,
      "mediumArmorFullSpeed": false,
      "heavyArmorFullSpeed": false
    },
    "contextNotes": [],
    "links": {
      "children": [],
      "charges": []
    },
    "tag": "",
    "useCustomTag": false,
    "armorProf": {
      "value": [],
      "custom": ""
    },
    "weaponProf": {
      "value": [],
      "custom": ""
    },
    "languages": {
      "value": [],
      "custom": ""
    },
    "flags": {
      "boolean": {},
      "dictionary": {}
    },
    "scriptCalls": [],
    "subType": "feat",
    "associations": {
      "classes": []
    },
    "showInQuickbar": false,
    "abilityType": "none",
    "crOffset": "",
    "disabled": false,
    "classSkills": {}
  },
  "ownership": {
    "default": 0
  },
  "_stats": {
    "systemId": "pf1",
    "systemVersion": "9.1",
    "coreVersion": "10.291",
    "createdTime": 1665428358196,
    "modifiedTime": 1689797901626,
    "lastModifiedBy": "ppv91YxratjWnkJi"
  },
  "effects": [],
  "folder": null,
  "sort": 0,
  "flags": {},
  "_key": "!items!sP6WfQX0CzTDDBnh"
}