{
  "_id": "LvIuSqNDy32F5oNN",
  "name": "Hermean Blood",
  "type": "feat",
  "img": "systems/pf1/icons/skills/blood_03.jpg",
  "system": {
    "description": {
      "value": "<em>You are the descendant of someone recruited to Hermea or the bastard result of a Hermean's illicit pairing with someone foreign to that land.</em><br/><br/><b>Prerequisites</b><br/>You may only gain this feat at 1st level.<br/><br/><b>Benefits</b><br/>Though you may not know it, the blood of greatness flows in your veins. Pick two skills that share the same associated ability score. Those skills are always considered class skills for you. It's possible that Hermean agents may come looking for you, either to evaluate you for an invitation or to cover up an embarrassing dalliance, as determined by the GM's whim.",
      "unidentified": ""
    },
    "tags": [
      "PFS",
      "General"
    ],
    "actions": [],
    "uses": {
      "per": null,
      "value": 0,
      "maxFormula": "",
      "autoDeductChargesCost": "1"
    },
    "attackNotes": [],
    "effectNotes": [],
    "changes": [],
    "changeFlags": {
      "loseDexToAC": false,
      "noEncumbrance": false,
      "mediumArmorFullSpeed": false,
      "heavyArmorFullSpeed": false
    },
    "contextNotes": [],
    "links": {
      "children": [],
      "charges": []
    },
    "tag": "",
    "useCustomTag": false,
    "armorProf": {
      "value": [],
      "custom": ""
    },
    "weaponProf": {
      "value": [],
      "custom": ""
    },
    "languages": {
      "value": [],
      "custom": ""
    },
    "flags": {
      "boolean": {},
      "dictionary": {}
    },
    "scriptCalls": [],
    "subType": "feat",
    "associations": {
      "classes": []
    },
    "showInQuickbar": false,
    "abilityType": "none",
    "crOffset": "",
    "disabled": false,
    "classSkills": {}
  },
  "ownership": {
    "default": 0
  },
  "_stats": {
    "systemId": "pf1",
    "systemVersion": "9.1",
    "coreVersion": "10.291",
    "createdTime": 1665428353778,
    "modifiedTime": 1689797885361,
    "lastModifiedBy": "ppv91YxratjWnkJi"
  },
  "effects": [],
  "folder": null,
  "sort": 0,
  "flags": {},
  "_key": "!items!LvIuSqNDy32F5oNN"
}