{
  "_id": "AfkzMX0kW4cA8j5A",
  "name": "Heroic Recovery",
  "type": "feat",
  "img": "systems/pf1/icons/feats/athletic.jpg",
  "system": {
    "description": {
      "value": "<em>You can throw off the effects of crippling conditions.</em><br/><br/><b>Prerequisites</b><br/>Diehard, Endurance, base Fortitude save +4.<br/><br/><b>Benefits</b><br/>Once per day as a standard action you may attempt a new saving throw against a harmful condition or affliction requiring a Fortitude save that is affecting you. If this save against the affliction fails, there is no additional effect, but a successful save counts toward curing an affliction such as poison or disease. You cannot use this feat to recover from instantaneous effects, effects that do not allow a saving throw, or effects that do not require a Fortitude save.",
      "unidentified": ""
    },
    "tags": [
      "PFS",
      "General"
    ],
    "actions": [],
    "uses": {
      "per": null,
      "value": 0,
      "maxFormula": "",
      "autoDeductChargesCost": "1"
    },
    "attackNotes": [],
    "effectNotes": [],
    "changes": [],
    "changeFlags": {
      "loseDexToAC": false,
      "noEncumbrance": false,
      "mediumArmorFullSpeed": false,
      "heavyArmorFullSpeed": false
    },
    "contextNotes": [],
    "links": {
      "children": [],
      "charges": []
    },
    "tag": "",
    "useCustomTag": false,
    "armorProf": {
      "value": [],
      "custom": ""
    },
    "weaponProf": {
      "value": [],
      "custom": ""
    },
    "languages": {
      "value": [],
      "custom": ""
    },
    "flags": {
      "boolean": {},
      "dictionary": {}
    },
    "scriptCalls": [],
    "subType": "feat",
    "associations": {
      "classes": []
    },
    "showInQuickbar": false,
    "abilityType": "none",
    "crOffset": "",
    "disabled": false,
    "classSkills": {}
  },
  "ownership": {
    "default": 0
  },
  "_stats": {
    "systemId": "pf1",
    "systemVersion": "9.1",
    "coreVersion": "10.291",
    "createdTime": 1665428352009,
    "modifiedTime": 1689797878711,
    "lastModifiedBy": "ppv91YxratjWnkJi"
  },
  "effects": [],
  "folder": null,
  "sort": 0,
  "flags": {},
  "_key": "!items!AfkzMX0kW4cA8j5A"
}