{
  "_id": "ft149JvGjJ7Cn3eP",
  "name": "Hidden Presence",
  "type": "feat",
  "img": "systems/pf1/icons/skills/blood_13.jpg",
  "system": {
    "description": {
      "value": "<em>You are adept at hiding within your host.</em><br/><br/><b>Prerequisites</b><br/>Int or Cha 17, ability to cast possession or greater possession.<br/><br/><b>Benefits</b><br/>While possessing another creature, you can hide yourself from divinations and pass through wards such as magic circle against evil or the effects of a forbiddance spell. You must attempt a Will save against the spell (even if it doesn't normally allow a saving throw). If you succeed, the spell treats you as if you were your host (for instance, divinations would reveal only the host's alignment, and forbiddance keyed to the host's alignment wouldn't damage you). If your saving throw fails, the spell functions against you as normal; if the spell normally allows a save, your previous failure doesn't count as a failed save against the spell's normal effects.",
      "unidentified": ""
    },
    "tags": [
      "PFS",
      "General"
    ],
    "actions": [],
    "uses": {
      "per": null,
      "value": 0,
      "maxFormula": "",
      "autoDeductChargesCost": "1"
    },
    "attackNotes": [],
    "effectNotes": [],
    "changes": [],
    "changeFlags": {
      "loseDexToAC": false,
      "noEncumbrance": false,
      "mediumArmorFullSpeed": false,
      "heavyArmorFullSpeed": false
    },
    "contextNotes": [],
    "links": {
      "children": [],
      "charges": []
    },
    "tag": "",
    "useCustomTag": false,
    "armorProf": {
      "value": [],
      "custom": ""
    },
    "weaponProf": {
      "value": [],
      "custom": ""
    },
    "languages": {
      "value": [],
      "custom": ""
    },
    "flags": {
      "boolean": {},
      "dictionary": {}
    },
    "scriptCalls": [],
    "subType": "feat",
    "associations": {
      "classes": []
    },
    "showInQuickbar": false,
    "abilityType": "none",
    "crOffset": "",
    "disabled": false,
    "classSkills": {}
  },
  "ownership": {
    "default": 0
  },
  "_stats": {
    "systemId": "pf1",
    "systemVersion": "9.1",
    "coreVersion": "10.291",
    "createdTime": 1665428356289,
    "modifiedTime": 1689797895214,
    "lastModifiedBy": "ppv91YxratjWnkJi"
  },
  "effects": [],
  "folder": null,
  "sort": 0,
  "flags": {},
  "_key": "!items!ft149JvGjJ7Cn3eP"
}