{
  "_id": "m48XRNeMS23M1hXB",
  "name": "Hinderance Dismissal",
  "type": "feat",
  "img": "systems/pf1/icons/spells/slice-orange-1.jpg",
  "system": {
    "description": {
      "value": "<em>You've mastered the art of dismissing certain spells when they become a problem for you or your allies.</em><br/><br/><b>Benefits</b><br/>You can dismiss any pit spell (such as create pit, hungry pit, spiked pit, and similar spells with 'pit' in their names) or wall spell (such as wall of fire, wall of ice, and similar spells with 'wall' in their names) you cast. The spells must have a duration of at least 1 round. This ability follows the normal rules for dismissing spells, allowing you to dismiss conjured pits and walls as a standard action.<br/><br/><b>Normal</b><br/>Several pit and wall spells cannot be dismissed without the use of this feat.",
      "unidentified": ""
    },
    "tags": [
      "PFS",
      "General"
    ],
    "actions": [],
    "uses": {
      "per": null,
      "value": 0,
      "maxFormula": "",
      "autoDeductChargesCost": "1"
    },
    "attackNotes": [],
    "effectNotes": [],
    "changes": [],
    "changeFlags": {
      "loseDexToAC": false,
      "noEncumbrance": false,
      "mediumArmorFullSpeed": false,
      "heavyArmorFullSpeed": false
    },
    "contextNotes": [],
    "links": {
      "children": [],
      "charges": []
    },
    "tag": "",
    "useCustomTag": false,
    "armorProf": {
      "value": [],
      "custom": ""
    },
    "weaponProf": {
      "value": [],
      "custom": ""
    },
    "languages": {
      "value": [],
      "custom": ""
    },
    "flags": {
      "boolean": {},
      "dictionary": {}
    },
    "scriptCalls": [],
    "subType": "feat",
    "associations": {
      "classes": []
    },
    "showInQuickbar": false,
    "abilityType": "none",
    "crOffset": "",
    "disabled": false,
    "classSkills": {}
  },
  "ownership": {
    "default": 0
  },
  "_stats": {
    "systemId": "pf1",
    "systemVersion": "9.1",
    "coreVersion": "10.291",
    "createdTime": 1665428357436,
    "modifiedTime": 1689797898995,
    "lastModifiedBy": "ppv91YxratjWnkJi"
  },
  "effects": [],
  "folder": null,
  "sort": 0,
  "flags": {},
  "_key": "!items!m48XRNeMS23M1hXB"
}