{
  "_id": "VDfgfGuIg4g7ID2B",
  "name": "Horn of the Criosphinx",
  "type": "feat",
  "img": "systems/pf1/icons/items/weapons/dwarven-sphinx-hammer.PNG",
  "system": {
    "description": {
      "value": "<p><em>You end your charge in a devastating two-handed attack.</em><br /><br /><strong>Prerequisites</strong><br />Base attack bonus +6 or monk level 6th.<br /><br /><strong>Benefits</strong><br />Whenever you make a successful charge attack while wielding a two-handed weapon in both hands, add two times your Strength bonus to the damage roll.<br /><br /><strong>Normal</strong><br />A character wielding a two-handed weapon adds 1-1/2 times her Strength bonus to damage rolls.<br /><br /><strong>Special</strong><br />A monk can use this feat as long as he is wielding a two-handed weapon or both his hands are empty.<br /><br /><strong>Note</strong>: A monk can take this feat as a bonus feat at 6th level. To benefit from this feat, monks must have both hands free and be capable of delivering an unarmed strike.</p>",
      "unidentified": ""
    },
    "tags": [
      "PFS",
      "Combat"
    ],
    "actions": [],
    "uses": {
      "per": null,
      "value": 0,
      "maxFormula": "",
      "autoDeductChargesCost": "1"
    },
    "attackNotes": [],
    "effectNotes": [],
    "changes": [],
    "changeFlags": {
      "loseDexToAC": false,
      "noEncumbrance": false,
      "mediumArmorFullSpeed": false,
      "heavyArmorFullSpeed": false
    },
    "contextNotes": [],
    "links": {
      "children": [],
      "charges": []
    },
    "tag": "",
    "useCustomTag": false,
    "armorProf": {
      "value": [],
      "custom": ""
    },
    "weaponProf": {
      "value": [],
      "custom": ""
    },
    "languages": {
      "value": [],
      "custom": ""
    },
    "flags": {
      "boolean": {},
      "dictionary": {}
    },
    "scriptCalls": [],
    "subType": "feat",
    "associations": {
      "classes": []
    },
    "showInQuickbar": false,
    "abilityType": "none",
    "crOffset": "",
    "disabled": false,
    "classSkills": {}
  },
  "ownership": {
    "default": 0
  },
  "_stats": {
    "systemId": "pf1",
    "systemVersion": "9.1",
    "coreVersion": "10.291",
    "createdTime": 1665428354961,
    "modifiedTime": 1689797890006,
    "lastModifiedBy": "ppv91YxratjWnkJi"
  },
  "effects": [],
  "folder": null,
  "sort": 0,
  "flags": {},
  "_key": "!items!VDfgfGuIg4g7ID2B"
}