{
  "_id": "pD5TgIJ39S7FhLE0",
  "name": "Human Spirit",
  "type": "feat",
  "img": "systems/pf1/icons/races/half-elf.png",
  "system": {
    "description": {
      "value": "<em>Your blood burns with the passion and unyielding quest for self-improvement displayed so prominently by your human relatives.</em><br/><br/><b>Prerequisites</b><br/>Half-elf.<br/><br/><b>Benefits</b><br/>You receive 1 bonus skill rank. Whenever you gain another Hit Die, you gain an additional skill rank. You cannot gain more than four skill ranks in this way.<br/><br/><b>Special</b><br/>You can only take this feat at 1st level. If you take this feat, you cannot take the Elven Spirit feat.",
      "unidentified": ""
    },
    "tags": [
      "PFS",
      "Racial",
      "Half-elf"
    ],
    "actions": [],
    "uses": {
      "per": null,
      "value": 0,
      "maxFormula": "",
      "autoDeductChargesCost": "1"
    },
    "attackNotes": [],
    "effectNotes": [],
    "changes": [],
    "changeFlags": {
      "loseDexToAC": false,
      "noEncumbrance": false,
      "mediumArmorFullSpeed": false,
      "heavyArmorFullSpeed": false
    },
    "contextNotes": [],
    "links": {
      "children": [],
      "charges": []
    },
    "tag": "",
    "useCustomTag": false,
    "armorProf": {
      "value": [],
      "custom": ""
    },
    "weaponProf": {
      "value": [],
      "custom": ""
    },
    "languages": {
      "value": [],
      "custom": ""
    },
    "flags": {
      "boolean": {},
      "dictionary": {}
    },
    "scriptCalls": [],
    "subType": "feat",
    "associations": {
      "classes": []
    },
    "showInQuickbar": false,
    "abilityType": "none",
    "crOffset": "",
    "disabled": false,
    "classSkills": {}
  },
  "ownership": {
    "default": 0
  },
  "_stats": {
    "systemId": "pf1",
    "systemVersion": "9.1",
    "coreVersion": "10.291",
    "createdTime": 1665428357640,
    "modifiedTime": 1689797899963,
    "lastModifiedBy": "ppv91YxratjWnkJi"
  },
  "effects": [],
  "folder": null,
  "sort": 0,
  "flags": {},
  "_key": "!items!pD5TgIJ39S7FhLE0"
}