{
  "_id": "C44V7euMz1lVx74R",
  "name": "Illusive Gnome Bewilderment",
  "type": "feat",
  "img": "systems/pf1/icons/skills/mech_8.jpg",
  "system": {
    "description": {
      "value": "<em>You can use your gnome weapons in unusual ways.</em><br/><br/><b>Prerequisites</b><br/>Int 13, Combat Expertise, Gnome Weapon Focus, Illusive Gnome Style, Illusive Gnome Surprise, Improved Feint, gnome magic and weapon familiarity racial traits.<br/><br/><b>Benefits</b><br/>While using Illusive Gnome Style, when you successfully use Bluff to feint against an opponent, you can pick one special weapon feature from among those listed by Illusive Gnome Surprise and deny the opponent its Dexterity modifier to AC, as normal for feinting; alternatively, you can pick two special weapon features instead of one.",
      "unidentified": ""
    },
    "tags": [
      "PFS",
      "Combat",
      "Racial",
      "Gnome"
    ],
    "actions": [],
    "uses": {
      "per": null,
      "value": 0,
      "maxFormula": "",
      "autoDeductChargesCost": "1"
    },
    "attackNotes": [],
    "effectNotes": [],
    "changes": [],
    "changeFlags": {
      "loseDexToAC": false,
      "noEncumbrance": false,
      "mediumArmorFullSpeed": false,
      "heavyArmorFullSpeed": false
    },
    "contextNotes": [],
    "links": {
      "children": [],
      "charges": []
    },
    "tag": "",
    "useCustomTag": false,
    "armorProf": {
      "value": [],
      "custom": ""
    },
    "weaponProf": {
      "value": [],
      "custom": ""
    },
    "languages": {
      "value": [],
      "custom": ""
    },
    "flags": {
      "boolean": {},
      "dictionary": {}
    },
    "scriptCalls": [],
    "subType": "feat",
    "associations": {
      "classes": []
    },
    "showInQuickbar": false,
    "abilityType": "none",
    "crOffset": "",
    "disabled": false,
    "classSkills": {}
  },
  "ownership": {
    "default": 0
  },
  "_stats": {
    "systemId": "pf1",
    "systemVersion": "9.1",
    "coreVersion": "10.291",
    "createdTime": 1665428352108,
    "modifiedTime": 1689797879186,
    "lastModifiedBy": "ppv91YxratjWnkJi"
  },
  "effects": [],
  "folder": null,
  "sort": 0,
  "flags": {},
  "_key": "!items!C44V7euMz1lVx74R"
}