{
  "_id": "T4sIEEuMQ7aQCnqa",
  "name": "Imposing Bearing",
  "type": "feat",
  "img": "systems/pf1/icons/feats/deafening-critical.jpg",
  "system": {
    "description": {
      "value": "<em>Your armor allows you to push your opponents around.</em><br/><br/><b>Prerequisites</b><br/>Poised Bearing, base attack bonus +11 or fighter level 8th, armor training class feature, proficiency with heavy armor.<br/><br/><b>Benefits</b><br/>You treat your size as two categories larger for the purposes of determining the size of creatures against which you can attempt bull rush, drag, overrun, and trip combat maneuvers.<br/><br/><b>Combat Trick</b><br/>You can spend 5 stamina points as a swift action to add half your armor bonus to your next combat maneuver check this turn. Alternatively, you can spend 5 stamina points as an immediate action to add half your armor bonus to your CMD against a single combat maneuver this turn. (See page 17.)",
      "unidentified": ""
    },
    "tags": [
      "PFS",
      "Armor Mastery",
      "Combat"
    ],
    "actions": [],
    "uses": {
      "per": null,
      "value": 0,
      "maxFormula": "",
      "autoDeductChargesCost": "1"
    },
    "attackNotes": [],
    "effectNotes": [],
    "changes": [],
    "changeFlags": {
      "loseDexToAC": false,
      "noEncumbrance": false,
      "mediumArmorFullSpeed": false,
      "heavyArmorFullSpeed": false
    },
    "contextNotes": [],
    "links": {
      "children": [],
      "charges": []
    },
    "tag": "",
    "useCustomTag": false,
    "armorProf": {
      "value": [],
      "custom": ""
    },
    "weaponProf": {
      "value": [],
      "custom": ""
    },
    "languages": {
      "value": [],
      "custom": ""
    },
    "flags": {
      "boolean": {},
      "dictionary": {}
    },
    "scriptCalls": [],
    "subType": "feat",
    "associations": {
      "classes": []
    },
    "showInQuickbar": false,
    "abilityType": "none",
    "crOffset": "",
    "disabled": false,
    "classSkills": {}
  },
  "ownership": {
    "default": 0
  },
  "_stats": {
    "systemId": "pf1",
    "systemVersion": "9.1",
    "coreVersion": "10.291",
    "createdTime": 1665428354547,
    "modifiedTime": 1689797888409,
    "lastModifiedBy": "ppv91YxratjWnkJi"
  },
  "effects": [],
  "folder": null,
  "sort": 0,
  "flags": {},
  "_key": "!items!T4sIEEuMQ7aQCnqa"
}