{
  "_id": "EiSKVmyOAd6mGdEb",
  "name": "Improved Snap Shot",
  "type": "feat",
  "img": "systems/pf1/icons/skills/arrow_11.jpg",
  "system": {
    "description": {
      "value": "<em>You can take advantage of your opponent's vulnerabilities from a greater distance, and without exposing yourself.</em><br/><br/><b>Prerequisites</b><br/>Dex 15, Point-Blank Shot, Rapid Shot, Snap Shot, Weapon Focus, base attack bonus +9.<br/><br/><b>Benefits</b><br/>You threaten an additional 5 feet with Snap Shot.<br/><br/><b>Normal</b><br/>Making a ranged attack provokes attacks of opportunity.<br/><br/><b>Combat Trick</b><br/>At the end of your turn, you can spend 5 stamina points to threaten an additional 15 feet with Snap ShotAPG (instead of an additional 10 feet) until you take an attack of opportunity against an opponent in the expanded threat range or the beginning of your next turn, whichever comes first.",
      "unidentified": ""
    },
    "tags": [
      "PFS",
      "Combat"
    ],
    "actions": [],
    "uses": {
      "per": null,
      "value": 0,
      "maxFormula": "",
      "autoDeductChargesCost": "1"
    },
    "attackNotes": [],
    "effectNotes": [],
    "changes": [],
    "changeFlags": {
      "loseDexToAC": false,
      "noEncumbrance": false,
      "mediumArmorFullSpeed": false,
      "heavyArmorFullSpeed": false
    },
    "contextNotes": [],
    "links": {
      "children": [],
      "charges": []
    },
    "tag": "",
    "useCustomTag": false,
    "armorProf": {
      "value": [],
      "custom": ""
    },
    "weaponProf": {
      "value": [],
      "custom": ""
    },
    "languages": {
      "value": [],
      "custom": ""
    },
    "flags": {
      "boolean": {},
      "dictionary": {}
    },
    "scriptCalls": [],
    "subType": "feat",
    "associations": {
      "classes": []
    },
    "showInQuickbar": false,
    "abilityType": "none",
    "crOffset": "",
    "disabled": false,
    "classSkills": {}
  },
  "ownership": {
    "default": 0
  },
  "_stats": {
    "systemId": "pf1",
    "systemVersion": "9.1",
    "coreVersion": "10.291",
    "createdTime": 1665428352588,
    "modifiedTime": 1689797881149,
    "lastModifiedBy": "ppv91YxratjWnkJi"
  },
  "effects": [],
  "folder": null,
  "sort": 0,
  "flags": {},
  "_key": "!items!EiSKVmyOAd6mGdEb"
}