{
  "_id": "wrIGw4uojygCUKZs",
  "name": "Improved Rending Fury",
  "type": "feat",
  "img": "systems/pf1/icons/skills/red_31.jpg",
  "system": {
    "description": {
      "value": "<em>Honing the deadliness of your claws, you are a living hurricane of rending fury.</em><br/><br/><b>Prerequisites</b><br/>Rending Fury, base attack bonus +9, rend special attack.<br/><br/><b>Benefits</b><br/>Whenever you successfully rend an opponent, you deal an extra 1d6 damage. This damage is not multiplied on a critical hit.<br/><br/><b>Combat Trick</b><br/>As long as you have at least 1 stamina point in your stamina pool, the extra damage from this feat is multiplied on a critical hit.",
      "unidentified": ""
    },
    "tags": [
      "PFS",
      "Combat"
    ],
    "actions": [],
    "uses": {
      "per": null,
      "value": 0,
      "maxFormula": "",
      "autoDeductChargesCost": "1"
    },
    "attackNotes": [],
    "effectNotes": [],
    "changes": [],
    "changeFlags": {
      "loseDexToAC": false,
      "noEncumbrance": false,
      "mediumArmorFullSpeed": false,
      "heavyArmorFullSpeed": false
    },
    "contextNotes": [],
    "links": {
      "children": [],
      "charges": []
    },
    "tag": "",
    "useCustomTag": false,
    "armorProf": {
      "value": [],
      "custom": ""
    },
    "weaponProf": {
      "value": [],
      "custom": ""
    },
    "languages": {
      "value": [],
      "custom": ""
    },
    "flags": {
      "boolean": {},
      "dictionary": {}
    },
    "scriptCalls": [],
    "subType": "feat",
    "associations": {
      "classes": []
    },
    "showInQuickbar": false,
    "abilityType": "none",
    "crOffset": "",
    "disabled": false,
    "classSkills": {}
  },
  "ownership": {
    "default": 0
  },
  "_stats": {
    "systemId": "pf1",
    "systemVersion": "9.1",
    "coreVersion": "10.291",
    "createdTime": 1665428358851,
    "modifiedTime": 1689797903601,
    "lastModifiedBy": "ppv91YxratjWnkJi"
  },
  "effects": [],
  "folder": null,
  "sort": 0,
  "flags": {},
  "_key": "!items!wrIGw4uojygCUKZs"
}