{
  "_id": "DFXaCr8NK0NWGN8t",
  "name": "Improved Share Spells",
  "type": "feat",
  "img": "systems/pf1/icons/spells/link-blue-1.jpg",
  "system": {
    "description": {
      "value": "<em>You can share spells with those you have a magical connection with.</em><br/><br/><b>Prerequisites</b><br/>Spellcraft 10 ranks, ability to acquire an animal companion, eidolon, familiar, or special mount.<br/><br/><b>Benefits</b><br/>Any non-instantaneous spell (but not any spell-like ability) you cast on yourself can also affect a creature bonded to you (such as an animal companion, eidolon, familiar, or special mount). The creature must be within 5 feet of you at the time of casting to receive the benefit. The spell's duration is halved between you and your bonded creature (for example, a spell with a duration of 1 hour has a duration of 30 minutes for both you and your bonded creature). <br/><br/> If the spell or effect has a duration other than instantaneous, it stops affecting the creature if it moves farther than 5 feet away from you. It does not affect the creature again if it returns before the duration expires. <br/><br/> You may share spells in this fashion even if the spells normally do not affect creatures of that type. <br/><br/> This feat only applies to animal companions, eidolons, familiars, or special mounts gained through a class feature.",
      "unidentified": ""
    },
    "tags": [
      "PFS",
      "General"
    ],
    "actions": [],
    "uses": {
      "per": null,
      "value": 0,
      "maxFormula": "",
      "autoDeductChargesCost": "1"
    },
    "attackNotes": [],
    "effectNotes": [],
    "changes": [],
    "changeFlags": {
      "loseDexToAC": false,
      "noEncumbrance": false,
      "mediumArmorFullSpeed": false,
      "heavyArmorFullSpeed": false
    },
    "contextNotes": [],
    "links": {
      "children": [],
      "charges": []
    },
    "tag": "",
    "useCustomTag": false,
    "armorProf": {
      "value": [],
      "custom": ""
    },
    "weaponProf": {
      "value": [],
      "custom": ""
    },
    "languages": {
      "value": [],
      "custom": ""
    },
    "flags": {
      "boolean": {},
      "dictionary": {}
    },
    "scriptCalls": [],
    "subType": "feat",
    "associations": {
      "classes": []
    },
    "showInQuickbar": false,
    "abilityType": "none",
    "crOffset": "",
    "disabled": false,
    "classSkills": {}
  },
  "ownership": {
    "default": 0
  },
  "_stats": {
    "systemId": "pf1",
    "systemVersion": "9.1",
    "coreVersion": "10.291",
    "createdTime": 1665428352457,
    "modifiedTime": 1689797880253,
    "lastModifiedBy": "ppv91YxratjWnkJi"
  },
  "effects": [],
  "folder": null,
  "sort": 0,
  "flags": {},
  "_key": "!items!DFXaCr8NK0NWGN8t"
}