{
  "_id": "URCn5dGFiS1hVUtX",
  "name": "Improved Familiar Bond",
  "type": "feat",
  "img": "systems/pf1/icons/skills/violet_18.jpg",
  "system": {
    "description": {
      "value": "<em>Your familiar gains greater power.</em><br/><br/><b>Prerequisites</b><br/>Familiar Bond, Iron Will.<br/><br/><b>Benefits</b><br/>Your familiar gains all the normal abilities available to a familiar of a wizard with a level equal to your total Hit Dice. You also gain the special ability normally gained by a master of your type of familiar.",
      "unidentified": ""
    },
    "tags": [
      "PFS",
      "General"
    ],
    "actions": [],
    "uses": {
      "per": null,
      "value": 0,
      "maxFormula": "",
      "autoDeductChargesCost": "1"
    },
    "attackNotes": [],
    "effectNotes": [],
    "changes": [],
    "changeFlags": {
      "loseDexToAC": false,
      "noEncumbrance": false,
      "mediumArmorFullSpeed": false,
      "heavyArmorFullSpeed": false
    },
    "contextNotes": [],
    "links": {
      "children": [],
      "charges": []
    },
    "tag": "",
    "useCustomTag": false,
    "armorProf": {
      "value": [],
      "custom": ""
    },
    "weaponProf": {
      "value": [],
      "custom": ""
    },
    "languages": {
      "value": [],
      "custom": ""
    },
    "flags": {
      "boolean": {},
      "dictionary": {}
    },
    "scriptCalls": [],
    "subType": "feat",
    "associations": {
      "classes": []
    },
    "showInQuickbar": false,
    "abilityType": "none",
    "crOffset": "",
    "disabled": false,
    "classSkills": {}
  },
  "ownership": {
    "default": 0
  },
  "_stats": {
    "systemId": "pf1",
    "systemVersion": "9.1",
    "coreVersion": "10.291",
    "createdTime": 1665428354913,
    "modifiedTime": 1689797889712,
    "lastModifiedBy": "ppv91YxratjWnkJi"
  },
  "effects": [],
  "folder": null,
  "sort": 0,
  "flags": {},
  "_key": "!items!URCn5dGFiS1hVUtX"
}