{
  "_id": "OL7uJsokNG3Puc11",
  "name": "Improved Hammer Throw",
  "type": "feat",
  "img": "systems/pf1/icons/skills/weapon_42.jpg",
  "system": {
    "description": {
      "value": "<em>Your ability to knock down your foes with ranged attacks is impressive.</em><br/><br/><b>Prerequisites</b><br/>Int 13, Combat Expertise, Hammer Throw, Improved Trip, Point-Blank Shot, Precise Shot, base attack bonus +6, dwarf.<br/><br/><b>Benefits</b><br/>You can use the Hammer Throw feat against targets at any range and of any size.",
      "unidentified": ""
    },
    "tags": [
      "PFS",
      "Combat",
      "Racial",
      "Dwarf"
    ],
    "actions": [],
    "uses": {
      "per": null,
      "value": 0,
      "maxFormula": "",
      "autoDeductChargesCost": "1"
    },
    "attackNotes": [],
    "effectNotes": [],
    "changes": [],
    "changeFlags": {
      "loseDexToAC": false,
      "noEncumbrance": false,
      "mediumArmorFullSpeed": false,
      "heavyArmorFullSpeed": false
    },
    "contextNotes": [],
    "links": {
      "children": [],
      "charges": []
    },
    "tag": "",
    "useCustomTag": false,
    "armorProf": {
      "value": [],
      "custom": ""
    },
    "weaponProf": {
      "value": [],
      "custom": ""
    },
    "languages": {
      "value": [],
      "custom": ""
    },
    "flags": {
      "boolean": {},
      "dictionary": {}
    },
    "scriptCalls": [],
    "subType": "feat",
    "associations": {
      "classes": []
    },
    "showInQuickbar": false,
    "abilityType": "none",
    "crOffset": "",
    "disabled": false,
    "classSkills": {}
  },
  "ownership": {
    "default": 0
  },
  "_stats": {
    "systemId": "pf1",
    "systemVersion": "9.1",
    "coreVersion": "10.291",
    "createdTime": 1665428353940,
    "modifiedTime": 1689797886243,
    "lastModifiedBy": "ppv91YxratjWnkJi"
  },
  "effects": [],
  "folder": null,
  "sort": 0,
  "flags": {},
  "_key": "!items!OL7uJsokNG3Puc11"
}