{
  "_id": "3BdlHzs0UFMUUXrx",
  "name": "Improved Conceal Spell",
  "type": "feat",
  "img": "systems/pf1/icons/spells/runes-blue-1.jpg",
  "system": {
    "description": {
      "value": "<em>You can conceal the mightiest spells in the subtlest fashions.</em><br/><br/><b>Prerequisites</b><br/>Conceal Spell, Deceitful, Bluff 5 ranks, Disguise 5 ranks, Sleight of Hand 10 ranks, ability to cast 3rd-level spells or use a 3rd-level spell-like ability.<br/><br/><b>Benefits</b><br/>When you use Conceal Spell, creatures no longer gain a bonus equal to the level of the spell or spell-like ability on their checks to notice the hidden spell.<br/><br/><b>Normal</b><br/>Creatures attempting to notice a spell hidden with Conceal Spell gain a bonus equal to the level of the spell or spell-like ability on their Perception, Sense Motive, and Spellcraft checks.",
      "unidentified": ""
    },
    "tags": [
      "PFS",
      "General"
    ],
    "actions": [],
    "uses": {
      "per": null,
      "value": 0,
      "maxFormula": "",
      "autoDeductChargesCost": "1"
    },
    "attackNotes": [],
    "effectNotes": [],
    "changes": [],
    "changeFlags": {
      "loseDexToAC": false,
      "noEncumbrance": false,
      "mediumArmorFullSpeed": false,
      "heavyArmorFullSpeed": false
    },
    "contextNotes": [],
    "links": {
      "children": [],
      "charges": []
    },
    "tag": "",
    "useCustomTag": false,
    "armorProf": {
      "value": [],
      "custom": ""
    },
    "weaponProf": {
      "value": [],
      "custom": ""
    },
    "languages": {
      "value": [],
      "custom": ""
    },
    "flags": {
      "boolean": {},
      "dictionary": {}
    },
    "scriptCalls": [],
    "subType": "feat",
    "associations": {
      "classes": []
    },
    "showInQuickbar": false,
    "abilityType": "none",
    "crOffset": "",
    "disabled": false,
    "classSkills": {}
  },
  "ownership": {
    "default": 0
  },
  "_stats": {
    "systemId": "pf1",
    "systemVersion": "9.1",
    "coreVersion": "10.291",
    "createdTime": 1665428350789,
    "modifiedTime": 1689797875022,
    "lastModifiedBy": "ppv91YxratjWnkJi"
  },
  "effects": [],
  "folder": null,
  "sort": 0,
  "flags": {},
  "_key": "!items!3BdlHzs0UFMUUXrx"
}