{
  "_id": "swfU7XmMDeoYbarm",
  "name": "Improved Sunder",
  "type": "feat",
  "img": "systems/pf1/icons/feats/improved-sunder.jpg",
  "system": {
    "description": {
      "value": "<em>You are skilled at damaging your foes' weapons and armor.</em><br/><br/><b>Prerequisites</b><br/>Str 13, Power Attack, base attack bonus +1.<br/><br/><b>Benefits</b><br/>You do not provoke an attack of opportunity when performing a sunder combat maneuver. In addition, you receive a +2 bonus on checks made to sunder an item. You also receive a +2 bonus to your Combat Maneuver Defense whenever an opponent tries to sunder your gear.<br/><br/><b>Normal</b><br/>You provoke an attack of opportunity when performing a sunder combat maneuver.<br/><br/><b>Combat Trick</b><br/>When you are the target of a sunder combat maneuver, you can spend a number of stamina points up to your Strength or Dexterity bonus, whichever is greater. Your CMD increases by that number for that sunder attempt.",
      "unidentified": ""
    },
    "tags": [
      "PFS",
      "Combat"
    ],
    "actions": [],
    "uses": {
      "per": null,
      "value": 0,
      "maxFormula": "",
      "autoDeductChargesCost": "1"
    },
    "attackNotes": [],
    "effectNotes": [],
    "changes": [],
    "changeFlags": {
      "loseDexToAC": false,
      "noEncumbrance": false,
      "mediumArmorFullSpeed": false,
      "heavyArmorFullSpeed": false
    },
    "contextNotes": [
      {
        "subTarget": "cmb",
        "text": "+[[2]] to sunder"
      },
      {
        "subTarget": "cmd",
        "text": "+[[2]] vs sunder"
      }
    ],
    "links": {
      "children": [],
      "charges": []
    },
    "tag": "improvedSunder",
    "useCustomTag": false,
    "armorProf": {
      "value": [],
      "custom": ""
    },
    "weaponProf": {
      "value": [],
      "custom": ""
    },
    "languages": {
      "value": [],
      "custom": ""
    },
    "flags": {
      "boolean": {},
      "dictionary": {}
    },
    "scriptCalls": [],
    "subType": "feat",
    "associations": {
      "classes": []
    },
    "showInQuickbar": false,
    "abilityType": "none",
    "crOffset": "",
    "disabled": false,
    "classSkills": {},
    "auraStrength": 0
  },
  "ownership": {
    "default": 0
  },
  "_stats": {
    "systemId": "pf1",
    "systemVersion": "9.1",
    "coreVersion": "10.291",
    "createdTime": 1665428358236,
    "modifiedTime": 1689797901811,
    "lastModifiedBy": "ppv91YxratjWnkJi"
  },
  "effects": [],
  "folder": null,
  "sort": 0,
  "flags": {},
  "_key": "!items!swfU7XmMDeoYbarm"
}