{
  "_id": "cXRxY3sO0jrtADfD",
  "name": "Improved Devastating Strike",
  "type": "feat",
  "img": "systems/pf1/icons/feats/improved-vital-strike.jpg",
  "system": {
    "description": {
      "value": "<em>The fury and power channeled through your attack is enough to kill a lesser being outright.</em><br/><br/><b>Prerequisites</b><br/>Devastating Strike, Vital Strike, base attack bonus +13.<br/><br/><b>Benefits</b><br/>Whenever you use Vital Strike, Improved Vital Strike, or Greater Vital Strike, you gain a bonus on attack rolls to confirm a critical hit equal to the bonus on damage rolls you gain from Devastating Strike.<br/><br/><b>Combat Trick</b><br/>Whenever you use the Devastating Strike combat trick, increase the bonus damage to +6 on each of the extra sets of weapon damage dice. For weapons with more than one damage die, count all the weapon's base damage dice together as one set.",
      "unidentified": ""
    },
    "tags": [
      "PFS",
      "Combat"
    ],
    "actions": [],
    "uses": {
      "per": null,
      "value": 0,
      "maxFormula": "",
      "autoDeductChargesCost": "1"
    },
    "attackNotes": [],
    "effectNotes": [],
    "changes": [],
    "changeFlags": {
      "loseDexToAC": false,
      "noEncumbrance": false,
      "mediumArmorFullSpeed": false,
      "heavyArmorFullSpeed": false
    },
    "contextNotes": [],
    "links": {
      "children": [],
      "charges": []
    },
    "tag": "",
    "useCustomTag": false,
    "armorProf": {
      "value": [],
      "custom": ""
    },
    "weaponProf": {
      "value": [],
      "custom": ""
    },
    "languages": {
      "value": [],
      "custom": ""
    },
    "flags": {
      "boolean": {},
      "dictionary": {}
    },
    "scriptCalls": [],
    "subType": "feat",
    "associations": {
      "classes": []
    },
    "showInQuickbar": false,
    "abilityType": "none",
    "crOffset": "",
    "disabled": false,
    "classSkills": {}
  },
  "ownership": {
    "default": 0
  },
  "_stats": {
    "systemId": "pf1",
    "systemVersion": "9.1",
    "coreVersion": "10.291",
    "createdTime": 1665428355735,
    "modifiedTime": 1689797893449,
    "lastModifiedBy": "ppv91YxratjWnkJi"
  },
  "effects": [],
  "folder": null,
  "sort": 0,
  "flags": {},
  "_key": "!items!cXRxY3sO0jrtADfD"
}