{
  "_id": "BIZVOXFVwsn7n55D",
  "name": "Improved Infuse Weapon",
  "type": "feat",
  "img": "systems/pf1/icons/spells/enchant-magenta-3.jpg",
  "system": {
    "description": {
      "value": "<em>When you infuse weapons, you may add an additional magical quality.</em><br/><br/><b>Prerequisites</b><br/>Infuse weapon special ability, Cha 27<br/><br/><b>Benefits</b><br/>When you infuse a weapon, you can add an additional +1 worth of weapon qualities to that weapon; this could either be used to increase a weapon infused to be a +1 weapon to be a +2 weapon, or to grant a weapon quality like flaming, defending, keen, or any other +1 quality from the Pathfinder RPG Core Rulebook. This effect occurs automatically as you infuse a weapon, but you may only do so to one weapon you wield at a time.<br/><br/><b>Special</b><br/>You may take this feat more than once; each time you do, the limit to the number of weapons on which you can simultaneously use Improved Infuse Weapon increases by 2.",
      "unidentified": ""
    },
    "tags": [
      "General"
    ],
    "actions": [],
    "uses": {
      "per": null,
      "value": 0,
      "maxFormula": "",
      "autoDeductChargesCost": "1"
    },
    "attackNotes": [],
    "effectNotes": [],
    "changes": [],
    "changeFlags": {
      "loseDexToAC": false,
      "noEncumbrance": false,
      "mediumArmorFullSpeed": false,
      "heavyArmorFullSpeed": false
    },
    "contextNotes": [],
    "links": {
      "children": [],
      "charges": []
    },
    "tag": "",
    "useCustomTag": false,
    "armorProf": {
      "value": [],
      "custom": ""
    },
    "weaponProf": {
      "value": [],
      "custom": ""
    },
    "languages": {
      "value": [],
      "custom": ""
    },
    "flags": {
      "boolean": {},
      "dictionary": {}
    },
    "scriptCalls": [],
    "subType": "feat",
    "associations": {
      "classes": []
    },
    "showInQuickbar": false,
    "abilityType": "none",
    "crOffset": "",
    "disabled": false,
    "classSkills": {}
  },
  "ownership": {
    "default": 0
  },
  "_stats": {
    "systemId": "pf1",
    "systemVersion": "9.1",
    "coreVersion": "10.291",
    "createdTime": 1665428352068,
    "modifiedTime": 1689797878965,
    "lastModifiedBy": "ppv91YxratjWnkJi"
  },
  "effects": [],
  "folder": null,
  "sort": 0,
  "flags": {},
  "_key": "!items!BIZVOXFVwsn7n55D"
}