{
  "_id": "uY42VcGFdqsaDjVR",
  "name": "Improved Stellar Wanderer",
  "type": "feat",
  "img": "systems/pf1/icons/skills/violet_08.jpg",
  "system": {
    "description": {
      "value": "<em>You have mastered the art of planar travel through your time on Cynosure.</em><br/><br/><b>Prerequisites</b><br/>Stellar Wanderer, Knowledge (planes) 15 ranks.<br/><br/><b>Benefits</b><br/>When using the Stellar Wanderer feat for planar travel, you can choose up to eight creatures to be transported with you. You now appear 1 to 100 miles (1d%) from your intended destination rather than 5 to 500 miles.",
      "unidentified": ""
    },
    "tags": [
      "General"
    ],
    "actions": [],
    "uses": {
      "per": null,
      "value": 0,
      "maxFormula": "",
      "autoDeductChargesCost": "1"
    },
    "attackNotes": [],
    "effectNotes": [],
    "changes": [],
    "changeFlags": {
      "loseDexToAC": false,
      "noEncumbrance": false,
      "mediumArmorFullSpeed": false,
      "heavyArmorFullSpeed": false
    },
    "contextNotes": [],
    "links": {
      "children": [],
      "charges": []
    },
    "tag": "",
    "useCustomTag": false,
    "armorProf": {
      "value": [],
      "custom": ""
    },
    "weaponProf": {
      "value": [],
      "custom": ""
    },
    "languages": {
      "value": [],
      "custom": ""
    },
    "flags": {
      "boolean": {},
      "dictionary": {}
    },
    "scriptCalls": [],
    "subType": "feat",
    "associations": {
      "classes": []
    },
    "showInQuickbar": false,
    "abilityType": "none",
    "crOffset": "",
    "disabled": false,
    "classSkills": {}
  },
  "ownership": {
    "default": 0
  },
  "_stats": {
    "systemId": "pf1",
    "systemVersion": "9.1",
    "coreVersion": "10.291",
    "createdTime": 1665428358715,
    "modifiedTime": 1689797902747,
    "lastModifiedBy": "ppv91YxratjWnkJi"
  },
  "effects": [],
  "folder": null,
  "sort": 0,
  "flags": {},
  "_key": "!items!uY42VcGFdqsaDjVR"
}