{
  "_id": "OYKXMl4diLeGyifQ",
  "name": "Improved Outflank",
  "type": "feat",
  "img": "systems/pf1/icons/feats/lunge.jpg",
  "system": {
    "description": {
      "value": "<em>You can easily find openings in your enemies' defenses.</em><br/><br/><b>Prerequisites</b><br/>Outflank, base attack bonus +6.<br/><br/><b>Benefits</b><br/>Whenever you and an ally who also has this feat are threatening the same foe, you are considered to be flanking that foe if you are adjacent to an unoccupied square from which you would be able to flank the foe with your ally.<br/><br/><b>Normal</b><br/>You must be positioned opposite an ally to flank an opponent.",
      "unidentified": ""
    },
    "tags": [
      "PFS",
      "Combat",
      "Teamwork"
    ],
    "actions": [],
    "uses": {
      "per": null,
      "value": 0,
      "maxFormula": "",
      "autoDeductChargesCost": "1"
    },
    "attackNotes": [],
    "effectNotes": [],
    "changes": [],
    "changeFlags": {
      "loseDexToAC": false,
      "noEncumbrance": false,
      "mediumArmorFullSpeed": false,
      "heavyArmorFullSpeed": false
    },
    "contextNotes": [],
    "links": {
      "children": [],
      "charges": []
    },
    "tag": "",
    "useCustomTag": false,
    "armorProf": {
      "value": [],
      "custom": ""
    },
    "weaponProf": {
      "value": [],
      "custom": ""
    },
    "languages": {
      "value": [],
      "custom": ""
    },
    "flags": {
      "boolean": {},
      "dictionary": {}
    },
    "scriptCalls": [],
    "subType": "feat",
    "associations": {
      "classes": []
    },
    "showInQuickbar": false,
    "abilityType": "none",
    "crOffset": "",
    "disabled": false,
    "classSkills": {}
  },
  "ownership": {
    "default": 0
  },
  "_stats": {
    "systemId": "pf1",
    "systemVersion": "9.1",
    "coreVersion": "10.291",
    "createdTime": 1665428353959,
    "modifiedTime": 1689797886315,
    "lastModifiedBy": "ppv91YxratjWnkJi"
  },
  "effects": [],
  "folder": null,
  "sort": 0,
  "flags": {},
  "_key": "!items!OYKXMl4diLeGyifQ"
}