{
  "_id": "acCT98MVvIcSvBDZ",
  "name": "Impressive Grit",
  "type": "feat",
  "img": "systems/pf1/icons/skills/weapon_36.jpg",
  "system": {
    "description": {
      "value": "<em>Your mastery of ranged weapons allows you to perform impressive deeds.</em><br/><br/><b>Prerequisites</b><br/>Base attack bonus +11, weapon training class feature with a ranged weapon.<br/><br/><b>Benefits</b><br/>Select one of the following gunslinger deeds: dead shot, startling shot, or targeting. You can perform the selected deed a number of times per day equal to your highest mental ability score modifier (Intelligence, Wisdom, or Charisma; minimum 1). You can use this deed with an appropriate ranged weapon. If you also have the selected deed as a class feature, reduce the number of grit points that you need to use it by 1, as per the Signature Deed feat.<br/><br/><b>Special</b><br/>You can select Impressive Grit up to three times. Each time you select it, choose a different gunslinger deed. A gunslinger can ignore the weapon training class feature prerequisite of Impressive Grit.",
      "unidentified": ""
    },
    "tags": [
      "PFS",
      "Weapon Mastery"
    ],
    "actions": [],
    "uses": {
      "per": null,
      "value": 0,
      "maxFormula": "",
      "autoDeductChargesCost": "1"
    },
    "attackNotes": [],
    "effectNotes": [],
    "changes": [],
    "changeFlags": {
      "loseDexToAC": false,
      "noEncumbrance": false,
      "mediumArmorFullSpeed": false,
      "heavyArmorFullSpeed": false
    },
    "contextNotes": [],
    "links": {
      "children": [],
      "charges": []
    },
    "tag": "",
    "useCustomTag": false,
    "armorProf": {
      "value": [],
      "custom": ""
    },
    "weaponProf": {
      "value": [],
      "custom": ""
    },
    "languages": {
      "value": [],
      "custom": ""
    },
    "flags": {
      "boolean": {},
      "dictionary": {}
    },
    "scriptCalls": [],
    "subType": "feat",
    "associations": {
      "classes": []
    },
    "showInQuickbar": false,
    "abilityType": "none",
    "crOffset": "",
    "disabled": false,
    "classSkills": {}
  },
  "ownership": {
    "default": 0
  },
  "_stats": {
    "systemId": "pf1",
    "systemVersion": "9.1",
    "coreVersion": "10.291",
    "createdTime": 1665428355598,
    "modifiedTime": 1689797892692,
    "lastModifiedBy": "ppv91YxratjWnkJi"
  },
  "effects": [],
  "folder": null,
  "sort": 0,
  "flags": {},
  "_key": "!items!acCT98MVvIcSvBDZ"
}