{
  "_id": "5r33SwOguzVDBb3m",
  "name": "Improved Charging Hurler",
  "type": "feat",
  "img": "systems/pf1/icons/items/weapons/javelin.PNG",
  "system": {
    "description": {
      "value": "<em>Every muscle in your body adds its force to your thrown weapons.</em><br/><br/><b>Prerequisites</b><br/>Charging Hurler, Point-Blank Shot.<br/><br/><b>Benefits</b><br/>When you use Charging Hurler, your target can be at any range up to your weapon's maximum range. If your target is within 30 feet, you gain a +2 bonus on damage rolls.<br/><br/><b>Normal</b><br/>Using Charging Hurler requires you to end your movement within 30 feet of your opponent.<br/><br/><b>Combat Trick</b><br/>When using Charging Hurler against a target within 30 feet, you can spend up to 2 stamina points. When you do, the bonus on your damage roll for that attack increases by double the number of stamina points you spent.",
      "unidentified": ""
    },
    "tags": [
      "PFS",
      "Combat"
    ],
    "actions": [],
    "uses": {
      "per": null,
      "value": 0,
      "maxFormula": "",
      "autoDeductChargesCost": "1"
    },
    "attackNotes": [],
    "effectNotes": [],
    "changes": [],
    "changeFlags": {
      "loseDexToAC": false,
      "noEncumbrance": false,
      "mediumArmorFullSpeed": false,
      "heavyArmorFullSpeed": false
    },
    "contextNotes": [],
    "links": {
      "children": [],
      "charges": []
    },
    "tag": "",
    "useCustomTag": false,
    "armorProf": {
      "value": [],
      "custom": ""
    },
    "weaponProf": {
      "value": [],
      "custom": ""
    },
    "languages": {
      "value": [],
      "custom": ""
    },
    "flags": {
      "boolean": {},
      "dictionary": {}
    },
    "scriptCalls": [],
    "subType": "feat",
    "associations": {
      "classes": []
    },
    "showInQuickbar": false,
    "abilityType": "none",
    "crOffset": "",
    "disabled": false,
    "classSkills": {}
  },
  "ownership": {
    "default": 0
  },
  "_stats": {
    "systemId": "pf1",
    "systemVersion": "9.1",
    "coreVersion": "10.291",
    "createdTime": 1665428351284,
    "modifiedTime": 1689797876452,
    "lastModifiedBy": "ppv91YxratjWnkJi"
  },
  "effects": [],
  "folder": null,
  "sort": 0,
  "flags": {},
  "_key": "!items!5r33SwOguzVDBb3m"
}