{
  "_id": "zW5RRkuifjW9gmKR",
  "name": "Improved Stonecunning (Mythic)",
  "type": "feat",
  "img": "systems/pf1/icons/races/dwarf.png",
  "system": {
    "description": {
      "value": "<em>If you listen close, you can hear the secrets of stone.</em><br/><br/><b>Prerequisites</b><br/>Improved Stonecunning.<br/><br/><b>Benefits</b><br/>You gain stone tell as a spell-like ability usable once per day with a caster level equal to twice your tier.",
      "unidentified": ""
    },
    "tags": [
      "PFS",
      "General",
      "Mythic"
    ],
    "actions": [],
    "uses": {
      "per": null,
      "value": 0,
      "maxFormula": "",
      "autoDeductChargesCost": "1"
    },
    "attackNotes": [],
    "effectNotes": [],
    "changes": [],
    "changeFlags": {
      "loseDexToAC": false,
      "noEncumbrance": false,
      "mediumArmorFullSpeed": false,
      "heavyArmorFullSpeed": false
    },
    "contextNotes": [],
    "links": {
      "children": [],
      "charges": []
    },
    "tag": "",
    "useCustomTag": false,
    "armorProf": {
      "value": [],
      "custom": ""
    },
    "weaponProf": {
      "value": [],
      "custom": ""
    },
    "languages": {
      "value": [],
      "custom": ""
    },
    "flags": {
      "boolean": {},
      "dictionary": {}
    },
    "scriptCalls": [],
    "subType": "feat",
    "associations": {
      "classes": []
    },
    "showInQuickbar": false,
    "abilityType": "none",
    "crOffset": "",
    "disabled": false,
    "classSkills": {}
  },
  "ownership": {
    "default": 0
  },
  "_stats": {
    "systemId": "pf1",
    "systemVersion": "9.1",
    "coreVersion": "10.291",
    "createdTime": 1665428359370,
    "modifiedTime": 1689797905027,
    "lastModifiedBy": "ppv91YxratjWnkJi"
  },
  "effects": [],
  "folder": null,
  "sort": 0,
  "flags": {},
  "_key": "!items!zW5RRkuifjW9gmKR"
}