{
  "_id": "lGEPUZ3rLiw8OsKh",
  "name": "Improved Beast Hunter",
  "type": "feat",
  "img": "icons/environment/wilderness/statue-hound-horned.webp",
  "system": {
    "description": {
      "value": "<em>You are well trained in stalking and hunting the animals of the wild.</em><br/><br/><b>Prerequisites</b><br/>Beast Hunter; base attack bonus +3; Knowledge (nature) or Survival 3 ranks.<br/><br/><b>Benefits</b><br/>When fighting animals that are at least one size category larger than you and that are native to the terrain you have chosen with Beast Hunter, you gain a +4 bonus on combat maneuver checks and a +4 to your CMD against such animals' attempts to use combat maneuvers against you. Additionally, you gain a +2 bonus on Reflex saves against attacks by the animal that allow a Reflex save (such as attempting to avoid a trample attack).<br/><br/><b>Special</b><br/>If you have selected Beast Hunter multiple times, you gain this benefit for all of the terrains you have chosen for those feats.",
      "unidentified": ""
    },
    "tags": [
      "PFS",
      "Combat"
    ],
    "actions": [],
    "uses": {
      "per": null,
      "value": 0,
      "maxFormula": "",
      "autoDeductChargesCost": "1"
    },
    "attackNotes": [],
    "effectNotes": [],
    "changes": [],
    "changeFlags": {
      "loseDexToAC": false,
      "noEncumbrance": false,
      "mediumArmorFullSpeed": false,
      "heavyArmorFullSpeed": false
    },
    "contextNotes": [],
    "links": {
      "children": [],
      "charges": []
    },
    "tag": "",
    "useCustomTag": false,
    "armorProf": {
      "value": [],
      "custom": ""
    },
    "weaponProf": {
      "value": [],
      "custom": ""
    },
    "languages": {
      "value": [],
      "custom": ""
    },
    "flags": {
      "boolean": {},
      "dictionary": {}
    },
    "scriptCalls": [],
    "subType": "feat",
    "associations": {
      "classes": []
    },
    "showInQuickbar": false,
    "abilityType": "none",
    "crOffset": "",
    "disabled": false,
    "classSkills": {}
  },
  "ownership": {
    "default": 0
  },
  "_stats": {
    "systemId": "pf1",
    "systemVersion": "9.1",
    "coreVersion": "10.291",
    "createdTime": 1665428357369,
    "modifiedTime": 1689797898460,
    "lastModifiedBy": "ppv91YxratjWnkJi"
  },
  "effects": [],
  "folder": null,
  "sort": 0,
  "flags": {},
  "_key": "!items!lGEPUZ3rLiw8OsKh"
}