{
  "_id": "QrZnS8x7kNPoocJ0",
  "name": "Improved Intercept Blow",
  "type": "feat",
  "img": "systems/pf1/icons/misc/divert.png",
  "system": {
    "description": {
      "value": "<em>The animal's intervention completely protects its master from harm.</em><br/><br/><b>Prerequisites</b><br/>Intercept Blow, base attack bonus +6, animal companion.<br/><br/><b>Benefits</b><br/>When the animal companion uses Intercept Blow to intercept an opponent's melee attack and succeeds, it can take all the damage from the intercepted attack, in which case its master takes no damage from the intercepted attack and doesn't suffer effects that trigger on a hit.",
      "unidentified": ""
    },
    "tags": [
      "PFS",
      "Combat"
    ],
    "actions": [],
    "uses": {
      "per": null,
      "value": 0,
      "maxFormula": "",
      "autoDeductChargesCost": "1"
    },
    "attackNotes": [],
    "effectNotes": [],
    "changes": [],
    "changeFlags": {
      "loseDexToAC": false,
      "noEncumbrance": false,
      "mediumArmorFullSpeed": false,
      "heavyArmorFullSpeed": false
    },
    "contextNotes": [],
    "links": {
      "children": [],
      "charges": []
    },
    "tag": "",
    "useCustomTag": false,
    "armorProf": {
      "value": [],
      "custom": ""
    },
    "weaponProf": {
      "value": [],
      "custom": ""
    },
    "languages": {
      "value": [],
      "custom": ""
    },
    "flags": {
      "boolean": {},
      "dictionary": {}
    },
    "scriptCalls": [],
    "subType": "feat",
    "associations": {
      "classes": []
    },
    "showInQuickbar": false,
    "abilityType": "none",
    "crOffset": "",
    "disabled": false,
    "classSkills": {}
  },
  "ownership": {
    "default": 0
  },
  "_stats": {
    "systemId": "pf1",
    "systemVersion": "9.1",
    "coreVersion": "10.291",
    "createdTime": 1665428354411,
    "modifiedTime": 1689797887505,
    "lastModifiedBy": "ppv91YxratjWnkJi"
  },
  "effects": [],
  "folder": null,
  "sort": 0,
  "flags": {},
  "_key": "!items!QrZnS8x7kNPoocJ0"
}