{
  "_id": "kJrpKhtOh1Ldz2U6",
  "name": "Improved Drag (Mythic)",
  "type": "feat",
  "img": "systems/pf1/icons/feats/greater-trip.jpg",
  "system": {
    "description": {
      "value": "<em>You pull your enemies around the battlefield with great ease.</em><br/><br/><b>Prerequisites</b><br/>Improved Drag.<br/><br/><b>Benefits</b><br/>You gain a bonus equal to half your tier on checks to attempt a drag combat maneuver, and to your CMD when an opponent attempts a drag combat maneuver against you. These bonuses stack with those granted by Improved Drag.<br/><br/> Furthermore, you can make an attack of opportunity against any creature that attempts a drag maneuver against you, unless it also has this feat.",
      "unidentified": ""
    },
    "tags": [
      "PFS",
      "Combat",
      "Mythic"
    ],
    "actions": [],
    "uses": {
      "per": null,
      "value": 0,
      "maxFormula": "",
      "autoDeductChargesCost": "1"
    },
    "attackNotes": [],
    "effectNotes": [],
    "changes": [],
    "changeFlags": {
      "loseDexToAC": false,
      "noEncumbrance": false,
      "mediumArmorFullSpeed": false,
      "heavyArmorFullSpeed": false
    },
    "contextNotes": [],
    "links": {
      "children": [],
      "charges": []
    },
    "tag": "",
    "useCustomTag": false,
    "armorProf": {
      "value": [],
      "custom": ""
    },
    "weaponProf": {
      "value": [],
      "custom": ""
    },
    "languages": {
      "value": [],
      "custom": ""
    },
    "flags": {
      "boolean": {},
      "dictionary": {}
    },
    "scriptCalls": [],
    "subType": "feat",
    "associations": {
      "classes": []
    },
    "showInQuickbar": false,
    "abilityType": "none",
    "crOffset": "",
    "disabled": false,
    "classSkills": {}
  },
  "ownership": {
    "default": 0
  },
  "_stats": {
    "systemId": "pf1",
    "systemVersion": "9.1",
    "coreVersion": "10.291",
    "createdTime": 1665428356905,
    "modifiedTime": 1689797897491,
    "lastModifiedBy": "ppv91YxratjWnkJi"
  },
  "effects": [],
  "folder": null,
  "sort": 0,
  "flags": {},
  "_key": "!items!kJrpKhtOh1Ldz2U6"
}