{
  "_id": "49OFK0CKf6MEv1dU",
  "name": "Improved Grapple",
  "type": "feat",
  "img": "systems/pf1/icons/feats/improved-grapple.jpg",
  "system": {
    "description": {
      "value": "<em>You are skilled at grappling opponents.</em><br/><br/><b>Prerequisites</b><br/>Dex 13, Improved Unarmed Strike.<br/><br/><b>Benefits</b><br/>You do not provoke an attack of opportunity when performing a grapple combat maneuver. In addition, you receive a +2 bonus on checks made to grapple a foe. You also receive a +2 bonus to your Combat Maneuver Defense whenever an opponent tries to grapple you.<br/><br/><b>Normal</b><br/>You provoke an attack of opportunity when performing a grapple combat maneuver.<br/><br/><b>Combat Trick</b><br/>When you are the target of a grapple combat maneuver to initiate or maintain a grapple, you can spend a number of stamina points up to your Strength or Dexterity bonus, whichever is greater. Your CMD against that grapple attempt increases by that number.",
      "unidentified": ""
    },
    "tags": [
      "PFS",
      "Combat"
    ],
    "actions": [],
    "uses": {
      "per": null,
      "value": 0,
      "maxFormula": "",
      "autoDeductChargesCost": "1"
    },
    "attackNotes": [],
    "effectNotes": [],
    "changes": [],
    "changeFlags": {
      "loseDexToAC": false,
      "noEncumbrance": false,
      "mediumArmorFullSpeed": false,
      "heavyArmorFullSpeed": false
    },
    "contextNotes": [
      {
        "subTarget": "cmb",
        "text": "+[[2]] to grapple"
      },
      {
        "subTarget": "cmd",
        "text": "+[[2]] vs grapple"
      }
    ],
    "links": {
      "children": [],
      "charges": []
    },
    "tag": "improvedGrapple",
    "useCustomTag": false,
    "armorProf": {
      "value": [],
      "custom": ""
    },
    "weaponProf": {
      "value": [],
      "custom": ""
    },
    "languages": {
      "value": [],
      "custom": ""
    },
    "flags": {
      "boolean": {},
      "dictionary": {}
    },
    "scriptCalls": [],
    "subType": "feat",
    "associations": {
      "classes": []
    },
    "showInQuickbar": false,
    "abilityType": "none",
    "crOffset": "",
    "disabled": false,
    "classSkills": {},
    "auraStrength": 0
  },
  "ownership": {
    "default": 0
  },
  "_stats": {
    "systemId": "pf1",
    "systemVersion": "9.1",
    "coreVersion": "10.291",
    "createdTime": 1665428350872,
    "modifiedTime": 1689797875411,
    "lastModifiedBy": "ppv91YxratjWnkJi"
  },
  "effects": [],
  "folder": null,
  "sort": 0,
  "flags": {},
  "_key": "!items!49OFK0CKf6MEv1dU"
}