{
  "_id": "BaRKymiXKhOtTxLs",
  "name": "Improved Channel Force",
  "type": "feat",
  "img": "systems/pf1/icons/races/aasimar.png",
  "system": {
    "description": {
      "value": "<em>You move your enemies within a beam of righteous energy.</em><br/><br/><b>Prerequisites</b><br/>Channel Force, aasimar, channel energy 4d6.<br/><br/><b>Benefits</b><br/>When using Channel Force, you can affect all creatures in a 60-foot line or a 30-foot cone-shaped burst. You must choose to either push or pull all creatures within the affected area that fail their saves.",
      "unidentified": ""
    },
    "tags": [
      "PFS",
      "Racial",
      "Aasimar",
      "Channeling"
    ],
    "actions": [],
    "uses": {
      "per": null,
      "value": 0,
      "maxFormula": "",
      "autoDeductChargesCost": "1"
    },
    "attackNotes": [],
    "effectNotes": [],
    "changes": [],
    "changeFlags": {
      "loseDexToAC": false,
      "noEncumbrance": false,
      "mediumArmorFullSpeed": false,
      "heavyArmorFullSpeed": false
    },
    "contextNotes": [],
    "links": {
      "children": [],
      "charges": []
    },
    "tag": "",
    "useCustomTag": false,
    "armorProf": {
      "value": [],
      "custom": ""
    },
    "weaponProf": {
      "value": [],
      "custom": ""
    },
    "languages": {
      "value": [],
      "custom": ""
    },
    "flags": {
      "boolean": {},
      "dictionary": {}
    },
    "scriptCalls": [],
    "subType": "feat",
    "associations": {
      "classes": []
    },
    "showInQuickbar": false,
    "abilityType": "none",
    "crOffset": "",
    "disabled": false,
    "classSkills": {}
  },
  "ownership": {
    "default": 0
  },
  "_stats": {
    "systemId": "pf1",
    "systemVersion": "9.1",
    "coreVersion": "10.291",
    "createdTime": 1665428352083,
    "modifiedTime": 1689797879036,
    "lastModifiedBy": "ppv91YxratjWnkJi"
  },
  "effects": [],
  "folder": null,
  "sort": 0,
  "flags": {},
  "_key": "!items!BaRKymiXKhOtTxLs"
}