{
  "_id": "RJhnAXsdsuog6Iez",
  "name": "Improved Improvisation",
  "type": "feat",
  "img": "systems/pf1/icons/races/human.jpg",
  "system": {
    "description": {
      "value": "<em>You are masterful in your improvisation.</em><br/><br/><b>Prerequisites</b><br/>Int 13, Fast Learner, Improvisation, human.<br/><br/><b>Benefits</b><br/>Your nonproficiency penalty with weapons, armor, and shields is halved. In addition, the bonus on all skill checks for skills you have no ranks in increases to +4 instead of +2.",
      "unidentified": ""
    },
    "tags": [
      "PFS",
      "Racial",
      "Human"
    ],
    "actions": [],
    "uses": {
      "per": null,
      "value": 0,
      "maxFormula": "",
      "autoDeductChargesCost": "1"
    },
    "attackNotes": [],
    "effectNotes": [],
    "changes": [],
    "changeFlags": {
      "loseDexToAC": false,
      "noEncumbrance": false,
      "mediumArmorFullSpeed": false,
      "heavyArmorFullSpeed": false
    },
    "contextNotes": [],
    "links": {
      "children": [],
      "charges": []
    },
    "tag": "",
    "useCustomTag": false,
    "armorProf": {
      "value": [],
      "custom": ""
    },
    "weaponProf": {
      "value": [],
      "custom": ""
    },
    "languages": {
      "value": [],
      "custom": ""
    },
    "flags": {
      "boolean": {},
      "dictionary": {}
    },
    "scriptCalls": [],
    "subType": "feat",
    "associations": {
      "classes": []
    },
    "showInQuickbar": false,
    "abilityType": "none",
    "crOffset": "",
    "disabled": false,
    "classSkills": {}
  },
  "ownership": {
    "default": 0
  },
  "_stats": {
    "systemId": "pf1",
    "systemVersion": "9.1",
    "coreVersion": "10.291",
    "createdTime": 1665428354443,
    "modifiedTime": 1689797887676,
    "lastModifiedBy": "ppv91YxratjWnkJi"
  },
  "effects": [],
  "folder": null,
  "sort": 0,
  "flags": {},
  "_key": "!items!RJhnAXsdsuog6Iez"
}