{
  "_id": "hnqNxHqoJw08lMx9",
  "name": "Infiltrator",
  "type": "feat",
  "img": "systems/pf1/icons/feats/stealthy.jpg",
  "system": {
    "description": {
      "value": "<em>You have sacrificed your true identity in order to achieve your goal.</em><br/><br/><b>Prerequisites</b><br/>Must have adopted an assumed or secret identity associated with an enemy organization.<br/><br/><b>Benefits</b><br/>Once per day when you succeed at a saving throw to negate a divination, you learn what the divination would have revealed and can spend an immediate action to cause the divination to return appropriate false information you imagine that would fit with your cover identity.<br/><br/><b>Goal</b><br/> Thwart the organization you have infiltrated, defeating or turning to your cause an appropriate number of challenging foes in the process .<br/><br/><b>Completion Benefit</b><br/>Whenever a spell or spell-like ability would reveal information about you, you can attempt a Will saving throw. If your saving throw is successful, the spell reveals nothing about you. You can use this feat's benefits to instead give false information, as detailed above.",
      "unidentified": ""
    },
    "tags": [
      "Story"
    ],
    "actions": [],
    "uses": {
      "per": null,
      "value": 0,
      "maxFormula": "",
      "autoDeductChargesCost": "1"
    },
    "attackNotes": [],
    "effectNotes": [],
    "changes": [],
    "changeFlags": {
      "loseDexToAC": false,
      "noEncumbrance": false,
      "mediumArmorFullSpeed": false,
      "heavyArmorFullSpeed": false
    },
    "contextNotes": [],
    "links": {
      "children": [],
      "charges": []
    },
    "tag": "",
    "useCustomTag": false,
    "armorProf": {
      "value": [],
      "custom": ""
    },
    "weaponProf": {
      "value": [],
      "custom": ""
    },
    "languages": {
      "value": [],
      "custom": ""
    },
    "flags": {
      "boolean": {},
      "dictionary": {}
    },
    "scriptCalls": [],
    "subType": "feat",
    "associations": {
      "classes": []
    },
    "showInQuickbar": false,
    "abilityType": "none",
    "crOffset": "",
    "disabled": false,
    "classSkills": {}
  },
  "ownership": {
    "default": 0
  },
  "_stats": {
    "systemId": "pf1",
    "systemVersion": "9.1",
    "coreVersion": "10.291",
    "createdTime": 1665428356735,
    "modifiedTime": 1689797896397,
    "lastModifiedBy": "ppv91YxratjWnkJi"
  },
  "effects": [],
  "folder": null,
  "sort": 0,
  "flags": {},
  "_key": "!items!hnqNxHqoJw08lMx9"
}