{
  "_id": "LGDgQfIwo3SKCgWl",
  "name": "Insightful Gaze",
  "type": "feat",
  "img": "systems/pf1/icons/feats/alertness.jpg",
  "system": {
    "description": {
      "value": "<em>In your personal interactions, you notice what others don't. It's hard to get anything past you.</em><br/><br/><b>Prerequisites</b><br/>Stern gaze class feature, Sense Motive 5 ranks.<br/><br/><b>Benefits</b><br/>Whenever you make a Sense Motive check to oppose someone's Bluff check, you can roll two dice and take the higher result.",
      "unidentified": ""
    },
    "tags": [
      "PFS",
      "General"
    ],
    "actions": [],
    "uses": {
      "per": null,
      "value": 0,
      "maxFormula": "",
      "autoDeductChargesCost": "1"
    },
    "attackNotes": [],
    "effectNotes": [],
    "changes": [],
    "changeFlags": {
      "loseDexToAC": false,
      "noEncumbrance": false,
      "mediumArmorFullSpeed": false,
      "heavyArmorFullSpeed": false
    },
    "contextNotes": [],
    "links": {
      "children": [],
      "charges": []
    },
    "tag": "",
    "useCustomTag": false,
    "armorProf": {
      "value": [],
      "custom": ""
    },
    "weaponProf": {
      "value": [],
      "custom": ""
    },
    "languages": {
      "value": [],
      "custom": ""
    },
    "flags": {
      "boolean": {},
      "dictionary": {}
    },
    "scriptCalls": [],
    "subType": "feat",
    "associations": {
      "classes": []
    },
    "showInQuickbar": false,
    "abilityType": "none",
    "crOffset": "",
    "disabled": false,
    "classSkills": {}
  },
  "ownership": {
    "default": 0
  },
  "_stats": {
    "systemId": "pf1",
    "systemVersion": "9.1",
    "coreVersion": "10.291",
    "createdTime": 1665428353459,
    "modifiedTime": 1689797884657,
    "lastModifiedBy": "ppv91YxratjWnkJi"
  },
  "effects": [],
  "folder": null,
  "sort": 0,
  "flags": {},
  "_key": "!items!LGDgQfIwo3SKCgWl"
}