{
  "_id": "AgKqp4SiaLWedmLp",
  "name": "Inspiring Talent",
  "type": "feat",
  "img": "systems/pf1/icons/races/half-elf.png",
  "system": {
    "description": {
      "value": "<em>Your innate adaptability allows you to imitate others of your kind nearly flawlessly, to the extent that you can utilize their mastery over skills almost as if you had personally trained in their use.</em><br/><br/><b>Prerequisites</b><br/>Half-elf, adaptability or ancestral arms racial trait.<br/><br/><b>Benefits</b><br/>Whenever you are within 30 feet of an ally who also has this feat, you gain the following benefits. If the ally has a Skill Focus feat, you also count as having that feat for the purpose of the following skill uses: Acrobatics checks to move through threatened squares, Bluff checks to feint, Escape Artist checks to escape a grapple, Intimidate checks to demoralize, Knowledge checks to identify a monster, and Perception checks to notice a creature using Stealth. Furthermore, if the ally has a weapon proficiency gained through the ancestral arms racial trait, you also count as having that weapon proficiency.",
      "unidentified": ""
    },
    "tags": [
      "PFS",
      "Teamwork",
      "Racial",
      "Half-elf"
    ],
    "actions": [],
    "uses": {
      "per": null,
      "value": 0,
      "maxFormula": "",
      "autoDeductChargesCost": "1"
    },
    "attackNotes": [],
    "effectNotes": [],
    "changes": [],
    "changeFlags": {
      "loseDexToAC": false,
      "noEncumbrance": false,
      "mediumArmorFullSpeed": false,
      "heavyArmorFullSpeed": false
    },
    "contextNotes": [],
    "links": {
      "children": [],
      "charges": []
    },
    "tag": "",
    "useCustomTag": false,
    "armorProf": {
      "value": [],
      "custom": ""
    },
    "weaponProf": {
      "value": [],
      "custom": ""
    },
    "languages": {
      "value": [],
      "custom": ""
    },
    "flags": {
      "boolean": {},
      "dictionary": {}
    },
    "scriptCalls": [],
    "subType": "feat",
    "associations": {
      "classes": []
    },
    "showInQuickbar": false,
    "abilityType": "none",
    "crOffset": "",
    "disabled": false,
    "classSkills": {}
  },
  "ownership": {
    "default": 0
  },
  "_stats": {
    "systemId": "pf1",
    "systemVersion": "9.1",
    "coreVersion": "10.291",
    "createdTime": 1665428352011,
    "modifiedTime": 1689797878716,
    "lastModifiedBy": "ppv91YxratjWnkJi"
  },
  "effects": [],
  "folder": null,
  "sort": 0,
  "flags": {},
  "_key": "!items!AgKqp4SiaLWedmLp"
}