{
  "_id": "dvrPzUJfpq9IAddH",
  "name": "Instant Alchemy",
  "type": "feat",
  "img": "icons/tools/laboratory/vial-orange.webp",
  "system": {
    "description": {
      "value": "<em>You can perform simple alchemical tasks with preternatural speed.</em><br/><br/><b>Prerequisites</b><br/>Craft (alchemy) 1 rank.<br/><br/><b>Benefits</b><br/>When performing spontaneous alchemy, you can craft an alchemical item as a standard action if its total crafting time is 10 minutes or less and you have all the equipment and materials required in hand. Items that require 1 hour to create with spontaneous alchemy take you only 10 minutes, and items that require 1 day take you only 1 hour. If you have the alchemy class feature, you can identify a potion using the Craft (alchemy) skill as if using detect magic as a swift action rather than a standard action.",
      "unidentified": ""
    },
    "tags": [
      "PFS",
      "General"
    ],
    "actions": [],
    "uses": {
      "per": null,
      "value": 0,
      "maxFormula": "",
      "autoDeductChargesCost": "1"
    },
    "attackNotes": [],
    "effectNotes": [],
    "changes": [],
    "changeFlags": {
      "loseDexToAC": false,
      "noEncumbrance": false,
      "mediumArmorFullSpeed": false,
      "heavyArmorFullSpeed": false
    },
    "contextNotes": [],
    "links": {
      "children": [],
      "charges": []
    },
    "tag": "",
    "useCustomTag": false,
    "armorProf": {
      "value": [],
      "custom": ""
    },
    "weaponProf": {
      "value": [],
      "custom": ""
    },
    "languages": {
      "value": [],
      "custom": ""
    },
    "flags": {
      "boolean": {},
      "dictionary": {}
    },
    "scriptCalls": [],
    "subType": "feat",
    "associations": {
      "classes": []
    },
    "showInQuickbar": false,
    "abilityType": "none",
    "crOffset": "",
    "disabled": false,
    "classSkills": {}
  },
  "ownership": {
    "default": 0
  },
  "_stats": {
    "systemId": "pf1",
    "systemVersion": "9.1",
    "coreVersion": "10.291",
    "createdTime": 1665428356133,
    "modifiedTime": 1689797894420,
    "lastModifiedBy": "ppv91YxratjWnkJi"
  },
  "effects": [],
  "folder": null,
  "sort": 0,
  "flags": {},
  "_key": "!items!dvrPzUJfpq9IAddH"
}