{
  "_id": "Q4TQwIfdU6V2czwX",
  "name": "Intimidating Performance",
  "type": "feat",
  "img": "icons/tools/instruments/drum-hand-tan.webp",
  "system": {
    "description": {
      "value": "<em>Your performance strikes fear in the hearts of foes.</em><br/><br/><b>Prerequisites</b><br/>Ability to start a performance (or raging song) as a move action, bardic performance or raging song x€  class feature.<br/><br/><b>Benefits</b><br/>When you start a performance (or a raging song) as a move or swift action, you can use a standard action to demoralize a foe (Core Rulebook 99), attempting a Perform check appropriate to your performance in place of the Intimidate check. Your performance must be one with an audible component.<br/><br/> If you can start a performance as a swift action and you have the Dazzling Display feat, you can gain the benefit of Dazzling Display by succeeding at a Perform check in place of an Intimidate check.",
      "unidentified": ""
    },
    "tags": [
      "PFS",
      "General"
    ],
    "actions": [],
    "uses": {
      "per": null,
      "value": 0,
      "maxFormula": "",
      "autoDeductChargesCost": "1"
    },
    "attackNotes": [],
    "effectNotes": [],
    "changes": [],
    "changeFlags": {
      "loseDexToAC": false,
      "noEncumbrance": false,
      "mediumArmorFullSpeed": false,
      "heavyArmorFullSpeed": false
    },
    "contextNotes": [],
    "links": {
      "children": [],
      "charges": []
    },
    "tag": "",
    "useCustomTag": false,
    "armorProf": {
      "value": [],
      "custom": ""
    },
    "weaponProf": {
      "value": [],
      "custom": ""
    },
    "languages": {
      "value": [],
      "custom": ""
    },
    "flags": {
      "boolean": {},
      "dictionary": {}
    },
    "scriptCalls": [],
    "subType": "feat",
    "associations": {
      "classes": []
    },
    "showInQuickbar": false,
    "abilityType": "none",
    "crOffset": "",
    "disabled": false,
    "classSkills": {}
  },
  "ownership": {
    "default": 0
  },
  "_stats": {
    "systemId": "pf1",
    "systemVersion": "9.1",
    "coreVersion": "10.291",
    "createdTime": 1665428354362,
    "modifiedTime": 1689797887264,
    "lastModifiedBy": "ppv91YxratjWnkJi"
  },
  "effects": [],
  "folder": null,
  "sort": 0,
  "flags": {},
  "_key": "!items!Q4TQwIfdU6V2czwX"
}