{
  "_id": "j5fMBGk7iGyNhRIk",
  "name": "Intimidating Glance",
  "type": "feat",
  "img": "systems/pf1/icons/skills/violet_09.jpg",
  "system": {
    "description": {
      "value": "<em>Your gaze strikes fear into your enemies.</em><br/><br/><b>Prerequisites</b><br/>Hypnotic stare class feature.<br/><br/><b>Benefits</b><br/>You can attempt to demoralize the target of your hypnotic stare as a swift action.<br/><br/><b>Normal</b><br/>Attempting to demoralize an opponent is a standard action.",
      "unidentified": ""
    },
    "tags": [
      "PFS",
      "Combat"
    ],
    "actions": [],
    "uses": {
      "per": null,
      "value": 0,
      "maxFormula": "",
      "autoDeductChargesCost": "1"
    },
    "attackNotes": [],
    "effectNotes": [],
    "changes": [],
    "changeFlags": {
      "loseDexToAC": false,
      "noEncumbrance": false,
      "mediumArmorFullSpeed": false,
      "heavyArmorFullSpeed": false
    },
    "contextNotes": [],
    "links": {
      "children": [],
      "charges": []
    },
    "tag": "",
    "useCustomTag": false,
    "armorProf": {
      "value": [],
      "custom": ""
    },
    "weaponProf": {
      "value": [],
      "custom": ""
    },
    "languages": {
      "value": [],
      "custom": ""
    },
    "flags": {
      "boolean": {},
      "dictionary": {}
    },
    "scriptCalls": [],
    "subType": "feat",
    "associations": {
      "classes": []
    },
    "showInQuickbar": false,
    "abilityType": "none",
    "crOffset": "",
    "disabled": false,
    "classSkills": {}
  },
  "ownership": {
    "default": 0
  },
  "_stats": {
    "systemId": "pf1",
    "systemVersion": "9.1",
    "coreVersion": "10.291",
    "createdTime": 1665428356827,
    "modifiedTime": 1689797896953,
    "lastModifiedBy": "ppv91YxratjWnkJi"
  },
  "effects": [],
  "folder": null,
  "sort": 0,
  "flags": {},
  "_key": "!items!j5fMBGk7iGyNhRIk"
}