{
  "_id": "Q1pWaH9GIQbXyJw7",
  "name": "Invoke Primal Instinct",
  "type": "feat",
  "img": "systems/pf1/icons/skills/emerald_05.jpg",
  "system": {
    "description": {
      "value": "<em>You can use your ability to take the shape of an animal to enhance your Bluff skill, giving yourself an aura of danger or meekness that influences nearby creatures into doing what you want.</em><br/><br/><b>Prerequisites</b><br/>Bluff 1 rank, wild shape class feature, gnome.<br/><br/><b>Benefits</b><br/>As a standard action, you can pantomime or describe predator- or prey-like behavior, expend one of your uses of wild shape, and make a Bluff check. All creatures within 30 feet that fail a Will save against your Bluff check DC regard you as a figure of either fear or contempt (your choice applies to all affected creatures). If you choose fear, the targets are frightened for 1 round per druid level. If you choose contempt, the targets consider you harmless for 1 minute, ignoring you unless you attack them or take a threatening action.",
      "unidentified": ""
    },
    "tags": [
      "PFS",
      "Racial",
      "Gnome"
    ],
    "actions": [],
    "uses": {
      "per": null,
      "value": 0,
      "maxFormula": "",
      "autoDeductChargesCost": "1"
    },
    "attackNotes": [],
    "effectNotes": [],
    "changes": [],
    "changeFlags": {
      "loseDexToAC": false,
      "noEncumbrance": false,
      "mediumArmorFullSpeed": false,
      "heavyArmorFullSpeed": false
    },
    "contextNotes": [],
    "links": {
      "children": [],
      "charges": []
    },
    "tag": "",
    "useCustomTag": false,
    "armorProf": {
      "value": [],
      "custom": ""
    },
    "weaponProf": {
      "value": [],
      "custom": ""
    },
    "languages": {
      "value": [],
      "custom": ""
    },
    "flags": {
      "boolean": {},
      "dictionary": {}
    },
    "scriptCalls": [],
    "subType": "feat",
    "associations": {
      "classes": []
    },
    "showInQuickbar": false,
    "abilityType": "none",
    "crOffset": "",
    "disabled": false,
    "classSkills": {}
  },
  "ownership": {
    "default": 0
  },
  "_stats": {
    "systemId": "pf1",
    "systemVersion": "9.1",
    "coreVersion": "10.291",
    "createdTime": 1665428354359,
    "modifiedTime": 1689797887253,
    "lastModifiedBy": "ppv91YxratjWnkJi"
  },
  "effects": [],
  "folder": null,
  "sort": 0,
  "flags": {},
  "_key": "!items!Q1pWaH9GIQbXyJw7"
}