{
  "_id": "we7qzOwcMMVnYXPP",
  "name": "Iomedaean Sword Oath",
  "type": "feat",
  "img": "systems/pf1/icons/skills/light_05.jpg",
  "system": {
    "description": {
      "value": "<em>By swearing to never use a weapon other than a longsword, you can achieve things normally limited to the most highly trained swordsmen.</em><br/><br/><b>Prerequisites</b><br/>Proficient in longsword, Weapon Focus (longsword), base attack bonus +4, worshiper of Iomedae.<br/><br/><b>Benefits</b><br/>You may select longsword-related feats as if you were a 4th-level fighter. For example, you may select Weapon Specialization (longsword) as a feat.<br/><br/><b>Special</b><br/>If you ever use a melee or ranged weapon other than a longsword in combat, you lose the benefits of this feat until you receive an atonement spell. You may still use spells that act as weapons (such as flame blade and spiritual weapon) without affecting your oath.",
      "unidentified": ""
    },
    "tags": [
      "PFS",
      "General"
    ],
    "actions": [],
    "uses": {
      "per": null,
      "value": 0,
      "maxFormula": "",
      "autoDeductChargesCost": "1"
    },
    "attackNotes": [],
    "effectNotes": [],
    "changes": [],
    "changeFlags": {
      "loseDexToAC": false,
      "noEncumbrance": false,
      "mediumArmorFullSpeed": false,
      "heavyArmorFullSpeed": false
    },
    "contextNotes": [],
    "links": {
      "children": [],
      "charges": []
    },
    "tag": "",
    "useCustomTag": false,
    "armorProf": {
      "value": [],
      "custom": ""
    },
    "weaponProf": {
      "value": [],
      "custom": ""
    },
    "languages": {
      "value": [],
      "custom": ""
    },
    "flags": {
      "boolean": {},
      "dictionary": {}
    },
    "scriptCalls": [],
    "subType": "feat",
    "associations": {
      "classes": []
    },
    "showInQuickbar": false,
    "abilityType": "none",
    "crOffset": "",
    "disabled": false,
    "classSkills": {}
  },
  "ownership": {
    "default": 0
  },
  "_stats": {
    "systemId": "pf1",
    "systemVersion": "9.1",
    "coreVersion": "10.291",
    "createdTime": 1665428358835,
    "modifiedTime": 1689797903493,
    "lastModifiedBy": "ppv91YxratjWnkJi"
  },
  "effects": [],
  "folder": null,
  "sort": 0,
  "flags": {},
  "_key": "!items!we7qzOwcMMVnYXPP"
}