{
  "_id": "Gx0O8R9eqE0khOYn",
  "name": "Iron Will (Mythic)",
  "type": "feat",
  "img": "systems/pf1/icons/feats/iron-will.jpg",
  "system": {
    "description": {
      "value": "<em>Your will is incorruptible.</em><br/><br/><b>Prerequisites</b><br/>Iron Will.<br/><br/><b>Benefits</b><br/>Whenever you roll a Will saving throw against a spell, spell-like ability, or supernatural ability from a non-mythic source, roll twice and take the higher result.",
      "unidentified": ""
    },
    "tags": [
      "PFS",
      "General",
      "Mythic"
    ],
    "actions": [],
    "uses": {
      "per": null,
      "value": 0,
      "maxFormula": "",
      "autoDeductChargesCost": "1"
    },
    "attackNotes": [],
    "effectNotes": [],
    "changes": [],
    "changeFlags": {
      "loseDexToAC": false,
      "noEncumbrance": false,
      "mediumArmorFullSpeed": false,
      "heavyArmorFullSpeed": false
    },
    "contextNotes": [],
    "links": {
      "children": [],
      "charges": []
    },
    "tag": "",
    "useCustomTag": false,
    "armorProf": {
      "value": [],
      "custom": ""
    },
    "weaponProf": {
      "value": [],
      "custom": ""
    },
    "languages": {
      "value": [],
      "custom": ""
    },
    "flags": {
      "boolean": {},
      "dictionary": {}
    },
    "scriptCalls": [],
    "subType": "feat",
    "associations": {
      "classes": []
    },
    "showInQuickbar": false,
    "abilityType": "none",
    "crOffset": "",
    "disabled": false,
    "classSkills": {}
  },
  "ownership": {
    "default": 0
  },
  "_stats": {
    "systemId": "pf1",
    "systemVersion": "9.1",
    "coreVersion": "10.291",
    "createdTime": 1665428352806,
    "modifiedTime": 1689797882636,
    "lastModifiedBy": "ppv91YxratjWnkJi"
  },
  "effects": [],
  "folder": null,
  "sort": 0,
  "flags": {},
  "_key": "!items!Gx0O8R9eqE0khOYn"
}