{
  "_id": "bX7KwmeNRQv2tBTh",
  "name": "Ironhide",
  "type": "feat",
  "img": "systems/pf1/icons/items/inventory/monster-chitin-blue.jpg",
  "system": {
    "description": {
      "value": "<em>Your skin is thicker and more resilient than that of most of your people.</em><br/><br/><b>Prerequisites</b><br/>Con 13; dwarf, half-orc, or orc.<br/><br/><b>Benefits</b><br/>You gain a +1 natural armor bonus due to your unusually tough hide.",
      "unidentified": ""
    },
    "tags": [
      "PFS",
      "Racial",
      "Half-orc",
      "Orc",
      "Dwarf"
    ],
    "actions": [],
    "uses": {
      "per": null,
      "value": 0,
      "maxFormula": "",
      "autoDeductChargesCost": "1"
    },
    "attackNotes": [],
    "effectNotes": [],
    "changes": [],
    "changeFlags": {
      "loseDexToAC": false,
      "noEncumbrance": false,
      "mediumArmorFullSpeed": false,
      "heavyArmorFullSpeed": false
    },
    "contextNotes": [],
    "links": {
      "children": [],
      "charges": []
    },
    "tag": "",
    "useCustomTag": false,
    "armorProf": {
      "value": [],
      "custom": ""
    },
    "weaponProf": {
      "value": [],
      "custom": ""
    },
    "languages": {
      "value": [],
      "custom": ""
    },
    "flags": {
      "boolean": {},
      "dictionary": {}
    },
    "scriptCalls": [],
    "subType": "feat",
    "associations": {
      "classes": []
    },
    "showInQuickbar": false,
    "abilityType": "none",
    "crOffset": "",
    "disabled": false,
    "classSkills": {}
  },
  "ownership": {
    "default": 0
  },
  "_stats": {
    "systemId": "pf1",
    "systemVersion": "9.1",
    "coreVersion": "10.291",
    "createdTime": 1665428355663,
    "modifiedTime": 1689797893049,
    "lastModifiedBy": "ppv91YxratjWnkJi"
  },
  "effects": [],
  "folder": null,
  "sort": 0,
  "flags": {},
  "_key": "!items!bX7KwmeNRQv2tBTh"
}