{
  "_id": "ashsqSCidQcFL5yD",
  "name": "Irrisen Icemage",
  "type": "feat",
  "img": "systems/pf1/icons/skills/ice_09.jpg",
  "system": {
    "description": {
      "value": "<em>You were born with the power to drive ice and snow as others drive their slaves.</em><br/><br/><b>Prerequisites</b><br/>Sorcerer, Irrisen affinity, may only be taken at first level.<br/><br/><b>Benefits</b><br/>All of your spells with the cold descriptor are cast at +1 caster level. Any spell with a different energy descriptor is cast at -1 caster level. Three times per day you may alter a spell you cast to deal cold damage instead of its normal damage; your +1 caster level for this feat applies to this variant casting.",
      "unidentified": ""
    },
    "tags": [
      "PFS",
      "General"
    ],
    "actions": [],
    "uses": {
      "per": null,
      "value": 0,
      "maxFormula": "",
      "autoDeductChargesCost": "1"
    },
    "attackNotes": [],
    "effectNotes": [],
    "changes": [],
    "changeFlags": {
      "loseDexToAC": false,
      "noEncumbrance": false,
      "mediumArmorFullSpeed": false,
      "heavyArmorFullSpeed": false
    },
    "contextNotes": [],
    "links": {
      "children": [],
      "charges": []
    },
    "tag": "",
    "useCustomTag": false,
    "armorProf": {
      "value": [],
      "custom": ""
    },
    "weaponProf": {
      "value": [],
      "custom": ""
    },
    "languages": {
      "value": [],
      "custom": ""
    },
    "flags": {
      "boolean": {},
      "dictionary": {}
    },
    "scriptCalls": [],
    "subType": "feat",
    "associations": {
      "classes": []
    },
    "showInQuickbar": false,
    "abilityType": "none",
    "crOffset": "",
    "disabled": false,
    "classSkills": {}
  },
  "ownership": {
    "default": 0
  },
  "_stats": {
    "systemId": "pf1",
    "systemVersion": "9.1",
    "coreVersion": "10.291",
    "createdTime": 1665428355623,
    "modifiedTime": 1689797892826,
    "lastModifiedBy": "ppv91YxratjWnkJi"
  },
  "effects": [],
  "folder": null,
  "sort": 0,
  "flags": {},
  "_key": "!items!ashsqSCidQcFL5yD"
}