{
  "_id": "UPDPkeJ0fxVpJOod",
  "name": "Kinetic Crafting",
  "type": "feat",
  "img": "systems/pf1/icons/skills/blue_14.jpg",
  "system": {
    "description": {
      "value": "<em>You can use your wild talents to help you craft magic items.</em><br/><br/><b>Prerequisites</b><br/>Kineticist level 3rd.<br/><br/><b>Benefits</b><br/>When crafting a magic item or taking item creation feats, you can treat your kineticist level as your caster level. In addition, you can treat any wild talent you have as a spell of the same level or lower for the purpose of fulfilling the requirements for magic item creation (except spell-completion and spell-trigger items). This wild talent must be associated with the same element or deal the same type of energy damage as the emulated spell's descriptor.",
      "unidentified": ""
    },
    "tags": [
      "General"
    ],
    "actions": [],
    "uses": {
      "per": null,
      "value": 0,
      "maxFormula": "",
      "autoDeductChargesCost": "1"
    },
    "attackNotes": [],
    "effectNotes": [],
    "changes": [],
    "changeFlags": {
      "loseDexToAC": false,
      "noEncumbrance": false,
      "mediumArmorFullSpeed": false,
      "heavyArmorFullSpeed": false
    },
    "contextNotes": [],
    "links": {
      "children": [],
      "charges": []
    },
    "tag": "",
    "useCustomTag": false,
    "armorProf": {
      "value": [],
      "custom": ""
    },
    "weaponProf": {
      "value": [],
      "custom": ""
    },
    "languages": {
      "value": [],
      "custom": ""
    },
    "flags": {
      "boolean": {},
      "dictionary": {}
    },
    "scriptCalls": [],
    "subType": "feat",
    "associations": {
      "classes": []
    },
    "showInQuickbar": false,
    "abilityType": "none",
    "crOffset": "",
    "disabled": false,
    "classSkills": {}
  },
  "ownership": {
    "default": 0
  },
  "_stats": {
    "systemId": "pf1",
    "systemVersion": "9.1",
    "coreVersion": "10.291",
    "createdTime": 1665428354911,
    "modifiedTime": 1689797889692,
    "lastModifiedBy": "ppv91YxratjWnkJi"
  },
  "effects": [],
  "folder": null,
  "sort": 0,
  "flags": {},
  "_key": "!items!UPDPkeJ0fxVpJOod"
}