{
  "_id": "hjFUkw4s4OA2YMQK",
  "name": "Kinslayer",
  "type": "feat",
  "img": "systems/pf1/icons/skills/red_13.jpg",
  "system": {
    "description": {
      "value": "<em>Your intimate knowledge of anatomy, deep hatred of your own kind, and delight in spilling your people's blood make you a lethal combatant against your own race.</em><br/><br/><b>Prerequisites</b><br/>Knowledge 3 ranks (see special), evil alignment.<br/><br/><b>Benefits</b><br/>Your attacks deal an additional 1d6 points of precision damage against creatures that have the same creature type (and subtype, if applicable) as you. This bonus damage stacks with other sources of precision damage, such as sneak attack. If you have more than one subtype, you must choose one of them--this feat applies only to targets of that subtype. Once made, this choice can't be changed.<br/><br/><b>Special</b><br/>The Knowledge skill used to qualify for this feat must be appropriate for identifying creatures of your type.",
      "unidentified": ""
    },
    "tags": [
      "General"
    ],
    "actions": [],
    "uses": {
      "per": null,
      "value": 0,
      "maxFormula": "",
      "autoDeductChargesCost": "1"
    },
    "attackNotes": [],
    "effectNotes": [],
    "changes": [],
    "changeFlags": {
      "loseDexToAC": false,
      "noEncumbrance": false,
      "mediumArmorFullSpeed": false,
      "heavyArmorFullSpeed": false
    },
    "contextNotes": [],
    "links": {
      "children": [],
      "charges": []
    },
    "tag": "",
    "useCustomTag": false,
    "armorProf": {
      "value": [],
      "custom": ""
    },
    "weaponProf": {
      "value": [],
      "custom": ""
    },
    "languages": {
      "value": [],
      "custom": ""
    },
    "flags": {
      "boolean": {},
      "dictionary": {}
    },
    "scriptCalls": [],
    "subType": "feat",
    "associations": {
      "classes": []
    },
    "showInQuickbar": false,
    "abilityType": "none",
    "crOffset": "",
    "disabled": false,
    "classSkills": {}
  },
  "ownership": {
    "default": 0
  },
  "_stats": {
    "systemId": "pf1",
    "systemVersion": "9.1",
    "coreVersion": "10.291",
    "createdTime": 1665428356729,
    "modifiedTime": 1689797896362,
    "lastModifiedBy": "ppv91YxratjWnkJi"
  },
  "effects": [],
  "folder": null,
  "sort": 0,
  "flags": {},
  "_key": "!items!hjFUkw4s4OA2YMQK"
}