{
  "_id": "yLbiJFmEwsVOmI5i",
  "name": "Kitsune Style",
  "type": "feat",
  "img": "icons/commodities/treasure/figurine-dog.webp",
  "system": {
    "description": {
      "value": "<p><em>Your quick movement and trickery allow you to catch opponents off guard.</em><br /><br /><strong>Prerequisites</strong><br />Int 13, Combat Expertise, Improved Dirty Trick.<br /><br /><strong>Benefits</strong><br />While using this style, you can attempt to perform a dirty trick in place of an attack at the end of a charge.</p>\n<p><br /><strong>Pathfinder Society<br /></strong>The Kitsune Style feat allows a PC to attempt only one dirty trick combat maneuver, even if he would have additional attacks on a charge from pounce or similar abilities.</p>",
      "unidentified": ""
    },
    "tags": [
      "PFS",
      "Combat",
      "Style"
    ],
    "actions": [],
    "uses": {
      "per": null,
      "value": 0,
      "maxFormula": "",
      "autoDeductChargesCost": "1"
    },
    "attackNotes": [],
    "effectNotes": [],
    "changes": [],
    "changeFlags": {
      "loseDexToAC": false,
      "noEncumbrance": false,
      "mediumArmorFullSpeed": false,
      "heavyArmorFullSpeed": false
    },
    "contextNotes": [],
    "links": {
      "children": [],
      "charges": []
    },
    "tag": "",
    "useCustomTag": false,
    "armorProf": {
      "value": [],
      "custom": ""
    },
    "weaponProf": {
      "value": [],
      "custom": ""
    },
    "languages": {
      "value": [],
      "custom": ""
    },
    "flags": {
      "boolean": {},
      "dictionary": {}
    },
    "scriptCalls": [],
    "subType": "feat",
    "associations": {
      "classes": []
    },
    "showInQuickbar": false,
    "abilityType": "none",
    "crOffset": "",
    "disabled": false,
    "classSkills": {}
  },
  "ownership": {
    "default": 0
  },
  "_stats": {
    "systemId": "pf1",
    "systemVersion": "9.1",
    "coreVersion": "10.291",
    "createdTime": 1665428358922,
    "modifiedTime": 1689797904107,
    "lastModifiedBy": "ppv91YxratjWnkJi"
  },
  "effects": [],
  "folder": null,
  "sort": 0,
  "flags": {},
  "_key": "!items!yLbiJFmEwsVOmI5i"
}