{
  "_id": "NgVVPSKAnq6N2LWT",
  "name": "Knight of the Twisted Word",
  "type": "feat",
  "img": "systems/pf1/icons/skills/green_12.jpg",
  "system": {
    "description": {
      "value": "<em>You've so impressed the Traitor that he's given you a title in his court-in-exile--possibly to keep an eye on you.</em><br/><br/><b>Prerequisites</b><br/>Fey creature type or Fey Obedience (Count Ranalc), character level 7th, you must have betrayed or deceived in a major fashion a demon with a CR at least 2 higher than your level when you took the feat.<br/><br/><b>Benefits</b><br/>Once per day, you can cast glibness as a spell-like ability with a caster level equal to your Hit Dice.",
      "unidentified": ""
    },
    "tags": [
      "PFS",
      "Gathlain"
    ],
    "actions": [],
    "uses": {
      "per": null,
      "value": 0,
      "maxFormula": "",
      "autoDeductChargesCost": "1"
    },
    "attackNotes": [],
    "effectNotes": [],
    "changes": [],
    "changeFlags": {
      "loseDexToAC": false,
      "noEncumbrance": false,
      "mediumArmorFullSpeed": false,
      "heavyArmorFullSpeed": false
    },
    "contextNotes": [],
    "links": {
      "children": [],
      "charges": []
    },
    "tag": "",
    "useCustomTag": false,
    "armorProf": {
      "value": [],
      "custom": ""
    },
    "weaponProf": {
      "value": [],
      "custom": ""
    },
    "languages": {
      "value": [],
      "custom": ""
    },
    "flags": {
      "boolean": {},
      "dictionary": {}
    },
    "scriptCalls": [],
    "subType": "feat",
    "associations": {
      "classes": []
    },
    "showInQuickbar": false,
    "abilityType": "none",
    "crOffset": "",
    "disabled": false,
    "classSkills": {}
  },
  "ownership": {
    "default": 0
  },
  "_stats": {
    "systemId": "pf1",
    "systemVersion": "9.1",
    "coreVersion": "10.291",
    "createdTime": 1665428353895,
    "modifiedTime": 1689797886044,
    "lastModifiedBy": "ppv91YxratjWnkJi"
  },
  "effects": [],
  "folder": null,
  "sort": 0,
  "flags": {},
  "_key": "!items!NgVVPSKAnq6N2LWT"
}