{
  "_id": "O1hgQYFPMiL4VYfQ",
  "name": "Kobold Sniper",
  "type": "feat",
  "img": "systems/pf1/icons/races/kobold.png",
  "system": {
    "description": {
      "value": "<em>You snipe quickly, making it harder for others to find the location of your attack.</em><br/><br/><b>Prerequisites</b><br/>Stealth 1 rank, kobold.<br/><br/><b>Benefits</b><br/>When you are sniping, you only take a -10 penalty on your Stealth checks to stay hidden.",
      "unidentified": ""
    },
    "tags": [
      "Combat",
      "Racial",
      "Kobold"
    ],
    "actions": [],
    "uses": {
      "per": null,
      "value": 0,
      "maxFormula": "",
      "autoDeductChargesCost": "1"
    },
    "attackNotes": [],
    "effectNotes": [],
    "changes": [],
    "changeFlags": {
      "loseDexToAC": false,
      "noEncumbrance": false,
      "mediumArmorFullSpeed": false,
      "heavyArmorFullSpeed": false
    },
    "contextNotes": [],
    "links": {
      "children": [],
      "charges": []
    },
    "tag": "",
    "useCustomTag": false,
    "armorProf": {
      "value": [],
      "custom": ""
    },
    "weaponProf": {
      "value": [],
      "custom": ""
    },
    "languages": {
      "value": [],
      "custom": ""
    },
    "flags": {
      "boolean": {},
      "dictionary": {}
    },
    "scriptCalls": [],
    "subType": "feat",
    "associations": {
      "classes": []
    },
    "showInQuickbar": false,
    "abilityType": "none",
    "crOffset": "",
    "disabled": false,
    "classSkills": {}
  },
  "ownership": {
    "default": 0
  },
  "_stats": {
    "systemId": "pf1",
    "systemVersion": "9.1",
    "coreVersion": "10.291",
    "createdTime": 1665428353923,
    "modifiedTime": 1689797886158,
    "lastModifiedBy": "ppv91YxratjWnkJi"
  },
  "effects": [],
  "folder": null,
  "sort": 0,
  "flags": {},
  "_key": "!items!O1hgQYFPMiL4VYfQ"
}