{
  "_id": "xZ9uRVfqe7WpflEL",
  "name": "Lantern Style",
  "type": "feat",
  "img": "systems/pf1/icons/skills/water_10.jpg",
  "system": {
    "description": {
      "value": "<em>Your thrown weapons shine with a divine light that dazzles their targets.</em><br/><br/><b>Prerequisites</b><br/>Point-Blank Shot, good or lawful alignment, caster level 1st or monk level 1st.<br/><br/><b>Benefits</b><br/>Your thrown weapons glow with holy light, illuminating a 20-foot-radius area where they fall for 1 round. A target damaged by one of these weapons becomes dazzled for 1 round.",
      "unidentified": ""
    },
    "tags": [
      "PFS",
      "Combat",
      "Style"
    ],
    "actions": [],
    "uses": {
      "per": null,
      "value": 0,
      "maxFormula": "",
      "autoDeductChargesCost": "1"
    },
    "attackNotes": [],
    "effectNotes": [],
    "changes": [],
    "changeFlags": {
      "loseDexToAC": false,
      "noEncumbrance": false,
      "mediumArmorFullSpeed": false,
      "heavyArmorFullSpeed": false
    },
    "contextNotes": [],
    "links": {
      "children": [],
      "charges": []
    },
    "tag": "",
    "useCustomTag": false,
    "armorProf": {
      "value": [],
      "custom": ""
    },
    "weaponProf": {
      "value": [],
      "custom": ""
    },
    "languages": {
      "value": [],
      "custom": ""
    },
    "flags": {
      "boolean": {},
      "dictionary": {}
    },
    "scriptCalls": [],
    "subType": "feat",
    "associations": {
      "classes": []
    },
    "showInQuickbar": false,
    "abilityType": "none",
    "crOffset": "",
    "disabled": false,
    "classSkills": {}
  },
  "ownership": {
    "default": 0
  },
  "_stats": {
    "systemId": "pf1",
    "systemVersion": "9.1",
    "coreVersion": "10.291",
    "createdTime": 1665428358877,
    "modifiedTime": 1689797903802,
    "lastModifiedBy": "ppv91YxratjWnkJi"
  },
  "effects": [],
  "folder": null,
  "sort": 0,
  "flags": {},
  "_key": "!items!xZ9uRVfqe7WpflEL"
}