{
  "_id": "cpSGPClab5cj5uF5",
  "name": "Latent Curse",
  "type": "feat",
  "img": "systems/pf1/icons/skills/shadow_03.jpg",
  "system": {
    "description": {
      "value": "<em>You can imbue curse magic into objects.</em><br/><br/><b>Benefits</b><br/>You can alter a spell with the curse descriptor to target an object rather than a person. Your spell immediately targets the next creature to pick up, handle, or interact with the object as if that creature were the spell's original target. The curse affects only the first creature to use the item, even if the curse originally affected multiple targets. An object invested with a latent curse detects as magical, with an aura appropriate for the spell's original level and school. As with all cursed items, someone studying the object's magic aura recognizes that it is cursed only if her Spellcraft check exceeds the target DC by 10 or more. So long as a latent curse remains active in an item, you cannot recover the spell slot used to cast that spell. A latent curse remains active in an item for 1 day per caster level, but you can dispel the latent curse whenever you recover your spells as a free action, rending the cursed object harmless and regaining the expended spell slot.<br/><br/> A latent curse spell uses up a spell slot 1 level higher than the spell's actual level.",
      "unidentified": ""
    },
    "tags": [
      "PFS",
      "Metamagic"
    ],
    "actions": [],
    "uses": {
      "per": null,
      "value": 0,
      "maxFormula": "",
      "autoDeductChargesCost": "1"
    },
    "attackNotes": [],
    "effectNotes": [],
    "changes": [],
    "changeFlags": {
      "loseDexToAC": false,
      "noEncumbrance": false,
      "mediumArmorFullSpeed": false,
      "heavyArmorFullSpeed": false
    },
    "contextNotes": [],
    "links": {
      "children": [],
      "charges": []
    },
    "tag": "",
    "useCustomTag": false,
    "armorProf": {
      "value": [],
      "custom": ""
    },
    "weaponProf": {
      "value": [],
      "custom": ""
    },
    "languages": {
      "value": [],
      "custom": ""
    },
    "flags": {
      "boolean": {},
      "dictionary": {}
    },
    "scriptCalls": [],
    "subType": "feat",
    "associations": {
      "classes": []
    },
    "showInQuickbar": false,
    "abilityType": "none",
    "crOffset": "",
    "disabled": false,
    "classSkills": {}
  },
  "ownership": {
    "default": 0
  },
  "_stats": {
    "systemId": "pf1",
    "systemVersion": "9.1",
    "coreVersion": "10.291",
    "createdTime": 1665428356051,
    "modifiedTime": 1689797893954,
    "lastModifiedBy": "ppv91YxratjWnkJi"
  },
  "effects": [],
  "folder": null,
  "sort": 0,
  "flags": {},
  "_key": "!items!cpSGPClab5cj5uF5"
}