{
  "_id": "aJZLfvBLTzWIC6vM",
  "name": "Lead from the Back",
  "type": "feat",
  "img": "systems/pf1/icons/races/goblin.png",
  "system": {
    "description": {
      "value": "<p><em>You allies depend far too much on your leadership and encouraging words for you to actually put yourself in harms' way.</em><br /><br /><strong>Prerequisites</strong><br />Goblin, Intimidate 1 rank.<br /><br /><strong>Benefits</strong><br />During any round in which you gain the benefit of cover or concealment against at least one opponent, and you are not threatened by any opponent, you can bark orders and encouragement to your allies as a standard action. Doing so grants all allies within 30 feet a +1 bonus on all weapon damage rolls for 1 round.</p>\n<p><br /><strong>Pathfinder Society<br /></strong>Only legal goblin PCs are allowed to choose anything from this book</p>",
      "unidentified": ""
    },
    "tags": [
      "PFS",
      "Combat",
      "Racial",
      "Goblin"
    ],
    "actions": [],
    "uses": {
      "per": null,
      "value": 0,
      "maxFormula": "",
      "autoDeductChargesCost": "1"
    },
    "attackNotes": [],
    "effectNotes": [],
    "changes": [],
    "changeFlags": {
      "loseDexToAC": false,
      "noEncumbrance": false,
      "mediumArmorFullSpeed": false,
      "heavyArmorFullSpeed": false
    },
    "contextNotes": [],
    "links": {
      "children": [],
      "charges": []
    },
    "tag": "",
    "useCustomTag": false,
    "armorProf": {
      "value": [],
      "custom": ""
    },
    "weaponProf": {
      "value": [],
      "custom": ""
    },
    "languages": {
      "value": [],
      "custom": ""
    },
    "flags": {
      "boolean": {},
      "dictionary": {}
    },
    "scriptCalls": [],
    "subType": "feat",
    "associations": {
      "classes": []
    },
    "showInQuickbar": false,
    "abilityType": "none",
    "crOffset": "",
    "disabled": false,
    "classSkills": {}
  },
  "ownership": {
    "default": 0
  },
  "_stats": {
    "systemId": "pf1",
    "systemVersion": "9.1",
    "coreVersion": "10.291",
    "createdTime": 1665428355577,
    "modifiedTime": 1689797892585,
    "lastModifiedBy": "ppv91YxratjWnkJi"
  },
  "effects": [],
  "folder": null,
  "sort": 0,
  "flags": {},
  "_key": "!items!aJZLfvBLTzWIC6vM"
}