{
  "_id": "Ne6LoPZSrIkS5eCZ",
  "name": "Legendary Influence",
  "type": "feat",
  "img": "systems/pf1/icons/skills/blue_37.jpg",
  "system": {
    "description": {
      "value": "<em>Each legend grants you more of its power in return for greater influence.</em><br/><br/><b>Prerequisites</b><br/>Lesser spirit power class feature.<br/><br/><b>Benefits</b><br/>Immediately select one feat (other than an item creation feat) for each spirit you can channel. Whenever you perform a seance to channel a spirit, you can allow the spirit to gain 1 point of influence over you to gain access to that spirit's Legendary Influence feat for as long as you channel that spirit. You can use this bonus feat as a prerequisite for any feats granted by a spirit power (such as the champion's legendary champion ability), but not for any other feats.",
      "unidentified": ""
    },
    "tags": [
      "PFS",
      "General"
    ],
    "actions": [],
    "uses": {
      "per": null,
      "value": 0,
      "maxFormula": "",
      "autoDeductChargesCost": "1"
    },
    "attackNotes": [],
    "effectNotes": [],
    "changes": [],
    "changeFlags": {
      "loseDexToAC": false,
      "noEncumbrance": false,
      "mediumArmorFullSpeed": false,
      "heavyArmorFullSpeed": false
    },
    "contextNotes": [],
    "links": {
      "children": [],
      "charges": []
    },
    "tag": "",
    "useCustomTag": false,
    "armorProf": {
      "value": [],
      "custom": ""
    },
    "weaponProf": {
      "value": [],
      "custom": ""
    },
    "languages": {
      "value": [],
      "custom": ""
    },
    "flags": {
      "boolean": {},
      "dictionary": {}
    },
    "scriptCalls": [],
    "subType": "feat",
    "associations": {
      "classes": []
    },
    "showInQuickbar": false,
    "abilityType": "none",
    "crOffset": "",
    "disabled": false,
    "classSkills": {}
  },
  "ownership": {
    "default": 0
  },
  "_stats": {
    "systemId": "pf1",
    "systemVersion": "9.1",
    "coreVersion": "10.291",
    "createdTime": 1665428353893,
    "modifiedTime": 1689797886032,
    "lastModifiedBy": "ppv91YxratjWnkJi"
  },
  "effects": [],
  "folder": null,
  "sort": 0,
  "flags": {},
  "_key": "!items!Ne6LoPZSrIkS5eCZ"
}