{
  "_id": "K5wpWsznKEHNPSUg",
  "name": "Lesser Spell Synthesis",
  "type": "feat",
  "img": "systems/pf1/icons/skills/green_15.jpg",
  "system": {
    "description": {
      "value": "<em>Your skill in two different branches of magic allows you to combine your powers in unorthodox ways.</em><br/><br/><b>Prerequisites</b><br/>Combined spells class feature.<br/><br/><b>Benefits</b><br/>Once per day as a full-round action, you can cast two spells, each from a different spellcasting class. Both spells must have a casting time of 1 standard action and must be a spell level equal to or lower than the level of spells you can prepare with the combined spells ability. You can make any decisions concerning the spells, such as the spells' targets, independently.<br/><br/><b>Special</b><br/>You can gain this feat multiple times. Each time you take the feat, you can use this ability one additional time per day.",
      "unidentified": ""
    },
    "tags": [
      "General"
    ],
    "actions": [],
    "uses": {
      "per": null,
      "value": 0,
      "maxFormula": "",
      "autoDeductChargesCost": "1"
    },
    "attackNotes": [],
    "effectNotes": [],
    "changes": [],
    "changeFlags": {
      "loseDexToAC": false,
      "noEncumbrance": false,
      "mediumArmorFullSpeed": false,
      "heavyArmorFullSpeed": false
    },
    "contextNotes": [],
    "links": {
      "children": [],
      "charges": []
    },
    "tag": "",
    "useCustomTag": false,
    "armorProf": {
      "value": [],
      "custom": ""
    },
    "weaponProf": {
      "value": [],
      "custom": ""
    },
    "languages": {
      "value": [],
      "custom": ""
    },
    "flags": {
      "boolean": {},
      "dictionary": {}
    },
    "scriptCalls": [],
    "subType": "feat",
    "associations": {
      "classes": []
    },
    "showInQuickbar": false,
    "abilityType": "none",
    "crOffset": "",
    "disabled": false,
    "classSkills": {}
  },
  "ownership": {
    "default": 0
  },
  "_stats": {
    "systemId": "pf1",
    "systemVersion": "9.1",
    "coreVersion": "10.291",
    "createdTime": 1665428353370,
    "modifiedTime": 1689797884242,
    "lastModifiedBy": "ppv91YxratjWnkJi"
  },
  "effects": [],
  "folder": null,
  "sort": 0,
  "flags": {},
  "_key": "!items!K5wpWsznKEHNPSUg"
}