{
  "_id": "fH2aOis8zndL85fw",
  "name": "Letter Fury",
  "type": "feat",
  "img": "systems/pf1/icons/races/goblin.png",
  "system": {
    "description": {
      "value": "<p><em>You go wild when someone tries to steal the words from your head.</em><br /><br /><strong>Prerequisites</strong><br />Goblin, rage class feature.<br /><br /><strong>Benefits</strong><br />If someone reads or writes in your presence (including casting spells like glyph of warding or symbol) you can, as an immediate action, choose to activate your rage class ability for 1 round. This round of rage does not count toward the total number of rounds which you can rage each day, but if you wish to continue your rage beyond that single round you must expend rounds from your daily rage allotment as normal. Once you use this feat you must wait at least 1 minute after you cease raging before you can use it again.</p>\n<p><br /><strong>Pathfinder Society<br /></strong>Only legal goblin PCs are allowed to choose anything from this book</p>",
      "unidentified": ""
    },
    "tags": [
      "PFS",
      "Racial",
      "Goblin"
    ],
    "actions": [],
    "uses": {
      "per": null,
      "value": 0,
      "maxFormula": "",
      "autoDeductChargesCost": "1"
    },
    "attackNotes": [],
    "effectNotes": [],
    "changes": [],
    "changeFlags": {
      "loseDexToAC": false,
      "noEncumbrance": false,
      "mediumArmorFullSpeed": false,
      "heavyArmorFullSpeed": false
    },
    "contextNotes": [],
    "links": {
      "children": [],
      "charges": []
    },
    "tag": "",
    "useCustomTag": false,
    "armorProf": {
      "value": [],
      "custom": ""
    },
    "weaponProf": {
      "value": [],
      "custom": ""
    },
    "languages": {
      "value": [],
      "custom": ""
    },
    "flags": {
      "boolean": {},
      "dictionary": {}
    },
    "scriptCalls": [],
    "subType": "feat",
    "associations": {
      "classes": []
    },
    "showInQuickbar": false,
    "abilityType": "none",
    "crOffset": "",
    "disabled": false,
    "classSkills": {}
  },
  "ownership": {
    "default": 0
  },
  "_stats": {
    "systemId": "pf1",
    "systemVersion": "9.1",
    "coreVersion": "10.291",
    "createdTime": 1665428356250,
    "modifiedTime": 1689797895043,
    "lastModifiedBy": "ppv91YxratjWnkJi"
  },
  "effects": [],
  "folder": null,
  "sort": 0,
  "flags": {},
  "_key": "!items!fH2aOis8zndL85fw"
}