{
  "_id": "hHWAGVumQfX8XH0U",
  "name": "Liberation Channel",
  "type": "feat",
  "img": "systems/pf1/icons/races/aasimar.png",
  "system": {
    "description": {
      "value": "<em>Your channeled energy is truly liberating.</em><br/><br/><b>Prerequisites</b><br/>Channel energy 7d6, worshiper of Cayden Cailean.<br/><br/><b>Benefits</b><br/>When you channel positive energy, any creature healed by the channel also gains the effect of freedom of movement for a number of rounds equal to your Charisma modifier (minimum 1 round). This effect has a caster level equal to your effective cleric level.",
      "unidentified": ""
    },
    "tags": [
      "PFS",
      "Channeling"
    ],
    "actions": [],
    "uses": {
      "per": null,
      "value": 0,
      "maxFormula": "",
      "autoDeductChargesCost": "1"
    },
    "attackNotes": [],
    "effectNotes": [],
    "changes": [],
    "changeFlags": {
      "loseDexToAC": false,
      "noEncumbrance": false,
      "mediumArmorFullSpeed": false,
      "heavyArmorFullSpeed": false
    },
    "contextNotes": [],
    "links": {
      "children": [],
      "charges": []
    },
    "tag": "",
    "useCustomTag": false,
    "armorProf": {
      "value": [],
      "custom": ""
    },
    "weaponProf": {
      "value": [],
      "custom": ""
    },
    "languages": {
      "value": [],
      "custom": ""
    },
    "flags": {
      "boolean": {},
      "dictionary": {}
    },
    "scriptCalls": [],
    "subType": "feat",
    "associations": {
      "classes": []
    },
    "showInQuickbar": false,
    "abilityType": "none",
    "crOffset": "",
    "disabled": false,
    "classSkills": {}
  },
  "ownership": {
    "default": 0
  },
  "_stats": {
    "systemId": "pf1",
    "systemVersion": "9.1",
    "coreVersion": "10.291",
    "createdTime": 1665428356705,
    "modifiedTime": 1689797896197,
    "lastModifiedBy": "ppv91YxratjWnkJi"
  },
  "effects": [],
  "folder": null,
  "sort": 0,
  "flags": {},
  "_key": "!items!hHWAGVumQfX8XH0U"
}