{
  "_id": "IsOgnm716Swd9RfD",
  "name": "Lighting the Way",
  "type": "feat",
  "img": "systems/pf1/icons/skills/light_03.jpg",
  "system": {
    "description": {
      "value": "<em>You seek to lead others through your pious example.</em><br/><br/><b>Prerequisites</b><br/>Be a member of House Zespire, or have the Devoted, Exemplar, Marked by the Gods, or Righteous Mentor background.<br/><br/><b>Benefits</b><br/>Once per day as a standard action, you can give all allies within 30 feet who can hear you a +1 bonus on attack rolls and on saving throws against mind-affecting effects for 1 minute.<br/><br/><b>Goal</b><br/> Establish your religion in an existing settlement where it isn't present. You can do this by having a settlement gain the Holy Site or Pious quality for devotion to your deity, or change its government to a theocracy based on your religion.<br/><br/><b>Completion Benefit</b><br/>You can spontaneously convert any 2nd-level or higher divine spell into enthrall and can spontaneously convert any 3rd-level or higher divine spell into suggestion.",
      "unidentified": ""
    },
    "tags": [
      "Story"
    ],
    "actions": [],
    "uses": {
      "per": null,
      "value": 0,
      "maxFormula": "",
      "autoDeductChargesCost": "1"
    },
    "attackNotes": [],
    "effectNotes": [],
    "changes": [],
    "changeFlags": {
      "loseDexToAC": false,
      "noEncumbrance": false,
      "mediumArmorFullSpeed": false,
      "heavyArmorFullSpeed": false
    },
    "contextNotes": [],
    "links": {
      "children": [],
      "charges": []
    },
    "tag": "",
    "useCustomTag": false,
    "armorProf": {
      "value": [],
      "custom": ""
    },
    "weaponProf": {
      "value": [],
      "custom": ""
    },
    "languages": {
      "value": [],
      "custom": ""
    },
    "flags": {
      "boolean": {},
      "dictionary": {}
    },
    "scriptCalls": [],
    "subType": "feat",
    "associations": {
      "classes": []
    },
    "showInQuickbar": false,
    "abilityType": "none",
    "crOffset": "",
    "disabled": false,
    "classSkills": {}
  },
  "ownership": {
    "default": 0
  },
  "_stats": {
    "systemId": "pf1",
    "systemVersion": "9.1",
    "coreVersion": "10.291",
    "createdTime": 1665428353278,
    "modifiedTime": 1689797883841,
    "lastModifiedBy": "ppv91YxratjWnkJi"
  },
  "effects": [],
  "folder": null,
  "sort": 0,
  "flags": {},
  "_key": "!items!IsOgnm716Swd9RfD"
}