{
  "_id": "T2TE00MgRWL9kzxT",
  "name": "Light Gravity Acclimation",
  "type": "feat",
  "img": "systems/pf1/icons/skills/yellow_35.jpg",
  "system": {
    "description": {
      "value": "<em>A realm's light gravity lets you reach your full potential.</em><br/><br/><b>Prerequisites</b><br/>Dex 13, Acrobatics 3 ranks.<br/><br/><b>Benefits</b><br/>Your land speed increases by 10 feet while on a plane with light gravity, and other creatures do not gain a circumstance bonus on attack rolls against you from light gravity. At the GM's discretion, these effects might apply to certain environments on the Material Plane, such as low-gravity planets. In addition, you gain a +2 bonus on Acrobatics checks; if you have 10 or more ranks in Acrobatics, this bonus increases to +4. This bonus does not stack with that provided by the Acrobatic feat.",
      "unidentified": ""
    },
    "tags": [
      "PFS",
      "General"
    ],
    "actions": [],
    "uses": {
      "per": null,
      "value": 0,
      "maxFormula": "",
      "autoDeductChargesCost": "1"
    },
    "attackNotes": [],
    "effectNotes": [],
    "changes": [],
    "changeFlags": {
      "loseDexToAC": false,
      "noEncumbrance": false,
      "mediumArmorFullSpeed": false,
      "heavyArmorFullSpeed": false
    },
    "contextNotes": [],
    "links": {
      "children": [],
      "charges": []
    },
    "tag": "",
    "useCustomTag": false,
    "armorProf": {
      "value": [],
      "custom": ""
    },
    "weaponProf": {
      "value": [],
      "custom": ""
    },
    "languages": {
      "value": [],
      "custom": ""
    },
    "flags": {
      "boolean": {},
      "dictionary": {}
    },
    "scriptCalls": [],
    "subType": "feat",
    "associations": {
      "classes": []
    },
    "showInQuickbar": false,
    "abilityType": "none",
    "crOffset": "",
    "disabled": false,
    "classSkills": {}
  },
  "ownership": {
    "default": 0
  },
  "_stats": {
    "systemId": "pf1",
    "systemVersion": "9.1",
    "coreVersion": "10.291",
    "createdTime": 1665428354542,
    "modifiedTime": 1689797888357,
    "lastModifiedBy": "ppv91YxratjWnkJi"
  },
  "effects": [],
  "folder": null,
  "sort": 0,
  "flags": {},
  "_key": "!items!T2TE00MgRWL9kzxT"
}