{
  "_id": "YNyygfA3poYrC4ju",
  "name": "Lingering Breath",
  "type": "feat",
  "img": "systems/pf1/icons/skills/affliction_14.jpg",
  "system": {
    "description": {
      "value": "<em>Your powerful draconic breath coats the battlefield.</em><br/><br/><b>Prerequisites</b><br/>Dragon disciple level 3rd.<br/><br/><b>Benefits</b><br/>A creature that fails its save against your breath weapon is covered in a clinging effect that deals a number of points of damage equal to 1d6 x-- the number of times per day you can use your breath weapon. This lingering damage is of the same energy type as your breath weapon. The lingering breath effect remains for a number of rounds equal to your dragon disciple level, but in each subsequent round, a creature can spend a standard action to attempt another save against your breath weapon DC to remove the effect.",
      "unidentified": ""
    },
    "tags": [
      "General"
    ],
    "actions": [],
    "uses": {
      "per": null,
      "value": 0,
      "maxFormula": "",
      "autoDeductChargesCost": "1"
    },
    "attackNotes": [],
    "effectNotes": [],
    "changes": [],
    "changeFlags": {
      "loseDexToAC": false,
      "noEncumbrance": false,
      "mediumArmorFullSpeed": false,
      "heavyArmorFullSpeed": false
    },
    "contextNotes": [],
    "links": {
      "children": [],
      "charges": []
    },
    "tag": "",
    "useCustomTag": false,
    "armorProf": {
      "value": [],
      "custom": ""
    },
    "weaponProf": {
      "value": [],
      "custom": ""
    },
    "languages": {
      "value": [],
      "custom": ""
    },
    "flags": {
      "boolean": {},
      "dictionary": {}
    },
    "scriptCalls": [],
    "subType": "feat",
    "associations": {
      "classes": []
    },
    "showInQuickbar": false,
    "abilityType": "none",
    "crOffset": "",
    "disabled": false,
    "classSkills": {}
  },
  "ownership": {
    "default": 0
  },
  "_stats": {
    "systemId": "pf1",
    "systemVersion": "9.1",
    "coreVersion": "10.291",
    "createdTime": 1665428355463,
    "modifiedTime": 1689797891898,
    "lastModifiedBy": "ppv91YxratjWnkJi"
  },
  "effects": [],
  "folder": null,
  "sort": 0,
  "flags": {},
  "_key": "!items!YNyygfA3poYrC4ju"
}