{
  "_id": "eTEphBEo5OCsL5Xr",
  "name": "Live off the Land",
  "type": "feat",
  "img": "systems/pf1/icons/skills/green_32.jpg",
  "system": {
    "description": {
      "value": "<em>You can easily pluck what you need from nature's bounty as you travel.</em><br/><br/><b>Prerequisites</b><br/>Favored terrain class feature.<br/><br/><b>Benefits</b><br/>You (and any allies whom you assist with the Survival skill) can move at full speed while using Survival to gather food and water, and you gain a +4 bonus on Survival checks to do so. If you cast create food and drink, create water, or any similar spell that creates edible and potable provisions while you are in your favored terrain, your caster level increases by an amount equal to half your favored terrain bonus.",
      "unidentified": ""
    },
    "tags": [
      "PFS",
      "General"
    ],
    "actions": [],
    "uses": {
      "per": null,
      "value": 0,
      "maxFormula": "",
      "autoDeductChargesCost": "1"
    },
    "attackNotes": [],
    "effectNotes": [],
    "changes": [],
    "changeFlags": {
      "loseDexToAC": false,
      "noEncumbrance": false,
      "mediumArmorFullSpeed": false,
      "heavyArmorFullSpeed": false
    },
    "contextNotes": [],
    "links": {
      "children": [],
      "charges": []
    },
    "tag": "",
    "useCustomTag": false,
    "armorProf": {
      "value": [],
      "custom": ""
    },
    "weaponProf": {
      "value": [],
      "custom": ""
    },
    "languages": {
      "value": [],
      "custom": ""
    },
    "flags": {
      "boolean": {},
      "dictionary": {}
    },
    "scriptCalls": [],
    "subType": "feat",
    "associations": {
      "classes": []
    },
    "showInQuickbar": false,
    "abilityType": "none",
    "crOffset": "",
    "disabled": false,
    "classSkills": {}
  },
  "ownership": {
    "default": 0
  },
  "_stats": {
    "systemId": "pf1",
    "systemVersion": "9.1",
    "coreVersion": "10.291",
    "createdTime": 1665428356189,
    "modifiedTime": 1689797894750,
    "lastModifiedBy": "ppv91YxratjWnkJi"
  },
  "effects": [],
  "folder": null,
  "sort": 0,
  "flags": {},
  "_key": "!items!eTEphBEo5OCsL5Xr"
}