{
  "_id": "J9GwtpGbF72TC6aF",
  "name": "Lunge",
  "type": "feat",
  "img": "systems/pf1/icons/feats/lunge.jpg",
  "system": {
    "description": {
      "value": "<p><em>You can strike foes that would normally be out of reach.</em><br /><br /><strong>Prerequisites</strong><br />Base attack bonus +6.<br /><br /><strong>Benefits</strong><br />You can increase the reach of your melee attacks by 5 feet until the end of your turn by taking a -2 penalty to your AC until your next turn. You must decide to use this ability before any attacks are made.<br /><br /><strong>Combat Trick</strong><br />When you use this feat, you can spend 2 stamina points to avoid taking the -2 penalty to AC for that use.</p>\n<p>&nbsp;</p>\n<p><strong>Usage</strong>: apply Lunge buff until start of your next turn.</p>",
      "unidentified": ""
    },
    "tags": [
      "PFS",
      "Combat"
    ],
    "actions": [],
    "uses": {
      "per": null,
      "value": 0,
      "maxFormula": "",
      "autoDeductChargesCost": "1"
    },
    "attackNotes": [],
    "effectNotes": [],
    "changes": [],
    "changeFlags": {
      "loseDexToAC": false,
      "noEncumbrance": false,
      "mediumArmorFullSpeed": false,
      "heavyArmorFullSpeed": false
    },
    "contextNotes": [],
    "links": {
      "children": [],
      "charges": []
    },
    "tag": "lunge",
    "useCustomTag": false,
    "armorProf": {
      "value": [],
      "custom": ""
    },
    "weaponProf": {
      "value": [],
      "custom": ""
    },
    "languages": {
      "value": [],
      "custom": ""
    },
    "flags": {
      "boolean": {},
      "dictionary": {}
    },
    "scriptCalls": [],
    "subType": "feat",
    "associations": {
      "classes": []
    },
    "showInQuickbar": false,
    "abilityType": "none",
    "crOffset": "",
    "disabled": false,
    "classSkills": {},
    "auraStrength": 0
  },
  "ownership": {
    "default": 0
  },
  "_stats": {
    "systemId": "pf1",
    "systemVersion": "9.1",
    "coreVersion": "10.291",
    "createdTime": 1665428353304,
    "modifiedTime": 1689797883940,
    "lastModifiedBy": "ppv91YxratjWnkJi"
  },
  "effects": [],
  "folder": null,
  "sort": 0,
  "flags": {},
  "_key": "!items!J9GwtpGbF72TC6aF"
}