{
  "_id": "XeX5C8SdO7e5XMvg",
  "name": "Maddening Obliteration",
  "type": "feat",
  "img": "systems/pf1/icons/skills/blood_11.jpg",
  "system": {
    "description": {
      "value": "<em>With a mighty killing blow, your unsettling punch vaporizes your foe.</em><br/><br/><b>Prerequisites</b><br/>Wis 19, Cha 15, Improved Unarmed Strike, Maddening Strike, Maddening Style, Stunning Fist, Knowledge (arcana) 10 ranks, ki pool class feature, nongood alignment.<br/><br/><b>Benefits</b><br/>When you damage a living creature with an unarmed strike while using Maddening Style, and you have at least 1 point in your ki pool, that creature suffers a -2 penalty on saving throws against any confusion, madness, and insanity effects (including your Maddening Strike) for 1 round. Additionally, if you reduce a creature to fewer than 0 hit points with a Stunning Fist attack, you can spend 2 points from your ki pool as a free action to obliterate your opponent, reducing their body to fine dust as per disintegrate. A living creature can attempt a Fortitude save (DC = 10 + 1/2 your character level + your Wisdom modifier) to negate this effect.",
      "unidentified": ""
    },
    "tags": [
      "PFS",
      "Combat"
    ],
    "actions": [],
    "uses": {
      "per": null,
      "value": 0,
      "maxFormula": "",
      "autoDeductChargesCost": "1"
    },
    "attackNotes": [],
    "effectNotes": [],
    "changes": [],
    "changeFlags": {
      "loseDexToAC": false,
      "noEncumbrance": false,
      "mediumArmorFullSpeed": false,
      "heavyArmorFullSpeed": false
    },
    "contextNotes": [],
    "links": {
      "children": [],
      "charges": []
    },
    "tag": "",
    "useCustomTag": false,
    "armorProf": {
      "value": [],
      "custom": ""
    },
    "weaponProf": {
      "value": [],
      "custom": ""
    },
    "languages": {
      "value": [],
      "custom": ""
    },
    "flags": {
      "boolean": {},
      "dictionary": {}
    },
    "scriptCalls": [],
    "subType": "feat",
    "associations": {
      "classes": []
    },
    "showInQuickbar": false,
    "abilityType": "none",
    "crOffset": "",
    "disabled": false,
    "classSkills": {}
  },
  "ownership": {
    "default": 0
  },
  "_stats": {
    "systemId": "pf1",
    "systemVersion": "9.1",
    "coreVersion": "10.291",
    "createdTime": 1665428355117,
    "modifiedTime": 1689797890850,
    "lastModifiedBy": "ppv91YxratjWnkJi"
  },
  "effects": [],
  "folder": null,
  "sort": 0,
  "flags": {},
  "_key": "!items!XeX5C8SdO7e5XMvg"
}