{
  "_id": "X5x1uxhg10sfPcL4",
  "name": "Magical Enigma",
  "type": "feat",
  "img": "systems/pf1/icons/feats/enlarge-spell.jpg",
  "system": {
    "description": {
      "value": "<em>A troubling mystery lurks around you, tied to the origin of your magic or your family's legacy, and you seek the truth at all costs.</em><br/><br/><b>Prerequisites</b><br/>Bloodline, eidolon, mystery, phantom, spirit animal, or witch's familiar class feature and you must have an unknown secret about your magic or family history (even if you do not yet know the topic of the secret) or have the One of a Kind, the Outsider's Lineage, or the Unknown background.<br/><br/><b>Benefits</b><br/>Select a class feature from the following list: one bloodline power, eidolon evolutions, one revelation, phantom abilities, spirit animal, or witch's familiar. The feature must be from a class you have at least 1 level in, and you must have the class feature. You can treat either your class level as being 1 higher, or your Intelligence, Wisdom, or Charisma score as 2 higher, for the purpose of calculating the effect of the selected power. This impacts only the calculations of your existing powers that are based on class level or the appropriate ability score. It does not grant you early access to abilities gained at higher levels.<br/><br/><b>Goal</b><br/> Learn and verify the chosen magic secret for your family, defeating a challenging foe in the process.<br/><br/><b>Completion Benefit</b><br/>Select one Knowledge skill or the Use Magic Device skill. This is now a class skill for you.",
      "unidentified": ""
    },
    "tags": [
      "Story"
    ],
    "actions": [],
    "uses": {
      "per": null,
      "value": 0,
      "maxFormula": "",
      "autoDeductChargesCost": "1"
    },
    "attackNotes": [],
    "effectNotes": [],
    "changes": [],
    "changeFlags": {
      "loseDexToAC": false,
      "noEncumbrance": false,
      "mediumArmorFullSpeed": false,
      "heavyArmorFullSpeed": false
    },
    "contextNotes": [],
    "links": {
      "children": [],
      "charges": []
    },
    "tag": "",
    "useCustomTag": false,
    "armorProf": {
      "value": [],
      "custom": ""
    },
    "weaponProf": {
      "value": [],
      "custom": ""
    },
    "languages": {
      "value": [],
      "custom": ""
    },
    "flags": {
      "boolean": {},
      "dictionary": {}
    },
    "scriptCalls": [],
    "subType": "feat",
    "associations": {
      "classes": []
    },
    "showInQuickbar": false,
    "abilityType": "none",
    "crOffset": "",
    "disabled": false,
    "classSkills": {}
  },
  "ownership": {
    "default": 0
  },
  "_stats": {
    "systemId": "pf1",
    "systemVersion": "9.1",
    "coreVersion": "10.291",
    "createdTime": 1665428355093,
    "modifiedTime": 1689797890701,
    "lastModifiedBy": "ppv91YxratjWnkJi"
  },
  "effects": [],
  "folder": null,
  "sort": 0,
  "flags": {},
  "_key": "!items!X5x1uxhg10sfPcL4"
}