{
  "_id": "YQFhV0Yj19rbsBG9",
  "name": "Manipulative Agility",
  "type": "feat",
  "img": "systems/pf1/icons/feats/greater-disarm.jpg",
  "system": {
    "description": {
      "value": "<em>You can use your agility to manipulate people as well as small objects.</em><br/><br/><b>Prerequisites</b><br/>Bluff 1 rank, Sleight of Hand 1 rank.<br/><br/><b>Benefits</b><br/>You can use Sleight of Hand in place of Bluff for checks to feint in combat, as well as for checks to pass secret messages without being noticed (by using gestures and body language). In both cases, the effects become visual and don't work if the target or recipient is blind or cannot see you. In the case of secret messages, the limitations of hand gestures and body language might impact what sorts of messages you can pass, at the GM's discretion.",
      "unidentified": ""
    },
    "tags": [
      "PFS",
      "General"
    ],
    "actions": [],
    "uses": {
      "per": null,
      "value": 0,
      "maxFormula": "",
      "autoDeductChargesCost": "1"
    },
    "attackNotes": [],
    "effectNotes": [],
    "changes": [],
    "changeFlags": {
      "loseDexToAC": false,
      "noEncumbrance": false,
      "mediumArmorFullSpeed": false,
      "heavyArmorFullSpeed": false
    },
    "contextNotes": [],
    "links": {
      "children": [],
      "charges": []
    },
    "tag": "",
    "useCustomTag": false,
    "armorProf": {
      "value": [],
      "custom": ""
    },
    "weaponProf": {
      "value": [],
      "custom": ""
    },
    "languages": {
      "value": [],
      "custom": ""
    },
    "flags": {
      "boolean": {},
      "dictionary": {}
    },
    "scriptCalls": [],
    "subType": "feat",
    "associations": {
      "classes": []
    },
    "showInQuickbar": false,
    "abilityType": "none",
    "crOffset": "",
    "disabled": false,
    "classSkills": {}
  },
  "ownership": {
    "default": 0
  },
  "_stats": {
    "systemId": "pf1",
    "systemVersion": "9.1",
    "coreVersion": "10.291",
    "createdTime": 1665428355466,
    "modifiedTime": 1689797891919,
    "lastModifiedBy": "ppv91YxratjWnkJi"
  },
  "effects": [],
  "folder": null,
  "sort": 0,
  "flags": {},
  "_key": "!items!YQFhV0Yj19rbsBG9"
}