{
  "_id": "2og5wHlKdftjSluF",
  "name": "Marid Style",
  "type": "feat",
  "img": "systems/pf1/icons/skills/blue_10.jpg",
  "system": {
    "description": {
      "value": "<em>You conjure tendrils of icy water to strike your enemies from a distance.</em><br/><br/><b>Prerequisites</b><br/>Con 13, Wis 15, Elemental Fist, Improved Unarmed Strike, base attack bonus +9 or monk level 5th.<br/><br/><b>Benefits</b><br/>You gain one additional Elemental Fist (Advanced Player's Guide 158) attempt per day. While using this style and Elemental Fist to deal cold damage, you gain a bonus on cold damage rolls equal to your Wisdom modifier, and your reach with your unarmed strike increases by 5 feet.<br/><br/><b>Combat Trick</b><br/>When you make an Elemental Fist attack to deal cold damage, you can spend up to 5 stamina points to deal an amount of additional cold damage equal to double the number of stamina points you spent.",
      "unidentified": ""
    },
    "tags": [
      "PFS",
      "Combat",
      "Style"
    ],
    "actions": [],
    "uses": {
      "per": null,
      "value": 0,
      "maxFormula": "",
      "autoDeductChargesCost": "1"
    },
    "attackNotes": [],
    "effectNotes": [],
    "changes": [],
    "changeFlags": {
      "loseDexToAC": false,
      "noEncumbrance": false,
      "mediumArmorFullSpeed": false,
      "heavyArmorFullSpeed": false
    },
    "contextNotes": [],
    "links": {
      "children": [],
      "charges": []
    },
    "tag": "",
    "useCustomTag": false,
    "armorProf": {
      "value": [],
      "custom": ""
    },
    "weaponProf": {
      "value": [],
      "custom": ""
    },
    "languages": {
      "value": [],
      "custom": ""
    },
    "flags": {
      "boolean": {},
      "dictionary": {}
    },
    "scriptCalls": [],
    "subType": "feat",
    "associations": {
      "classes": []
    },
    "showInQuickbar": false,
    "abilityType": "none",
    "crOffset": "",
    "disabled": false,
    "classSkills": {}
  },
  "ownership": {
    "default": 0
  },
  "_stats": {
    "systemId": "pf1",
    "systemVersion": "9.1",
    "coreVersion": "10.291",
    "createdTime": 1665428350764,
    "modifiedTime": 1689797874910,
    "lastModifiedBy": "ppv91YxratjWnkJi"
  },
  "effects": [],
  "folder": null,
  "sort": 0,
  "flags": {},
  "_key": "!items!2og5wHlKdftjSluF"
}