{
  "_id": "NPtaLuLvsHp3Tbas",
  "name": "Mask of Virtue",
  "type": "feat",
  "img": "icons/equipment/head/mask-horned-brown.webp",
  "system": {
    "description": {
      "value": "<em>Your alignment is known to you and you alone.</em><br/><br/><b>Benefits</b><br/>Those who try to learn your true alignment find it hidden or receive a false result. Depending on the number of damnation feats you possess, spells or special abilities that would normally reveal your alignment return a vague or incorrect result. If this feat disguises your alignment, you can use either your true alignment or the false one when using magic items with alignment prerequisites.<br/><br/> One Damnation Feat<br/>The spell or special ability returns an inconclusive result.<br/><br/> Two Damnation Feats<br/>Upon gaining this power, choose an alignment within one step of your actual alignment. Your alignment is always revealed as being that false alignment.<br/><br/> Three Damnation Feats<br/>Upon gaining this power, choose an alignment within two steps of your actual alignment. Your alignment is always revealed as being this false alignment.<br/><br/> Four Damnation Feats<br/>You immediately know when someone is attempting to use a spell or special ability to learn your alignment. You learn the name and alignment of the creature using the effect. Additionally, you can choose any alignment as the result returned by the spell or ability.",
      "unidentified": ""
    },
    "tags": [
      "Damnation"
    ],
    "actions": [],
    "uses": {
      "per": null,
      "value": 0,
      "maxFormula": "",
      "autoDeductChargesCost": "1"
    },
    "attackNotes": [],
    "effectNotes": [],
    "changes": [],
    "changeFlags": {
      "loseDexToAC": false,
      "noEncumbrance": false,
      "mediumArmorFullSpeed": false,
      "heavyArmorFullSpeed": false
    },
    "contextNotes": [],
    "links": {
      "children": [],
      "charges": []
    },
    "tag": "",
    "useCustomTag": false,
    "armorProf": {
      "value": [],
      "custom": ""
    },
    "weaponProf": {
      "value": [],
      "custom": ""
    },
    "languages": {
      "value": [],
      "custom": ""
    },
    "flags": {
      "boolean": {},
      "dictionary": {}
    },
    "scriptCalls": [],
    "subType": "feat",
    "associations": {
      "classes": []
    },
    "showInQuickbar": false,
    "abilityType": "none",
    "crOffset": "",
    "disabled": false,
    "classSkills": {}
  },
  "ownership": {
    "default": 0
  },
  "_stats": {
    "systemId": "pf1",
    "systemVersion": "9.1",
    "coreVersion": "10.291",
    "createdTime": 1665428353881,
    "modifiedTime": 1689797885977,
    "lastModifiedBy": "ppv91YxratjWnkJi"
  },
  "effects": [],
  "folder": null,
  "sort": 0,
  "flags": {},
  "_key": "!items!NPtaLuLvsHp3Tbas"
}