{
  "_id": "cc1Jj3os0dY81sno",
  "name": "Master of Knowledge",
  "type": "feat",
  "img": "icons/sundries/books/book-embossed-gold-red.webp",
  "system": {
    "description": {
      "value": "<em>In times of need, you have the answers.</em><br/><br/><b>Prerequisites</b><br/>Int 17, Skill Focus (Knowledge [any]), worshiper of Irori.<br/><br/><b>Benefits</b><br/>Choose a single Knowledge skill with which you have Skill Focus. Once per day, when you wish to make a check with that Knowledge skill, you need not roll, and may treat the result as if you had rolled a natural 20 instead.",
      "unidentified": ""
    },
    "tags": [
      "PFS",
      "General"
    ],
    "actions": [],
    "uses": {
      "per": null,
      "value": 0,
      "maxFormula": "",
      "autoDeductChargesCost": "1"
    },
    "attackNotes": [],
    "effectNotes": [],
    "changes": [],
    "changeFlags": {
      "loseDexToAC": false,
      "noEncumbrance": false,
      "mediumArmorFullSpeed": false,
      "heavyArmorFullSpeed": false
    },
    "contextNotes": [],
    "links": {
      "children": [],
      "charges": []
    },
    "tag": "",
    "useCustomTag": false,
    "armorProf": {
      "value": [],
      "custom": ""
    },
    "weaponProf": {
      "value": [],
      "custom": ""
    },
    "languages": {
      "value": [],
      "custom": ""
    },
    "flags": {
      "boolean": {},
      "dictionary": {}
    },
    "scriptCalls": [],
    "subType": "feat",
    "associations": {
      "classes": []
    },
    "showInQuickbar": false,
    "abilityType": "none",
    "crOffset": "",
    "disabled": false,
    "classSkills": {}
  },
  "ownership": {
    "default": 0
  },
  "_stats": {
    "systemId": "pf1",
    "systemVersion": "9.1",
    "coreVersion": "10.291",
    "createdTime": 1665428355737,
    "modifiedTime": 1689797893460,
    "lastModifiedBy": "ppv91YxratjWnkJi"
  },
  "effects": [],
  "folder": null,
  "sort": 0,
  "flags": {},
  "_key": "!items!cc1Jj3os0dY81sno"
}