{
  "_id": "e9ZJbHfpnGGghjBV",
  "name": "Meta Word Mastery",
  "type": "feat",
  "img": "systems/pf1/icons/items/inventory/runestone-dwarven.jpg",
  "system": {
    "description": {
      "value": "<em>You are skilled at using meta words to enhance your wordcasting ability.</em><br/><br/><b>Prerequisites</b><br/>Ability to cast wordspells.<br/><br/><b>Benefits</b><br/>You can use meta words three additional times per day. In addition, select one additional meta word and add it to your spellbook, familiar, or list of words known.",
      "unidentified": ""
    },
    "tags": [
      "Words of Power"
    ],
    "actions": [],
    "uses": {
      "per": null,
      "value": 0,
      "maxFormula": "",
      "autoDeductChargesCost": "1"
    },
    "attackNotes": [],
    "effectNotes": [],
    "changes": [],
    "changeFlags": {
      "loseDexToAC": false,
      "noEncumbrance": false,
      "mediumArmorFullSpeed": false,
      "heavyArmorFullSpeed": false
    },
    "contextNotes": [],
    "links": {
      "children": [],
      "charges": []
    },
    "tag": "",
    "useCustomTag": false,
    "armorProf": {
      "value": [],
      "custom": ""
    },
    "weaponProf": {
      "value": [],
      "custom": ""
    },
    "languages": {
      "value": [],
      "custom": ""
    },
    "flags": {
      "boolean": {},
      "dictionary": {}
    },
    "scriptCalls": [],
    "subType": "feat",
    "associations": {
      "classes": []
    },
    "showInQuickbar": false,
    "abilityType": "none",
    "crOffset": "",
    "disabled": false,
    "classSkills": {}
  },
  "ownership": {
    "default": 0
  },
  "_stats": {
    "systemId": "pf1",
    "systemVersion": "9.1",
    "coreVersion": "10.291",
    "createdTime": 1665428356156,
    "modifiedTime": 1689797894561,
    "lastModifiedBy": "ppv91YxratjWnkJi"
  },
  "effects": [],
  "folder": null,
  "sort": 0,
  "flags": {},
  "_key": "!items!e9ZJbHfpnGGghjBV"
}