{
  "_id": "AhjO45NKfHVxd1br",
  "name": "Metamagical Synergy",
  "type": "feat",
  "img": "systems/pf1/icons/skills/blue_08.jpg",
  "system": {
    "description": {
      "value": "<em>You and the other members of your coven can weave your spells together to great effect.</em><br/><br/><b>Prerequisites</b><br/>Allied Spellcaster.<br/><br/><b>Benefits</b><br/>If all three coven members with this feat cast the same spell in the same round, you can combine your efforts, resolving the spell only on the last member's initiative. The effects of the spell are resolved only once, but the coven can apply one of the following metamagic feats without altering the spell slot used: Empower Spell, Enlarge Spell, Extend Spell, Maximize Spell, or Widen Spell. Casters do not need the appropriate metamagic feat to apply it via this feat. The synergy spell resolves using the caster level, save DC, and other modifiers of the caster of the coven's choice. The spell does not apply other metamagic feats unless all three members included the same feat in their casting. This ability cannot be used if the chosen metamagic feat would normally alter a spell to use a spell slot above 9th level.",
      "unidentified": ""
    },
    "tags": [
      "PFS",
      "Coven",
      "Teamwork"
    ],
    "actions": [],
    "uses": {
      "per": null,
      "value": 0,
      "maxFormula": "",
      "autoDeductChargesCost": "1"
    },
    "attackNotes": [],
    "effectNotes": [],
    "changes": [],
    "changeFlags": {
      "loseDexToAC": false,
      "noEncumbrance": false,
      "mediumArmorFullSpeed": false,
      "heavyArmorFullSpeed": false
    },
    "contextNotes": [],
    "links": {
      "children": [],
      "charges": []
    },
    "tag": "",
    "useCustomTag": false,
    "armorProf": {
      "value": [],
      "custom": ""
    },
    "weaponProf": {
      "value": [],
      "custom": ""
    },
    "languages": {
      "value": [],
      "custom": ""
    },
    "flags": {
      "boolean": {},
      "dictionary": {}
    },
    "scriptCalls": [],
    "subType": "feat",
    "associations": {
      "classes": []
    },
    "showInQuickbar": false,
    "abilityType": "none",
    "crOffset": "",
    "disabled": false,
    "classSkills": {}
  },
  "ownership": {
    "default": 0
  },
  "_stats": {
    "systemId": "pf1",
    "systemVersion": "9.1",
    "coreVersion": "10.291",
    "createdTime": 1665428352017,
    "modifiedTime": 1689797878733,
    "lastModifiedBy": "ppv91YxratjWnkJi"
  },
  "effects": [],
  "folder": null,
  "sort": 0,
  "flags": {},
  "_key": "!items!AhjO45NKfHVxd1br"
}