{
  "_id": "H9WiCQ2l7em8fwHY",
  "name": "Metamagic Invocation",
  "type": "feat",
  "img": "systems/pf1/icons/skills/emerald_01.jpg",
  "system": {
    "description": {
      "value": "<em>You have further refined your combination of elemental power and spellcasting with metamagic techniques.</em><br/><br/><b>Prerequisites</b><br/>Metakinesis class feature.<br/><br/><b>Benefits</b><br/>Choose a metamagic feat from the following list: Enlarge Spell, Extend Spell, Intuitive Spell, Logical Spell, Quicken Spell, Reach Spell, or Tenacious SpellUI. When casting a spell via Kinetic Invocation, you can increase its burn cost to augment the spell with that metamagic feat.<br/><br/> The burn cost increase is equal to the spell level increase applied by the feat. Augmenting a spell increases its casting time as if it were cast spontaneously.<br/><br/><b>Special</b><br/>You can take this feat more than once. Each time you take this feat, select another metamagic feat; you can augment a spell with multiple feats by accepting additional points of burn equal to the total increased spell level.",
      "unidentified": ""
    },
    "tags": [
      "PFS",
      "General"
    ],
    "actions": [],
    "uses": {
      "per": null,
      "value": 0,
      "maxFormula": "",
      "autoDeductChargesCost": "1"
    },
    "attackNotes": [],
    "effectNotes": [],
    "changes": [],
    "changeFlags": {
      "loseDexToAC": false,
      "noEncumbrance": false,
      "mediumArmorFullSpeed": false,
      "heavyArmorFullSpeed": false
    },
    "contextNotes": [],
    "links": {
      "children": [],
      "charges": []
    },
    "tag": "",
    "useCustomTag": false,
    "armorProf": {
      "value": [],
      "custom": ""
    },
    "weaponProf": {
      "value": [],
      "custom": ""
    },
    "languages": {
      "value": [],
      "custom": ""
    },
    "flags": {
      "boolean": {},
      "dictionary": {}
    },
    "scriptCalls": [],
    "subType": "feat",
    "associations": {
      "classes": []
    },
    "showInQuickbar": false,
    "abilityType": "none",
    "crOffset": "",
    "disabled": false,
    "classSkills": {}
  },
  "ownership": {
    "default": 0
  },
  "_stats": {
    "systemId": "pf1",
    "systemVersion": "9.1",
    "coreVersion": "10.291",
    "createdTime": 1665428352819,
    "modifiedTime": 1689797882707,
    "lastModifiedBy": "ppv91YxratjWnkJi"
  },
  "effects": [],
  "folder": null,
  "sort": 0,
  "flags": {},
  "_key": "!items!H9WiCQ2l7em8fwHY"
}