{
  "_id": "ARmzuwIYLw563Jxz",
  "name": "Metallic Wings",
  "type": "feat",
  "img": "systems/pf1/icons/races/aasimar.png",
  "system": {
    "description": {
      "value": "<em>Your wing feathers are made of gleaming metal.</em><br/><br/><b>Prerequisites</b><br/>Angelic Blood, Angelic Flesh, Angel Wings, aasimar, character level 11th.<br/><br/><b>Benefits</b><br/>You gain two wing attacks. These are secondary natural attacks that deal 1d4 points of slashing damage (or 1d3 if you are Small).",
      "unidentified": ""
    },
    "tags": [
      "PFS",
      "Racial",
      "Aasimar"
    ],
    "actions": [],
    "uses": {
      "per": null,
      "value": 0,
      "maxFormula": "",
      "autoDeductChargesCost": "1"
    },
    "attackNotes": [],
    "effectNotes": [],
    "changes": [],
    "changeFlags": {
      "loseDexToAC": false,
      "noEncumbrance": false,
      "mediumArmorFullSpeed": false,
      "heavyArmorFullSpeed": false
    },
    "contextNotes": [],
    "links": {
      "children": [],
      "charges": []
    },
    "tag": "",
    "useCustomTag": false,
    "armorProf": {
      "value": [],
      "custom": ""
    },
    "weaponProf": {
      "value": [],
      "custom": ""
    },
    "languages": {
      "value": [],
      "custom": ""
    },
    "flags": {
      "boolean": {},
      "dictionary": {}
    },
    "scriptCalls": [],
    "subType": "feat",
    "associations": {
      "classes": []
    },
    "showInQuickbar": false,
    "abilityType": "none",
    "crOffset": "",
    "disabled": false,
    "classSkills": {}
  },
  "ownership": {
    "default": 0
  },
  "_stats": {
    "systemId": "pf1",
    "systemVersion": "9.1",
    "coreVersion": "10.291",
    "createdTime": 1665428351981,
    "modifiedTime": 1689797878638,
    "lastModifiedBy": "ppv91YxratjWnkJi"
  },
  "effects": [],
  "folder": null,
  "sort": 0,
  "flags": {},
  "_key": "!items!ARmzuwIYLw563Jxz"
}