{
  "_id": "hD1m5lZyYktfpt6h",
  "name": "Mighty Bite",
  "type": "feat",
  "img": "systems/pf1/icons/skills/red_29.jpg",
  "system": {
    "description": {
      "value": "<em>Your rending claws expose your opponent's vital organs to your teeth.</em><br/><br/><b>Prerequisites</b><br/>Base attack bonus +6, bite attack, rend, troll.<br/><br/><b>Benefits</b><br/>If you deal damage to a creature with your rend ability, the critical threat range of your bite attack becomes 18-20 until the start of your next turn. This increase does not stack with other effects that increase your bite's critical threat range (such as the keen weapon special ability or the Improved Critical feat).",
      "unidentified": ""
    },
    "tags": [
      "Combat"
    ],
    "actions": [],
    "uses": {
      "per": null,
      "value": 0,
      "maxFormula": "",
      "autoDeductChargesCost": "1"
    },
    "attackNotes": [],
    "effectNotes": [],
    "changes": [],
    "changeFlags": {
      "loseDexToAC": false,
      "noEncumbrance": false,
      "mediumArmorFullSpeed": false,
      "heavyArmorFullSpeed": false
    },
    "contextNotes": [],
    "links": {
      "children": [],
      "charges": []
    },
    "tag": "",
    "useCustomTag": false,
    "armorProf": {
      "value": [],
      "custom": ""
    },
    "weaponProf": {
      "value": [],
      "custom": ""
    },
    "languages": {
      "value": [],
      "custom": ""
    },
    "flags": {
      "boolean": {},
      "dictionary": {}
    },
    "scriptCalls": [],
    "subType": "feat",
    "associations": {
      "classes": []
    },
    "showInQuickbar": false,
    "abilityType": "none",
    "crOffset": "",
    "disabled": false,
    "classSkills": {}
  },
  "ownership": {
    "default": 0
  },
  "_stats": {
    "systemId": "pf1",
    "systemVersion": "9.1",
    "coreVersion": "10.291",
    "createdTime": 1665428356700,
    "modifiedTime": 1689797896166,
    "lastModifiedBy": "ppv91YxratjWnkJi"
  },
  "effects": [],
  "folder": null,
  "sort": 0,
  "flags": {},
  "_key": "!items!hD1m5lZyYktfpt6h"
}