{
  "_id": "os5b22pIM8ThzOdK",
  "name": "Mighty Boughs",
  "type": "feat",
  "img": "icons/commodities/biological/wing-green.webp",
  "system": {
    "description": {
      "value": "<em>Your wings are particularly strong and sprout sharp barbs.</em><br/><br/><b>Prerequisites</b><br/>Str 15, character level 11th, gathlain.<br/><br/><b>Benefits</b><br/>You gain two wing attacks. These are secondary natural attacks that deal 1d3 points of slashing damage (or 1d4 if you are Medium).",
      "unidentified": ""
    },
    "tags": [
      "Racial",
      "Gathlain"
    ],
    "actions": [],
    "uses": {
      "per": null,
      "value": 0,
      "maxFormula": "",
      "autoDeductChargesCost": "1"
    },
    "attackNotes": [],
    "effectNotes": [],
    "changes": [],
    "changeFlags": {
      "loseDexToAC": false,
      "noEncumbrance": false,
      "mediumArmorFullSpeed": false,
      "heavyArmorFullSpeed": false
    },
    "contextNotes": [],
    "links": {
      "children": [],
      "charges": []
    },
    "tag": "",
    "useCustomTag": false,
    "armorProf": {
      "value": [],
      "custom": ""
    },
    "weaponProf": {
      "value": [],
      "custom": ""
    },
    "languages": {
      "value": [],
      "custom": ""
    },
    "flags": {
      "boolean": {},
      "dictionary": {}
    },
    "scriptCalls": [],
    "subType": "feat",
    "associations": {
      "classes": []
    },
    "showInQuickbar": false,
    "abilityType": "none",
    "crOffset": "",
    "disabled": false,
    "classSkills": {}
  },
  "ownership": {
    "default": 0
  },
  "_stats": {
    "systemId": "pf1",
    "systemVersion": "9.1",
    "coreVersion": "10.291",
    "createdTime": 1665428357612,
    "modifiedTime": 1689797899848,
    "lastModifiedBy": "ppv91YxratjWnkJi"
  },
  "effects": [],
  "folder": null,
  "sort": 0,
  "flags": {},
  "_key": "!items!os5b22pIM8ThzOdK"
}