{
  "_id": "1WDUmrOnbBonV1ar",
  "name": "Mind Strike",
  "type": "feat",
  "img": "systems/pf1/icons/skills/violet_06.jpg",
  "system": {
    "description": {
      "value": "<em>Your sneak attacks strike not only your target's body but also their willpower.</em><br/><br/><b>Prerequisites</b><br/>Ranged legerdemain class feature.<br/><br/><b>Benefits</b><br/>Whenever you deal sneak attack damage, you fluster your foe, causing your target to take a penalty on Will saves equal to the number of sneak attack dice you rolled on the attack for 1 round. This penalty does not stack with itself, but each time you deal sneak attack damage to an affected target, the duration is extended by 1 round.",
      "unidentified": ""
    },
    "tags": [
      "Combat"
    ],
    "actions": [],
    "uses": {
      "per": null,
      "value": 0,
      "maxFormula": "",
      "autoDeductChargesCost": "1"
    },
    "attackNotes": [],
    "effectNotes": [],
    "changes": [],
    "changeFlags": {
      "loseDexToAC": false,
      "noEncumbrance": false,
      "mediumArmorFullSpeed": false,
      "heavyArmorFullSpeed": false
    },
    "contextNotes": [],
    "links": {
      "children": [],
      "charges": []
    },
    "tag": "",
    "useCustomTag": false,
    "armorProf": {
      "value": [],
      "custom": ""
    },
    "weaponProf": {
      "value": [],
      "custom": ""
    },
    "languages": {
      "value": [],
      "custom": ""
    },
    "flags": {
      "boolean": {},
      "dictionary": {}
    },
    "scriptCalls": [],
    "subType": "feat",
    "associations": {
      "classes": []
    },
    "showInQuickbar": false,
    "abilityType": "none",
    "crOffset": "",
    "disabled": false,
    "classSkills": {}
  },
  "ownership": {
    "default": 0
  },
  "_stats": {
    "systemId": "pf1",
    "systemVersion": "9.1",
    "coreVersion": "10.291",
    "createdTime": 1665428350683,
    "modifiedTime": 1689797874514,
    "lastModifiedBy": "ppv91YxratjWnkJi"
  },
  "effects": [],
  "folder": null,
  "sort": 0,
  "flags": {},
  "_key": "!items!1WDUmrOnbBonV1ar"
}