{
  "_id": "9H0MsZr5VztfEAbn",
  "name": "Mindful Meditation",
  "type": "feat",
  "img": "icons/commodities/currency/coin-yingyang.webp",
  "system": {
    "description": {
      "value": "<em>You clear your mind of stress and emotion by focusing on calming breathing exercises.</em><br/><br/><b>Prerequisites</b><br/>Wis 11, Meditation Master.<br/><br/><b>Benefits</b><br/>For 24 hours after you meditate, you gain a +1 bonus on Will saving throws against charm, compulsion, emotion, and fear effects, and increase the Bluff DC to feint you and the Intimidate DC to demoralize you by +5. These bonuses increase by 1 for every 5 Hit Dice you have to a maximum increase of +4 at 20 Hit Dice.",
      "unidentified": ""
    },
    "tags": [
      "PFS",
      "Meditation"
    ],
    "actions": [],
    "uses": {
      "per": null,
      "value": 0,
      "maxFormula": "",
      "autoDeductChargesCost": "1"
    },
    "attackNotes": [],
    "effectNotes": [],
    "changes": [],
    "changeFlags": {
      "loseDexToAC": false,
      "noEncumbrance": false,
      "mediumArmorFullSpeed": false,
      "heavyArmorFullSpeed": false
    },
    "contextNotes": [],
    "links": {
      "children": [],
      "charges": []
    },
    "tag": "",
    "useCustomTag": false,
    "armorProf": {
      "value": [],
      "custom": ""
    },
    "weaponProf": {
      "value": [],
      "custom": ""
    },
    "languages": {
      "value": [],
      "custom": ""
    },
    "flags": {
      "boolean": {},
      "dictionary": {}
    },
    "scriptCalls": [],
    "subType": "feat",
    "associations": {
      "classes": []
    },
    "showInQuickbar": false,
    "abilityType": "none",
    "crOffset": "",
    "disabled": false,
    "classSkills": {}
  },
  "ownership": {
    "default": 0
  },
  "_stats": {
    "systemId": "pf1",
    "systemVersion": "9.1",
    "coreVersion": "10.291",
    "createdTime": 1665428351900,
    "modifiedTime": 1689797878259,
    "lastModifiedBy": "ppv91YxratjWnkJi"
  },
  "effects": [],
  "folder": null,
  "sort": 0,
  "flags": {},
  "_key": "!items!9H0MsZr5VztfEAbn"
}