{
  "_id": "iF4aaGWKI8jpH1lo",
  "name": "Mirror Kin",
  "type": "feat",
  "img": "systems/pf1/icons/feats/improved-feint.jpg",
  "system": {
    "description": {
      "value": "<em>Combining your cunning with illusion magic makes you and your allies nearly indistinguishable.</em><br/><br/><b>Prerequisites</b><br/>Bluff 8 ranks, gnome, gnome magic racial trait.<br/><br/><b>Benefits</b><br/>Whenever you're adjacent to any gnome allies who also have this feat, your appearance and mannerisms change into an amalgam of the features of you and your allies, making you and your allies look exactly alike. Your shapes occasionally appear to blend into each other, making it impossible to distinguish you and granting you and any affected allies a 20% miss chance due to concealment. This is an illusion (figment) effect.<br/><br/> Spells and effects that don't require an attack roll, such as area spells, affect you normally. An attacker must be able to see and reach both you and your ally to be fooled. If you're invisible or the attacker is blind, the feat has no effect. Because this feat relies on the fact that both you and your ally are blending together to create the visual illusion, it doesn't function with effects like the inquisitor's solo tactics class feature; both you and the ally must possess the feat. If you have more than one adjacent ally with this feat, this feat applies to all allies who qualify.",
      "unidentified": ""
    },
    "tags": [
      "PFS",
      "Teamwork",
      "Combat",
      "Racial",
      "Gnome"
    ],
    "actions": [],
    "uses": {
      "per": null,
      "value": 0,
      "maxFormula": "",
      "autoDeductChargesCost": "1"
    },
    "attackNotes": [],
    "effectNotes": [],
    "changes": [],
    "changeFlags": {
      "loseDexToAC": false,
      "noEncumbrance": false,
      "mediumArmorFullSpeed": false,
      "heavyArmorFullSpeed": false
    },
    "contextNotes": [],
    "links": {
      "children": [],
      "charges": []
    },
    "tag": "",
    "useCustomTag": false,
    "armorProf": {
      "value": [],
      "custom": ""
    },
    "weaponProf": {
      "value": [],
      "custom": ""
    },
    "languages": {
      "value": [],
      "custom": ""
    },
    "flags": {
      "boolean": {},
      "dictionary": {}
    },
    "scriptCalls": [],
    "subType": "feat",
    "associations": {
      "classes": []
    },
    "showInQuickbar": false,
    "abilityType": "none",
    "crOffset": "",
    "disabled": false,
    "classSkills": {}
  },
  "ownership": {
    "default": 0
  },
  "_stats": {
    "systemId": "pf1",
    "systemVersion": "9.1",
    "coreVersion": "10.291",
    "createdTime": 1665428356774,
    "modifiedTime": 1689797896621,
    "lastModifiedBy": "ppv91YxratjWnkJi"
  },
  "effects": [],
  "folder": null,
  "sort": 0,
  "flags": {},
  "_key": "!items!iF4aaGWKI8jpH1lo"
}