{
  "_id": "MxRV2U7sUC0mKUoo",
  "name": "Monkey Lunge",
  "type": "feat",
  "img": "systems/pf1/icons/races/vanara.png",
  "system": {
    "description": {
      "value": "<em>You can quickly recover from your lunges, helping you to avoid counterattacks.</em><br/><br/><b>Prerequisites</b><br/>Lunge, Acrobatics 1 rank.<br/><br/><b>Benefits</b><br/>As a standard action, you can use the Lunge feat to increase the reach of your melee attacks by 5 feet until the end of your turn, without suffering a penalty to your AC. You cannot use this feat if you carry a medium or heavy load.<br/><br/><b>Normal</b><br/>You take a -2 penalty to your AC until your next turn when making a lunge attack.",
      "unidentified": ""
    },
    "tags": [
      "PFS",
      "Combat"
    ],
    "actions": [],
    "uses": {
      "per": null,
      "value": 0,
      "maxFormula": "",
      "autoDeductChargesCost": "1"
    },
    "attackNotes": [],
    "effectNotes": [],
    "changes": [],
    "changeFlags": {
      "loseDexToAC": false,
      "noEncumbrance": false,
      "mediumArmorFullSpeed": false,
      "heavyArmorFullSpeed": false
    },
    "contextNotes": [],
    "links": {
      "children": [],
      "charges": []
    },
    "tag": "",
    "useCustomTag": false,
    "armorProf": {
      "value": [],
      "custom": ""
    },
    "weaponProf": {
      "value": [],
      "custom": ""
    },
    "languages": {
      "value": [],
      "custom": ""
    },
    "flags": {
      "boolean": {},
      "dictionary": {}
    },
    "scriptCalls": [],
    "subType": "feat",
    "associations": {
      "classes": []
    },
    "showInQuickbar": false,
    "abilityType": "none",
    "crOffset": "",
    "disabled": false,
    "classSkills": {}
  },
  "ownership": {
    "default": 0
  },
  "_stats": {
    "systemId": "pf1",
    "systemVersion": "9.1",
    "coreVersion": "10.291",
    "createdTime": 1665428353841,
    "modifiedTime": 1689797885696,
    "lastModifiedBy": "ppv91YxratjWnkJi"
  },
  "effects": [],
  "folder": null,
  "sort": 0,
  "flags": {},
  "_key": "!items!MxRV2U7sUC0mKUoo"
}