{
  "_id": "hAa7dZPaGfMychCh",
  "name": "Monstrous Mask",
  "type": "feat",
  "img": "systems/pf1/icons/races/tiefling.png",
  "system": {
    "description": {
      "value": "<em>Your fiendish physical traits give you a twisted and fearsome appearance that strikes fear into others' hearts.</em><br/><br/><b>Prerequisites</b><br/>Tiefling, must be taken at 1st level.<br/><br/><b>Benefits</b><br/>You get a +5 racial bonus on Intimidate checks made against all creatures of the humanoid type.",
      "unidentified": ""
    },
    "tags": [
      "PFS",
      "Racial",
      "Tiefling"
    ],
    "actions": [],
    "uses": {
      "per": null,
      "value": 0,
      "maxFormula": "",
      "autoDeductChargesCost": "1"
    },
    "attackNotes": [],
    "effectNotes": [],
    "changes": [],
    "changeFlags": {
      "loseDexToAC": false,
      "noEncumbrance": false,
      "mediumArmorFullSpeed": false,
      "heavyArmorFullSpeed": false
    },
    "contextNotes": [],
    "links": {
      "children": [],
      "charges": []
    },
    "tag": "",
    "useCustomTag": false,
    "armorProf": {
      "value": [],
      "custom": ""
    },
    "weaponProf": {
      "value": [],
      "custom": ""
    },
    "languages": {
      "value": [],
      "custom": ""
    },
    "flags": {
      "boolean": {},
      "dictionary": {}
    },
    "scriptCalls": [],
    "subType": "feat",
    "associations": {
      "classes": []
    },
    "showInQuickbar": false,
    "abilityType": "none",
    "crOffset": "",
    "disabled": false,
    "classSkills": {}
  },
  "ownership": {
    "default": 0
  },
  "_stats": {
    "systemId": "pf1",
    "systemVersion": "9.1",
    "coreVersion": "10.291",
    "createdTime": 1665428356694,
    "modifiedTime": 1689797896141,
    "lastModifiedBy": "ppv91YxratjWnkJi"
  },
  "effects": [],
  "folder": null,
  "sort": 0,
  "flags": {},
  "_key": "!items!hAa7dZPaGfMychCh"
}