{
  "_id": "AR9Kt2UwOzu6Xs1x",
  "name": "Monstrous Disguise",
  "type": "feat",
  "img": "systems/pf1/icons/skills/red_02.jpg",
  "system": {
    "description": {
      "value": "<em>You can disguise yourself as a monstrous humanoid.</em><br/><br/><b>Prerequisites</b><br/>Disguise 5 ranks, Knowledge (nature) 5 ranks.<br/><br/><b>Benefits</b><br/>You can use the Disguise skill to emulate creatures of the monstrous humanoid type, at a -5 penalty. Creating a monstrous humanoid disguise takes 1d3 hours.",
      "unidentified": ""
    },
    "tags": [
      "PFS",
      "General"
    ],
    "actions": [],
    "uses": {
      "per": null,
      "value": 0,
      "maxFormula": "",
      "autoDeductChargesCost": "1"
    },
    "attackNotes": [],
    "effectNotes": [],
    "changes": [],
    "changeFlags": {
      "loseDexToAC": false,
      "noEncumbrance": false,
      "mediumArmorFullSpeed": false,
      "heavyArmorFullSpeed": false
    },
    "contextNotes": [],
    "links": {
      "children": [],
      "charges": []
    },
    "tag": "",
    "useCustomTag": false,
    "armorProf": {
      "value": [],
      "custom": ""
    },
    "weaponProf": {
      "value": [],
      "custom": ""
    },
    "languages": {
      "value": [],
      "custom": ""
    },
    "flags": {
      "boolean": {},
      "dictionary": {}
    },
    "scriptCalls": [],
    "subType": "feat",
    "associations": {
      "classes": []
    },
    "showInQuickbar": false,
    "abilityType": "none",
    "crOffset": "",
    "disabled": false,
    "classSkills": {}
  },
  "ownership": {
    "default": 0
  },
  "_stats": {
    "systemId": "pf1",
    "systemVersion": "9.1",
    "coreVersion": "10.291",
    "createdTime": 1665428351979,
    "modifiedTime": 1689797878633,
    "lastModifiedBy": "ppv91YxratjWnkJi"
  },
  "effects": [],
  "folder": null,
  "sort": 0,
  "flags": {},
  "_key": "!items!AR9Kt2UwOzu6Xs1x"
}