{
  "_id": "Jsmgo2AkRUUc4sRW",
  "name": "Motivating Display",
  "type": "feat",
  "img": "systems/pf1/icons/skills/red_02.jpg",
  "system": {
    "description": {
      "value": "<em>You can empower your allies through their fear of you.</em><br/><br/><b>Prerequisites</b><br/>Cha 13, Dazzling Display, Weapon Focus.<br/><br/><b>Benefits</b><br/>Whenever you use Dazzling Display to demoralize foes, you can motivate your allies to better serve you. In addition to possibly demoralizing foes within 30 feet, your Intimidate check while using Dazzling Display also applies to allies within 30 feet who can see you. The DC for this effect is the same as it would be to demoralize your allies. Each ally so affected gains a +1 morale bonus on attack rolls and skill checks for the duration that it would normally be shaken.",
      "unidentified": ""
    },
    "tags": [
      "Combat"
    ],
    "actions": [],
    "uses": {
      "per": null,
      "value": 0,
      "maxFormula": "",
      "autoDeductChargesCost": "1"
    },
    "attackNotes": [],
    "effectNotes": [],
    "changes": [],
    "changeFlags": {
      "loseDexToAC": false,
      "noEncumbrance": false,
      "mediumArmorFullSpeed": false,
      "heavyArmorFullSpeed": false
    },
    "contextNotes": [],
    "links": {
      "children": [],
      "charges": []
    },
    "tag": "",
    "useCustomTag": false,
    "armorProf": {
      "value": [],
      "custom": ""
    },
    "weaponProf": {
      "value": [],
      "custom": ""
    },
    "languages": {
      "value": [],
      "custom": ""
    },
    "flags": {
      "boolean": {},
      "dictionary": {}
    },
    "scriptCalls": [],
    "subType": "feat",
    "associations": {
      "classes": []
    },
    "showInQuickbar": false,
    "abilityType": "none",
    "crOffset": "",
    "disabled": false,
    "classSkills": {}
  },
  "ownership": {
    "default": 0
  },
  "_stats": {
    "systemId": "pf1",
    "systemVersion": "9.1",
    "coreVersion": "10.291",
    "createdTime": 1665428353352,
    "modifiedTime": 1689797884157,
    "lastModifiedBy": "ppv91YxratjWnkJi"
  },
  "effects": [],
  "folder": null,
  "sort": 0,
  "flags": {},
  "_key": "!items!Jsmgo2AkRUUc4sRW"
}