{
  "_id": "zrxZvMHYH2QHKH8f",
  "name": "Mounted Shield",
  "type": "feat",
  "img": "systems/pf1/icons/feats/ride-by-attack.jpg",
  "system": {
    "description": {
      "value": "<em>Your defensive tactics defend both you and your mount.</em><br/><br/><b>Prerequisites</b><br/>Mounted Combat, Shield Focus.<br/><br/><b>Benefits</b><br/>You may add your base shield bonus (including the bonus from Shield Focus but not including enhancement bonuses) to your mount's AC. In addition, you may add this bonus when making a Ride check to negate a hit against your mount using the Mounted Combat feat.<br/><br/><b>Combat Trick</b><br/>As long as you have at least 1 stamina point in your stamina pool, you can add your shield's enhancement bonus to your mount's Armor Class.",
      "unidentified": ""
    },
    "tags": [
      "PFS",
      "Combat"
    ],
    "actions": [],
    "uses": {
      "per": null,
      "value": 0,
      "maxFormula": "",
      "autoDeductChargesCost": "1"
    },
    "attackNotes": [],
    "effectNotes": [],
    "changes": [],
    "changeFlags": {
      "loseDexToAC": false,
      "noEncumbrance": false,
      "mediumArmorFullSpeed": false,
      "heavyArmorFullSpeed": false
    },
    "contextNotes": [],
    "links": {
      "children": [],
      "charges": []
    },
    "tag": "",
    "useCustomTag": false,
    "armorProf": {
      "value": [],
      "custom": ""
    },
    "weaponProf": {
      "value": [],
      "custom": ""
    },
    "languages": {
      "value": [],
      "custom": ""
    },
    "flags": {
      "boolean": {},
      "dictionary": {}
    },
    "scriptCalls": [],
    "subType": "feat",
    "associations": {
      "classes": []
    },
    "showInQuickbar": false,
    "abilityType": "none",
    "crOffset": "",
    "disabled": false,
    "classSkills": {}
  },
  "ownership": {
    "default": 0
  },
  "_stats": {
    "systemId": "pf1",
    "systemVersion": "9.1",
    "coreVersion": "10.291",
    "createdTime": 1665428359395,
    "modifiedTime": 1689797905143,
    "lastModifiedBy": "ppv91YxratjWnkJi"
  },
  "effects": [],
  "folder": null,
  "sort": 0,
  "flags": {},
  "_key": "!items!zrxZvMHYH2QHKH8f"
}