{
  "_id": "hnMZobdZ5ZbwtmC5",
  "name": "Mounted Combat (Mythic)",
  "type": "feat",
  "img": "systems/pf1/icons/feats/mounted-combat.png",
  "system": {
    "description": {
      "value": "<em>Your ability to maneuver a mount through the rigors of combat is nearly unparalleled.</em><br/><br/><b>Prerequisites</b><br/>Mounted Combat.<br/><br/><b>Benefits</b><br/>You can negate an additional number of hits against your mount per round equal to your tier. Once per round as an immediate action, you can expend one use of mythic power to substitute a Ride check for a single Reflex saving throw your mount must make.",
      "unidentified": ""
    },
    "tags": [
      "PFS",
      "Combat",
      "Mythic"
    ],
    "actions": [],
    "uses": {
      "per": null,
      "value": 0,
      "maxFormula": "",
      "autoDeductChargesCost": "1"
    },
    "attackNotes": [],
    "effectNotes": [],
    "changes": [],
    "changeFlags": {
      "loseDexToAC": false,
      "noEncumbrance": false,
      "mediumArmorFullSpeed": false,
      "heavyArmorFullSpeed": false
    },
    "contextNotes": [],
    "links": {
      "children": [],
      "charges": []
    },
    "tag": "",
    "useCustomTag": false,
    "armorProf": {
      "value": [],
      "custom": ""
    },
    "weaponProf": {
      "value": [],
      "custom": ""
    },
    "languages": {
      "value": [],
      "custom": ""
    },
    "flags": {
      "boolean": {},
      "dictionary": {}
    },
    "scriptCalls": [],
    "subType": "feat",
    "associations": {
      "classes": []
    },
    "showInQuickbar": false,
    "abilityType": "none",
    "crOffset": "",
    "disabled": false,
    "classSkills": {}
  },
  "ownership": {
    "default": 0
  },
  "_stats": {
    "systemId": "pf1",
    "systemVersion": "9.1",
    "coreVersion": "10.291",
    "createdTime": 1665428356734,
    "modifiedTime": 1689797896388,
    "lastModifiedBy": "ppv91YxratjWnkJi"
  },
  "effects": [],
  "folder": null,
  "sort": 0,
  "flags": {},
  "_key": "!items!hnMZobdZ5ZbwtmC5"
}