{
  "_id": "OOPHGb8LHw6ibBzd",
  "name": "Multiweapon Specialist",
  "type": "feat",
  "img": "systems/pf1/icons/skills/weapon_08.jpg",
  "system": {
    "description": {
      "value": "<em>You gain bonuses on damage when you wield identical one-handed weapons.</em><br/><br/><b>Prerequisites</b><br/>Three or more arms, Dex 21<br/><br/><b>Benefits</b><br/>When you wield one-handed or light weapons in each of your arms, and all of those weapons belong to the same weapon group (as defined for the fighter class), all attacks with those weapons gain a +2 bonus on damage rolls.",
      "unidentified": ""
    },
    "tags": [
      "General"
    ],
    "actions": [],
    "uses": {
      "per": null,
      "value": 0,
      "maxFormula": "",
      "autoDeductChargesCost": "1"
    },
    "attackNotes": [],
    "effectNotes": [],
    "changes": [],
    "changeFlags": {
      "loseDexToAC": false,
      "noEncumbrance": false,
      "mediumArmorFullSpeed": false,
      "heavyArmorFullSpeed": false
    },
    "contextNotes": [],
    "links": {
      "children": [],
      "charges": []
    },
    "tag": "",
    "useCustomTag": false,
    "armorProf": {
      "value": [],
      "custom": ""
    },
    "weaponProf": {
      "value": [],
      "custom": ""
    },
    "languages": {
      "value": [],
      "custom": ""
    },
    "flags": {
      "boolean": {},
      "dictionary": {}
    },
    "scriptCalls": [],
    "subType": "feat",
    "associations": {
      "classes": []
    },
    "showInQuickbar": false,
    "abilityType": "none",
    "crOffset": "",
    "disabled": false,
    "classSkills": {}
  },
  "ownership": {
    "default": 0
  },
  "_stats": {
    "systemId": "pf1",
    "systemVersion": "9.1",
    "coreVersion": "10.291",
    "createdTime": 1665428353946,
    "modifiedTime": 1689797886270,
    "lastModifiedBy": "ppv91YxratjWnkJi"
  },
  "effects": [],
  "folder": null,
  "sort": 0,
  "flags": {},
  "_key": "!items!OOPHGb8LHw6ibBzd"
}