{
  "_id": "cWQhG1ssb128lunj",
  "name": "Multiweapon Defense",
  "type": "feat",
  "img": "systems/pf1/icons/skills/weapon_21.jpg",
  "system": {
    "description": {
      "value": "<em>You sacrifice attacks to parry blows.</em><br/><br/><b>Prerequisites</b><br/>Three or more arms, Dex 21<br/><br/><b>Benefits</b><br/>When you make a full-attack action, you may choose not to take an attack with a number of your wielded weapons other than your primary weapon. For each attack you forgo, you gain a +1 shield bonus to your AC for that round. This bonus stacks with itself to a maximum bonus of +5, but not with shield bonuses to AC from other sources.",
      "unidentified": ""
    },
    "tags": [
      "General"
    ],
    "actions": [],
    "uses": {
      "per": null,
      "value": 0,
      "maxFormula": "",
      "autoDeductChargesCost": "1"
    },
    "attackNotes": [],
    "effectNotes": [],
    "changes": [],
    "changeFlags": {
      "loseDexToAC": false,
      "noEncumbrance": false,
      "mediumArmorFullSpeed": false,
      "heavyArmorFullSpeed": false
    },
    "contextNotes": [],
    "links": {
      "children": [],
      "charges": []
    },
    "tag": "",
    "useCustomTag": false,
    "armorProf": {
      "value": [],
      "custom": ""
    },
    "weaponProf": {
      "value": [],
      "custom": ""
    },
    "languages": {
      "value": [],
      "custom": ""
    },
    "flags": {
      "boolean": {},
      "dictionary": {}
    },
    "scriptCalls": [],
    "subType": "feat",
    "associations": {
      "classes": []
    },
    "showInQuickbar": false,
    "abilityType": "none",
    "crOffset": "",
    "disabled": false,
    "classSkills": {}
  },
  "ownership": {
    "default": 0
  },
  "_stats": {
    "systemId": "pf1",
    "systemVersion": "9.1",
    "coreVersion": "10.291",
    "createdTime": 1665428355732,
    "modifiedTime": 1689797893443,
    "lastModifiedBy": "ppv91YxratjWnkJi"
  },
  "effects": [],
  "folder": null,
  "sort": 0,
  "flags": {},
  "_key": "!items!cWQhG1ssb128lunj"
}