{
  "_id": "RmhtvELGu73iR8yh",
  "name": "Multiattack",
  "type": "feat",
  "img": "systems/pf1/icons/skills/red_31.jpg",
  "system": {
    "description": {
      "value": "<em>This creature is particularly skilled at making attacks with its natural weapons.</em><br/><br/><b>Prerequisites</b><br/>Three or more natural attacks.<br/><br/><b>Benefits</b><br/>The creature's secondary attacks with natural weapons take only a -2 penalty.",
      "unidentified": ""
    },
    "tags": [
      "Combat",
      "Monster"
    ],
    "actions": [],
    "uses": {
      "per": null,
      "value": 0,
      "maxFormula": "",
      "autoDeductChargesCost": "1"
    },
    "attackNotes": [],
    "effectNotes": [],
    "changes": [],
    "changeFlags": {
      "loseDexToAC": false,
      "noEncumbrance": false,
      "mediumArmorFullSpeed": false,
      "heavyArmorFullSpeed": false
    },
    "contextNotes": [],
    "links": {
      "children": [],
      "charges": []
    },
    "tag": "",
    "useCustomTag": false,
    "armorProf": {
      "value": [],
      "custom": ""
    },
    "weaponProf": {
      "value": [],
      "custom": ""
    },
    "languages": {
      "value": [],
      "custom": ""
    },
    "flags": {
      "boolean": {},
      "dictionary": {}
    },
    "scriptCalls": [],
    "subType": "feat",
    "associations": {
      "classes": []
    },
    "showInQuickbar": false,
    "abilityType": "none",
    "crOffset": "",
    "disabled": false,
    "classSkills": {}
  },
  "ownership": {
    "default": 0
  },
  "_stats": {
    "systemId": "pf1",
    "systemVersion": "9.1",
    "coreVersion": "10.291",
    "createdTime": 1665428354470,
    "modifiedTime": 1689797887834,
    "lastModifiedBy": "ppv91YxratjWnkJi"
  },
  "effects": [],
  "folder": null,
  "sort": 0,
  "flags": {},
  "_key": "!items!RmhtvELGu73iR8yh"
}