{
  "_id": "Dxv2HW3yOtgYdsXl",
  "name": "Mutual Hatred",
  "type": "feat",
  "img": "systems/pf1/icons/spells/link-royal-3.jpg",
  "system": {
    "description": {
      "value": "<em>Others hate you, and their hatred feeds your own.</em><br/><br/><b>Benefits</b><br/>You gain a +1 bonus on attack rolls and damage rolls against creatures whose hatred racial trait or favored enemy class feature applies to you. For instance, an orc would gain this bonus against all dwarves and against rangers who chose humanoid (orc) as a favored enemy.",
      "unidentified": ""
    },
    "tags": [
      "Combat"
    ],
    "actions": [],
    "uses": {
      "per": null,
      "value": 0,
      "maxFormula": "",
      "autoDeductChargesCost": "1"
    },
    "attackNotes": [],
    "effectNotes": [],
    "changes": [],
    "changeFlags": {
      "loseDexToAC": false,
      "noEncumbrance": false,
      "mediumArmorFullSpeed": false,
      "heavyArmorFullSpeed": false
    },
    "contextNotes": [],
    "links": {
      "children": [],
      "charges": []
    },
    "tag": "",
    "useCustomTag": false,
    "armorProf": {
      "value": [],
      "custom": ""
    },
    "weaponProf": {
      "value": [],
      "custom": ""
    },
    "languages": {
      "value": [],
      "custom": ""
    },
    "flags": {
      "boolean": {},
      "dictionary": {}
    },
    "scriptCalls": [],
    "subType": "feat",
    "associations": {
      "classes": []
    },
    "showInQuickbar": false,
    "abilityType": "none",
    "crOffset": "",
    "disabled": false,
    "classSkills": {}
  },
  "ownership": {
    "default": 0
  },
  "_stats": {
    "systemId": "pf1",
    "systemVersion": "9.1",
    "coreVersion": "10.291",
    "createdTime": 1665428352511,
    "modifiedTime": 1689797880788,
    "lastModifiedBy": "ppv91YxratjWnkJi"
  },
  "effects": [],
  "folder": null,
  "sort": 0,
  "flags": {},
  "_key": "!items!Dxv2HW3yOtgYdsXl"
}