{
  "_id": "MVXT7ooH4JaDdmG4",
  "name": "My Blade is Yours",
  "type": "feat",
  "img": "icons/weapons/swords/greatsword-guard-gem-blue.webp",
  "system": {
    "description": {
      "value": "<em>You fight with seamless grace alongside your allies, complementing the inherent strengths of your weaponry.</em><br/><br/><b>Prerequisites</b><br/>Int 13, Combat Expertise, Sense Motive 3 ranks.<br/><br/><b>Benefits</b><br/>When adjacent to an ally with this feat who is wielding a weapon with the blocking, disarm, distracting, or trip weapon special feature, you can treat your own weapon as if it also had that feature. If your ally's weapon has more than one of those features, you choose one feature to emulate at the start of your turn.",
      "unidentified": ""
    },
    "tags": [
      "PFS",
      "Combat",
      "Teamwork"
    ],
    "actions": [],
    "uses": {
      "per": null,
      "value": 0,
      "maxFormula": "",
      "autoDeductChargesCost": "1"
    },
    "attackNotes": [],
    "effectNotes": [],
    "changes": [],
    "changeFlags": {
      "loseDexToAC": false,
      "noEncumbrance": false,
      "mediumArmorFullSpeed": false,
      "heavyArmorFullSpeed": false
    },
    "contextNotes": [],
    "links": {
      "children": [],
      "charges": []
    },
    "tag": "",
    "useCustomTag": false,
    "armorProf": {
      "value": [],
      "custom": ""
    },
    "weaponProf": {
      "value": [],
      "custom": ""
    },
    "languages": {
      "value": [],
      "custom": ""
    },
    "flags": {
      "boolean": {},
      "dictionary": {}
    },
    "scriptCalls": [],
    "subType": "feat",
    "associations": {
      "classes": []
    },
    "showInQuickbar": false,
    "abilityType": "none",
    "crOffset": "",
    "disabled": false,
    "classSkills": {}
  },
  "ownership": {
    "default": 0
  },
  "_stats": {
    "systemId": "pf1",
    "systemVersion": "9.1",
    "coreVersion": "10.291",
    "createdTime": 1665428353820,
    "modifiedTime": 1689797885572,
    "lastModifiedBy": "ppv91YxratjWnkJi"
  },
  "effects": [],
  "folder": null,
  "sort": 0,
  "flags": {},
  "_key": "!items!MVXT7ooH4JaDdmG4"
}