{
  "_id": "3rgP85ULTlxqr48j",
  "name": "Nature's Weapons",
  "type": "feat",
  "img": "systems/pf1/icons/skills/green_04.jpg",
  "system": {
    "description": {
      "value": "<em>You can make a weapon out of nearly anything that can be found in the wild.</em><br/><br/><b>Prerequisites</b><br/>Catch Off-Guard; base attack bonus +2; Knowledge (nature) or Survival 2 ranks.<br/><br/><b>Benefits</b><br/>You can turn nearly anything you might find in the wilderness into an improvised melee weapon. This improvised melee weapon is one-handed and deals 1d6 points of damage for Medium creatures and 1d4 for Small creatures. Depending on the weapon, it deals bludgeoning, piercing, or slashing damage (at the GM's discretion). Grabbing an object to use as a weapon is the same action as drawing a weapon. The weapon must be of a material that is naturally occurring in that terrain.",
      "unidentified": ""
    },
    "tags": [
      "PFS",
      "General"
    ],
    "actions": [],
    "uses": {
      "per": null,
      "value": 0,
      "maxFormula": "",
      "autoDeductChargesCost": "1"
    },
    "attackNotes": [],
    "effectNotes": [],
    "changes": [],
    "changeFlags": {
      "loseDexToAC": false,
      "noEncumbrance": false,
      "mediumArmorFullSpeed": false,
      "heavyArmorFullSpeed": false
    },
    "contextNotes": [],
    "links": {
      "children": [],
      "charges": []
    },
    "tag": "",
    "useCustomTag": false,
    "armorProf": {
      "value": [],
      "custom": ""
    },
    "weaponProf": {
      "value": [],
      "custom": ""
    },
    "languages": {
      "value": [],
      "custom": ""
    },
    "flags": {
      "boolean": {},
      "dictionary": {}
    },
    "scriptCalls": [],
    "subType": "feat",
    "associations": {
      "classes": []
    },
    "showInQuickbar": false,
    "abilityType": "none",
    "crOffset": "",
    "disabled": false,
    "classSkills": {}
  },
  "ownership": {
    "default": 0
  },
  "_stats": {
    "systemId": "pf1",
    "systemVersion": "9.1",
    "coreVersion": "10.291",
    "createdTime": 1665428350840,
    "modifiedTime": 1689797875298,
    "lastModifiedBy": "ppv91YxratjWnkJi"
  },
  "effects": [],
  "folder": null,
  "sort": 0,
  "flags": {},
  "_key": "!items!3rgP85ULTlxqr48j"
}