{
  "_id": "DQP72CjseDTR3QuO",
  "name": "Natural Spell (Mythic)",
  "type": "feat",
  "img": "systems/pf1/icons/feats/natural-spell.jpg",
  "system": {
    "description": {
      "value": "<em>You can speak and use some magic items when you use wild shape.</em><br/><br/><b>Prerequisites</b><br/>Natural Spell.<br/><br/><b>Benefits</b><br/>When you're using wild shape, you can use spell completion and spell trigger magic items that were on your person when you changed form. You don't need to physically manipulate the items when you use them while using wild shape. Furthermore, you can speak normally when using wild shape.",
      "unidentified": ""
    },
    "tags": [
      "PFS",
      "General",
      "Mythic"
    ],
    "actions": [],
    "uses": {
      "per": null,
      "value": 0,
      "maxFormula": "",
      "autoDeductChargesCost": "1"
    },
    "attackNotes": [],
    "effectNotes": [],
    "changes": [],
    "changeFlags": {
      "loseDexToAC": false,
      "noEncumbrance": false,
      "mediumArmorFullSpeed": false,
      "heavyArmorFullSpeed": false
    },
    "contextNotes": [],
    "links": {
      "children": [],
      "charges": []
    },
    "tag": "",
    "useCustomTag": false,
    "armorProf": {
      "value": [],
      "custom": ""
    },
    "weaponProf": {
      "value": [],
      "custom": ""
    },
    "languages": {
      "value": [],
      "custom": ""
    },
    "flags": {
      "boolean": {},
      "dictionary": {}
    },
    "scriptCalls": [],
    "subType": "feat",
    "associations": {
      "classes": []
    },
    "showInQuickbar": false,
    "abilityType": "none",
    "crOffset": "",
    "disabled": false,
    "classSkills": {}
  },
  "ownership": {
    "default": 0
  },
  "_stats": {
    "systemId": "pf1",
    "systemVersion": "9.1",
    "coreVersion": "10.291",
    "createdTime": 1665428352467,
    "modifiedTime": 1689797880282,
    "lastModifiedBy": "ppv91YxratjWnkJi"
  },
  "effects": [],
  "folder": null,
  "sort": 0,
  "flags": {},
  "_key": "!items!DQP72CjseDTR3QuO"
}