{
  "_id": "FjUMqXq3lqy1QiRW",
  "name": "Nature Magic",
  "type": "feat",
  "img": "systems/pf1/icons/skills/green_24.jpg",
  "system": {
    "description": {
      "value": "<em>You are able to use simple spells by drawing on nature's raw majesty.</em><br/><br/><b>Prerequisites</b><br/>Knowledge (nature) 1 rank.<br/><br/><b>Benefits</b><br/>You gain know direction as a constant spell-like ability, and can choose another druid orison you can cast as a spell-like ability once per day. Your caster level for both of these spell-like abilities is equal to your character level.",
      "unidentified": ""
    },
    "tags": [
      "PFS",
      "General"
    ],
    "actions": [],
    "uses": {
      "per": null,
      "value": 0,
      "maxFormula": "",
      "autoDeductChargesCost": "1"
    },
    "attackNotes": [],
    "effectNotes": [],
    "changes": [],
    "changeFlags": {
      "loseDexToAC": false,
      "noEncumbrance": false,
      "mediumArmorFullSpeed": false,
      "heavyArmorFullSpeed": false
    },
    "contextNotes": [],
    "links": {
      "children": [],
      "charges": []
    },
    "tag": "",
    "useCustomTag": false,
    "armorProf": {
      "value": [],
      "custom": ""
    },
    "weaponProf": {
      "value": [],
      "custom": ""
    },
    "languages": {
      "value": [],
      "custom": ""
    },
    "flags": {
      "boolean": {},
      "dictionary": {}
    },
    "scriptCalls": [],
    "subType": "feat",
    "associations": {
      "classes": []
    },
    "showInQuickbar": false,
    "abilityType": "none",
    "crOffset": "",
    "disabled": false,
    "classSkills": {}
  },
  "ownership": {
    "default": 0
  },
  "_stats": {
    "systemId": "pf1",
    "systemVersion": "9.1",
    "coreVersion": "10.291",
    "createdTime": 1665428352669,
    "modifiedTime": 1689797881554,
    "lastModifiedBy": "ppv91YxratjWnkJi"
  },
  "effects": [],
  "folder": null,
  "sort": 0,
  "flags": {},
  "_key": "!items!FjUMqXq3lqy1QiRW"
}