{
  "_id": "WlySDcs17cy9t6iT",
  "name": "Night Stalker",
  "type": "feat",
  "img": "systems/pf1/icons/skills/shadow_17.jpg",
  "system": {
    "description": {
      "value": "<em>You excel at hunting humans in the dead of night and murdering them quietly.</em><br/><br/><b>Prerequisites</b><br/>Skill Focus (Stealth), darkvision, half-ogre or ogre, size Large or larger.<br/><br/><b>Benefits</b><br/>While in areas of dim lighting or natural darkness, you ignore all size penalties on Stealth checks and gain a +2 bonus on attack rolls against flat-footed enemies.",
      "unidentified": ""
    },
    "tags": [
      "Monster",
      "Half-ogre",
      "Ogre"
    ],
    "actions": [],
    "uses": {
      "per": null,
      "value": 0,
      "maxFormula": "",
      "autoDeductChargesCost": "1"
    },
    "attackNotes": [],
    "effectNotes": [],
    "changes": [],
    "changeFlags": {
      "loseDexToAC": false,
      "noEncumbrance": false,
      "mediumArmorFullSpeed": false,
      "heavyArmorFullSpeed": false
    },
    "contextNotes": [],
    "links": {
      "children": [],
      "charges": []
    },
    "tag": "",
    "useCustomTag": false,
    "armorProf": {
      "value": [],
      "custom": ""
    },
    "weaponProf": {
      "value": [],
      "custom": ""
    },
    "languages": {
      "value": [],
      "custom": ""
    },
    "flags": {
      "boolean": {},
      "dictionary": {}
    },
    "scriptCalls": [],
    "subType": "feat",
    "associations": {
      "classes": []
    },
    "showInQuickbar": false,
    "abilityType": "none",
    "crOffset": "",
    "disabled": false,
    "classSkills": {}
  },
  "ownership": {
    "default": 0
  },
  "_stats": {
    "systemId": "pf1",
    "systemVersion": "9.1",
    "coreVersion": "10.291",
    "createdTime": 1665428355069,
    "modifiedTime": 1689797890590,
    "lastModifiedBy": "ppv91YxratjWnkJi"
  },
  "effects": [],
  "folder": null,
  "sort": 0,
  "flags": {},
  "_key": "!items!WlySDcs17cy9t6iT"
}