{
  "_id": "lpC86ZM2Zb41OTti",
  "name": "Noble Spell Resistance",
  "type": "feat",
  "img": "systems/pf1/icons/races/drow.png",
  "system": {
    "description": {
      "value": "<em>Your ascension is complete; you have the spell resistance approaching that of a demon.</em><br/><br/><b>Prerequisites</b><br/>Cha 13, Wis 13, Greater Drow Nobility, character level 13th, drow.<br/><br/><b>Benefits</b><br/>Your spell resistance is equal to 11 + your character level.<br/><br/><b>Special</b><br/>You receive a +1 circumstance bonus on Diplomacy and Intimidate checks made against any drow.",
      "unidentified": ""
    },
    "tags": [
      "Racial",
      "Drow"
    ],
    "actions": [],
    "uses": {
      "per": null,
      "value": 0,
      "maxFormula": "",
      "autoDeductChargesCost": "1"
    },
    "attackNotes": [],
    "effectNotes": [],
    "changes": [],
    "changeFlags": {
      "loseDexToAC": false,
      "noEncumbrance": false,
      "mediumArmorFullSpeed": false,
      "heavyArmorFullSpeed": false
    },
    "contextNotes": [],
    "links": {
      "children": [],
      "charges": []
    },
    "tag": "",
    "useCustomTag": false,
    "armorProf": {
      "value": [],
      "custom": ""
    },
    "weaponProf": {
      "value": [],
      "custom": ""
    },
    "languages": {
      "value": [],
      "custom": ""
    },
    "flags": {
      "boolean": {},
      "dictionary": {}
    },
    "scriptCalls": [],
    "subType": "feat",
    "associations": {
      "classes": []
    },
    "showInQuickbar": false,
    "abilityType": "none",
    "crOffset": "",
    "disabled": false,
    "classSkills": {}
  },
  "ownership": {
    "default": 0
  },
  "_stats": {
    "systemId": "pf1",
    "systemVersion": "9.1",
    "coreVersion": "10.291",
    "createdTime": 1665428357419,
    "modifiedTime": 1689797898897,
    "lastModifiedBy": "ppv91YxratjWnkJi"
  },
  "effects": [],
  "folder": null,
  "sort": 0,
  "flags": {},
  "_key": "!items!lpC86ZM2Zb41OTti"
}