{
  "_id": "fQ47aXiEFLPjdrk6",
  "name": "Old Cults Awakener",
  "type": "feat",
  "img": "systems/pf1/icons/skills/violet_17.jpg",
  "system": {
    "description": {
      "value": "<em>You hear the voices of the Old Ones, and believe it is your destiny to awaken others to their ancient cause using bizarre and torturous rituals. Whether your work leaves these individuals mad or truly touched by alien sentience remains unproven.</em><br/><br/><b>Prerequisites</b><br/>Old Cults 20 TPA.<br/><br/><b>Benefits</b><br/>You can attempt a DC 25 Heal check upon an unconscious but stable intelligent creature. The ritual takes 1 hour to complete. If it's successful, the victim must make a DC 25 Will save or he gains a false memory of a vision that he has personally been chosen by the Great Old Ones to serve them (treat as an implanted memory from modify memory, except this is a nonmagical effect). If the ritual is unsuccessful, the victim takes 1d2 points of Intelligence and Wisdom drain; you may attempt the ritual again.",
      "unidentified": ""
    },
    "tags": [
      "Faction"
    ],
    "actions": [],
    "uses": {
      "per": null,
      "value": 0,
      "maxFormula": "",
      "autoDeductChargesCost": "1"
    },
    "attackNotes": [],
    "effectNotes": [],
    "changes": [],
    "changeFlags": {
      "loseDexToAC": false,
      "noEncumbrance": false,
      "mediumArmorFullSpeed": false,
      "heavyArmorFullSpeed": false
    },
    "contextNotes": [],
    "links": {
      "children": [],
      "charges": []
    },
    "tag": "",
    "useCustomTag": false,
    "armorProf": {
      "value": [],
      "custom": ""
    },
    "weaponProf": {
      "value": [],
      "custom": ""
    },
    "languages": {
      "value": [],
      "custom": ""
    },
    "flags": {
      "boolean": {},
      "dictionary": {}
    },
    "scriptCalls": [],
    "subType": "feat",
    "associations": {
      "classes": []
    },
    "showInQuickbar": false,
    "abilityType": "none",
    "crOffset": "",
    "disabled": false,
    "classSkills": {}
  },
  "ownership": {
    "default": 0
  },
  "_stats": {
    "systemId": "pf1",
    "systemVersion": "9.1",
    "coreVersion": "10.291",
    "createdTime": 1665428356261,
    "modifiedTime": 1689797895084,
    "lastModifiedBy": "ppv91YxratjWnkJi"
  },
  "effects": [],
  "folder": null,
  "sort": 0,
  "flags": {},
  "_key": "!items!fQ47aXiEFLPjdrk6"
}