{
  "_id": "0T1qJaJqBRcShtQ7",
  "name": "Orc Rampage",
  "type": "feat",
  "img": "systems/pf1/icons/races/orc.png",
  "system": {
    "description": {
      "value": "<em>You effortlessly savage fearful enemies.</em><br/><br/><b>Prerequisites</b><br/>Bullying Blow, Intimidating Prowess, Orc Fury Style, Intimidate 5 ranks, weapon familiarity racial trait.<br/><br/><b>Benefits</b><br/>While using Orc Fury Style, you gain a +1 bonus on attack rolls and damage rolls against shaken opponents, and you don't take an attack penalty when using the Bullying Blow feat.",
      "unidentified": ""
    },
    "tags": [
      "Combat"
    ],
    "actions": [],
    "uses": {
      "per": null,
      "value": 0,
      "maxFormula": "",
      "autoDeductChargesCost": "1"
    },
    "attackNotes": [],
    "effectNotes": [],
    "changes": [],
    "changeFlags": {
      "loseDexToAC": false,
      "noEncumbrance": false,
      "mediumArmorFullSpeed": false,
      "heavyArmorFullSpeed": false
    },
    "contextNotes": [],
    "links": {
      "children": [],
      "charges": []
    },
    "tag": "",
    "useCustomTag": false,
    "armorProf": {
      "value": [],
      "custom": ""
    },
    "weaponProf": {
      "value": [],
      "custom": ""
    },
    "languages": {
      "value": [],
      "custom": ""
    },
    "flags": {
      "boolean": {},
      "dictionary": {}
    },
    "scriptCalls": [],
    "subType": "feat",
    "associations": {
      "classes": []
    },
    "showInQuickbar": false,
    "abilityType": "none",
    "crOffset": "",
    "disabled": false,
    "classSkills": {}
  },
  "ownership": {
    "default": 0
  },
  "_stats": {
    "systemId": "pf1",
    "systemVersion": "9.1",
    "coreVersion": "10.291",
    "createdTime": 1665428350610,
    "modifiedTime": 1689797873944,
    "lastModifiedBy": "ppv91YxratjWnkJi"
  },
  "effects": [],
  "folder": null,
  "sort": 0,
  "flags": {},
  "_key": "!items!0T1qJaJqBRcShtQ7"
}