{
  "_id": "SSPSYd6W11iTNNwi",
  "name": "Orc Fury Style",
  "type": "feat",
  "img": "systems/pf1/icons/races/orc.png",
  "system": {
    "description": {
      "value": "<em>You inspire great fear in your enemies.</em><br/><br/><b>Prerequisites</b><br/>Bullying Blow, Intimidating Prowess, Intimidate 3 ranks, weapon familiarity racial trait.<br/><br/><b>Benefits</b><br/>While wielding a greataxe, a falchion, or any melee weapon that has 'orc' in its name, you can use the Bullying Blow feat with the first attack of a full-attack action or as part of a standard action to make one or more attacks (such as with the Cleave feat).",
      "unidentified": ""
    },
    "tags": [
      "Combat",
      "Style"
    ],
    "actions": [],
    "uses": {
      "per": null,
      "value": 0,
      "maxFormula": "",
      "autoDeductChargesCost": "1"
    },
    "attackNotes": [],
    "effectNotes": [],
    "changes": [],
    "changeFlags": {
      "loseDexToAC": false,
      "noEncumbrance": false,
      "mediumArmorFullSpeed": false,
      "heavyArmorFullSpeed": false
    },
    "contextNotes": [],
    "links": {
      "children": [],
      "charges": []
    },
    "tag": "",
    "useCustomTag": false,
    "armorProf": {
      "value": [],
      "custom": ""
    },
    "weaponProf": {
      "value": [],
      "custom": ""
    },
    "languages": {
      "value": [],
      "custom": ""
    },
    "flags": {
      "boolean": {},
      "dictionary": {}
    },
    "scriptCalls": [],
    "subType": "feat",
    "associations": {
      "classes": []
    },
    "showInQuickbar": false,
    "abilityType": "none",
    "crOffset": "",
    "disabled": false,
    "classSkills": {}
  },
  "ownership": {
    "default": 0
  },
  "_stats": {
    "systemId": "pf1",
    "systemVersion": "9.1",
    "coreVersion": "10.291",
    "createdTime": 1665428354516,
    "modifiedTime": 1689797888094,
    "lastModifiedBy": "ppv91YxratjWnkJi"
  },
  "effects": [],
  "folder": null,
  "sort": 0,
  "flags": {},
  "_key": "!items!SSPSYd6W11iTNNwi"
}