{
  "_id": "NSPndADZ7c1nUis8",
  "name": "Osyluth Guile",
  "type": "feat",
  "img": "systems/pf1/icons/skills/weapon_22.jpg",
  "system": {
    "description": {
      "value": "<em>You are skilled at misdirecting an opponent's attacks.</em><br/><br/><b>Prerequisites</b><br/>Bluff 8 ranks, Dodge.<br/><br/><b>Benefits</b><br/>While you are fighting defensively or using the total defense action, select one opponent. Add your Charisma bonus to your AC as a dodge bonus against that opponent's melee attacks until your next turn. You cannot use this feat if you cannot see the selected opponent.",
      "unidentified": ""
    },
    "tags": [
      "PFS",
      "Combat"
    ],
    "actions": [],
    "uses": {
      "per": null,
      "value": 0,
      "maxFormula": "",
      "autoDeductChargesCost": "1"
    },
    "attackNotes": [],
    "effectNotes": [],
    "changes": [],
    "changeFlags": {
      "loseDexToAC": false,
      "noEncumbrance": false,
      "mediumArmorFullSpeed": false,
      "heavyArmorFullSpeed": false
    },
    "contextNotes": [],
    "links": {
      "children": [],
      "charges": []
    },
    "tag": "",
    "useCustomTag": false,
    "armorProf": {
      "value": [],
      "custom": ""
    },
    "weaponProf": {
      "value": [],
      "custom": ""
    },
    "languages": {
      "value": [],
      "custom": ""
    },
    "flags": {
      "boolean": {},
      "dictionary": {}
    },
    "scriptCalls": [],
    "subType": "feat",
    "associations": {
      "classes": []
    },
    "showInQuickbar": false,
    "abilityType": "none",
    "crOffset": "",
    "disabled": false,
    "classSkills": {}
  },
  "ownership": {
    "default": 0
  },
  "_stats": {
    "systemId": "pf1",
    "systemVersion": "9.1",
    "coreVersion": "10.291",
    "createdTime": 1665428353884,
    "modifiedTime": 1689797885994,
    "lastModifiedBy": "ppv91YxratjWnkJi"
  },
  "effects": [],
  "folder": null,
  "sort": 0,
  "flags": {},
  "_key": "!items!NSPndADZ7c1nUis8"
}