{
  "_id": "2NY9sZeKDp8n0gn1",
  "name": "Out of the Sun",
  "type": "feat",
  "img": "systems/pf1/icons/skills/yellow_28.jpg",
  "system": {
    "description": {
      "value": "<em>You and your allies use the sun's glare to your advantage.</em><br/><br/><b>Prerequisites</b><br/>Bluff 3 ranks, Stealth 3 ranks.<br/><br/><b>Benefits</b><br/>When you hit with a melee attack, you can attempt a Bluff check as a move action to feint. You do not gain the benefits of this feint; instead, if you succeed at your Bluff check, an ally with this feat who is adjacent to you or your opponent gains the benefits, such that the opponent is denied its Dexterity bonus to AC (if any) against your ally's next melee attack against that opponent. This attack must be made before the end of your ally's next turn. You gain a +2 circumstance bonus on your Bluff check in bright light. This bonus increases to +4 in natural sunlight. You cannot use this feat in dim light or darkness.<br/><br/><b>Special</b><br/>If you have the Improved Feint feat, you can feint with Out of the Sun as a swift action after you hit with a melee attack.",
      "unidentified": ""
    },
    "tags": [
      "PFS",
      "Teamwork"
    ],
    "actions": [],
    "uses": {
      "per": null,
      "value": 0,
      "maxFormula": "",
      "autoDeductChargesCost": "1"
    },
    "attackNotes": [],
    "effectNotes": [],
    "changes": [],
    "changeFlags": {
      "loseDexToAC": false,
      "noEncumbrance": false,
      "mediumArmorFullSpeed": false,
      "heavyArmorFullSpeed": false
    },
    "contextNotes": [],
    "links": {
      "children": [],
      "charges": []
    },
    "tag": "",
    "useCustomTag": false,
    "armorProf": {
      "value": [],
      "custom": ""
    },
    "weaponProf": {
      "value": [],
      "custom": ""
    },
    "languages": {
      "value": [],
      "custom": ""
    },
    "flags": {
      "boolean": {},
      "dictionary": {}
    },
    "scriptCalls": [],
    "subType": "feat",
    "associations": {
      "classes": []
    },
    "showInQuickbar": false,
    "abilityType": "none",
    "crOffset": "",
    "disabled": false,
    "classSkills": {}
  },
  "ownership": {
    "default": 0
  },
  "_stats": {
    "systemId": "pf1",
    "systemVersion": "9.1",
    "coreVersion": "10.291",
    "createdTime": 1665428350750,
    "modifiedTime": 1689797874846,
    "lastModifiedBy": "ppv91YxratjWnkJi"
  },
  "effects": [],
  "folder": null,
  "sort": 0,
  "flags": {},
  "_key": "!items!2NY9sZeKDp8n0gn1"
}