{
  "_id": "qoQXyABPOK9XFT01",
  "name": "Outer Planes Traveler",
  "type": "feat",
  "img": "systems/pf1/icons/skills/yellow_24.jpg",
  "system": {
    "description": {
      "value": "<em>You have seen the outer reaches of the multiverse, and have gleaned knowledge from these alien realms. You have a special affinity for one of these realms in particular, and carry some of that plane's power within you.</em><br/><br/><b>Prerequisites</b><br/>Knowledge (planes) 11 ranks, ability to cast plane shift or gate as a spell or spell-like ability.<br/><br/><b>Benefits</b><br/>Choose one of the planes below. The alignment of the plane must be within one step of your alignment. You gain a +2 bonus on saves against spells and spell-like abilities with the associated descriptor, and you cast spells with that descriptor at +1 caster level.<br/><br/> <table class='inner'><tr><td><b>Plane</b></td><td><b>Alignment</b></td><td><b>Descriptor</b></td></tr> <tr><td>Heaven</td><td>LG</td><td>Light</td></tr> <tr><td>Nirvana</td><td>NG</td><td>Good</td></tr> <tr><td>Elysium</td><td>CG</td><td>Emotion</td></tr> <tr><td>Axis</td><td>LN</td><td>Lawful</td></tr> <tr><td>The Boneyard</td><td>N</td><td>Death</td></tr> <tr><td>The Maelstrom</td><td>CN</td><td>Chaotic</td></tr> <tr><td>Hell</td><td>LE</td><td>Pain</td></tr> <tr><td>Abaddon</td><td>NE</td><td>Evil</td></tr> <tr><td>The Abyss</td><td>CE</td><td>Fear</td></tr></table>",
      "unidentified": ""
    },
    "tags": [
      "PFS",
      "General"
    ],
    "actions": [],
    "uses": {
      "per": null,
      "value": 0,
      "maxFormula": "",
      "autoDeductChargesCost": "1"
    },
    "attackNotes": [],
    "effectNotes": [],
    "changes": [],
    "changeFlags": {
      "loseDexToAC": false,
      "noEncumbrance": false,
      "mediumArmorFullSpeed": false,
      "heavyArmorFullSpeed": false
    },
    "contextNotes": [],
    "links": {
      "children": [],
      "charges": []
    },
    "tag": "",
    "useCustomTag": false,
    "armorProf": {
      "value": [],
      "custom": ""
    },
    "weaponProf": {
      "value": [],
      "custom": ""
    },
    "languages": {
      "value": [],
      "custom": ""
    },
    "flags": {
      "boolean": {},
      "dictionary": {}
    },
    "scriptCalls": [],
    "subType": "feat",
    "associations": {
      "classes": []
    },
    "showInQuickbar": false,
    "abilityType": "none",
    "crOffset": "",
    "disabled": false,
    "classSkills": {}
  },
  "ownership": {
    "default": 0
  },
  "_stats": {
    "systemId": "pf1",
    "systemVersion": "9.1",
    "coreVersion": "10.291",
    "createdTime": 1665428358081,
    "modifiedTime": 1689797901081,
    "lastModifiedBy": "ppv91YxratjWnkJi"
  },
  "effects": [],
  "folder": null,
  "sort": 0,
  "flags": {},
  "_key": "!items!qoQXyABPOK9XFT01"
}