{
  "_id": "7i2uVUYd0h6qqKGP",
  "name": "Owl Style",
  "type": "feat",
  "img": "icons/commodities/biological/wing-bird-white.webp",
  "system": {
    "description": {
      "value": "<em>You can move with the quiet grace of an owl.</em><br/><br/><b>Prerequisites</b><br/>Dex 13, Skill Focus (Stealth), Stealth 1 rank.<br/><br/><b>Benefits</b><br/>While using this style, you can use your base attack bonus in place of your ranks in Stealth to determine your Stealth skill modifier (as usual, this does not replace your ranks for other purposes, such as determining the effects of Skill Focus). While in this stance and using Stealth, you can charge at a -10 penalty beyond the penalty you take for using Stealth at full speed (which is typically -5). Foes that fail their Perception checks and don't otherwise notice you (for instance, with an ability like blindsight) are denied their Dexterity bonuses to AC against all attacks you make against them during or at the end of that charge instead of just against the first attack.",
      "unidentified": ""
    },
    "tags": [
      "PFS",
      "Combat",
      "Style"
    ],
    "actions": [],
    "uses": {
      "per": null,
      "value": 0,
      "maxFormula": "",
      "autoDeductChargesCost": "1"
    },
    "attackNotes": [],
    "effectNotes": [],
    "changes": [],
    "changeFlags": {
      "loseDexToAC": false,
      "noEncumbrance": false,
      "mediumArmorFullSpeed": false,
      "heavyArmorFullSpeed": false
    },
    "contextNotes": [],
    "links": {
      "children": [],
      "charges": []
    },
    "tag": "",
    "useCustomTag": false,
    "armorProf": {
      "value": [],
      "custom": ""
    },
    "weaponProf": {
      "value": [],
      "custom": ""
    },
    "languages": {
      "value": [],
      "custom": ""
    },
    "flags": {
      "boolean": {},
      "dictionary": {}
    },
    "scriptCalls": [],
    "subType": "feat",
    "associations": {
      "classes": []
    },
    "showInQuickbar": false,
    "abilityType": "none",
    "crOffset": "",
    "disabled": false,
    "classSkills": {}
  },
  "ownership": {
    "default": 0
  },
  "_stats": {
    "systemId": "pf1",
    "systemVersion": "9.1",
    "coreVersion": "10.291",
    "createdTime": 1665428351504,
    "modifiedTime": 1689797877127,
    "lastModifiedBy": "ppv91YxratjWnkJi"
  },
  "effects": [],
  "folder": null,
  "sort": 0,
  "flags": {},
  "_key": "!items!7i2uVUYd0h6qqKGP"
}