{
  "_id": "msSMHFNdAnO7Ua7M",
  "name": "Pacify Animal",
  "type": "feat",
  "img": "systems/pf1/icons/skills/green_23.jpg",
  "system": {
    "description": {
      "value": "<em>You are able to calm rampaging animals.</em><br/><br/><b>Prerequisites</b><br/>Wild empathy class feature.<br/><br/><b>Benefits</b><br/>As a full-round action, you attempt to mollify an animal or magical beast with an Intelligence score of 1 or 2 and an attitude of hostile toward you or your allies. You attempt a wild empathy check (DC = 10 + the target's Hit Dice + the target's Charisma modifier). If you succeed, the target's attitude toward you and your allies becomes indifferent for 1 minute, and it does not attack during this time. If the target is attacked during this time or if the target can see you or your allies after 1 minute, it becomes hostile again. A creature can be affected by this pacification attempt only once in a 24-hour period.<br/><br/><b>Special</b><br/>Animal companions and creatures under magical compulsion are harder to pacify; the DC for such creatures equals 15 + the target's Hit Dice + the target's Charisma modifier. An animal companion also applies its bonus on Will saves from the devotion ability to this DC, and attacking the animal's master also breaks this effect. An animal companion's master can direct the animal to attack again, but the DC of this Handle Animal check is increased by your wild empathy modifier.",
      "unidentified": ""
    },
    "tags": [
      "PFS",
      "General"
    ],
    "actions": [],
    "uses": {
      "per": null,
      "value": 0,
      "maxFormula": "",
      "autoDeductChargesCost": "1"
    },
    "attackNotes": [],
    "effectNotes": [],
    "changes": [],
    "changeFlags": {
      "loseDexToAC": false,
      "noEncumbrance": false,
      "mediumArmorFullSpeed": false,
      "heavyArmorFullSpeed": false
    },
    "contextNotes": [],
    "links": {
      "children": [],
      "charges": []
    },
    "tag": "",
    "useCustomTag": false,
    "armorProf": {
      "value": [],
      "custom": ""
    },
    "weaponProf": {
      "value": [],
      "custom": ""
    },
    "languages": {
      "value": [],
      "custom": ""
    },
    "flags": {
      "boolean": {},
      "dictionary": {}
    },
    "scriptCalls": [],
    "subType": "feat",
    "associations": {
      "classes": []
    },
    "showInQuickbar": false,
    "abilityType": "none",
    "crOffset": "",
    "disabled": false,
    "classSkills": {}
  },
  "ownership": {
    "default": 0
  },
  "_stats": {
    "systemId": "pf1",
    "systemVersion": "9.1",
    "coreVersion": "10.291",
    "createdTime": 1665428357479,
    "modifiedTime": 1689797899232,
    "lastModifiedBy": "ppv91YxratjWnkJi"
  },
  "effects": [],
  "folder": null,
  "sort": 0,
  "flags": {},
  "_key": "!items!msSMHFNdAnO7Ua7M"
}