{
  "_id": "OPUbq6VE8Na0FAQD",
  "name": "Pack Tactics",
  "type": "feat",
  "img": "systems/pf1/icons/skills/beast_01.jpg",
  "system": {
    "description": {
      "value": "<em>You have trained your animal companion to fight using your tactics.</em><br/><br/><b>Prerequisites</b><br/>Int 13, animal companion class feature.<br/><br/><b>Benefits</b><br/>Your animal companion is treated as having all the same teamwork feats that you do for the purpose of determining whether you or your allies receive a bonus from teamwork feats. Your animal companion doesn't receive any bonuses from these feats unless it actually possesses the teamwork feats. Your and all allies' positioning and actions must still meet the prerequisites listed in a teamwork feat's description in order to receive the teamwork feat's listed bonus.",
      "unidentified": ""
    },
    "tags": [
      "PFS",
      "General"
    ],
    "actions": [],
    "uses": {
      "per": null,
      "value": 0,
      "maxFormula": "",
      "autoDeductChargesCost": "1"
    },
    "attackNotes": [],
    "effectNotes": [],
    "changes": [],
    "changeFlags": {
      "loseDexToAC": false,
      "noEncumbrance": false,
      "mediumArmorFullSpeed": false,
      "heavyArmorFullSpeed": false
    },
    "contextNotes": [],
    "links": {
      "children": [],
      "charges": []
    },
    "tag": "",
    "useCustomTag": false,
    "armorProf": {
      "value": [],
      "custom": ""
    },
    "weaponProf": {
      "value": [],
      "custom": ""
    },
    "languages": {
      "value": [],
      "custom": ""
    },
    "flags": {
      "boolean": {},
      "dictionary": {}
    },
    "scriptCalls": [],
    "subType": "feat",
    "associations": {
      "classes": []
    },
    "showInQuickbar": false,
    "abilityType": "none",
    "crOffset": "",
    "disabled": false,
    "classSkills": {}
  },
  "ownership": {
    "default": 0
  },
  "_stats": {
    "systemId": "pf1",
    "systemVersion": "9.1",
    "coreVersion": "10.291",
    "createdTime": 1665428353949,
    "modifiedTime": 1689797886282,
    "lastModifiedBy": "ppv91YxratjWnkJi"
  },
  "effects": [],
  "folder": null,
  "sort": 0,
  "flags": {},
  "_key": "!items!OPUbq6VE8Na0FAQD"
}