{
  "_id": "3znDW5aZzkt2srOI",
  "name": "Painful Blow",
  "type": "feat",
  "img": "systems/pf1/icons/skills/yellow_11.jpg",
  "system": {
    "description": {
      "value": "<em>You have learned how to land blows so painful it is difficult for struck spellcasters to concentrate.</em><br/><br/><b>Prerequisites</b><br/>Vital Strike, base attack bonus +6, Knowledge (arcana) 3 ranks.<br/><br/><b>Benefits</b><br/>When you use Vital Strike (or Improved Vital Strike or Greater Vital Strike), the creature you hit with the attack must treat the damage dealt as continuous damage until the beginning of your next turn. This forces the target to attempt a concentration check if it casts a spell (Pathfinder RPG Core Rulebook 206). You can use this benefit twice per day, or three times per day if your base attack bonus is +12 or higher.",
      "unidentified": ""
    },
    "tags": [
      "PFS",
      "Combat"
    ],
    "actions": [],
    "uses": {
      "per": null,
      "value": 0,
      "maxFormula": "",
      "autoDeductChargesCost": "1"
    },
    "attackNotes": [],
    "effectNotes": [],
    "changes": [],
    "changeFlags": {
      "loseDexToAC": false,
      "noEncumbrance": false,
      "mediumArmorFullSpeed": false,
      "heavyArmorFullSpeed": false
    },
    "contextNotes": [],
    "links": {
      "children": [],
      "charges": []
    },
    "tag": "",
    "useCustomTag": false,
    "armorProf": {
      "value": [],
      "custom": ""
    },
    "weaponProf": {
      "value": [],
      "custom": ""
    },
    "languages": {
      "value": [],
      "custom": ""
    },
    "flags": {
      "boolean": {},
      "dictionary": {}
    },
    "scriptCalls": [],
    "subType": "feat",
    "associations": {
      "classes": []
    },
    "showInQuickbar": false,
    "abilityType": "none",
    "crOffset": "",
    "disabled": false,
    "classSkills": {}
  },
  "ownership": {
    "default": 0
  },
  "_stats": {
    "systemId": "pf1",
    "systemVersion": "9.1",
    "coreVersion": "10.291",
    "createdTime": 1665428350852,
    "modifiedTime": 1689797875338,
    "lastModifiedBy": "ppv91YxratjWnkJi"
  },
  "effects": [],
  "folder": null,
  "sort": 0,
  "flags": {},
  "_key": "!items!3znDW5aZzkt2srOI"
}