{
  "_id": "5kJ86Mbqls8M5pfG",
  "name": "Panther Parry",
  "type": "feat",
  "img": "systems/pf1/icons/races/catfolk.png",
  "system": {
    "description": {
      "value": "<em>Your vicious strikes impair your foe's ability to attack you when you move.</em><br/><br/><b>Prerequisites</b><br/>Wis 15, Combat Reflexes, Improved Unarmed Strike, Panther Claw, Panther Style.<br/><br/><b>Benefits</b><br/>While using Panther Style, your retaliatory unarmed strikes are resolved before the triggering attacks. If your retaliatory unarmed strike deals damage to an opponent, that opponent takes a -2 penalty on attack and damage rolls with the triggering attack of opportunity.<br/><br/><b>Combat Trick</b><br/>When your retaliatory strike damages an opponent, you can spend 5 stamina points to increase the penalty the target takes on attack and damage rolls to -4.",
      "unidentified": ""
    },
    "tags": [
      "PFS",
      "Combat"
    ],
    "actions": [],
    "uses": {
      "per": null,
      "value": 0,
      "maxFormula": "",
      "autoDeductChargesCost": "1"
    },
    "attackNotes": [],
    "effectNotes": [],
    "changes": [],
    "changeFlags": {
      "loseDexToAC": false,
      "noEncumbrance": false,
      "mediumArmorFullSpeed": false,
      "heavyArmorFullSpeed": false
    },
    "contextNotes": [],
    "links": {
      "children": [],
      "charges": []
    },
    "tag": "",
    "useCustomTag": false,
    "armorProf": {
      "value": [],
      "custom": ""
    },
    "weaponProf": {
      "value": [],
      "custom": ""
    },
    "languages": {
      "value": [],
      "custom": ""
    },
    "flags": {
      "boolean": {},
      "dictionary": {}
    },
    "scriptCalls": [],
    "subType": "feat",
    "associations": {
      "classes": []
    },
    "showInQuickbar": false,
    "abilityType": "none",
    "crOffset": "",
    "disabled": false,
    "classSkills": {}
  },
  "ownership": {
    "default": 0
  },
  "_stats": {
    "systemId": "pf1",
    "systemVersion": "9.1",
    "coreVersion": "10.291",
    "createdTime": 1665428351276,
    "modifiedTime": 1689797876414,
    "lastModifiedBy": "ppv91YxratjWnkJi"
  },
  "effects": [],
  "folder": null,
  "sort": 0,
  "flags": {},
  "_key": "!items!5kJ86Mbqls8M5pfG"
}