{
  "_id": "YNHfrB0Te89xCLcz",
  "name": "Peacemaker",
  "type": "feat",
  "img": "systems/pf1/icons/skills/light_07.jpg",
  "system": {
    "description": {
      "value": "<em>Your words of peace ring true and are much more difficult for others to resist.</em><br/><br/><b>Prerequisites</b><br/>Charisma 13, good alignment.<br/><br/><b>Benefits</b><br/>The DC to resist spells you cast to ensure peace or force aggressive creatures to become peaceful increases by +2. This affects spells that dissuade creatures from aggressive actions without exerting long-term or absolute control over them, and without leaving them defenseless. These spells include, but are not limited to, calm animals, calm emotions, command, compassionate ally, enthrall, euphoric tranquility, sanctuary, and serenity.",
      "unidentified": ""
    },
    "tags": [
      "PFS",
      "General"
    ],
    "actions": [],
    "uses": {
      "per": null,
      "value": 0,
      "maxFormula": "",
      "autoDeductChargesCost": "1"
    },
    "attackNotes": [],
    "effectNotes": [],
    "changes": [],
    "changeFlags": {
      "loseDexToAC": false,
      "noEncumbrance": false,
      "mediumArmorFullSpeed": false,
      "heavyArmorFullSpeed": false
    },
    "contextNotes": [],
    "links": {
      "children": [],
      "charges": []
    },
    "tag": "",
    "useCustomTag": false,
    "armorProf": {
      "value": [],
      "custom": ""
    },
    "weaponProf": {
      "value": [],
      "custom": ""
    },
    "languages": {
      "value": [],
      "custom": ""
    },
    "flags": {
      "boolean": {},
      "dictionary": {}
    },
    "scriptCalls": [],
    "subType": "feat",
    "associations": {
      "classes": []
    },
    "showInQuickbar": false,
    "abilityType": "none",
    "crOffset": "",
    "disabled": false,
    "classSkills": {}
  },
  "ownership": {
    "default": 0
  },
  "_stats": {
    "systemId": "pf1",
    "systemVersion": "9.1",
    "coreVersion": "10.291",
    "createdTime": 1665428355462,
    "modifiedTime": 1689797891891,
    "lastModifiedBy": "ppv91YxratjWnkJi"
  },
  "effects": [],
  "folder": null,
  "sort": 0,
  "flags": {},
  "_key": "!items!YNHfrB0Te89xCLcz"
}