{
  "_id": "fG44L53UQrnkacyz",
  "name": "Penetrating Possession",
  "type": "feat",
  "img": "systems/pf1/icons/spells/link-royal-1.jpg",
  "system": {
    "description": {
      "value": "<em>Your ability to possess foes can bypass magical protections.</em><br/><br/><b>Prerequisites</b><br/>Magic jar as a known spell or spell-like ability, Cha 21<br/><br/><b>Benefits</b><br/>The first time you attempt to possess a host under the effect of protection from evil spell or any similar spell, you have a chance to dispel that spell as if you had cast dispel magic on the spell.",
      "unidentified": ""
    },
    "tags": [
      "General"
    ],
    "actions": [],
    "uses": {
      "per": null,
      "value": 0,
      "maxFormula": "",
      "autoDeductChargesCost": "1"
    },
    "attackNotes": [],
    "effectNotes": [],
    "changes": [],
    "changeFlags": {
      "loseDexToAC": false,
      "noEncumbrance": false,
      "mediumArmorFullSpeed": false,
      "heavyArmorFullSpeed": false
    },
    "contextNotes": [],
    "links": {
      "children": [],
      "charges": []
    },
    "tag": "",
    "useCustomTag": false,
    "armorProf": {
      "value": [],
      "custom": ""
    },
    "weaponProf": {
      "value": [],
      "custom": ""
    },
    "languages": {
      "value": [],
      "custom": ""
    },
    "flags": {
      "boolean": {},
      "dictionary": {}
    },
    "scriptCalls": [],
    "subType": "feat",
    "associations": {
      "classes": []
    },
    "showInQuickbar": false,
    "abilityType": "none",
    "crOffset": "",
    "disabled": false,
    "classSkills": {}
  },
  "ownership": {
    "default": 0
  },
  "_stats": {
    "systemId": "pf1",
    "systemVersion": "9.1",
    "coreVersion": "10.291",
    "createdTime": 1665428356247,
    "modifiedTime": 1689797895031,
    "lastModifiedBy": "ppv91YxratjWnkJi"
  },
  "effects": [],
  "folder": null,
  "sort": 0,
  "flags": {},
  "_key": "!items!fG44L53UQrnkacyz"
}