{
  "_id": "kcuuD5ICgJlFPC8S",
  "name": "Penetrating Strike (Mythic)",
  "type": "feat",
  "img": "systems/pf1/icons/feats/penetrating-strike.jpg",
  "system": {
    "description": {
      "value": "<em>You know just how to strike to bypass even the most heavily armored foe's defenses.</em><br/><br/><b>Prerequisites</b><br/>Penetrating Strike.<br/><br/><b>Benefits</b><br/>When using Penetrating Strike or Greater Penetrating Strike, you can ignore an additional point of damage reduction for every 3 tiers you posses. Additionally, the effects apply to damage reduction without a type (such as DR 10/--).",
      "unidentified": ""
    },
    "tags": [
      "PFS",
      "Combat",
      "Mythic"
    ],
    "actions": [],
    "uses": {
      "per": null,
      "value": 0,
      "maxFormula": "",
      "autoDeductChargesCost": "1"
    },
    "attackNotes": [],
    "effectNotes": [],
    "changes": [],
    "changeFlags": {
      "loseDexToAC": false,
      "noEncumbrance": false,
      "mediumArmorFullSpeed": false,
      "heavyArmorFullSpeed": false
    },
    "contextNotes": [],
    "links": {
      "children": [],
      "charges": []
    },
    "tag": "",
    "useCustomTag": false,
    "armorProf": {
      "value": [],
      "custom": ""
    },
    "weaponProf": {
      "value": [],
      "custom": ""
    },
    "languages": {
      "value": [],
      "custom": ""
    },
    "flags": {
      "boolean": {},
      "dictionary": {}
    },
    "scriptCalls": [],
    "subType": "feat",
    "associations": {
      "classes": []
    },
    "showInQuickbar": false,
    "abilityType": "none",
    "crOffset": "",
    "disabled": false,
    "classSkills": {}
  },
  "ownership": {
    "default": 0
  },
  "_stats": {
    "systemId": "pf1",
    "systemVersion": "9.1",
    "coreVersion": "10.291",
    "createdTime": 1665428356923,
    "modifiedTime": 1689797897605,
    "lastModifiedBy": "ppv91YxratjWnkJi"
  },
  "effects": [],
  "folder": null,
  "sort": 0,
  "flags": {},
  "_key": "!items!kcuuD5ICgJlFPC8S"
}