{
  "_id": "IfPxE3ykSKr0KUdG",
  "name": "Penetrating Strike",
  "type": "feat",
  "img": "systems/pf1/icons/feats/penetrating-strike.jpg",
  "system": {
    "description": {
      "value": "<em>Your attacks are capable of penetrating the defenses of some creatures.</em><br/><br/><b>Prerequisites</b><br/>Weapon Focus, base attack bonus +1, 12th-level fighter, proficiency with weapon.<br/><br/><b>Benefits</b><br/>Your attacks with weapons selected with Weapon Focus ignore up to 5 points of damage reduction. This feat does not apply to damage reduction without a type (such as DR 10/--).<br/><br/><b>Combat Trick</b><br/>Whenever you deal damage to a creature with damage reduction using the selected weapons, you can spend 5 stamina points to allow all your allies (other than yourself ) within 30 feet of the creature to ignore 5 points of the creature's damage reduction for 1 round. This has no effect on creatures with damage reduction without a type (such as DR 10/--). This effect does not stack with Penetrating Strike's normal effect, but it does allow you to apply the effect to all your other weapons for the duration.",
      "unidentified": ""
    },
    "tags": [
      "PFS",
      "Combat"
    ],
    "actions": [],
    "uses": {
      "per": null,
      "value": 0,
      "maxFormula": "",
      "autoDeductChargesCost": "1"
    },
    "attackNotes": [],
    "effectNotes": [],
    "changes": [],
    "changeFlags": {
      "loseDexToAC": false,
      "noEncumbrance": false,
      "mediumArmorFullSpeed": false,
      "heavyArmorFullSpeed": false
    },
    "contextNotes": [
      {
        "subTarget": "meleeWeapon",
        "text": "Penetrating Strike: attacks made with Weapon Focus selected weapons ignore up to [[5]] points of DR. It does not apply to DR without a type."
      },
      {
        "subTarget": "rangedWeapon",
        "text": "Penetrating Strike: attacks made with Weapon Focus selected weapons ignore up to [[5]] points of DR. It does not apply to DR without a type."
      }
    ],
    "links": {
      "children": [],
      "charges": []
    },
    "tag": "penetratingStrike",
    "useCustomTag": false,
    "armorProf": {
      "value": [],
      "custom": ""
    },
    "weaponProf": {
      "value": [],
      "custom": ""
    },
    "languages": {
      "value": [],
      "custom": ""
    },
    "flags": {
      "boolean": {},
      "dictionary": {}
    },
    "scriptCalls": [],
    "subType": "feat",
    "associations": {
      "classes": []
    },
    "showInQuickbar": false,
    "abilityType": "none",
    "crOffset": "",
    "disabled": false,
    "classSkills": {},
    "auraStrength": 0
  },
  "ownership": {
    "default": 0
  },
  "_stats": {
    "systemId": "pf1",
    "systemVersion": "9.1",
    "coreVersion": "10.291",
    "createdTime": 1665428353257,
    "modifiedTime": 1689797883745,
    "lastModifiedBy": "ppv91YxratjWnkJi"
  },
  "effects": [],
  "folder": null,
  "sort": 0,
  "flags": {},
  "_key": "!items!IfPxE3ykSKr0KUdG"
}