{
  "_id": "hOwchr2Vqjvi2lZE",
  "name": "Perfect Awareness",
  "type": "feat",
  "img": "systems/pf1/icons/skills/shadow_12.jpg",
  "system": {
    "description": {
      "value": "<em>You can set aside all irrelevant sensory information to understand your surroundings perfectly for a moment.</em><br/><br/><b>Prerequisites</b><br/>Wis 17, Combat Meditation, Meditation Master, character level 9th.<br/><br/><b>Benefits</b><br/>Once per day, you can take 20 on a Perception check as a move action.",
      "unidentified": ""
    },
    "tags": [
      "PFS",
      "Combat",
      "Meditation"
    ],
    "actions": [],
    "uses": {
      "per": null,
      "value": 0,
      "maxFormula": "",
      "autoDeductChargesCost": "1"
    },
    "attackNotes": [],
    "effectNotes": [],
    "changes": [],
    "changeFlags": {
      "loseDexToAC": false,
      "noEncumbrance": false,
      "mediumArmorFullSpeed": false,
      "heavyArmorFullSpeed": false
    },
    "contextNotes": [],
    "links": {
      "children": [],
      "charges": []
    },
    "tag": "",
    "useCustomTag": false,
    "armorProf": {
      "value": [],
      "custom": ""
    },
    "weaponProf": {
      "value": [],
      "custom": ""
    },
    "languages": {
      "value": [],
      "custom": ""
    },
    "flags": {
      "boolean": {},
      "dictionary": {}
    },
    "scriptCalls": [],
    "subType": "feat",
    "associations": {
      "classes": []
    },
    "showInQuickbar": false,
    "abilityType": "none",
    "crOffset": "",
    "disabled": false,
    "classSkills": {}
  },
  "ownership": {
    "default": 0
  },
  "_stats": {
    "systemId": "pf1",
    "systemVersion": "9.1",
    "coreVersion": "10.291",
    "createdTime": 1665428356710,
    "modifiedTime": 1689797896232,
    "lastModifiedBy": "ppv91YxratjWnkJi"
  },
  "effects": [],
  "folder": null,
  "sort": 0,
  "flags": {},
  "_key": "!items!hOwchr2Vqjvi2lZE"
}