{
  "_id": "5I8IqWgA3u58mdNS",
  "name": "Persuasive Bribery",
  "type": "feat",
  "img": "systems/pf1/icons/feats/deft-hands.PNG",
  "system": {
    "description": {
      "value": "<em>You know how to get the most out of bribes.</em><br/><br/><b>Prerequisites</b><br/>Persuasive.<br/><br/><b>Benefits</b><br/>You gain a +2 bonus on Diplomacy checks when attempting to bribe someone and on Diplomacy or Charisma checks to bargain with a conjured creature (such as with planar ally or planar binding), in addition to any bonus granted by the bribe itself. The first time someone refuses a bribe you offer, that person's attitude toward you doesn't worsen, even if the offer would normally offend the person.",
      "unidentified": ""
    },
    "tags": [
      "PFS",
      "General"
    ],
    "actions": [],
    "uses": {
      "per": null,
      "value": 0,
      "maxFormula": "",
      "autoDeductChargesCost": "1"
    },
    "attackNotes": [],
    "effectNotes": [],
    "changes": [],
    "changeFlags": {
      "loseDexToAC": false,
      "noEncumbrance": false,
      "mediumArmorFullSpeed": false,
      "heavyArmorFullSpeed": false
    },
    "contextNotes": [],
    "links": {
      "children": [],
      "charges": []
    },
    "tag": "",
    "useCustomTag": false,
    "armorProf": {
      "value": [],
      "custom": ""
    },
    "weaponProf": {
      "value": [],
      "custom": ""
    },
    "languages": {
      "value": [],
      "custom": ""
    },
    "flags": {
      "boolean": {},
      "dictionary": {}
    },
    "scriptCalls": [],
    "subType": "feat",
    "associations": {
      "classes": []
    },
    "showInQuickbar": false,
    "abilityType": "none",
    "crOffset": "",
    "disabled": false,
    "classSkills": {}
  },
  "ownership": {
    "default": 0
  },
  "_stats": {
    "systemId": "pf1",
    "systemVersion": "9.1",
    "coreVersion": "10.291",
    "createdTime": 1665428351233,
    "modifiedTime": 1689797876192,
    "lastModifiedBy": "ppv91YxratjWnkJi"
  },
  "effects": [],
  "folder": null,
  "sort": 0,
  "flags": {},
  "_key": "!items!5I8IqWgA3u58mdNS"
}