{
  "_id": "kIRoSYq0kPVcwo7H",
  "name": "Persuasive (Mythic)",
  "type": "feat",
  "img": "systems/pf1/icons/feats/persuasive.jpg",
  "system": {
    "description": {
      "value": "<em>You're a master of persuasion, be it with soothing words or harsh barking commands.</em><br/><br/><b>Prerequisites</b><br/>Persuasive.<br/><br/><b>Benefits</b><br/>The bonus on Diplomacy and Intimidate skill checks granted by Persuasive increases by 2. In addition, you can expend one use of mythic power to treat a Diplomacy or Intimidate check as if you had rolled a natural 20. You must decide to use this ability before making the roll.",
      "unidentified": ""
    },
    "tags": [
      "PFS",
      "General",
      "Mythic"
    ],
    "actions": [],
    "uses": {
      "per": null,
      "value": 0,
      "maxFormula": "",
      "autoDeductChargesCost": "1"
    },
    "attackNotes": [],
    "effectNotes": [],
    "changes": [],
    "changeFlags": {
      "loseDexToAC": false,
      "noEncumbrance": false,
      "mediumArmorFullSpeed": false,
      "heavyArmorFullSpeed": false
    },
    "contextNotes": [],
    "links": {
      "children": [],
      "charges": []
    },
    "tag": "",
    "useCustomTag": false,
    "armorProf": {
      "value": [],
      "custom": ""
    },
    "weaponProf": {
      "value": [],
      "custom": ""
    },
    "languages": {
      "value": [],
      "custom": ""
    },
    "flags": {
      "boolean": {},
      "dictionary": {}
    },
    "scriptCalls": [],
    "subType": "feat",
    "associations": {
      "classes": []
    },
    "showInQuickbar": false,
    "abilityType": "none",
    "crOffset": "",
    "disabled": false,
    "classSkills": {}
  },
  "ownership": {
    "default": 0
  },
  "_stats": {
    "systemId": "pf1",
    "systemVersion": "9.1",
    "coreVersion": "10.291",
    "createdTime": 1665428356901,
    "modifiedTime": 1689797897463,
    "lastModifiedBy": "ppv91YxratjWnkJi"
  },
  "effects": [],
  "folder": null,
  "sort": 0,
  "flags": {},
  "_key": "!items!kIRoSYq0kPVcwo7H"
}