{
  "_id": "uOF8cUz1P7hZ4e7m",
  "name": "Pesh Healing",
  "type": "feat",
  "img": "icons/tools/laboratory/bowl-liquid-black.webp",
  "system": {
    "description": {
      "value": "<em>Consuming pesh makes you feel healthier.</em><br/><br/><b>Prerequisites</b><br/>Sahir-Afiyun or pesh addict.<br/><br/><b>Benefits</b><br/>When you take a dose of pesh, in addition to its normal initial effect, you gain a number of temporary hit points equal to your total Hit Dice for 1 hour. Temporary hit points gained from additional doses of pesh do not stack.",
      "unidentified": ""
    },
    "tags": [
      "General"
    ],
    "actions": [],
    "uses": {
      "per": null,
      "value": 0,
      "maxFormula": "",
      "autoDeductChargesCost": "1"
    },
    "attackNotes": [],
    "effectNotes": [],
    "changes": [],
    "changeFlags": {
      "loseDexToAC": false,
      "noEncumbrance": false,
      "mediumArmorFullSpeed": false,
      "heavyArmorFullSpeed": false
    },
    "contextNotes": [],
    "links": {
      "children": [],
      "charges": []
    },
    "tag": "",
    "useCustomTag": false,
    "armorProf": {
      "value": [],
      "custom": ""
    },
    "weaponProf": {
      "value": [],
      "custom": ""
    },
    "languages": {
      "value": [],
      "custom": ""
    },
    "flags": {
      "boolean": {},
      "dictionary": {}
    },
    "scriptCalls": [],
    "subType": "feat",
    "associations": {
      "classes": []
    },
    "showInQuickbar": false,
    "abilityType": "none",
    "crOffset": "",
    "disabled": false,
    "classSkills": {}
  },
  "ownership": {
    "default": 0
  },
  "_stats": {
    "systemId": "pf1",
    "systemVersion": "9.1",
    "coreVersion": "10.291",
    "createdTime": 1665428358710,
    "modifiedTime": 1689797902709,
    "lastModifiedBy": "ppv91YxratjWnkJi"
  },
  "effects": [],
  "folder": null,
  "sort": 0,
  "flags": {},
  "_key": "!items!uOF8cUz1P7hZ4e7m"
}