{
  "_id": "TXo1Jv34Xv4be07V",
  "name": "Pestilent",
  "type": "feat",
  "img": "systems/pf1/icons/feats/scorpion-style.jpg",
  "system": {
    "description": {
      "value": "<em>Your unarmed strikes and natural weapons cause extra harm to those infected with your disease.</em><br/><br/><b>Prerequisites</b><br/>Ability to cause disease via a spell, spell-like ability, or supernatural means.<br/><br/><b>Benefits</b><br/>When you successfully use a spell, spell-like ability, or supernatural ability to cause a creature to contract a disease, you gain a +2 bonus on attack rolls with natural weapons and unarmed strikes against that creature. In addition, such attacks deal an additional 1d6 points of negative energy damage. If you have the supernatural ability to cause a single disease (such as mummy rot), you gain these bonuses against any creature that has contracted the same disease, even if it did not contract it from you.",
      "unidentified": ""
    },
    "tags": [
      "PFS",
      "General"
    ],
    "actions": [],
    "uses": {
      "per": null,
      "value": 0,
      "maxFormula": "",
      "autoDeductChargesCost": "1"
    },
    "attackNotes": [],
    "effectNotes": [],
    "changes": [],
    "changeFlags": {
      "loseDexToAC": false,
      "noEncumbrance": false,
      "mediumArmorFullSpeed": false,
      "heavyArmorFullSpeed": false
    },
    "contextNotes": [],
    "links": {
      "children": [],
      "charges": []
    },
    "tag": "",
    "useCustomTag": false,
    "armorProf": {
      "value": [],
      "custom": ""
    },
    "weaponProf": {
      "value": [],
      "custom": ""
    },
    "languages": {
      "value": [],
      "custom": ""
    },
    "flags": {
      "boolean": {},
      "dictionary": {}
    },
    "scriptCalls": [],
    "subType": "feat",
    "associations": {
      "classes": []
    },
    "showInQuickbar": false,
    "abilityType": "none",
    "crOffset": "",
    "disabled": false,
    "classSkills": {}
  },
  "ownership": {
    "default": 0
  },
  "_stats": {
    "systemId": "pf1",
    "systemVersion": "9.1",
    "coreVersion": "10.291",
    "createdTime": 1665428354576,
    "modifiedTime": 1689797888760,
    "lastModifiedBy": "ppv91YxratjWnkJi"
  },
  "effects": [],
  "folder": null,
  "sort": 0,
  "flags": {},
  "_key": "!items!TXo1Jv34Xv4be07V"
}