{
  "_id": "ht0IC7qfoZA74vJd",
  "name": "Phalanx Formation",
  "type": "feat",
  "img": "icons/equipment/shield/oval-wooden-boss-bronze.webp",
  "system": {
    "description": {
      "value": "<em>You are trained to use long weapons in tight formations.</em><br/><br/><b>Prerequisites</b><br/>Base attack bonus +1.<br/><br/><b>Benefits</b><br/>When you wield a reach weapon with which you are proficient, allies don't provide soft cover to opponents you attack with reach.<br/><br/><b>Normal</b><br/>Attacking a target that is beyond another creature, even an ally, can result in the target having soft cover from you.",
      "unidentified": ""
    },
    "tags": [
      "PFS",
      "Combat"
    ],
    "actions": [],
    "uses": {
      "per": null,
      "value": 0,
      "maxFormula": "",
      "autoDeductChargesCost": "1"
    },
    "attackNotes": [],
    "effectNotes": [],
    "changes": [],
    "changeFlags": {
      "loseDexToAC": false,
      "noEncumbrance": false,
      "mediumArmorFullSpeed": false,
      "heavyArmorFullSpeed": false
    },
    "contextNotes": [],
    "links": {
      "children": [],
      "charges": []
    },
    "tag": "",
    "useCustomTag": false,
    "armorProf": {
      "value": [],
      "custom": ""
    },
    "weaponProf": {
      "value": [],
      "custom": ""
    },
    "languages": {
      "value": [],
      "custom": ""
    },
    "flags": {
      "boolean": {},
      "dictionary": {}
    },
    "scriptCalls": [],
    "subType": "feat",
    "associations": {
      "classes": []
    },
    "showInQuickbar": false,
    "abilityType": "none",
    "crOffset": "",
    "disabled": false,
    "classSkills": {}
  },
  "ownership": {
    "default": 0
  },
  "_stats": {
    "systemId": "pf1",
    "systemVersion": "9.1",
    "coreVersion": "10.291",
    "createdTime": 1665428356746,
    "modifiedTime": 1689797896444,
    "lastModifiedBy": "ppv91YxratjWnkJi"
  },
  "effects": [],
  "folder": null,
  "sort": 0,
  "flags": {},
  "_key": "!items!ht0IC7qfoZA74vJd"
}