{
  "_id": "IK1KKlpQ3qyzSpgg",
  "name": "Pinpoint Jab",
  "type": "feat",
  "img": "systems/pf1/icons/skills/red_03.jpg",
  "system": {
    "description": {
      "value": "<em>You strikes land exactly where you mean them to.</em><br/><br/><b>Prerequisites</b><br/>Improved Unarmed Strike, base attack bonus +6, ki pool or martial flexibility class feature.<br/><br/><b>Benefits</b><br/>As a full-round action, you can expend 1 ki point or one daily use of martial flexibility to use a limited version of the targeted strike deed, targeting either hands or legs with an unarmed attack. A target who succeeds at a Fortitude save (DC = 10 + your base attack bonus) can negate the effect. When your base attack bonus reaches +11, you can instead target head or torso, which the target can negate with a Fortitude save. When your BAB reaches +16, you can target two locations; the target must save against each effect separately.<br/><br/><b>Special</b><br/>A monk can substitute his class level for his base attack bonus for this feat's effects.",
      "unidentified": ""
    },
    "tags": [
      "PFS",
      "Combat"
    ],
    "actions": [],
    "uses": {
      "per": null,
      "value": 0,
      "maxFormula": "",
      "autoDeductChargesCost": "1"
    },
    "attackNotes": [],
    "effectNotes": [],
    "changes": [],
    "changeFlags": {
      "loseDexToAC": false,
      "noEncumbrance": false,
      "mediumArmorFullSpeed": false,
      "heavyArmorFullSpeed": false
    },
    "contextNotes": [],
    "links": {
      "children": [],
      "charges": []
    },
    "tag": "",
    "useCustomTag": false,
    "armorProf": {
      "value": [],
      "custom": ""
    },
    "weaponProf": {
      "value": [],
      "custom": ""
    },
    "languages": {
      "value": [],
      "custom": ""
    },
    "flags": {
      "boolean": {},
      "dictionary": {}
    },
    "scriptCalls": [],
    "subType": "feat",
    "associations": {
      "classes": []
    },
    "showInQuickbar": false,
    "abilityType": "none",
    "crOffset": "",
    "disabled": false,
    "classSkills": {}
  },
  "ownership": {
    "default": 0
  },
  "_stats": {
    "systemId": "pf1",
    "systemVersion": "9.1",
    "coreVersion": "10.291",
    "createdTime": 1665428353230,
    "modifiedTime": 1689797883623,
    "lastModifiedBy": "ppv91YxratjWnkJi"
  },
  "effects": [],
  "folder": null,
  "sort": 0,
  "flags": {},
  "_key": "!items!IK1KKlpQ3qyzSpgg"
}