{
  "_id": "2weVX2HNOrOzmkc9",
  "name": "Planewalker's Insight",
  "type": "feat",
  "img": "icons/sundries/books/book-eye-purple.webp",
  "system": {
    "description": {
      "value": "<em>You are well versed in the lore of the planes and the psychology of their natives.</em><br/><br/><b>Benefits</b><br/>You gain a +2 bonus on Knowledge (planes) checks and on Sense Motive checks against outsiders, and Knowledge (planes) is a class skill for you. If you have 10 or more ranks in either of these skills, the bonus for that skill increases to +4. These bonuses do not stack with those granted by the Alertness or Scholar feats.",
      "unidentified": ""
    },
    "tags": [
      "PFS",
      "General"
    ],
    "actions": [],
    "uses": {
      "per": null,
      "value": 0,
      "maxFormula": "",
      "autoDeductChargesCost": "1"
    },
    "attackNotes": [],
    "effectNotes": [],
    "changes": [],
    "changeFlags": {
      "loseDexToAC": false,
      "noEncumbrance": false,
      "mediumArmorFullSpeed": false,
      "heavyArmorFullSpeed": false
    },
    "contextNotes": [],
    "links": {
      "children": [],
      "charges": []
    },
    "tag": "",
    "useCustomTag": false,
    "armorProf": {
      "value": [],
      "custom": ""
    },
    "weaponProf": {
      "value": [],
      "custom": ""
    },
    "languages": {
      "value": [],
      "custom": ""
    },
    "flags": {
      "boolean": {},
      "dictionary": {}
    },
    "scriptCalls": [],
    "subType": "feat",
    "associations": {
      "classes": []
    },
    "showInQuickbar": false,
    "abilityType": "none",
    "crOffset": "",
    "disabled": false,
    "classSkills": {}
  },
  "ownership": {
    "default": 0
  },
  "_stats": {
    "systemId": "pf1",
    "systemVersion": "9.1",
    "coreVersion": "10.291",
    "createdTime": 1665428350774,
    "modifiedTime": 1689797874953,
    "lastModifiedBy": "ppv91YxratjWnkJi"
  },
  "effects": [],
  "folder": null,
  "sort": 0,
  "flags": {},
  "_key": "!items!2weVX2HNOrOzmkc9"
}