{
  "_id": "P820KyM7FbxRQTEF",
  "name": "Planar Preservationist",
  "type": "feat",
  "img": "systems/pf1/icons/skills/yellow_25.jpg",
  "system": {
    "description": {
      "value": "<p><em>You know how to preserve and reconstitute extraplanar monsters as well as normal animals.</em><br /><br /><strong>Prerequisites</strong><br />Preservationist alchemist archetype.<br /><br /><strong>Benefit<br /></strong>For every summon nature&rsquo;s ally extract you know, you learn the equivalent summon monster spell as an extract. If you later learn other summon nature&rsquo;s ally extracts, you automatically learn the equivalent summon monster spell as an extract.</p>",
      "unidentified": ""
    },
    "tags": [
      "PFS",
      "General"
    ],
    "actions": [],
    "uses": {
      "per": null,
      "value": 0,
      "maxFormula": "",
      "autoDeductChargesCost": "1"
    },
    "attackNotes": [],
    "effectNotes": [],
    "changes": [],
    "changeFlags": {
      "loseDexToAC": false,
      "noEncumbrance": false,
      "mediumArmorFullSpeed": false,
      "heavyArmorFullSpeed": false
    },
    "contextNotes": [],
    "links": {
      "children": [],
      "charges": []
    },
    "tag": "",
    "useCustomTag": false,
    "armorProf": {
      "value": [],
      "custom": ""
    },
    "weaponProf": {
      "value": [],
      "custom": ""
    },
    "languages": {
      "value": [],
      "custom": ""
    },
    "flags": {
      "boolean": {},
      "dictionary": {}
    },
    "scriptCalls": [],
    "subType": "feat",
    "associations": {
      "classes": []
    },
    "showInQuickbar": false,
    "abilityType": "none",
    "crOffset": "",
    "disabled": false,
    "classSkills": {}
  },
  "ownership": {
    "default": 0
  },
  "_stats": {
    "systemId": "pf1",
    "systemVersion": "9.1",
    "coreVersion": "10.291",
    "createdTime": 1665428353989,
    "modifiedTime": 1689797886457,
    "lastModifiedBy": "ppv91YxratjWnkJi"
  },
  "effects": [],
  "folder": null,
  "sort": 0,
  "flags": {},
  "_key": "!items!P820KyM7FbxRQTEF"
}