{
  "_id": "qnpDMsJHML0DYi8N",
  "name": "Position of Strength",
  "type": "feat",
  "img": "systems/pf1/icons/feats/athletic.jpg",
  "system": {
    "description": {
      "value": "<em>You know how to press your advantage when negotiating with noncombatants.</em><br/><br/><b>Prerequisites</b><br/>Intimidate 5 ranks.<br/><br/><b>Benefits</b><br/>As long as you are wielding one or more weapons with which you are proficient, you gain a +4 bonus on Intimidate checks against unarmed creatures, which doesn't stack with Intimidating Prowess. Additionally, if you successfully use Intimidate to demoralize an unarmed creature, that creature becomes shaken for as long as you continue to be armed and they continue not to be, to a maximum of 1 minute. Creatures with natural attacks, or whose unarmed strikes deal lethal damage, are considered to be armed for the purposes of this feat.",
      "unidentified": ""
    },
    "tags": [
      "PFS",
      "Combat"
    ],
    "actions": [],
    "uses": {
      "per": null,
      "value": 0,
      "maxFormula": "",
      "autoDeductChargesCost": "1"
    },
    "attackNotes": [],
    "effectNotes": [],
    "changes": [],
    "changeFlags": {
      "loseDexToAC": false,
      "noEncumbrance": false,
      "mediumArmorFullSpeed": false,
      "heavyArmorFullSpeed": false
    },
    "contextNotes": [],
    "links": {
      "children": [],
      "charges": []
    },
    "tag": "",
    "useCustomTag": false,
    "armorProf": {
      "value": [],
      "custom": ""
    },
    "weaponProf": {
      "value": [],
      "custom": ""
    },
    "languages": {
      "value": [],
      "custom": ""
    },
    "flags": {
      "boolean": {},
      "dictionary": {}
    },
    "scriptCalls": [],
    "subType": "feat",
    "associations": {
      "classes": []
    },
    "showInQuickbar": false,
    "abilityType": "none",
    "crOffset": "",
    "disabled": false,
    "classSkills": {}
  },
  "ownership": {
    "default": 0
  },
  "_stats": {
    "systemId": "pf1",
    "systemVersion": "9.1",
    "coreVersion": "10.291",
    "createdTime": 1665428358078,
    "modifiedTime": 1689797901068,
    "lastModifiedBy": "ppv91YxratjWnkJi"
  },
  "effects": [],
  "folder": null,
  "sort": 0,
  "flags": {},
  "_key": "!items!qnpDMsJHML0DYi8N"
}