{
  "_id": "1ZbtqLM8RJOYwHGB",
  "name": "Press to the Wall",
  "type": "feat",
  "img": "systems/pf1/icons/items/weapons/gnome-ripsaw-glaive.png",
  "system": {
    "description": {
      "value": "<em>You gain an advantage when your opponent can't easily retreat.</em><br/><br/><b>Prerequisites</b><br/>Step Up, base attack bonus +3.<br/><br/><b>Benefits</b><br/>If you are the only character threatening an opponent, you can treat solid, immovable objects that occupy a square (such as columns, tree trunks, and walls) and are adjacent to that opponent as allies threatening the opponent when determining whether you flank the foe.",
      "unidentified": ""
    },
    "tags": [
      "PFS",
      "Combat"
    ],
    "actions": [],
    "uses": {
      "per": null,
      "value": 0,
      "maxFormula": "",
      "autoDeductChargesCost": "1"
    },
    "attackNotes": [],
    "effectNotes": [],
    "changes": [],
    "changeFlags": {
      "loseDexToAC": false,
      "noEncumbrance": false,
      "mediumArmorFullSpeed": false,
      "heavyArmorFullSpeed": false
    },
    "contextNotes": [],
    "links": {
      "children": [],
      "charges": []
    },
    "tag": "",
    "useCustomTag": false,
    "armorProf": {
      "value": [],
      "custom": ""
    },
    "weaponProf": {
      "value": [],
      "custom": ""
    },
    "languages": {
      "value": [],
      "custom": ""
    },
    "flags": {
      "boolean": {},
      "dictionary": {}
    },
    "scriptCalls": [],
    "subType": "feat",
    "associations": {
      "classes": []
    },
    "showInQuickbar": false,
    "abilityType": "none",
    "crOffset": "",
    "disabled": false,
    "classSkills": {}
  },
  "ownership": {
    "default": 0
  },
  "_stats": {
    "systemId": "pf1",
    "systemVersion": "9.1",
    "coreVersion": "10.291",
    "createdTime": 1665428350687,
    "modifiedTime": 1689797874526,
    "lastModifiedBy": "ppv91YxratjWnkJi"
  },
  "effects": [],
  "folder": null,
  "sort": 0,
  "flags": {},
  "_key": "!items!1ZbtqLM8RJOYwHGB"
}