{
  "_id": "7s5emlnRYQJu9t0y",
  "name": "Primal Bloom",
  "type": "feat",
  "img": "systems/pf1/icons/skills/green_22.jpg",
  "system": {
    "description": {
      "value": "<em>With a ferocious cry, you call to the First World to render magic unpredictable.</em><br/><br/><b>Prerequisites</b><br/>Knowledge (planes) 10 ranks.<br/><br/><b>Benefits</b><br/>As a standard action, you can create a 50-foot-radius spread of primal fey influence centered on yourself. This area is stationary and lasts for 1 minute. The affected area gains the wild magic planar trait (see page 63), except that the DC of the caster level check increases by 5. If the area already has the wild magic planar trait, the DC of the caster level check increases by 10 instead.<br/><br/> You can use this feat once per day, plus an additional time per day once you have 15 ranks in Knowledge (planes) and three times per day once you have 20 ranks in Knowledge (planes).",
      "unidentified": ""
    },
    "tags": [
      "Conduit"
    ],
    "actions": [],
    "uses": {
      "per": null,
      "value": 0,
      "maxFormula": "",
      "autoDeductChargesCost": "1"
    },
    "attackNotes": [],
    "effectNotes": [],
    "changes": [],
    "changeFlags": {
      "loseDexToAC": false,
      "noEncumbrance": false,
      "mediumArmorFullSpeed": false,
      "heavyArmorFullSpeed": false
    },
    "contextNotes": [],
    "links": {
      "children": [],
      "charges": []
    },
    "tag": "",
    "useCustomTag": false,
    "armorProf": {
      "value": [],
      "custom": ""
    },
    "weaponProf": {
      "value": [],
      "custom": ""
    },
    "languages": {
      "value": [],
      "custom": ""
    },
    "flags": {
      "boolean": {},
      "dictionary": {}
    },
    "scriptCalls": [],
    "subType": "feat",
    "associations": {
      "classes": []
    },
    "showInQuickbar": false,
    "abilityType": "none",
    "crOffset": "",
    "disabled": false,
    "classSkills": {}
  },
  "ownership": {
    "default": 0
  },
  "_stats": {
    "systemId": "pf1",
    "systemVersion": "9.1",
    "coreVersion": "10.291",
    "createdTime": 1665428351520,
    "modifiedTime": 1689797877199,
    "lastModifiedBy": "ppv91YxratjWnkJi"
  },
  "effects": [],
  "folder": null,
  "sort": 0,
  "flags": {},
  "_key": "!items!7s5emlnRYQJu9t0y"
}