{
  "_id": "moDJBSl04J3TNSvg",
  "name": "Primal Kineticist",
  "type": "feat",
  "img": "systems/pf1/icons/skills/green_27.jpg",
  "system": {
    "description": {
      "value": "<em>When primal magic surrounds you, you can channel it to transform the nature of your kinetic blasts.</em><br/><br/><b>Prerequisites</b><br/>Kineticist level 1st.<br/><br/><b>Benefits</b><br/>When using a simple kinetic blast in an area where primal magic is either predominant or very common, you can accept 1 point of burn to cause your blast to become one of the following simple blasts instead. Roll 1d10 to determine the simple blast: 1 = air, 2 = cold, 3 = earth, 4 = electric, 5 = fire, 6 = gravity, 7 = negative, 8 = telekinetic, 9 = water, 10 = wood. You can apply any of your form or substance infusions that are allowed as choices for the random blast, accepting the typical burn cost.",
      "unidentified": ""
    },
    "tags": [
      "PFS",
      "General"
    ],
    "actions": [],
    "uses": {
      "per": null,
      "value": 0,
      "maxFormula": "",
      "autoDeductChargesCost": "1"
    },
    "attackNotes": [],
    "effectNotes": [],
    "changes": [],
    "changeFlags": {
      "loseDexToAC": false,
      "noEncumbrance": false,
      "mediumArmorFullSpeed": false,
      "heavyArmorFullSpeed": false
    },
    "contextNotes": [],
    "links": {
      "children": [],
      "charges": []
    },
    "tag": "",
    "useCustomTag": false,
    "armorProf": {
      "value": [],
      "custom": ""
    },
    "weaponProf": {
      "value": [],
      "custom": ""
    },
    "languages": {
      "value": [],
      "custom": ""
    },
    "flags": {
      "boolean": {},
      "dictionary": {}
    },
    "scriptCalls": [],
    "subType": "feat",
    "associations": {
      "classes": []
    },
    "showInQuickbar": false,
    "abilityType": "none",
    "crOffset": "",
    "disabled": false,
    "classSkills": {}
  },
  "ownership": {
    "default": 0
  },
  "_stats": {
    "systemId": "pf1",
    "systemVersion": "9.1",
    "coreVersion": "10.291",
    "createdTime": 1665428357474,
    "modifiedTime": 1689797899207,
    "lastModifiedBy": "ppv91YxratjWnkJi"
  },
  "effects": [],
  "folder": null,
  "sort": 0,
  "flags": {},
  "_key": "!items!moDJBSl04J3TNSvg"
}