{
  "_id": "Ho3qCFTSlVcQrUo7",
  "name": "Psychovore Strike",
  "type": "feat",
  "img": "systems/pf1/icons/skills/violet_22.jpg",
  "system": {
    "description": {
      "value": "<em>You can land blows that confuse your enemies.</em><br/><br/><b>Prerequisites</b><br/>Improved Unarmed Strike, Psychovore Style, Sense Motive 9 ranks.<br/><br/><b>Benefits</b><br/>When you strike the creature you are gaining a dodge bonus to AC against from Psychovore Style with your unarmed strike, you can force that creature to attempt a Will saving throw (DC = 10 + 1/2 your character level + your Wisdom modifier), in addition to dealing damage normally. A creature who fails its save is confused for 1d6 rounds. You must declare that you are using this feat before you make your attack roll (thus, a failed attack roll ruins the attempt). You can use this ability a number of times per day equal to 1 + your Wisdom bonus (minimum once per day), and no more than once per round. This is a mind-affecting effect, and a creature confused in this way never attacks you.",
      "unidentified": ""
    },
    "tags": [
      "Combat"
    ],
    "actions": [],
    "uses": {
      "per": null,
      "value": 0,
      "maxFormula": "",
      "autoDeductChargesCost": "1"
    },
    "attackNotes": [],
    "effectNotes": [],
    "changes": [],
    "changeFlags": {
      "loseDexToAC": false,
      "noEncumbrance": false,
      "mediumArmorFullSpeed": false,
      "heavyArmorFullSpeed": false
    },
    "contextNotes": [],
    "links": {
      "children": [],
      "charges": []
    },
    "tag": "",
    "useCustomTag": false,
    "armorProf": {
      "value": [],
      "custom": ""
    },
    "weaponProf": {
      "value": [],
      "custom": ""
    },
    "languages": {
      "value": [],
      "custom": ""
    },
    "flags": {
      "boolean": {},
      "dictionary": {}
    },
    "scriptCalls": [],
    "subType": "feat",
    "associations": {
      "classes": []
    },
    "showInQuickbar": false,
    "abilityType": "none",
    "crOffset": "",
    "disabled": false,
    "classSkills": {}
  },
  "ownership": {
    "default": 0
  },
  "_stats": {
    "systemId": "pf1",
    "systemVersion": "9.1",
    "coreVersion": "10.291",
    "createdTime": 1665428353182,
    "modifiedTime": 1689797883400,
    "lastModifiedBy": "ppv91YxratjWnkJi"
  },
  "effects": [],
  "folder": null,
  "sort": 0,
  "flags": {},
  "_key": "!items!Ho3qCFTSlVcQrUo7"
}