{
  "_id": "UWT6VpFfpA44LaPp",
  "name": "Pummeling Charge",
  "type": "feat",
  "img": "icons/equipment/hand/gauntlet-tooled-leather-brown.webp",
  "system": {
    "description": {
      "value": "<em>Your charge ends with a mighty haymaker.</em><br/><br/><b>Prerequisites</b><br/>Improved Unarmed Strike, Pummeling Style; base attack bonus +12, brawler level 8th, or monk level 8th.<br/><br/><b>Benefits</b><br/>You can charge and make a full attack or flurry of blows at the end of your charge as part of the charge action. You can use Pummeling Charge in this way only if all of your attacks qualify for using Pummeling Style against a single target.<br/><br/><b>Normal</b><br/>You cannot make a full attack on a charge.<br/><br/><b>Combat Trick</b><br/>When you make a Pummeling Charge attack, you can spend 5 stamina points to make a single extra attack at your highest bonus.",
      "unidentified": ""
    },
    "tags": [
      "PFS",
      "Combat"
    ],
    "actions": [],
    "uses": {
      "per": null,
      "value": 0,
      "maxFormula": "",
      "autoDeductChargesCost": "1"
    },
    "attackNotes": [],
    "effectNotes": [],
    "changes": [],
    "changeFlags": {
      "loseDexToAC": false,
      "noEncumbrance": false,
      "mediumArmorFullSpeed": false,
      "heavyArmorFullSpeed": false
    },
    "contextNotes": [],
    "links": {
      "children": [],
      "charges": []
    },
    "tag": "",
    "useCustomTag": false,
    "armorProf": {
      "value": [],
      "custom": ""
    },
    "weaponProf": {
      "value": [],
      "custom": ""
    },
    "languages": {
      "value": [],
      "custom": ""
    },
    "flags": {
      "boolean": {},
      "dictionary": {}
    },
    "scriptCalls": [],
    "subType": "feat",
    "associations": {
      "classes": []
    },
    "showInQuickbar": false,
    "abilityType": "none",
    "crOffset": "",
    "disabled": false,
    "classSkills": {}
  },
  "ownership": {
    "default": 0
  },
  "_stats": {
    "systemId": "pf1",
    "systemVersion": "9.1",
    "coreVersion": "10.291",
    "createdTime": 1665428354920,
    "modifiedTime": 1689797889768,
    "lastModifiedBy": "ppv91YxratjWnkJi"
  },
  "effects": [],
  "folder": null,
  "sort": 0,
  "flags": {},
  "_key": "!items!UWT6VpFfpA44LaPp"
}