{
  "_id": "Odt1vVm7y3bc9CTn",
  "name": "Quah Bond",
  "type": "feat",
  "img": "icons/commodities/treasure/wood-tiki.webp",
  "system": {
    "description": {
      "value": "<em>Your bond with your totem spirit increases around others of the same quah.</em><br/><br/><b>Prerequisites</b><br/>Totem Spirit (The Inner Sea World Guide 289), human (Shoanti).<br/><br/><b>Benefits</b><br/>If at least one Shoanti ally from the same quah who also has this feat is within 30 feet, double your benefits from the Totem Spirit feat.",
      "unidentified": ""
    },
    "tags": [
      "PFS",
      "Teamwork",
      "Racial",
      "Human"
    ],
    "actions": [],
    "uses": {
      "per": null,
      "value": 0,
      "maxFormula": "",
      "autoDeductChargesCost": "1"
    },
    "attackNotes": [],
    "effectNotes": [],
    "changes": [],
    "changeFlags": {
      "loseDexToAC": false,
      "noEncumbrance": false,
      "mediumArmorFullSpeed": false,
      "heavyArmorFullSpeed": false
    },
    "contextNotes": [],
    "links": {
      "children": [],
      "charges": []
    },
    "tag": "",
    "useCustomTag": false,
    "armorProf": {
      "value": [],
      "custom": ""
    },
    "weaponProf": {
      "value": [],
      "custom": ""
    },
    "languages": {
      "value": [],
      "custom": ""
    },
    "flags": {
      "boolean": {},
      "dictionary": {}
    },
    "scriptCalls": [],
    "subType": "feat",
    "associations": {
      "classes": []
    },
    "showInQuickbar": false,
    "abilityType": "none",
    "crOffset": "",
    "disabled": false,
    "classSkills": {}
  },
  "ownership": {
    "default": 0
  },
  "_stats": {
    "systemId": "pf1",
    "systemVersion": "9.1",
    "coreVersion": "10.291",
    "createdTime": 1665428353967,
    "modifiedTime": 1689797886348,
    "lastModifiedBy": "ppv91YxratjWnkJi"
  },
  "effects": [],
  "folder": null,
  "sort": 0,
  "flags": {},
  "_key": "!items!Odt1vVm7y3bc9CTn"
}