{
  "_id": "IIeQwijpoEPptZ8V",
  "name": "Quick Preparation",
  "type": "feat",
  "img": "systems/pf1/icons/skills/mech_12.jpg",
  "system": {
    "description": {
      "value": "<em>Early on in your adventuring career, you learned (perhaps the hard way) how to prepare your spells even when put under extreme time constraints.</em><br/><br/><b>Prerequisites</b><br/>Ability to prepare spells.<br/><br/><b>Benefits</b><br/>When preparing spells, you halve the time necessary to do so.<br/><br/><b>Normal</b><br/>Preparing all of your spells takes 1 hour.",
      "unidentified": ""
    },
    "tags": [
      "PFS",
      "General"
    ],
    "actions": [],
    "uses": {
      "per": null,
      "value": 0,
      "maxFormula": "",
      "autoDeductChargesCost": "1"
    },
    "attackNotes": [],
    "effectNotes": [],
    "changes": [],
    "changeFlags": {
      "loseDexToAC": false,
      "noEncumbrance": false,
      "mediumArmorFullSpeed": false,
      "heavyArmorFullSpeed": false
    },
    "contextNotes": [],
    "links": {
      "children": [],
      "charges": []
    },
    "tag": "",
    "useCustomTag": false,
    "armorProf": {
      "value": [],
      "custom": ""
    },
    "weaponProf": {
      "value": [],
      "custom": ""
    },
    "languages": {
      "value": [],
      "custom": ""
    },
    "flags": {
      "boolean": {},
      "dictionary": {}
    },
    "scriptCalls": [],
    "subType": "feat",
    "associations": {
      "classes": []
    },
    "showInQuickbar": false,
    "abilityType": "none",
    "crOffset": "",
    "disabled": false,
    "classSkills": {}
  },
  "ownership": {
    "default": 0
  },
  "_stats": {
    "systemId": "pf1",
    "systemVersion": "9.1",
    "coreVersion": "10.291",
    "createdTime": 1665428353229,
    "modifiedTime": 1689797883618,
    "lastModifiedBy": "ppv91YxratjWnkJi"
  },
  "effects": [],
  "folder": null,
  "sort": 0,
  "flags": {},
  "_key": "!items!IIeQwijpoEPptZ8V"
}