{
  "_id": "9ia6J9PPb4N0OpCf",
  "name": "Raging Absorption",
  "type": "feat",
  "img": "systems/pf1/icons/skills/yellow_07.jpg",
  "system": {
    "description": {
      "value": "<em>You can absorb hostile spell energy to refuel your continued bloodrage.</em><br/><br/><b>Prerequisites</b><br/>Ability to cast 2nd-level bloodrager spells, bloodrage class feature.<br/><br/><b>Benefits</b><br/>While you are bloodraging, if you successfully save against a damaging arcane spell that either targets you or includes you in its area, and you take no damage from that spell, you can absorb a portion of its arcane energy to replenish your bloodrage. You regain 1 round of bloodrage for every 2 levels of the spell you successfully saved against. You cannot use this feat to regain more rounds of bloodrage each day than your daily maximum number of rounds, nor can you ever exceed your maximum number of rounds.",
      "unidentified": ""
    },
    "tags": [
      "PFS",
      "General"
    ],
    "actions": [],
    "uses": {
      "per": null,
      "value": 0,
      "maxFormula": "",
      "autoDeductChargesCost": "1"
    },
    "attackNotes": [],
    "effectNotes": [],
    "changes": [],
    "changeFlags": {
      "loseDexToAC": false,
      "noEncumbrance": false,
      "mediumArmorFullSpeed": false,
      "heavyArmorFullSpeed": false
    },
    "contextNotes": [],
    "links": {
      "children": [],
      "charges": []
    },
    "tag": "",
    "useCustomTag": false,
    "armorProf": {
      "value": [],
      "custom": ""
    },
    "weaponProf": {
      "value": [],
      "custom": ""
    },
    "languages": {
      "value": [],
      "custom": ""
    },
    "flags": {
      "boolean": {},
      "dictionary": {}
    },
    "scriptCalls": [],
    "subType": "feat",
    "associations": {
      "classes": []
    },
    "showInQuickbar": false,
    "abilityType": "none",
    "crOffset": "",
    "disabled": false,
    "classSkills": {}
  },
  "ownership": {
    "default": 0
  },
  "_stats": {
    "systemId": "pf1",
    "systemVersion": "9.1",
    "coreVersion": "10.291",
    "createdTime": 1665428351918,
    "modifiedTime": 1689797878369,
    "lastModifiedBy": "ppv91YxratjWnkJi"
  },
  "effects": [],
  "folder": null,
  "sort": 0,
  "flags": {},
  "_key": "!items!9ia6J9PPb4N0OpCf"
}