{
  "_id": "5CPerb2O61apaICd",
  "name": "Ranged Disable",
  "type": "feat",
  "img": "systems/pf1/icons/skills/yellow_35.jpg",
  "system": {
    "description": {
      "value": "<em>You can disable devices with ranged weapons.</em><br/><br/><b>Prerequisites</b><br/>Far Shot, Point-Blank Shot, Weapon Focus, Disable Device 9 ranks.<br/><br/><b>Benefits</b><br/>As a full-round action, you can attempt a Disable Device check with a ranged weapon you have chosen with Weapon Focus. You can use this ability against only a simple device (one that would normally take a full-round action to disable), and you can't use it if the device has any cover or concealment. This use of the ranged weapon deals no damage to the device, but it allows you to attempt a Disable Device check instead. You treat the ranged attack as if you were using tools inappropriate for the job, taking a -4 penalty on your Disable Device check. You also apply any range penalty for the weapon to the Disable Device check, but you do not gain any bonuses that would normally apply on attack rolls on the Disable Device check.",
      "unidentified": ""
    },
    "tags": [
      "PFS",
      "General"
    ],
    "actions": [],
    "uses": {
      "per": null,
      "value": 0,
      "maxFormula": "",
      "autoDeductChargesCost": "1"
    },
    "attackNotes": [],
    "effectNotes": [],
    "changes": [],
    "changeFlags": {
      "loseDexToAC": false,
      "noEncumbrance": false,
      "mediumArmorFullSpeed": false,
      "heavyArmorFullSpeed": false
    },
    "contextNotes": [],
    "links": {
      "children": [],
      "charges": []
    },
    "tag": "",
    "useCustomTag": false,
    "armorProf": {
      "value": [],
      "custom": ""
    },
    "weaponProf": {
      "value": [],
      "custom": ""
    },
    "languages": {
      "value": [],
      "custom": ""
    },
    "flags": {
      "boolean": {},
      "dictionary": {}
    },
    "scriptCalls": [],
    "subType": "feat",
    "associations": {
      "classes": []
    },
    "showInQuickbar": false,
    "abilityType": "none",
    "crOffset": "",
    "disabled": false,
    "classSkills": {}
  },
  "ownership": {
    "default": 0
  },
  "_stats": {
    "systemId": "pf1",
    "systemVersion": "9.1",
    "coreVersion": "10.291",
    "createdTime": 1665428351227,
    "modifiedTime": 1689797876161,
    "lastModifiedBy": "ppv91YxratjWnkJi"
  },
  "effects": [],
  "folder": null,
  "sort": 0,
  "flags": {},
  "_key": "!items!5CPerb2O61apaICd"
}