{
  "_id": "Z26FYJIfk3vVGrZf",
  "name": "Ranged Study",
  "type": "feat",
  "img": "systems/pf1/icons/feats/alertness.jpg",
  "system": {
    "description": {
      "value": "<em>You can use a limited form of studied combat and studied strike with a weapon of your choice.</em><br/><br/><b>Prerequisites</b><br/>Weapon Focus with the chosen weapon, studied combat class feature.<br/><br/><b>Benefits</b><br/>Choose one kind of ranged weapon. You gain the bonuses for studied combat with your chosen weapon and can use studied strike with your chosen weapon as long as the target of your studied strike is within 30 feet of you.<br/><br/><b>Normal</b><br/>You gain the bonuses for studied combat and can use studied strike only with melee weapons.",
      "unidentified": ""
    },
    "tags": [
      "PFS",
      "General"
    ],
    "actions": [],
    "uses": {
      "per": null,
      "value": 0,
      "maxFormula": "",
      "autoDeductChargesCost": "1"
    },
    "attackNotes": [],
    "effectNotes": [],
    "changes": [],
    "changeFlags": {
      "loseDexToAC": false,
      "noEncumbrance": false,
      "mediumArmorFullSpeed": false,
      "heavyArmorFullSpeed": false
    },
    "contextNotes": [],
    "links": {
      "children": [],
      "charges": []
    },
    "tag": "",
    "useCustomTag": false,
    "armorProf": {
      "value": [],
      "custom": ""
    },
    "weaponProf": {
      "value": [],
      "custom": ""
    },
    "languages": {
      "value": [],
      "custom": ""
    },
    "flags": {
      "boolean": {},
      "dictionary": {}
    },
    "scriptCalls": [],
    "subType": "feat",
    "associations": {
      "classes": []
    },
    "showInQuickbar": false,
    "abilityType": "none",
    "crOffset": "",
    "disabled": false,
    "classSkills": {}
  },
  "ownership": {
    "default": 0
  },
  "_stats": {
    "systemId": "pf1",
    "systemVersion": "9.1",
    "coreVersion": "10.291",
    "createdTime": 1665428355492,
    "modifiedTime": 1689797892160,
    "lastModifiedBy": "ppv91YxratjWnkJi"
  },
  "effects": [],
  "folder": null,
  "sort": 0,
  "flags": {},
  "_key": "!items!Z26FYJIfk3vVGrZf"
}