{
  "_id": "UjQJluQY1fybC6Ah",
  "name": "Reactive Healing",
  "type": "feat",
  "img": "systems/pf1/icons/spells/heal-sky-2.jpg",
  "system": {
    "description": {
      "value": "<em>You can channel healing energy in response to an attack that would knock you unconscious.</em><br/><br/><b>Prerequisites</b><br/>Quick Channel or Quicken Spell; channel energy or lay on hands class feature.<br/><br/><b>Benefits</b><br/>When the damage from an attack or an effect would reduce you to 0 or fewer hit points, you can expend one use of channel energy (of a form that would heal you) or lay on hands as an immediate action to heal yourself. The healing affects only you, even if it would normally affect others.",
      "unidentified": ""
    },
    "tags": [
      "PFS",
      "General"
    ],
    "actions": [],
    "uses": {
      "per": null,
      "value": 0,
      "maxFormula": "",
      "autoDeductChargesCost": "1"
    },
    "attackNotes": [],
    "effectNotes": [],
    "changes": [],
    "changeFlags": {
      "loseDexToAC": false,
      "noEncumbrance": false,
      "mediumArmorFullSpeed": false,
      "heavyArmorFullSpeed": false
    },
    "contextNotes": [],
    "links": {
      "children": [],
      "charges": []
    },
    "tag": "",
    "useCustomTag": false,
    "armorProf": {
      "value": [],
      "custom": ""
    },
    "weaponProf": {
      "value": [],
      "custom": ""
    },
    "languages": {
      "value": [],
      "custom": ""
    },
    "flags": {
      "boolean": {},
      "dictionary": {}
    },
    "scriptCalls": [],
    "subType": "feat",
    "associations": {
      "classes": []
    },
    "showInQuickbar": false,
    "abilityType": "none",
    "crOffset": "",
    "disabled": false,
    "classSkills": {}
  },
  "ownership": {
    "default": 0
  },
  "_stats": {
    "systemId": "pf1",
    "systemVersion": "9.1",
    "coreVersion": "10.291",
    "createdTime": 1665428354933,
    "modifiedTime": 1689797889852,
    "lastModifiedBy": "ppv91YxratjWnkJi"
  },
  "effects": [],
  "folder": null,
  "sort": 0,
  "flags": {},
  "_key": "!items!UjQJluQY1fybC6Ah"
}