{
  "_id": "SAIqxzRCbo6bCNYH",
  "name": "Reactive Arcane Shield",
  "type": "feat",
  "img": "systems/pf1/icons/spells/protect-blue-2.jpg",
  "system": {
    "description": {
      "value": "<em>Your arcane shield responds to threats even if you're caught off guard.</em><br/><br/><b>Prerequisites</b><br/>Arcane Shield, arcane spellcaster, caster level 12th.<br/><br/><b>Benefits</b><br/>If you are aware of an attack against you that has already been declared and you choose to use the Arcane Shield feat, the immediate action to activate the feat occurs before the attack roll against you is resolved. In addition, all adjacent allies also gain the feat's deflection bonus to AC for 1 round.",
      "unidentified": ""
    },
    "tags": [
      "PFS",
      "General"
    ],
    "actions": [],
    "uses": {
      "per": null,
      "value": 0,
      "maxFormula": "",
      "autoDeductChargesCost": "1"
    },
    "attackNotes": [],
    "effectNotes": [],
    "changes": [],
    "changeFlags": {
      "loseDexToAC": false,
      "noEncumbrance": false,
      "mediumArmorFullSpeed": false,
      "heavyArmorFullSpeed": false
    },
    "contextNotes": [],
    "links": {
      "children": [],
      "charges": []
    },
    "tag": "",
    "useCustomTag": false,
    "armorProf": {
      "value": [],
      "custom": ""
    },
    "weaponProf": {
      "value": [],
      "custom": ""
    },
    "languages": {
      "value": [],
      "custom": ""
    },
    "flags": {
      "boolean": {},
      "dictionary": {}
    },
    "scriptCalls": [],
    "subType": "feat",
    "associations": {
      "classes": []
    },
    "showInQuickbar": false,
    "abilityType": "none",
    "crOffset": "",
    "disabled": false,
    "classSkills": {}
  },
  "ownership": {
    "default": 0
  },
  "_stats": {
    "systemId": "pf1",
    "systemVersion": "9.1",
    "coreVersion": "10.291",
    "createdTime": 1665428354495,
    "modifiedTime": 1689797887982,
    "lastModifiedBy": "ppv91YxratjWnkJi"
  },
  "effects": [],
  "folder": null,
  "sort": 0,
  "flags": {},
  "_key": "!items!SAIqxzRCbo6bCNYH"
}