{
  "_id": "5F9encJNNF4CClv5",
  "name": "Reckless Aim",
  "type": "feat",
  "img": "systems/pf1/icons/skills/arrow_04.jpg",
  "system": {
    "description": {
      "value": "<em>Your lack of regard for others proves a boon when you fire projectiles into melee.</em><br/><br/><b>Prerequisites</b><br/>Point-Blank Shot, Precise Shot.<br/><br/><b>Benefits</b><br/>When you shoot or throw ranged weapons at an opponent engaged in melee, you can choose to take a -1 penalty to your AC and gain a +2 competence bonus on your attack roll. However, when you roll a natural 1 on a ranged attack roll made with this bonus, you automatically hit a random adjacent creature that threatens your intended target.",
      "unidentified": ""
    },
    "tags": [
      "PFS",
      "Combat"
    ],
    "actions": [],
    "uses": {
      "per": null,
      "value": 0,
      "maxFormula": "",
      "autoDeductChargesCost": "1"
    },
    "attackNotes": [],
    "effectNotes": [],
    "changes": [],
    "changeFlags": {
      "loseDexToAC": false,
      "noEncumbrance": false,
      "mediumArmorFullSpeed": false,
      "heavyArmorFullSpeed": false
    },
    "contextNotes": [],
    "links": {
      "children": [],
      "charges": []
    },
    "tag": "",
    "useCustomTag": false,
    "armorProf": {
      "value": [],
      "custom": ""
    },
    "weaponProf": {
      "value": [],
      "custom": ""
    },
    "languages": {
      "value": [],
      "custom": ""
    },
    "flags": {
      "boolean": {},
      "dictionary": {}
    },
    "scriptCalls": [],
    "subType": "feat",
    "associations": {
      "classes": []
    },
    "showInQuickbar": false,
    "abilityType": "none",
    "crOffset": "",
    "disabled": false,
    "classSkills": {}
  },
  "ownership": {
    "default": 0
  },
  "_stats": {
    "systemId": "pf1",
    "systemVersion": "9.1",
    "coreVersion": "10.291",
    "createdTime": 1665428351229,
    "modifiedTime": 1689797876176,
    "lastModifiedBy": "ppv91YxratjWnkJi"
  },
  "effects": [],
  "folder": null,
  "sort": 0,
  "flags": {},
  "_key": "!items!5F9encJNNF4CClv5"
}