{
  "_id": "XQiN0qoQXnqTZucA",
  "name": "Reflexive Trick",
  "type": "feat",
  "img": "systems/pf1/icons/skills/violet_03.jpg",
  "system": {
    "description": {
      "value": "<em>You are able to implant tricks in yourself in the blink of an eye.</em><br/><br/><b>Prerequisites</b><br/>Mesmerist tricks class feature.<br/><br/><b>Benefits</b><br/>Whenever the triggering condition for one mesmerist trick that you have not implanted in yourself occurs, you can implant that trick in yourself as an immediate action. You can then immediately trigger the mesmerist trick as if it were implanted in you when the triggering condition occurred. You can't use this ability if you have already implanted the maximum number of mesmerist tricks in yourself.",
      "unidentified": ""
    },
    "tags": [
      "PFS",
      "Trick"
    ],
    "actions": [],
    "uses": {
      "per": null,
      "value": 0,
      "maxFormula": "",
      "autoDeductChargesCost": "1"
    },
    "attackNotes": [],
    "effectNotes": [],
    "changes": [],
    "changeFlags": {
      "loseDexToAC": false,
      "noEncumbrance": false,
      "mediumArmorFullSpeed": false,
      "heavyArmorFullSpeed": false
    },
    "contextNotes": [],
    "links": {
      "children": [],
      "charges": []
    },
    "tag": "",
    "useCustomTag": false,
    "armorProf": {
      "value": [],
      "custom": ""
    },
    "weaponProf": {
      "value": [],
      "custom": ""
    },
    "languages": {
      "value": [],
      "custom": ""
    },
    "flags": {
      "boolean": {},
      "dictionary": {}
    },
    "scriptCalls": [],
    "subType": "feat",
    "associations": {
      "classes": []
    },
    "showInQuickbar": false,
    "abilityType": "none",
    "crOffset": "",
    "disabled": false,
    "classSkills": {}
  },
  "ownership": {
    "default": 0
  },
  "_stats": {
    "systemId": "pf1",
    "systemVersion": "9.1",
    "coreVersion": "10.291",
    "createdTime": 1665428355105,
    "modifiedTime": 1689797890778,
    "lastModifiedBy": "ppv91YxratjWnkJi"
  },
  "effects": [],
  "folder": null,
  "sort": 0,
  "flags": {},
  "_key": "!items!XQiN0qoQXnqTZucA"
}