{
  "_id": "pYvqygXcQKewjfle",
  "name": "Relentless Shot",
  "type": "feat",
  "img": "systems/pf1/icons/skills/red_11.jpg",
  "system": {
    "description": {
      "value": "<em>You keep your aim steady on a downed foe.</em><br/><br/><b>Prerequisites</b><br/>Point-Blank Shot, base attack bonus +6.<br/><br/><b>Benefits</b><br/>When you successfully trip an opponent within 30 feet with a ranged attack, you threaten that opponent until your next turn. You can make attacks of opportunity against that opponent with ranged weapons. This effect ends if you attack another target or the opponent moves from its current square.<br/><br/><b>Normal</b><br/>While wielding a ranged weapon, you threaten no squares and cannot make attacks of opportunity with that weapon.",
      "unidentified": ""
    },
    "tags": [
      "PFS",
      "Combat"
    ],
    "actions": [],
    "uses": {
      "per": null,
      "value": 0,
      "maxFormula": "",
      "autoDeductChargesCost": "1"
    },
    "attackNotes": [],
    "effectNotes": [],
    "changes": [],
    "changeFlags": {
      "loseDexToAC": false,
      "noEncumbrance": false,
      "mediumArmorFullSpeed": false,
      "heavyArmorFullSpeed": false
    },
    "contextNotes": [],
    "links": {
      "children": [],
      "charges": []
    },
    "tag": "",
    "useCustomTag": false,
    "armorProf": {
      "value": [],
      "custom": ""
    },
    "weaponProf": {
      "value": [],
      "custom": ""
    },
    "languages": {
      "value": [],
      "custom": ""
    },
    "flags": {
      "boolean": {},
      "dictionary": {}
    },
    "scriptCalls": [],
    "subType": "feat",
    "associations": {
      "classes": []
    },
    "showInQuickbar": false,
    "abilityType": "none",
    "crOffset": "",
    "disabled": false,
    "classSkills": {}
  },
  "ownership": {
    "default": 0
  },
  "_stats": {
    "systemId": "pf1",
    "systemVersion": "9.1",
    "coreVersion": "10.291",
    "createdTime": 1665428357989,
    "modifiedTime": 1689797900541,
    "lastModifiedBy": "ppv91YxratjWnkJi"
  },
  "effects": [],
  "folder": null,
  "sort": 0,
  "flags": {},
  "_key": "!items!pYvqygXcQKewjfle"
}