{
  "_id": "7Sg4QAw5J3tpUJM3",
  "name": "Relentless Cheer",
  "type": "feat",
  "img": "systems/pf1/icons/races/halfling.png",
  "system": {
    "description": {
      "value": "<em>Your undying optimism keeps you and your companions going even when things get rough.</em><br/><br/><b>Prerequisites</b><br/>Halfling, fearless and halfling luck racial traits.<br/><br/><b>Benefits</b><br/>Adjacent allies who also have this feat gain a +1 morale bonus on all saving throws. This bonus increases to +3 on saving throws against fear.",
      "unidentified": ""
    },
    "tags": [
      "PFS",
      "Teamwork",
      "Racial",
      "Halfling"
    ],
    "actions": [],
    "uses": {
      "per": null,
      "value": 0,
      "maxFormula": "",
      "autoDeductChargesCost": "1"
    },
    "attackNotes": [],
    "effectNotes": [],
    "changes": [],
    "changeFlags": {
      "loseDexToAC": false,
      "noEncumbrance": false,
      "mediumArmorFullSpeed": false,
      "heavyArmorFullSpeed": false
    },
    "contextNotes": [],
    "links": {
      "children": [],
      "charges": []
    },
    "tag": "",
    "useCustomTag": false,
    "armorProf": {
      "value": [],
      "custom": ""
    },
    "weaponProf": {
      "value": [],
      "custom": ""
    },
    "languages": {
      "value": [],
      "custom": ""
    },
    "flags": {
      "boolean": {},
      "dictionary": {}
    },
    "scriptCalls": [],
    "subType": "feat",
    "associations": {
      "classes": []
    },
    "showInQuickbar": false,
    "abilityType": "none",
    "crOffset": "",
    "disabled": false,
    "classSkills": {}
  },
  "ownership": {
    "default": 0
  },
  "_stats": {
    "systemId": "pf1",
    "systemVersion": "9.1",
    "coreVersion": "10.291",
    "createdTime": 1665428351473,
    "modifiedTime": 1689797877003,
    "lastModifiedBy": "ppv91YxratjWnkJi"
  },
  "effects": [],
  "folder": null,
  "sort": 0,
  "flags": {},
  "_key": "!items!7Sg4QAw5J3tpUJM3"
}