{
  "_id": "i3FmqrpdM5obdffn",
  "name": "Resilient Brute",
  "type": "feat",
  "img": "systems/pf1/icons/races/orc.png",
  "system": {
    "description": {
      "value": "<em>You absorb punishment others find deadly.</em><br/><br/><b>Prerequisites</b><br/>Half-orc or orc.<br/><br/><b>Benefits</b><br/>Once per day, when a creature confirms a critical hit against you, you may treat half the damage as nonlethal damage. You cannot use this ability if you are immune to nonlethal damage. When your base attack bonus reaches +10, you may use this ability an additional time per day.",
      "unidentified": ""
    },
    "tags": [
      "PFS",
      "Racial",
      "Half-orc",
      "Orc"
    ],
    "actions": [],
    "uses": {
      "per": null,
      "value": 0,
      "maxFormula": "",
      "autoDeductChargesCost": "1"
    },
    "attackNotes": [],
    "effectNotes": [],
    "changes": [],
    "changeFlags": {
      "loseDexToAC": false,
      "noEncumbrance": false,
      "mediumArmorFullSpeed": false,
      "heavyArmorFullSpeed": false
    },
    "contextNotes": [],
    "links": {
      "children": [],
      "charges": []
    },
    "tag": "",
    "useCustomTag": false,
    "armorProf": {
      "value": [],
      "custom": ""
    },
    "weaponProf": {
      "value": [],
      "custom": ""
    },
    "languages": {
      "value": [],
      "custom": ""
    },
    "flags": {
      "boolean": {},
      "dictionary": {}
    },
    "scriptCalls": [],
    "subType": "feat",
    "associations": {
      "classes": []
    },
    "showInQuickbar": false,
    "abilityType": "none",
    "crOffset": "",
    "disabled": false,
    "classSkills": {}
  },
  "ownership": {
    "default": 0
  },
  "_stats": {
    "systemId": "pf1",
    "systemVersion": "9.1",
    "coreVersion": "10.291",
    "createdTime": 1665428356760,
    "modifiedTime": 1689797896528,
    "lastModifiedBy": "ppv91YxratjWnkJi"
  },
  "effects": [],
  "folder": null,
  "sort": 0,
  "flags": {},
  "_key": "!items!i3FmqrpdM5obdffn"
}