{
  "_id": "wSrzbSYqG9dqGriO",
  "name": "Resilient Armor",
  "type": "feat",
  "img": "icons/equipment/chest/breastplate-collared-steel.webp",
  "system": {
    "description": {
      "value": "<em>When you enhance your armor or shield, you gain a measure of damage reduction.</em><br/><br/><b>Prerequisites</b><br/>Divine bond (armor or shield), or sacred armor class feature.<br/><br/><b>Benefits</b><br/>While your armor or shield is under the effect of your divine bond or your sacred armor ability, you gain an amount of damage reduction equal to your armor's enhancement bonus (including the bonus from your divine bond or sacred armor) against the first attack to strike you in each round. An adamantine weapon overcomes this damage reduction, but any attack against you made with such a weapon does not count against this effect's duration.",
      "unidentified": ""
    },
    "tags": [
      "PFS",
      "General"
    ],
    "actions": [],
    "uses": {
      "per": null,
      "value": 0,
      "maxFormula": "",
      "autoDeductChargesCost": "1"
    },
    "attackNotes": [],
    "effectNotes": [],
    "changes": [],
    "changeFlags": {
      "loseDexToAC": false,
      "noEncumbrance": false,
      "mediumArmorFullSpeed": false,
      "heavyArmorFullSpeed": false
    },
    "contextNotes": [],
    "links": {
      "children": [],
      "charges": []
    },
    "tag": "",
    "useCustomTag": false,
    "armorProf": {
      "value": [],
      "custom": ""
    },
    "weaponProf": {
      "value": [],
      "custom": ""
    },
    "languages": {
      "value": [],
      "custom": ""
    },
    "flags": {
      "boolean": {},
      "dictionary": {}
    },
    "scriptCalls": [],
    "subType": "feat",
    "associations": {
      "classes": []
    },
    "showInQuickbar": false,
    "abilityType": "none",
    "crOffset": "",
    "disabled": false,
    "classSkills": {}
  },
  "ownership": {
    "default": 0
  },
  "_stats": {
    "systemId": "pf1",
    "systemVersion": "9.1",
    "coreVersion": "10.291",
    "createdTime": 1665428358823,
    "modifiedTime": 1689797903433,
    "lastModifiedBy": "ppv91YxratjWnkJi"
  },
  "effects": [],
  "folder": null,
  "sort": 0,
  "flags": {},
  "_key": "!items!wSrzbSYqG9dqGriO"
}