{
  "_id": "d44bbGm04nVoUtfX",
  "name": "Restoration Mastery",
  "type": "feat",
  "img": "systems/pf1/icons/spells/heal-jade-2.jpg",
  "system": {
    "description": {
      "value": "<p><em>You can heal more than just injuries of the flesh.</em><br /><br /><strong>Prerequisites</strong><br />Heal 5 ranks, Use Magic Device 5 ranks, base Fortitude saving throw bonus +3.<br /><br /><strong>Benefits</strong><br />You can cause an item that has a conjuration (healing) spell of 2nd level or higher listed in its construction requirements to cast lesser restoration. If you have 9 ranks in both Heal and Use Magic Device, you can instead cause an item that has a conjuration (healing) spell of 3rd level or higher listed in its construction requirements to cast either remove blindness/deafness or remove paralysis. You can use this feat once per day, plus an additional time per day when your base Fortitude save bonus reaches +9 and +12.</p>\n<p><br /><strong>Pathfinder Society<br /></strong>When qualifying for and calculating the benefits of an item mastery feat, a PC uses the base Fortitude save bonus from only one of his classes.</p>",
      "unidentified": ""
    },
    "tags": [
      "PFS",
      "Item Mastery"
    ],
    "actions": [],
    "uses": {
      "per": null,
      "value": 0,
      "maxFormula": "",
      "autoDeductChargesCost": "1"
    },
    "attackNotes": [],
    "effectNotes": [],
    "changes": [],
    "changeFlags": {
      "loseDexToAC": false,
      "noEncumbrance": false,
      "mediumArmorFullSpeed": false,
      "heavyArmorFullSpeed": false
    },
    "contextNotes": [],
    "links": {
      "children": [],
      "charges": []
    },
    "tag": "",
    "useCustomTag": false,
    "armorProf": {
      "value": [],
      "custom": ""
    },
    "weaponProf": {
      "value": [],
      "custom": ""
    },
    "languages": {
      "value": [],
      "custom": ""
    },
    "flags": {
      "boolean": {},
      "dictionary": {}
    },
    "scriptCalls": [],
    "subType": "feat",
    "associations": {
      "classes": []
    },
    "showInQuickbar": false,
    "abilityType": "none",
    "crOffset": "",
    "disabled": false,
    "classSkills": {}
  },
  "ownership": {
    "default": 0
  },
  "_stats": {
    "systemId": "pf1",
    "systemVersion": "9.1",
    "coreVersion": "10.291",
    "createdTime": 1665428356063,
    "modifiedTime": 1689797894032,
    "lastModifiedBy": "ppv91YxratjWnkJi"
  },
  "effects": [],
  "folder": null,
  "sort": 0,
  "flags": {},
  "_key": "!items!d44bbGm04nVoUtfX"
}