{
  "_id": "aViBNvh5zQ6n4184",
  "name": "Retributive Summoning",
  "type": "feat",
  "img": "systems/pf1/icons/spells/air-burst-magenta-1.jpg",
  "system": {
    "description": {
      "value": "<p><em>Your training in counterspelling summons is so extensive that you can redirect some of your foes' power to call forth your own allies.</em><br /><br /></p>\n<p><strong>Prerequisites<br /></strong>Spell Focus (conjuration) or counter-summons class feature.</p>\n<p><strong>&nbsp;</strong></p>\n<p><strong>Benefit<br /></strong>When you successfully counter a summoning spell with dispel magic or your own summon monster spell, you can immediately summon nonevil creatures as if you had just finished casting a summon monster spell of 2 levels lower than the countered summoning spell.</p>",
      "unidentified": ""
    },
    "tags": [
      "PFS",
      "General"
    ],
    "actions": [],
    "uses": {
      "per": null,
      "value": 0,
      "maxFormula": "",
      "autoDeductChargesCost": "1"
    },
    "attackNotes": [],
    "effectNotes": [],
    "changes": [],
    "changeFlags": {
      "loseDexToAC": false,
      "noEncumbrance": false,
      "mediumArmorFullSpeed": false,
      "heavyArmorFullSpeed": false
    },
    "contextNotes": [],
    "links": {
      "children": [],
      "charges": []
    },
    "tag": "",
    "useCustomTag": false,
    "armorProf": {
      "value": [],
      "custom": ""
    },
    "weaponProf": {
      "value": [],
      "custom": ""
    },
    "languages": {
      "value": [],
      "custom": ""
    },
    "flags": {
      "boolean": {},
      "dictionary": {}
    },
    "scriptCalls": [],
    "subType": "feat",
    "associations": {
      "classes": []
    },
    "showInQuickbar": false,
    "abilityType": "none",
    "crOffset": "",
    "disabled": false,
    "classSkills": {}
  },
  "ownership": {
    "default": 0
  },
  "_stats": {
    "systemId": "pf1",
    "systemVersion": "9.1",
    "coreVersion": "10.291",
    "createdTime": 1665428355592,
    "modifiedTime": 1689797892659,
    "lastModifiedBy": "ppv91YxratjWnkJi"
  },
  "effects": [],
  "folder": null,
  "sort": 0,
  "flags": {},
  "_key": "!items!aViBNvh5zQ6n4184"
}