{
  "_id": "MubGcr7k3NPYjsCG",
  "name": "Revered Guidance",
  "type": "feat",
  "img": "systems/pf1/icons/races/aasimar.png",
  "system": {
    "description": {
      "value": "<em>You were selected by your celestial ancestor to be a guide for a chosen people, and serve as a beacon of hope in times of despair.</em><br/><br/><b>Prerequisites</b><br/>Aasimar, must be taken at 1st level.<br/><br/><b>Benefits</b><br/>Select one of the following creature subtypes: dwarf, elf, gnome, halfling, human, or orc. You gain a +4 racial bonus on Diplomacy checks made to influence creatures of the selected subtype.",
      "unidentified": ""
    },
    "tags": [
      "PFS",
      "Racial",
      "Aasimar"
    ],
    "actions": [],
    "uses": {
      "per": null,
      "value": 0,
      "maxFormula": "",
      "autoDeductChargesCost": "1"
    },
    "attackNotes": [],
    "effectNotes": [],
    "changes": [],
    "changeFlags": {
      "loseDexToAC": false,
      "noEncumbrance": false,
      "mediumArmorFullSpeed": false,
      "heavyArmorFullSpeed": false
    },
    "contextNotes": [],
    "links": {
      "children": [],
      "charges": []
    },
    "tag": "",
    "useCustomTag": false,
    "armorProf": {
      "value": [],
      "custom": ""
    },
    "weaponProf": {
      "value": [],
      "custom": ""
    },
    "languages": {
      "value": [],
      "custom": ""
    },
    "flags": {
      "boolean": {},
      "dictionary": {}
    },
    "scriptCalls": [],
    "subType": "feat",
    "associations": {
      "classes": []
    },
    "showInQuickbar": false,
    "abilityType": "none",
    "crOffset": "",
    "disabled": false,
    "classSkills": {}
  },
  "ownership": {
    "default": 0
  },
  "_stats": {
    "systemId": "pf1",
    "systemVersion": "9.1",
    "coreVersion": "10.291",
    "createdTime": 1665428353837,
    "modifiedTime": 1689797885669,
    "lastModifiedBy": "ppv91YxratjWnkJi"
  },
  "effects": [],
  "folder": null,
  "sort": 0,
  "flags": {},
  "_key": "!items!MubGcr7k3NPYjsCG"
}