{
  "_id": "9Ck7Q7cN4YHk5knc",
  "name": "Reviving Channel",
  "type": "feat",
  "img": "systems/pf1/icons/skills/light_03.jpg",
  "system": {
    "description": {
      "value": "<em>You can target an unconscious ally to gain additional benefit from your channeled energy.</em><br/><br/><b>Prerequisites</b><br/>Channel energy 3d6.<br/><br/><b>Benefits</b><br/>When you use channel energy, you can focus on one creature within range that would be healed by your channel energy whose hit points are below 0. When you do so, no other creatures are healed, but the target creature is restored to 0 hit points before the normal healing takes effect.",
      "unidentified": ""
    },
    "tags": [
      "PFS",
      "Channeling"
    ],
    "actions": [],
    "uses": {
      "per": null,
      "value": 0,
      "maxFormula": "",
      "autoDeductChargesCost": "1"
    },
    "attackNotes": [],
    "effectNotes": [],
    "changes": [],
    "changeFlags": {
      "loseDexToAC": false,
      "noEncumbrance": false,
      "mediumArmorFullSpeed": false,
      "heavyArmorFullSpeed": false
    },
    "contextNotes": [],
    "links": {
      "children": [],
      "charges": []
    },
    "tag": "",
    "useCustomTag": false,
    "armorProf": {
      "value": [],
      "custom": ""
    },
    "weaponProf": {
      "value": [],
      "custom": ""
    },
    "languages": {
      "value": [],
      "custom": ""
    },
    "flags": {
      "boolean": {},
      "dictionary": {}
    },
    "scriptCalls": [],
    "subType": "feat",
    "associations": {
      "classes": []
    },
    "showInQuickbar": false,
    "abilityType": "none",
    "crOffset": "",
    "disabled": false,
    "classSkills": {}
  },
  "ownership": {
    "default": 0
  },
  "_stats": {
    "systemId": "pf1",
    "systemVersion": "9.1",
    "coreVersion": "10.291",
    "createdTime": 1665428351893,
    "modifiedTime": 1689797878215,
    "lastModifiedBy": "ppv91YxratjWnkJi"
  },
  "effects": [],
  "folder": null,
  "sort": 0,
  "flags": {},
  "_key": "!items!9Ck7Q7cN4YHk5knc"
}