{
  "_id": "2F20dQAhkgBJdLO5",
  "name": "Reward of the Faithful",
  "type": "feat",
  "img": "systems/pf1/icons/skills/light_04.jpg",
  "system": {
    "description": {
      "value": "<em>Your intense belief in your deity allows you to benefit more from divine magic he or she provides.</em><br/><br/><b>Prerequisites</b><br/>Knowledge (religion) 1 rank, alignment must match that of your worshiped deity.<br/><br/><b>Benefits</b><br/>Whenever you are the only target of a divine spell cast by a follower of your chosen deity other than you, the spell's caster level is treated as though it were 2 higher than it actually is. Additionally, whenever you regain hit points as a result of a worshiper of your deity other than you channeling energy or casting a cure spell, you regain 1 additional hit point per die rolled for the healing gained.",
      "unidentified": ""
    },
    "tags": [
      "PFS",
      "General"
    ],
    "actions": [],
    "uses": {
      "per": null,
      "value": 0,
      "maxFormula": "",
      "autoDeductChargesCost": "1"
    },
    "attackNotes": [],
    "effectNotes": [],
    "changes": [],
    "changeFlags": {
      "loseDexToAC": false,
      "noEncumbrance": false,
      "mediumArmorFullSpeed": false,
      "heavyArmorFullSpeed": false
    },
    "contextNotes": [],
    "links": {
      "children": [],
      "charges": []
    },
    "tag": "",
    "useCustomTag": false,
    "armorProf": {
      "value": [],
      "custom": ""
    },
    "weaponProf": {
      "value": [],
      "custom": ""
    },
    "languages": {
      "value": [],
      "custom": ""
    },
    "flags": {
      "boolean": {},
      "dictionary": {}
    },
    "scriptCalls": [],
    "subType": "feat",
    "associations": {
      "classes": []
    },
    "showInQuickbar": false,
    "abilityType": "none",
    "crOffset": "",
    "disabled": false,
    "classSkills": {}
  },
  "ownership": {
    "default": 0
  },
  "_stats": {
    "systemId": "pf1",
    "systemVersion": "9.1",
    "coreVersion": "10.291",
    "createdTime": 1665428350735,
    "modifiedTime": 1689797874781,
    "lastModifiedBy": "ppv91YxratjWnkJi"
  },
  "effects": [],
  "folder": null,
  "sort": 0,
  "flags": {},
  "_key": "!items!2F20dQAhkgBJdLO5"
}