{
  "_id": "Lg4SYcikoMIzCS5S",
  "name": "Riptide Attack",
  "type": "feat",
  "img": "systems/pf1/icons/skills/blue_25.jpg",
  "system": {
    "description": {
      "value": "<em>You can immediately drag opponents you successfully trip.</em><br/><br/><b>Prerequisites</b><br/>Improved Drag, Improved Trip, worshiper of Gozreh.<br/><br/><b>Benefits</b><br/>Whenever you succeed at a trip combat maneuver, you can automatically attempt a drag combat maneuver against your tripped target as a swift action.<br/><br/><b>Combat Trick</b><br/>By spending 4 stamina points, you can attempt a drag combat maneuver check against any opponent that you successfully trip using Riptide Attack as a free action instead of a swift action.",
      "unidentified": ""
    },
    "tags": [
      "PFS",
      "Combat"
    ],
    "actions": [],
    "uses": {
      "per": null,
      "value": 0,
      "maxFormula": "",
      "autoDeductChargesCost": "1"
    },
    "attackNotes": [],
    "effectNotes": [],
    "changes": [],
    "changeFlags": {
      "loseDexToAC": false,
      "noEncumbrance": false,
      "mediumArmorFullSpeed": false,
      "heavyArmorFullSpeed": false
    },
    "contextNotes": [],
    "links": {
      "children": [],
      "charges": []
    },
    "tag": "",
    "useCustomTag": false,
    "armorProf": {
      "value": [],
      "custom": ""
    },
    "weaponProf": {
      "value": [],
      "custom": ""
    },
    "languages": {
      "value": [],
      "custom": ""
    },
    "flags": {
      "boolean": {},
      "dictionary": {}
    },
    "scriptCalls": [],
    "subType": "feat",
    "associations": {
      "classes": []
    },
    "showInQuickbar": false,
    "abilityType": "none",
    "crOffset": "",
    "disabled": false,
    "classSkills": {}
  },
  "ownership": {
    "default": 0
  },
  "_stats": {
    "systemId": "pf1",
    "systemVersion": "9.1",
    "coreVersion": "10.291",
    "createdTime": 1665428353759,
    "modifiedTime": 1689797885238,
    "lastModifiedBy": "ppv91YxratjWnkJi"
  },
  "effects": [],
  "folder": null,
  "sort": 0,
  "flags": {},
  "_key": "!items!Lg4SYcikoMIzCS5S"
}