{
  "_id": "9jrqbK4v19adzhg6",
  "name": "Rugged Northerner",
  "type": "feat",
  "img": "systems/pf1/icons/skills/blue_04.jpg",
  "system": {
    "description": {
      "value": "<em>You live a hard life in a cold climate, and after enduring the hardships of many brutal winters, you've gained some benefit from the frozen environs.</em><br/><br/><b>Prerequisites</b><br/>Con 13, Survival 1 rank.<br/><br/><b>Benefits</b><br/>You treat extreme cold conditions (Pathfinder RPG Core Rulebook 442) as severe cold, and severe cold as cold weather conditions. You are not impacted at all by normal cold weather conditions. In addition, you do not become fatigued by frostbite or hypothermia.<br/><br/><b>Special</b><br/>This feat is unaffiliated--a character need not be affiliated with the Mammoth Lords to select this feat.",
      "unidentified": ""
    },
    "tags": [
      "PFS",
      "General"
    ],
    "actions": [],
    "uses": {
      "per": null,
      "value": 0,
      "maxFormula": "",
      "autoDeductChargesCost": "1"
    },
    "attackNotes": [],
    "effectNotes": [],
    "changes": [],
    "changeFlags": {
      "loseDexToAC": false,
      "noEncumbrance": false,
      "mediumArmorFullSpeed": false,
      "heavyArmorFullSpeed": false
    },
    "contextNotes": [],
    "links": {
      "children": [],
      "charges": []
    },
    "tag": "",
    "useCustomTag": false,
    "armorProf": {
      "value": [],
      "custom": ""
    },
    "weaponProf": {
      "value": [],
      "custom": ""
    },
    "languages": {
      "value": [],
      "custom": ""
    },
    "flags": {
      "boolean": {},
      "dictionary": {}
    },
    "scriptCalls": [],
    "subType": "feat",
    "associations": {
      "classes": []
    },
    "showInQuickbar": false,
    "abilityType": "none",
    "crOffset": "",
    "disabled": false,
    "classSkills": {}
  },
  "ownership": {
    "default": 0
  },
  "_stats": {
    "systemId": "pf1",
    "systemVersion": "9.1",
    "coreVersion": "10.291",
    "createdTime": 1665428351921,
    "modifiedTime": 1689797878385,
    "lastModifiedBy": "ppv91YxratjWnkJi"
  },
  "effects": [],
  "folder": null,
  "sort": 0,
  "flags": {},
  "_key": "!items!9jrqbK4v19adzhg6"
}