{
  "_id": "FzaG7T6dKfpILikX",
  "name": "Sabotage Specialist",
  "type": "feat",
  "img": "systems/pf1/icons/skills/mech_10.jpg",
  "system": {
    "description": {
      "value": "<em>You have an amazing knack for sabotaging devices.</em><br/><br/><b>Prerequisites</b><br/>Deft Hands, Disable Device 5 ranks.<br/><br/><b>Benefits</b><br/>When you use the Disable Device skill to rig simple or tricky devices (such as a saddle or wagon wheel) to work normally for a while and then fail or fall off some time later, you can designate the time the device will fail, up to 60 minutes after you successfully sabotaged it. The device fails 1d6-3 rounds after the designated time (a result of -1 or -2 means it fails 1 round or 2 rounds before the designated time).<br/><br/><b>Normal</b><br/>You can use the Disable Device skill to rig simple devices such as saddles or wagon wheels to work normally for a while and then fail or fall off some time later (usually after 1d4 rounds or minutes of use).",
      "unidentified": ""
    },
    "tags": [
      "PFS",
      "General"
    ],
    "actions": [],
    "uses": {
      "per": null,
      "value": 0,
      "maxFormula": "",
      "autoDeductChargesCost": "1"
    },
    "attackNotes": [],
    "effectNotes": [],
    "changes": [],
    "changeFlags": {
      "loseDexToAC": false,
      "noEncumbrance": false,
      "mediumArmorFullSpeed": false,
      "heavyArmorFullSpeed": false
    },
    "contextNotes": [],
    "links": {
      "children": [],
      "charges": []
    },
    "tag": "",
    "useCustomTag": false,
    "armorProf": {
      "value": [],
      "custom": ""
    },
    "weaponProf": {
      "value": [],
      "custom": ""
    },
    "languages": {
      "value": [],
      "custom": ""
    },
    "flags": {
      "boolean": {},
      "dictionary": {}
    },
    "scriptCalls": [],
    "subType": "feat",
    "associations": {
      "classes": []
    },
    "showInQuickbar": false,
    "abilityType": "none",
    "crOffset": "",
    "disabled": false,
    "classSkills": {}
  },
  "ownership": {
    "default": 0
  },
  "_stats": {
    "systemId": "pf1",
    "systemVersion": "9.1",
    "coreVersion": "10.291",
    "createdTime": 1665428352698,
    "modifiedTime": 1689797882061,
    "lastModifiedBy": "ppv91YxratjWnkJi"
  },
  "effects": [],
  "folder": null,
  "sort": 0,
  "flags": {},
  "_key": "!items!FzaG7T6dKfpILikX"
}