{
  "_id": "U7KaJETQkZXLqIPy",
  "name": "Sacrificial Aid",
  "type": "feat",
  "img": "systems/pf1/icons/skills/blood_09.jpg",
  "system": {
    "description": {
      "value": "<em>You convince an ally to help you disable a trap, but the ally takes the damage if you fail.</em><br/><br/><b>Benefits</b><br/>When you attempt to disable a trap, an ally who also has this feat can bolster your efforts. The ally rolls 1d20 and adds either her total bonus on Disable Device checks or her character level, whichever is higher; if the result of the ally's roll is 10 or greater, you gain a +4 bonus on your Disable Device check. If you trigger the trap, your ally is the target of the trap's effects. In the case of a trap with multiple targets, your ally takes the effects both for herself and for you (potentially taking damage twice or attempting saving throws twice).<br/><br/><b>Normal</b><br/>You can use the aid another action only if you are able to attempt the skill check in question. The bonus provided is only +2.",
      "unidentified": ""
    },
    "tags": [
      "PFS",
      "Teamwork"
    ],
    "actions": [],
    "uses": {
      "per": null,
      "value": 0,
      "maxFormula": "",
      "autoDeductChargesCost": "1"
    },
    "attackNotes": [],
    "effectNotes": [],
    "changes": [],
    "changeFlags": {
      "loseDexToAC": false,
      "noEncumbrance": false,
      "mediumArmorFullSpeed": false,
      "heavyArmorFullSpeed": false
    },
    "contextNotes": [],
    "links": {
      "children": [],
      "charges": []
    },
    "tag": "",
    "useCustomTag": false,
    "armorProf": {
      "value": [],
      "custom": ""
    },
    "weaponProf": {
      "value": [],
      "custom": ""
    },
    "languages": {
      "value": [],
      "custom": ""
    },
    "flags": {
      "boolean": {},
      "dictionary": {}
    },
    "scriptCalls": [],
    "subType": "feat",
    "associations": {
      "classes": []
    },
    "showInQuickbar": false,
    "abilityType": "none",
    "crOffset": "",
    "disabled": false,
    "classSkills": {}
  },
  "ownership": {
    "default": 0
  },
  "_stats": {
    "systemId": "pf1",
    "systemVersion": "9.1",
    "coreVersion": "10.291",
    "createdTime": 1665428354609,
    "modifiedTime": 1689797889380,
    "lastModifiedBy": "ppv91YxratjWnkJi"
  },
  "effects": [],
  "folder": null,
  "sort": 0,
  "flags": {},
  "_key": "!items!U7KaJETQkZXLqIPy"
}