{
  "_id": "VKHR6zNIDzscc4gI",
  "name": "Sage's Guidance",
  "type": "feat",
  "img": "systems/pf1/icons/races/tengu.png",
  "system": {
    "description": {
      "value": "<em>Your familiar's keen observations help you defeat foes. Prerequisite: Must have a familiar with the sage archetype (see page 11).</em><br/><br/><b>Prerequisites</b><br/>Must have a familiar with the sage archetype (see page 11).<br/><br/><b>Benefits</b><br/>When your familiar succeeds at a Knowledge check to identify a hazard or an opponent's weaknesses and abilities, you gain a +2 insight bonus on attacks and skill checks against the opponent or hazard for 1 round. If your familiar is sharing a space with the opponent or hazard, this bonus is granted to all allies who can see and understand the familiar.",
      "unidentified": ""
    },
    "tags": [
      "PFS",
      "Familiar"
    ],
    "actions": [],
    "uses": {
      "per": null,
      "value": 0,
      "maxFormula": "",
      "autoDeductChargesCost": "1"
    },
    "attackNotes": [],
    "effectNotes": [],
    "changes": [],
    "changeFlags": {
      "loseDexToAC": false,
      "noEncumbrance": false,
      "mediumArmorFullSpeed": false,
      "heavyArmorFullSpeed": false
    },
    "contextNotes": [],
    "links": {
      "children": [],
      "charges": []
    },
    "tag": "",
    "useCustomTag": false,
    "armorProf": {
      "value": [],
      "custom": ""
    },
    "weaponProf": {
      "value": [],
      "custom": ""
    },
    "languages": {
      "value": [],
      "custom": ""
    },
    "flags": {
      "boolean": {},
      "dictionary": {}
    },
    "scriptCalls": [],
    "subType": "feat",
    "associations": {
      "classes": []
    },
    "showInQuickbar": false,
    "abilityType": "none",
    "crOffset": "",
    "disabled": false,
    "classSkills": {}
  },
  "ownership": {
    "default": 0
  },
  "_stats": {
    "systemId": "pf1",
    "systemVersion": "9.1",
    "coreVersion": "10.291",
    "createdTime": 1665428354969,
    "modifiedTime": 1689797890046,
    "lastModifiedBy": "ppv91YxratjWnkJi"
  },
  "effects": [],
  "folder": null,
  "sort": 0,
  "flags": {},
  "_key": "!items!VKHR6zNIDzscc4gI"
}