{
  "_id": "wWVDSJTMx1CqGUBW",
  "name": "Savage Slam",
  "type": "feat",
  "img": "systems/pf1/icons/skills/yellow_28.jpg",
  "system": {
    "description": {
      "value": "<em>Using your lock on the enemy's body, you forcefully hurl your opponent to the ground.</em><br/><br/><b>Prerequisites</b><br/>Improved Grapple, Improved Unarmed Strike, base attack bonus +3 or monk level 1st.<br/><br/><b>Benefits</b><br/>When you begin your turn grappling an opponent, instead of attempting a combat maneuver check to maintain the grapple, you can try to viciously slam your opponent down. As a standard action, you can attempt a grapple combat maneuver check against the opponent. If you succeed, you release your grapple and the opponent falls prone in an unoccupied square of your choice adjacent to you. If you attempt to throw your foe into a hazardous location, such as a wall of fire or a pit, the target receives a +4 bonus to its CMD against your attempt. As long as the opponent lands on solid ground or a solid object, it takes damage equal to your unarmed strike's damage.",
      "unidentified": ""
    },
    "tags": [
      "PFS",
      "Combat"
    ],
    "actions": [],
    "uses": {
      "per": null,
      "value": 0,
      "maxFormula": "",
      "autoDeductChargesCost": "1"
    },
    "attackNotes": [],
    "effectNotes": [],
    "changes": [],
    "changeFlags": {
      "loseDexToAC": false,
      "noEncumbrance": false,
      "mediumArmorFullSpeed": false,
      "heavyArmorFullSpeed": false
    },
    "contextNotes": [],
    "links": {
      "children": [],
      "charges": []
    },
    "tag": "",
    "useCustomTag": false,
    "armorProf": {
      "value": [],
      "custom": ""
    },
    "weaponProf": {
      "value": [],
      "custom": ""
    },
    "languages": {
      "value": [],
      "custom": ""
    },
    "flags": {
      "boolean": {},
      "dictionary": {}
    },
    "scriptCalls": [],
    "subType": "feat",
    "associations": {
      "classes": []
    },
    "showInQuickbar": false,
    "abilityType": "none",
    "crOffset": "",
    "disabled": false,
    "classSkills": {}
  },
  "ownership": {
    "default": 0
  },
  "_stats": {
    "systemId": "pf1",
    "systemVersion": "9.1",
    "coreVersion": "10.291",
    "createdTime": 1665428358827,
    "modifiedTime": 1689797903444,
    "lastModifiedBy": "ppv91YxratjWnkJi"
  },
  "effects": [],
  "folder": null,
  "sort": 0,
  "flags": {},
  "_key": "!items!wWVDSJTMx1CqGUBW"
}