{
  "_id": "MPlV331nGhmafqhw",
  "name": "Savage Leap",
  "type": "feat",
  "img": "systems/pf1/icons/skills/yellow_28.jpg",
  "system": {
    "description": {
      "value": "<em>You leap into the air while holding your opponent and slam him to the ground.</em><br/><br/><b>Prerequisites</b><br/>Improved Grapple, Improved Unarmed Strike, Savage Slam, base attack bonus +12 or monk level 10th.<br/><br/><b>Benefits</b><br/>When you use Savage Slam, you can move yourself and your target up to half your speed before releasing the grapple. You provoke attacks of opportunity from this movement, but your target does not. If your target takes damage from Savage Slam, the target is shaken for 1 round. You become flat-footed until the start of your next turn if you move before using Savage Slam in this way.",
      "unidentified": ""
    },
    "tags": [
      "PFS",
      "Combat"
    ],
    "actions": [],
    "uses": {
      "per": null,
      "value": 0,
      "maxFormula": "",
      "autoDeductChargesCost": "1"
    },
    "attackNotes": [],
    "effectNotes": [],
    "changes": [],
    "changeFlags": {
      "loseDexToAC": false,
      "noEncumbrance": false,
      "mediumArmorFullSpeed": false,
      "heavyArmorFullSpeed": false
    },
    "contextNotes": [],
    "links": {
      "children": [],
      "charges": []
    },
    "tag": "",
    "useCustomTag": false,
    "armorProf": {
      "value": [],
      "custom": ""
    },
    "weaponProf": {
      "value": [],
      "custom": ""
    },
    "languages": {
      "value": [],
      "custom": ""
    },
    "flags": {
      "boolean": {},
      "dictionary": {}
    },
    "scriptCalls": [],
    "subType": "feat",
    "associations": {
      "classes": []
    },
    "showInQuickbar": false,
    "abilityType": "none",
    "crOffset": "",
    "disabled": false,
    "classSkills": {}
  },
  "ownership": {
    "default": 0
  },
  "_stats": {
    "systemId": "pf1",
    "systemVersion": "9.1",
    "coreVersion": "10.291",
    "createdTime": 1665428353808,
    "modifiedTime": 1689797885521,
    "lastModifiedBy": "ppv91YxratjWnkJi"
  },
  "effects": [],
  "folder": null,
  "sort": 0,
  "flags": {},
  "_key": "!items!MPlV331nGhmafqhw"
}