{
  "_id": "kp4Nk3nHHn5QY67R",
  "name": "Savage Surge",
  "type": "feat",
  "img": "systems/pf1/icons/feats/extra-rage.jpg",
  "system": {
    "description": {
      "value": "<p><em>You can channel your rage into crowd-pleasing displays of brutality that aid you in the arena.</em><br /><br /><strong>Prerequisites</strong><br />Intimidating Prowess, rage class feature.<br /><br /><strong>Benefits</strong><br />When attempting a performance combat check while raging, you may, as a free action, expend a number of your daily rounds of rage up to half your barbarian level to create a display of savagery. You gain a bonus on the performance combat check equal to half the number of rounds expended, rounded down. If you expend all your remaining rounds of rage in this manner, thus ending your rage, you gain an additional +2 bonus on the check.<br /><br /></p>\n<p><strong>Combat Trick</strong></p>\n<p>You can spend stamina points instead of rounds of rage when using Savage Surge.</p>",
      "unidentified": ""
    },
    "tags": [
      "Combat",
      "Performance"
    ],
    "actions": [],
    "uses": {
      "per": null,
      "value": 0,
      "maxFormula": "",
      "autoDeductChargesCost": "1"
    },
    "attackNotes": [],
    "effectNotes": [],
    "changes": [],
    "changeFlags": {
      "loseDexToAC": false,
      "noEncumbrance": false,
      "mediumArmorFullSpeed": false,
      "heavyArmorFullSpeed": false
    },
    "contextNotes": [],
    "links": {
      "children": [],
      "charges": []
    },
    "tag": "",
    "useCustomTag": false,
    "armorProf": {
      "value": [],
      "custom": ""
    },
    "weaponProf": {
      "value": [],
      "custom": ""
    },
    "languages": {
      "value": [],
      "custom": ""
    },
    "flags": {
      "boolean": {},
      "dictionary": {}
    },
    "scriptCalls": [],
    "subType": "feat",
    "associations": {
      "classes": []
    },
    "showInQuickbar": false,
    "abilityType": "none",
    "crOffset": "",
    "disabled": false,
    "classSkills": {}
  },
  "ownership": {
    "default": 0
  },
  "_stats": {
    "systemId": "pf1",
    "systemVersion": "9.1",
    "coreVersion": "10.291",
    "createdTime": 1665428356939,
    "modifiedTime": 1689797897717,
    "lastModifiedBy": "ppv91YxratjWnkJi"
  },
  "effects": [],
  "folder": null,
  "sort": 0,
  "flags": {},
  "_key": "!items!kp4Nk3nHHn5QY67R"
}