{
  "_id": "pmOphH8sI30gfeIr",
  "name": "Scavenger's Luck",
  "type": "feat",
  "img": "icons/commodities/tech/console-steel.webp",
  "system": {
    "description": {
      "value": "<em>You coax better behavior out of timeworn technology.</em><br/><br/><b>Prerequisites</b><br/>Knowledge (engineering) 1 rank<br/><br/><b>Benefits</b><br/>When your check for using a piece of timeworn technology results in a glitch, you can roll again. You must choose to reroll before determining the specific glitch, and must take the second result, even if it's worse. When you use timeworn technology, it doesn't automatically glitch on a natural 1.",
      "unidentified": ""
    },
    "tags": [
      "PFS",
      "General"
    ],
    "actions": [],
    "uses": {
      "per": null,
      "value": 0,
      "maxFormula": "",
      "autoDeductChargesCost": "1"
    },
    "attackNotes": [],
    "effectNotes": [],
    "changes": [],
    "changeFlags": {
      "loseDexToAC": false,
      "noEncumbrance": false,
      "mediumArmorFullSpeed": false,
      "heavyArmorFullSpeed": false
    },
    "contextNotes": [],
    "links": {
      "children": [],
      "charges": []
    },
    "tag": "",
    "useCustomTag": false,
    "armorProf": {
      "value": [],
      "custom": ""
    },
    "weaponProf": {
      "value": [],
      "custom": ""
    },
    "languages": {
      "value": [],
      "custom": ""
    },
    "flags": {
      "boolean": {},
      "dictionary": {}
    },
    "scriptCalls": [],
    "subType": "feat",
    "associations": {
      "classes": []
    },
    "showInQuickbar": false,
    "abilityType": "none",
    "crOffset": "",
    "disabled": false,
    "classSkills": {}
  },
  "ownership": {
    "default": 0
  },
  "_stats": {
    "systemId": "pf1",
    "systemVersion": "9.1",
    "coreVersion": "10.291",
    "createdTime": 1665428358011,
    "modifiedTime": 1689797900626,
    "lastModifiedBy": "ppv91YxratjWnkJi"
  },
  "effects": [],
  "folder": null,
  "sort": 0,
  "flags": {},
  "_key": "!items!pmOphH8sI30gfeIr"
}