{
  "_id": "jDgNrBQkybNyN5jw",
  "name": "Scion of the Land",
  "type": "feat",
  "img": "icons/environment/wilderness/island.webp",
  "system": {
    "description": {
      "value": "<em>You are strongly linked to natural terrain and to others who share your link.</em><br/><br/><b>Prerequisites</b><br/>Survival 1 rank.<br/><br/><b>Benefits</b><br/>When traveling through terrain in which you can leave no trail and be impossible to track (as a result of favored terrain, trackless step, or a similar class feature), you grant that ability to allies within 60 feet who also have this feat. <br/><br/>If an ally within 60 feet who has this feat is also able to move normally through the current terrain without leaving tracks, you gain a +1 bonus on Knowledge (nature), Perception, and Survival checks while in that terrain.",
      "unidentified": ""
    },
    "tags": [
      "PFS",
      "Teamwork"
    ],
    "actions": [],
    "uses": {
      "per": null,
      "value": 0,
      "maxFormula": "",
      "autoDeductChargesCost": "1"
    },
    "attackNotes": [],
    "effectNotes": [],
    "changes": [],
    "changeFlags": {
      "loseDexToAC": false,
      "noEncumbrance": false,
      "mediumArmorFullSpeed": false,
      "heavyArmorFullSpeed": false
    },
    "contextNotes": [],
    "links": {
      "children": [],
      "charges": []
    },
    "tag": "",
    "useCustomTag": false,
    "armorProf": {
      "value": [],
      "custom": ""
    },
    "weaponProf": {
      "value": [],
      "custom": ""
    },
    "languages": {
      "value": [],
      "custom": ""
    },
    "flags": {
      "boolean": {},
      "dictionary": {}
    },
    "scriptCalls": [],
    "subType": "feat",
    "associations": {
      "classes": []
    },
    "showInQuickbar": false,
    "abilityType": "none",
    "crOffset": "",
    "disabled": false,
    "classSkills": {}
  },
  "ownership": {
    "default": 0
  },
  "_stats": {
    "systemId": "pf1",
    "systemVersion": "9.1",
    "coreVersion": "10.291",
    "createdTime": 1665428356837,
    "modifiedTime": 1689797897091,
    "lastModifiedBy": "ppv91YxratjWnkJi"
  },
  "effects": [],
  "folder": null,
  "sort": 0,
  "flags": {},
  "_key": "!items!jDgNrBQkybNyN5jw"
}