{
  "_id": "WxF0IAKIZaofNozF",
  "name": "Sea Hunter",
  "type": "feat",
  "img": "systems/pf1/icons/skills/blue_14.jpg",
  "system": {
    "description": {
      "value": "<em>Your blows knock swimming opponents off balance.</em><br/><br/><b>Prerequisites</b><br/>Combat Expertise, merfolk.<br/><br/><b>Benefits</b><br/>When you make a successful melee attack against a swimming target, as a free action you can attempt to knock the target off balance. Treat this as a trip combat maneuver. If you succeed, the target is considered off balance until it recovers its balance, usually by making a Swim check on its turn. This feat has no effect on creatures with a swim speed, those using magic such as freedom of movement, and creatures that can't be tripped.<br/><br/><b>Combat Trick</b><br/>When you successfully knock a target off balance while using this feat, you can spend up to 5 stamina points to apply a penalty on the target's Swim checks to recover its balance from the effect equal to the number of stamina points you spent.",
      "unidentified": ""
    },
    "tags": [
      "PFS",
      "Combat",
      "Racial",
      "Merfolk"
    ],
    "actions": [],
    "uses": {
      "per": null,
      "value": 0,
      "maxFormula": "",
      "autoDeductChargesCost": "1"
    },
    "attackNotes": [],
    "effectNotes": [],
    "changes": [],
    "changeFlags": {
      "loseDexToAC": false,
      "noEncumbrance": false,
      "mediumArmorFullSpeed": false,
      "heavyArmorFullSpeed": false
    },
    "contextNotes": [],
    "links": {
      "children": [],
      "charges": []
    },
    "tag": "",
    "useCustomTag": false,
    "armorProf": {
      "value": [],
      "custom": ""
    },
    "weaponProf": {
      "value": [],
      "custom": ""
    },
    "languages": {
      "value": [],
      "custom": ""
    },
    "flags": {
      "boolean": {},
      "dictionary": {}
    },
    "scriptCalls": [],
    "subType": "feat",
    "associations": {
      "classes": []
    },
    "showInQuickbar": false,
    "abilityType": "none",
    "crOffset": "",
    "disabled": false,
    "classSkills": {}
  },
  "ownership": {
    "default": 0
  },
  "_stats": {
    "systemId": "pf1",
    "systemVersion": "9.1",
    "coreVersion": "10.291",
    "createdTime": 1665428355082,
    "modifiedTime": 1689797890649,
    "lastModifiedBy": "ppv91YxratjWnkJi"
  },
  "effects": [],
  "folder": null,
  "sort": 0,
  "flags": {},
  "_key": "!items!WxF0IAKIZaofNozF"
}