{
  "_id": "VMRjHhqxyVpv4HM9",
  "name": "Secret Signs",
  "type": "feat",
  "img": "systems/pf1/icons/feats/quick-draw.jpg",
  "system": {
    "description": {
      "value": "<em>You are particularly adept at communicating with others via innuendo, gestures, and secret hand signs.</em><br/><br/><b>Prerequisites</b><br/>Int 13.<br/><br/><b>Benefits</b><br/>You gain a +4 bonus on Bluff checks made to pass secret messages. In addition, you are adept at hiding the somatic components of spellcasting. If you cast a spell that has only somatic components, an observer must make a Perception check opposed by your Sleight of Hand check to notice your spellcasting. Spellcraft checks made to identify any spell you cast that has somatic components take a -2 penalty.",
      "unidentified": ""
    },
    "tags": [
      "PFS",
      "General"
    ],
    "actions": [],
    "uses": {
      "per": null,
      "value": 0,
      "maxFormula": "",
      "autoDeductChargesCost": "1"
    },
    "attackNotes": [],
    "effectNotes": [],
    "changes": [],
    "changeFlags": {
      "loseDexToAC": false,
      "noEncumbrance": false,
      "mediumArmorFullSpeed": false,
      "heavyArmorFullSpeed": false
    },
    "contextNotes": [],
    "links": {
      "children": [],
      "charges": []
    },
    "tag": "",
    "useCustomTag": false,
    "armorProf": {
      "value": [],
      "custom": ""
    },
    "weaponProf": {
      "value": [],
      "custom": ""
    },
    "languages": {
      "value": [],
      "custom": ""
    },
    "flags": {
      "boolean": {},
      "dictionary": {}
    },
    "scriptCalls": [],
    "subType": "feat",
    "associations": {
      "classes": []
    },
    "showInQuickbar": false,
    "abilityType": "none",
    "crOffset": "",
    "disabled": false,
    "classSkills": {}
  },
  "ownership": {
    "default": 0
  },
  "_stats": {
    "systemId": "pf1",
    "systemVersion": "9.1",
    "coreVersion": "10.291",
    "createdTime": 1665428354975,
    "modifiedTime": 1689797890078,
    "lastModifiedBy": "ppv91YxratjWnkJi"
  },
  "effects": [],
  "folder": null,
  "sort": 0,
  "flags": {},
  "_key": "!items!VMRjHhqxyVpv4HM9"
}