{
  "_id": "riwDjff3J9WttE5O",
  "name": "Seeking Spell",
  "type": "feat",
  "img": "systems/pf1/icons/skills/emerald_08.jpg",
  "system": {
    "description": {
      "value": "<em>You can cast spells that bend around barriers to reach their intended destination.</em><br/><br/><b>Benefits</b><br/>A seeking spell's range can bend around obstacles to reach the intended target. You can define the route yourself or unambiguously identify a target and allow the spell to determine its own path. However, the spell fails if it would have to travel farther than its maximum range to reach the identified target. A ranged attack roll made to deliver a seeking spell is not subject to cover or concealment. In order to benefit from this feat, the selected spell must have a range greater than touch and target one or more creatures, or it must require the caster to make a ranged touch attack. A seeking spell uses up a spell slot 2 levels higher than the spell's actual level.",
      "unidentified": ""
    },
    "tags": [
      "PFS",
      "Metamagic"
    ],
    "actions": [],
    "uses": {
      "per": null,
      "value": 0,
      "maxFormula": "",
      "autoDeductChargesCost": "1"
    },
    "attackNotes": [],
    "effectNotes": [],
    "changes": [],
    "changeFlags": {
      "loseDexToAC": false,
      "noEncumbrance": false,
      "mediumArmorFullSpeed": false,
      "heavyArmorFullSpeed": false
    },
    "contextNotes": [],
    "links": {
      "children": [],
      "charges": []
    },
    "tag": "",
    "useCustomTag": false,
    "armorProf": {
      "value": [],
      "custom": ""
    },
    "weaponProf": {
      "value": [],
      "custom": ""
    },
    "languages": {
      "value": [],
      "custom": ""
    },
    "flags": {
      "boolean": {},
      "dictionary": {}
    },
    "scriptCalls": [],
    "subType": "feat",
    "associations": {
      "classes": []
    },
    "showInQuickbar": false,
    "abilityType": "none",
    "crOffset": "",
    "disabled": false,
    "classSkills": {}
  },
  "ownership": {
    "default": 0
  },
  "_stats": {
    "systemId": "pf1",
    "systemVersion": "9.1",
    "coreVersion": "10.291",
    "createdTime": 1665428358157,
    "modifiedTime": 1689797901457,
    "lastModifiedBy": "ppv91YxratjWnkJi"
  },
  "effects": [],
  "folder": null,
  "sort": 0,
  "flags": {},
  "_key": "!items!riwDjff3J9WttE5O"
}