{
  "_id": "gUGpRrwpYXqaoxh1",
  "name": "Seething Hatred",
  "type": "feat",
  "img": "systems/pf1/icons/feats/great-cleave.jpg",
  "system": {
    "description": {
      "value": "<em>You've learned to channel your hatred of a particular type of creature into a devastating strike.</em><br/><br/><b>Prerequisites</b><br/>Studied target class feature.<br/><br/><b>Benefits</b><br/>Select a creature type from the Ranger Favored Enemies table (Core Rulebook 64). When you designate a creature of this type as your studied target and hit it with a melee or ranged weapon attack, your favored target bonus on damage rolls against it is doubled.<br/><br/><b>Combat Trick</b><br/>You can spend 5 stamina points to change your favored enemy type to any other favored enemy on the Ranger Favored Enemies table (Core Rulebook 64). This change lasts until the start of your next turn.",
      "unidentified": ""
    },
    "tags": [
      "PFS",
      "Combat"
    ],
    "actions": [],
    "uses": {
      "per": null,
      "value": 0,
      "maxFormula": "",
      "autoDeductChargesCost": "1"
    },
    "attackNotes": [],
    "effectNotes": [],
    "changes": [],
    "changeFlags": {
      "loseDexToAC": false,
      "noEncumbrance": false,
      "mediumArmorFullSpeed": false,
      "heavyArmorFullSpeed": false
    },
    "contextNotes": [],
    "links": {
      "children": [],
      "charges": []
    },
    "tag": "",
    "useCustomTag": false,
    "armorProf": {
      "value": [],
      "custom": ""
    },
    "weaponProf": {
      "value": [],
      "custom": ""
    },
    "languages": {
      "value": [],
      "custom": ""
    },
    "flags": {
      "boolean": {},
      "dictionary": {}
    },
    "scriptCalls": [],
    "subType": "feat",
    "associations": {
      "classes": []
    },
    "showInQuickbar": false,
    "abilityType": "none",
    "crOffset": "",
    "disabled": false,
    "classSkills": {}
  },
  "ownership": {
    "default": 0
  },
  "_stats": {
    "systemId": "pf1",
    "systemVersion": "9.1",
    "coreVersion": "10.291",
    "createdTime": 1665428356331,
    "modifiedTime": 1689797895462,
    "lastModifiedBy": "ppv91YxratjWnkJi"
  },
  "effects": [],
  "folder": null,
  "sort": 0,
  "flags": {},
  "_key": "!items!gUGpRrwpYXqaoxh1"
}