{
  "_id": "R7zlqlfUcFGCg3vB",
  "name": "Self-Sufficient",
  "type": "feat",
  "img": "systems/pf1/icons/skills/green_32.jpg",
  "system": {
    "description": {
      "value": "<em>You know how to get along in the wild and how to effectively treat wounds.</em><br/><br/><b>Benefits</b><br/>You get a +2 bonus on all Heal checks and Survival checks. If you have 10 or more ranks in one of these skills, the bonus increases to +4 for that skill.",
      "unidentified": ""
    },
    "tags": [
      "PFS",
      "General"
    ],
    "actions": [],
    "uses": {
      "per": null,
      "value": 0,
      "maxFormula": "",
      "autoDeductChargesCost": "1"
    },
    "attackNotes": [],
    "effectNotes": [],
    "changes": [
      {
        "_id": "itrf3f4h",
        "formula": "@skills.hea.ranks >= 10 ? 4 : 2",
        "operator": "add",
        "subTarget": "skill.hea",
        "modifier": "untyped",
        "priority": 0,
        "value": 2
      },
      {
        "_id": "ph7lqkbj",
        "formula": "@skills.sur.ranks >= 10 ? 4 : 2",
        "operator": "add",
        "subTarget": "skill.sur",
        "modifier": "untyped",
        "priority": 0,
        "value": 2
      }
    ],
    "changeFlags": {
      "loseDexToAC": false,
      "noEncumbrance": false,
      "mediumArmorFullSpeed": false,
      "heavyArmorFullSpeed": false
    },
    "contextNotes": [],
    "links": {
      "children": [],
      "charges": []
    },
    "tag": "selfsufficient",
    "useCustomTag": false,
    "armorProf": {
      "value": [],
      "custom": ""
    },
    "weaponProf": {
      "value": [],
      "custom": ""
    },
    "languages": {
      "value": [],
      "custom": ""
    },
    "flags": {
      "boolean": {},
      "dictionary": {}
    },
    "scriptCalls": [],
    "subType": "feat",
    "associations": {
      "classes": []
    },
    "showInQuickbar": false,
    "abilityType": "none",
    "crOffset": "",
    "disabled": false,
    "classSkills": {},
    "auraStrength": 0
  },
  "ownership": {
    "default": 0
  },
  "_stats": {
    "systemId": "pf1",
    "systemVersion": "9.1",
    "coreVersion": "10.291",
    "createdTime": 1665428354433,
    "modifiedTime": 1689797887612,
    "lastModifiedBy": "ppv91YxratjWnkJi"
  },
  "effects": [],
  "folder": null,
  "sort": 0,
  "flags": {},
  "_key": "!items!R7zlqlfUcFGCg3vB"
}