{
  "_id": "UWq3177J4EuD6RgN",
  "name": "Self-Exiled Noble",
  "type": "feat",
  "img": "icons/environment/people/commoner.webp",
  "system": {
    "description": {
      "value": "<em>You chose to leave nobility behind.</em><br/><br/><b>Prerequisites</b><br/>You must have intentionally left your noble family and changed your name or appearance afterward.<br/><br/><b>Benefits</b><br/>You gain a +2 bonus on Disguise checks, and Disguise is a class skill for you. You gain a +1 bonus on attack rolls and damage rolls against members of your former family.<br/><br/><b>Goal</b><br/> Escape your former name by establishing your own noble legacy. In addition, you must decisively defeat a challenging foe from your former family who may wish to return you to your old home.<br/><br/><b>Completion Benefit</b><br/>Your bonus on attack rolls and damage rolls from this feat increases to +2 and applies to anyone who threatens your allies or your new noble legacy.",
      "unidentified": ""
    },
    "tags": [
      "Story"
    ],
    "actions": [],
    "uses": {
      "per": null,
      "value": 0,
      "maxFormula": "",
      "autoDeductChargesCost": "1"
    },
    "attackNotes": [],
    "effectNotes": [],
    "changes": [],
    "changeFlags": {
      "loseDexToAC": false,
      "noEncumbrance": false,
      "mediumArmorFullSpeed": false,
      "heavyArmorFullSpeed": false
    },
    "contextNotes": [],
    "links": {
      "children": [],
      "charges": []
    },
    "tag": "",
    "useCustomTag": false,
    "armorProf": {
      "value": [],
      "custom": ""
    },
    "weaponProf": {
      "value": [],
      "custom": ""
    },
    "languages": {
      "value": [],
      "custom": ""
    },
    "flags": {
      "boolean": {},
      "dictionary": {}
    },
    "scriptCalls": [],
    "subType": "feat",
    "associations": {
      "classes": []
    },
    "showInQuickbar": false,
    "abilityType": "none",
    "crOffset": "",
    "disabled": false,
    "classSkills": {}
  },
  "ownership": {
    "default": 0
  },
  "_stats": {
    "systemId": "pf1",
    "systemVersion": "9.1",
    "coreVersion": "10.291",
    "createdTime": 1665428354922,
    "modifiedTime": 1689797889773,
    "lastModifiedBy": "ppv91YxratjWnkJi"
  },
  "effects": [],
  "folder": null,
  "sort": 0,
  "flags": {},
  "_key": "!items!UWq3177J4EuD6RgN"
}