{
  "_id": "KTnxQnMc6eN0IHbi",
  "name": "Selfish Channel",
  "type": "feat",
  "img": "systems/pf1/icons/spells/wind-grasp-air-2.jpg",
  "system": {
    "description": {
      "value": "<em>You can hoard channeled energy for yourself.</em><br/><br/><b>Prerequisites</b><br/>Channel energy class feature.<br/><br/><b>Benefits</b><br/>Whenever you channel positive energy to heal creatures, you regain half again as many hit points (+50%) as normal if you're the only creature healed by the channeled energy (either because there are no other living creatures within the area or because you exclude them with Selective Channeling or a similar effect).<br/><br/><b>Special</b><br/>If you are healed by negative energy, this feat applies when you channel negative energy and you're the only creature healed by the channeled energy.",
      "unidentified": ""
    },
    "tags": [
      "PFS",
      "Channeling"
    ],
    "actions": [],
    "uses": {
      "per": null,
      "value": 0,
      "maxFormula": "",
      "autoDeductChargesCost": "1"
    },
    "attackNotes": [],
    "effectNotes": [],
    "changes": [],
    "changeFlags": {
      "loseDexToAC": false,
      "noEncumbrance": false,
      "mediumArmorFullSpeed": false,
      "heavyArmorFullSpeed": false
    },
    "contextNotes": [],
    "links": {
      "children": [],
      "charges": []
    },
    "tag": "",
    "useCustomTag": false,
    "armorProf": {
      "value": [],
      "custom": ""
    },
    "weaponProf": {
      "value": [],
      "custom": ""
    },
    "languages": {
      "value": [],
      "custom": ""
    },
    "flags": {
      "boolean": {},
      "dictionary": {}
    },
    "scriptCalls": [],
    "subType": "feat",
    "associations": {
      "classes": []
    },
    "showInQuickbar": false,
    "abilityType": "none",
    "crOffset": "",
    "disabled": false,
    "classSkills": {}
  },
  "ownership": {
    "default": 0
  },
  "_stats": {
    "systemId": "pf1",
    "systemVersion": "9.1",
    "coreVersion": "10.291",
    "createdTime": 1665428353401,
    "modifiedTime": 1689797884386,
    "lastModifiedBy": "ppv91YxratjWnkJi"
  },
  "effects": [],
  "folder": null,
  "sort": 0,
  "flags": {},
  "_key": "!items!KTnxQnMc6eN0IHbi"
}