{
  "_id": "Uz4nxGbhPUj1wVHv",
  "name": "Serpentine Compression",
  "type": "feat",
  "img": "systems/pf1/icons/skills/green_21.jpg",
  "system": {
    "description": {
      "value": "<em>You can squeeze through small areas thanks to your slippery scales and lithe musculature.</em><br/><br/><b>Prerequisites</b><br/>Serpentfolk.<br/><br/><b>Benefits</b><br/>You gain the compression universal monster ability (Pathfinder RPG Bestiary 2 295), allowing you to move through an area as small as one-quarter your space without squeezing, or one-eighth your space when squeezing.",
      "unidentified": ""
    },
    "tags": [
      "Racial",
      "Serpentfolk"
    ],
    "actions": [],
    "uses": {
      "per": null,
      "value": 0,
      "maxFormula": "",
      "autoDeductChargesCost": "1"
    },
    "attackNotes": [],
    "effectNotes": [],
    "changes": [],
    "changeFlags": {
      "loseDexToAC": false,
      "noEncumbrance": false,
      "mediumArmorFullSpeed": false,
      "heavyArmorFullSpeed": false
    },
    "contextNotes": [],
    "links": {
      "children": [],
      "charges": []
    },
    "tag": "",
    "useCustomTag": false,
    "armorProf": {
      "value": [],
      "custom": ""
    },
    "weaponProf": {
      "value": [],
      "custom": ""
    },
    "languages": {
      "value": [],
      "custom": ""
    },
    "flags": {
      "boolean": {},
      "dictionary": {}
    },
    "scriptCalls": [],
    "subType": "feat",
    "associations": {
      "classes": []
    },
    "showInQuickbar": false,
    "abilityType": "none",
    "crOffset": "",
    "disabled": false,
    "classSkills": {}
  },
  "ownership": {
    "default": 0
  },
  "_stats": {
    "systemId": "pf1",
    "systemVersion": "9.1",
    "coreVersion": "10.291",
    "createdTime": 1665428354949,
    "modifiedTime": 1689797889947,
    "lastModifiedBy": "ppv91YxratjWnkJi"
  },
  "effects": [],
  "folder": null,
  "sort": 0,
  "flags": {},
  "_key": "!items!Uz4nxGbhPUj1wVHv"
}