{
  "_id": "zvcjGclgv7LF8N7q",
  "name": "Servant in the House of Truth",
  "type": "feat",
  "img": "icons/tools/scribal/ink-quill-pink.webp",
  "system": {
    "description": {
      "value": "<em>Your creator was a scholar and a seeker of lore, and your memories are filled with the feel of papyrus and ink.</em><br/><br/><b>Prerequisites</b><br/>Shabti.<br/><br/><b>Benefits</b><br/>Whenever you attempt a check for a Knowledge skill in which you have ranks, you can roll the check twice and use the better of the two results.",
      "unidentified": ""
    },
    "tags": [
      "Origin",
      "Racial",
      "Shabti"
    ],
    "actions": [],
    "uses": {
      "per": null,
      "value": 0,
      "maxFormula": "",
      "autoDeductChargesCost": "1"
    },
    "attackNotes": [],
    "effectNotes": [],
    "changes": [],
    "changeFlags": {
      "loseDexToAC": false,
      "noEncumbrance": false,
      "mediumArmorFullSpeed": false,
      "heavyArmorFullSpeed": false
    },
    "contextNotes": [],
    "links": {
      "children": [],
      "charges": []
    },
    "tag": "",
    "useCustomTag": false,
    "armorProf": {
      "value": [],
      "custom": ""
    },
    "weaponProf": {
      "value": [],
      "custom": ""
    },
    "languages": {
      "value": [],
      "custom": ""
    },
    "flags": {
      "boolean": {},
      "dictionary": {}
    },
    "scriptCalls": [],
    "subType": "feat",
    "associations": {
      "classes": []
    },
    "showInQuickbar": false,
    "abilityType": "none",
    "crOffset": "",
    "disabled": false,
    "classSkills": {}
  },
  "ownership": {
    "default": 0
  },
  "_stats": {
    "systemId": "pf1",
    "systemVersion": "9.1",
    "coreVersion": "10.291",
    "createdTime": 1665428359398,
    "modifiedTime": 1689797905162,
    "lastModifiedBy": "ppv91YxratjWnkJi"
  },
  "effects": [],
  "folder": null,
  "sort": 0,
  "flags": {},
  "_key": "!items!zvcjGclgv7LF8N7q"
}