{
  "_id": "LHmtycfx5tMmLlWG",
  "name": "Shadow Grasp",
  "type": "feat",
  "img": "systems/pf1/icons/skills/violet_06.jpg",
  "system": {
    "description": {
      "value": "<em>Your darkness spells have substance and bind your foes.</em><br/><br/><b>Prerequisites</b><br/>Tenebrous Spell, Umbral Spell.<br/><br/><b>Benefits</b><br/>When you cast a spell with the darkness descriptor that affects an area, creatures in the area are entangled. If the spell allows a saving throw, a successful save negates the entangle effect. If the spell does not normally allow a save, a creature can make a Reflex save (DC = the spell's DC if it had a saving throw) to negate the effect. If the spell allows spell resistance, failing to overcome a creature's spell resistance means it is not entangled.<br/><br/> An entangled creature remains so as long as it is in the area of the spell and for 1 round after it leaves. A creature that leaves and reenters the area must make a new saving throw to avoid becoming entangled. Creatures that succeed at a save to resist being entangled do not have to make additional saves if they stay within the darkened area.<br/><br/> You are never impeded by the effects of your spells modified by this feat. A Shadow Grasp spell uses up a slot one level higher than the spell's actual level.",
      "unidentified": ""
    },
    "tags": [
      "PFS",
      "Metamagic"
    ],
    "actions": [],
    "uses": {
      "per": null,
      "value": 0,
      "maxFormula": "",
      "autoDeductChargesCost": "1"
    },
    "attackNotes": [],
    "effectNotes": [],
    "changes": [],
    "changeFlags": {
      "loseDexToAC": false,
      "noEncumbrance": false,
      "mediumArmorFullSpeed": false,
      "heavyArmorFullSpeed": false
    },
    "contextNotes": [],
    "links": {
      "children": [],
      "charges": []
    },
    "tag": "",
    "useCustomTag": false,
    "armorProf": {
      "value": [],
      "custom": ""
    },
    "weaponProf": {
      "value": [],
      "custom": ""
    },
    "languages": {
      "value": [],
      "custom": ""
    },
    "flags": {
      "boolean": {},
      "dictionary": {}
    },
    "scriptCalls": [],
    "subType": "feat",
    "associations": {
      "classes": []
    },
    "showInQuickbar": false,
    "abilityType": "none",
    "crOffset": "",
    "disabled": false,
    "classSkills": {}
  },
  "ownership": {
    "default": 0
  },
  "_stats": {
    "systemId": "pf1",
    "systemVersion": "9.1",
    "coreVersion": "10.291",
    "createdTime": 1665428353461,
    "modifiedTime": 1689797885108,
    "lastModifiedBy": "ppv91YxratjWnkJi"
  },
  "effects": [],
  "folder": null,
  "sort": 0,
  "flags": {},
  "_key": "!items!LHmtycfx5tMmLlWG"
}