{
  "_id": "AGaFV9sNK32t5UZb",
  "name": "Shapeshifter Style",
  "type": "feat",
  "img": "systems/pf1/icons/skills/blue_34.jpg",
  "system": {
    "description": {
      "value": "<em>You can shift your physiology without fully changing your shape, giving you an advantage in battle.</em><br/><br/><b>Prerequisites</b><br/>Base attack bonus +3, change shape ability, shapechanger subtype.<br/><br/><b>Benefits</b><br/>You reshape your body, gaining one of the following benefits. You choose the benefit when you enter the style, and while in the style you can change the benefit as a swift action. <br/><br/>Brutal Attack<br/>Choose one of your natural attacks. You gain a +1 bonus on damage rolls with that attack when using this style, plus an additional +1 for every feat you have that lists Shapeshifter Style as a prerequisite (maximum +3). <br/><br/>Steady Grip<br/>You gain a climb speed of 10 feet. <br/><br/>Tensed Sinews<br/>You gain a +1 bonus on Reflex saving throws and a +5 enhancement bonus to your base speed. <br/><br/>Toughened Hide<br/>You gain a +1 enhancement bonus to your existing natural armor bonus.<br/><br/><b>Special</b><br/>A character with the wild shape class feature counts as having the change shape ability and shapechanger subtype for the purpose of meeting this feat's prerequisites.",
      "unidentified": ""
    },
    "tags": [
      "PFS",
      "Combat",
      "Style"
    ],
    "actions": [],
    "uses": {
      "per": null,
      "value": 0,
      "maxFormula": "",
      "autoDeductChargesCost": "1"
    },
    "attackNotes": [],
    "effectNotes": [],
    "changes": [],
    "changeFlags": {
      "loseDexToAC": false,
      "noEncumbrance": false,
      "mediumArmorFullSpeed": false,
      "heavyArmorFullSpeed": false
    },
    "contextNotes": [],
    "links": {
      "children": [],
      "charges": []
    },
    "tag": "",
    "useCustomTag": false,
    "armorProf": {
      "value": [],
      "custom": ""
    },
    "weaponProf": {
      "value": [],
      "custom": ""
    },
    "languages": {
      "value": [],
      "custom": ""
    },
    "flags": {
      "boolean": {},
      "dictionary": {}
    },
    "scriptCalls": [],
    "subType": "feat",
    "associations": {
      "classes": []
    },
    "showInQuickbar": false,
    "abilityType": "none",
    "crOffset": "",
    "disabled": false,
    "classSkills": {}
  },
  "ownership": {
    "default": 0
  },
  "_stats": {
    "systemId": "pf1",
    "systemVersion": "9.1",
    "coreVersion": "10.291",
    "createdTime": 1665428351960,
    "modifiedTime": 1689797878575,
    "lastModifiedBy": "ppv91YxratjWnkJi"
  },
  "effects": [],
  "folder": null,
  "sort": 0,
  "flags": {},
  "_key": "!items!AGaFV9sNK32t5UZb"
}