{
  "_id": "115MPsIxlCXWC0I5",
  "name": "Share Healing",
  "type": "feat",
  "img": "systems/pf1/icons/skills/green_19.jpg",
  "system": {
    "description": {
      "value": "<em>Your link with your companion creature allows you to share with it any healing magic that's cast upon you.</em><br/><br/><b>Prerequisites</b><br/>Ability to acquire an animal companion, eidolon, familiar, or special mount.<br/><br/><b>Benefits</b><br/>When you and your companion creature have this feat, your companion creature is adjacent to you or sharing your square, and you receive the benefit of a healing spell (whether from yourself or another source), you can divide the hit points healed evenly between yourself and your companion creature.",
      "unidentified": ""
    },
    "tags": [
      "PFS",
      "Teamwork"
    ],
    "actions": [],
    "uses": {
      "per": null,
      "value": 0,
      "maxFormula": "",
      "autoDeductChargesCost": "1"
    },
    "attackNotes": [],
    "effectNotes": [],
    "changes": [],
    "changeFlags": {
      "loseDexToAC": false,
      "noEncumbrance": false,
      "mediumArmorFullSpeed": false,
      "heavyArmorFullSpeed": false
    },
    "contextNotes": [],
    "links": {
      "children": [],
      "charges": []
    },
    "tag": "",
    "useCustomTag": false,
    "armorProf": {
      "value": [],
      "custom": ""
    },
    "weaponProf": {
      "value": [],
      "custom": ""
    },
    "languages": {
      "value": [],
      "custom": ""
    },
    "flags": {
      "boolean": {},
      "dictionary": {}
    },
    "scriptCalls": [],
    "subType": "feat",
    "associations": {
      "classes": []
    },
    "showInQuickbar": false,
    "abilityType": "none",
    "crOffset": "",
    "disabled": false,
    "classSkills": {}
  },
  "ownership": {
    "default": 0
  },
  "_stats": {
    "systemId": "pf1",
    "systemVersion": "9.1",
    "coreVersion": "10.291",
    "createdTime": 1665428350647,
    "modifiedTime": 1689797874322,
    "lastModifiedBy": "ppv91YxratjWnkJi"
  },
  "effects": [],
  "folder": null,
  "sort": 0,
  "flags": {},
  "_key": "!items!115MPsIxlCXWC0I5"
}