{
  "_id": "eM86SniSm3Pz6opS",
  "name": "Shared Stash",
  "type": "feat",
  "img": "systems/pf1/icons/feats/quick-draw.jpg",
  "system": {
    "description": {
      "value": "<p><em>You are adept at borrowing from your allies even in the middle of combat.</em><br /><br /><strong>Prerequisites</strong><br />Quick Draw, base attack bonus +1, Sleight of Hand 1 rank, swarming racial trait.<br /><br /><strong>Benefits</strong><br />While you are in the same square as a willing ally who also has this feat, you can draw a weapon from that creature as a free action or draw a hidden weapon or any other object as a move action. You can also take a held object from a willing ally in the same square as you as a free action. Drawing or taking an object (but not a weapon) in this way provokes an attack of opportunity.</p>\n<p><br /><strong>Pathfinder Society<br /></strong>Legal only for Ratfolk PCs</p>",
      "unidentified": ""
    },
    "tags": [
      "PFS",
      "Teamwork"
    ],
    "actions": [],
    "uses": {
      "per": null,
      "value": 0,
      "maxFormula": "",
      "autoDeductChargesCost": "1"
    },
    "attackNotes": [],
    "effectNotes": [],
    "changes": [],
    "changeFlags": {
      "loseDexToAC": false,
      "noEncumbrance": false,
      "mediumArmorFullSpeed": false,
      "heavyArmorFullSpeed": false
    },
    "contextNotes": [],
    "links": {
      "children": [],
      "charges": []
    },
    "tag": "",
    "useCustomTag": false,
    "armorProf": {
      "value": [],
      "custom": ""
    },
    "weaponProf": {
      "value": [],
      "custom": ""
    },
    "languages": {
      "value": [],
      "custom": ""
    },
    "flags": {
      "boolean": {},
      "dictionary": {}
    },
    "scriptCalls": [],
    "subType": "feat",
    "associations": {
      "classes": []
    },
    "showInQuickbar": false,
    "abilityType": "none",
    "crOffset": "",
    "disabled": false,
    "classSkills": {}
  },
  "ownership": {
    "default": 0
  },
  "_stats": {
    "systemId": "pf1",
    "systemVersion": "9.1",
    "coreVersion": "10.291",
    "createdTime": 1665428356179,
    "modifiedTime": 1689797894709,
    "lastModifiedBy": "ppv91YxratjWnkJi"
  },
  "effects": [],
  "folder": null,
  "sort": 0,
  "flags": {},
  "_key": "!items!eM86SniSm3Pz6opS"
}