{
  "_id": "xTz0UzAGlMy0iT7u",
  "name": "Shield Focus (Mythic)",
  "type": "feat",
  "img": "systems/pf1/icons/skills/blue_18.jpg",
  "system": {
    "description": {
      "value": "<em>You're a master of using your shield for protection.</em><br/><br/><b>Prerequisites</b><br/>Shield Focus.<br/><br/><b>Benefits</b><br/>Add your shield bonus and your shield's enhancement bonus to your touch AC. As an immediate action, you can expend one use of mythic power to add your shield bonus and your shield's enhancement bonus on a Fortitude or Ref lex save just before you roll it.",
      "unidentified": ""
    },
    "tags": [
      "PFS",
      "Combat",
      "Mythic"
    ],
    "actions": [],
    "uses": {
      "per": null,
      "value": 0,
      "maxFormula": "",
      "autoDeductChargesCost": "1"
    },
    "attackNotes": [],
    "effectNotes": [],
    "changes": [],
    "changeFlags": {
      "loseDexToAC": false,
      "noEncumbrance": false,
      "mediumArmorFullSpeed": false,
      "heavyArmorFullSpeed": false
    },
    "contextNotes": [],
    "links": {
      "children": [],
      "charges": []
    },
    "tag": "",
    "useCustomTag": false,
    "armorProf": {
      "value": [],
      "custom": ""
    },
    "weaponProf": {
      "value": [],
      "custom": ""
    },
    "languages": {
      "value": [],
      "custom": ""
    },
    "flags": {
      "boolean": {},
      "dictionary": {}
    },
    "scriptCalls": [],
    "subType": "feat",
    "associations": {
      "classes": []
    },
    "showInQuickbar": false,
    "abilityType": "none",
    "crOffset": "",
    "disabled": false,
    "classSkills": {}
  },
  "ownership": {
    "default": 0
  },
  "_stats": {
    "systemId": "pf1",
    "systemVersion": "9.1",
    "coreVersion": "10.291",
    "createdTime": 1665428358872,
    "modifiedTime": 1689797903766,
    "lastModifiedBy": "ppv91YxratjWnkJi"
  },
  "effects": [],
  "folder": null,
  "sort": 0,
  "flags": {},
  "_key": "!items!xTz0UzAGlMy0iT7u"
}