{
  "_id": "hYjTavS29zXWVwIq",
  "name": "Shielded Caster",
  "type": "feat",
  "img": "systems/pf1/icons/skills/weapon_13.jpg",
  "system": {
    "description": {
      "value": "<em>Your allies cover you while you cast complicated spells.</em><br/><br/><b>Benefits</b><br/>Whenever you are adjacent to an ally who also has this feat, you receive a +4 competence bonus on concentration checks. If your ally is wielding a buckler or a light shield, this bonus increases by +1. If your ally is wielding a heavy shield or a tower shield, this bonus increases by +2. Finally, if an enemy threatening you and your ally has the Disruptive feat, or another ability that increases the DC of concentration checks, the amount of the increase is halved.",
      "unidentified": ""
    },
    "tags": [
      "PFS",
      "Teamwork"
    ],
    "actions": [],
    "uses": {
      "per": null,
      "value": 0,
      "maxFormula": "",
      "autoDeductChargesCost": "1"
    },
    "attackNotes": [],
    "effectNotes": [],
    "changes": [],
    "changeFlags": {
      "loseDexToAC": false,
      "noEncumbrance": false,
      "mediumArmorFullSpeed": false,
      "heavyArmorFullSpeed": false
    },
    "contextNotes": [],
    "links": {
      "children": [],
      "charges": []
    },
    "tag": "",
    "useCustomTag": false,
    "armorProf": {
      "value": [],
      "custom": ""
    },
    "weaponProf": {
      "value": [],
      "custom": ""
    },
    "languages": {
      "value": [],
      "custom": ""
    },
    "flags": {
      "boolean": {},
      "dictionary": {}
    },
    "scriptCalls": [],
    "subType": "feat",
    "associations": {
      "classes": []
    },
    "showInQuickbar": false,
    "abilityType": "none",
    "crOffset": "",
    "disabled": false,
    "classSkills": {}
  },
  "ownership": {
    "default": 0
  },
  "_stats": {
    "systemId": "pf1",
    "systemVersion": "9.1",
    "coreVersion": "10.291",
    "createdTime": 1665428356718,
    "modifiedTime": 1689797896265,
    "lastModifiedBy": "ppv91YxratjWnkJi"
  },
  "effects": [],
  "folder": null,
  "sort": 0,
  "flags": {},
  "_key": "!items!hYjTavS29zXWVwIq"
}