{
  "_id": "qvb0Gfug765gMGF9",
  "name": "Shield Material Mastery",
  "type": "feat",
  "img": "systems/pf1/icons/items/inventory/bar-gold.jpg",
  "system": {
    "description": {
      "value": "<em>Your extraordinary understanding of the special materials from which your shield is made lets you take advantage of it more often.</em><br/><br/><b>Prerequisites</b><br/>Shield Focus, Shield Material Expertise, base attack bonus +11 or fighter level 8th.<br/><br/><b>Benefits</b><br/>You can use the ability granted by Shield Material Expertise two additional times per day.",
      "unidentified": ""
    },
    "tags": [
      "PFS",
      "Combat",
      "Shield Mastery"
    ],
    "actions": [],
    "uses": {
      "per": null,
      "value": 0,
      "maxFormula": "",
      "autoDeductChargesCost": "1"
    },
    "attackNotes": [],
    "effectNotes": [],
    "changes": [],
    "changeFlags": {
      "loseDexToAC": false,
      "noEncumbrance": false,
      "mediumArmorFullSpeed": false,
      "heavyArmorFullSpeed": false
    },
    "contextNotes": [],
    "links": {
      "children": [],
      "charges": []
    },
    "tag": "",
    "useCustomTag": false,
    "armorProf": {
      "value": [],
      "custom": ""
    },
    "weaponProf": {
      "value": [],
      "custom": ""
    },
    "languages": {
      "value": [],
      "custom": ""
    },
    "flags": {
      "boolean": {},
      "dictionary": {}
    },
    "scriptCalls": [],
    "subType": "feat",
    "associations": {
      "classes": []
    },
    "showInQuickbar": false,
    "abilityType": "none",
    "crOffset": "",
    "disabled": false,
    "classSkills": {}
  },
  "ownership": {
    "default": 0
  },
  "_stats": {
    "systemId": "pf1",
    "systemVersion": "9.1",
    "coreVersion": "10.291",
    "createdTime": 1665428358098,
    "modifiedTime": 1689797901165,
    "lastModifiedBy": "ppv91YxratjWnkJi"
  },
  "effects": [],
  "folder": null,
  "sort": 0,
  "flags": {},
  "_key": "!items!qvb0Gfug765gMGF9"
}