{
  "_id": "oGPgZSow6cCCQnlC",
  "name": "Shifter's Edge",
  "type": "feat",
  "img": "systems/pf1/icons/skills/beast_02.jpg",
  "system": {
    "description": {
      "value": "<em>You use your shapechanging powers to make your natural attacks especially lethal.</em><br/><br/><b>Prerequisites</b><br/>Dex 13, Weapon Finesse, shifter claws class feature.<br/><br/><b>Benefits</b><br/>Whenever you use Weapon Finesse to make a melee attack with your claws or a natural attack augmented by your claws, and you use your Dexterity bonus on attack rolls and your Strength modifier on damage rolls, you also add half your shifter level to the damage.",
      "unidentified": ""
    },
    "tags": [
      "PFS",
      "General"
    ],
    "actions": [],
    "uses": {
      "per": null,
      "value": 0,
      "maxFormula": "",
      "autoDeductChargesCost": "1"
    },
    "attackNotes": [],
    "effectNotes": [],
    "changes": [],
    "changeFlags": {
      "loseDexToAC": false,
      "noEncumbrance": false,
      "mediumArmorFullSpeed": false,
      "heavyArmorFullSpeed": false
    },
    "contextNotes": [],
    "links": {
      "children": [],
      "charges": []
    },
    "tag": "",
    "useCustomTag": false,
    "armorProf": {
      "value": [],
      "custom": ""
    },
    "weaponProf": {
      "value": [],
      "custom": ""
    },
    "languages": {
      "value": [],
      "custom": ""
    },
    "flags": {
      "boolean": {},
      "dictionary": {}
    },
    "scriptCalls": [],
    "subType": "feat",
    "associations": {
      "classes": []
    },
    "showInQuickbar": false,
    "abilityType": "none",
    "crOffset": "",
    "disabled": false,
    "classSkills": {}
  },
  "ownership": {
    "default": 0
  },
  "_stats": {
    "systemId": "pf1",
    "systemVersion": "9.1",
    "coreVersion": "10.291",
    "createdTime": 1665428357580,
    "modifiedTime": 1689797899694,
    "lastModifiedBy": "ppv91YxratjWnkJi"
  },
  "effects": [],
  "folder": null,
  "sort": 0,
  "flags": {},
  "_key": "!items!oGPgZSow6cCCQnlC"
}