{
  "_id": "LjEEFJ7b3PCSUaHq",
  "name": "Shikigami Style",
  "type": "feat",
  "img": "systems/pf1/icons/items/inventory/fork.jpg",
  "system": {
    "description": {
      "value": "<em>Your skill with improvised weapons makes them more dangerous than they would otherwise be.</em><br/><br/><b>Prerequisites</b><br/>Catch Off-Guard or Throw Anything.<br/><br/><b>Benefits</b><br/>While in this style, you deal damage with improvised weapons as if they were one size category larger. For every style feat you have that lists Shikigami Style as a prerequisite, treat the improvised weapon as an additional size category larger, to a maximum of three sizes larger than its actual size.",
      "unidentified": ""
    },
    "tags": [
      "PFS",
      "Combat",
      "Style"
    ],
    "actions": [],
    "uses": {
      "per": null,
      "value": 0,
      "maxFormula": "",
      "autoDeductChargesCost": "1"
    },
    "attackNotes": [],
    "effectNotes": [],
    "changes": [],
    "changeFlags": {
      "loseDexToAC": false,
      "noEncumbrance": false,
      "mediumArmorFullSpeed": false,
      "heavyArmorFullSpeed": false
    },
    "contextNotes": [],
    "links": {
      "children": [],
      "charges": []
    },
    "tag": "",
    "useCustomTag": false,
    "armorProf": {
      "value": [],
      "custom": ""
    },
    "weaponProf": {
      "value": [],
      "custom": ""
    },
    "languages": {
      "value": [],
      "custom": ""
    },
    "flags": {
      "boolean": {},
      "dictionary": {}
    },
    "scriptCalls": [],
    "subType": "feat",
    "associations": {
      "classes": []
    },
    "showInQuickbar": false,
    "abilityType": "none",
    "crOffset": "",
    "disabled": false,
    "classSkills": {}
  },
  "ownership": {
    "default": 0
  },
  "_stats": {
    "systemId": "pf1",
    "systemVersion": "9.1",
    "coreVersion": "10.291",
    "createdTime": 1665428353764,
    "modifiedTime": 1689797885273,
    "lastModifiedBy": "ppv91YxratjWnkJi"
  },
  "effects": [],
  "folder": null,
  "sort": 0,
  "flags": {},
  "_key": "!items!LjEEFJ7b3PCSUaHq"
}