{
  "_id": "GskcZX9HD7MxpuyI",
  "name": "Signifer Armor Training",
  "type": "feat",
  "img": "systems/pf1/icons/items/armor/kusari-gusoku.png",
  "system": {
    "description": {
      "value": "<p><em>You have learned the art of spellcasting while wearing signifer armor.</em><br /><br /><strong>Prerequisites</strong><br />Arcane Armor Mastery, Arcane Armor Training, Heavy Armor Proficiency, caster level 7th, must swear allegiance to a single Hellknight order.<br /><br /><strong>Benefits</strong><br />As a swift action, you can reduce the arcane spell failure chance due to the armor you are wearing by 30% for any spells you cast this round. This benefit applies only if you are wearing armor with 'Hellknight' in its name. This bonus replaces, and does not stack with, the bonuses granted by Arcane Armor Mastery, Arcane Armor Training, and similar feats and effects.</p>\n<p><br /><strong>Pathfinder Society<br /></strong>In order to swear allegiance to a Hellknight order for the purpose of qualifying for character options in this book, a PC must be lawful-aligned.</p>",
      "unidentified": ""
    },
    "tags": [
      "PFS",
      "General"
    ],
    "actions": [],
    "uses": {
      "per": null,
      "value": 0,
      "maxFormula": "",
      "autoDeductChargesCost": "1"
    },
    "attackNotes": [],
    "effectNotes": [],
    "changes": [],
    "changeFlags": {
      "loseDexToAC": false,
      "noEncumbrance": false,
      "mediumArmorFullSpeed": false,
      "heavyArmorFullSpeed": false
    },
    "contextNotes": [],
    "links": {
      "children": [],
      "charges": []
    },
    "tag": "",
    "useCustomTag": false,
    "armorProf": {
      "value": [],
      "custom": ""
    },
    "weaponProf": {
      "value": [],
      "custom": ""
    },
    "languages": {
      "value": [],
      "custom": ""
    },
    "flags": {
      "boolean": {},
      "dictionary": {}
    },
    "scriptCalls": [],
    "subType": "feat",
    "associations": {
      "classes": []
    },
    "showInQuickbar": false,
    "abilityType": "none",
    "crOffset": "",
    "disabled": false,
    "classSkills": {}
  },
  "ownership": {
    "default": 0
  },
  "_stats": {
    "systemId": "pf1",
    "systemVersion": "9.1",
    "coreVersion": "10.291",
    "createdTime": 1665428352796,
    "modifiedTime": 1689797882589,
    "lastModifiedBy": "ppv91YxratjWnkJi"
  },
  "effects": [],
  "folder": null,
  "sort": 0,
  "flags": {},
  "_key": "!items!GskcZX9HD7MxpuyI"
}