{
  "_id": "FT4EdKtDVPH10JvN",
  "name": "Signature Deed",
  "type": "feat",
  "img": "systems/pf1/icons/skills/weapon_36.jpg",
  "system": {
    "description": {
      "value": "<em>You are known for performing a particular deed, and can perform it with greater ease.</em><br/><br/><b>Prerequisites</b><br/>Grit class feature, gunslinger level 11th.<br/><br/><b>Benefits</b><br/>Pick a deed that you have access to and that you must spend grit to perform. Once per round, you can perform this deed for 1 fewer grit point (minimum 0). You can reduce the cost of a deed in this way only if you have at least 1 grit point.",
      "unidentified": ""
    },
    "tags": [
      "PFS",
      "Grit"
    ],
    "actions": [],
    "uses": {
      "per": null,
      "value": 0,
      "maxFormula": "",
      "autoDeductChargesCost": "1"
    },
    "attackNotes": [],
    "effectNotes": [],
    "changes": [],
    "changeFlags": {
      "loseDexToAC": false,
      "noEncumbrance": false,
      "mediumArmorFullSpeed": false,
      "heavyArmorFullSpeed": false
    },
    "contextNotes": [],
    "links": {
      "children": [],
      "charges": []
    },
    "tag": "",
    "useCustomTag": false,
    "armorProf": {
      "value": [],
      "custom": ""
    },
    "weaponProf": {
      "value": [],
      "custom": ""
    },
    "languages": {
      "value": [],
      "custom": ""
    },
    "flags": {
      "boolean": {},
      "dictionary": {}
    },
    "scriptCalls": [],
    "subType": "feat",
    "associations": {
      "classes": []
    },
    "showInQuickbar": false,
    "abilityType": "none",
    "crOffset": "",
    "disabled": false,
    "classSkills": {}
  },
  "ownership": {
    "default": 0
  },
  "_stats": {
    "systemId": "pf1",
    "systemVersion": "9.1",
    "coreVersion": "10.291",
    "createdTime": 1665428352661,
    "modifiedTime": 1689797881506,
    "lastModifiedBy": "ppv91YxratjWnkJi"
  },
  "effects": [],
  "folder": null,
  "sort": 0,
  "flags": {},
  "_key": "!items!FT4EdKtDVPH10JvN"
}