{
  "_id": "50d4HDBE77YUiJsr",
  "name": "Silent Kill",
  "type": "feat",
  "img": "systems/pf1/icons/skills/violet_24.jpg",
  "system": {
    "description": {
      "value": "<em>You are quite adept at killing your prey without making noise or alerting others.</em><br/><br/><b>Prerequisites</b><br/>Stealth 12 ranks; assassinate advanced slayer talent or ninja master trick.<br/><br/><b>Benefits</b><br/>When you kill a creature during a surprise round, you can attempt a Stealth check, opposed by the Perception checks of potential observers, to prevent them from noticing your action and subsequently identifying you as the assailant.<br/><br/><b>Combat Trick</b><br/>When you use this feat, you can spend a number of stamina points up to your Dexterity bonus and gain a bonus on the Stealth check equal to the number of stamina points you spent.",
      "unidentified": ""
    },
    "tags": [
      "PFS",
      "Combat"
    ],
    "actions": [],
    "uses": {
      "per": null,
      "value": 0,
      "maxFormula": "",
      "autoDeductChargesCost": "1"
    },
    "attackNotes": [],
    "effectNotes": [],
    "changes": [],
    "changeFlags": {
      "loseDexToAC": false,
      "noEncumbrance": false,
      "mediumArmorFullSpeed": false,
      "heavyArmorFullSpeed": false
    },
    "contextNotes": [],
    "links": {
      "children": [],
      "charges": []
    },
    "tag": "",
    "useCustomTag": false,
    "armorProf": {
      "value": [],
      "custom": ""
    },
    "weaponProf": {
      "value": [],
      "custom": ""
    },
    "languages": {
      "value": [],
      "custom": ""
    },
    "flags": {
      "boolean": {},
      "dictionary": {}
    },
    "scriptCalls": [],
    "subType": "feat",
    "associations": {
      "classes": []
    },
    "showInQuickbar": false,
    "abilityType": "none",
    "crOffset": "",
    "disabled": false,
    "classSkills": {}
  },
  "ownership": {
    "default": 0
  },
  "_stats": {
    "systemId": "pf1",
    "systemVersion": "9.1",
    "coreVersion": "10.291",
    "createdTime": 1665428351211,
    "modifiedTime": 1689797876094,
    "lastModifiedBy": "ppv91YxratjWnkJi"
  },
  "effects": [],
  "folder": null,
  "sort": 0,
  "flags": {},
  "_key": "!items!50d4HDBE77YUiJsr"
}