{
  "_id": "LV8CY7xOE6EjeANy",
  "name": "Sinuous Vines",
  "type": "feat",
  "img": "systems/pf1/icons/skills/green_16.jpg",
  "system": {
    "description": {
      "value": "<em>Your vines can wrap around foes you grapple.</em><br/><br/><b>Prerequisites</b><br/>Dex 13, Improved Grapple, Improved Unarmed Strike, base attack bonus +6, gathlain.<br/><br/><b>Benefits</b><br/>You gain a +2 bonus on combat maneuver checks to grapple, and your wings count as a free hand for the purpose of grappling a foe. You can maintain a grapple with your wings and still make attacks with your other limbs. You cannot fly while maintaining a grapple with your wings.",
      "unidentified": ""
    },
    "tags": [
      "Racial",
      "Gathlain"
    ],
    "actions": [],
    "uses": {
      "per": null,
      "value": 0,
      "maxFormula": "",
      "autoDeductChargesCost": "1"
    },
    "attackNotes": [],
    "effectNotes": [],
    "changes": [],
    "changeFlags": {
      "loseDexToAC": false,
      "noEncumbrance": false,
      "mediumArmorFullSpeed": false,
      "heavyArmorFullSpeed": false
    },
    "contextNotes": [],
    "links": {
      "children": [],
      "charges": []
    },
    "tag": "",
    "useCustomTag": false,
    "armorProf": {
      "value": [],
      "custom": ""
    },
    "weaponProf": {
      "value": [],
      "custom": ""
    },
    "languages": {
      "value": [],
      "custom": ""
    },
    "flags": {
      "boolean": {},
      "dictionary": {}
    },
    "scriptCalls": [],
    "subType": "feat",
    "associations": {
      "classes": []
    },
    "showInQuickbar": false,
    "abilityType": "none",
    "crOffset": "",
    "disabled": false,
    "classSkills": {}
  },
  "ownership": {
    "default": 0
  },
  "_stats": {
    "systemId": "pf1",
    "systemVersion": "9.1",
    "coreVersion": "10.291",
    "createdTime": 1665428353750,
    "modifiedTime": 1689797885182,
    "lastModifiedBy": "ppv91YxratjWnkJi"
  },
  "effects": [],
  "folder": null,
  "sort": 0,
  "flags": {},
  "_key": "!items!LV8CY7xOE6EjeANy"
}