{
  "_id": "r3KmfFkjmuBbOwAv",
  "name": "Skald's Vigor",
  "type": "feat",
  "img": "systems/pf1/icons/feats/athletic.jpg",
  "system": {
    "description": {
      "value": "<em>Your song and your enthusiasm combine to invigorate you in battle.</em><br/><br/><b>Prerequisites</b><br/>Raging song class feature.<br/><br/><b>Benefits</b><br/>While maintaining a raging song, you gain fast healing equal to the Strength bonus your song provides, starting in the round after you begin the song. If you stop maintaining your song, the fast healing ends, even if the effects of your song persist.",
      "unidentified": ""
    },
    "tags": [
      "PFS",
      "General"
    ],
    "actions": [],
    "uses": {
      "per": null,
      "value": 0,
      "maxFormula": "",
      "autoDeductChargesCost": "1"
    },
    "attackNotes": [],
    "effectNotes": [],
    "changes": [],
    "changeFlags": {
      "loseDexToAC": false,
      "noEncumbrance": false,
      "mediumArmorFullSpeed": false,
      "heavyArmorFullSpeed": false
    },
    "contextNotes": [],
    "links": {
      "children": [],
      "charges": []
    },
    "tag": "",
    "useCustomTag": false,
    "armorProf": {
      "value": [],
      "custom": ""
    },
    "weaponProf": {
      "value": [],
      "custom": ""
    },
    "languages": {
      "value": [],
      "custom": ""
    },
    "flags": {
      "boolean": {},
      "dictionary": {}
    },
    "scriptCalls": [],
    "subType": "feat",
    "associations": {
      "classes": []
    },
    "showInQuickbar": false,
    "abilityType": "none",
    "crOffset": "",
    "disabled": false,
    "classSkills": {}
  },
  "ownership": {
    "default": 0
  },
  "_stats": {
    "systemId": "pf1",
    "systemVersion": "9.1",
    "coreVersion": "10.291",
    "createdTime": 1665428358111,
    "modifiedTime": 1689797901229,
    "lastModifiedBy": "ppv91YxratjWnkJi"
  },
  "effects": [],
  "folder": null,
  "sort": 0,
  "flags": {},
  "_key": "!items!r3KmfFkjmuBbOwAv"
}