{
  "_id": "B8d0MfBlPzpcgPwJ",
  "name": "Skaveling Companion",
  "type": "feat",
  "img": "icons/environment/creatures/gargoyle-grey-blue.webp",
  "system": {
    "description": {
      "value": "<em>You are bonded with a terrifying undead mount created through foul daemonic rites.</em><br/><br/><b>Prerequisites</b><br/>7th level in a class that grants an animal companion or mount, urdefhan.<br/><br/><b>Benefits</b><br/>In place of the animal companion or mount granted by your class feature, you are bonded with a skaveling (Bestiary 2 42). Though less intelligent than others of its kind and lacking the ability to paralyze and infect victims with its bite, the beast serves you unerringly.<br/><br/><b>Bat, Skaveling</b> <br/><b>Size</b> Large; <b>Speed</b> 20 ft., fly 40 ft. (good); <b>AC</b> +6 natural armor; <b>Attack</b> bite +10 (2d8+6); <b>Ability Scores</b> Str 23, Dex 19, Con --, Int 2, Wis 15, Cha 14; <b>Special Attacks</b> screech (DC 15); <b>Languages</b> none; <b>Special Abilities</b> Screech (Su) Once per day as a standard action, a skaveling can utter an ear-splitting screech that stuns non-skavelings in a 20-foot burst. All creatures within the area must succeed at a DC 15 Fortitude save or be stunned for 1d3 rounds. Other skavelings, mobats, and urdefhans are immune to this effect. This is a sonic mind-affecting effect. The save DC is Charisma-based.",
      "unidentified": ""
    },
    "tags": [
      "General"
    ],
    "actions": [],
    "uses": {
      "per": null,
      "value": 0,
      "maxFormula": "",
      "autoDeductChargesCost": "1"
    },
    "attackNotes": [],
    "effectNotes": [],
    "changes": [],
    "changeFlags": {
      "loseDexToAC": false,
      "noEncumbrance": false,
      "mediumArmorFullSpeed": false,
      "heavyArmorFullSpeed": false
    },
    "contextNotes": [],
    "links": {
      "children": [],
      "charges": []
    },
    "tag": "",
    "useCustomTag": false,
    "armorProf": {
      "value": [],
      "custom": ""
    },
    "weaponProf": {
      "value": [],
      "custom": ""
    },
    "languages": {
      "value": [],
      "custom": ""
    },
    "flags": {
      "boolean": {},
      "dictionary": {}
    },
    "scriptCalls": [],
    "subType": "feat",
    "associations": {
      "classes": []
    },
    "showInQuickbar": false,
    "abilityType": "none",
    "crOffset": "",
    "disabled": false,
    "classSkills": {}
  },
  "ownership": {
    "default": 0
  },
  "_stats": {
    "systemId": "pf1",
    "systemVersion": "9.1",
    "coreVersion": "10.291",
    "createdTime": 1665428352057,
    "modifiedTime": 1689797878919,
    "lastModifiedBy": "ppv91YxratjWnkJi"
  },
  "effects": [],
  "folder": null,
  "sort": 0,
  "flags": {},
  "_key": "!items!B8d0MfBlPzpcgPwJ"
}