{
  "_id": "iuyQGv9f6vdPC1Nj",
  "name": "Skill Focus (Spellcraft)",
  "type": "feat",
  "img": "systems/pf1/icons/feats/alertness.jpg",
  "system": {
    "description": {
      "value": "<em>Choose a skill. You are particularly adept at that skill.</em><br/><br/><b>Benefits</b><br/>You get a +3 bonus on all checks involving the chosen skill. If you have 10 or more ranks in that skill, this bonus increases to +6.<br/><br/><b>Special</b><br/>You can gain this feat multiple times. Its effects do not stack. Each time you take the feat, it applies to a new skill.",
      "unidentified": ""
    },
    "tags": [
      "PFS",
      "General"
    ],
    "actions": [],
    "uses": {
      "per": null,
      "value": 0,
      "maxFormula": "",
      "autoDeductChargesCost": "1"
    },
    "attackNotes": [],
    "effectNotes": [],
    "changes": [
      {
        "_id": "nqg6vuzc",
        "formula": "@skills.spl.rank >= 10 ? 6 : 3",
        "operator": "add",
        "subTarget": "skill.spl",
        "modifier": "untyped",
        "priority": 0,
        "value": 0
      }
    ],
    "changeFlags": {
      "loseDexToAC": false,
      "noEncumbrance": false,
      "mediumArmorFullSpeed": false,
      "heavyArmorFullSpeed": false
    },
    "contextNotes": [],
    "links": {
      "children": [],
      "charges": []
    },
    "tag": "skillFocusSpellcraft",
    "useCustomTag": false,
    "armorProf": {
      "value": [],
      "custom": ""
    },
    "weaponProf": {
      "value": [],
      "custom": ""
    },
    "languages": {
      "value": [],
      "custom": ""
    },
    "flags": {
      "boolean": {},
      "dictionary": {}
    },
    "scriptCalls": [],
    "subType": "feat",
    "associations": {
      "classes": []
    },
    "showInQuickbar": false,
    "abilityType": "none",
    "crOffset": "",
    "disabled": false,
    "classSkills": {}
  },
  "ownership": {
    "default": 0
  },
  "_stats": {
    "systemId": "pf1",
    "systemVersion": "9.1",
    "coreVersion": "10.291",
    "createdTime": 1665428356816,
    "modifiedTime": 1689797896888,
    "lastModifiedBy": "ppv91YxratjWnkJi"
  },
  "effects": [],
  "folder": null,
  "sort": 0,
  "flags": {},
  "_key": "!items!iuyQGv9f6vdPC1Nj"
}