{
  "_id": "qFyGwyNds9Ilzu50",
  "name": "Smashing Dent",
  "type": "feat",
  "img": "systems/pf1/icons/skills/blue_27.jpg",
  "system": {
    "description": {
      "value": "<em>Your hammer strikes cause traumatic injuries.</em><br/><br/><b>Prerequisites</b><br/>Str 13, Improved Sunder, Smashing Crush, Smashing Style, Weapon Focus with the chosen weapon, base attack bonus +6.<br/><br/><b>Benefits</b><br/>While using Smashing Style, each time you damage a suit of armor with a sunder combat maneuver, you reduce its armor bonus to its Armor Class by 1 and increase its armor check penalty by 1. Armor cannot have its armor bonus to AC reduced to less than 50% of its normal bonus or its armor check penalty more than doubled. These reductions and increases both end when the damage dealt by the sunder is repaired.",
      "unidentified": ""
    },
    "tags": [
      "PFS",
      "Combat"
    ],
    "actions": [],
    "uses": {
      "per": null,
      "value": 0,
      "maxFormula": "",
      "autoDeductChargesCost": "1"
    },
    "attackNotes": [],
    "effectNotes": [],
    "changes": [],
    "changeFlags": {
      "loseDexToAC": false,
      "noEncumbrance": false,
      "mediumArmorFullSpeed": false,
      "heavyArmorFullSpeed": false
    },
    "contextNotes": [],
    "links": {
      "children": [],
      "charges": []
    },
    "tag": "",
    "useCustomTag": false,
    "armorProf": {
      "value": [],
      "custom": ""
    },
    "weaponProf": {
      "value": [],
      "custom": ""
    },
    "languages": {
      "value": [],
      "custom": ""
    },
    "flags": {
      "boolean": {},
      "dictionary": {}
    },
    "scriptCalls": [],
    "subType": "feat",
    "associations": {
      "classes": []
    },
    "showInQuickbar": false,
    "abilityType": "none",
    "crOffset": "",
    "disabled": false,
    "classSkills": {}
  },
  "ownership": {
    "default": 0
  },
  "_stats": {
    "systemId": "pf1",
    "systemVersion": "9.1",
    "coreVersion": "10.291",
    "createdTime": 1665428358038,
    "modifiedTime": 1689797900806,
    "lastModifiedBy": "ppv91YxratjWnkJi"
  },
  "effects": [],
  "folder": null,
  "sort": 0,
  "flags": {},
  "_key": "!items!qFyGwyNds9Ilzu50"
}