{
  "_id": "4Itbl2iH9VfnUrpc",
  "name": "Smash",
  "type": "feat",
  "img": "systems/pf1/icons/races/half-orc.png",
  "system": {
    "description": {
      "value": "<em>You overcome obstacles by breaking them.</em><br/><br/><b>Prerequisites</b><br/>Power Attack, half-orc.<br/><br/><b>Benefits</b><br/>When you attack an inanimate, unattended object, you ignore the first 5 points of its hardness. You also receive a +5 bonus on Strength checks made to knock down or break open doors.<br/><br/><b>Special</b><br/>The benefits of this feat do not apply to sunder attempts or attacks against constructs, only attacks on inanimate, unattended objects.<br/><br/><b>Combat Trick</b><br/>When attempting a sunder combat maneuver or making an attack against a construct that has a hardness, you can spend 5 stamina points to ignore the first 10 points of the target's hardness.",
      "unidentified": ""
    },
    "tags": [
      "PFS",
      "Combat"
    ],
    "actions": [],
    "uses": {
      "per": null,
      "value": 0,
      "maxFormula": "",
      "autoDeductChargesCost": "1"
    },
    "attackNotes": [],
    "effectNotes": [],
    "changes": [],
    "changeFlags": {
      "loseDexToAC": false,
      "noEncumbrance": false,
      "mediumArmorFullSpeed": false,
      "heavyArmorFullSpeed": false
    },
    "contextNotes": [],
    "links": {
      "children": [],
      "charges": []
    },
    "tag": "",
    "useCustomTag": false,
    "armorProf": {
      "value": [],
      "custom": ""
    },
    "weaponProf": {
      "value": [],
      "custom": ""
    },
    "languages": {
      "value": [],
      "custom": ""
    },
    "flags": {
      "boolean": {},
      "dictionary": {}
    },
    "scriptCalls": [],
    "subType": "feat",
    "associations": {
      "classes": []
    },
    "showInQuickbar": false,
    "abilityType": "none",
    "crOffset": "",
    "disabled": false,
    "classSkills": {}
  },
  "ownership": {
    "default": 0
  },
  "_stats": {
    "systemId": "pf1",
    "systemVersion": "9.1",
    "coreVersion": "10.291",
    "createdTime": 1665428350886,
    "modifiedTime": 1689797875463,
    "lastModifiedBy": "ppv91YxratjWnkJi"
  },
  "effects": [],
  "folder": null,
  "sort": 0,
  "flags": {},
  "_key": "!items!4Itbl2iH9VfnUrpc"
}