{
  "_id": "CMZZYIe6hkKIQsxB",
  "name": "Snapping Turtle Style",
  "type": "feat",
  "img": "systems/pf1/icons/items/inventory/monster-chitin.jpg",
  "system": {
    "description": {
      "value": "<em>Your deft unarmed style allows you to shield your body from harm.</em><br/><br/><b>Prerequisites</b><br/>Improved Unarmed Strike, base attack bonus +1 or monk level 1st.<br/><br/><b>Benefits</b><br/>While using the Snapping Turtle Style feat with at least one hand free, you gain a +1 shield bonus to AC.<br/><br/><b>Combat Trick</b><br/>When using this style, as long as you have at least 1 stamina point in your stamina pool, your shield bonus to AC increases by 1.",
      "unidentified": ""
    },
    "tags": [
      "PFS",
      "Combat",
      "Style"
    ],
    "actions": [],
    "uses": {
      "per": null,
      "value": 0,
      "maxFormula": "",
      "autoDeductChargesCost": "1"
    },
    "attackNotes": [],
    "effectNotes": [],
    "changes": [],
    "changeFlags": {
      "loseDexToAC": false,
      "noEncumbrance": false,
      "mediumArmorFullSpeed": false,
      "heavyArmorFullSpeed": false
    },
    "contextNotes": [],
    "links": {
      "children": [],
      "charges": []
    },
    "tag": "",
    "useCustomTag": false,
    "armorProf": {
      "value": [],
      "custom": ""
    },
    "weaponProf": {
      "value": [],
      "custom": ""
    },
    "languages": {
      "value": [],
      "custom": ""
    },
    "flags": {
      "boolean": {},
      "dictionary": {}
    },
    "scriptCalls": [],
    "subType": "feat",
    "associations": {
      "classes": []
    },
    "showInQuickbar": false,
    "abilityType": "none",
    "crOffset": "",
    "disabled": false,
    "classSkills": {}
  },
  "ownership": {
    "default": 0
  },
  "_stats": {
    "systemId": "pf1",
    "systemVersion": "9.1",
    "coreVersion": "10.291",
    "createdTime": 1665428352127,
    "modifiedTime": 1689797879291,
    "lastModifiedBy": "ppv91YxratjWnkJi"
  },
  "effects": [],
  "folder": null,
  "sort": 0,
  "flags": {},
  "_key": "!items!CMZZYIe6hkKIQsxB"
}