{
  "_id": "aVBMwlLYUuZmnSDQ",
  "name": "Snatch and Drop",
  "type": "feat",
  "img": "systems/pf1/icons/feats/quick-draw.jpg",
  "system": {
    "description": {
      "value": "<p><em>You have mastered the ability to grab foes while you fly by them, carry them into the air, and drop them from extreme heights.</em><br /><br /><strong>Prerequisites</strong><br />Flyby Attack, Powerful Wings.<br /><br /><strong>Benefits</strong><br />When you succeed at a grapple combat maneuver check as part of a flyby attack, you can move yourself and your target up to half your remaining fly speed. You must drop your target before the end of your turn, or both you and your target crash to the ground immediately and take 2d6 points of falling damage each. A dropped creature takes falling damage as normal. You can't use this feat on creatures whose weight would exceed the amount you can carry as a heavy load.<br /><br /><strong>Special</strong><br />While the following feats are primarily taken by strix, other creatures with natural wings can also take them at the GM's discretion.</p>",
      "unidentified": ""
    },
    "tags": [
      "Combat"
    ],
    "actions": [],
    "uses": {
      "per": null,
      "value": 0,
      "maxFormula": "",
      "autoDeductChargesCost": "1"
    },
    "attackNotes": [],
    "effectNotes": [],
    "changes": [],
    "changeFlags": {
      "loseDexToAC": false,
      "noEncumbrance": false,
      "mediumArmorFullSpeed": false,
      "heavyArmorFullSpeed": false
    },
    "contextNotes": [],
    "links": {
      "children": [],
      "charges": []
    },
    "tag": "",
    "useCustomTag": false,
    "armorProf": {
      "value": [],
      "custom": ""
    },
    "weaponProf": {
      "value": [],
      "custom": ""
    },
    "languages": {
      "value": [],
      "custom": ""
    },
    "flags": {
      "boolean": {},
      "dictionary": {}
    },
    "scriptCalls": [],
    "subType": "feat",
    "associations": {
      "classes": []
    },
    "showInQuickbar": false,
    "abilityType": "none",
    "crOffset": "",
    "disabled": false,
    "classSkills": {}
  },
  "ownership": {
    "default": 0
  },
  "_stats": {
    "systemId": "pf1",
    "systemVersion": "9.1",
    "coreVersion": "10.291",
    "createdTime": 1665428355591,
    "modifiedTime": 1689797892654,
    "lastModifiedBy": "ppv91YxratjWnkJi"
  },
  "effects": [],
  "folder": null,
  "sort": 0,
  "flags": {},
  "_key": "!items!aVBMwlLYUuZmnSDQ"
}