{
  "_id": "1BPlMfaCscwkz8Zk",
  "name": "Snoutgrip",
  "type": "feat",
  "img": "systems/pf1/icons/races/creature-types/abberation.png",
  "system": {
    "description": {
      "value": "<em>You can hold an opponent's mouth shut.</em><br/><br/><b>Prerequisites</b><br/>Combat Expertise, Combat Reflexes, Improved Grapple, Improved Unarmed Strike, base attack bonus +12 or 10th-level monk.<br/><br/><b>Benefits</b><br/>As an immediate action, whenever an opponent up to one size category larger than you misses you with its bite attack, you can attempt a grapple with a -5 penalty on the check. If you succeed, you have grappled your opponent and are holding its mouth shut, preventing it from using its bite attack, breath weapon, or spells with a verbal component until it escapes your grapple. You may make this grapple attempt even if the target is out of your reach.",
      "unidentified": ""
    },
    "tags": [
      "PFS",
      "Combat"
    ],
    "actions": [],
    "uses": {
      "per": null,
      "value": 0,
      "maxFormula": "",
      "autoDeductChargesCost": "1"
    },
    "attackNotes": [],
    "effectNotes": [],
    "changes": [],
    "changeFlags": {
      "loseDexToAC": false,
      "noEncumbrance": false,
      "mediumArmorFullSpeed": false,
      "heavyArmorFullSpeed": false
    },
    "contextNotes": [],
    "links": {
      "children": [],
      "charges": []
    },
    "tag": "",
    "useCustomTag": false,
    "armorProf": {
      "value": [],
      "custom": ""
    },
    "weaponProf": {
      "value": [],
      "custom": ""
    },
    "languages": {
      "value": [],
      "custom": ""
    },
    "flags": {
      "boolean": {},
      "dictionary": {}
    },
    "scriptCalls": [],
    "subType": "feat",
    "associations": {
      "classes": []
    },
    "showInQuickbar": false,
    "abilityType": "none",
    "crOffset": "",
    "disabled": false,
    "classSkills": {}
  },
  "ownership": {
    "default": 0
  },
  "_stats": {
    "systemId": "pf1",
    "systemVersion": "9.1",
    "coreVersion": "10.291",
    "createdTime": 1665428350658,
    "modifiedTime": 1689797874384,
    "lastModifiedBy": "ppv91YxratjWnkJi"
  },
  "effects": [],
  "folder": null,
  "sort": 0,
  "flags": {},
  "_key": "!items!1BPlMfaCscwkz8Zk"
}