{
  "_id": "RZKVX0UBYzzjnpOe",
  "name": "Solid Shadows",
  "type": "feat",
  "img": "systems/pf1/icons/skills/violet_17.jpg",
  "system": {
    "description": {
      "value": "<em>Your shadowy illusions are more potent.</em><br/><br/><b>Prerequisites</b><br/>Spell Focus (illusion).<br/><br/><b>Benefits</b><br/>When casting greater shadow conjuration, greater shadow evocation, shadow conjuration, or shadow evocation (and, at the GM's discretion, any similar spell with the shadow descriptor that mimics a spell of another school), that spell is 20% more real then normal. A solid shadows spell takes up a spell slot 1 level higher than the spell's actual level.",
      "unidentified": ""
    },
    "tags": [
      "PFS",
      "Metamagic"
    ],
    "actions": [],
    "uses": {
      "per": null,
      "value": 0,
      "maxFormula": "",
      "autoDeductChargesCost": "1"
    },
    "attackNotes": [],
    "effectNotes": [],
    "changes": [],
    "changeFlags": {
      "loseDexToAC": false,
      "noEncumbrance": false,
      "mediumArmorFullSpeed": false,
      "heavyArmorFullSpeed": false
    },
    "contextNotes": [],
    "links": {
      "children": [],
      "charges": []
    },
    "tag": "",
    "useCustomTag": false,
    "armorProf": {
      "value": [],
      "custom": ""
    },
    "weaponProf": {
      "value": [],
      "custom": ""
    },
    "languages": {
      "value": [],
      "custom": ""
    },
    "flags": {
      "boolean": {},
      "dictionary": {}
    },
    "scriptCalls": [],
    "subType": "feat",
    "associations": {
      "classes": []
    },
    "showInQuickbar": false,
    "abilityType": "none",
    "crOffset": "",
    "disabled": false,
    "classSkills": {}
  },
  "ownership": {
    "default": 0
  },
  "_stats": {
    "systemId": "pf1",
    "systemVersion": "9.1",
    "coreVersion": "10.291",
    "createdTime": 1665428354455,
    "modifiedTime": 1689797887743,
    "lastModifiedBy": "ppv91YxratjWnkJi"
  },
  "effects": [],
  "folder": null,
  "sort": 0,
  "flags": {},
  "_key": "!items!RZKVX0UBYzzjnpOe"
}