{
  "_id": "7ZTSh33EUEytgbdU",
  "name": "Sonic Croak",
  "type": "feat",
  "img": "systems/pf1/icons/spells/air-burst-sky-1.jpg",
  "system": {
    "description": {
      "value": "<em>Your croak creates powerful sound waves that you can direct at fragile targets.</em><br/><br/><b>Prerequisites</b><br/>Throat Pouch, boggard, terrifying croak.<br/><br/><b>Benefits</b><br/>When you use your terrifying croak ability, instead of it imparting its normal effect, you can choose to deal 1d4 points of sonic damage to creatures in a 15-foot cone (Fortitude half ). The DC of this Fortitude save is the same as that of your terrifying croak. For every 3 Hit Dice you possess, the damage dealt increases by 1d4.<br/><br/><b>Special</b><br/>The Throat Pouch feat increases the size of this feat's cone by 5 feet for every 6 HD you have, not every 2 HD.",
      "unidentified": ""
    },
    "tags": [
      "General"
    ],
    "actions": [],
    "uses": {
      "per": null,
      "value": 0,
      "maxFormula": "",
      "autoDeductChargesCost": "1"
    },
    "attackNotes": [],
    "effectNotes": [],
    "changes": [],
    "changeFlags": {
      "loseDexToAC": false,
      "noEncumbrance": false,
      "mediumArmorFullSpeed": false,
      "heavyArmorFullSpeed": false
    },
    "contextNotes": [],
    "links": {
      "children": [],
      "charges": []
    },
    "tag": "",
    "useCustomTag": false,
    "armorProf": {
      "value": [],
      "custom": ""
    },
    "weaponProf": {
      "value": [],
      "custom": ""
    },
    "languages": {
      "value": [],
      "custom": ""
    },
    "flags": {
      "boolean": {},
      "dictionary": {}
    },
    "scriptCalls": [],
    "subType": "feat",
    "associations": {
      "classes": []
    },
    "showInQuickbar": false,
    "abilityType": "none",
    "crOffset": "",
    "disabled": false,
    "classSkills": {}
  },
  "ownership": {
    "default": 0
  },
  "_stats": {
    "systemId": "pf1",
    "systemVersion": "9.1",
    "coreVersion": "10.291",
    "createdTime": 1665428351488,
    "modifiedTime": 1689797877060,
    "lastModifiedBy": "ppv91YxratjWnkJi"
  },
  "effects": [],
  "folder": null,
  "sort": 0,
  "flags": {},
  "_key": "!items!7ZTSh33EUEytgbdU"
}