{
  "_id": "UGLCGqd0MMBRwRlM",
  "name": "Spectrum Sight",
  "type": "feat",
  "img": "systems/pf1/icons/feats/alertness.jpg",
  "system": {
    "description": {
      "value": "<em>Your pursuit of dispassionate perfection gives you unmatched insight into the condition of others.</em><br/><br/><b>Prerequisites</b><br/>Alertness, Perception 5 ranks.<br/><br/><b>Benefits</b><br/>You can perform the read aura occult skill unlock even if you can't use psychic magic. If you can cast psychic spells or have the Psychic Sensitivity feat, you can use read aura one additional time per day.<br/><br/> Once per day, you can perform an aura reading as a full-round action. If you successfully use detect thoughts or a similar mind-reading divination on a creature, you can use the read aura skill unlock on that creature as a full-round action as long as it is in your line of sight and within 30 feet. If you fail the check, you can't attempt to read that same creature's aura for 24 hours.<br/><br/><b>Special</b><br/>If you have a ki pool, you can expend 1 point from your ki pool as a swift action to gain one additional daily use of the read aura occult skill unlock.",
      "unidentified": ""
    },
    "tags": [
      "PFS",
      "General"
    ],
    "actions": [],
    "uses": {
      "per": null,
      "value": 0,
      "maxFormula": "",
      "autoDeductChargesCost": "1"
    },
    "attackNotes": [],
    "effectNotes": [],
    "changes": [],
    "changeFlags": {
      "loseDexToAC": false,
      "noEncumbrance": false,
      "mediumArmorFullSpeed": false,
      "heavyArmorFullSpeed": false
    },
    "contextNotes": [],
    "links": {
      "children": [],
      "charges": []
    },
    "tag": "",
    "useCustomTag": false,
    "armorProf": {
      "value": [],
      "custom": ""
    },
    "weaponProf": {
      "value": [],
      "custom": ""
    },
    "languages": {
      "value": [],
      "custom": ""
    },
    "flags": {
      "boolean": {},
      "dictionary": {}
    },
    "scriptCalls": [],
    "subType": "feat",
    "associations": {
      "classes": []
    },
    "showInQuickbar": false,
    "abilityType": "none",
    "crOffset": "",
    "disabled": false,
    "classSkills": {}
  },
  "ownership": {
    "default": 0
  },
  "_stats": {
    "systemId": "pf1",
    "systemVersion": "9.1",
    "coreVersion": "10.291",
    "createdTime": 1665428354895,
    "modifiedTime": 1689797889570,
    "lastModifiedBy": "ppv91YxratjWnkJi"
  },
  "effects": [],
  "folder": null,
  "sort": 0,
  "flags": {},
  "_key": "!items!UGLCGqd0MMBRwRlM"
}