{
  "_id": "XSGV4YTIfqAZvEml",
  "name": "Spellbreaker",
  "type": "feat",
  "img": "systems/pf1/icons/feats/greater-sunder.jpg",
  "system": {
    "description": {
      "value": "<em>You can strike at enemy spellcasters who fail to cast defensively when you threaten them.</em><br/><br/><b>Prerequisites</b><br/>Disruptive, 10th-level fighter.<br/><br/><b>Benefits</b><br/>Enemies in your threatened area that fail their checks to cast spells defensively provoke attacks of opportunity from you.<br/><br/><b>Normal</b><br/>Enemies that fail to cast spells defensively do not provoke attacks of opportunity.<br/><br/><b>Combat Trick</b><br/>When you hit a caster with an attack of opportunity it provoked by failing to cast defensively, you can spend 5 stamina points to daze the caster until the end of its next turn. If the caster succeeds at a Fortitude save with a DC equal to 10 + your base attack bonus, it is staggered instead.",
      "unidentified": ""
    },
    "tags": [
      "PFS",
      "Combat"
    ],
    "actions": [],
    "uses": {
      "per": null,
      "value": 0,
      "maxFormula": "",
      "autoDeductChargesCost": "1"
    },
    "attackNotes": [],
    "effectNotes": [],
    "changes": [],
    "changeFlags": {
      "loseDexToAC": false,
      "noEncumbrance": false,
      "mediumArmorFullSpeed": false,
      "heavyArmorFullSpeed": false
    },
    "contextNotes": [],
    "links": {
      "children": [],
      "charges": []
    },
    "tag": "",
    "useCustomTag": false,
    "armorProf": {
      "value": [],
      "custom": ""
    },
    "weaponProf": {
      "value": [],
      "custom": ""
    },
    "languages": {
      "value": [],
      "custom": ""
    },
    "flags": {
      "boolean": {},
      "dictionary": {}
    },
    "scriptCalls": [],
    "subType": "feat",
    "associations": {
      "classes": []
    },
    "showInQuickbar": false,
    "abilityType": "none",
    "crOffset": "",
    "disabled": false,
    "classSkills": {}
  },
  "ownership": {
    "default": 0
  },
  "_stats": {
    "systemId": "pf1",
    "systemVersion": "9.1",
    "coreVersion": "10.291",
    "createdTime": 1665428355107,
    "modifiedTime": 1689797890791,
    "lastModifiedBy": "ppv91YxratjWnkJi"
  },
  "effects": [],
  "folder": null,
  "sort": 0,
  "flags": {},
  "_key": "!items!XSGV4YTIfqAZvEml"
}