{
  "_id": "iK0nRpxIZDyGP99o",
  "name": "Spell Mastery (Mythic)",
  "type": "feat",
  "img": "systems/pf1/icons/spells/air-burst-sky-3.jpg",
  "system": {
    "description": {
      "value": "<em>You're so familiar with certain spells you can prepare them with the greatest of ease.</em><br/><br/><b>Prerequisites</b><br/>Spell Mastery.<br/><br/><b>Benefits</b><br/>You can prepare spells you have selected with Spell Mastery as a full-round action. You must spend the appropriate amount of time preparing other spells you have not mastered. As a full-round action, you can expend one use of mythic power to prepare all your spells that you have selected with Spell Mastery.",
      "unidentified": ""
    },
    "tags": [
      "PFS",
      "General",
      "Mythic"
    ],
    "actions": [],
    "uses": {
      "per": null,
      "value": 0,
      "maxFormula": "",
      "autoDeductChargesCost": "1"
    },
    "attackNotes": [],
    "effectNotes": [],
    "changes": [],
    "changeFlags": {
      "loseDexToAC": false,
      "noEncumbrance": false,
      "mediumArmorFullSpeed": false,
      "heavyArmorFullSpeed": false
    },
    "contextNotes": [],
    "links": {
      "children": [],
      "charges": []
    },
    "tag": "",
    "useCustomTag": false,
    "armorProf": {
      "value": [],
      "custom": ""
    },
    "weaponProf": {
      "value": [],
      "custom": ""
    },
    "languages": {
      "value": [],
      "custom": ""
    },
    "flags": {
      "boolean": {},
      "dictionary": {}
    },
    "scriptCalls": [],
    "subType": "feat",
    "associations": {
      "classes": []
    },
    "showInQuickbar": false,
    "abilityType": "none",
    "crOffset": "",
    "disabled": false,
    "classSkills": {}
  },
  "ownership": {
    "default": 0
  },
  "_stats": {
    "systemId": "pf1",
    "systemVersion": "9.1",
    "coreVersion": "10.291",
    "createdTime": 1665428356778,
    "modifiedTime": 1689797896648,
    "lastModifiedBy": "ppv91YxratjWnkJi"
  },
  "effects": [],
  "folder": null,
  "sort": 0,
  "flags": {},
  "_key": "!items!iK0nRpxIZDyGP99o"
}