{
  "_id": "N0sWq0QHFmHXVGAq",
  "name": "Spell Praxis",
  "type": "feat",
  "img": "systems/pf1/icons/feats/channel-smite.jpg",
  "system": {
    "description": {
      "value": "<p><em>You can solve your spell equations in the instant your blade strikes a foe.</em><br /><br /><strong>Prerequisites</strong><br />Scribe Scroll, Scribe Spell Equation, aphorite, caster level 5th, crystalline dust racial trait.<br /><br /><strong>Benefits</strong><br />When you hit a creature with a melee weapon, you can immediately solve one of your spell equations to cast the spell and target that creature as an immediate action. The spell stored in the spell equation must be a spell of up to 3rd level that targets one or more creatures and has a casting time of 1 standard action. The spell can target only the creature you hit, even if the spell would normally allow multiple targets.</p>\n<p><br /><strong>Pathfinder Society<br /></strong>Replace the Scribe Scroll prerequisite of Scribe Spell Equation and Spell Praxis with any feat that lists aphorite as a prerequisite.</p>",
      "unidentified": ""
    },
    "tags": [
      "PFS",
      "Racial",
      "Aphorite"
    ],
    "actions": [],
    "uses": {
      "per": null,
      "value": 0,
      "maxFormula": "",
      "autoDeductChargesCost": "1"
    },
    "attackNotes": [],
    "effectNotes": [],
    "changes": [],
    "changeFlags": {
      "loseDexToAC": false,
      "noEncumbrance": false,
      "mediumArmorFullSpeed": false,
      "heavyArmorFullSpeed": false
    },
    "contextNotes": [],
    "links": {
      "children": [],
      "charges": []
    },
    "tag": "",
    "useCustomTag": false,
    "armorProf": {
      "value": [],
      "custom": ""
    },
    "weaponProf": {
      "value": [],
      "custom": ""
    },
    "languages": {
      "value": [],
      "custom": ""
    },
    "flags": {
      "boolean": {},
      "dictionary": {}
    },
    "scriptCalls": [],
    "subType": "feat",
    "associations": {
      "classes": []
    },
    "showInQuickbar": false,
    "abilityType": "none",
    "crOffset": "",
    "disabled": false,
    "classSkills": {}
  },
  "ownership": {
    "default": 0
  },
  "_stats": {
    "systemId": "pf1",
    "systemVersion": "9.1",
    "coreVersion": "10.291",
    "createdTime": 1665428353846,
    "modifiedTime": 1689797885722,
    "lastModifiedBy": "ppv91YxratjWnkJi"
  },
  "effects": [],
  "folder": null,
  "sort": 0,
  "flags": {},
  "_key": "!items!N0sWq0QHFmHXVGAq"
}