{
  "_id": "hUZ1tHuQJUL9RABs",
  "name": "Spider Summoner",
  "type": "feat",
  "img": "icons/environment/creatures/bug-spider-blue.webp",
  "system": {
    "description": {
      "value": "<em>You gain the ability to summon powerful spiders.</em><br/><br/><b>Prerequisites</b><br/>Ability to cast summon monster or summon nature's ally spells, drow.<br/><br/><b>Benefits</b><br/>When casting either a summon monster spell or a summon nature's ally spell, your options increase. Depending on the level of the spell, you can summon the spiders listed below. <br/><br/> Summon Monster<br/>1st level--giant crab spider*; 4th level--giant black widow*; 5th level--ogre spider*; 7th level--giant tarantula* <br/><br/> Summon Nature's Ally<br/>1st level--giant crab spider; 4th level--giant black widow; 5th level--ogre spider; 7th level--giant tarantula <br/><br/> Creatures marked with an asterisk (*) are summoned with the celestial template if you are good, and the fiendish template if you are evil. If you are neutral, you may choose which template to apply to the creature. <br/><br/> Furthermore, when you summon spiders using summon monster or summon nature's ally, the DC of the summoned monster's poison and web effects increases by 2.",
      "unidentified": ""
    },
    "tags": [
      "Racial",
      "Drow"
    ],
    "actions": [],
    "uses": {
      "per": null,
      "value": 0,
      "maxFormula": "",
      "autoDeductChargesCost": "1"
    },
    "attackNotes": [],
    "effectNotes": [],
    "changes": [],
    "changeFlags": {
      "loseDexToAC": false,
      "noEncumbrance": false,
      "mediumArmorFullSpeed": false,
      "heavyArmorFullSpeed": false
    },
    "contextNotes": [],
    "links": {
      "children": [],
      "charges": []
    },
    "tag": "",
    "useCustomTag": false,
    "armorProf": {
      "value": [],
      "custom": ""
    },
    "weaponProf": {
      "value": [],
      "custom": ""
    },
    "languages": {
      "value": [],
      "custom": ""
    },
    "flags": {
      "boolean": {},
      "dictionary": {}
    },
    "scriptCalls": [],
    "subType": "feat",
    "associations": {
      "classes": []
    },
    "showInQuickbar": false,
    "abilityType": "none",
    "crOffset": "",
    "disabled": false,
    "classSkills": {}
  },
  "ownership": {
    "default": 0
  },
  "_stats": {
    "systemId": "pf1",
    "systemVersion": "9.1",
    "coreVersion": "10.291",
    "createdTime": 1665428356715,
    "modifiedTime": 1689797896255,
    "lastModifiedBy": "ppv91YxratjWnkJi"
  },
  "effects": [],
  "folder": null,
  "sort": 0,
  "flags": {},
  "_key": "!items!hUZ1tHuQJUL9RABs"
}