{
  "_id": "V94nGAjImEnLOc1R",
  "name": "Spiked Destroyer",
  "type": "feat",
  "img": "systems/pf1/icons/items/weapons/spiked-armor.png",
  "system": {
    "description": {
      "value": "<em>You can attack with your armor spikes while using bull rush or overrun.</em><br/><br/><b>Prerequisites</b><br/>Proficient with armor spikes.<br/><br/><b>Benefits</b><br/>When you succeed at a bull rush or overrun combat maneuver, you may automatically make an attack roll with your armor spikes against the target of the maneuver as a swift action, using your highest attack bonus.<br/><br/><b>Combat Trick</b><br/>You can spend 4 stamina points after succeeding at a bull rush or overrun combat maneuver check to use Spiked Destroyer against that target as a free action.",
      "unidentified": ""
    },
    "tags": [
      "PFS",
      "Combat"
    ],
    "actions": [],
    "uses": {
      "per": null,
      "value": 0,
      "maxFormula": "",
      "autoDeductChargesCost": "1"
    },
    "attackNotes": [],
    "effectNotes": [],
    "changes": [],
    "changeFlags": {
      "loseDexToAC": false,
      "noEncumbrance": false,
      "mediumArmorFullSpeed": false,
      "heavyArmorFullSpeed": false
    },
    "contextNotes": [],
    "links": {
      "children": [],
      "charges": []
    },
    "tag": "",
    "useCustomTag": false,
    "armorProf": {
      "value": [],
      "custom": ""
    },
    "weaponProf": {
      "value": [],
      "custom": ""
    },
    "languages": {
      "value": [],
      "custom": ""
    },
    "flags": {
      "boolean": {},
      "dictionary": {}
    },
    "scriptCalls": [],
    "subType": "feat",
    "associations": {
      "classes": []
    },
    "showInQuickbar": false,
    "abilityType": "none",
    "crOffset": "",
    "disabled": false,
    "classSkills": {}
  },
  "ownership": {
    "default": 0
  },
  "_stats": {
    "systemId": "pf1",
    "systemVersion": "9.1",
    "coreVersion": "10.291",
    "createdTime": 1665428354956,
    "modifiedTime": 1689797889984,
    "lastModifiedBy": "ppv91YxratjWnkJi"
  },
  "effects": [],
  "folder": null,
  "sort": 0,
  "flags": {},
  "_key": "!items!V94nGAjImEnLOc1R"
}