{
  "_id": "Ry8wsU05N0I3ReTf",
  "name": "Split Trick",
  "type": "feat",
  "img": "systems/pf1/icons/skills/violet_28.jpg",
  "system": {
    "description": {
      "value": "<em>You can split a mesmerist trick between two targets.</em><br/><br/><b>Prerequisites</b><br/>Mesmerist trick class feature.<br/><br/><b>Benefits</b><br/>Whenever you implant a mesmerist trick in a target, you can designate that trick as a split trick. When doing so, you touch two targets and split the trick between them. This counts as implanting a mesmerist trick in both targets. The mesmerist trick functions as normal, except that when the trick's triggering condition occurs, you must choose one of the split trick's targets to receive the effects of the split trick. The other target receives no benefit from the trick.",
      "unidentified": ""
    },
    "tags": [
      "PFS",
      "Trick"
    ],
    "actions": [],
    "uses": {
      "per": null,
      "value": 0,
      "maxFormula": "",
      "autoDeductChargesCost": "1"
    },
    "attackNotes": [],
    "effectNotes": [],
    "changes": [],
    "changeFlags": {
      "loseDexToAC": false,
      "noEncumbrance": false,
      "mediumArmorFullSpeed": false,
      "heavyArmorFullSpeed": false
    },
    "contextNotes": [],
    "links": {
      "children": [],
      "charges": []
    },
    "tag": "",
    "useCustomTag": false,
    "armorProf": {
      "value": [],
      "custom": ""
    },
    "weaponProf": {
      "value": [],
      "custom": ""
    },
    "languages": {
      "value": [],
      "custom": ""
    },
    "flags": {
      "boolean": {},
      "dictionary": {}
    },
    "scriptCalls": [],
    "subType": "feat",
    "associations": {
      "classes": []
    },
    "showInQuickbar": false,
    "abilityType": "none",
    "crOffset": "",
    "disabled": false,
    "classSkills": {}
  },
  "ownership": {
    "default": 0
  },
  "_stats": {
    "systemId": "pf1",
    "systemVersion": "9.1",
    "coreVersion": "10.291",
    "createdTime": 1665428354485,
    "modifiedTime": 1689797887922,
    "lastModifiedBy": "ppv91YxratjWnkJi"
  },
  "effects": [],
  "folder": null,
  "sort": 0,
  "flags": {},
  "_key": "!items!Ry8wsU05N0I3ReTf"
}