{
  "_id": "HNmNx17913lkWa2c",
  "name": "Spontaneous Nature's Ally",
  "type": "feat",
  "img": "systems/pf1/icons/skills/green_13.jpg",
  "system": {
    "description": {
      "value": "<em>Instead of casting a cure spell, you can instead cast summon nature's ally.</em><br/><br/><b>Prerequisites</b><br/>Knowledge (nature) 5 ranks, ability to spontaneously cast cure or inflict spells, Animal or Plant domain.<br/><br/><b>Benefits</b><br/>You can 'lose' a prepared spell in order to cast any summon nature's ally spell of the same level or lower, instead of casting a cure spell or an inflict spell as you normally would. For the purpose of this feat only, the summon nature's ally spells of the appropriate spell levels count as being on your spell list at the same spell level as for a druid.",
      "unidentified": ""
    },
    "tags": [
      "PFS",
      "General"
    ],
    "actions": [],
    "uses": {
      "per": null,
      "value": 0,
      "maxFormula": "",
      "autoDeductChargesCost": "1"
    },
    "attackNotes": [],
    "effectNotes": [],
    "changes": [],
    "changeFlags": {
      "loseDexToAC": false,
      "noEncumbrance": false,
      "mediumArmorFullSpeed": false,
      "heavyArmorFullSpeed": false
    },
    "contextNotes": [],
    "links": {
      "children": [],
      "charges": []
    },
    "tag": "",
    "useCustomTag": false,
    "armorProf": {
      "value": [],
      "custom": ""
    },
    "weaponProf": {
      "value": [],
      "custom": ""
    },
    "languages": {
      "value": [],
      "custom": ""
    },
    "flags": {
      "boolean": {},
      "dictionary": {}
    },
    "scriptCalls": [],
    "subType": "feat",
    "associations": {
      "classes": []
    },
    "showInQuickbar": false,
    "abilityType": "none",
    "crOffset": "",
    "disabled": false,
    "classSkills": {}
  },
  "ownership": {
    "default": 0
  },
  "_stats": {
    "systemId": "pf1",
    "systemVersion": "9.1",
    "coreVersion": "10.291",
    "createdTime": 1665428353147,
    "modifiedTime": 1689797883241,
    "lastModifiedBy": "ppv91YxratjWnkJi"
  },
  "effects": [],
  "folder": null,
  "sort": 0,
  "flags": {},
  "_key": "!items!HNmNx17913lkWa2c"
}