{
  "_id": "yOmjUdHRfvZ3Msvx",
  "name": "Spring-Heeled Sprint",
  "type": "feat",
  "img": "systems/pf1/icons/skills/armor_01.jpg",
  "system": {
    "description": {
      "value": "<em>You can move quickly without sacrificing your offense.</em><br/><br/><b>Prerequisites</b><br/>Dex 15, Dodge, Mobility, Shot on the Run or Spring Attack, Spring-Heeled Style, base attack bonus +7, proficiency with light armor.<br/><br/><b>Benefits</b><br/>While using Spring-Heeled Style, you can move up to twice your speed when using the Shot on the Run or Spring Attack feats",
      "unidentified": ""
    },
    "tags": [
      "PFS",
      "Combat"
    ],
    "actions": [],
    "uses": {
      "per": null,
      "value": 0,
      "maxFormula": "",
      "autoDeductChargesCost": "1"
    },
    "attackNotes": [],
    "effectNotes": [],
    "changes": [],
    "changeFlags": {
      "loseDexToAC": false,
      "noEncumbrance": false,
      "mediumArmorFullSpeed": false,
      "heavyArmorFullSpeed": false
    },
    "contextNotes": [],
    "links": {
      "children": [],
      "charges": []
    },
    "tag": "",
    "useCustomTag": false,
    "armorProf": {
      "value": [],
      "custom": ""
    },
    "weaponProf": {
      "value": [],
      "custom": ""
    },
    "languages": {
      "value": [],
      "custom": ""
    },
    "flags": {
      "boolean": {},
      "dictionary": {}
    },
    "scriptCalls": [],
    "subType": "feat",
    "associations": {
      "classes": []
    },
    "showInQuickbar": false,
    "abilityType": "none",
    "crOffset": "",
    "disabled": false,
    "classSkills": {}
  },
  "ownership": {
    "default": 0
  },
  "_stats": {
    "systemId": "pf1",
    "systemVersion": "9.1",
    "coreVersion": "10.291",
    "createdTime": 1665428358924,
    "modifiedTime": 1689797904122,
    "lastModifiedBy": "ppv91YxratjWnkJi"
  },
  "effects": [],
  "folder": null,
  "sort": 0,
  "flags": {},
  "_key": "!items!yOmjUdHRfvZ3Msvx"
}