{
  "_id": "2bRZffT2lWhJ2e5x",
  "name": "Sprinting Troll",
  "type": "feat",
  "img": "systems/pf1/icons/feats/dodge.jpg",
  "system": {
    "description": {
      "value": "<em>You use your powerful metabolism to hunt swiftly, starving your regenerative powers in the interest of granting yourself greater speed.</em><br/><br/><b>Prerequisites</b><br/>Fleet, regeneration, troll.<br/><br/><b>Benefits</b><br/>As a free action, you can increase your land speed by 10 feet for 1 minute. You lose your regeneration ability while you benefit from this enhancement bonus to your land speed and for 1 minute afterward. You can end this ability early as a free action. You can activate this ability only if your regeneration is functioning.",
      "unidentified": ""
    },
    "tags": [
      "Monster",
      "Troll"
    ],
    "actions": [],
    "uses": {
      "per": null,
      "value": 0,
      "maxFormula": "",
      "autoDeductChargesCost": "1"
    },
    "attackNotes": [],
    "effectNotes": [],
    "changes": [],
    "changeFlags": {
      "loseDexToAC": false,
      "noEncumbrance": false,
      "mediumArmorFullSpeed": false,
      "heavyArmorFullSpeed": false
    },
    "contextNotes": [],
    "links": {
      "children": [],
      "charges": []
    },
    "tag": "",
    "useCustomTag": false,
    "armorProf": {
      "value": [],
      "custom": ""
    },
    "weaponProf": {
      "value": [],
      "custom": ""
    },
    "languages": {
      "value": [],
      "custom": ""
    },
    "flags": {
      "boolean": {},
      "dictionary": {}
    },
    "scriptCalls": [],
    "subType": "feat",
    "associations": {
      "classes": []
    },
    "showInQuickbar": false,
    "abilityType": "none",
    "crOffset": "",
    "disabled": false,
    "classSkills": {}
  },
  "ownership": {
    "default": 0
  },
  "_stats": {
    "systemId": "pf1",
    "systemVersion": "9.1",
    "coreVersion": "10.291",
    "createdTime": 1665428350758,
    "modifiedTime": 1689797874884,
    "lastModifiedBy": "ppv91YxratjWnkJi"
  },
  "effects": [],
  "folder": null,
  "sort": 0,
  "flags": {},
  "_key": "!items!2bRZffT2lWhJ2e5x"
}