{
  "_id": "HyXT115qVLe2TMP0",
  "name": "Stag Submission",
  "type": "feat",
  "img": "icons/commodities/bones/horn-antler-brown-red.webp",
  "system": {
    "description": {
      "value": "<em>You can quickly subdue an opponent you've charged using a special submission hold.</em><br/><br/><b>Prerequisites</b><br/>Charging Stag Style, Dodge, Improved Unarmed Strike, Mobility, Stag Horns.<br/><br/><b>Benefits</b><br/>When you are in Charging Stag Style and succeed at a combat maneuver check to pin a foe, you can choose to also knock the foe prone or to deal your unarmed attack damage to the foe.",
      "unidentified": ""
    },
    "tags": [
      "Combat"
    ],
    "actions": [],
    "uses": {
      "per": null,
      "value": 0,
      "maxFormula": "",
      "autoDeductChargesCost": "1"
    },
    "attackNotes": [],
    "effectNotes": [],
    "changes": [],
    "changeFlags": {
      "loseDexToAC": false,
      "noEncumbrance": false,
      "mediumArmorFullSpeed": false,
      "heavyArmorFullSpeed": false
    },
    "contextNotes": [],
    "links": {
      "children": [],
      "charges": []
    },
    "tag": "",
    "useCustomTag": false,
    "armorProf": {
      "value": [],
      "custom": ""
    },
    "weaponProf": {
      "value": [],
      "custom": ""
    },
    "languages": {
      "value": [],
      "custom": ""
    },
    "flags": {
      "boolean": {},
      "dictionary": {}
    },
    "scriptCalls": [],
    "subType": "feat",
    "associations": {
      "classes": []
    },
    "showInQuickbar": false,
    "abilityType": "none",
    "crOffset": "",
    "disabled": false,
    "classSkills": {}
  },
  "ownership": {
    "default": 0
  },
  "_stats": {
    "systemId": "pf1",
    "systemVersion": "9.1",
    "coreVersion": "10.291",
    "createdTime": 1665428353202,
    "modifiedTime": 1689797883480,
    "lastModifiedBy": "ppv91YxratjWnkJi"
  },
  "effects": [],
  "folder": null,
  "sort": 0,
  "flags": {},
  "_key": "!items!HyXT115qVLe2TMP0"
}