{
  "_id": "mtt1nSDd3CHcASL1",
  "name": "Startoss Shower",
  "type": "feat",
  "img": "systems/pf1/icons/races/changeling.png",
  "system": {
    "description": {
      "value": "<em>You can strike multiple opponents with thrown weapons.</em><br/><br/><b>Prerequisites</b><br/>Dex 13, Point-Blank Shot, Startoss Comet, Startoss Style, Weapon Focus with the chosen weapon, base attack bonus +4.<br/><br/><b>Benefits</b><br/>When you hit an opponent while using the Startoss Comet feat, you can continue to make attacks against foes that are within one range increment of all previous opponents. You determine cover for each attack from the most recently hit foe's space instead of your space, and you cannot attack an individual foe more than once during this attack action. You can make a maximum number of attacks equal to 1 + 1 per 5 points of base attack bonus you possess. If you have Vital Strike, Improved Vital Strike, or Greater Vital Strike, you can add the additional damage from those feats to the initial ranged attack (but not any subsequent attacks).",
      "unidentified": ""
    },
    "tags": [
      "PFS",
      "Combat"
    ],
    "actions": [],
    "uses": {
      "per": null,
      "value": 0,
      "maxFormula": "",
      "autoDeductChargesCost": "1"
    },
    "attackNotes": [],
    "effectNotes": [],
    "changes": [],
    "changeFlags": {
      "loseDexToAC": false,
      "noEncumbrance": false,
      "mediumArmorFullSpeed": false,
      "heavyArmorFullSpeed": false
    },
    "contextNotes": [],
    "links": {
      "children": [],
      "charges": []
    },
    "tag": "",
    "useCustomTag": false,
    "armorProf": {
      "value": [],
      "custom": ""
    },
    "weaponProf": {
      "value": [],
      "custom": ""
    },
    "languages": {
      "value": [],
      "custom": ""
    },
    "flags": {
      "boolean": {},
      "dictionary": {}
    },
    "scriptCalls": [],
    "subType": "feat",
    "associations": {
      "classes": []
    },
    "showInQuickbar": false,
    "abilityType": "none",
    "crOffset": "",
    "disabled": false,
    "classSkills": {}
  },
  "ownership": {
    "default": 0
  },
  "_stats": {
    "systemId": "pf1",
    "systemVersion": "9.1",
    "coreVersion": "10.291",
    "createdTime": 1665428357482,
    "modifiedTime": 1689797899243,
    "lastModifiedBy": "ppv91YxratjWnkJi"
  },
  "effects": [],
  "folder": null,
  "sort": 0,
  "flags": {},
  "_key": "!items!mtt1nSDd3CHcASL1"
}