{
  "_id": "HRXjxU8L1jFPME8P",
  "name": "Steel Soul",
  "type": "feat",
  "img": "systems/pf1/icons/races/dwarf.png",
  "system": {
    "description": {
      "value": "<em>You are especially resistant to magic.</em><br/><br/><b>Prerequisites</b><br/>Dwarf, hardy racial trait.<br/><br/><b>Benefits</b><br/>You receive a +4 racial bonus on saving throws against spells and spell-like abilities. This replaces the normal bonus from the dwarf's hardy racial trait.<br/><br/><b>Normal</b><br/>Dwarves normally receive a +2 racial bonus on saving throws against spells and spell-like abilities.",
      "unidentified": ""
    },
    "tags": [
      "PFS",
      "Racial",
      "Dwarf"
    ],
    "actions": [],
    "uses": {
      "per": null,
      "value": 0,
      "maxFormula": "",
      "autoDeductChargesCost": "1"
    },
    "attackNotes": [],
    "effectNotes": [],
    "changes": [],
    "changeFlags": {
      "loseDexToAC": false,
      "noEncumbrance": false,
      "mediumArmorFullSpeed": false,
      "heavyArmorFullSpeed": false
    },
    "contextNotes": [],
    "links": {
      "children": [],
      "charges": []
    },
    "tag": "",
    "useCustomTag": false,
    "armorProf": {
      "value": [],
      "custom": ""
    },
    "weaponProf": {
      "value": [],
      "custom": ""
    },
    "languages": {
      "value": [],
      "custom": ""
    },
    "flags": {
      "boolean": {},
      "dictionary": {}
    },
    "scriptCalls": [],
    "subType": "feat",
    "associations": {
      "classes": []
    },
    "showInQuickbar": false,
    "abilityType": "none",
    "crOffset": "",
    "disabled": false,
    "classSkills": {}
  },
  "ownership": {
    "default": 0
  },
  "_stats": {
    "systemId": "pf1",
    "systemVersion": "9.1",
    "coreVersion": "10.291",
    "createdTime": 1665428353153,
    "modifiedTime": 1689797883269,
    "lastModifiedBy": "ppv91YxratjWnkJi"
  },
  "effects": [],
  "folder": null,
  "sort": 0,
  "flags": {},
  "_key": "!items!HRXjxU8L1jFPME8P"
}