{
  "_id": "MZ7FpvkN22UyMi2g",
  "name": "Stock-Striker Takedown",
  "type": "feat",
  "img": "icons/weapons/guns/gun-pistol-flintlock.webp",
  "system": {
    "description": {
      "value": "<em>Your melee strike leaves your target vulnerable to a merciless finishing shot.</em><br/><br/><b>Prerequisites</b><br/>Point-Blank Shot, Stock-Striker Style, Stock-Striker Sweep, base attack bonus +9, pistol-whip gunslinger deed.<br/><br/><b>Benefits</b><br/>After you knock a target prone with the pistol-whip deed while using Stock-Striker Style, you can fire one barrel of a loaded firearm you're wielding at the target as a move action; if your firearm has the scatter weapon quality, you can instead make a scattering shot so long as you include the target in the area of effect. For this attack, you take no attack penalty for making a ranged attack against a prone target, and the critical multiplier of your weapon increases by 1 (to a maximum of x5).",
      "unidentified": ""
    },
    "tags": [
      "PFS",
      "Combat"
    ],
    "actions": [],
    "uses": {
      "per": null,
      "value": 0,
      "maxFormula": "",
      "autoDeductChargesCost": "1"
    },
    "attackNotes": [],
    "effectNotes": [],
    "changes": [],
    "changeFlags": {
      "loseDexToAC": false,
      "noEncumbrance": false,
      "mediumArmorFullSpeed": false,
      "heavyArmorFullSpeed": false
    },
    "contextNotes": [],
    "links": {
      "children": [],
      "charges": []
    },
    "tag": "",
    "useCustomTag": false,
    "armorProf": {
      "value": [],
      "custom": ""
    },
    "weaponProf": {
      "value": [],
      "custom": ""
    },
    "languages": {
      "value": [],
      "custom": ""
    },
    "flags": {
      "boolean": {},
      "dictionary": {}
    },
    "scriptCalls": [],
    "subType": "feat",
    "associations": {
      "classes": []
    },
    "showInQuickbar": false,
    "abilityType": "none",
    "crOffset": "",
    "disabled": false,
    "classSkills": {}
  },
  "ownership": {
    "default": 0
  },
  "_stats": {
    "systemId": "pf1",
    "systemVersion": "9.1",
    "coreVersion": "10.291",
    "createdTime": 1665428353823,
    "modifiedTime": 1689797885589,
    "lastModifiedBy": "ppv91YxratjWnkJi"
  },
  "effects": [],
  "folder": null,
  "sort": 0,
  "flags": {},
  "_key": "!items!MZ7FpvkN22UyMi2g"
}