{
  "_id": "B4xettlCyD3lfYIR",
  "name": "Stock-Striker Sweep",
  "type": "feat",
  "img": "icons/weapons/guns/gun-pistol-flintlock.webp",
  "system": {
    "description": {
      "value": "<em>The force of your firearm strikes can drive back your foe or damage a second target.</em><br/><br/><b>Prerequisites</b><br/>Stock-Striker Style, base attack bonus +7, pistol-whip gunslinger deed.<br/><br/><b>Benefits</b><br/>When you are using Stock-Striker Style and successfully knock a target prone with the pistol-whip deed, as a swift action you can either push the target 5 feet away from you or perform the pistol-whip deed a second time against a foe that is adjacent to the first and within your reach. This second use of pistol-whip costs 0 grit points.",
      "unidentified": ""
    },
    "tags": [
      "PFS",
      "Combat"
    ],
    "actions": [],
    "uses": {
      "per": null,
      "value": 0,
      "maxFormula": "",
      "autoDeductChargesCost": "1"
    },
    "attackNotes": [],
    "effectNotes": [],
    "changes": [],
    "changeFlags": {
      "loseDexToAC": false,
      "noEncumbrance": false,
      "mediumArmorFullSpeed": false,
      "heavyArmorFullSpeed": false
    },
    "contextNotes": [],
    "links": {
      "children": [],
      "charges": []
    },
    "tag": "",
    "useCustomTag": false,
    "armorProf": {
      "value": [],
      "custom": ""
    },
    "weaponProf": {
      "value": [],
      "custom": ""
    },
    "languages": {
      "value": [],
      "custom": ""
    },
    "flags": {
      "boolean": {},
      "dictionary": {}
    },
    "scriptCalls": [],
    "subType": "feat",
    "associations": {
      "classes": []
    },
    "showInQuickbar": false,
    "abilityType": "none",
    "crOffset": "",
    "disabled": false,
    "classSkills": {}
  },
  "ownership": {
    "default": 0
  },
  "_stats": {
    "systemId": "pf1",
    "systemVersion": "9.1",
    "coreVersion": "10.291",
    "createdTime": 1665428352052,
    "modifiedTime": 1689797878892,
    "lastModifiedBy": "ppv91YxratjWnkJi"
  },
  "effects": [],
  "folder": null,
  "sort": 0,
  "flags": {},
  "_key": "!items!B4xettlCyD3lfYIR"
}