{
  "_id": "BxoecjSIwr9V9jNk",
  "name": "Strangler",
  "type": "feat",
  "img": "systems/pf1/icons/items/weapons/lasso.png",
  "system": {
    "description": {
      "value": "<em>You can choke foes with a lasso.</em><br/><br/><b>Prerequisites</b><br/>Exotic Weapon Proficiency (lasso), Weapon Focus (lasso).<br/><br/><b>Benefits</b><br/>When you successfully entangle a creature with a lasso (Pathfinder RPG Advanced Player's Guide 178) and beat the target's CMD by 5 or more, the target cannot speak above a whisper and must succeed at a concentration check (DC = 20 + your CMB + the spell level) to cast a spell with a verbal component, use a command word item, or use any magic requiring speech. Additionally, the DC of an Escape Artist check to slip free of a lasso you are using equals 15 or your CMD, whichever is higher.",
      "unidentified": ""
    },
    "tags": [
      "PFS",
      "General"
    ],
    "actions": [],
    "uses": {
      "per": null,
      "value": 0,
      "maxFormula": "",
      "autoDeductChargesCost": "1"
    },
    "attackNotes": [],
    "effectNotes": [],
    "changes": [],
    "changeFlags": {
      "loseDexToAC": false,
      "noEncumbrance": false,
      "mediumArmorFullSpeed": false,
      "heavyArmorFullSpeed": false
    },
    "contextNotes": [],
    "links": {
      "children": [],
      "charges": []
    },
    "tag": "",
    "useCustomTag": false,
    "armorProf": {
      "value": [],
      "custom": ""
    },
    "weaponProf": {
      "value": [],
      "custom": ""
    },
    "languages": {
      "value": [],
      "custom": ""
    },
    "flags": {
      "boolean": {},
      "dictionary": {}
    },
    "scriptCalls": [],
    "subType": "feat",
    "associations": {
      "classes": []
    },
    "showInQuickbar": false,
    "abilityType": "none",
    "crOffset": "",
    "disabled": false,
    "classSkills": {}
  },
  "ownership": {
    "default": 0
  },
  "_stats": {
    "systemId": "pf1",
    "systemVersion": "9.1",
    "coreVersion": "10.291",
    "createdTime": 1665428352100,
    "modifiedTime": 1689797879130,
    "lastModifiedBy": "ppv91YxratjWnkJi"
  },
  "effects": [],
  "folder": null,
  "sort": 0,
  "flags": {},
  "_key": "!items!BxoecjSIwr9V9jNk"
}