{
  "_id": "3YUjz00cIW0jgeOF",
  "name": "Street Style",
  "type": "feat",
  "img": "icons/environment/settlement/city-gate.webp",
  "system": {
    "description": {
      "value": "<em>You use the urban environment to your advantage, thrashing and bashing your foe and driving it back.</em><br/><br/><b>Prerequisites</b><br/>Str 15, Improved Bull Rush, Improved Unarmed Strike, Power Attack, base attack bonus +4 or monk level 3rd.<br/><br/><b>Benefits</b><br/>While using this style, once per round as a swift action when you hit a target with an unarmed strike, you can deal an extra 1d6 points of damage and attempt a bull rush combat maneuver against that target.<br/><br/><b>Special</b><br/>You can enter the style stance for street style only while in urban terrain, and the stance ends immediately if you cease to be in urban terrain.",
      "unidentified": ""
    },
    "tags": [
      "PFS",
      "Combat",
      "Style"
    ],
    "actions": [],
    "uses": {
      "per": null,
      "value": 0,
      "maxFormula": "",
      "autoDeductChargesCost": "1"
    },
    "attackNotes": [],
    "effectNotes": [],
    "changes": [],
    "changeFlags": {
      "loseDexToAC": false,
      "noEncumbrance": false,
      "mediumArmorFullSpeed": false,
      "heavyArmorFullSpeed": false
    },
    "contextNotes": [],
    "links": {
      "children": [],
      "charges": []
    },
    "tag": "",
    "useCustomTag": false,
    "armorProf": {
      "value": [],
      "custom": ""
    },
    "weaponProf": {
      "value": [],
      "custom": ""
    },
    "languages": {
      "value": [],
      "custom": ""
    },
    "flags": {
      "boolean": {},
      "dictionary": {}
    },
    "scriptCalls": [],
    "subType": "feat",
    "associations": {
      "classes": []
    },
    "showInQuickbar": false,
    "abilityType": "none",
    "crOffset": "",
    "disabled": false,
    "classSkills": {}
  },
  "ownership": {
    "default": 0
  },
  "_stats": {
    "systemId": "pf1",
    "systemVersion": "9.1",
    "coreVersion": "10.291",
    "createdTime": 1665428350818,
    "modifiedTime": 1689797875173,
    "lastModifiedBy": "ppv91YxratjWnkJi"
  },
  "effects": [],
  "folder": null,
  "sort": 0,
  "flags": {},
  "_key": "!items!3YUjz00cIW0jgeOF"
}