{
  "_id": "YJXtNCH9GEg183dv",
  "name": "Stretched Wings",
  "type": "feat",
  "img": "systems/pf1/icons/skills/blue_02.jpg",
  "system": {
    "description": {
      "value": "<em>You strengthen your crippled wings.</em><br/><br/><b>Prerequisites</b><br/>Str 13, Skill Focus (Fly), strix, wing-clipped racial trait.<br/><br/><b>Benefits</b><br/>Your strix racial fly speed increases to 60 feet (average). You ignore the wing-clipped trait's Fly check requirement to fly upward.",
      "unidentified": ""
    },
    "tags": [
      "Racial",
      "Strix"
    ],
    "actions": [],
    "uses": {
      "per": null,
      "value": 0,
      "maxFormula": "",
      "autoDeductChargesCost": "1"
    },
    "attackNotes": [],
    "effectNotes": [],
    "changes": [],
    "changeFlags": {
      "loseDexToAC": false,
      "noEncumbrance": false,
      "mediumArmorFullSpeed": false,
      "heavyArmorFullSpeed": false
    },
    "contextNotes": [],
    "links": {
      "children": [],
      "charges": []
    },
    "tag": "",
    "useCustomTag": false,
    "armorProf": {
      "value": [],
      "custom": ""
    },
    "weaponProf": {
      "value": [],
      "custom": ""
    },
    "languages": {
      "value": [],
      "custom": ""
    },
    "flags": {
      "boolean": {},
      "dictionary": {}
    },
    "scriptCalls": [],
    "subType": "feat",
    "associations": {
      "classes": []
    },
    "showInQuickbar": false,
    "abilityType": "none",
    "crOffset": "",
    "disabled": false,
    "classSkills": {}
  },
  "ownership": {
    "default": 0
  },
  "_stats": {
    "systemId": "pf1",
    "systemVersion": "9.1",
    "coreVersion": "10.291",
    "createdTime": 1665428355161,
    "modifiedTime": 1689797891327,
    "lastModifiedBy": "ppv91YxratjWnkJi"
  },
  "effects": [],
  "folder": null,
  "sort": 0,
  "flags": {},
  "_key": "!items!YJXtNCH9GEg183dv"
}