{
  "_id": "QTYMzHUcdM7fkL5B",
  "name": "Strength of Obligation",
  "type": "feat",
  "img": "systems/pf1/icons/skills/nature_05.jpg",
  "system": {
    "description": {
      "value": "<em>As a follower of Pao-Lung, you draw strength from your duties and obligations. You know that your every action has a great effect on the world around you, and that to falter is to threaten the spokes of the wheel of society.</em><br/><br/><b>Prerequisites</b><br/>Must be devoted to the philosophy of Pao- Lung and not worship any deities.<br/><br/><b>Benefits</b><br/>Once per day, you may swear an oath to accomplish a specific goal that has a clearly defined condition for success. While you are undertaking actions to fulfill this promise, you gain a +1 morale bonus on ability checks and skill checks directly related to achieving that goal. This bonus increases to +2 if the task in question is a responsibility that comes with a title or office you hold. If you ever fail to uphold a promise that you make, or are derelict in the duties of an office or title you hold, you lose the benefits from this feat and instead take a -1 penalty on ability checks, attack rolls, saving throws, and skill checks for 24 hours.",
      "unidentified": ""
    },
    "tags": [
      "General"
    ],
    "actions": [],
    "uses": {
      "per": null,
      "value": 0,
      "maxFormula": "",
      "autoDeductChargesCost": "1"
    },
    "attackNotes": [],
    "effectNotes": [],
    "changes": [],
    "changeFlags": {
      "loseDexToAC": false,
      "noEncumbrance": false,
      "mediumArmorFullSpeed": false,
      "heavyArmorFullSpeed": false
    },
    "contextNotes": [],
    "links": {
      "children": [],
      "charges": []
    },
    "tag": "",
    "useCustomTag": false,
    "armorProf": {
      "value": [],
      "custom": ""
    },
    "weaponProf": {
      "value": [],
      "custom": ""
    },
    "languages": {
      "value": [],
      "custom": ""
    },
    "flags": {
      "boolean": {},
      "dictionary": {}
    },
    "scriptCalls": [],
    "subType": "feat",
    "associations": {
      "classes": []
    },
    "showInQuickbar": false,
    "abilityType": "none",
    "crOffset": "",
    "disabled": false,
    "classSkills": {}
  },
  "ownership": {
    "default": 0
  },
  "_stats": {
    "systemId": "pf1",
    "systemVersion": "9.1",
    "coreVersion": "10.291",
    "createdTime": 1665428354387,
    "modifiedTime": 1689797887390,
    "lastModifiedBy": "ppv91YxratjWnkJi"
  },
  "effects": [],
  "folder": null,
  "sort": 0,
  "flags": {},
  "_key": "!items!QTYMzHUcdM7fkL5B"
}