{
  "_id": "sdKSuTH5c1VZqfQ8",
  "name": "Strong Comeback (Mythic)",
  "type": "feat",
  "img": "icons/svg/d20-black.svg",
  "system": {
    "description": {
      "value": "<em>You never make the same mistake twice.</em><br/><br/><b>Prerequisites</b><br/>Strong Comeback.<br/><br/><b>Benefits</b><br/>Whenever you're allowed to reroll an ability check, a skill check, or a saving throw, roll two dice and take the higher result, before adding the bonus from Strong Comeback.",
      "unidentified": ""
    },
    "tags": [
      "PFS",
      "General",
      "Mythic"
    ],
    "actions": [],
    "uses": {
      "per": null,
      "value": 0,
      "maxFormula": "",
      "autoDeductChargesCost": "1"
    },
    "attackNotes": [],
    "effectNotes": [],
    "changes": [],
    "changeFlags": {
      "loseDexToAC": false,
      "noEncumbrance": false,
      "mediumArmorFullSpeed": false,
      "heavyArmorFullSpeed": false
    },
    "contextNotes": [],
    "links": {
      "children": [],
      "charges": []
    },
    "tag": "",
    "useCustomTag": false,
    "armorProf": {
      "value": [],
      "custom": ""
    },
    "weaponProf": {
      "value": [],
      "custom": ""
    },
    "languages": {
      "value": [],
      "custom": ""
    },
    "flags": {
      "boolean": {},
      "dictionary": {}
    },
    "scriptCalls": [],
    "subType": "feat",
    "associations": {
      "classes": []
    },
    "showInQuickbar": false,
    "abilityType": "none",
    "crOffset": "",
    "disabled": false,
    "classSkills": {}
  },
  "ownership": {
    "default": 0
  },
  "_stats": {
    "systemId": "pf1",
    "systemVersion": "9.1",
    "coreVersion": "10.291",
    "createdTime": 1665428358217,
    "modifiedTime": 1689797901713,
    "lastModifiedBy": "ppv91YxratjWnkJi"
  },
  "effects": [],
  "folder": null,
  "sort": 0,
  "flags": {},
  "_key": "!items!sdKSuTH5c1VZqfQ8"
}