{
  "_id": "80vvCMGUFQ1mnyPu",
  "name": "Stunning Fist (Mythic)",
  "type": "feat",
  "img": "systems/pf1/icons/skills/ice_10.jpg",
  "system": {
    "description": {
      "value": "<em>With greater potency and frequency, your fists stun those who stand against you.</em><br/><br/><b>Prerequisites</b><br/>Stunning Fist.<br/><br/><b>Benefits</b><br/>The DC of your Stunning Fist increases by half your tier, and you can use Stunning Fist multiple times during the same round. As a free action, you can expend one use of your mythic power to use Stunning Fist without spending one of your daily uses of the feat.",
      "unidentified": ""
    },
    "tags": [
      "PFS",
      "Combat",
      "Mythic"
    ],
    "actions": [],
    "uses": {
      "per": null,
      "value": 0,
      "maxFormula": "",
      "autoDeductChargesCost": "1"
    },
    "attackNotes": [],
    "effectNotes": [],
    "changes": [],
    "changeFlags": {
      "loseDexToAC": false,
      "noEncumbrance": false,
      "mediumArmorFullSpeed": false,
      "heavyArmorFullSpeed": false
    },
    "contextNotes": [],
    "links": {
      "children": [],
      "charges": []
    },
    "tag": "",
    "useCustomTag": false,
    "armorProf": {
      "value": [],
      "custom": ""
    },
    "weaponProf": {
      "value": [],
      "custom": ""
    },
    "languages": {
      "value": [],
      "custom": ""
    },
    "flags": {
      "boolean": {},
      "dictionary": {}
    },
    "scriptCalls": [],
    "subType": "feat",
    "associations": {
      "classes": []
    },
    "showInQuickbar": false,
    "abilityType": "none",
    "crOffset": "",
    "disabled": false,
    "classSkills": {}
  },
  "ownership": {
    "default": 0
  },
  "_stats": {
    "systemId": "pf1",
    "systemVersion": "9.1",
    "coreVersion": "10.291",
    "createdTime": 1665428351537,
    "modifiedTime": 1689797877287,
    "lastModifiedBy": "ppv91YxratjWnkJi"
  },
  "effects": [],
  "folder": null,
  "sort": 0,
  "flags": {},
  "_key": "!items!80vvCMGUFQ1mnyPu"
}