{
  "_id": "b4Yq0KeaaXiRnmVn",
  "name": "Subtle Poisoner",
  "type": "feat",
  "img": "systems/pf1/icons/skills/weapon_43.jpg",
  "system": {
    "description": {
      "value": "<em>You have mastered the art of stealthily and quickly preparing a poisoned weapon.</em><br/><br/><b>Prerequisites</b><br/>Sleight of Hand 5 ranks.<br/><br/><b>Benefits</b><br/>Whenever you draw a weapon, you can apply poison to the weapon as part of the same action. To do so, you must already have the poison in hand and must succeed at a DC 20 Sleight of Hand check. Success means the dose of poison is expended and you poison the weapon without drawing attention to your act. This check is in addition to any other Sleight of Hand checks you attempt to perform the action (such as to draw a hidden weapon). Failure means any creatures present can immediately attempt opposed Perception checks to notice your poisoning attempt. If you fail the check by 5 or more, you also expose yourself to the poison unless you have an ability that would prevent accidental poisoning, such as an alchemist's poison use ability.",
      "unidentified": ""
    },
    "tags": [
      "PFS",
      "General"
    ],
    "actions": [],
    "uses": {
      "per": null,
      "value": 0,
      "maxFormula": "",
      "autoDeductChargesCost": "1"
    },
    "attackNotes": [],
    "effectNotes": [],
    "changes": [],
    "changeFlags": {
      "loseDexToAC": false,
      "noEncumbrance": false,
      "mediumArmorFullSpeed": false,
      "heavyArmorFullSpeed": false
    },
    "contextNotes": [],
    "links": {
      "children": [],
      "charges": []
    },
    "tag": "",
    "useCustomTag": false,
    "armorProf": {
      "value": [],
      "custom": ""
    },
    "weaponProf": {
      "value": [],
      "custom": ""
    },
    "languages": {
      "value": [],
      "custom": ""
    },
    "flags": {
      "boolean": {},
      "dictionary": {}
    },
    "scriptCalls": [],
    "subType": "feat",
    "associations": {
      "classes": []
    },
    "showInQuickbar": false,
    "abilityType": "none",
    "crOffset": "",
    "disabled": false,
    "classSkills": {}
  },
  "ownership": {
    "default": 0
  },
  "_stats": {
    "systemId": "pf1",
    "systemVersion": "9.1",
    "coreVersion": "10.291",
    "createdTime": 1665428355637,
    "modifiedTime": 1689797892904,
    "lastModifiedBy": "ppv91YxratjWnkJi"
  },
  "effects": [],
  "folder": null,
  "sort": 0,
  "flags": {},
  "_key": "!items!b4Yq0KeaaXiRnmVn"
}