{
  "_id": "bzX2o8NWubib5ZXv",
  "name": "Summoner's Call",
  "type": "feat",
  "img": "systems/pf1/icons/skills/green_22.jpg",
  "system": {
    "description": {
      "value": "<em>Whenever you summon your eidolon, it is more powerful for a brief period of time.</em><br/><br/><b>Prerequisites</b><br/>Eidolon class feature.<br/><br/><b>Benefits</b><br/>Whenever you summon your eidolon, you may give it a +2 enhancement bonus to its Strength, Dexterity, or Constitution. This bonus lasts 10 minutes after the summoning ritual is complete.",
      "unidentified": ""
    },
    "tags": [
      "PFS",
      "General"
    ],
    "actions": [],
    "uses": {
      "per": null,
      "value": 0,
      "maxFormula": "",
      "autoDeductChargesCost": "1"
    },
    "attackNotes": [],
    "effectNotes": [],
    "changes": [],
    "changeFlags": {
      "loseDexToAC": false,
      "noEncumbrance": false,
      "mediumArmorFullSpeed": false,
      "heavyArmorFullSpeed": false
    },
    "contextNotes": [],
    "links": {
      "children": [],
      "charges": []
    },
    "tag": "",
    "useCustomTag": false,
    "armorProf": {
      "value": [],
      "custom": ""
    },
    "weaponProf": {
      "value": [],
      "custom": ""
    },
    "languages": {
      "value": [],
      "custom": ""
    },
    "flags": {
      "boolean": {},
      "dictionary": {}
    },
    "scriptCalls": [],
    "subType": "feat",
    "associations": {
      "classes": []
    },
    "showInQuickbar": false,
    "abilityType": "none",
    "crOffset": "",
    "disabled": false,
    "classSkills": {}
  },
  "ownership": {
    "default": 0
  },
  "_stats": {
    "systemId": "pf1",
    "systemVersion": "9.1",
    "coreVersion": "10.291",
    "createdTime": 1665428355693,
    "modifiedTime": 1689797893222,
    "lastModifiedBy": "ppv91YxratjWnkJi"
  },
  "effects": [],
  "folder": null,
  "sort": 0,
  "flags": {},
  "_key": "!items!bzX2o8NWubib5ZXv"
}