{
  "_id": "cBsnbMUiW2UxY3vj",
  "name": "Summon Evil Monster",
  "type": "feat",
  "img": "systems/pf1/icons/skills/shadow_01.jpg",
  "system": {
    "description": {
      "value": "<em>You can summon the aid of creatures driven their very nature to destroy goodness.</em><br/><br/><b>Prerequisites</b><br/>Evil alignment.<br/><br/><b>Benefits</b><br/>When casting summon monster, you also have access to the list of evil monsters on this page. When summoning a creature from this list, your debased nature allows you to cast the spell as a standard action. The summoned creature appears as normal for the spell but can't act until next your next turn. It is not flat-footed, however, and it can make attacks of opportunity as normal. These effects don't apply for creatures from the standard list that aren't also on this list.<br/><br/><b>Special</b><br/>If you possess the Sacred Summons feat, you can apply it to a creature on this list whose alignment (as opposed to its subtype or subtypes) matches your aura. <br/> <table class='inner'><tr><td><b>1st Level</b></td></tr> <tr><td>Fiendish dire rat (NE)</td></tr> <tr><td>Fiendish fire beetle (NE)</td></tr> <tr><td>Fiendish ghost scorpion (NE)</td></tr> <tr><td>Fiendish pony (NE)</td></tr> <tr><td>Fiendish stingray (NE)</td></tr> <tr><td>Fiendish vulture (NE)</td></tr></table> <br/> <table class='inner'><tr><td><b>2nd Level</b></td></tr> <tr><td>Damned petitioner (LE)</td></tr> <tr><td>Fiendish squid (NE)</td></tr> <tr><td>Fuath (gremlin, CE)</td></tr> <tr><td>Hunted petitioner (NE)</td></tr> <tr><td>Larvae petitioner (CE)</td></tr> <tr><td>Lemure (devil, LE)</td></tr> <tr><td>Pugwampi (gremlin, NE)</td></tr></table> <br/> <table class='inner'><tr><td><b>3rd Level</b></td></tr> <tr><td>Augur (kyton, LE)</td></tr> <tr><td>Cacodaemon (daemon, NE)</td></tr> <tr><td>Doru (div, NE)</td></tr> <tr><td>Dretch (demon, CE)</td></tr> <tr><td>Fiendish shark (NE)</td></tr> <tr><td>Howler (CE)</td></tr> <tr><td>Tripurasura (asura, LE)</td></tr></table> <br/> <table class='inner'><tr><td><b>4th Level</b></td></tr> <tr><td>Aghash (div, NE)</td></tr> <tr><td>Hell hound (LE)</td></tr> <tr><td>Kelpie (NE)</td></tr> <tr><td>Schir (demon, CE)</td></tr> <tr><td>Spring-Heeled Jack (CE)</td></tr> <tr><td>Yeth Hound (NE)</td></tr> <tr><td>Zebub (devil, LE)</td></tr></table> <br/> <table class='inner'><tr><td><b>5th Level</b></td></tr> <tr><td>Babau (demon, CE)</td></tr> <tr><td>Barbazu (devil, LE)</td></tr> <tr><td>Evangelist (kyton, LE)</td></tr> <tr><td>Fiendish giant moray eel (NE)</td></tr> <tr><td>Lurker in light (NE)</td></tr> <tr><td>Salamander (CE)</td></tr> <tr><td>Shadow mastiff (NE)</td></tr></table> <br/> <table class='inner'><tr><td><b>6th Level</b></td></tr> <tr><td>Efreeti (genie, LE)</td></tr> <tr><td>Erinyes (devil , LE)</td></tr> <tr><td>Fiendish giant octopus (NE)</td></tr> <tr><td>Pairaka (div, NE)</td></tr> <tr><td>Shadow demon (CE)</td></tr> <tr><td>Soul eater (NE)</td></tr> <tr><td>Succubus (demon, CE)</td></tr></table> <br/> <table class='inner'><tr><td><b>7th Level</b></td></tr> <tr><td>Bebilith (CE)</td></tr> <tr><td>Bogeyman (NE)</td></tr> <tr><td>Leukodaemon (daemon, NE)</td></tr> <tr><td>Nuckelavee (NE)</td></tr> <tr><td>Osyluth (devil, LE)</td></tr> <tr><td>Sacristan (kyton, LE)</td></tr> <tr><td>Vrock (demon, CE)</td></tr></table> <br/> <table class='inner'><tr><td><b>8th Level</b></td></tr> <tr><td>Baregara (CE)</td></tr> <tr><td>Dorvae (NE)</td></tr> <tr><td>Hamatula (devil, LE)</td></tr> <tr><td>Hezrou (demon, CE)</td></tr> <tr><td>Meladaemon (daemon, NE)</td></tr> <tr><td>Rusalka (NE)</td></tr> <tr><td>Young adult green dragon (LE)</td></tr></table> <br/> <table class='inner'><tr><td><b>9th Level</b></td></tr> <tr><td>Ankou (LE)</td></tr> <tr><td>Nalfeshnee (demon, CE)</td></tr> <tr><td>Derghodaemon (daemon, NE)</td></tr> <tr><td>Gelugon (devil, LE)</td></tr> <tr><td>Glabrezu (demon, CE)</td></tr> <tr><td>Sepid (div, NE)</td></tr> <tr><td>Thanadaemon (daemon, NE)</td></tr></table>",
      "unidentified": ""
    },
    "tags": [
      "General"
    ],
    "actions": [],
    "uses": {
      "per": null,
      "value": 0,
      "maxFormula": "",
      "autoDeductChargesCost": "1"
    },
    "attackNotes": [],
    "effectNotes": [],
    "changes": [],
    "changeFlags": {
      "loseDexToAC": false,
      "noEncumbrance": false,
      "mediumArmorFullSpeed": false,
      "heavyArmorFullSpeed": false
    },
    "contextNotes": [],
    "links": {
      "children": [],
      "charges": []
    },
    "tag": "",
    "useCustomTag": false,
    "armorProf": {
      "value": [],
      "custom": ""
    },
    "weaponProf": {
      "value": [],
      "custom": ""
    },
    "languages": {
      "value": [],
      "custom": ""
    },
    "flags": {
      "boolean": {},
      "dictionary": {}
    },
    "scriptCalls": [],
    "subType": "feat",
    "associations": {
      "classes": []
    },
    "showInQuickbar": false,
    "abilityType": "none",
    "crOffset": "",
    "disabled": false,
    "classSkills": {}
  },
  "ownership": {
    "default": 0
  },
  "_stats": {
    "systemId": "pf1",
    "systemVersion": "9.1",
    "coreVersion": "10.291",
    "createdTime": 1665428355708,
    "modifiedTime": 1689797893309,
    "lastModifiedBy": "ppv91YxratjWnkJi"
  },
  "effects": [],
  "folder": null,
  "sort": 0,
  "flags": {},
  "_key": "!items!cBsnbMUiW2UxY3vj"
}