{
  "_id": "NJT1TjuVcOqOAIlk",
  "name": "Sun Striker",
  "type": "feat",
  "img": "systems/pf1/icons/skills/light_05.jpg",
  "system": {
    "description": {
      "value": "<em>Called by the Dawnflower to strike down the undead, your scimitar becomes an agent of her burning will.</em><br/><br/><b>Prerequisites</b><br/>Critical Focus, Weapon Focus (scimitar), character level 7th, worshiper of Sarenrae.<br/><br/><b>Benefits</b><br/>Whenever you confirm a critical hit against an undead creature, your attack bypasses all DR, deals full damage to incorporeal creatures, and acts as though it has the flaming burst weapon special ability.<br/><br/><b>Combat Trick</b><br/>Whenever you threaten a critical hit against an undead creature, you can spend up to 4 stamina points to gain a +1 bonus per stamina point spent to confirm the critical hit.",
      "unidentified": ""
    },
    "tags": [
      "PFS",
      "Combat",
      "Critical"
    ],
    "actions": [],
    "uses": {
      "per": null,
      "value": 0,
      "maxFormula": "",
      "autoDeductChargesCost": "1"
    },
    "attackNotes": [],
    "effectNotes": [],
    "changes": [],
    "changeFlags": {
      "loseDexToAC": false,
      "noEncumbrance": false,
      "mediumArmorFullSpeed": false,
      "heavyArmorFullSpeed": false
    },
    "contextNotes": [],
    "links": {
      "children": [],
      "charges": []
    },
    "tag": "",
    "useCustomTag": false,
    "armorProf": {
      "value": [],
      "custom": ""
    },
    "weaponProf": {
      "value": [],
      "custom": ""
    },
    "languages": {
      "value": [],
      "custom": ""
    },
    "flags": {
      "boolean": {},
      "dictionary": {}
    },
    "scriptCalls": [],
    "subType": "feat",
    "associations": {
      "classes": []
    },
    "showInQuickbar": false,
    "abilityType": "none",
    "crOffset": "",
    "disabled": false,
    "classSkills": {}
  },
  "ownership": {
    "default": 0
  },
  "_stats": {
    "systemId": "pf1",
    "systemVersion": "9.1",
    "coreVersion": "10.291",
    "createdTime": 1665428353875,
    "modifiedTime": 1689797885945,
    "lastModifiedBy": "ppv91YxratjWnkJi"
  },
  "effects": [],
  "folder": null,
  "sort": 0,
  "flags": {},
  "_key": "!items!NJT1TjuVcOqOAIlk"
}