{
  "_id": "7WpTopl1vv5M1M0H",
  "name": "Sunder Blessing",
  "type": "feat",
  "img": "systems/pf1/icons/skills/affliction_23.jpg",
  "system": {
    "description": {
      "value": "<em>Your disdain for authority allows you to tear away the blessings of the gods.</em><br/><br/><b>Prerequisites</b><br/>Disruptive, fighter level 8th.<br/><br/><b>Benefits</b><br/>You can attempt to sunder an ongoing divine spell effect or divine spell-like ability by succeeding at a combat maneuver check. For any effect other than one on a creature, you must succeed at a combat maneuver check against a CMD of 15 + the effect's caster level. To sunder an effect on a creature, you must succeed at a normal sunder combat maneuver check against the creature's CMD + 5, ignoring any miss chance caused by a spell or spell-like ability. On a success, you suppress the effect for 1 round. If you exceed the CMD by 5 or more, you suppress the effect for 2 rounds. If you exceed the CMD by 10 or more, the effect is dispelled instead. If you fail to sunder a spell, you cannot attempt to sunder that effect again for 1 minute.",
      "unidentified": ""
    },
    "tags": [
      "Combat"
    ],
    "actions": [],
    "uses": {
      "per": null,
      "value": 0,
      "maxFormula": "",
      "autoDeductChargesCost": "1"
    },
    "attackNotes": [],
    "effectNotes": [],
    "changes": [],
    "changeFlags": {
      "loseDexToAC": false,
      "noEncumbrance": false,
      "mediumArmorFullSpeed": false,
      "heavyArmorFullSpeed": false
    },
    "contextNotes": [],
    "links": {
      "children": [],
      "charges": []
    },
    "tag": "",
    "useCustomTag": false,
    "armorProf": {
      "value": [],
      "custom": ""
    },
    "weaponProf": {
      "value": [],
      "custom": ""
    },
    "languages": {
      "value": [],
      "custom": ""
    },
    "flags": {
      "boolean": {},
      "dictionary": {}
    },
    "scriptCalls": [],
    "subType": "feat",
    "associations": {
      "classes": []
    },
    "showInQuickbar": false,
    "abilityType": "none",
    "crOffset": "",
    "disabled": false,
    "classSkills": {}
  },
  "ownership": {
    "default": 0
  },
  "_stats": {
    "systemId": "pf1",
    "systemVersion": "9.1",
    "coreVersion": "10.291",
    "createdTime": 1665428351480,
    "modifiedTime": 1689797877034,
    "lastModifiedBy": "ppv91YxratjWnkJi"
  },
  "effects": [],
  "folder": null,
  "sort": 0,
  "flags": {},
  "_key": "!items!7WpTopl1vv5M1M0H"
}