{
  "_id": "KFEehCBBjetGeWAk",
  "name": "Superior Dirty Trick",
  "type": "feat",
  "img": "systems/pf1/icons/feats/critical-mastery.jpg",
  "system": {
    "description": {
      "value": "<em>Your training in a particular dirty trick makes it especially effective.</em><br/><br/><b>Prerequisites</b><br/>Int 13, Combat Expertise, Greater Dirty Trick, Improved Dirty Trick, base attack bonus +8.<br/><br/><b>Benefits</b><br/>Choose one condition imposed by the dirty trick combat maneuver, such as blinded or entangled. The target must spend a full-round action in order to remove that condition.<br/><br/><b>Special</b><br/>You can gain this feat multiple times. Each time you take the feat, it applies to a different condition.",
      "unidentified": ""
    },
    "tags": [
      "PFS",
      "Combat"
    ],
    "actions": [],
    "uses": {
      "per": null,
      "value": 0,
      "maxFormula": "",
      "autoDeductChargesCost": "1"
    },
    "attackNotes": [],
    "effectNotes": [],
    "changes": [],
    "changeFlags": {
      "loseDexToAC": false,
      "noEncumbrance": false,
      "mediumArmorFullSpeed": false,
      "heavyArmorFullSpeed": false
    },
    "contextNotes": [],
    "links": {
      "children": [],
      "charges": []
    },
    "tag": "",
    "useCustomTag": false,
    "armorProf": {
      "value": [],
      "custom": ""
    },
    "weaponProf": {
      "value": [],
      "custom": ""
    },
    "languages": {
      "value": [],
      "custom": ""
    },
    "flags": {
      "boolean": {},
      "dictionary": {}
    },
    "scriptCalls": [],
    "subType": "feat",
    "associations": {
      "classes": []
    },
    "showInQuickbar": false,
    "abilityType": "none",
    "crOffset": "",
    "disabled": false,
    "classSkills": {}
  },
  "ownership": {
    "default": 0
  },
  "_stats": {
    "systemId": "pf1",
    "systemVersion": "9.1",
    "coreVersion": "10.291",
    "createdTime": 1665428353380,
    "modifiedTime": 1689797884290,
    "lastModifiedBy": "ppv91YxratjWnkJi"
  },
  "effects": [],
  "folder": null,
  "sort": 0,
  "flags": {},
  "_key": "!items!KFEehCBBjetGeWAk"
}