{
  "_id": "rHHfooR0xlwMYCAt",
  "name": "Suppressive Fire",
  "type": "feat",
  "img": "systems/pf1/icons/skills/arrow_12.jpg",
  "system": {
    "description": {
      "value": "<em>Your well-timed ranged attacks protect your allies as they advance on the battlefield.</em><br/><br/><b>Prerequisites</b><br/>Far Shot, Point-Blank Shot, Precise Shot, keen senses racial trait.<br/><br/><b>Benefits</b><br/>Whenever you damage a target using a ranged attack, that target can't make attacks of opportunity for 1 round against your allies who also have this feat when they move out of one of the target's threatened squares.",
      "unidentified": ""
    },
    "tags": [
      "PFS",
      "Combat",
      "Teamwork"
    ],
    "actions": [],
    "uses": {
      "per": null,
      "value": 0,
      "maxFormula": "",
      "autoDeductChargesCost": "1"
    },
    "attackNotes": [],
    "effectNotes": [],
    "changes": [],
    "changeFlags": {
      "loseDexToAC": false,
      "noEncumbrance": false,
      "mediumArmorFullSpeed": false,
      "heavyArmorFullSpeed": false
    },
    "contextNotes": [],
    "links": {
      "children": [],
      "charges": []
    },
    "tag": "",
    "useCustomTag": false,
    "armorProf": {
      "value": [],
      "custom": ""
    },
    "weaponProf": {
      "value": [],
      "custom": ""
    },
    "languages": {
      "value": [],
      "custom": ""
    },
    "flags": {
      "boolean": {},
      "dictionary": {}
    },
    "scriptCalls": [],
    "subType": "feat",
    "associations": {
      "classes": []
    },
    "showInQuickbar": false,
    "abilityType": "none",
    "crOffset": "",
    "disabled": false,
    "classSkills": {}
  },
  "ownership": {
    "default": 0
  },
  "_stats": {
    "systemId": "pf1",
    "systemVersion": "9.1",
    "coreVersion": "10.291",
    "createdTime": 1665428358128,
    "modifiedTime": 1689797901320,
    "lastModifiedBy": "ppv91YxratjWnkJi"
  },
  "effects": [],
  "folder": null,
  "sort": 0,
  "flags": {},
  "_key": "!items!rHHfooR0xlwMYCAt"
}