{
  "_id": "dMbSZNKeTVXfIejM",
  "name": "Sure on Ice",
  "type": "feat",
  "img": "systems/pf1/icons/skills/blue_24.jpg",
  "system": {
    "description": {
      "value": "<em>You move on ice and snow as if it were dry ground.</em><br/><br/><b>Prerequisites</b><br/>Frost giant.<br/><br/><b>Benefits</b><br/>You can move across icy and snowy surfaces without penalty, and don't need to attempt Acrobatics checks to run or charge on ice. You gain a +4 bonus on Climb checks to climb ice.",
      "unidentified": ""
    },
    "tags": [
      "Monster",
      "Giant"
    ],
    "actions": [],
    "uses": {
      "per": null,
      "value": 0,
      "maxFormula": "",
      "autoDeductChargesCost": "1"
    },
    "attackNotes": [],
    "effectNotes": [],
    "changes": [],
    "changeFlags": {
      "loseDexToAC": false,
      "noEncumbrance": false,
      "mediumArmorFullSpeed": false,
      "heavyArmorFullSpeed": false
    },
    "contextNotes": [],
    "links": {
      "children": [],
      "charges": []
    },
    "tag": "",
    "useCustomTag": false,
    "armorProf": {
      "value": [],
      "custom": ""
    },
    "weaponProf": {
      "value": [],
      "custom": ""
    },
    "languages": {
      "value": [],
      "custom": ""
    },
    "flags": {
      "boolean": {},
      "dictionary": {}
    },
    "scriptCalls": [],
    "subType": "feat",
    "associations": {
      "classes": []
    },
    "showInQuickbar": false,
    "abilityType": "none",
    "crOffset": "",
    "disabled": false,
    "classSkills": {}
  },
  "ownership": {
    "default": 0
  },
  "_stats": {
    "systemId": "pf1",
    "systemVersion": "9.1",
    "coreVersion": "10.291",
    "createdTime": 1665428356088,
    "modifiedTime": 1689797894203,
    "lastModifiedBy": "ppv91YxratjWnkJi"
  },
  "effects": [],
  "folder": null,
  "sort": 0,
  "flags": {},
  "_key": "!items!dMbSZNKeTVXfIejM"
}