{
  "_id": "byEuZnobGY0hY33G",
  "name": "Surface Scout",
  "type": "feat",
  "img": "systems/pf1/icons/skills/green_18.jpg",
  "system": {
    "description": {
      "value": "<em>You were trained from youth to infiltrate and ambush aboveground settlements.</em><br/><br/><b>Prerequisites</b><br/>Drow, spell-like abilities drow racial trait.<br/><br/><b>Benefits</b><br/>You can use fear the sun and ignoble form (see below) each once per day as a spell-like ability. Your caster level is equal to your character level.",
      "unidentified": ""
    },
    "tags": [
      "PFS",
      "Racial",
      "Drow"
    ],
    "actions": [],
    "uses": {
      "per": null,
      "value": 0,
      "maxFormula": "",
      "autoDeductChargesCost": "1"
    },
    "attackNotes": [],
    "effectNotes": [],
    "changes": [],
    "changeFlags": {
      "loseDexToAC": false,
      "noEncumbrance": false,
      "mediumArmorFullSpeed": false,
      "heavyArmorFullSpeed": false
    },
    "contextNotes": [],
    "links": {
      "children": [],
      "charges": []
    },
    "tag": "",
    "useCustomTag": false,
    "armorProf": {
      "value": [],
      "custom": ""
    },
    "weaponProf": {
      "value": [],
      "custom": ""
    },
    "languages": {
      "value": [],
      "custom": ""
    },
    "flags": {
      "boolean": {},
      "dictionary": {}
    },
    "scriptCalls": [],
    "subType": "feat",
    "associations": {
      "classes": []
    },
    "showInQuickbar": false,
    "abilityType": "none",
    "crOffset": "",
    "disabled": false,
    "classSkills": {}
  },
  "ownership": {
    "default": 0
  },
  "_stats": {
    "systemId": "pf1",
    "systemVersion": "9.1",
    "coreVersion": "10.291",
    "createdTime": 1665428355690,
    "modifiedTime": 1689797893202,
    "lastModifiedBy": "ppv91YxratjWnkJi"
  },
  "effects": [],
  "folder": null,
  "sort": 0,
  "flags": {},
  "_key": "!items!byEuZnobGY0hY33G"
}