{
  "_id": "PDRbZRKW3thdOIql",
  "name": "Swift Refuge",
  "type": "feat",
  "img": "systems/pf1/icons/feats/dodge.jpg",
  "system": {
    "description": {
      "value": "<em>You quickly turn, forcing devastating blows to be blunted by the thickest part of your armor.</em><br/><br/><b>Prerequisites</b><br/>Str 13, Dex 13, Swift Iron Style, proficiency with medium armor.<br/><br/><b>Benefits</b><br/>Once per day when using Swift Iron Style, when you're hit by a weapon, unarmed attack, or natural weapon, you can treat all dice other than the weapon's base damage dice (including extra dice from sneak attack, critical hit, magic special weapon abilities, and Vital Strike) as having rolled 1s. You can use this ability a second time per day when your base attack bonus reaches +8, and a third time at +16.",
      "unidentified": ""
    },
    "tags": [
      "PFS",
      "Combat"
    ],
    "actions": [],
    "uses": {
      "per": null,
      "value": 0,
      "maxFormula": "",
      "autoDeductChargesCost": "1"
    },
    "attackNotes": [],
    "effectNotes": [],
    "changes": [],
    "changeFlags": {
      "loseDexToAC": false,
      "noEncumbrance": false,
      "mediumArmorFullSpeed": false,
      "heavyArmorFullSpeed": false
    },
    "contextNotes": [],
    "links": {
      "children": [],
      "charges": []
    },
    "tag": "",
    "useCustomTag": false,
    "armorProf": {
      "value": [],
      "custom": ""
    },
    "weaponProf": {
      "value": [],
      "custom": ""
    },
    "languages": {
      "value": [],
      "custom": ""
    },
    "flags": {
      "boolean": {},
      "dictionary": {}
    },
    "scriptCalls": [],
    "subType": "feat",
    "associations": {
      "classes": []
    },
    "showInQuickbar": false,
    "abilityType": "none",
    "crOffset": "",
    "disabled": false,
    "classSkills": {}
  },
  "ownership": {
    "default": 0
  },
  "_stats": {
    "systemId": "pf1",
    "systemVersion": "9.1",
    "coreVersion": "10.291",
    "createdTime": 1665428354006,
    "modifiedTime": 1689797886528,
    "lastModifiedBy": "ppv91YxratjWnkJi"
  },
  "effects": [],
  "folder": null,
  "sort": 0,
  "flags": {},
  "_key": "!items!PDRbZRKW3thdOIql"
}