{
  "_id": "9J481bDyFVAnCYwk",
  "name": "Swift Sprint",
  "type": "feat",
  "img": "systems/pf1/icons/feats/dodge.jpg",
  "system": {
    "description": {
      "value": "<em>You balance your armor expertly, allowing you to run and sprint without impediment.</em><br/><br/><b>Prerequisites</b><br/>Str 13, Dex 13, Swift Iron Style, Swift Refuge, proficiency with medium armor.<br/><br/><b>Benefits</b><br/>When you're charging, running, or taking no action in your turn other than movement, your armor does not reduce your movement.",
      "unidentified": ""
    },
    "tags": [
      "PFS",
      "Combat"
    ],
    "actions": [],
    "uses": {
      "per": null,
      "value": 0,
      "maxFormula": "",
      "autoDeductChargesCost": "1"
    },
    "attackNotes": [],
    "effectNotes": [],
    "changes": [],
    "changeFlags": {
      "loseDexToAC": false,
      "noEncumbrance": false,
      "mediumArmorFullSpeed": false,
      "heavyArmorFullSpeed": false
    },
    "contextNotes": [],
    "links": {
      "children": [],
      "charges": []
    },
    "tag": "",
    "useCustomTag": false,
    "armorProf": {
      "value": [],
      "custom": ""
    },
    "weaponProf": {
      "value": [],
      "custom": ""
    },
    "languages": {
      "value": [],
      "custom": ""
    },
    "flags": {
      "boolean": {},
      "dictionary": {}
    },
    "scriptCalls": [],
    "subType": "feat",
    "associations": {
      "classes": []
    },
    "showInQuickbar": false,
    "abilityType": "none",
    "crOffset": "",
    "disabled": false,
    "classSkills": {}
  },
  "ownership": {
    "default": 0
  },
  "_stats": {
    "systemId": "pf1",
    "systemVersion": "9.1",
    "coreVersion": "10.291",
    "createdTime": 1665428351904,
    "modifiedTime": 1689797878278,
    "lastModifiedBy": "ppv91YxratjWnkJi"
  },
  "effects": [],
  "folder": null,
  "sort": 0,
  "flags": {},
  "_key": "!items!9J481bDyFVAnCYwk"
}