{
  "_id": "wni3bR4HDDYH68ai",
  "name": "Swipe and Stash",
  "type": "feat",
  "img": "systems/pf1/icons/skills/red_27.jpg",
  "system": {
    "description": {
      "value": "<em>Your fast fingers allow you to deftly deposit an item on someone else.</em><br/><br/><b>Prerequisites</b><br/>Sleight of Hand 5 ranks.<br/><br/><b>Benefits</b><br/>As a standard action, you can attempt a DC 20 Sleight of Hand check to plant a small object on a creature. The target is entitled to a Perception check opposed by your Sleight of Hand check to notice you planting the item. This does not force the creature to wear, wield, or otherwise use the item; you simply plant it on the creature's person. The DC increases to 30 if the target is not wearing clothing, armor, tack and harness (if an animal or similar creature), or some other equivalent accoutrements in which you can hide the item.<br/><br/> In combat, you must succeed at a steal combat maneuver in order to plant an item on a creature while attempting a Sleight of Hand check opposed by the target's Perception check to do so without the target noticing. You are automatically unnoticed if you succeed and have the Greater Steal feat.<br/><br/> If you steal an object with a successful Sleight of Hand check or steal combat maneuver check, you can use this feat as a swift action to plant it on another creature within reach before the end of your turn.<br/><br/><b>Special</b><br/>If you have Walking Sleight, you can take either or both of your actions with Swipe and Stash at any point during your movement in the same round, moving both before and after both snatching and planting the object if you wish to do so and have enough movement.",
      "unidentified": ""
    },
    "tags": [
      "PFS",
      "Combat"
    ],
    "actions": [],
    "uses": {
      "per": null,
      "value": 0,
      "maxFormula": "",
      "autoDeductChargesCost": "1"
    },
    "attackNotes": [],
    "effectNotes": [],
    "changes": [],
    "changeFlags": {
      "loseDexToAC": false,
      "noEncumbrance": false,
      "mediumArmorFullSpeed": false,
      "heavyArmorFullSpeed": false
    },
    "contextNotes": [],
    "links": {
      "children": [],
      "charges": []
    },
    "tag": "",
    "useCustomTag": false,
    "armorProf": {
      "value": [],
      "custom": ""
    },
    "weaponProf": {
      "value": [],
      "custom": ""
    },
    "languages": {
      "value": [],
      "custom": ""
    },
    "flags": {
      "boolean": {},
      "dictionary": {}
    },
    "scriptCalls": [],
    "subType": "feat",
    "associations": {
      "classes": []
    },
    "showInQuickbar": false,
    "abilityType": "none",
    "crOffset": "",
    "disabled": false,
    "classSkills": {}
  },
  "ownership": {
    "default": 0
  },
  "_stats": {
    "systemId": "pf1",
    "systemVersion": "9.1",
    "coreVersion": "10.291",
    "createdTime": 1665428358848,
    "modifiedTime": 1689797903575,
    "lastModifiedBy": "ppv91YxratjWnkJi"
  },
  "effects": [],
  "folder": null,
  "sort": 0,
  "flags": {},
  "_key": "!items!wni3bR4HDDYH68ai"
}