{
  "_id": "pVEVblu8Ln9TC2f5",
  "name": "Swordplay Style",
  "type": "feat",
  "img": "icons/weapons/swords/greatsword-crossguard-blue.webp",
  "system": {
    "description": {
      "value": "<em>Your defense relies on perfectly timed attacks.</em><br/><br/><b>Prerequisites</b><br/>Combat Expertise, Weapon Focus with the chosen weapon, base attack bonus +3.<br/><br/><b>Benefits</b><br/>Choose one weapon from the heavy blades or light blades fighter weapon group. While using this style, wielding the chosen weapon, and fighting defensively or using either the total defense action or the Combat Expertise feat, you gain a +1 shield bonus to your Armor Class. In addition, you do not take the penalty on melee attacks from Combat Expertise on the first attack roll you make each turn. You still take the penalty on additional attacks, including attacks of opportunity.<br/><br/><b>Special</b><br/>A character with the swashbuckler weapon training or weapon training (heavy blades or light blades) class feature can use Swordplay Style with any light or one-handed piercing melee weapon, heavy blade, or light blade, respectively, in addition to the chosen weapon.",
      "unidentified": ""
    },
    "tags": [
      "PFS",
      "Combat",
      "Style"
    ],
    "actions": [],
    "uses": {
      "per": null,
      "value": 0,
      "maxFormula": "",
      "autoDeductChargesCost": "1"
    },
    "attackNotes": [],
    "effectNotes": [],
    "changes": [],
    "changeFlags": {
      "loseDexToAC": false,
      "noEncumbrance": false,
      "mediumArmorFullSpeed": false,
      "heavyArmorFullSpeed": false
    },
    "contextNotes": [],
    "links": {
      "children": [],
      "charges": []
    },
    "tag": "",
    "useCustomTag": false,
    "armorProf": {
      "value": [],
      "custom": ""
    },
    "weaponProf": {
      "value": [],
      "custom": ""
    },
    "languages": {
      "value": [],
      "custom": ""
    },
    "flags": {
      "boolean": {},
      "dictionary": {}
    },
    "scriptCalls": [],
    "subType": "feat",
    "associations": {
      "classes": []
    },
    "showInQuickbar": false,
    "abilityType": "none",
    "crOffset": "",
    "disabled": false,
    "classSkills": {}
  },
  "ownership": {
    "default": 0
  },
  "_stats": {
    "systemId": "pf1",
    "systemVersion": "9.1",
    "coreVersion": "10.291",
    "createdTime": 1665428357985,
    "modifiedTime": 1689797900510,
    "lastModifiedBy": "ppv91YxratjWnkJi"
  },
  "effects": [],
  "folder": null,
  "sort": 0,
  "flags": {},
  "_key": "!items!pVEVblu8Ln9TC2f5"
}