{
  "_id": "hhNeRlv56pgbOFR7",
  "name": "Sycophant",
  "type": "feat",
  "img": "icons/environment/people/cleric-orange.webp",
  "system": {
    "description": {
      "value": "<em>You elicit pity or disgust from your enemies.</em><br/><br/><b>Benefits</b><br/>As a standard action, you can attempt to force an enemy to show you mercy by succeeding at a Diplomacy check (DC = 15 + the target's Will saving throw bonus) If you succeed, your target's next successful attack against you deals nonlethal damage (the target does not take the usual attack penalty for dealing nonlethal damage). Whether you succeed or fail, you cannot target the same creature with this feat again for 24 hours.",
      "unidentified": ""
    },
    "tags": [
      "PFS",
      "General"
    ],
    "actions": [],
    "uses": {
      "per": null,
      "value": 0,
      "maxFormula": "",
      "autoDeductChargesCost": "1"
    },
    "attackNotes": [],
    "effectNotes": [],
    "changes": [],
    "changeFlags": {
      "loseDexToAC": false,
      "noEncumbrance": false,
      "mediumArmorFullSpeed": false,
      "heavyArmorFullSpeed": false
    },
    "contextNotes": [],
    "links": {
      "children": [],
      "charges": []
    },
    "tag": "",
    "useCustomTag": false,
    "armorProf": {
      "value": [],
      "custom": ""
    },
    "weaponProf": {
      "value": [],
      "custom": ""
    },
    "languages": {
      "value": [],
      "custom": ""
    },
    "flags": {
      "boolean": {},
      "dictionary": {}
    },
    "scriptCalls": [],
    "subType": "feat",
    "associations": {
      "classes": []
    },
    "showInQuickbar": false,
    "abilityType": "none",
    "crOffset": "",
    "disabled": false,
    "classSkills": {}
  },
  "ownership": {
    "default": 0
  },
  "_stats": {
    "systemId": "pf1",
    "systemVersion": "9.1",
    "coreVersion": "10.291",
    "createdTime": 1665428356727,
    "modifiedTime": 1689797896337,
    "lastModifiedBy": "ppv91YxratjWnkJi"
  },
  "effects": [],
  "folder": null,
  "sort": 0,
  "flags": {},
  "_key": "!items!hhNeRlv56pgbOFR7"
}