{
  "_id": "tul5kEgIxH04e0uC",
  "name": "Tactical Reposition",
  "type": "feat",
  "img": "systems/pf1/icons/feats/dodge.jpg",
  "system": {
    "description": {
      "value": "<em>You excel at moving foes right where you want them.</em><br/><br/><b>Prerequisites</b><br/>Int 13, Combat Expertise, Improved Reposition.<br/><br/><b>Benefits</b><br/>When making a reposition combat maneuver (Pathfinder RPG Advanced Player's Guide 322), you can move an enemy into a trap or other hazardous area, such as a pit, wall scythe, or blade barrier. When you do so, the moved enemy is treated as though it had activated the trap or triggered the hazard, and it takes a -2 penalty to AC and on saving throws to mitigate the trap or hazard's effects.<br/><br/><b>Normal</b><br/>You cannot reposition a foe into an intrinsically dangerous space such as a pit or blade barrier.",
      "unidentified": ""
    },
    "tags": [
      "PFS",
      "Combat"
    ],
    "actions": [],
    "uses": {
      "per": null,
      "value": 0,
      "maxFormula": "",
      "autoDeductChargesCost": "1"
    },
    "attackNotes": [],
    "effectNotes": [],
    "changes": [],
    "changeFlags": {
      "loseDexToAC": false,
      "noEncumbrance": false,
      "mediumArmorFullSpeed": false,
      "heavyArmorFullSpeed": false
    },
    "contextNotes": [],
    "links": {
      "children": [],
      "charges": []
    },
    "tag": "",
    "useCustomTag": false,
    "armorProf": {
      "value": [],
      "custom": ""
    },
    "weaponProf": {
      "value": [],
      "custom": ""
    },
    "languages": {
      "value": [],
      "custom": ""
    },
    "flags": {
      "boolean": {},
      "dictionary": {}
    },
    "scriptCalls": [],
    "subType": "feat",
    "associations": {
      "classes": []
    },
    "showInQuickbar": false,
    "abilityType": "none",
    "crOffset": "",
    "disabled": false,
    "classSkills": {}
  },
  "ownership": {
    "default": 0
  },
  "_stats": {
    "systemId": "pf1",
    "systemVersion": "9.1",
    "coreVersion": "10.291",
    "createdTime": 1665428358302,
    "modifiedTime": 1689797902090,
    "lastModifiedBy": "ppv91YxratjWnkJi"
  },
  "effects": [],
  "folder": null,
  "sort": 0,
  "flags": {},
  "_key": "!items!tul5kEgIxH04e0uC"
}