{
  "_id": "E9aGTFLQBCl8xyMr",
  "name": "Take the Hit",
  "type": "feat",
  "img": "systems/pf1/icons/feats/greater-sunder.jpg",
  "system": {
    "description": {
      "value": "<p><em>You can shield your partner's body with your own.</em><br /><br /><strong>Prerequisites</strong><br />Bonded Mind, base attack bonus +6.<br /><br /><strong>Benefits</strong><br />As long as an ally with the Bonded Mind feat is adjacent to you, you can choose to absorb up to half of the hit point damage from any attack that strikes him, as if subject to a shield other spell. Using this ability is an immediate action, and it only applies to one attack, even if the ally is hit by multiple attacks as part of the same action.</p>\n<p><br /><strong>Pathfinder Society<br /></strong>A PC cannot benefit from the feat Bonded Mind or any teamwork feats that use it as a prerequisite unless he permanently possesses the feat; this is an exception to how an inquisitor's solo tactics ability, a cavalier's tactician ability, and similar abilities function.</p>",
      "unidentified": ""
    },
    "tags": [
      "PFS",
      "Teamwork"
    ],
    "actions": [],
    "uses": {
      "per": null,
      "value": 0,
      "maxFormula": "",
      "autoDeductChargesCost": "1"
    },
    "attackNotes": [],
    "effectNotes": [],
    "changes": [],
    "changeFlags": {
      "loseDexToAC": false,
      "noEncumbrance": false,
      "mediumArmorFullSpeed": false,
      "heavyArmorFullSpeed": false
    },
    "contextNotes": [],
    "links": {
      "children": [],
      "charges": []
    },
    "tag": "",
    "useCustomTag": false,
    "armorProf": {
      "value": [],
      "custom": ""
    },
    "weaponProf": {
      "value": [],
      "custom": ""
    },
    "languages": {
      "value": [],
      "custom": ""
    },
    "flags": {
      "boolean": {},
      "dictionary": {}
    },
    "scriptCalls": [],
    "subType": "feat",
    "associations": {
      "classes": []
    },
    "showInQuickbar": false,
    "abilityType": "none",
    "crOffset": "",
    "disabled": false,
    "classSkills": {}
  },
  "ownership": {
    "default": 0
  },
  "_stats": {
    "systemId": "pf1",
    "systemVersion": "9.1",
    "coreVersion": "10.291",
    "createdTime": 1665428352529,
    "modifiedTime": 1689797880892,
    "lastModifiedBy": "ppv91YxratjWnkJi"
  },
  "effects": [],
  "folder": null,
  "sort": 0,
  "flags": {},
  "_key": "!items!E9aGTFLQBCl8xyMr"
}