{
  "_id": "riir0ZYASd6xlGpM",
  "name": "Tangled Limbs",
  "type": "feat",
  "img": "systems/pf1/icons/feats/agile-maneuvers.jpg",
  "system": {
    "description": {
      "value": "<em>You twist your long weapon among your target's legs, knocking your foe off-balance.</em><br/><br/><b>Prerequisites</b><br/>Int 13, Combat Expertise, Improved Trip, Weapon Focus with the chosen weapon.<br/><br/><b>Benefits</b><br/>Choose one weapon with the reach special quality. When you attempt a trip combat maneuver check with the chosen weapon, your target doesn't receive a bonus to its CMD against your trip attempt for having more than two legs.<br/><br/><b>Normal</b><br/>A creature with more than two legs receives a +2 bonus to its CMD against trip attempts for each additional leg it has.<br/><br/><b>Special</b><br/>In addition to the chosen weapon, a character with the weapon training class feature can use Tangled Limbs with any melee weapon from any fighter weapon group that he has selected with weapon training and that has the reach special quality.",
      "unidentified": ""
    },
    "tags": [
      "PFS",
      "Combat"
    ],
    "actions": [],
    "uses": {
      "per": null,
      "value": 0,
      "maxFormula": "",
      "autoDeductChargesCost": "1"
    },
    "attackNotes": [],
    "effectNotes": [],
    "changes": [],
    "changeFlags": {
      "loseDexToAC": false,
      "noEncumbrance": false,
      "mediumArmorFullSpeed": false,
      "heavyArmorFullSpeed": false
    },
    "contextNotes": [],
    "links": {
      "children": [],
      "charges": []
    },
    "tag": "",
    "useCustomTag": false,
    "armorProf": {
      "value": [],
      "custom": ""
    },
    "weaponProf": {
      "value": [],
      "custom": ""
    },
    "languages": {
      "value": [],
      "custom": ""
    },
    "flags": {
      "boolean": {},
      "dictionary": {}
    },
    "scriptCalls": [],
    "subType": "feat",
    "associations": {
      "classes": []
    },
    "showInQuickbar": false,
    "abilityType": "none",
    "crOffset": "",
    "disabled": false,
    "classSkills": {}
  },
  "ownership": {
    "default": 0
  },
  "_stats": {
    "systemId": "pf1",
    "systemVersion": "9.1",
    "coreVersion": "10.291",
    "createdTime": 1665428358156,
    "modifiedTime": 1689797901452,
    "lastModifiedBy": "ppv91YxratjWnkJi"
  },
  "effects": [],
  "folder": null,
  "sort": 0,
  "flags": {},
  "_key": "!items!riir0ZYASd6xlGpM"
}