{
  "_id": "szeBG3iwzfh3NNfI",
  "name": "Tatzlwyrm Rake",
  "type": "feat",
  "img": "systems/pf1/icons/skills/red_20.jpg",
  "system": {
    "description": {
      "value": "<em>You can immobilize your foe without using your arms.</em><br/><br/><b>Prerequisites</b><br/>Dex 13, Improved Grapple, Improved Unarmed Strike, Tatzlwyrm Claw Style, Tatzlwyrm Grappler, Escape Artist 8 ranks.<br/><br/><b>Benefits</b><br/>While using the Tatzlwyrm Style feat, you can attempt a combat maneuver check to maintain a grapple without using your arms. You must use at least two limbs in order to do this, and if you use all your legs, you can't take any movement while maintaining the grapple. If your combat maneuver check succeeds by 10 or more, you are able to make a single unarmed attack against the target of the grapple as a swift action.",
      "unidentified": ""
    },
    "tags": [
      "PFS",
      "Combat"
    ],
    "actions": [],
    "uses": {
      "per": null,
      "value": 0,
      "maxFormula": "",
      "autoDeductChargesCost": "1"
    },
    "attackNotes": [],
    "effectNotes": [],
    "changes": [],
    "changeFlags": {
      "loseDexToAC": false,
      "noEncumbrance": false,
      "mediumArmorFullSpeed": false,
      "heavyArmorFullSpeed": false
    },
    "contextNotes": [],
    "links": {
      "children": [],
      "charges": []
    },
    "tag": "",
    "useCustomTag": false,
    "armorProf": {
      "value": [],
      "custom": ""
    },
    "weaponProf": {
      "value": [],
      "custom": ""
    },
    "languages": {
      "value": [],
      "custom": ""
    },
    "flags": {
      "boolean": {},
      "dictionary": {}
    },
    "scriptCalls": [],
    "subType": "feat",
    "associations": {
      "classes": []
    },
    "showInQuickbar": false,
    "abilityType": "none",
    "crOffset": "",
    "disabled": false,
    "classSkills": {}
  },
  "ownership": {
    "default": 0
  },
  "_stats": {
    "systemId": "pf1",
    "systemVersion": "9.1",
    "coreVersion": "10.291",
    "createdTime": 1665428358238,
    "modifiedTime": 1689797901824,
    "lastModifiedBy": "ppv91YxratjWnkJi"
  },
  "effects": [],
  "folder": null,
  "sort": 0,
  "flags": {},
  "_key": "!items!szeBG3iwzfh3NNfI"
}