{
  "_id": "fncsOcMZZ8iufmLY",
  "name": "Telepathic Distraction",
  "type": "feat",
  "img": "systems/pf1/icons/feats/extra-rage.jpg",
  "system": {
    "description": {
      "value": "<em>Your mastery of mental communication lets you assault and weaken the minds of your opponents.</em><br/><br/><b>Prerequisites</b><br/>Cha 15, serpentfolk.<br/><br/><b>Benefits</b><br/>As a standard action, you can focus your telepathy on one creature within range to weaken its resistance to mental attacks. The target must succeed at a Will save (DC = 10 + 1/2 your Hit Dice + your Charisma modifier) or take 1d6 points of nonlethal damage and take a -2 penalty against mind-affecting effects; the penalty lasts for 1d6 rounds. This is a mind-affecting effect. You can use this ability a number of times per day equal to 1/2 your Hit Dice.",
      "unidentified": ""
    },
    "tags": [
      "Racial",
      "Serpentfolk"
    ],
    "actions": [],
    "uses": {
      "per": null,
      "value": 0,
      "maxFormula": "",
      "autoDeductChargesCost": "1"
    },
    "attackNotes": [],
    "effectNotes": [],
    "changes": [],
    "changeFlags": {
      "loseDexToAC": false,
      "noEncumbrance": false,
      "mediumArmorFullSpeed": false,
      "heavyArmorFullSpeed": false
    },
    "contextNotes": [],
    "links": {
      "children": [],
      "charges": []
    },
    "tag": "",
    "useCustomTag": false,
    "armorProf": {
      "value": [],
      "custom": ""
    },
    "weaponProf": {
      "value": [],
      "custom": ""
    },
    "languages": {
      "value": [],
      "custom": ""
    },
    "flags": {
      "boolean": {},
      "dictionary": {}
    },
    "scriptCalls": [],
    "subType": "feat",
    "associations": {
      "classes": []
    },
    "showInQuickbar": false,
    "abilityType": "none",
    "crOffset": "",
    "disabled": false,
    "classSkills": {}
  },
  "ownership": {
    "default": 0
  },
  "_stats": {
    "systemId": "pf1",
    "systemVersion": "9.1",
    "coreVersion": "10.291",
    "createdTime": 1665428356280,
    "modifiedTime": 1689797895175,
    "lastModifiedBy": "ppv91YxratjWnkJi"
  },
  "effects": [],
  "folder": null,
  "sort": 0,
  "flags": {},
  "_key": "!items!fncsOcMZZ8iufmLY"
}