{
  "_id": "RyVxVGbRmdwBgXCU",
  "name": "Tenacious Hunter",
  "type": "feat",
  "img": "systems/pf1/icons/skills/blue_29.jpg",
  "system": {
    "description": {
      "value": "<em>The animal is capable of quickly pinpointing hidden prey.</em><br/><br/><b>Prerequisites</b><br/>Perception 3 ranks, Stealth 3 ranks, animal companion.<br/><br/><b>Benefits</b><br/>The animal companion gains a +2 bonus on Perception checks to oppose Stealth checks. When using Perception to pinpoint an invisible creature's location, this bonus increases to +10. In addition, whenever the animal companion successfully uses Perception to notice a creature using Stealth or to pinpoint an invisible creature's location, that foe is denied its Dexterity bonus to AC against the next attack the animal companion makes on or before the animal companion's next turn.",
      "unidentified": ""
    },
    "tags": [
      "PFS",
      "General"
    ],
    "actions": [],
    "uses": {
      "per": null,
      "value": 0,
      "maxFormula": "",
      "autoDeductChargesCost": "1"
    },
    "attackNotes": [],
    "effectNotes": [],
    "changes": [],
    "changeFlags": {
      "loseDexToAC": false,
      "noEncumbrance": false,
      "mediumArmorFullSpeed": false,
      "heavyArmorFullSpeed": false
    },
    "contextNotes": [],
    "links": {
      "children": [],
      "charges": []
    },
    "tag": "",
    "useCustomTag": false,
    "armorProf": {
      "value": [],
      "custom": ""
    },
    "weaponProf": {
      "value": [],
      "custom": ""
    },
    "languages": {
      "value": [],
      "custom": ""
    },
    "flags": {
      "boolean": {},
      "dictionary": {}
    },
    "scriptCalls": [],
    "subType": "feat",
    "associations": {
      "classes": []
    },
    "showInQuickbar": false,
    "abilityType": "none",
    "crOffset": "",
    "disabled": false,
    "classSkills": {}
  },
  "ownership": {
    "default": 0
  },
  "_stats": {
    "systemId": "pf1",
    "systemVersion": "9.1",
    "coreVersion": "10.291",
    "createdTime": 1665428354486,
    "modifiedTime": 1689797887927,
    "lastModifiedBy": "ppv91YxratjWnkJi"
  },
  "effects": [],
  "folder": null,
  "sort": 0,
  "flags": {},
  "_key": "!items!RyVxVGbRmdwBgXCU"
}