{
  "_id": "AnM6jef6ukr6PKBW",
  "name": "Terrain Celerity",
  "type": "feat",
  "img": "icons/environment/wilderness/tree-oak.webp",
  "system": {
    "description": {
      "value": "<em>You can use your surroundings to accelerate your movement, and your enemy's presence pushes you further.</em><br/><br/><b>Prerequisites</b><br/>Favored enemy class feature, favored terrain class feature.<br/><br/><b>Benefits</b><br/>While you're in any of your favored terrain types, you gain a 5-foot bonus to your movement speed. This bonus increases to 10 feet if a creature of the same type as one of your favored enemies is visible and within the same terrain type.",
      "unidentified": ""
    },
    "tags": [
      "PFS",
      "General"
    ],
    "actions": [],
    "uses": {
      "per": null,
      "value": 0,
      "maxFormula": "",
      "autoDeductChargesCost": "1"
    },
    "attackNotes": [],
    "effectNotes": [],
    "changes": [],
    "changeFlags": {
      "loseDexToAC": false,
      "noEncumbrance": false,
      "mediumArmorFullSpeed": false,
      "heavyArmorFullSpeed": false
    },
    "contextNotes": [],
    "links": {
      "children": [],
      "charges": []
    },
    "tag": "",
    "useCustomTag": false,
    "armorProf": {
      "value": [],
      "custom": ""
    },
    "weaponProf": {
      "value": [],
      "custom": ""
    },
    "languages": {
      "value": [],
      "custom": ""
    },
    "flags": {
      "boolean": {},
      "dictionary": {}
    },
    "scriptCalls": [],
    "subType": "feat",
    "associations": {
      "classes": []
    },
    "showInQuickbar": false,
    "abilityType": "none",
    "crOffset": "",
    "disabled": false,
    "classSkills": {}
  },
  "ownership": {
    "default": 0
  },
  "_stats": {
    "systemId": "pf1",
    "systemVersion": "9.1",
    "coreVersion": "10.291",
    "createdTime": 1665428352021,
    "modifiedTime": 1689797878755,
    "lastModifiedBy": "ppv91YxratjWnkJi"
  },
  "effects": [],
  "folder": null,
  "sort": 0,
  "flags": {},
  "_key": "!items!AnM6jef6ukr6PKBW"
}