{
  "_id": "Ape1YrFyqyYq1ZMY",
  "name": "Thousand Cuts",
  "type": "feat",
  "img": "systems/pf1/icons/skills/red_13.jpg",
  "system": {
    "description": {
      "value": "<em>Your attacks are calculated to draw the most blood possible. With every swing, you open persistent, vicious wounds that drain the life from your enemies.</em><br/><br/><b>Prerequisites</b><br/>Weapon Focus with slashing weapon.<br/><br/><b>Benefits</b><br/>When you deal damage with a melee attack with a slashing weapon to an opponent you have already damaged this round, you can also deal 1 point of bleed damage that lasts for 2 rounds. This bleed damage stacks with itself, but only if dealt in the same round.",
      "unidentified": ""
    },
    "tags": [
      "PFS",
      "Combat",
      "Combination"
    ],
    "actions": [],
    "uses": {
      "per": null,
      "value": 0,
      "maxFormula": "",
      "autoDeductChargesCost": "1"
    },
    "attackNotes": [],
    "effectNotes": [],
    "changes": [],
    "changeFlags": {
      "loseDexToAC": false,
      "noEncumbrance": false,
      "mediumArmorFullSpeed": false,
      "heavyArmorFullSpeed": false
    },
    "contextNotes": [],
    "links": {
      "children": [],
      "charges": []
    },
    "tag": "",
    "useCustomTag": false,
    "armorProf": {
      "value": [],
      "custom": ""
    },
    "weaponProf": {
      "value": [],
      "custom": ""
    },
    "languages": {
      "value": [],
      "custom": ""
    },
    "flags": {
      "boolean": {},
      "dictionary": {}
    },
    "scriptCalls": [],
    "subType": "feat",
    "associations": {
      "classes": []
    },
    "showInQuickbar": false,
    "abilityType": "none",
    "crOffset": "",
    "disabled": false,
    "classSkills": {}
  },
  "ownership": {
    "default": 0
  },
  "_stats": {
    "systemId": "pf1",
    "systemVersion": "9.1",
    "coreVersion": "10.291",
    "createdTime": 1665428352026,
    "modifiedTime": 1689797878785,
    "lastModifiedBy": "ppv91YxratjWnkJi"
  },
  "effects": [],
  "folder": null,
  "sort": 0,
  "flags": {},
  "_key": "!items!Ape1YrFyqyYq1ZMY"
}