{
  "_id": "8dXL9enEFbCXps0y",
  "name": "Thrune Trusted Agent",
  "type": "feat",
  "img": "systems/pf1/icons/skills/red_02.jpg",
  "system": {
    "description": {
      "value": "<em>Your supernatural bond to other Thrune agents strengthens your resolve and allows you to bolster your allies.</em><br/><br/><b>Prerequisites</b><br/>Thrune Loyal Agent trait.<br/><br/><b>Benefits</b><br/>Whenever you are within 30 feet of an ally who also has this feat, you gain a +1 profane bonus on Reflex and Will saving throws. In addition, once per day as a swift action, you can forfeit the saving throw bonuses granted by this feat to increase the effectiveness of the aid another action. For a number of rounds equal to your Charisma modifier (minimum 1), when you use the aid another action to aid an ally who also has this feat, the bonus you grant to an ally's AC, attack roll, or skill check is increased to +4 instead of the usual +2. You don't benefit from the feat's saving throw bonuses for 24 hours, though you still qualify as having this feat for the purpose of other characters gaining the bonuses.",
      "unidentified": ""
    },
    "tags": [
      "Teamwork"
    ],
    "actions": [],
    "uses": {
      "per": null,
      "value": 0,
      "maxFormula": "",
      "autoDeductChargesCost": "1"
    },
    "attackNotes": [],
    "effectNotes": [],
    "changes": [],
    "changeFlags": {
      "loseDexToAC": false,
      "noEncumbrance": false,
      "mediumArmorFullSpeed": false,
      "heavyArmorFullSpeed": false
    },
    "contextNotes": [],
    "links": {
      "children": [],
      "charges": []
    },
    "tag": "",
    "useCustomTag": false,
    "armorProf": {
      "value": [],
      "custom": ""
    },
    "weaponProf": {
      "value": [],
      "custom": ""
    },
    "languages": {
      "value": [],
      "custom": ""
    },
    "flags": {
      "boolean": {},
      "dictionary": {}
    },
    "scriptCalls": [],
    "subType": "feat",
    "associations": {
      "classes": []
    },
    "showInQuickbar": false,
    "abilityType": "none",
    "crOffset": "",
    "disabled": false,
    "classSkills": {}
  },
  "ownership": {
    "default": 0
  },
  "_stats": {
    "systemId": "pf1",
    "systemVersion": "9.1",
    "coreVersion": "10.291",
    "createdTime": 1665428351589,
    "modifiedTime": 1689797877510,
    "lastModifiedBy": "ppv91YxratjWnkJi"
  },
  "effects": [],
  "folder": null,
  "sort": 0,
  "flags": {},
  "_key": "!items!8dXL9enEFbCXps0y"
}