{
  "_id": "GMLs9ZAYcozggioA",
  "name": "Thuvian Grenadier",
  "type": "feat",
  "img": "systems/pf1/icons/items/potions/magic-green.jpg",
  "system": {
    "description": {
      "value": "<em>Training with alchemically inclined allies helps you avoid friendly fire.</em><br/><br/><b>Prerequisites</b><br/>Precise Shot or Throw Anything.<br/><br/><b>Benefits</b><br/>Whenever you hit a creature with a splash weapon, you may choose to exclude one creature within the weapon's splash area from taking splash damage. If a creature within the splash area also has this feat, it automatically ignores splash damage from your splash weapons on a successful hit.<br/><br/> In addition, if you miss with a splash weapon and the errant weapon lands in a square occupied or adjacent to an ally with this feat, your ally can attempt a DC 20 Reflex save. If the ally succeeds, he is able to catch the weapon. If your ally also has the Snatch Arrows feat, he can toss the splash weapon back to you as an immediate action.",
      "unidentified": ""
    },
    "tags": [
      "PFS",
      "Teamwork"
    ],
    "actions": [],
    "uses": {
      "per": null,
      "value": 0,
      "maxFormula": "",
      "autoDeductChargesCost": "1"
    },
    "attackNotes": [],
    "effectNotes": [],
    "changes": [],
    "changeFlags": {
      "loseDexToAC": false,
      "noEncumbrance": false,
      "mediumArmorFullSpeed": false,
      "heavyArmorFullSpeed": false
    },
    "contextNotes": [],
    "links": {
      "children": [],
      "charges": []
    },
    "tag": "",
    "useCustomTag": false,
    "armorProf": {
      "value": [],
      "custom": ""
    },
    "weaponProf": {
      "value": [],
      "custom": ""
    },
    "languages": {
      "value": [],
      "custom": ""
    },
    "flags": {
      "boolean": {},
      "dictionary": {}
    },
    "scriptCalls": [],
    "subType": "feat",
    "associations": {
      "classes": []
    },
    "showInQuickbar": false,
    "abilityType": "none",
    "crOffset": "",
    "disabled": false,
    "classSkills": {}
  },
  "ownership": {
    "default": 0
  },
  "_stats": {
    "systemId": "pf1",
    "systemVersion": "9.1",
    "coreVersion": "10.291",
    "createdTime": 1665428352751,
    "modifiedTime": 1689797882399,
    "lastModifiedBy": "ppv91YxratjWnkJi"
  },
  "effects": [],
  "folder": null,
  "sort": 0,
  "flags": {},
  "_key": "!items!GMLs9ZAYcozggioA"
}