{
  "_id": "PuAipWzlLA4GQNxU",
  "name": "Tiger Style",
  "type": "feat",
  "img": "systems/pf1/icons/races/catfolk.png",
  "system": {
    "description": {
      "value": "<em>Your unarmed fighting style emulates the strength and ferocity of a tiger.</em><br/><br/><b>Prerequisites</b><br/>Improved Unarmed Strike, base attack bonus +3 or monk level 3rd.<br/><br/><b>Benefits</b><br/>While using this style, you gain a +2 bonus to your CMD against bull rush, overrun, and trip maneuvers. You can also deal slashing damage with your unarmed strikes. Whenever you score a critical hit with your slashing unarmed strike, your opponent also takes 1d4 points of bleed damage at the start of his next two turns.<br/><br/><b>Normal</b><br/>Unarmed strikes deal bludgeoning damage.<br/><br/><b>Combat Trick</b><br/>When you score a critical hit with your slashing unarmed strike, you can spend 2 stamina points to make the bleed damage last until the target is healed either with a Heal check or magical healing (instead of lasting only 2 turns).",
      "unidentified": ""
    },
    "tags": [
      "PFS",
      "Combat",
      "Style"
    ],
    "actions": [],
    "uses": {
      "per": null,
      "value": 0,
      "maxFormula": "",
      "autoDeductChargesCost": "1"
    },
    "attackNotes": [],
    "effectNotes": [],
    "changes": [],
    "changeFlags": {
      "loseDexToAC": false,
      "noEncumbrance": false,
      "mediumArmorFullSpeed": false,
      "heavyArmorFullSpeed": false
    },
    "contextNotes": [],
    "links": {
      "children": [],
      "charges": []
    },
    "tag": "",
    "useCustomTag": false,
    "armorProf": {
      "value": [],
      "custom": ""
    },
    "weaponProf": {
      "value": [],
      "custom": ""
    },
    "languages": {
      "value": [],
      "custom": ""
    },
    "flags": {
      "boolean": {},
      "dictionary": {}
    },
    "scriptCalls": [],
    "subType": "feat",
    "associations": {
      "classes": []
    },
    "showInQuickbar": false,
    "abilityType": "none",
    "crOffset": "",
    "disabled": false,
    "classSkills": {}
  },
  "ownership": {
    "default": 0
  },
  "_stats": {
    "systemId": "pf1",
    "systemVersion": "9.1",
    "coreVersion": "10.291",
    "createdTime": 1665428354348,
    "modifiedTime": 1689797887186,
    "lastModifiedBy": "ppv91YxratjWnkJi"
  },
  "effects": [],
  "folder": null,
  "sort": 0,
  "flags": {},
  "_key": "!items!PuAipWzlLA4GQNxU"
}