{
  "_id": "9P9SlKlY48XwycfI",
  "name": "Topple Foe",
  "type": "feat",
  "img": "systems/pf1/icons/conditions/prone.png",
  "system": {
    "description": {
      "value": "<em>You and your allies can work together to trip larger foes.</em><br/><br/><b>Prerequisites</b><br/>Combat Expertise, Improved Trip.<br/><br/><b>Benefits</b><br/>If you attempt to trip a foe that is larger than you, you gain a +1 bonus on your CMB check to trip the foe as long as an ally with Topple Foe is flanking the foe with you. If multiple allies with Topple Foe are flanking the foe with you, you gain an additional +2 bonus on your CMD check for each additional ally that's flanking the target. The bonuses granted by this feat stack with those granted by Improved Trip and Greater Trip.<br/><br/>Each time you attempt to trip the same foe in consecutive rounds, the bonus granted to your trip attempt increases by +1 per ally, to a maximum bonus of +4 per flanking ally on the 4th round of consecutive trip attempts.",
      "unidentified": ""
    },
    "tags": [
      "PFS",
      "Combat",
      "Teamwork"
    ],
    "actions": [],
    "uses": {
      "per": null,
      "value": 0,
      "maxFormula": "",
      "autoDeductChargesCost": "1"
    },
    "attackNotes": [],
    "effectNotes": [],
    "changes": [],
    "changeFlags": {
      "loseDexToAC": false,
      "noEncumbrance": false,
      "mediumArmorFullSpeed": false,
      "heavyArmorFullSpeed": false
    },
    "contextNotes": [],
    "links": {
      "children": [],
      "charges": []
    },
    "tag": "",
    "useCustomTag": false,
    "armorProf": {
      "value": [],
      "custom": ""
    },
    "weaponProf": {
      "value": [],
      "custom": ""
    },
    "languages": {
      "value": [],
      "custom": ""
    },
    "flags": {
      "boolean": {},
      "dictionary": {}
    },
    "scriptCalls": [],
    "subType": "feat",
    "associations": {
      "classes": []
    },
    "showInQuickbar": false,
    "abilityType": "none",
    "crOffset": "",
    "disabled": false,
    "classSkills": {}
  },
  "ownership": {
    "default": 0
  },
  "_stats": {
    "systemId": "pf1",
    "systemVersion": "9.1",
    "coreVersion": "10.291",
    "createdTime": 1665428351908,
    "modifiedTime": 1689797878308,
    "lastModifiedBy": "ppv91YxratjWnkJi"
  },
  "effects": [],
  "folder": null,
  "sort": 0,
  "flags": {},
  "_key": "!items!9P9SlKlY48XwycfI"
}