{
  "_id": "20rB8UNFwhjTka52",
  "name": "Totemic Master",
  "type": "feat",
  "img": "systems/pf1/icons/skills/yellow_14.jpg",
  "system": {
    "description": {
      "value": "<em>Through both might of arms and spiritual wisdom, you have attained full understanding of your barbaric totem.</em><br/><br/><b>Prerequisites</b><br/>Str 17; Dex 13; Wis 13; Athletic; Totemic Disciple; Totemic Initiate; base attack bonus +13; no barbarian totem rage powers except those chosen with this feat, Totemic Disciple, or Totemic Initiate; nonlawful alignment.<br/><br/><b>Benefits</b><br/>Choose one greater totem rage power that requires the totem rage power you chose with Totemic Disciple. While gaining the benefits of Totemic Initiate, you also gain the benefits of this new rage power as well as the one you chose with Totemic Disciple. If you gain the pounce ability this way, you can make only natural attacks using your pounce ability.",
      "unidentified": ""
    },
    "tags": [
      "PFS",
      "General"
    ],
    "actions": [],
    "uses": {
      "per": null,
      "value": 0,
      "maxFormula": "",
      "autoDeductChargesCost": "1"
    },
    "attackNotes": [],
    "effectNotes": [],
    "changes": [],
    "changeFlags": {
      "loseDexToAC": false,
      "noEncumbrance": false,
      "mediumArmorFullSpeed": false,
      "heavyArmorFullSpeed": false
    },
    "contextNotes": [],
    "links": {
      "children": [],
      "charges": []
    },
    "tag": "",
    "useCustomTag": false,
    "armorProf": {
      "value": [],
      "custom": ""
    },
    "weaponProf": {
      "value": [],
      "custom": ""
    },
    "languages": {
      "value": [],
      "custom": ""
    },
    "flags": {
      "boolean": {},
      "dictionary": {}
    },
    "scriptCalls": [],
    "subType": "feat",
    "associations": {
      "classes": []
    },
    "showInQuickbar": false,
    "abilityType": "none",
    "crOffset": "",
    "disabled": false,
    "classSkills": {}
  },
  "ownership": {
    "default": 0
  },
  "_stats": {
    "systemId": "pf1",
    "systemVersion": "9.1",
    "coreVersion": "10.291",
    "createdTime": 1665428350717,
    "modifiedTime": 1689797874679,
    "lastModifiedBy": "ppv91YxratjWnkJi"
  },
  "effects": [],
  "folder": null,
  "sort": 0,
  "flags": {},
  "_key": "!items!20rB8UNFwhjTka52"
}