{
  "_id": "MBTwGGV4iL6p49Av",
  "name": "Touch of Serenity",
  "type": "feat",
  "img": "systems/pf1/icons/skills/light_08.jpg",
  "system": {
    "description": {
      "value": "<em>With a single touch you can reduce the threat of even the most savage of foes.</em><br/><br/><b>Prerequisites</b><br/>Wis 18, Improved Unarmed Strike, base attack bonus +8.<br/><br/><b>Benefits</b><br/>You must declare that you are using this feat before you make your attack roll (thus a failed attack roll ruins the attempt). On a successful hit, the attack deals no damage and bestows no other effect or condition, but the target cannot cast spells or attack (including attacks of opportunity and attacks as immediate actions) for 1 round unless it succeeds on a Will saving throw with a DC of 10 + 1/2 your character level + your Wisdom modifier. You may attempt a touch of serenity once per day for every four levels you have attained (but see Special), and no more than once per round.<br/><br/><b>Special</b><br/>A monk of the lotus receives Touch of Serenity as a bonus feat at 1st level, even if he does not meet the prerequisites. A monk may attempt a touch of serenity a number of times per day equal to his monk level, plus one more time per day for every four levels he has in classes other than monk.<br/><br/><b>Combat Trick</b><br/>You can spend 5 stamina points to declare you are using this feat after you hit with an attack roll. The target can still attempt the saving throw to resist Touch of Serenity's effects.",
      "unidentified": ""
    },
    "tags": [
      "PFS",
      "Combat"
    ],
    "actions": [],
    "uses": {
      "per": null,
      "value": 0,
      "maxFormula": "",
      "autoDeductChargesCost": "1"
    },
    "attackNotes": [],
    "effectNotes": [],
    "changes": [],
    "changeFlags": {
      "loseDexToAC": false,
      "noEncumbrance": false,
      "mediumArmorFullSpeed": false,
      "heavyArmorFullSpeed": false
    },
    "contextNotes": [],
    "links": {
      "children": [],
      "charges": []
    },
    "tag": "",
    "useCustomTag": false,
    "armorProf": {
      "value": [],
      "custom": ""
    },
    "weaponProf": {
      "value": [],
      "custom": ""
    },
    "languages": {
      "value": [],
      "custom": ""
    },
    "flags": {
      "boolean": {},
      "dictionary": {}
    },
    "scriptCalls": [],
    "subType": "feat",
    "associations": {
      "classes": []
    },
    "showInQuickbar": false,
    "abilityType": "none",
    "crOffset": "",
    "disabled": false,
    "classSkills": {}
  },
  "ownership": {
    "default": 0
  },
  "_stats": {
    "systemId": "pf1",
    "systemVersion": "9.1",
    "coreVersion": "10.291",
    "createdTime": 1665428353790,
    "modifiedTime": 1689797885427,
    "lastModifiedBy": "ppv91YxratjWnkJi"
  },
  "effects": [],
  "folder": null,
  "sort": 0,
  "flags": {},
  "_key": "!items!MBTwGGV4iL6p49Av"
}