{
  "_id": "4Z4oYFwoEhr7nim9",
  "name": "Tough as Iron",
  "type": "feat",
  "img": "systems/pf1/icons/items/inventory/bar-silver.jpg",
  "system": {
    "description": {
      "value": "<em>Effects that grant natural armor work even better for you.</em><br/><br/><b>Prerequisites</b><br/>Toughness, duergar.<br/><br/><b>Benefits</b><br/>When you gain an enhancement bonus to your natural armor, that bonus increases by 2. This has no effect if your natural armor bonus is +0 or you do not have an enhancement bonus increasing your natural armor bonus.",
      "unidentified": ""
    },
    "tags": [
      "Racial",
      "Duergar"
    ],
    "actions": [],
    "uses": {
      "per": null,
      "value": 0,
      "maxFormula": "",
      "autoDeductChargesCost": "1"
    },
    "attackNotes": [],
    "effectNotes": [],
    "changes": [],
    "changeFlags": {
      "loseDexToAC": false,
      "noEncumbrance": false,
      "mediumArmorFullSpeed": false,
      "heavyArmorFullSpeed": false
    },
    "contextNotes": [],
    "links": {
      "children": [],
      "charges": []
    },
    "tag": "",
    "useCustomTag": false,
    "armorProf": {
      "value": [],
      "custom": ""
    },
    "weaponProf": {
      "value": [],
      "custom": ""
    },
    "languages": {
      "value": [],
      "custom": ""
    },
    "flags": {
      "boolean": {},
      "dictionary": {}
    },
    "scriptCalls": [],
    "subType": "feat",
    "associations": {
      "classes": []
    },
    "showInQuickbar": false,
    "abilityType": "none",
    "crOffset": "",
    "disabled": false,
    "classSkills": {}
  },
  "ownership": {
    "default": 0
  },
  "_stats": {
    "systemId": "pf1",
    "systemVersion": "9.1",
    "coreVersion": "10.291",
    "createdTime": 1665428350898,
    "modifiedTime": 1689797875511,
    "lastModifiedBy": "ppv91YxratjWnkJi"
  },
  "effects": [],
  "folder": null,
  "sort": 0,
  "flags": {},
  "_key": "!items!4Z4oYFwoEhr7nim9"
}