{
  "_id": "OWHOHsZ0jvJJDWEP",
  "name": "Toxicological Timing",
  "type": "feat",
  "img": "systems/pf1/icons/skills/affliction_02.jpg",
  "system": {
    "description": {
      "value": "<em>You know how to adjust the amount of time a poison takes to produce its effects.</em><br/><br/><b>Prerequisites</b><br/>Craft (alchemy) 9 ranks.<br/><br/><b>Benefits</b><br/>When you craft a poison with the Craft (alchemy) skill (whether using the normal Craft rules or the rules for spontaneous alchemy), you can increase or decrease the unit of time used to measure the frequency of a poison you craft by up to one step along the following scale: rounds, minutes, hours, days. For example, if you applied this feat to arsenic (which has a frequency of 1/minute for 4 minutes), you could increase the frequency to 1/round for 4 rounds or decrease the frequency to 1/hour for 4 hours.",
      "unidentified": ""
    },
    "tags": [
      "PFS",
      "General"
    ],
    "actions": [],
    "uses": {
      "per": null,
      "value": 0,
      "maxFormula": "",
      "autoDeductChargesCost": "1"
    },
    "attackNotes": [],
    "effectNotes": [],
    "changes": [],
    "changeFlags": {
      "loseDexToAC": false,
      "noEncumbrance": false,
      "mediumArmorFullSpeed": false,
      "heavyArmorFullSpeed": false
    },
    "contextNotes": [],
    "links": {
      "children": [],
      "charges": []
    },
    "tag": "",
    "useCustomTag": false,
    "armorProf": {
      "value": [],
      "custom": ""
    },
    "weaponProf": {
      "value": [],
      "custom": ""
    },
    "languages": {
      "value": [],
      "custom": ""
    },
    "flags": {
      "boolean": {},
      "dictionary": {}
    },
    "scriptCalls": [],
    "subType": "feat",
    "associations": {
      "classes": []
    },
    "showInQuickbar": false,
    "abilityType": "none",
    "crOffset": "",
    "disabled": false,
    "classSkills": {}
  },
  "ownership": {
    "default": 0
  },
  "_stats": {
    "systemId": "pf1",
    "systemVersion": "9.1",
    "coreVersion": "10.291",
    "createdTime": 1665428353957,
    "modifiedTime": 1689797886303,
    "lastModifiedBy": "ppv91YxratjWnkJi"
  },
  "effects": [],
  "folder": null,
  "sort": 0,
  "flags": {},
  "_key": "!items!OWHOHsZ0jvJJDWEP"
}