{
  "_id": "MWiect9cC2QK8ILV",
  "name": "Toxic Recovery",
  "type": "feat",
  "img": "systems/pf1/icons/races/dwarf.png",
  "system": {
    "description": {
      "value": "<em>Your system recuperates from the effects of poisons with astonishing speed.</em><br/><br/><b>Prerequisites</b><br/>Dwarf, hardy racial trait.<br/><br/><b>Benefits</b><br/>Whenever you succeed at a saving throw against poison, you heal 1 point of ability damage of the type dealt by the poison. Whenever you heal ability damage naturally or magically, you heal 1 additional point of ability damage. This feat has no effect on penalties to ability scores or ability drain.",
      "unidentified": ""
    },
    "tags": [
      "PFS",
      "Racial",
      "Dwarf"
    ],
    "actions": [],
    "uses": {
      "per": null,
      "value": 0,
      "maxFormula": "",
      "autoDeductChargesCost": "1"
    },
    "attackNotes": [],
    "effectNotes": [],
    "changes": [],
    "changeFlags": {
      "loseDexToAC": false,
      "noEncumbrance": false,
      "mediumArmorFullSpeed": false,
      "heavyArmorFullSpeed": false
    },
    "contextNotes": [],
    "links": {
      "children": [],
      "charges": []
    },
    "tag": "",
    "useCustomTag": false,
    "armorProf": {
      "value": [],
      "custom": ""
    },
    "weaponProf": {
      "value": [],
      "custom": ""
    },
    "languages": {
      "value": [],
      "custom": ""
    },
    "flags": {
      "boolean": {},
      "dictionary": {}
    },
    "scriptCalls": [],
    "subType": "feat",
    "associations": {
      "classes": []
    },
    "showInQuickbar": false,
    "abilityType": "none",
    "crOffset": "",
    "disabled": false,
    "classSkills": {}
  },
  "ownership": {
    "default": 0
  },
  "_stats": {
    "systemId": "pf1",
    "systemVersion": "9.1",
    "coreVersion": "10.291",
    "createdTime": 1665428353820,
    "modifiedTime": 1689797885579,
    "lastModifiedBy": "ppv91YxratjWnkJi"
  },
  "effects": [],
  "folder": null,
  "sort": 0,
  "flags": {},
  "_key": "!items!MWiect9cC2QK8ILV"
}