{
  "_id": "3Xq4uOFWox1yrXL8",
  "name": "Toxic Stench",
  "type": "feat",
  "img": "systems/pf1/icons/skills/affliction_16.jpg",
  "system": {
    "description": {
      "value": "<em>Your stench is poisonous.</em><br/><br/><b>Prerequisites</b><br/>Stench universal monster ability, immunity to poison, Improved Stench, Toughness<br/><br/><b>Benefits</b><br/>The first round a creature is affected by your stench, it must also make a successful Fortitude save against the same DC to resist becoming poisoned. If you have 10 or fewer HD, this poison is identical to insanity mist; if you have 11 or more HD, the poison also adds confusion for 1 round to its effects.",
      "unidentified": ""
    },
    "tags": [
      "General"
    ],
    "actions": [],
    "uses": {
      "per": null,
      "value": 0,
      "maxFormula": "",
      "autoDeductChargesCost": "1"
    },
    "attackNotes": [],
    "effectNotes": [],
    "changes": [],
    "changeFlags": {
      "loseDexToAC": false,
      "noEncumbrance": false,
      "mediumArmorFullSpeed": false,
      "heavyArmorFullSpeed": false
    },
    "contextNotes": [],
    "links": {
      "children": [],
      "charges": []
    },
    "tag": "",
    "useCustomTag": false,
    "armorProf": {
      "value": [],
      "custom": ""
    },
    "weaponProf": {
      "value": [],
      "custom": ""
    },
    "languages": {
      "value": [],
      "custom": ""
    },
    "flags": {
      "boolean": {},
      "dictionary": {}
    },
    "scriptCalls": [],
    "subType": "feat",
    "associations": {
      "classes": []
    },
    "showInQuickbar": false,
    "abilityType": "none",
    "crOffset": "",
    "disabled": false,
    "classSkills": {}
  },
  "ownership": {
    "default": 0
  },
  "_stats": {
    "systemId": "pf1",
    "systemVersion": "9.1",
    "coreVersion": "10.291",
    "createdTime": 1665428350817,
    "modifiedTime": 1689797875166,
    "lastModifiedBy": "ppv91YxratjWnkJi"
  },
  "effects": [],
  "folder": null,
  "sort": 0,
  "flags": {},
  "_key": "!items!3Xq4uOFWox1yrXL8"
}