{
  "_id": "T1EoFUaI9PrW6Rqi",
  "name": "Train Plants",
  "type": "feat",
  "img": "systems/pf1/icons/skills/green_02.jpg",
  "system": {
    "description": {
      "value": "<em>After years of practice, cautious experiments, or sheer stubbornness, you have gained the ability to teach unintelligent plant creatures to follow simple commands.</em><br/><br/><b>Prerequisites</b><br/>Handle Animal 5 ranks, Knowledge (nature) 5 ranks.<br/><br/><b>Benefits</b><br/>A character with this feat treats creatures of the plant type with Intelligence scores of 3 or lower as animals for the purposes of the Handle Animal skill. Plant creatures without an Intelligence score are treated as animals with an Intelligence of 1 for these purposes. Ordinary plants lack Wisdom and Charisma scores--they aren't creatures and can't be trained.",
      "unidentified": ""
    },
    "tags": [
      "General"
    ],
    "actions": [],
    "uses": {
      "per": null,
      "value": 0,
      "maxFormula": "",
      "autoDeductChargesCost": "1"
    },
    "attackNotes": [],
    "effectNotes": [],
    "changes": [],
    "changeFlags": {
      "loseDexToAC": false,
      "noEncumbrance": false,
      "mediumArmorFullSpeed": false,
      "heavyArmorFullSpeed": false
    },
    "contextNotes": [],
    "links": {
      "children": [],
      "charges": []
    },
    "tag": "",
    "useCustomTag": false,
    "armorProf": {
      "value": [],
      "custom": ""
    },
    "weaponProf": {
      "value": [],
      "custom": ""
    },
    "languages": {
      "value": [],
      "custom": ""
    },
    "flags": {
      "boolean": {},
      "dictionary": {}
    },
    "scriptCalls": [],
    "subType": "feat",
    "associations": {
      "classes": []
    },
    "showInQuickbar": false,
    "abilityType": "none",
    "crOffset": "",
    "disabled": false,
    "classSkills": {}
  },
  "ownership": {
    "default": 0
  },
  "_stats": {
    "systemId": "pf1",
    "systemVersion": "9.1",
    "coreVersion": "10.291",
    "createdTime": 1665428354540,
    "modifiedTime": 1689797888332,
    "lastModifiedBy": "ppv91YxratjWnkJi"
  },
  "effects": [],
  "folder": null,
  "sort": 0,
  "flags": {},
  "_key": "!items!T1EoFUaI9PrW6Rqi"
}