{
  "_id": "CpKByDFtE0S652yw",
  "name": "Trailblazing Channel",
  "type": "feat",
  "img": "systems/pf1/icons/feats/improved-channel.jpg",
  "system": {
    "description": {
      "value": "<em>Your positive energy makes trailblazers of those you heal.</em><br/><br/><b>Prerequisites</b><br/>Channel energy 3d6, worshiper of Desna.<br/><br/><b>Benefits</b><br/>Once per day when you channel positive energy, you can cause healed creatures to be unimpeded by difficult terrain for a number of minutes equal to your Charisma modifier (minimum 1 minute).",
      "unidentified": ""
    },
    "tags": [
      "PFS",
      "Channeling"
    ],
    "actions": [],
    "uses": {
      "per": null,
      "value": 0,
      "maxFormula": "",
      "autoDeductChargesCost": "1"
    },
    "attackNotes": [],
    "effectNotes": [],
    "changes": [],
    "changeFlags": {
      "loseDexToAC": false,
      "noEncumbrance": false,
      "mediumArmorFullSpeed": false,
      "heavyArmorFullSpeed": false
    },
    "contextNotes": [],
    "links": {
      "children": [],
      "charges": []
    },
    "tag": "",
    "useCustomTag": false,
    "armorProf": {
      "value": [],
      "custom": ""
    },
    "weaponProf": {
      "value": [],
      "custom": ""
    },
    "languages": {
      "value": [],
      "custom": ""
    },
    "flags": {
      "boolean": {},
      "dictionary": {}
    },
    "scriptCalls": [],
    "subType": "feat",
    "associations": {
      "classes": []
    },
    "showInQuickbar": false,
    "abilityType": "none",
    "crOffset": "",
    "disabled": false,
    "classSkills": {}
  },
  "ownership": {
    "default": 0
  },
  "_stats": {
    "systemId": "pf1",
    "systemVersion": "9.1",
    "coreVersion": "10.291",
    "createdTime": 1665428352158,
    "modifiedTime": 1689797879437,
    "lastModifiedBy": "ppv91YxratjWnkJi"
  },
  "effects": [],
  "folder": null,
  "sort": 0,
  "flags": {},
  "_key": "!items!CpKByDFtE0S652yw"
}