{
  "_id": "dIqbQQQEANSVPlsX",
  "name": "Trepanation",
  "type": "feat",
  "img": "icons/commodities/bones/skull-hollow-beige.webp",
  "system": {
    "description": {
      "value": "<em>Through careful study and practice, you have learned how to relieve pressure in the brain to balance the humors, promote health, and ward off outside influence.</em><br/><br/><b>Prerequisites</b><br/>Heal 5 ranks, Knowledge (arcana) 2 ranks.<br/><br/><b>Benefits</b><br/>You can perform the faith healing occult skill unlock even if you can't use psychic magic. If you can cast psychic spells or have the Psychic Sensitivity feat, you can use faith healing one additional time per day.<br/><br/> So long as you have a healer's kit or surgeon's tools, you can spend 1 hour performing a full trepanation on a creature. This procedure requires a Heal check (DC = 20 + the target's Hit Dice). If you're successful, the target gains a +2 insight bonus on saving throws against curses, possession, and spells from the enchantment (compulsion) school. These effects persist for 1 day per character level you possess. If you fail the check, the target takes 1d3 points of Intelligence, Wisdom, and Charisma damage. You can perform this procedure on yourself, but the DC increases by 5.",
      "unidentified": ""
    },
    "tags": [
      "PFS",
      "General"
    ],
    "actions": [],
    "uses": {
      "per": null,
      "value": 0,
      "maxFormula": "",
      "autoDeductChargesCost": "1"
    },
    "attackNotes": [],
    "effectNotes": [],
    "changes": [],
    "changeFlags": {
      "loseDexToAC": false,
      "noEncumbrance": false,
      "mediumArmorFullSpeed": false,
      "heavyArmorFullSpeed": false
    },
    "contextNotes": [],
    "links": {
      "children": [],
      "charges": []
    },
    "tag": "",
    "useCustomTag": false,
    "armorProf": {
      "value": [],
      "custom": ""
    },
    "weaponProf": {
      "value": [],
      "custom": ""
    },
    "languages": {
      "value": [],
      "custom": ""
    },
    "flags": {
      "boolean": {},
      "dictionary": {}
    },
    "scriptCalls": [],
    "subType": "feat",
    "associations": {
      "classes": []
    },
    "showInQuickbar": false,
    "abilityType": "none",
    "crOffset": "",
    "disabled": false,
    "classSkills": {}
  },
  "ownership": {
    "default": 0
  },
  "_stats": {
    "systemId": "pf1",
    "systemVersion": "9.1",
    "coreVersion": "10.291",
    "createdTime": 1665428356083,
    "modifiedTime": 1689797894157,
    "lastModifiedBy": "ppv91YxratjWnkJi"
  },
  "effects": [],
  "folder": null,
  "sort": 0,
  "flags": {},
  "_key": "!items!dIqbQQQEANSVPlsX"
}