{
  "_id": "BwiuB1mOf1VNIpOC",
  "name": "Tribal Hunter",
  "type": "feat",
  "img": "systems/pf1/icons/feats/far-shot.jpg",
  "system": {
    "description": {
      "value": "<em>From watching pack animals hunt, you learned to take down large prey as part of a group.</em><br/><br/><b>Prerequisites</b><br/>Animal Affinity.<br/><br/><b>Benefits</b><br/>When either you or an ally with this feat is adjacent to and flanking an opponent that is larger than either of you, you both are considered to be flanking the opponent as long as you remain adjacent to it.<br/><br/><b>Normal</b><br/>You must be positioned opposite an ally to flank an opponent.",
      "unidentified": ""
    },
    "tags": [
      "PFS",
      "Combat",
      "Teamwork"
    ],
    "actions": [],
    "uses": {
      "per": null,
      "value": 0,
      "maxFormula": "",
      "autoDeductChargesCost": "1"
    },
    "attackNotes": [],
    "effectNotes": [],
    "changes": [],
    "changeFlags": {
      "loseDexToAC": false,
      "noEncumbrance": false,
      "mediumArmorFullSpeed": false,
      "heavyArmorFullSpeed": false
    },
    "contextNotes": [],
    "links": {
      "children": [],
      "charges": []
    },
    "tag": "",
    "useCustomTag": false,
    "armorProf": {
      "value": [],
      "custom": ""
    },
    "weaponProf": {
      "value": [],
      "custom": ""
    },
    "languages": {
      "value": [],
      "custom": ""
    },
    "flags": {
      "boolean": {},
      "dictionary": {}
    },
    "scriptCalls": [],
    "subType": "feat",
    "associations": {
      "classes": []
    },
    "showInQuickbar": false,
    "abilityType": "none",
    "crOffset": "",
    "disabled": false,
    "classSkills": {}
  },
  "ownership": {
    "default": 0
  },
  "_stats": {
    "systemId": "pf1",
    "systemVersion": "9.1",
    "coreVersion": "10.291",
    "createdTime": 1665428352099,
    "modifiedTime": 1689797879125,
    "lastModifiedBy": "ppv91YxratjWnkJi"
  },
  "effects": [],
  "folder": null,
  "sort": 0,
  "flags": {},
  "_key": "!items!BwiuB1mOf1VNIpOC"
}