{
  "_id": "UUllZzMHTlHdF5cK",
  "name": "Trick Shooter",
  "type": "feat",
  "img": "systems/pf1/icons/feats/deadly-aim.jpg",
  "system": {
    "description": {
      "value": "<em>Your uncanny aim allows you to disable your opponents without harming them.</em><br/><br/><b>Prerequisites</b><br/>Dex 13, Deadly Aim, base attack bonus +1.<br/><br/><b>Benefits</b><br/>You gain a +2 bonus on ranged combat maneuvers. When you attempt to perform a ranged combat maneuver, you can refrain from damaging the target at no penalty.",
      "unidentified": ""
    },
    "tags": [
      "PFS",
      "Combat"
    ],
    "actions": [],
    "uses": {
      "per": null,
      "value": 0,
      "maxFormula": "",
      "autoDeductChargesCost": "1"
    },
    "attackNotes": [],
    "effectNotes": [],
    "changes": [],
    "changeFlags": {
      "loseDexToAC": false,
      "noEncumbrance": false,
      "mediumArmorFullSpeed": false,
      "heavyArmorFullSpeed": false
    },
    "contextNotes": [],
    "links": {
      "children": [],
      "charges": []
    },
    "tag": "",
    "useCustomTag": false,
    "armorProf": {
      "value": [],
      "custom": ""
    },
    "weaponProf": {
      "value": [],
      "custom": ""
    },
    "languages": {
      "value": [],
      "custom": ""
    },
    "flags": {
      "boolean": {},
      "dictionary": {}
    },
    "scriptCalls": [],
    "subType": "feat",
    "associations": {
      "classes": []
    },
    "showInQuickbar": false,
    "abilityType": "none",
    "crOffset": "",
    "disabled": false,
    "classSkills": {}
  },
  "ownership": {
    "default": 0
  },
  "_stats": {
    "systemId": "pf1",
    "systemVersion": "9.1",
    "coreVersion": "10.291",
    "createdTime": 1665428354918,
    "modifiedTime": 1689797889754,
    "lastModifiedBy": "ppv91YxratjWnkJi"
  },
  "effects": [],
  "folder": null,
  "sort": 0,
  "flags": {},
  "_key": "!items!UUllZzMHTlHdF5cK"
}