{
  "_id": "hHUsVFCsmBBav7p9",
  "name": "Tripping Strike",
  "type": "feat",
  "img": "systems/pf1/icons/conditions/prone.png",
  "system": {
    "description": {
      "value": "<em>The force intrinsic to your critical hits can knock your foes down.</em><br/><br/><b>Prerequisites</b><br/>Int 13, Combat Expertise, Improved Trip, base attack bonus +9.<br/><br/><b>Benefits</b><br/>Whenever you score a critical hit with a melee attack, you can trip your opponent, in addition to the normal damage dealt by the attack. If your confirmation roll exceeds your opponent's CMD, you may knock your opponent prone as if from the trip combat maneuver. This does not provoke an attack of opportunity. If you are tripped during your own trip attempt, you can drop your weapon to avoid being tripped.<br/><br/><b>Normal</b><br/>You must perform a trip combat maneuver to trip an opponent.<br/><br/><b>Special</b><br/>You can only apply the effects of one of the following feats to a given critical hit: Bull Rush Strike, Disarming Strike, Repositioning Strike, Sundering Strike, or Tripping Strike. You may choose to use this feat after you make your confirmation roll.<br/><br/><b>Combat Trick</b><br/>When you fail to confirm a critical hit with a melee attack, you can spend 2 stamina points to attempt to trip the target anyway. When you do, reroll the confirmation roll and use it to determine if the trip attempt exceeds the opponent's CMD. This reroll is used only for the trip combat maneuver; it can't cause the critical hit to be conf irmed. You still can't make the attempt if the target is immune to critical hits.",
      "unidentified": ""
    },
    "tags": [
      "PFS",
      "Combat"
    ],
    "actions": [],
    "uses": {
      "per": null,
      "value": 0,
      "maxFormula": "",
      "autoDeductChargesCost": "1"
    },
    "attackNotes": [],
    "effectNotes": [],
    "changes": [],
    "changeFlags": {
      "loseDexToAC": false,
      "noEncumbrance": false,
      "mediumArmorFullSpeed": false,
      "heavyArmorFullSpeed": false
    },
    "contextNotes": [],
    "links": {
      "children": [],
      "charges": []
    },
    "tag": "",
    "useCustomTag": false,
    "armorProf": {
      "value": [],
      "custom": ""
    },
    "weaponProf": {
      "value": [],
      "custom": ""
    },
    "languages": {
      "value": [],
      "custom": ""
    },
    "flags": {
      "boolean": {},
      "dictionary": {}
    },
    "scriptCalls": [],
    "subType": "feat",
    "associations": {
      "classes": []
    },
    "showInQuickbar": false,
    "abilityType": "none",
    "crOffset": "",
    "disabled": false,
    "classSkills": {}
  },
  "ownership": {
    "default": 0
  },
  "_stats": {
    "systemId": "pf1",
    "systemVersion": "9.1",
    "coreVersion": "10.291",
    "createdTime": 1665428356704,
    "modifiedTime": 1689797896191,
    "lastModifiedBy": "ppv91YxratjWnkJi"
  },
  "effects": [],
  "folder": null,
  "sort": 0,
  "flags": {},
  "_key": "!items!hHUsVFCsmBBav7p9"
}