{
  "_id": "8ozUaQzeHfznCz5W",
  "name": "Triton Portal",
  "type": "feat",
  "img": "icons/environment/wilderness/portal.webp",
  "system": {
    "description": {
      "value": "<em>You can channel your inner magic to summon allies.</em><br/><br/><b>Prerequisites</b><br/>Character level 5th, hydraulic push spell-like ability, undine.<br/><br/><b>Benefits</b><br/>Once per day, you may expend your racial hydraulic push ability to instead cast summon nature's ally III as a spell-like ability with a caster level equal to your character level. This use of the ability can only summon 1d3 Small water elementals, 1d4+1 dolphins, a shark, or an electric eel. Using this ability is a full-round action.",
      "unidentified": ""
    },
    "tags": [
      "PFS",
      "Racial",
      "Undine"
    ],
    "actions": [],
    "uses": {
      "per": null,
      "value": 0,
      "maxFormula": "",
      "autoDeductChargesCost": "1"
    },
    "attackNotes": [],
    "effectNotes": [],
    "changes": [],
    "changeFlags": {
      "loseDexToAC": false,
      "noEncumbrance": false,
      "mediumArmorFullSpeed": false,
      "heavyArmorFullSpeed": false
    },
    "contextNotes": [],
    "links": {
      "children": [],
      "charges": []
    },
    "tag": "",
    "useCustomTag": false,
    "armorProf": {
      "value": [],
      "custom": ""
    },
    "weaponProf": {
      "value": [],
      "custom": ""
    },
    "languages": {
      "value": [],
      "custom": ""
    },
    "flags": {
      "boolean": {},
      "dictionary": {}
    },
    "scriptCalls": [],
    "subType": "feat",
    "associations": {
      "classes": []
    },
    "showInQuickbar": false,
    "abilityType": "none",
    "crOffset": "",
    "disabled": false,
    "classSkills": {}
  },
  "ownership": {
    "default": 0
  },
  "_stats": {
    "systemId": "pf1",
    "systemVersion": "9.1",
    "coreVersion": "10.291",
    "createdTime": 1665428351877,
    "modifiedTime": 1689797878126,
    "lastModifiedBy": "ppv91YxratjWnkJi"
  },
  "effects": [],
  "folder": null,
  "sort": 0,
  "flags": {},
  "_key": "!items!8ozUaQzeHfznCz5W"
}