{
  "_id": "9G86I5OcFsXKRK1I",
  "name": "True Breed",
  "type": "feat",
  "img": "systems/pf1/icons/races/elf.png",
  "system": {
    "description": {
      "value": "<p><em>Your dual heritage makes you something more than merely a mix of your parent races.</em><br /><br /><strong>Prerequisites</strong><br />Two subtypes, elf blood or orc blood racial trait.<br /><br /><strong>Benefits</strong><br />For the purposes of any effect related to subtype (such as a ranger's favored enemy and bane weapons), you count as neither of your subtypes, and you no longer count as either of your parent races for the purposes of effects related to race.</p>\n<p><br /><strong>Pathfinder Society<br /></strong>This feat can only be taken at 1st level.</p>",
      "unidentified": ""
    },
    "tags": [
      "PFS",
      "Racial",
      "Elf",
      "Orc"
    ],
    "actions": [],
    "uses": {
      "per": null,
      "value": 0,
      "maxFormula": "",
      "autoDeductChargesCost": "1"
    },
    "attackNotes": [],
    "effectNotes": [],
    "changes": [],
    "changeFlags": {
      "loseDexToAC": false,
      "noEncumbrance": false,
      "mediumArmorFullSpeed": false,
      "heavyArmorFullSpeed": false
    },
    "contextNotes": [],
    "links": {
      "children": [],
      "charges": []
    },
    "tag": "",
    "useCustomTag": false,
    "armorProf": {
      "value": [],
      "custom": ""
    },
    "weaponProf": {
      "value": [],
      "custom": ""
    },
    "languages": {
      "value": [],
      "custom": ""
    },
    "flags": {
      "boolean": {},
      "dictionary": {}
    },
    "scriptCalls": [],
    "subType": "feat",
    "associations": {
      "classes": []
    },
    "showInQuickbar": false,
    "abilityType": "none",
    "crOffset": "",
    "disabled": false,
    "classSkills": {}
  },
  "ownership": {
    "default": 0
  },
  "_stats": {
    "systemId": "pf1",
    "systemVersion": "9.1",
    "coreVersion": "10.291",
    "createdTime": 1665428351899,
    "modifiedTime": 1689797878249,
    "lastModifiedBy": "ppv91YxratjWnkJi"
  },
  "effects": [],
  "folder": null,
  "sort": 0,
  "flags": {},
  "_key": "!items!9G86I5OcFsXKRK1I"
}