{
  "_id": "lhsHdAlDo0amEjNg",
  "name": "Twin Fang Lunge",
  "type": "feat",
  "img": "icons/weapons/daggers/dagger-twin-curved-black.webp",
  "system": {
    "description": {
      "value": "<em>You strike with the force of a serpent's lunge.</em><br/><br/><b>Prerequisites</b><br/>Dex 15; Quick Draw; Twin Fang Strike; Twin Fang Style; Two-Weapon Fighting; Acrobatics 8 ranks; base attack bonus +8 or monk level 8th.<br/><br/><b>Benefits</b><br/>While using Twin Fang Style, you can spend a full-round action to move up to twice your speed and then use Twin Fang Strike as if you were taking the attack action.",
      "unidentified": ""
    },
    "tags": [
      "PFS",
      "Combat"
    ],
    "actions": [],
    "uses": {
      "per": null,
      "value": 0,
      "maxFormula": "",
      "autoDeductChargesCost": "1"
    },
    "attackNotes": [],
    "effectNotes": [],
    "changes": [],
    "changeFlags": {
      "loseDexToAC": false,
      "noEncumbrance": false,
      "mediumArmorFullSpeed": false,
      "heavyArmorFullSpeed": false
    },
    "contextNotes": [],
    "links": {
      "children": [],
      "charges": []
    },
    "tag": "",
    "useCustomTag": false,
    "armorProf": {
      "value": [],
      "custom": ""
    },
    "weaponProf": {
      "value": [],
      "custom": ""
    },
    "languages": {
      "value": [],
      "custom": ""
    },
    "flags": {
      "boolean": {},
      "dictionary": {}
    },
    "scriptCalls": [],
    "subType": "feat",
    "associations": {
      "classes": []
    },
    "showInQuickbar": false,
    "abilityType": "none",
    "crOffset": "",
    "disabled": false,
    "classSkills": {}
  },
  "ownership": {
    "default": 0
  },
  "_stats": {
    "systemId": "pf1",
    "systemVersion": "9.1",
    "coreVersion": "10.291",
    "createdTime": 1665428357409,
    "modifiedTime": 1689797898840,
    "lastModifiedBy": "ppv91YxratjWnkJi"
  },
  "effects": [],
  "folder": null,
  "sort": 0,
  "flags": {},
  "_key": "!items!lhsHdAlDo0amEjNg"
}