{
  "_id": "BTrciHHPtsTY01Hq",
  "name": "Two-Weapon Feint",
  "type": "feat",
  "img": "systems/pf1/icons/feats/improved-two-weapon-fighting.jpg",
  "system": {
    "description": {
      "value": "<em>You use one weapon to distract your enemy while slipping another past his defenses.</em><br/><br/><b>Prerequisites</b><br/>Dex 15, Int 13, Combat Expertise, Two-Weapon Fighting.<br/><br/><b>Benefits</b><br/>While using Two-Weapon Fighting to make melee attacks, you can forgo your first primary-hand melee attack to make a Bluff check to feint an opponent.<br/><br/><b>Combat Trick</b><br/>You can select this feat even if you don't meet the ability score prerequisite (Intelligence 13). You gain the benefits of this feat only as long as you have at least 1 stamina point in your stamina pool. When using Two-Weapon Fighting to make a melee attack, you can spend 5 stamina points to forgo any one of your melee attacks (not just your first primary-hand attack) to attempt a Bluff check to feint an opponent. This feint attempt occurs before all of your attacks, even if you give up a later attack.",
      "unidentified": ""
    },
    "tags": [
      "PFS",
      "Combat"
    ],
    "actions": [],
    "uses": {
      "per": null,
      "value": 0,
      "maxFormula": "",
      "autoDeductChargesCost": "1"
    },
    "attackNotes": [],
    "effectNotes": [],
    "changes": [],
    "changeFlags": {
      "loseDexToAC": false,
      "noEncumbrance": false,
      "mediumArmorFullSpeed": false,
      "heavyArmorFullSpeed": false
    },
    "contextNotes": [],
    "links": {
      "children": [],
      "charges": []
    },
    "tag": "",
    "useCustomTag": false,
    "armorProf": {
      "value": [],
      "custom": ""
    },
    "weaponProf": {
      "value": [],
      "custom": ""
    },
    "languages": {
      "value": [],
      "custom": ""
    },
    "flags": {
      "boolean": {},
      "dictionary": {}
    },
    "scriptCalls": [],
    "subType": "feat",
    "associations": {
      "classes": []
    },
    "showInQuickbar": false,
    "abilityType": "none",
    "crOffset": "",
    "disabled": false,
    "classSkills": {}
  },
  "ownership": {
    "default": 0
  },
  "_stats": {
    "systemId": "pf1",
    "systemVersion": "9.1",
    "coreVersion": "10.291",
    "createdTime": 1665428352077,
    "modifiedTime": 1689797879002,
    "lastModifiedBy": "ppv91YxratjWnkJi"
  },
  "effects": [],
  "folder": null,
  "sort": 0,
  "flags": {},
  "_key": "!items!BTrciHHPtsTY01Hq"
}