{
  "_id": "zKhLdJ6D6koxQJKP",
  "name": "Two-Weapon Drunkard",
  "type": "feat",
  "img": "systems/pf1/icons/items/inventory/tankard-full.jpg",
  "system": {
    "description": {
      "value": "<em>You effortlessly wield tankards in your off hand, and can use them to drink from and as deadly weapons in a battle with equal ease.</em><br/><br/><b>Prerequisites</b><br/>Catch Off-Guard, Two-Weapon Fighting.<br/><br/><b>Benefits</b><br/>When you wield a tankard as an improvised weapon in your off hand, it functions as a light mace, including for the purpose of determining the effects of feats like Weapon Focus. If you worship Cayden Cailean, your off-hand tankard functions as a divine focus and does not interfere with somatic spell components.<br/><br/> When you fight with two weapons and have the sickened condition, you do not apply the penalties from being sickened to attack rolls or weapon damage rolls.<br/><br/><b>Normal</b><br/>A tankard wielded as an improvised weapon normally functions as a gauntlet.",
      "unidentified": ""
    },
    "tags": [
      "PFS",
      "Combat"
    ],
    "actions": [],
    "uses": {
      "per": null,
      "value": 0,
      "maxFormula": "",
      "autoDeductChargesCost": "1"
    },
    "attackNotes": [],
    "effectNotes": [],
    "changes": [],
    "changeFlags": {
      "loseDexToAC": false,
      "noEncumbrance": false,
      "mediumArmorFullSpeed": false,
      "heavyArmorFullSpeed": false
    },
    "contextNotes": [],
    "links": {
      "children": [],
      "charges": []
    },
    "tag": "",
    "useCustomTag": false,
    "armorProf": {
      "value": [],
      "custom": ""
    },
    "weaponProf": {
      "value": [],
      "custom": ""
    },
    "languages": {
      "value": [],
      "custom": ""
    },
    "flags": {
      "boolean": {},
      "dictionary": {}
    },
    "scriptCalls": [],
    "subType": "feat",
    "associations": {
      "classes": []
    },
    "showInQuickbar": false,
    "abilityType": "none",
    "crOffset": "",
    "disabled": false,
    "classSkills": {}
  },
  "ownership": {
    "default": 0
  },
  "_stats": {
    "systemId": "pf1",
    "systemVersion": "9.1",
    "coreVersion": "10.291",
    "createdTime": 1665428359358,
    "modifiedTime": 1689797904962,
    "lastModifiedBy": "ppv91YxratjWnkJi"
  },
  "effects": [],
  "folder": null,
  "sort": 0,
  "flags": {},
  "_key": "!items!zKhLdJ6D6koxQJKP"
}