{
  "_id": "seR3mVwaFhpO3fkQ",
  "name": "Ultimate Resolve",
  "type": "feat",
  "img": "systems/pf1/icons/spells/protect-orange-3.jpg",
  "system": {
    "description": {
      "value": "<em>Your aura of resolve does not fall with you.</em><br/><br/><b>Prerequisites</b><br/>Aura of resolve class feature.<br/><br/><b>Benefits</b><br/>Your aura of resolve is a 20-foot emanation, and does not end if you fall unconscious.<br/><br/><b>Normal</b><br/>The aura of resolve affects each ally within 10 feet, and ends when you fall unconscious.",
      "unidentified": ""
    },
    "tags": [
      "PFS",
      "General"
    ],
    "actions": [],
    "uses": {
      "per": null,
      "value": 0,
      "maxFormula": "",
      "autoDeductChargesCost": "1"
    },
    "attackNotes": [],
    "effectNotes": [],
    "changes": [],
    "changeFlags": {
      "loseDexToAC": false,
      "noEncumbrance": false,
      "mediumArmorFullSpeed": false,
      "heavyArmorFullSpeed": false
    },
    "contextNotes": [],
    "links": {
      "children": [],
      "charges": []
    },
    "tag": "",
    "useCustomTag": false,
    "armorProf": {
      "value": [],
      "custom": ""
    },
    "weaponProf": {
      "value": [],
      "custom": ""
    },
    "languages": {
      "value": [],
      "custom": ""
    },
    "flags": {
      "boolean": {},
      "dictionary": {}
    },
    "scriptCalls": [],
    "subType": "feat",
    "associations": {
      "classes": []
    },
    "showInQuickbar": false,
    "abilityType": "none",
    "crOffset": "",
    "disabled": false,
    "classSkills": {}
  },
  "ownership": {
    "default": 0
  },
  "_stats": {
    "systemId": "pf1",
    "systemVersion": "9.1",
    "coreVersion": "10.291",
    "createdTime": 1665428358219,
    "modifiedTime": 1689797901723,
    "lastModifiedBy": "ppv91YxratjWnkJi"
  },
  "effects": [],
  "folder": null,
  "sort": 0,
  "flags": {},
  "_key": "!items!seR3mVwaFhpO3fkQ"
}