{
  "_id": "0nvnNxuH8b52wqjw",
  "name": "Undaunted Bravery",
  "type": "feat",
  "img": "systems/pf1/icons/feats/intimidating-prowess.jpg",
  "system": {
    "description": {
      "value": "<em>It takes more than the average threat to intimidate you, and you've mastered the art of menacing your foes by implying violence through your cheerful smile.</em><br/><br/><b>Prerequisites</b><br/>Bravery class feature, worshiper of Cayden Cailean.<br/><br/><b>Benefits</b><br/>You can add your bonus from bravery to Intimidate checks and to the DC to intimidate you.",
      "unidentified": ""
    },
    "tags": [
      "PFS",
      "General"
    ],
    "actions": [],
    "uses": {
      "per": null,
      "value": 0,
      "maxFormula": "",
      "autoDeductChargesCost": "1"
    },
    "attackNotes": [],
    "effectNotes": [],
    "changes": [],
    "changeFlags": {
      "loseDexToAC": false,
      "noEncumbrance": false,
      "mediumArmorFullSpeed": false,
      "heavyArmorFullSpeed": false
    },
    "contextNotes": [],
    "links": {
      "children": [],
      "charges": []
    },
    "tag": "",
    "useCustomTag": false,
    "armorProf": {
      "value": [],
      "custom": ""
    },
    "weaponProf": {
      "value": [],
      "custom": ""
    },
    "languages": {
      "value": [],
      "custom": ""
    },
    "flags": {
      "boolean": {},
      "dictionary": {}
    },
    "scriptCalls": [],
    "subType": "feat",
    "associations": {
      "classes": []
    },
    "showInQuickbar": false,
    "abilityType": "none",
    "crOffset": "",
    "disabled": false,
    "classSkills": {}
  },
  "ownership": {
    "default": 0
  },
  "_stats": {
    "systemId": "pf1",
    "systemVersion": "9.1",
    "coreVersion": "10.291",
    "createdTime": 1665428350635,
    "modifiedTime": 1689797874273,
    "lastModifiedBy": "ppv91YxratjWnkJi"
  },
  "effects": [],
  "folder": null,
  "sort": 0,
  "flags": {},
  "_key": "!items!0nvnNxuH8b52wqjw"
}