{
  "_id": "YxUIsUjTbdDuWRj5",
  "name": "Unfolding Wind Rush",
  "type": "feat",
  "img": "systems/pf1/icons/spells/air-burst-air-1.jpg",
  "system": {
    "description": {
      "value": "<em>Thrown weapons fly from your hands as if blown by a gale, and you leave behind a wake of wind as you move.</em><br/><br/><b>Prerequisites</b><br/>Dex 13; Wis 13; Dodge; Mobility; Perfect Style; Quick Draw; Unfolding Wind Strike; base attack bonus +13 or monk level 13th.<br/><br/><b>Benefits</b><br/>When using Perfect Style and wielding thrown weapons, you can combine a full-attack action with a single move action. You must forgo the attack at your highest bonus but can take the remaining attacks as normal at any point during your movement. You can spend 1 ki point as a swift action to create a path of wind along your path of movement that functions as wind wall for 1 round; this effect does not affect your ranged attacks.<br/><br/><b>Combat Trick</b><br/>You can spend 2 stamina points instead of 1 ki point when using Unfolding Wind Rush.",
      "unidentified": ""
    },
    "tags": [
      "PFS",
      "Combat"
    ],
    "actions": [],
    "uses": {
      "per": null,
      "value": 0,
      "maxFormula": "",
      "autoDeductChargesCost": "1"
    },
    "attackNotes": [],
    "effectNotes": [],
    "changes": [],
    "changeFlags": {
      "loseDexToAC": false,
      "noEncumbrance": false,
      "mediumArmorFullSpeed": false,
      "heavyArmorFullSpeed": false
    },
    "contextNotes": [],
    "links": {
      "children": [],
      "charges": []
    },
    "tag": "",
    "useCustomTag": false,
    "armorProf": {
      "value": [],
      "custom": ""
    },
    "weaponProf": {
      "value": [],
      "custom": ""
    },
    "languages": {
      "value": [],
      "custom": ""
    },
    "flags": {
      "boolean": {},
      "dictionary": {}
    },
    "scriptCalls": [],
    "subType": "feat",
    "associations": {
      "classes": []
    },
    "showInQuickbar": false,
    "abilityType": "none",
    "crOffset": "",
    "disabled": false,
    "classSkills": {}
  },
  "ownership": {
    "default": 0
  },
  "_stats": {
    "systemId": "pf1",
    "systemVersion": "9.1",
    "coreVersion": "10.291",
    "createdTime": 1665428355486,
    "modifiedTime": 1689797892120,
    "lastModifiedBy": "ppv91YxratjWnkJi"
  },
  "effects": [],
  "folder": null,
  "sort": 0,
  "flags": {},
  "_key": "!items!YxUIsUjTbdDuWRj5"
}