{
  "_id": "m1oDKD8vIUekbqbF",
  "name": "Unusual Heritage (Fetchling)",
  "type": "feat",
  "img": "systems/pf1/icons/races/fetchling.png",
  "system": {
    "description": {
      "value": "<em>Your heritage is strange or difficult to trace, and people fear your otherworldly powers.</em><br/><br/><b>Prerequisites</b><br/>Fetchling.<br/><br/><b>Benefits</b><br/>You have the mysterious ability to see into the Shadow Plane, but only in your dreams. Once per day while sleeping, you can create a magical sensor, as arcane eye except this sensor can view only your current location as it exists on the Shadow Plane. This effect lasts for 1 minute per character level, and can be used during any point while you sleep.",
      "unidentified": ""
    },
    "tags": [
      "PFS",
      "Racial",
      "Fetchling"
    ],
    "actions": [],
    "uses": {
      "per": null,
      "value": 0,
      "maxFormula": "",
      "autoDeductChargesCost": "1"
    },
    "attackNotes": [],
    "effectNotes": [],
    "changes": [],
    "changeFlags": {
      "loseDexToAC": false,
      "noEncumbrance": false,
      "mediumArmorFullSpeed": false,
      "heavyArmorFullSpeed": false
    },
    "contextNotes": [],
    "links": {
      "children": [],
      "charges": []
    },
    "tag": "",
    "useCustomTag": false,
    "armorProf": {
      "value": [],
      "custom": ""
    },
    "weaponProf": {
      "value": [],
      "custom": ""
    },
    "languages": {
      "value": [],
      "custom": ""
    },
    "flags": {
      "boolean": {},
      "dictionary": {}
    },
    "scriptCalls": [],
    "subType": "feat",
    "associations": {
      "classes": []
    },
    "showInQuickbar": false,
    "abilityType": "none",
    "crOffset": "",
    "disabled": false,
    "classSkills": {}
  },
  "ownership": {
    "default": 0
  },
  "_stats": {
    "systemId": "pf1",
    "systemVersion": "9.1",
    "coreVersion": "10.291",
    "createdTime": 1665428357434,
    "modifiedTime": 1689797898983,
    "lastModifiedBy": "ppv91YxratjWnkJi"
  },
  "effects": [],
  "folder": null,
  "sort": 0,
  "flags": {},
  "_key": "!items!m1oDKD8vIUekbqbF"
}