{
  "_id": "32Rl7zWlmEfQCXAR",
  "name": "Usurper's Guard",
  "type": "feat",
  "img": "systems/pf1/icons/skills/blue_18.jpg",
  "system": {
    "description": {
      "value": "<em>You work with your allies to create a defensive guard to facilitate spellcasting.</em><br/><br/><b>Prerequisites</b><br/>Base attack bonus +3 or ability to cast 2nd-level spells.<br/><br/><b>Benefits</b><br/>When an adjacent ally with this feat attempts a concentration check to cast a spell or use a spell-like ability defensively, you can attempt a combat maneuver check as an immediate action to guard that ally. Your ally can use either the result of her own concentration check or the result of your combat maneuver check to determine whether she succeeds at casting the spell or using the spell-like ability.",
      "unidentified": ""
    },
    "tags": [
      "PFS",
      "Teamwork"
    ],
    "actions": [],
    "uses": {
      "per": null,
      "value": 0,
      "maxFormula": "",
      "autoDeductChargesCost": "1"
    },
    "attackNotes": [],
    "effectNotes": [],
    "changes": [],
    "changeFlags": {
      "loseDexToAC": false,
      "noEncumbrance": false,
      "mediumArmorFullSpeed": false,
      "heavyArmorFullSpeed": false
    },
    "contextNotes": [],
    "links": {
      "children": [],
      "charges": []
    },
    "tag": "",
    "useCustomTag": false,
    "armorProf": {
      "value": [],
      "custom": ""
    },
    "weaponProf": {
      "value": [],
      "custom": ""
    },
    "languages": {
      "value": [],
      "custom": ""
    },
    "flags": {
      "boolean": {},
      "dictionary": {}
    },
    "scriptCalls": [],
    "subType": "feat",
    "associations": {
      "classes": []
    },
    "showInQuickbar": false,
    "abilityType": "none",
    "crOffset": "",
    "disabled": false,
    "classSkills": {}
  },
  "ownership": {
    "default": 0
  },
  "_stats": {
    "systemId": "pf1",
    "systemVersion": "9.1",
    "coreVersion": "10.291",
    "createdTime": 1665428350780,
    "modifiedTime": 1689797874983,
    "lastModifiedBy": "ppv91YxratjWnkJi"
  },
  "effects": [],
  "folder": null,
  "sort": 0,
  "flags": {},
  "_key": "!items!32Rl7zWlmEfQCXAR"
}