{
  "_id": "LOY8eavCWhLpsn1N",
  "name": "Valiant Steed",
  "type": "feat",
  "img": "systems/pf1/icons/feats/animal-affinity.jpg",
  "system": {
    "description": {
      "value": "<em>Your courage is unnaturally strong.</em><br/><br/><b>Prerequisites</b><br/>Animal or magical beast.<br/><br/><b>Benefits</b><br/>You gain a +4 morale bonus on saves against fear and emotion effects. If you can serve as a mount, your rider gains a +4 morale bonus on Handle Animal, Ride, and wild empathy checks to force you within range of a creature with the unnatural aura universal monster rule. In addition, the DC to push you with the Handle Animal skill does not increase if you are wounded or have taken any nonlethal damage or ability score damage.<br/><br/><b>Normal</b><br/>The DC to push an animal increases by 2 if the animal is wounded or has taken any nonlethal damage or ability score damage.",
      "unidentified": ""
    },
    "tags": [
      "PFS",
      "General"
    ],
    "actions": [],
    "uses": {
      "per": null,
      "value": 0,
      "maxFormula": "",
      "autoDeductChargesCost": "1"
    },
    "attackNotes": [],
    "effectNotes": [],
    "changes": [],
    "changeFlags": {
      "loseDexToAC": false,
      "noEncumbrance": false,
      "mediumArmorFullSpeed": false,
      "heavyArmorFullSpeed": false
    },
    "contextNotes": [],
    "links": {
      "children": [],
      "charges": []
    },
    "tag": "",
    "useCustomTag": false,
    "armorProf": {
      "value": [],
      "custom": ""
    },
    "weaponProf": {
      "value": [],
      "custom": ""
    },
    "languages": {
      "value": [],
      "custom": ""
    },
    "flags": {
      "boolean": {},
      "dictionary": {}
    },
    "scriptCalls": [],
    "subType": "feat",
    "associations": {
      "classes": []
    },
    "showInQuickbar": false,
    "abilityType": "none",
    "crOffset": "",
    "disabled": false,
    "classSkills": {}
  },
  "ownership": {
    "default": 0
  },
  "_stats": {
    "systemId": "pf1",
    "systemVersion": "9.1",
    "coreVersion": "10.291",
    "createdTime": 1665428353742,
    "modifiedTime": 1689797885144,
    "lastModifiedBy": "ppv91YxratjWnkJi"
  },
  "effects": [],
  "folder": null,
  "sort": 0,
  "flags": {},
  "_key": "!items!LOY8eavCWhLpsn1N"
}