{
  "_id": "BV4UnirQEKaeDwue",
  "name": "Vanguard Ward",
  "type": "feat",
  "img": "systems/pf1/icons/items/armor/shield-tower.PNG",
  "system": {
    "description": {
      "value": "<em>You strongly defend your allies.</em><br/><br/><b>Prerequisites</b><br/>Bodyguard, Combat Reflexes, Vanguard Style, proficiency with light or heavy shields.<br/><br/><b>Benefits</b><br/>While using Vanguard Style, when an adjacent ally is attacked or required to make a Reflex saving throw, you can expend a use of an attack of opportunity to use both Bodyguard and Vanguard Style to protect that ally. You can also lose your shield bonus to AC to grant your ally a shield bonus to AC of the same value for as long as that ally gains a bonus to Reflex saves from Vanguard Style.",
      "unidentified": ""
    },
    "tags": [
      "PFS",
      "Combat"
    ],
    "actions": [],
    "uses": {
      "per": null,
      "value": 0,
      "maxFormula": "",
      "autoDeductChargesCost": "1"
    },
    "attackNotes": [],
    "effectNotes": [],
    "changes": [],
    "changeFlags": {
      "loseDexToAC": false,
      "noEncumbrance": false,
      "mediumArmorFullSpeed": false,
      "heavyArmorFullSpeed": false
    },
    "contextNotes": [],
    "links": {
      "children": [],
      "charges": []
    },
    "tag": "",
    "useCustomTag": false,
    "armorProf": {
      "value": [],
      "custom": ""
    },
    "weaponProf": {
      "value": [],
      "custom": ""
    },
    "languages": {
      "value": [],
      "custom": ""
    },
    "flags": {
      "boolean": {},
      "dictionary": {}
    },
    "scriptCalls": [],
    "subType": "feat",
    "associations": {
      "classes": []
    },
    "showInQuickbar": false,
    "abilityType": "none",
    "crOffset": "",
    "disabled": false,
    "classSkills": {}
  },
  "ownership": {
    "default": 0
  },
  "_stats": {
    "systemId": "pf1",
    "systemVersion": "9.1",
    "coreVersion": "10.291",
    "createdTime": 1665428352080,
    "modifiedTime": 1689797879020,
    "lastModifiedBy": "ppv91YxratjWnkJi"
  },
  "effects": [],
  "folder": null,
  "sort": 0,
  "flags": {},
  "_key": "!items!BV4UnirQEKaeDwue"
}