{
  "_id": "lYzMMQsP0L7b7qr7",
  "name": "Vaporous Potion",
  "type": "feat",
  "img": "icons/tools/laboratory/bowl-liquid-orange.webp",
  "system": {
    "description": {
      "value": "<em>You know how to brew potions that can be delivered as a gaseous cloud.</em><br/><br/><b>Prerequisites</b><br/>Brew Potion.<br/><br/><b>Benefits</b><br/>When you brew a potion, you can brew it in such a way that when exposed suddenly to air and force, it diffuses into a cloud of vapor that can be inhaled. The potion can still be consumed normally, but it can also be delivered by throwing it at another creature as a splash weapon. The potion vial has a range increment of 10 feet and is considered an improvised weapon. On impact, the vial breaks and a cloud of barely visible potion vapor fills the square it lands in (this vapor does not obscure normal sight in any way). If a creature is in that square, it gains the benefits of the potion immediately as though it had imbibed the potion.<br/><br/> Otherwise, the vapor persists for 1d3+1 rounds in only that square before dissipating, and the first creature to enter the square before the vapor dissipates gains the potion's benefits. A creature entering the vapor's space can hold its breath to refrain from inhaling the potion. No more than one creature can benefit from a potion's vapor, and if more than one creature is in the potion's space after it is thrown, the potion is wasted and has no effect. The thrown potion deals no damage to creatures or objects it hits. A spell brewed into a potion this way does not use up a higher-level spell slot than the spell's actual level.<br/><br/><br/><br/><b>Versatile Brewing</b><br/>The above feat allows potion brewers to concoct unusual variations in their potions, altering the potions' effects in strange and useful ways. This feat functions similarly to metamagic feats, though it affects the creation of potions instead of the normal casting of spells. Level limits for potions apply to their level after the application of any relevant metamagic feats (if the feat affects the component spell's level).",
      "unidentified": ""
    },
    "tags": [
      "General"
    ],
    "actions": [],
    "uses": {
      "per": null,
      "value": 0,
      "maxFormula": "",
      "autoDeductChargesCost": "1"
    },
    "attackNotes": [],
    "effectNotes": [],
    "changes": [],
    "changeFlags": {
      "loseDexToAC": false,
      "noEncumbrance": false,
      "mediumArmorFullSpeed": false,
      "heavyArmorFullSpeed": false
    },
    "contextNotes": [],
    "links": {
      "children": [],
      "charges": []
    },
    "tag": "",
    "useCustomTag": false,
    "armorProf": {
      "value": [],
      "custom": ""
    },
    "weaponProf": {
      "value": [],
      "custom": ""
    },
    "languages": {
      "value": [],
      "custom": ""
    },
    "flags": {
      "boolean": {},
      "dictionary": {}
    },
    "scriptCalls": [],
    "subType": "feat",
    "associations": {
      "classes": []
    },
    "showInQuickbar": false,
    "abilityType": "none",
    "crOffset": "",
    "disabled": false,
    "classSkills": {}
  },
  "ownership": {
    "default": 0
  },
  "_stats": {
    "systemId": "pf1",
    "systemVersion": "9.1",
    "coreVersion": "10.291",
    "createdTime": 1665428357395,
    "modifiedTime": 1689797898729,
    "lastModifiedBy": "ppv91YxratjWnkJi"
  },
  "effects": [],
  "folder": null,
  "sort": 0,
  "flags": {},
  "_key": "!items!lYzMMQsP0L7b7qr7"
}