{
  "_id": "HZcLHUmCoWirryD0",
  "name": "Varisian Tattoo",
  "type": "feat",
  "img": "systems/pf1/icons/skills/blue_01.jpg",
  "system": {
    "description": {
      "value": "<em>You bear intricate tattoos that inspire and empower your natural magic ability. These tattoos mark you as a worker of the ancient traditions of Varisian magic. A Varisian tattoo typically consists of a long string of complex characters from the Thassilonian alphabet.</em><br/><br/><b>Prerequisites</b><br/>Spell Focus.<br/><br/><b>Benefits</b><br/>Select a school of magic (other than divination) in which you have Spell Focus--you cast spells from this school at +1 caster level. Additionally, you gain a single spell-like ability usable up to three times per day. The spell-like ability gained (and its Varisian name) are as follows:<br/><br/>Abjuration (avidais)<br/> resistance<br/><br/>Conjuration (idolis)<br/> acid splash<br/><br/>Enchantment (carnasia)<br/> daze<br/><br/>Evocation (ragario)<br/> dancing lights<br/><br/>Illusion (vangloris)<br/> ghost sound<br/><br/>Necromancy (voratalo)<br/> touch of fatigue<br/><br/>Transmutation (avaria)<br/> mage hand",
      "unidentified": ""
    },
    "tags": [
      "PFS",
      "General"
    ],
    "actions": [],
    "uses": {
      "per": null,
      "value": 0,
      "maxFormula": "",
      "autoDeductChargesCost": "1"
    },
    "attackNotes": [],
    "effectNotes": [],
    "changes": [],
    "changeFlags": {
      "loseDexToAC": false,
      "noEncumbrance": false,
      "mediumArmorFullSpeed": false,
      "heavyArmorFullSpeed": false
    },
    "contextNotes": [],
    "links": {
      "children": [],
      "charges": []
    },
    "tag": "",
    "useCustomTag": false,
    "armorProf": {
      "value": [],
      "custom": ""
    },
    "weaponProf": {
      "value": [],
      "custom": ""
    },
    "languages": {
      "value": [],
      "custom": ""
    },
    "flags": {
      "boolean": {},
      "dictionary": {}
    },
    "scriptCalls": [],
    "subType": "feat",
    "associations": {
      "classes": []
    },
    "showInQuickbar": false,
    "abilityType": "none",
    "crOffset": "",
    "disabled": false,
    "classSkills": {}
  },
  "ownership": {
    "default": 0
  },
  "_stats": {
    "systemId": "pf1",
    "systemVersion": "9.1",
    "coreVersion": "10.291",
    "createdTime": 1665428353162,
    "modifiedTime": 1689797883305,
    "lastModifiedBy": "ppv91YxratjWnkJi"
  },
  "effects": [],
  "folder": null,
  "sort": 0,
  "flags": {},
  "_key": "!items!HZcLHUmCoWirryD0"
}