{
  "_id": "9e2yq5XuaKc1rLGh",
  "name": "Versatile Summon Monster",
  "type": "feat",
  "img": "systems/pf1/icons/spells/wild-orange-3.jpg",
  "system": {
    "description": {
      "value": "<em>You've learned to summon a more diverse array of monsters.</em><br/><br/><b>Prerequisites</b><br/>Knowledge (arcana) 1 rank, Knowledge (planes) 1 rank.<br/><br/><b>Benefits</b><br/>Pick any two templates from the following list (see Simple Summoning Templates below for details): aerial, aqueous, chthonic, dark, fiery, or primordial. When you summon one or more creatures that would normally be available with the celestial, entropic, fiendish, or resolute template using a summon monster spell (or an effect that mimics such a spell), you can instead apply one of the chosen templates to each creature. You can apply a different template to each creature you summon.<br/><br/><b>Special</b><br/>You can select this feat more than once. Each time you do, you can choose an additional two templates.",
      "unidentified": ""
    },
    "tags": [
      "PFS",
      "General"
    ],
    "actions": [],
    "uses": {
      "per": null,
      "value": 0,
      "maxFormula": "",
      "autoDeductChargesCost": "1"
    },
    "attackNotes": [],
    "effectNotes": [],
    "changes": [],
    "changeFlags": {
      "loseDexToAC": false,
      "noEncumbrance": false,
      "mediumArmorFullSpeed": false,
      "heavyArmorFullSpeed": false
    },
    "contextNotes": [],
    "links": {
      "children": [],
      "charges": []
    },
    "tag": "",
    "useCustomTag": false,
    "armorProf": {
      "value": [],
      "custom": ""
    },
    "weaponProf": {
      "value": [],
      "custom": ""
    },
    "languages": {
      "value": [],
      "custom": ""
    },
    "flags": {
      "boolean": {},
      "dictionary": {}
    },
    "scriptCalls": [],
    "subType": "feat",
    "associations": {
      "classes": []
    },
    "showInQuickbar": false,
    "abilityType": "none",
    "crOffset": "",
    "disabled": false,
    "classSkills": {}
  },
  "ownership": {
    "default": 0
  },
  "_stats": {
    "systemId": "pf1",
    "systemVersion": "9.1",
    "coreVersion": "10.291",
    "createdTime": 1665428351911,
    "modifiedTime": 1689797878330,
    "lastModifiedBy": "ppv91YxratjWnkJi"
  },
  "effects": [],
  "folder": null,
  "sort": 0,
  "flags": {},
  "_key": "!items!9e2yq5XuaKc1rLGh"
}