{
  "_id": "KJnwYkndetUs2X24",
  "name": "Versatile Summon Nature's Ally",
  "type": "feat",
  "img": "systems/pf1/icons/spells/wild-acid-3.jpg",
  "system": {
    "description": {
      "value": "<em>You've learned to summon a wider array of creatures.</em><br/><br/><b>Prerequisites</b><br/>Augment Summoning, Spell Focus (conjuration), Knowledge (nature) 1 rank, Knowledge (planes) 1 rank.<br/><br/><b>Benefits</b><br/>When you summon one or more animals, humanoids, or vermin using a summon nature's ally spell (or an effect that mimics such a spell), instead of granting them the benefit from Augment Summoning, you can instead apply one of the following templates to them: aerial, aqueous, chthonic, fiery, or primordial. If you summon multiple creatures with one casting, they must all have the same template.",
      "unidentified": ""
    },
    "tags": [
      "PFS",
      "General"
    ],
    "actions": [],
    "uses": {
      "per": null,
      "value": 0,
      "maxFormula": "",
      "autoDeductChargesCost": "1"
    },
    "attackNotes": [],
    "effectNotes": [],
    "changes": [],
    "changeFlags": {
      "loseDexToAC": false,
      "noEncumbrance": false,
      "mediumArmorFullSpeed": false,
      "heavyArmorFullSpeed": false
    },
    "contextNotes": [],
    "links": {
      "children": [],
      "charges": []
    },
    "tag": "",
    "useCustomTag": false,
    "armorProf": {
      "value": [],
      "custom": ""
    },
    "weaponProf": {
      "value": [],
      "custom": ""
    },
    "languages": {
      "value": [],
      "custom": ""
    },
    "flags": {
      "boolean": {},
      "dictionary": {}
    },
    "scriptCalls": [],
    "subType": "feat",
    "associations": {
      "classes": []
    },
    "showInQuickbar": false,
    "abilityType": "none",
    "crOffset": "",
    "disabled": false,
    "classSkills": {}
  },
  "ownership": {
    "default": 0
  },
  "_stats": {
    "systemId": "pf1",
    "systemVersion": "9.1",
    "coreVersion": "10.291",
    "createdTime": 1665428353386,
    "modifiedTime": 1689797884317,
    "lastModifiedBy": "ppv91YxratjWnkJi"
  },
  "effects": [],
  "folder": null,
  "sort": 0,
  "flags": {},
  "_key": "!items!KJnwYkndetUs2X24"
}