{
  "_id": "qGzNausCzKvQH1KL",
  "name": "Vindictive Fall",
  "type": "feat",
  "img": "systems/pf1/icons/conditions/prone.png",
  "system": {
    "description": {
      "value": "<em>When you fall, you drag others down with you.</em><br/><br/><b>Prerequisites</b><br/>Lightning Reflexes.<br/><br/><b>Benefits</b><br/>When a creature causes you to fall prone, such as with an effect or a spell (such as grease) or by succeeding at a combat maneuver to trip you, you can attempt a combat maneuver check as an immediate action to trip an enemy within your melee reach. The target of this combat maneuver need not be the creature that caused you to fall prone. If you do not have the Improved Trip feat or a similar ability, your trip combat maneuver provokes an attack of opportunity from the target as normal.",
      "unidentified": ""
    },
    "tags": [
      "PFS",
      "General"
    ],
    "actions": [],
    "uses": {
      "per": null,
      "value": 0,
      "maxFormula": "",
      "autoDeductChargesCost": "1"
    },
    "attackNotes": [],
    "effectNotes": [],
    "changes": [],
    "changeFlags": {
      "loseDexToAC": false,
      "noEncumbrance": false,
      "mediumArmorFullSpeed": false,
      "heavyArmorFullSpeed": false
    },
    "contextNotes": [],
    "links": {
      "children": [],
      "charges": []
    },
    "tag": "",
    "useCustomTag": false,
    "armorProf": {
      "value": [],
      "custom": ""
    },
    "weaponProf": {
      "value": [],
      "custom": ""
    },
    "languages": {
      "value": [],
      "custom": ""
    },
    "flags": {
      "boolean": {},
      "dictionary": {}
    },
    "scriptCalls": [],
    "subType": "feat",
    "associations": {
      "classes": []
    },
    "showInQuickbar": false,
    "abilityType": "none",
    "crOffset": "",
    "disabled": false,
    "classSkills": {}
  },
  "ownership": {
    "default": 0
  },
  "_stats": {
    "systemId": "pf1",
    "systemVersion": "9.1",
    "coreVersion": "10.291",
    "createdTime": 1665428358039,
    "modifiedTime": 1689797900814,
    "lastModifiedBy": "ppv91YxratjWnkJi"
  },
  "effects": [],
  "folder": null,
  "sort": 0,
  "flags": {},
  "_key": "!items!qGzNausCzKvQH1KL"
}