{
  "_id": "q0xhHAQgP3pWKg8I",
  "name": "Virtuous Creed",
  "type": "feat",
  "img": "systems/pf1/icons/skills/light_06.jpg",
  "system": {
    "description": {
      "value": "<p><em>You accept a creed to guide your destiny toward good.</em><br /><br /><strong>Prerequisites</strong><br />You must be good.<br /><br /><strong>Benefits</strong><br />Select one of the following virtues. You must adhere to that virtues creed in order to benefit from its bonus. If you break any part of the creed, you are unable to gain the benefits from that virtue for 24 hours. Significant violations require atonement for you to be able to benefit from this feat again.<br /><br /><strong>Special</strong><br />You can gain this feat multiple times. Each time you take this feat, you must choose a new virtue.<br /><br /></p>\n<hr />\n<p><strong>Humility</strong><br /><br /><strong>Creed</strong><br />You must always show respect to others. You must put your own desires aside in favor of the needs of the masses. You must be conservative in dress and in actions, and wary not to display pride or gloat about your wealth or achievements.<br /><br /><strong>Benefit</strong><br />You add your Wisdom modifier on Diplomacy checks in addition to your Charisma modifier.<br /><br /></p>\n<hr />\n<p><strong>Courage<br /></strong><br /><strong>Creed<br /></strong>You can never willingly flee combat when others lives are at risk. You must never show cowardice in sight of your enemies.<br /><br /><strong>Benefit</strong><br />When shaken, you gain a +3 bonus on Will saves against any effects that would worsen your condition to frightened or panicked.<br /><br /></p>\n<hr />\n<p><strong>Freedom<br /></strong><br /><strong>Creed</strong><br />You must always seek to ensure that beings have the right to live their lives as their own. You must put an end to slavery when you see it, and break whatever chains hold others down, be they metaphysical or real.<br /><br /><strong>Benefit</strong><br />Once per day, you can reroll a Will save against a charm or compulsion effect and gain a +2 bonus on that reroll. You must decide to use this ability before the results are revealed. You must take the second roll, even if it is worse.<br /><br /></p>\n<hr />\n<p><strong>Purity<br /></strong><br /><strong>Creed</strong><br />You must refrain from contact with unclean things and keep your thoughts unpolluted. You must not touch evil-aligned weapons or creatures. You must practice clean eating, ingesting only properly prepared foods that strengthen the body and mind.<br /><br /><strong>Benefit</strong><br />You gain a +2 bonus on all Fortitude saving throws against disease or poison. In addition, the onset time for any disease or poison is doubled.<br /><br /></p>\n<hr />\n<p><strong>Protection<br /></strong><br /><strong>Creed</strong><br />You must always stand up for those weaker than yourself. You must defend your community against those that prey upon it.<br /><br /><strong>Benefit</strong><br />When you use the aid another action to improve an allys AC against attacks, the bonus increases to +4 instead of +2.<br /><br /></p>\n<hr />\n<p><strong>Mercy<br /></strong><br /><strong>Creed</strong><br />You must always accept an enemys surrender. When your enemies are defeated in battle, you must attempt to stabilize them to the best of your ability. You must never bring undue suffering to those who are innocent.<br /><br /><strong>Benefit</strong><br />When using a weapon that deals lethal damage to instead deal nonlethal damage, you take no penalty on your attack roll.</p>",
      "unidentified": ""
    },
    "tags": [
      "General"
    ],
    "actions": [],
    "uses": {
      "per": null,
      "value": 0,
      "maxFormula": "",
      "autoDeductChargesCost": "1"
    },
    "attackNotes": [],
    "effectNotes": [],
    "changes": [],
    "changeFlags": {
      "loseDexToAC": false,
      "noEncumbrance": false,
      "mediumArmorFullSpeed": false,
      "heavyArmorFullSpeed": false
    },
    "contextNotes": [],
    "links": {
      "children": [],
      "charges": []
    },
    "tag": "",
    "useCustomTag": false,
    "armorProf": {
      "value": [],
      "custom": ""
    },
    "weaponProf": {
      "value": [],
      "custom": ""
    },
    "languages": {
      "value": [],
      "custom": ""
    },
    "flags": {
      "boolean": {},
      "dictionary": {}
    },
    "scriptCalls": [],
    "subType": "feat",
    "associations": {
      "classes": []
    },
    "showInQuickbar": false,
    "abilityType": "none",
    "crOffset": "",
    "disabled": false,
    "classSkills": {}
  },
  "ownership": {
    "default": 0
  },
  "_stats": {
    "systemId": "pf1",
    "systemVersion": "9.1",
    "coreVersion": "10.291",
    "createdTime": 1665428358028,
    "modifiedTime": 1689797900727,
    "lastModifiedBy": "ppv91YxratjWnkJi"
  },
  "effects": [],
  "folder": null,
  "sort": 0,
  "flags": {},
  "_key": "!items!q0xhHAQgP3pWKg8I"
}