{
  "_id": "AXr2k74CBg9sKnYd",
  "name": "Viscous Venom",
  "type": "feat",
  "img": "systems/pf1/icons/skills/affliction_13.jpg",
  "system": {
    "description": {
      "value": "<em>Your venom is abnormally thick and adhesive.</em><br/><br/><b>Prerequisites</b><br/>Spit Venom, nagaji.<br/><br/><b>Benefits</b><br/>When you spit poison using the ability granted by the Spit Venom feat, you can spit a glob of venomous goo at an enemy within 30 feet. Once struck, the target is both exposed to your nagaji poison as normal and entangled. An entangled target can break free from the sticky goo with a successful DC 15 Strength or Escape Artist check as a fullround action or by dealing 15 points of damage to the gooey substance with a slashing weapon. In addition, you gain one additional use per day of the ability to spit poison granted by the Spit Venom feat.",
      "unidentified": ""
    },
    "tags": [
      "PFS",
      "Combat",
      "Racial",
      "Nagaji"
    ],
    "actions": [],
    "uses": {
      "per": null,
      "value": 0,
      "maxFormula": "",
      "autoDeductChargesCost": "1"
    },
    "attackNotes": [],
    "effectNotes": [],
    "changes": [],
    "changeFlags": {
      "loseDexToAC": false,
      "noEncumbrance": false,
      "mediumArmorFullSpeed": false,
      "heavyArmorFullSpeed": false
    },
    "contextNotes": [],
    "links": {
      "children": [],
      "charges": []
    },
    "tag": "",
    "useCustomTag": false,
    "armorProf": {
      "value": [],
      "custom": ""
    },
    "weaponProf": {
      "value": [],
      "custom": ""
    },
    "languages": {
      "value": [],
      "custom": ""
    },
    "flags": {
      "boolean": {},
      "dictionary": {}
    },
    "scriptCalls": [],
    "subType": "feat",
    "associations": {
      "classes": []
    },
    "showInQuickbar": false,
    "abilityType": "none",
    "crOffset": "",
    "disabled": false,
    "classSkills": {}
  },
  "ownership": {
    "default": 0
  },
  "_stats": {
    "systemId": "pf1",
    "systemVersion": "9.1",
    "coreVersion": "10.291",
    "createdTime": 1665428351994,
    "modifiedTime": 1689797878670,
    "lastModifiedBy": "ppv91YxratjWnkJi"
  },
  "effects": [],
  "folder": null,
  "sort": 0,
  "flags": {},
  "_key": "!items!AXr2k74CBg9sKnYd"
}