{
  "_id": "rYLOl3zfFt3by3CE",
  "name": "Vital Strike (Mythic)",
  "type": "feat",
  "img": "systems/pf1/icons/skills/blue_03.jpg",
  "system": {
    "description": {
      "value": "<em>You can strike your foes with incredible force.</em><br/><br/><b>Prerequisites</b><br/>Vital Strike.<br/><br/><b>Benefits</b><br/>Whenever you use Vital Strike, Improved Vital Strike, or Greater Vital Strike, multiply the Strength bonus, magic bonus, and other bonuses that would normally be multiplied on a critical hit by the number of weapon damage dice you roll for that feat.<br/><br/> Extra damage from sources that wouldn't normally be multiplied on a critical hit isn't multiplied by this feat.",
      "unidentified": ""
    },
    "tags": [
      "PFS",
      "Combat",
      "Mythic"
    ],
    "actions": [],
    "uses": {
      "per": null,
      "value": 0,
      "maxFormula": "",
      "autoDeductChargesCost": "1"
    },
    "attackNotes": [],
    "effectNotes": [],
    "changes": [],
    "changeFlags": {
      "loseDexToAC": false,
      "noEncumbrance": false,
      "mediumArmorFullSpeed": false,
      "heavyArmorFullSpeed": false
    },
    "contextNotes": [],
    "links": {
      "children": [],
      "charges": []
    },
    "tag": "",
    "useCustomTag": false,
    "armorProf": {
      "value": [],
      "custom": ""
    },
    "weaponProf": {
      "value": [],
      "custom": ""
    },
    "languages": {
      "value": [],
      "custom": ""
    },
    "flags": {
      "boolean": {},
      "dictionary": {}
    },
    "scriptCalls": [],
    "subType": "feat",
    "associations": {
      "classes": []
    },
    "showInQuickbar": false,
    "abilityType": "none",
    "crOffset": "",
    "disabled": false,
    "classSkills": {}
  },
  "ownership": {
    "default": 0
  },
  "_stats": {
    "systemId": "pf1",
    "systemVersion": "9.1",
    "coreVersion": "10.291",
    "createdTime": 1665428358139,
    "modifiedTime": 1689797901369,
    "lastModifiedBy": "ppv91YxratjWnkJi"
  },
  "effects": [],
  "folder": null,
  "sort": 0,
  "flags": {},
  "_key": "!items!rYLOl3zfFt3by3CE"
}