{
  "_id": "qIApIMMuzczqRPQi",
  "name": "Voracious Blade",
  "type": "feat",
  "img": "systems/pf1/icons/skills/green_06.jpg",
  "system": {
    "description": {
      "value": "<em>You can channel your daemonic energies through the vile blade you wield.</em><br/><br/><b>Prerequisites</b><br/>Weapon Focus (rhoka sword), base attack bonus +4, urdefhan.<br/><br/><b>Benefits</b><br/>When wielding a rhoka sword, you can channel your daemonic energies through the blade as a swift action, causing it to deal Strength damage as your bite attack. You can use this ability a number of times per day equal to your Constitution modifier (minimum 1).",
      "unidentified": ""
    },
    "tags": [
      "Combat"
    ],
    "actions": [],
    "uses": {
      "per": null,
      "value": 0,
      "maxFormula": "",
      "autoDeductChargesCost": "1"
    },
    "attackNotes": [],
    "effectNotes": [],
    "changes": [],
    "changeFlags": {
      "loseDexToAC": false,
      "noEncumbrance": false,
      "mediumArmorFullSpeed": false,
      "heavyArmorFullSpeed": false
    },
    "contextNotes": [],
    "links": {
      "children": [],
      "charges": []
    },
    "tag": "",
    "useCustomTag": false,
    "armorProf": {
      "value": [],
      "custom": ""
    },
    "weaponProf": {
      "value": [],
      "custom": ""
    },
    "languages": {
      "value": [],
      "custom": ""
    },
    "flags": {
      "boolean": {},
      "dictionary": {}
    },
    "scriptCalls": [],
    "subType": "feat",
    "associations": {
      "classes": []
    },
    "showInQuickbar": false,
    "abilityType": "none",
    "crOffset": "",
    "disabled": false,
    "classSkills": {}
  },
  "ownership": {
    "default": 0
  },
  "_stats": {
    "systemId": "pf1",
    "systemVersion": "9.1",
    "coreVersion": "10.291",
    "createdTime": 1665428358040,
    "modifiedTime": 1689797900820,
    "lastModifiedBy": "ppv91YxratjWnkJi"
  },
  "effects": [],
  "folder": null,
  "sort": 0,
  "flags": {},
  "_key": "!items!qIApIMMuzczqRPQi"
}