{
  "_id": "LRdZMqp66yTNDrpz",
  "name": "Wall of Flesh",
  "type": "feat",
  "img": "systems/pf1/icons/skills/red_02.jpg",
  "system": {
    "description": {
      "value": "<em>You swarm with your allies, becoming a wall of creatures.</em><br/><br/><b>Prerequisites</b><br/>Small size or smaller.<br/><br/><b>Benefits</b><br/>When adjacent to an ally with this feat, you're considered one size category larger for determining CMD and the way combat maneuvers and abilities affect you.",
      "unidentified": ""
    },
    "tags": [
      "Teamwork"
    ],
    "actions": [],
    "uses": {
      "per": null,
      "value": 0,
      "maxFormula": "",
      "autoDeductChargesCost": "1"
    },
    "attackNotes": [],
    "effectNotes": [],
    "changes": [],
    "changeFlags": {
      "loseDexToAC": false,
      "noEncumbrance": false,
      "mediumArmorFullSpeed": false,
      "heavyArmorFullSpeed": false
    },
    "contextNotes": [],
    "links": {
      "children": [],
      "charges": []
    },
    "tag": "",
    "useCustomTag": false,
    "armorProf": {
      "value": [],
      "custom": ""
    },
    "weaponProf": {
      "value": [],
      "custom": ""
    },
    "languages": {
      "value": [],
      "custom": ""
    },
    "flags": {
      "boolean": {},
      "dictionary": {}
    },
    "scriptCalls": [],
    "subType": "feat",
    "associations": {
      "classes": []
    },
    "showInQuickbar": false,
    "abilityType": "none",
    "crOffset": "",
    "disabled": false,
    "classSkills": {}
  },
  "ownership": {
    "default": 0
  },
  "_stats": {
    "systemId": "pf1",
    "systemVersion": "9.1",
    "coreVersion": "10.291",
    "createdTime": 1665428353745,
    "modifiedTime": 1689797885164,
    "lastModifiedBy": "ppv91YxratjWnkJi"
  },
  "effects": [],
  "folder": null,
  "sort": 0,
  "flags": {},
  "_key": "!items!LRdZMqp66yTNDrpz"
}