{
  "_id": "sU7oDL0HQiZNOnxP",
  "name": "Wave Master",
  "type": "feat",
  "img": "systems/pf1/icons/spells/wind-grasp-eerie-3.jpg",
  "system": {
    "description": {
      "value": "<em>Gozreh has seen fit to bless you as an uncommonly skilled swimmer.</em><br/><br/><b>Prerequisites</b><br/>Worshiper of Gozreh.<br/><br/><b>Benefits</b><br/>When you succeed at a Swim check, you can move your full speed as a full-round action or half your speed as a move action. This does not grant you the benefit of having a swim speed.<br/><br/><b>Normal</b><br/>A successful Swim check allows you to move up to half your speed as a full-round action or up to a quarter your speed as a move action.",
      "unidentified": ""
    },
    "tags": [
      "PFS",
      "General"
    ],
    "actions": [],
    "uses": {
      "per": null,
      "value": 0,
      "maxFormula": "",
      "autoDeductChargesCost": "1"
    },
    "attackNotes": [],
    "effectNotes": [],
    "changes": [],
    "changeFlags": {
      "loseDexToAC": false,
      "noEncumbrance": false,
      "mediumArmorFullSpeed": false,
      "heavyArmorFullSpeed": false
    },
    "contextNotes": [],
    "links": {
      "children": [],
      "charges": []
    },
    "tag": "",
    "useCustomTag": false,
    "armorProf": {
      "value": [],
      "custom": ""
    },
    "weaponProf": {
      "value": [],
      "custom": ""
    },
    "languages": {
      "value": [],
      "custom": ""
    },
    "flags": {
      "boolean": {},
      "dictionary": {}
    },
    "scriptCalls": [],
    "subType": "feat",
    "associations": {
      "classes": []
    },
    "showInQuickbar": false,
    "abilityType": "none",
    "crOffset": "",
    "disabled": false,
    "classSkills": {}
  },
  "ownership": {
    "default": 0
  },
  "_stats": {
    "systemId": "pf1",
    "systemVersion": "9.1",
    "coreVersion": "10.291",
    "createdTime": 1665428358208,
    "modifiedTime": 1689797901675,
    "lastModifiedBy": "ppv91YxratjWnkJi"
  },
  "effects": [],
  "folder": null,
  "sort": 0,
  "flags": {},
  "_key": "!items!sU7oDL0HQiZNOnxP"
}