{
  "_id": "3pJ8HmgwCl6sTlDX",
  "name": "Wayang Soothsayer",
  "type": "feat",
  "img": "systems/pf1/icons/skills/nature_07.jpg",
  "system": {
    "description": {
      "value": "<em>You embody the ideals of wayang society and culture.</em><br/><br/><b>Prerequisites</b><br/>Wayang.<br/><br/><b>Benefits</b><br/>You gain the shadow speaker racial trait (see page 10). If you already have the shadow speaker racial trait, you can increase the number of times per day that you can use shadow speaker by 1, and increase the insight bonus granted from each type of use by 1.<br/><br/><b>Special</b><br/>This feat can be taken once at 1st level, and again at 11th level.",
      "unidentified": ""
    },
    "tags": [
      "PFS",
      "General"
    ],
    "actions": [],
    "uses": {
      "per": null,
      "value": 0,
      "maxFormula": "",
      "autoDeductChargesCost": "1"
    },
    "attackNotes": [],
    "effectNotes": [],
    "changes": [],
    "changeFlags": {
      "loseDexToAC": false,
      "noEncumbrance": false,
      "mediumArmorFullSpeed": false,
      "heavyArmorFullSpeed": false
    },
    "contextNotes": [],
    "links": {
      "children": [],
      "charges": []
    },
    "tag": "",
    "useCustomTag": false,
    "armorProf": {
      "value": [],
      "custom": ""
    },
    "weaponProf": {
      "value": [],
      "custom": ""
    },
    "languages": {
      "value": [],
      "custom": ""
    },
    "flags": {
      "boolean": {},
      "dictionary": {}
    },
    "scriptCalls": [],
    "subType": "feat",
    "associations": {
      "classes": []
    },
    "showInQuickbar": false,
    "abilityType": "none",
    "crOffset": "",
    "disabled": false,
    "classSkills": {}
  },
  "ownership": {
    "default": 0
  },
  "_stats": {
    "systemId": "pf1",
    "systemVersion": "9.1",
    "coreVersion": "10.291",
    "createdTime": 1665428350837,
    "modifiedTime": 1689797875275,
    "lastModifiedBy": "ppv91YxratjWnkJi"
  },
  "effects": [],
  "folder": null,
  "sort": 0,
  "flags": {},
  "_key": "!items!3pJ8HmgwCl6sTlDX"
}