{
  "_id": "7qWrIvngZEuYJsIi",
  "name": "We are the Wall",
  "type": "feat",
  "img": "icons/environment/settlement/city-wall.webp",
  "system": {
    "description": {
      "value": "<em>You embody your family's legendary monster-hunters.</em><br/><br/><b>Prerequisites</b><br/>Be a member of House Darahan, or have the Champion of the People, Duty, or Raider background.<br/><br/><b>Benefits</b><br/>Three times per day as a move action, you can declare a single dragon, magical beast, or monstrous humanoid within 50 feet and in line of sight to be your mark. You gain a +1 bonus on attack rolls and on Bluff, Knowledge, Perception, Sense Motive, and Survival checks against your mark. These bonuses last for 1 minute, until you designate a new mark, or until the mark is dead. After you have declared a creature as your mark, it can't be your mark again for another 24 hours.<br/><br/><b>Goal</b><br/> Protect a settlement you have lived in for at least a year from an invading force consisting of an appropriate number of dragons, magical beasts, or monstrous humanoids.<br/><br/><b>Completion Benefit</b><br/>The bonus provided by your mark becomes +1 for every 4 character levels you have, to a maximum of +5.",
      "unidentified": ""
    },
    "tags": [
      "Story"
    ],
    "actions": [],
    "uses": {
      "per": null,
      "value": 0,
      "maxFormula": "",
      "autoDeductChargesCost": "1"
    },
    "attackNotes": [],
    "effectNotes": [],
    "changes": [],
    "changeFlags": {
      "loseDexToAC": false,
      "noEncumbrance": false,
      "mediumArmorFullSpeed": false,
      "heavyArmorFullSpeed": false
    },
    "contextNotes": [],
    "links": {
      "children": [],
      "charges": []
    },
    "tag": "",
    "useCustomTag": false,
    "armorProf": {
      "value": [],
      "custom": ""
    },
    "weaponProf": {
      "value": [],
      "custom": ""
    },
    "languages": {
      "value": [],
      "custom": ""
    },
    "flags": {
      "boolean": {},
      "dictionary": {}
    },
    "scriptCalls": [],
    "subType": "feat",
    "associations": {
      "classes": []
    },
    "showInQuickbar": false,
    "abilityType": "none",
    "crOffset": "",
    "disabled": false,
    "classSkills": {}
  },
  "ownership": {
    "default": 0
  },
  "_stats": {
    "systemId": "pf1",
    "systemVersion": "9.1",
    "coreVersion": "10.291",
    "createdTime": 1665428351518,
    "modifiedTime": 1689797877194,
    "lastModifiedBy": "ppv91YxratjWnkJi"
  },
  "effects": [],
  "folder": null,
  "sort": 0,
  "flags": {},
  "_key": "!items!7qWrIvngZEuYJsIi"
}