{
  "_id": "XuhYHDqsyJ2r0n99",
  "name": "Weapon Evoker Mastery",
  "type": "feat",
  "img": "systems/pf1/icons/skills/affliction_18.jpg",
  "system": {
    "description": {
      "value": "<p><em>You rack opponents with eldritch power coursing from your magic weapons.</em><br /><br /><strong>Prerequisites</strong><br />Use Magic Device 2 ranks, base Fortitude saving throw bonus +3.<br /><br /><strong>Benefits</strong><br />As a swift action while wielding a magic weapon with a weapon special ability that deals extra acid, cold, fire, electricity, or sonic damage on a hit, you deal an additional 1d4 points of damage of the same type with each hit you make with that weapon for 1 round.</p>\n<p><br /><strong>Pathfinder Society<br /></strong>When qualifying for and calculating the benefits of an item mastery feat, a PC uses the base Fortitude save bonus from only one of his classes.</p>",
      "unidentified": ""
    },
    "tags": [
      "PFS",
      "Item Mastery"
    ],
    "actions": [],
    "uses": {
      "per": null,
      "value": 0,
      "maxFormula": "",
      "autoDeductChargesCost": "1"
    },
    "attackNotes": [],
    "effectNotes": [],
    "changes": [],
    "changeFlags": {
      "loseDexToAC": false,
      "noEncumbrance": false,
      "mediumArmorFullSpeed": false,
      "heavyArmorFullSpeed": false
    },
    "contextNotes": [],
    "links": {
      "children": [],
      "charges": []
    },
    "tag": "",
    "useCustomTag": false,
    "armorProf": {
      "value": [],
      "custom": ""
    },
    "weaponProf": {
      "value": [],
      "custom": ""
    },
    "languages": {
      "value": [],
      "custom": ""
    },
    "flags": {
      "boolean": {},
      "dictionary": {}
    },
    "scriptCalls": [],
    "subType": "feat",
    "associations": {
      "classes": []
    },
    "showInQuickbar": false,
    "abilityType": "none",
    "crOffset": "",
    "disabled": false,
    "classSkills": {}
  },
  "ownership": {
    "default": 0
  },
  "_stats": {
    "systemId": "pf1",
    "systemVersion": "9.1",
    "coreVersion": "10.291",
    "createdTime": 1665428355139,
    "modifiedTime": 1689797890956,
    "lastModifiedBy": "ppv91YxratjWnkJi"
  },
  "effects": [],
  "folder": null,
  "sort": 0,
  "flags": {},
  "_key": "!items!XuhYHDqsyJ2r0n99"
}