{
  "_id": "Kb7Fp2XeEbIoQyBc",
  "name": "Weapon Versatility",
  "type": "feat",
  "img": "systems/pf1/icons/items/weapons/sword-bastard.PNG",
  "system": {
    "description": {
      "value": "<em>You can use your favored weapons in unconventional ways.</em><br/><br/><b>Prerequisites</b><br/>Weapon Focus, base attack bonus +1.<br/><br/><b>Benefits</b><br/>When wielding a weapon with which you have Weapon Focus, you can shift your grip as a swift action so that your weapon deals bludgeoning, piercing, or slashing damage instead of the damage type normally dealt by that weapon. You may switch back to the weapon's normal damage type or another damage type as a swift action. If your base attack bonus is +5 or higher, using this feat is a free action instead.",
      "unidentified": ""
    },
    "tags": [
      "PFS",
      "Combat"
    ],
    "actions": [],
    "uses": {
      "per": null,
      "value": 0,
      "maxFormula": "",
      "autoDeductChargesCost": "1"
    },
    "attackNotes": [],
    "effectNotes": [],
    "changes": [],
    "changeFlags": {
      "loseDexToAC": false,
      "noEncumbrance": false,
      "mediumArmorFullSpeed": false,
      "heavyArmorFullSpeed": false
    },
    "contextNotes": [],
    "links": {
      "children": [],
      "charges": []
    },
    "tag": "",
    "useCustomTag": false,
    "armorProf": {
      "value": [],
      "custom": ""
    },
    "weaponProf": {
      "value": [],
      "custom": ""
    },
    "languages": {
      "value": [],
      "custom": ""
    },
    "flags": {
      "boolean": {},
      "dictionary": {}
    },
    "scriptCalls": [],
    "subType": "feat",
    "associations": {
      "classes": []
    },
    "showInQuickbar": false,
    "abilityType": "none",
    "crOffset": "",
    "disabled": false,
    "classSkills": {}
  },
  "ownership": {
    "default": 0
  },
  "_stats": {
    "systemId": "pf1",
    "systemVersion": "9.1",
    "coreVersion": "10.291",
    "createdTime": 1665428353413,
    "modifiedTime": 1689797884439,
    "lastModifiedBy": "ppv91YxratjWnkJi"
  },
  "effects": [],
  "folder": null,
  "sort": 0,
  "flags": {},
  "_key": "!items!Kb7Fp2XeEbIoQyBc"
}