{
  "_id": "EEdMgZHFG7ldFKK4",
  "name": "Well-Prepared",
  "type": "feat",
  "img": "systems/pf1/icons/races/halfling.png",
  "system": {
    "description": {
      "value": "<em>Somehow, you always seem to have the right tools or supplies close at hand.</em><br/><br/><b>Prerequisites</b><br/>Halfling.<br/><br/><b>Benefits</b><br/>Once per day, when confronted with a situation that calls for a particular mundane item of equipment, you may make a Sleight of Hand check with a DC of 10 plus the item's cost in gold pieces to 'happen' to have such an item on your person. For example, having a crowbar would be DC 12, whereas a flask of acid would be DC 20. The item must be something you can easily carry--if you are on foot and have only a backpack, for example, you could not have a large iron cauldron. You cannot have magical items using this feat, nor can you have specific items, such as the key to a particular door. If you are stripped of your equipment or possessions, you lose the benefits of this feat until you have at least a day to resupply and 'acquire' new items. You must pay for these items normally.<br/><br/><b>Special</b><br/>At the GM's option, a character can substitute the Survival skill for Sleight of Hand with this feat. Such a choice is permanent.",
      "unidentified": ""
    },
    "tags": [
      "PFS",
      "Racial",
      "Halfling"
    ],
    "actions": [],
    "uses": {
      "per": null,
      "value": 0,
      "maxFormula": "",
      "autoDeductChargesCost": "1"
    },
    "attackNotes": [],
    "effectNotes": [],
    "changes": [],
    "changeFlags": {
      "loseDexToAC": false,
      "noEncumbrance": false,
      "mediumArmorFullSpeed": false,
      "heavyArmorFullSpeed": false
    },
    "contextNotes": [],
    "links": {
      "children": [],
      "charges": []
    },
    "tag": "",
    "useCustomTag": false,
    "armorProf": {
      "value": [],
      "custom": ""
    },
    "weaponProf": {
      "value": [],
      "custom": ""
    },
    "languages": {
      "value": [],
      "custom": ""
    },
    "flags": {
      "boolean": {},
      "dictionary": {}
    },
    "scriptCalls": [],
    "subType": "feat",
    "associations": {
      "classes": []
    },
    "showInQuickbar": false,
    "abilityType": "none",
    "crOffset": "",
    "disabled": false,
    "classSkills": {}
  },
  "ownership": {
    "default": 0
  },
  "_stats": {
    "systemId": "pf1",
    "systemVersion": "9.1",
    "coreVersion": "10.291",
    "createdTime": 1665428352540,
    "modifiedTime": 1689797880943,
    "lastModifiedBy": "ppv91YxratjWnkJi"
  },
  "effects": [],
  "folder": null,
  "sort": 0,
  "flags": {},
  "_key": "!items!EEdMgZHFG7ldFKK4"
}