{
  "_id": "j1CznnRctUSGcZDg",
  "name": "Whip-Slinger",
  "type": "feat",
  "img": "systems/pf1/icons/items/weapons/sling.png",
  "system": {
    "description": {
      "value": "<em>You can use your sling as a sap to make attacks of opportunity.</em><br/><br/><b>Prerequisites</b><br/>Proficient with sling.<br/><br/><b>Benefits</b><br/>When wielding a sling, double sling, or halfling sling staff, you threaten areas around you as normal and can make attacks of opportunity with the sling into these threatened areas. The sling deals 1d4 nonlethal bludgeoning damage (1d6 for a Medium wielder), threatens a critical hit on a 20, and deals x2 damage on a critical hit. If the sling isn't loaded with ammunition when you make an attack of opportunity, you take a -4 penalty on the attack roll.<br/><br/><b>Normal</b><br/>Slings and double slings are ranged weapons, do not threaten areas, and cannot make attacks of opportunity. A halfling sling staff can be used as a simple melee weapon that deals bludgeoning damage equal to that of a club its size; as a melee weapon, it threatens areas normally and its wielder can make attacks of opportunity with it.",
      "unidentified": ""
    },
    "tags": [
      "PFS",
      "Combat"
    ],
    "actions": [],
    "uses": {
      "per": null,
      "value": 0,
      "maxFormula": "",
      "autoDeductChargesCost": "1"
    },
    "attackNotes": [],
    "effectNotes": [],
    "changes": [],
    "changeFlags": {
      "loseDexToAC": false,
      "noEncumbrance": false,
      "mediumArmorFullSpeed": false,
      "heavyArmorFullSpeed": false
    },
    "contextNotes": [],
    "links": {
      "children": [],
      "charges": []
    },
    "tag": "",
    "useCustomTag": false,
    "armorProf": {
      "value": [],
      "custom": ""
    },
    "weaponProf": {
      "value": [],
      "custom": ""
    },
    "languages": {
      "value": [],
      "custom": ""
    },
    "flags": {
      "boolean": {},
      "dictionary": {}
    },
    "scriptCalls": [],
    "subType": "feat",
    "associations": {
      "classes": []
    },
    "showInQuickbar": false,
    "abilityType": "none",
    "crOffset": "",
    "disabled": false,
    "classSkills": {}
  },
  "ownership": {
    "default": 0
  },
  "_stats": {
    "systemId": "pf1",
    "systemVersion": "9.1",
    "coreVersion": "10.291",
    "createdTime": 1665428356822,
    "modifiedTime": 1689797896925,
    "lastModifiedBy": "ppv91YxratjWnkJi"
  },
  "effects": [],
  "folder": null,
  "sort": 0,
  "flags": {},
  "_key": "!items!j1CznnRctUSGcZDg"
}