{
  "_id": "laZpcAJNDJTEVuDD",
  "name": "Whirlwind Attack",
  "type": "feat",
  "img": "systems/pf1/icons/feats/power-attack.jpg",
  "system": {
    "description": {
      "value": "<p><em>You can strike out at every foe within reach.</em><br /><br /><strong>Prerequisites</strong><br />Dex 13, Int 13, Combat Expertise, Dodge, Mobility, Spring Attack, base attack bonus +4.<br /><br /><strong>Benefits</strong><br />When you use the full-attack action, you can give up your regular attacks and instead make one melee attack at your highest base attack bonus against each opponent within reach. You must make a separate attack roll against each opponent.<br /><br />When you use the Whirlwind Attack feat, you also forfeit any bonus or extra attacks granted by other feats, spells, or abilities.<br /><br /><strong>Combat Trick</strong><br />When using this feat, you can spend stamina points to still take bonus or extra attacks granted by other feats, spells, or abilities. You must spend 5 stamina points per extra attack you take in this way. This combat trick allows you to make extra attacks to which you have access--it doesn't by itself grant extra attacks.</p>",
      "unidentified": ""
    },
    "tags": [
      "PFS",
      "Combat"
    ],
    "actions": [],
    "uses": {
      "per": null,
      "value": 0,
      "maxFormula": "",
      "autoDeductChargesCost": "1"
    },
    "attackNotes": [],
    "effectNotes": [],
    "changes": [],
    "changeFlags": {
      "loseDexToAC": false,
      "noEncumbrance": false,
      "mediumArmorFullSpeed": false,
      "heavyArmorFullSpeed": false
    },
    "contextNotes": [
      {
        "subTarget": "melee",
        "text": "Whirlwind Attack: when you use the full-attack action, you can give up your regular attacks and instead make one melee attack at your highest base attack bonus against each opponent within reach."
      }
    ],
    "links": {
      "children": [],
      "charges": []
    },
    "tag": "whirlwindAttack",
    "useCustomTag": false,
    "armorProf": {
      "value": [],
      "custom": ""
    },
    "weaponProf": {
      "value": [],
      "custom": ""
    },
    "languages": {
      "value": [],
      "custom": ""
    },
    "flags": {
      "boolean": {},
      "dictionary": {}
    },
    "scriptCalls": [],
    "subType": "feat",
    "associations": {
      "classes": []
    },
    "showInQuickbar": false,
    "abilityType": "none",
    "crOffset": "",
    "disabled": false,
    "classSkills": {},
    "auraStrength": 0
  },
  "ownership": {
    "default": 0
  },
  "_stats": {
    "systemId": "pf1",
    "systemVersion": "9.1",
    "coreVersion": "10.291",
    "createdTime": 1665428357397,
    "modifiedTime": 1689797898756,
    "lastModifiedBy": "ppv91YxratjWnkJi"
  },
  "effects": [],
  "folder": null,
  "sort": 0,
  "flags": {},
  "_key": "!items!laZpcAJNDJTEVuDD"
}