{
  "_id": "kFTc9DcmIFeCL5WE",
  "name": "Willing Death",
  "type": "feat",
  "img": "systems/pf1/icons/skills/green_03.jpg",
  "system": {
    "description": {
      "value": "<p><em>You might have been a soldier in an army, a self-sacrificing lover, or a hero who rushed in where even angels feared to tread. You died because you valued someone else's life above your own.</em><br /><br /><strong>Prerequisites</strong><br />Duskwalker.<br /><br /><strong>Benefits</strong><br />Twice per day, when an ally within 30 feet would die as a result of an attack or failing a saving throw, as an immediate action you can redirect the damage and effects to yourself. This functions as paladin's sacrifice. At 11th level, you can use this feat two additional times per day.</p>\n<p><br /><strong>Pathfinder Society<br /></strong>A Duskwalker can only gain one origin feat.</p>",
      "unidentified": ""
    },
    "tags": [
      "PFS",
      "Origin",
      "Racial",
      "Duskwalker"
    ],
    "actions": [],
    "uses": {
      "per": null,
      "value": 0,
      "maxFormula": "",
      "autoDeductChargesCost": "1"
    },
    "attackNotes": [],
    "effectNotes": [],
    "changes": [],
    "changeFlags": {
      "loseDexToAC": false,
      "noEncumbrance": false,
      "mediumArmorFullSpeed": false,
      "heavyArmorFullSpeed": false
    },
    "contextNotes": [],
    "links": {
      "children": [],
      "charges": []
    },
    "tag": "",
    "useCustomTag": false,
    "armorProf": {
      "value": [],
      "custom": ""
    },
    "weaponProf": {
      "value": [],
      "custom": ""
    },
    "languages": {
      "value": [],
      "custom": ""
    },
    "flags": {
      "boolean": {},
      "dictionary": {}
    },
    "scriptCalls": [],
    "subType": "feat",
    "associations": {
      "classes": []
    },
    "showInQuickbar": false,
    "abilityType": "none",
    "crOffset": "",
    "disabled": false,
    "classSkills": {}
  },
  "ownership": {
    "default": 0
  },
  "_stats": {
    "systemId": "pf1",
    "systemVersion": "9.1",
    "coreVersion": "10.291",
    "createdTime": 1665428356893,
    "modifiedTime": 1689797897430,
    "lastModifiedBy": "ppv91YxratjWnkJi"
  },
  "effects": [],
  "folder": null,
  "sort": 0,
  "flags": {},
  "_key": "!items!kFTc9DcmIFeCL5WE"
}