{
  "_id": "kS3E6yN8COo3HphK",
  "name": "Wind Stance",
  "type": "feat",
  "img": "systems/pf1/icons/spells/wind-grasp-air-3.jpg",
  "system": {
    "description": {
      "value": "<em>Your erratic movements make it difficult for enemies to pinpoint your location.</em><br/><br/><b>Prerequisites</b><br/>Dex 15, Dodge, base attack bonus +6.<br/><br/><b>Benefits</b><br/>If you move more than 5 feet this turn, you gain 20% concealment for 1 round against ranged attacks.<br/><br/><b>Combat Trick</b><br/>When using this feat, you can spend 5 stamina points to gain 20% concealment for 1 round against all attacks (not just ranged attacks).",
      "unidentified": ""
    },
    "tags": [
      "PFS",
      "Combat"
    ],
    "actions": [],
    "uses": {
      "per": null,
      "value": 0,
      "maxFormula": "",
      "autoDeductChargesCost": "1"
    },
    "attackNotes": [],
    "effectNotes": [],
    "changes": [],
    "changeFlags": {
      "loseDexToAC": false,
      "noEncumbrance": false,
      "mediumArmorFullSpeed": false,
      "heavyArmorFullSpeed": false
    },
    "contextNotes": [
      {
        "subTarget": "ac",
        "text": "Wind Stance: if you move more than 5 feet this turn, you gain 20% concealment for 1 round against ranged attacks."
      }
    ],
    "links": {
      "children": [],
      "charges": []
    },
    "tag": "windStance",
    "useCustomTag": false,
    "armorProf": {
      "value": [],
      "custom": ""
    },
    "weaponProf": {
      "value": [],
      "custom": ""
    },
    "languages": {
      "value": [],
      "custom": ""
    },
    "flags": {
      "boolean": {},
      "dictionary": {}
    },
    "scriptCalls": [],
    "subType": "feat",
    "associations": {
      "classes": []
    },
    "showInQuickbar": false,
    "abilityType": "none",
    "crOffset": "",
    "disabled": false,
    "classSkills": {},
    "auraStrength": 0
  },
  "ownership": {
    "default": 0
  },
  "_stats": {
    "systemId": "pf1",
    "systemVersion": "9.1",
    "coreVersion": "10.291",
    "createdTime": 1665428356910,
    "modifiedTime": 1689797897515,
    "lastModifiedBy": "ppv91YxratjWnkJi"
  },
  "effects": [],
  "folder": null,
  "sort": 0,
  "flags": {},
  "_key": "!items!kS3E6yN8COo3HphK"
}