{
  "_id": "TtF2Zoi6BUynfzq7",
  "name": "Wind Rider",
  "type": "feat",
  "img": "systems/pf1/icons/skills/nature_08.jpg",
  "system": {
    "description": {
      "value": "<em>You have trained yourself to move and fight in strong winds, allowing you to use their elemental power to boost your own speed.</em><br/><br/><b>Prerequisites</b><br/>Acrobatics or Fly 3 ranks.<br/><br/><b>Benefits</b><br/>When flying within strong winds, you gain a +15-foot bonus to your fly speed. For every wind strength category above strong, you gain an additional +15-foot bonus to your fly speed (for a total of +30 feet in severe winds, +45 feet in a windstorm, and +60 feet in tornadoes). This feat does not give you any bonuses on Fly or Strength checks to determine if you are potentially checked or blown away.",
      "unidentified": ""
    },
    "tags": [
      "PFS",
      "General"
    ],
    "actions": [],
    "uses": {
      "per": null,
      "value": 0,
      "maxFormula": "",
      "autoDeductChargesCost": "1"
    },
    "attackNotes": [],
    "effectNotes": [],
    "changes": [],
    "changeFlags": {
      "loseDexToAC": false,
      "noEncumbrance": false,
      "mediumArmorFullSpeed": false,
      "heavyArmorFullSpeed": false
    },
    "contextNotes": [],
    "links": {
      "children": [],
      "charges": []
    },
    "tag": "",
    "useCustomTag": false,
    "armorProf": {
      "value": [],
      "custom": ""
    },
    "weaponProf": {
      "value": [],
      "custom": ""
    },
    "languages": {
      "value": [],
      "custom": ""
    },
    "flags": {
      "boolean": {},
      "dictionary": {}
    },
    "scriptCalls": [],
    "subType": "feat",
    "associations": {
      "classes": []
    },
    "showInQuickbar": false,
    "abilityType": "none",
    "crOffset": "",
    "disabled": false,
    "classSkills": {}
  },
  "ownership": {
    "default": 0
  },
  "_stats": {
    "systemId": "pf1",
    "systemVersion": "9.1",
    "coreVersion": "10.291",
    "createdTime": 1665428354590,
    "modifiedTime": 1689797888824,
    "lastModifiedBy": "ppv91YxratjWnkJi"
  },
  "effects": [],
  "folder": null,
  "sort": 0,
  "flags": {},
  "_key": "!items!TtF2Zoi6BUynfzq7"
}