{
  "_id": "j48QztlGcGUDHYQd",
  "name": "Wolf Rider",
  "type": "feat",
  "img": "systems/pf1/icons/skills/blue_29.jpg",
  "system": {
    "description": {
      "value": "<em>Others can keep their horses. You know that wolves are better mounts.</em><br/><br/><b>Prerequisites</b><br/>Undersized Mount or effective level 7th in the class that grants the mount or divine bond (mount) class feature; Knowledge (nature) 1 rank; mount or divine bond (mount) class feature.<br/><br/><b>Benefits</b><br/>You can select a wolf in place of the normal mount available via your mount or divine bond (mount) class feature. In addition, Knowledge (nature) is always a class skill for you.",
      "unidentified": ""
    },
    "tags": [
      "PFS",
      "General"
    ],
    "actions": [],
    "uses": {
      "per": null,
      "value": 0,
      "maxFormula": "",
      "autoDeductChargesCost": "1"
    },
    "attackNotes": [],
    "effectNotes": [],
    "changes": [],
    "changeFlags": {
      "loseDexToAC": false,
      "noEncumbrance": false,
      "mediumArmorFullSpeed": false,
      "heavyArmorFullSpeed": false
    },
    "contextNotes": [],
    "links": {
      "children": [],
      "charges": []
    },
    "tag": "",
    "useCustomTag": false,
    "armorProf": {
      "value": [],
      "custom": ""
    },
    "weaponProf": {
      "value": [],
      "custom": ""
    },
    "languages": {
      "value": [],
      "custom": ""
    },
    "flags": {
      "boolean": {},
      "dictionary": {}
    },
    "scriptCalls": [],
    "subType": "feat",
    "associations": {
      "classes": []
    },
    "showInQuickbar": false,
    "abilityType": "none",
    "crOffset": "",
    "disabled": false,
    "classSkills": {}
  },
  "ownership": {
    "default": 0
  },
  "_stats": {
    "systemId": "pf1",
    "systemVersion": "9.1",
    "coreVersion": "10.291",
    "createdTime": 1665428356825,
    "modifiedTime": 1689797896947,
    "lastModifiedBy": "ppv91YxratjWnkJi"
  },
  "effects": [],
  "folder": null,
  "sort": 0,
  "flags": {},
  "_key": "!items!j48QztlGcGUDHYQd"
}