{
  "_id": "ssv7sUnf79MPwyoi",
  "name": "Word of Healing",
  "type": "feat",
  "img": "systems/pf1/icons/spells/heal-royal-3.jpg",
  "system": {
    "description": {
      "value": "<em>Using the same divine energy as your lay on hands ability, you can heal others at a distance.</em><br/><br/><b>Prerequisites</b><br/>Lay on hands class feature.<br/><br/><b>Benefits</b><br/>You may use your lay on hands to heal another creature at a range of 30 feet as a standard action that does not provoke an attack of opportunity. You must be able to speak and have a free hand to use this ability. The target heals half the amount they would have healed if you had touched them, but gains the benefits of your mercies as normal.",
      "unidentified": ""
    },
    "tags": [
      "PFS",
      "General"
    ],
    "actions": [],
    "uses": {
      "per": null,
      "value": 0,
      "maxFormula": "",
      "autoDeductChargesCost": "1"
    },
    "attackNotes": [],
    "effectNotes": [],
    "changes": [],
    "changeFlags": {
      "loseDexToAC": false,
      "noEncumbrance": false,
      "mediumArmorFullSpeed": false,
      "heavyArmorFullSpeed": false
    },
    "contextNotes": [],
    "links": {
      "children": [],
      "charges": []
    },
    "tag": "",
    "useCustomTag": false,
    "armorProf": {
      "value": [],
      "custom": ""
    },
    "weaponProf": {
      "value": [],
      "custom": ""
    },
    "languages": {
      "value": [],
      "custom": ""
    },
    "flags": {
      "boolean": {},
      "dictionary": {}
    },
    "scriptCalls": [],
    "subType": "feat",
    "associations": {
      "classes": []
    },
    "showInQuickbar": false,
    "abilityType": "none",
    "crOffset": "",
    "disabled": false,
    "classSkills": {}
  },
  "ownership": {
    "default": 0
  },
  "_stats": {
    "systemId": "pf1",
    "systemVersion": "9.1",
    "coreVersion": "10.291",
    "createdTime": 1665428358234,
    "modifiedTime": 1689797901800,
    "lastModifiedBy": "ppv91YxratjWnkJi"
  },
  "effects": [],
  "folder": null,
  "sort": 0,
  "flags": {},
  "_key": "!items!ssv7sUnf79MPwyoi"
}