{
  "_id": "gdmeXOQJ1WntAINN",
  "name": "Wrest Charge",
  "type": "feat",
  "img": "systems/pf1/icons/spells/link-spirit-3.jpg",
  "system": {
    "description": {
      "value": "<em>You can extract a charge from otherwise depleted technology.</em><br/><br/><b>Prerequisites</b><br/>Disable Device 5 ranks, Knowledge (engineering) 5 ranks<br/><br/><b>Benefits</b><br/>With a successful DC 20 Disable Device check, you can jury-rig a depleted (but not destroyed) battery so it provides 1 more charge. Using this charge or failing your check by 5 or more permanently depletes the battery. <br/><br/>You can attempt the same check to add 1 last charge to a discharged piece of timeworn technology. Regardless of the outcome, no other attempts can be made, even by another person. Using this feat takes 1 minute. You can attempt to wrest a charge as a move action by taking a -10 penalty on your check. This feat does not stack with the charge cycling deed.",
      "unidentified": ""
    },
    "tags": [
      "PFS",
      "General"
    ],
    "actions": [],
    "uses": {
      "per": null,
      "value": 0,
      "maxFormula": "",
      "autoDeductChargesCost": "1"
    },
    "attackNotes": [],
    "effectNotes": [],
    "changes": [],
    "changeFlags": {
      "loseDexToAC": false,
      "noEncumbrance": false,
      "mediumArmorFullSpeed": false,
      "heavyArmorFullSpeed": false
    },
    "contextNotes": [],
    "links": {
      "children": [],
      "charges": []
    },
    "tag": "",
    "useCustomTag": false,
    "armorProf": {
      "value": [],
      "custom": ""
    },
    "weaponProf": {
      "value": [],
      "custom": ""
    },
    "languages": {
      "value": [],
      "custom": ""
    },
    "flags": {
      "boolean": {},
      "dictionary": {}
    },
    "scriptCalls": [],
    "subType": "feat",
    "associations": {
      "classes": []
    },
    "showInQuickbar": false,
    "abilityType": "none",
    "crOffset": "",
    "disabled": false,
    "classSkills": {}
  },
  "ownership": {
    "default": 0
  },
  "_stats": {
    "systemId": "pf1",
    "systemVersion": "9.1",
    "coreVersion": "10.291",
    "createdTime": 1665428356340,
    "modifiedTime": 1689797895510,
    "lastModifiedBy": "ppv91YxratjWnkJi"
  },
  "effects": [],
  "folder": null,
  "sort": 0,
  "flags": {},
  "_key": "!items!gdmeXOQJ1WntAINN"
}