{
  "_id": "hpPZz5taf2jU7FC9",
  "name": "Wyvern Sting",
  "type": "feat",
  "img": "systems/pf1/icons/feats/greater-overrun.jpg",
  "system": {
    "description": {
      "value": "<em>You can use your whip like a wyvern's sting, forcing foes to give it their undivided attention.</em><br/><br/><b>Prerequisites</b><br/>Exotic Weapon Proficiency (whip), Wyvern Fury Style, Acrobatics 6 ranks, brawler's flurry class feature or flurry of blows class feature.<br/><br/><b>Benefits</b><br/>While using Wyvern Fury Style, if you successfully attack a foe with a whip or scorpion whip, as a swift action you can choose one ally. Until the beginning of your next turn, that ally can leave spaces threatened by that foe without provoking an attack of opportunity from the foe.",
      "unidentified": ""
    },
    "tags": [
      "PFS",
      "Combat"
    ],
    "actions": [],
    "uses": {
      "per": null,
      "value": 0,
      "maxFormula": "",
      "autoDeductChargesCost": "1"
    },
    "attackNotes": [],
    "effectNotes": [],
    "changes": [],
    "changeFlags": {
      "loseDexToAC": false,
      "noEncumbrance": false,
      "mediumArmorFullSpeed": false,
      "heavyArmorFullSpeed": false
    },
    "contextNotes": [],
    "links": {
      "children": [],
      "charges": []
    },
    "tag": "",
    "useCustomTag": false,
    "armorProf": {
      "value": [],
      "custom": ""
    },
    "weaponProf": {
      "value": [],
      "custom": ""
    },
    "languages": {
      "value": [],
      "custom": ""
    },
    "flags": {
      "boolean": {},
      "dictionary": {}
    },
    "scriptCalls": [],
    "subType": "feat",
    "associations": {
      "classes": []
    },
    "showInQuickbar": false,
    "abilityType": "none",
    "crOffset": "",
    "disabled": false,
    "classSkills": {}
  },
  "ownership": {
    "default": 0
  },
  "_stats": {
    "systemId": "pf1",
    "systemVersion": "9.1",
    "coreVersion": "10.291",
    "createdTime": 1665428356740,
    "modifiedTime": 1689797896415,
    "lastModifiedBy": "ppv91YxratjWnkJi"
  },
  "effects": [],
  "folder": null,
  "sort": 0,
  "flags": {},
  "_key": "!items!hpPZz5taf2jU7FC9"
}