{
  "_id": "mw1XoJZEoRBA9XiM",
  "name": "Yai-Mimic Spell",
  "type": "feat",
  "img": "systems/pf1/icons/feats/still-spell.jpg",
  "system": {
    "description": {
      "value": "<em>You have studied the magical nature of giant oni and can use your spells to imitate their esoteric features.</em><br/><br/><b>Prerequisites</b><br/>Int 15, Still Spell.<br/><br/><b>Benefits</b><br/>You can modify a ray spell to issue from the center of your forehead, where the third eye would be on a yai. This spell doesn't require somatic components. When the spell is cast, you gain regeneration 1 for a number of rounds equal to the original level of the spell. This regeneration can't regrow lost body parts or reattach severed limbs. Fire or acid damage suppresses this regeneration for 1 round, which counts against the total duration of the regeneration effect. A yai-mimic spell uses up a spell slot 3 levels higher than the spell's actual level.",
      "unidentified": ""
    },
    "tags": [
      "PFS",
      "Metamagic"
    ],
    "actions": [],
    "uses": {
      "per": null,
      "value": 0,
      "maxFormula": "",
      "autoDeductChargesCost": "1"
    },
    "attackNotes": [],
    "effectNotes": [],
    "changes": [],
    "changeFlags": {
      "loseDexToAC": false,
      "noEncumbrance": false,
      "mediumArmorFullSpeed": false,
      "heavyArmorFullSpeed": false
    },
    "contextNotes": [],
    "links": {
      "children": [],
      "charges": []
    },
    "tag": "",
    "useCustomTag": false,
    "armorProf": {
      "value": [],
      "custom": ""
    },
    "weaponProf": {
      "value": [],
      "custom": ""
    },
    "languages": {
      "value": [],
      "custom": ""
    },
    "flags": {
      "boolean": {},
      "dictionary": {}
    },
    "scriptCalls": [],
    "subType": "feat",
    "associations": {
      "classes": []
    },
    "showInQuickbar": false,
    "abilityType": "none",
    "crOffset": "",
    "disabled": false,
    "classSkills": {}
  },
  "ownership": {
    "default": 0
  },
  "_stats": {
    "systemId": "pf1",
    "systemVersion": "9.1",
    "coreVersion": "10.291",
    "createdTime": 1665428357485,
    "modifiedTime": 1689797899253,
    "lastModifiedBy": "ppv91YxratjWnkJi"
  },
  "effects": [],
  "folder": null,
  "sort": 0,
  "flags": {},
  "_key": "!items!mw1XoJZEoRBA9XiM"
}