{
  "_id": "QpoWZBLU0SdZuFvm",
  "flags": {
    "pf1": {
      "staticSize": false,
      "lowLightVision": false,
      "disableLowLight": false
    },
    "token-replacer": {
      "disabled": false
    },
    "token-hud-wildcard": {
      "default": ""
    },
    "perfect-vision": {
      "visionRules": "default",
      "monoVisionColor": "",
      "sightLimit": null,
      "_version": 1
    },
    "barbrawl": {
      "resourceBars": {
        "bar1": {
          "id": "bar1",
          "attribute": "attributes.hp",
          "visibility": 40,
          "mincolor": "#FF0000",
          "maxcolor": "#80FF00",
          "position": "bottom-inner",
          "style": "user",
          "ignoreMin": false,
          "ignoreMax": false,
          "invert": false,
          "value": 0,
          "max": 0
        }
      }
    }
  },
  "name": "City Wall",
  "displayName": 30,
  "width": 1,
  "height": 1,
  "x": 700,
  "y": 1100,
  "elevation": 0,
  "lockRotation": false,
  "rotation": 0,
  "effects": [],
  "hidden": false,
  "actorId": null,
  "actorLink": false,
  "actorData": {},
  "disposition": -1,
  "displayBars": 50,
  "bar1": {
    "attribute": null
  },
  "bar2": {
    "attribute": null
  },
  "alpha": 1,
  "light": {
    "dim": 0,
    "bright": 0,
    "angle": 360,
    "color": null,
    "alpha": 1,
    "animation": {
      "speed": 5,
      "intensity": 5,
      "reverse": false,
      "type": null
    },
    "coloration": 1,
    "luminosity": 0.5,
    "saturation": 0,
    "contrast": 0,
    "shadows": 0,
    "darkness": {
      "min": 0,
      "max": 1
    },
    "attenuation": 0.5
  },
  "texture": {
    "src": "modules/pf-content/assets/Kingdom%20Building/Wall.png",
    "tint": null,
    "scaleX": 1,
    "scaleY": 1,
    "offsetX": 0,
    "offsetY": 0,
    "rotation": 0
  },
  "sight": {
    "angle": 360,
    "enabled": false,
    "range": 0,
    "brightness": 1,
    "visionMode": "basic",
    "color": null,
    "attenuation": 0.1,
    "saturation": 0,
    "contrast": 0
  },
  "overlayEffect": "",
  "detectionModes": [],
  "delta": null,
  "_key": "!scenes.tokens!VfllkIzpnvc0RLpY.QpoWZBLU0SdZuFvm"
}