{
  "_id": "GV1O7Pl5ir87Chi9",
  "name": "Angry Jack",
  "type": "consumable",
  "sort": 2300000,
  "flags": {},
  "img": "icons/commodities/materials/bowl-powder-teal.webp",
  "effects": [],
  "folder": null,
  "system": {
    "description": {
      "value": "<p><strong>Source</strong> <em>Dirty Tactics Toolbox pg. 20</em><br/><strong>Price</strong> 25 gp; <strong>Weight</strong> 2 lbs.<br/><strong>Category</strong> Black Market</p><h2 class=\"framing\"><img src=\"modules/pf-content/assets/PathfinderSocietySymbol.gif\" style=\"margin:3px 3px 0px 3px;\" title=\"PFS Legal\"/>Description</h2>Named after a common children's toy, this metal box, typically no larger than 1 cubic foot in volume, possesses a secret compartment large enough to store one flask or vial. When loaded with a splash weapon or a vial of poison (contact or inhaled poisons only) and armed as a full-round action, an angry jack attacks the next creature to open the box, using its spring-loaded interior to launch that item at the target as a ranged touch attack (attack bonus +0). A creature struck by a contact poison in this way is exposed to the poison as normal, but a creature is automatically exposed to a loaded inhalation poison with no attack roll needed. Identifying an angry jack requires a successful a DC 20 Perception check. A character who is trained in the Disable Device skill can spend 10 minutes disguising an armed angry jack, allowing her to roll a Disable Device check and use the result as the Perception DC for others to detect the true nature of the angry jack. The user can't take 10 or 20 on the Disable Device check.",
      "unidentified": ""
    },
    "tags": [],
    "quantity": 1,
    "weight": {
      "value": 2
    },
    "price": 25,
    "size": "med",
    "equipped": true,
    "resizing": false,
    "identified": true,
    "hp": {
      "max": 10,
      "value": 10
    },
    "broken": false,
    "hardness": 0,
    "carried": true,
    "unidentified": {
      "price": 0,
      "name": ""
    },
    "cl": 0,
    "aura": {
      "custom": false,
      "school": ""
    },
    "actions": [],
    "uses": {
      "per": null,
      "value": 0,
      "maxFormula": "",
      "pricePerUse": 0,
      "autoDeductChargesCost": "1",
      "max": 0
    },
    "attackNotes": [],
    "effectNotes": [],
    "links": {
      "children": [],
      "charges": []
    },
    "tag": "angryJack",
    "useCustomTag": false,
    "flags": {
      "boolean": {},
      "dictionary": {
        "Category": "Black Market"
      }
    },
    "scriptCalls": [],
    "subType": "misc",
    "showInQuickbar": false,
    "duration": {
      "value": null,
      "units": ""
    },
    "target": {
      "value": ""
    },
    "attackName": "",
    "actionType": null,
    "attackBonus": "",
    "critConfirmBonus": "",
    "damage": {
      "parts": [],
      "critParts": [],
      "nonCritParts": []
    },
    "attackParts": [],
    "formulaicAttacks": {
      "count": {
        "formula": "",
        "value": null
      },
      "bonus": {
        "formula": ""
      },
      "label": null
    },
    "formula": "",
    "ability": {
      "attack": null,
      "damage": null,
      "damageMult": 1,
      "critRange": 20,
      "critMult": 2
    },
    "save": {
      "dc": 0,
      "type": "",
      "description": ""
    },
    "soundEffect": "",
    "attack": {
      "parts": []
    }
  },
  "ownership": {
    "default": 0
  },
  "_stats": {
    "systemId": null,
    "systemVersion": null,
    "coreVersion": null,
    "createdTime": null,
    "modifiedTime": null,
    "lastModifiedBy": null
  },
  "_key": "!actors.items!CCkERpkJdM2ZhIti.GV1O7Pl5ir87Chi9"
}