{
  "_id": "7rykRsevu1IiKVON",
  "name": "Animal harness",
  "type": "loot",
  "sort": 200000,
  "flags": {},
  "img": "icons/commodities/leather/leather-buckle-steel-tan.webp",
  "effects": [],
  "folder": null,
  "system": {
    "description": {
      "value": "<p><strong>Source</strong> <em>Ultimate Equipment pg. 81</em>, <em>Advanced Player's Guide pg. 185</em>, <em>Adventurer's Armory pg. 19</em><br/><strong>Price</strong> 2 gp; <strong>Weight</strong> 2 lbs.<br/><strong>Category</strong> Animal Gear</p><h2 class=\"framing\"><img src=\"modules/pf-content/assets/PathfinderSocietySymbol.gif\" style=\"margin:3px 3px 0px 3px;\" title=\"PFS Legal\"/>Description</h2>This leather or hemp harness allows a holder to restrain and control a domesticated animal. A harness is standard equipment for anyone trying to teach an animal tricks with the Handle Animal skill. Ready-made harnesses are available in most markets for common domesticated animals such as cats, dogs, horses, and oxen, but harnesses can be made for nearly any creature.",
      "unidentified": ""
    },
    "tags": [],
    "quantity": 1,
    "weight": {
      "value": 2
    },
    "price": 2,
    "size": "med",
    "equipped": false,
    "resizing": false,
    "identified": true,
    "hp": {
      "max": 10,
      "value": 10
    },
    "broken": false,
    "hardness": 0,
    "carried": true,
    "unidentified": {
      "price": 0,
      "name": ""
    },
    "cl": 0,
    "aura": {
      "custom": false,
      "school": ""
    },
    "changes": [],
    "changeFlags": {
      "loseDexToAC": false,
      "noEncumbrance": false,
      "mediumArmorFullSpeed": false,
      "heavyArmorFullSpeed": false
    },
    "contextNotes": [],
    "links": {
      "children": []
    },
    "tag": "animalHarness",
    "useCustomTag": false,
    "flags": {
      "boolean": {},
      "dictionary": {
        "Category": "Animal Gear"
      }
    },
    "scriptCalls": [],
    "subType": "gear",
    "extraType": "",
    "uses": {
      "value": 0,
      "max": 0
    },
    "damage": {
      "parts": [],
      "critParts": [],
      "nonCritParts": []
    }
  },
  "ownership": {
    "default": 0
  },
  "_stats": {
    "systemId": null,
    "systemVersion": null,
    "coreVersion": null,
    "createdTime": null,
    "modifiedTime": null,
    "lastModifiedBy": null
  },
  "_key": "!actors.items!o18MJTZtGKgoF7oy.7rykRsevu1IiKVON"
}