{
  "_id": "xqZndIWfy7fYhJJf",
  "name": "Apprentice Chapbook of Rul Thaven (Spellbook, Level 2 Diviner)",
  "type": "loot",
  "sort": 300000,
  "flags": {},
  "img": "icons/sundries/books/book-worn-brown.webp",
  "effects": [],
  "folder": null,
  "system": {
    "description": {
      "value": "<p><strong>Source</strong> <em>Arcane Anthology pg. 30</em><br/><em>This drab leather tome is stamped plainly with elven lettering, appearing at first glance as little more than a journeyman's treatise on spellcasting. Penned into almost every margin, however, are copious notes by an author who identifies herself only as 'Arrowsong.' These annotations discuss numerous spellcasting fallacies made by the tome's original authors and simple (yet effective) countermeasures that more martially inclined persons can use to disrupt spellcasting. The overall tone of Arrowsong's notes is one of bitter melancholy, and an equal amount of space is dedicated to slanderous poetry directed toward Arrowsong's parents and the book's writers, who might be the same people.</em><br/><strong>Value</strong> 1,200 gp (2,200 gp with the preparation ritual)</p><h2 class=\"framing\"><img src=\"modules/pf-content/assets/PathfinderSocietySymbolN.gif\" style=\"margin:3px 3px 0px 3px;\" title=\"These spellbooks do not allow access to otherwise banned spells.\"/>Spells</h2>3rd-<em>contingent action</em><sup>ACG</sup>, <em>cloak of winds</em>, <em>fireball</em>, <em>lightning bolt</em><br/> 2nd-<em>acid arrow</em>, <em>arrow eruption</em><sup>APG</sup>, <em>protection from arrows</em>, <em>scorching ray</em>, <em>stone call</em><sup>APG</sup><br/> 1st-<em>blend</em><sup>ARG</sup>, <em>gravity bow</em><sup>APG</sup>, <em>identify</em>, <em>longshot</em>, <em>magic missile</em>, <em>shield</em>, <em>true strike</em><h2 class=\"framing\">Ritual</h2><strong>Disruption Master (Ex)</strong> Arrowsong's claims about the imperfections of spellcasting and the failings of magic provide additional insight into interrupting spellcasting. Unlike other boons, you do not spend this one. Until you prepare spells again, when you damage a foe or the foe fails a saving throw against a spell of yours, the foe also takes a -2 penalty on all concentration checks it attempts for 1 round.",
      "unidentified": ""
    },
    "tags": [],
    "quantity": 1,
    "weight": {
      "value": 5
    },
    "price": 1200,
    "size": "med",
    "equipped": false,
    "resizing": false,
    "identified": true,
    "hp": {
      "max": 10,
      "value": 10
    },
    "broken": false,
    "hardness": 0,
    "carried": true,
    "unidentified": {
      "price": 0,
      "name": ""
    },
    "cl": 0,
    "aura": {
      "custom": false,
      "school": ""
    },
    "changes": [],
    "changeFlags": {
      "loseDexToAC": false,
      "noEncumbrance": false,
      "mediumArmorFullSpeed": false,
      "heavyArmorFullSpeed": false
    },
    "contextNotes": [],
    "links": {
      "children": []
    },
    "tag": "arrowsongsSorrowSpellbookLevel3Universalist",
    "useCustomTag": false,
    "flags": {
      "boolean": {},
      "dictionary": {
        "Category": "Spellbooks"
      }
    },
    "scriptCalls": [],
    "subType": "gear",
    "extraType": "",
    "uses": {
      "value": 0,
      "max": 0
    }
  },
  "ownership": {
    "default": 0
  },
  "_stats": {
    "systemId": null,
    "systemVersion": null,
    "coreVersion": null,
    "createdTime": null,
    "modifiedTime": null,
    "lastModifiedBy": null
  },
  "_key": "!actors.items!e0tBiIT9FjMrkhes.xqZndIWfy7fYhJJf"
}