{
  "_id": "SSJAGRlAsfHNn6px",
  "name": "Aquatic pinger",
  "type": "loot",
  "sort": 500000,
  "flags": {},
  "img": "systems/pf1/icons/items/inventory/bell_brass.jpg",
  "effects": [],
  "folder": null,
  "system": {
    "description": {
      "value": "<p><strong>Source</strong> <em>Animal Archive pg. 12</em><br/><strong>Price</strong> 6 gp; <strong>Weight</strong> 1/2 lb.<br/><strong>Category</strong> Animal Gear</p><h2 class=\"framing\"><img src=\"modules/pf-content/assets/PathfinderSocietySymbol.gif\" style=\"margin:3px 3px 0px 3px;\" title=\"PFS Legal\"/>Description</h2>This small chime is designed to be used in aquatic environs. After submerging the pinger in water, the user can lower a miniature mallet into the dry hollow of the chime from above and ring the instrument with a successful DC 5 Perform (percussion) check. An aquatic pinger can be heard clearly from up to a half-mile away by underwater creatures (Perception DC 0). For each halfmile beyond, Perception checks to hear an aquatic pinger take a -2 penalty.",
      "unidentified": ""
    },
    "tags": [],
    "quantity": 1,
    "weight": {
      "value": 0.5
    },
    "price": 6,
    "size": "med",
    "equipped": false,
    "resizing": false,
    "identified": true,
    "hp": {
      "max": 10,
      "value": 10
    },
    "broken": false,
    "hardness": 0,
    "carried": true,
    "unidentified": {
      "price": 0,
      "name": ""
    },
    "cl": 0,
    "aura": {
      "custom": false,
      "school": ""
    },
    "changes": [],
    "changeFlags": {
      "loseDexToAC": false,
      "noEncumbrance": false,
      "mediumArmorFullSpeed": false,
      "heavyArmorFullSpeed": false
    },
    "contextNotes": [],
    "links": {
      "children": []
    },
    "tag": "aquaticPinger",
    "useCustomTag": false,
    "flags": {
      "boolean": {},
      "dictionary": {
        "Category": "Animal Gear"
      }
    },
    "scriptCalls": [],
    "subType": "gear",
    "extraType": "",
    "uses": {
      "value": 0,
      "max": 0
    },
    "damage": {
      "parts": [],
      "critParts": [],
      "nonCritParts": []
    }
  },
  "ownership": {
    "default": 0
  },
  "_stats": {
    "systemId": null,
    "systemVersion": null,
    "coreVersion": null,
    "createdTime": null,
    "modifiedTime": null,
    "lastModifiedBy": null
  },
  "_key": "!actors.items!o18MJTZtGKgoF7oy.SSJAGRlAsfHNn6px"
}