{
  "_id": "4KkwleumKNLJXU3C",
  "name": "Arcane family workbook",
  "type": "loot",
  "sort": 800000,
  "flags": {},
  "img": "icons/sundries/books/book-backed-wood-tan.webp",
  "effects": [],
  "folder": null,
  "system": {
    "description": {
      "value": "<p><strong>Source</strong> <em>Advanced Race Guide pg. 27</em><br/><strong>Price</strong> 300 gp; <strong>Weight</strong> 3 lbs.<br/><strong>Category</strong> Tools</p><h2 class=\"framing\"><img src=\"modules/pf-content/assets/PathfinderSocietySymbol.gif\" style=\"margin:3px 3px 0px 3px;\" title=\"PFS Legal\"/>Description</h2>The elven predilection for becoming wizards and the social benefits that elven wizards enjoy often encourages families to dedicate themselves to wizardly studies for multiple generations. Older elven wizards take note of their own insights into the secrets of arcane magic and compile these thoughts with the ideas of earlier generations to form family workbooks. When used as a reference (an action that typically takes 1d4 full rounds of searching the text), an arcane family workbook grants a +2 circumstance bonus on a Spellcraft checks. This bonus increases to +4 if 1d4 hours are spent referencing the book.",
      "unidentified": ""
    },
    "tags": [],
    "quantity": 1,
    "weight": {
      "value": 3
    },
    "price": 300,
    "size": "med",
    "equipped": false,
    "resizing": false,
    "identified": true,
    "hp": {
      "max": 10,
      "value": 10
    },
    "broken": false,
    "hardness": 0,
    "carried": true,
    "unidentified": {
      "price": 0,
      "name": ""
    },
    "cl": 0,
    "aura": {
      "custom": false,
      "school": ""
    },
    "changes": [],
    "changeFlags": {
      "loseDexToAC": false,
      "noEncumbrance": false,
      "mediumArmorFullSpeed": false,
      "heavyArmorFullSpeed": false
    },
    "contextNotes": [],
    "links": {
      "children": []
    },
    "tag": "arcaneFamilyWorkbook",
    "useCustomTag": false,
    "flags": {
      "boolean": {},
      "dictionary": {
        "Category": "Tools"
      }
    },
    "scriptCalls": [],
    "subType": "gear",
    "extraType": "",
    "uses": {
      "value": 0,
      "max": 0
    }
  },
  "ownership": {
    "default": 0
  },
  "_stats": {
    "systemId": null,
    "systemVersion": null,
    "coreVersion": null,
    "createdTime": null,
    "modifiedTime": null,
    "lastModifiedBy": null
  },
  "_key": "!actors.items!e6kN1rNIhFaZykRh.4KkwleumKNLJXU3C"
}