{
  "_id": "MSxT6IHDBuCzaiV5",
  "name": "Bamboo palace",
  "type": "loot",
  "sort": 300000,
  "flags": {},
  "img": "icons/sundries/misc/pipe-wooden-01.webp",
  "effects": [],
  "folder": null,
  "system": {
    "description": {
      "value": "<p><strong>Source</strong> <em>Alchemy Manual pg. 18</em><br/><strong>Price</strong> 400 gp; <strong>Weight</strong> 10 lbs.<br/><strong>Category</strong> Black Market</p><h2 class=\"framing\"><img src=\"modules/pf-content/assets/PathfinderSocietySymbol.gif\" style=\"margin:3px 3px 0px 3px;\" title=\"PFS Legal\"/>Description</h2>The bowl of this glass water pipe can be loaded with any inhalable drug, alchemical powder, or alchemical liquid. You must set down a hookah in a free space (a move action) and fill the water jar with half a gallon of water (another move action) before the hookah can be used. You can consume the contents of an adjacent hookah by sucking on one of the pipe's four hoses as a move action. Up to 5 doses of a single substance can be loaded in the hookah at a time, and up to four adjacent creatures can use the hookah during the same round. Reloading a hookah is a standard action, regardless of the number of doses so reloaded.<br/><br/> Substances not intended for bodily consumption can cause harmful or even fatal effects (GM's discretion) if loaded into a hookah and inhaled, and often destroy the hookah in the process.",
      "unidentified": ""
    },
    "tags": [],
    "quantity": 1,
    "weight": {
      "value": 10
    },
    "price": 400,
    "size": "med",
    "equipped": false,
    "resizing": false,
    "identified": true,
    "hp": {
      "max": 10,
      "value": 10
    },
    "broken": false,
    "hardness": 0,
    "carried": true,
    "unidentified": {
      "price": 0,
      "name": ""
    },
    "cl": 0,
    "aura": {
      "custom": false,
      "school": ""
    },
    "changes": [],
    "changeFlags": {
      "loseDexToAC": false,
      "noEncumbrance": false,
      "mediumArmorFullSpeed": false,
      "heavyArmorFullSpeed": false
    },
    "contextNotes": [],
    "links": {
      "children": []
    },
    "tag": "hookah",
    "useCustomTag": false,
    "flags": {
      "boolean": {},
      "dictionary": {
        "Category": "Black Market"
      }
    },
    "scriptCalls": [],
    "subType": "tradeGoods",
    "extraType": "",
    "uses": {
      "value": 0,
      "max": 0
    },
    "damage": {
      "parts": [],
      "critParts": [],
      "nonCritParts": []
    }
  },
  "ownership": {
    "default": 0
  },
  "_stats": {
    "systemId": null,
    "systemVersion": null,
    "coreVersion": null,
    "createdTime": null,
    "modifiedTime": null,
    "lastModifiedBy": null
  },
  "_key": "!actors.items!nN8pFnzpXU2QBiDG.MSxT6IHDBuCzaiV5"
}