{
  "_id": "tsD2svIrJg7kbiLL",
  "name": "Cards, Marked",
  "type": "loot",
  "sort": 900000,
  "flags": {},
  "img": "icons/sundries/gaming/playing-cards-brown.webp",
  "effects": [],
  "folder": null,
  "system": {
    "description": {
      "value": "<p><strong>Source</strong> <em>Ultimate Equipment pg. 92</em>, <em>Advanced Player's Guide pg. 185</em>, <em>Adventurer's Armory pg. 19</em><br/><strong>Price</strong> 1 gp; <strong>Weight</strong> 1 lb.<br/><strong>Category</strong> Entertainment</p><h2 class=\"framing\"><img src=\"modules/pf-content/assets/PathfinderSocietySymbol.gif\" style=\"margin:3px 3px 0px 3px;\" title=\"PFS Legal\"/>Description</h2>Whether bent, colored, or scratched, marked cards allow an informed user to know what's on the front of the card by viewing the mark on the back. Realizing that the cards are marked requires a DC 25 Perception check or DC 20 Profession (gambler) check. The listed price is for a common paper deck.",
      "unidentified": ""
    },
    "tags": [],
    "quantity": 1,
    "weight": {
      "value": 1
    },
    "price": 1,
    "size": "med",
    "equipped": false,
    "resizing": false,
    "identified": true,
    "hp": {
      "max": 10,
      "value": 10
    },
    "broken": false,
    "hardness": 0,
    "carried": true,
    "unidentified": {
      "price": 0,
      "name": ""
    },
    "cl": 0,
    "aura": {
      "custom": false,
      "school": ""
    },
    "changes": [],
    "changeFlags": {
      "loseDexToAC": false,
      "noEncumbrance": false,
      "mediumArmorFullSpeed": false,
      "heavyArmorFullSpeed": false
    },
    "contextNotes": [],
    "links": {
      "children": []
    },
    "tag": "cardsMarked",
    "useCustomTag": false,
    "flags": {
      "boolean": {},
      "dictionary": {
        "Category": "Entertainment"
      }
    },
    "scriptCalls": [],
    "subType": "tradeGoods",
    "extraType": "",
    "uses": {
      "value": 0,
      "max": 0
    },
    "damage": {
      "parts": [],
      "critParts": [],
      "nonCritParts": []
    }
  },
  "ownership": {
    "default": 0
  },
  "_stats": {
    "systemId": null,
    "systemVersion": null,
    "coreVersion": null,
    "createdTime": null,
    "modifiedTime": null,
    "lastModifiedBy": null
  },
  "_key": "!actors.items!7uVk35v2pIQBJCvt.tsD2svIrJg7kbiLL"
}