{
  "_id": "l0IOJY6WHOAoW7om",
  "name": "Defensive Primer (Spellbook, Level 1 Abjurer)",
  "type": "loot",
  "sort": 1100000,
  "flags": {},
  "img": "icons/sundries/books/book-worn-brown.webp",
  "effects": [],
  "folder": null,
  "system": {
    "description": {
      "value": "<p><strong>Source</strong> <em>Arcane Anthology pg. 5</em><br/><em>This book is bound in glittering silver bark, and its title is printed in golden calligraphy in both Elven and Common.</em><br/><strong>Value</strong> 575 gp (1,100 gp with the preparation ritual)</p><h2 class=\"framing\"><img src=\"modules/pf-content/assets/PathfinderSocietySymbolN.gif\" style=\"margin:3px 3px 0px 3px;\" title=\"These spellbooks do not allow access to otherwise banned spells.\"/>Spells</h2>3rd-<em>dispel magic</em>, <em>haste</em><br/> 2nd-<em>alter self</em>, <em>frigid touch</em><sup>UM</sup>, <em>invisibility</em>, <em>mirror image</em>, <em>pyrotechnics</em>, <em>scorching ray</em><br/> 1st-<em>chill touch</em>, <em>color spray</em>, <em>enlarge person</em>, <em>grease</em>, <em>jump</em>, <em>reduce person</em>, <em>shield</em>, <em>silent image</em><h2 class=\"framing\">Ritual</h2><strong>Avoiding Spell (Su)</strong> Whenever you cast a transmutation spell, you can spend this boon as a swift action to gain a +1 dodge bonus to your AC for a number of rounds equal to the spell's level.",
      "unidentified": ""
    },
    "tags": [],
    "quantity": 1,
    "weight": {
      "value": 5
    },
    "price": 1100,
    "size": "med",
    "equipped": false,
    "resizing": false,
    "identified": true,
    "hp": {
      "max": 10,
      "value": 10
    },
    "broken": false,
    "hardness": 0,
    "carried": true,
    "unidentified": {
      "price": 0,
      "name": ""
    },
    "cl": 0,
    "aura": {
      "custom": false,
      "school": ""
    },
    "changes": [],
    "changeFlags": {
      "loseDexToAC": false,
      "noEncumbrance": false,
      "mediumArmorFullSpeed": false,
      "heavyArmorFullSpeed": false
    },
    "contextNotes": [],
    "links": {
      "children": []
    },
    "tag": "eragesJourneymansManualSpellbookLevel7Magus",
    "useCustomTag": false,
    "flags": {
      "boolean": {},
      "dictionary": {
        "Category": "Spellbooks"
      }
    },
    "scriptCalls": [],
    "subType": "gear",
    "extraType": "",
    "uses": {
      "value": 0,
      "max": 0
    }
  },
  "ownership": {
    "default": 0
  },
  "_stats": {
    "systemId": null,
    "systemVersion": null,
    "coreVersion": null,
    "createdTime": null,
    "modifiedTime": null,
    "lastModifiedBy": null
  },
  "_key": "!actors.items!e0tBiIT9FjMrkhes.l0IOJY6WHOAoW7om"
}