{
  "_id": "siT30JQ8awDtSF1U",
  "name": "Fairy Cap",
  "type": "consumable",
  "sort": 10000000,
  "flags": {},
  "img": "icons/commodities/flowers/cornflower-blue.webp",
  "effects": [],
  "folder": null,
  "system": {
    "description": {
      "value": "<p><strong>Source</strong> <em>Ultimate Wilderness pg. 153</em><br/><strong>Price</strong> 250 gp; <strong>Weight</strong> -<br/><strong>Category</strong> Herbs<br/><strong>Gather</strong> DC 20; <strong>Yield</strong> 1 dose<br/><strong>Terrain</strong> anywhere near ley lines<br/><strong>Preparation</strong> A fairy cap must be gently simmered (not boiled) in a mixture of water and other natural ingredients for 1 hour; this requires a successful DC 20 Craft (alchemy) check. At the end of this preparation time, the yellow spots' color changes to bright orange or dark brown-there's a 50% chance of either development.<br/><strong>Use</strong> When eaten without proper preparation, a fairy cap is mildly poisonous (<em>save</em> Fort DC 13, <em>onset</em> 1 minute, <em>frequency</em> 1/minute for 6 minutes, <em>effect</em> nauseated for 1 minute, <em>cure</em> 1 save), but when properly prepared, it takes on a notunpleasant tangy flavor. The final color of a properly prepared fairy cap's spots determines its effect when consumed. A cap with orange spots causes a Large or smaller creature to grow one size category, while one with brown spots causes the eater to shrink one size category. These effects function as per <em>enlarge person</em> or <em>reduce person</em>, except they can affect any Large or smaller living creature; the effects persist for 10 minutes in either case. Whether or not it is prepared, a fairy cap is quite chewy, and eating it is a full-round action.</p><h2 class=\"framing\"><img src=\"modules/pf-content/assets/PathfinderSocietySymbolN.gif\" style=\"margin:3px 3px 0px 3px;\" title=\"The herbalism subsystem is not legal for play; instead a PC with at least one rank in Craft (alchemy) and 1 rank in either Knowledge (nature) or Profession (herbalist) can purchase the herbs in this book at a 10% discount that does not stack with other discounts; if a PC's ranks in these skills are 5 or higher, the discount increases to 15%, and if a PC's ranks in these skills are 10 or higher, the discount increases to 20%\"/>Description</h2>This toadstool's pale-gray cap is stippled with yellow spots. Its presence often indicates ley lines or fey bowers nearby.",
      "unidentified": ""
    },
    "tags": [],
    "quantity": 1,
    "weight": {
      "value": 0
    },
    "price": 250,
    "size": "med",
    "equipped": true,
    "resizing": false,
    "identified": true,
    "hp": {
      "max": 10,
      "value": 10
    },
    "broken": false,
    "hardness": 0,
    "carried": true,
    "unidentified": {
      "price": 0,
      "name": ""
    },
    "cl": 0,
    "aura": {
      "custom": false,
      "school": ""
    },
    "actions": [],
    "uses": {
      "per": null,
      "value": 0,
      "maxFormula": "",
      "pricePerUse": 0,
      "autoDeductChargesCost": "1",
      "max": 0
    },
    "attackNotes": [],
    "effectNotes": [],
    "links": {
      "children": [],
      "charges": []
    },
    "tag": "fairyCap",
    "useCustomTag": false,
    "flags": {
      "boolean": {},
      "dictionary": {
        "Category": "Herbs"
      }
    },
    "scriptCalls": [],
    "subType": "misc",
    "showInQuickbar": false,
    "duration": {
      "value": null,
      "units": ""
    },
    "target": {
      "value": ""
    },
    "attackName": "",
    "actionType": null,
    "attackBonus": "",
    "critConfirmBonus": "",
    "damage": {
      "parts": [],
      "critParts": [],
      "nonCritParts": []
    },
    "attackParts": [],
    "formulaicAttacks": {
      "count": {
        "formula": "",
        "value": null
      },
      "bonus": {
        "formula": ""
      },
      "label": null
    },
    "formula": "",
    "ability": {
      "attack": null,
      "damage": null,
      "damageMult": 1,
      "critRange": 20,
      "critMult": 2
    },
    "save": {
      "dc": 0,
      "type": "",
      "description": ""
    },
    "soundEffect": "",
    "attack": {
      "parts": []
    }
  },
  "ownership": {
    "default": 0
  },
  "_stats": {
    "systemId": null,
    "systemVersion": null,
    "coreVersion": null,
    "createdTime": null,
    "modifiedTime": null,
    "lastModifiedBy": null
  },
  "_key": "!actors.items!CCkERpkJdM2ZhIti.siT30JQ8awDtSF1U"
}