{
  "_id": "ILlcMG95xFj8bnGW",
  "name": "Fiendgore Unguent",
  "type": "consumable",
  "sort": 10600000,
  "flags": {},
  "img": "icons/commodities/cloth/cloth-bolt-tan.webp",
  "effects": [],
  "folder": null,
  "system": {
    "description": {
      "value": "<p><strong>Source</strong> <em>Advanced Race Guide pg. 172</em><br/><strong>Price</strong> 75 gp; <strong>Weight</strong> 1 lb.<br/><strong>Category</strong> Alchemical Tools</p><h2 class=\"framing\"><img src=\"modules/pf-content/assets/PathfinderSocietySymbol.gif\" style=\"margin:3px 3px 0px 3px;\" title=\"PFS Legal\"/>Description</h2>When this unguent-prepared with vile alchemical reagents and the gore of fiends-is applied to a wounded tiefling or evil outsider (not currently at maximum hit points), it momentarily transforms the essence of the target into something even more fearsome and demonic. While under the effects of a fiendgore unguent, a tiefling or an evil outsider gains a +2 circumstance bonus on Intimidate checks and a +1 circumstance bonus to the DC of all spells with the fear descriptor that they cast. Applying the unguent is a delicate process, requiring a full-round action, and can only be properly applied to a willing or helpless creature. If applied to a creature other than a tiefling or an evil outsider, it sickens the creature instead. The unguent's effects (either beneficial or harmful) last for 1 minute.<h2 class=\"framing\">Construction</h2><strong>Craft (Alchemy)</strong> DC 20",
      "unidentified": ""
    },
    "tags": [],
    "quantity": 1,
    "weight": {
      "value": 1
    },
    "price": 75,
    "size": "med",
    "equipped": true,
    "resizing": false,
    "identified": true,
    "hp": {
      "max": 10,
      "value": 10
    },
    "broken": false,
    "hardness": 0,
    "carried": true,
    "unidentified": {
      "price": 0,
      "name": ""
    },
    "cl": 0,
    "aura": {
      "custom": false,
      "school": ""
    },
    "actions": [],
    "uses": {
      "per": null,
      "value": 0,
      "maxFormula": "",
      "pricePerUse": 0,
      "autoDeductChargesCost": "1",
      "max": 0
    },
    "attackNotes": [],
    "effectNotes": [],
    "links": {
      "children": [],
      "charges": []
    },
    "tag": "fiendgoreUnguent",
    "useCustomTag": false,
    "flags": {
      "boolean": {},
      "dictionary": {
        "Category": "Alchemical Tools"
      }
    },
    "scriptCalls": [],
    "subType": "misc",
    "showInQuickbar": false,
    "duration": {
      "value": null,
      "units": ""
    },
    "target": {
      "value": ""
    },
    "attackName": "",
    "actionType": null,
    "attackBonus": "",
    "critConfirmBonus": "",
    "damage": {
      "parts": [],
      "critParts": [],
      "nonCritParts": []
    },
    "attackParts": [],
    "formulaicAttacks": {
      "count": {
        "formula": "",
        "value": null
      },
      "bonus": {
        "formula": ""
      },
      "label": null
    },
    "formula": "",
    "ability": {
      "attack": null,
      "damage": null,
      "damageMult": 1,
      "critRange": 20,
      "critMult": 2
    },
    "save": {
      "dc": 0,
      "type": "",
      "description": ""
    },
    "soundEffect": "",
    "attack": {
      "parts": []
    }
  },
  "ownership": {
    "default": 0
  },
  "_stats": {
    "systemId": null,
    "systemVersion": null,
    "coreVersion": null,
    "createdTime": null,
    "modifiedTime": null,
    "lastModifiedBy": null
  },
  "_key": "!actors.items!CCkERpkJdM2ZhIti.ILlcMG95xFj8bnGW"
}