{
  "_id": "erLuR2E8pgCiLg77",
  "name": "Frightful War Paint",
  "type": "consumable",
  "sort": 11600000,
  "flags": {},
  "img": "icons/tools/laboratory/bowl-liquid-pink-yellow-green.webp",
  "effects": [],
  "folder": null,
  "system": {
    "description": {
      "value": "<p><strong>Source</strong> <em>Alchemy Manual pg. 7</em><br/><strong>Price</strong> 300 gp; <strong>Weight</strong> 1 lb.<br/><strong>Category</strong> Alchemical Tools</p><h2 class=\"framing\"><img src=\"modules/pf-content/assets/PathfinderSocietySymbol.gif\" style=\"margin:3px 3px 0px 3px;\" title=\"PFS Legal\"/>Description</h2>This bone-white paste makes your face appear skeletal and emotionless, like a visage of death itself. When you apply frightful war paint to yourself (or to a willing adjacent creature) as a full-round action, attempt a Disguise or Charisma check. Living creatures within 30 feet of the wearer must succeed at a Will save (DC equal to the result of your Disguise or Charisma check, maximum DC 20) or become shaken for 1d4 rounds. Blind creatures and creatures out of line of sight are unaffected. A creature that succeeds at its check becomes immune to this frightful war paint for 24 hours. Frightful war paint can be worn indefinitely, but it contains quicksilver and realgar, which have deleterious mental effects. If you wear frightful war paint for more than 1 minute per day (whether as a single use of it or as multiple uses over several periods of time), you take 1 point of Constitution damage, plus 1 point of Wisdom damage for every minute you wear the paint that day after the first.<h2 class=\"framing\">Alchemical Recipe</h2><strong>Recipe</strong> (40 dew of lunary + 40 quicksilver + 50 realgar)/earth; <strong>Craft</strong> 30<br/><strong>Time</strong> 10 minutes; <strong>Tools</strong> -; <strong>Type</strong> alchemical tool",
      "unidentified": ""
    },
    "tags": [],
    "quantity": 1,
    "weight": {
      "value": 1
    },
    "price": 300,
    "size": "med",
    "equipped": true,
    "resizing": false,
    "identified": true,
    "hp": {
      "max": 10,
      "value": 10
    },
    "broken": false,
    "hardness": 0,
    "carried": true,
    "unidentified": {
      "price": 0,
      "name": ""
    },
    "cl": 0,
    "aura": {
      "custom": false,
      "school": ""
    },
    "actions": [],
    "uses": {
      "per": null,
      "value": 0,
      "maxFormula": "",
      "pricePerUse": 0,
      "autoDeductChargesCost": "1",
      "max": 0
    },
    "attackNotes": [],
    "effectNotes": [],
    "links": {
      "children": [],
      "charges": []
    },
    "tag": "frightfulWarPaint",
    "useCustomTag": false,
    "flags": {
      "boolean": {},
      "dictionary": {
        "Category": "Alchemical Tools"
      }
    },
    "scriptCalls": [],
    "subType": "misc",
    "showInQuickbar": false,
    "duration": {
      "value": null,
      "units": ""
    },
    "target": {
      "value": ""
    },
    "attackName": "",
    "actionType": null,
    "attackBonus": "",
    "critConfirmBonus": "",
    "damage": {
      "parts": [],
      "critParts": [],
      "nonCritParts": []
    },
    "attackParts": [],
    "formulaicAttacks": {
      "count": {
        "formula": "",
        "value": null
      },
      "bonus": {
        "formula": ""
      },
      "label": null
    },
    "formula": "",
    "ability": {
      "attack": null,
      "damage": null,
      "damageMult": 1,
      "critRange": 20,
      "critMult": 2
    },
    "save": {
      "dc": 0,
      "type": "",
      "description": ""
    },
    "soundEffect": "",
    "attack": {
      "parts": []
    }
  },
  "ownership": {
    "default": 0
  },
  "_stats": {
    "systemId": null,
    "systemVersion": null,
    "coreVersion": null,
    "createdTime": null,
    "modifiedTime": null,
    "lastModifiedBy": null
  },
  "_key": "!actors.items!CCkERpkJdM2ZhIti.erLuR2E8pgCiLg77"
}