{
  "_id": "HupimhPUhQpkANNJ",
  "name": "Galtan Cookbook (Formula Book, Level 8 Alchemist)",
  "type": "loot",
  "sort": 1200000,
  "flags": {},
  "img": "icons/sundries/books/book-worn-brown.webp",
  "effects": [],
  "folder": null,
  "system": {
    "description": {
      "value": "<p><strong>Source</strong> <em>Arcane Anthology pg. 5</em><br/><em>This book's cover is illegibly scorched and the pages are wrinkled from water damage.</em><br/><strong>Value</strong> 670 gp (1,270 gp with the preparation ritual)</p><h2 class=\"framing\"><img src=\"modules/pf-content/assets/PathfinderSocietySymbolN.gif\" style=\"margin:3px 3px 0px 3px;\" title=\"These spellbooks do not allow access to otherwise banned spells.\"/>Spells</h2>3rd-<em>absorbing touch</em><sup>APG</sup>, <em>arcane sight</em>, <em>draconic reservoir</em><sup>APG</sup>, <em>seek thoughts</em><sup>APG</sup><br/> 2nd-<em>cat's grace</em>, <em>invisibility</em>, <em>perceive cues</em><sup>APG</sup>, <em>resist energy</em>, <em>see invisibility</em>, <em>undetectable alignment</em><br/> 1st-<em>ant haul</em><sup>APG</sup>, <em>bomber's eye</em><sup>APG</sup>, <em>comprehend languages</em>, <em>detect secret doors</em>, <em>disguise self</em>, <em>expeditious retreat</em>, <em>true strike</em><h2 class=\"framing\">Ritual</h2><strong>Blast Finesse (Su)</strong> As an immediate action when you throw a bomb, you can spend this boon to shape the blast by adding up to three 5-foot squares to the area, as long as these spaces are adjacent to the bomb's normal area of effect.",
      "unidentified": ""
    },
    "tags": [],
    "quantity": 1,
    "weight": {
      "value": 5
    },
    "price": 1270,
    "size": "med",
    "equipped": false,
    "resizing": false,
    "identified": true,
    "hp": {
      "max": 10,
      "value": 10
    },
    "broken": false,
    "hardness": 0,
    "carried": true,
    "unidentified": {
      "price": 0,
      "name": ""
    },
    "cl": 0,
    "aura": {
      "custom": false,
      "school": ""
    },
    "changes": [],
    "changeFlags": {
      "loseDexToAC": false,
      "noEncumbrance": false,
      "mediumArmorFullSpeed": false,
      "heavyArmorFullSpeed": false
    },
    "contextNotes": [],
    "links": {
      "children": []
    },
    "tag": "galtanCookbookFormulaBookLevel8Alchemist",
    "useCustomTag": false,
    "flags": {
      "boolean": {},
      "dictionary": {
        "Category": "Spellbooks"
      }
    },
    "scriptCalls": [],
    "subType": "gear",
    "extraType": "",
    "uses": {
      "value": 0,
      "max": 0
    }
  },
  "ownership": {
    "default": 0
  },
  "_stats": {
    "systemId": null,
    "systemVersion": null,
    "coreVersion": null,
    "createdTime": null,
    "modifiedTime": null,
    "lastModifiedBy": null
  },
  "_key": "!actors.items!e0tBiIT9FjMrkhes.HupimhPUhQpkANNJ"
}