{
  "_id": "OdQi4lnImHxVKUWz",
  "name": "Goblinvine",
  "type": "consumable",
  "sort": 12300000,
  "flags": {},
  "img": "icons/commodities/flowers/lily-grey-orange.webp",
  "effects": [],
  "folder": null,
  "system": {
    "description": {
      "value": "<p><strong>Source</strong> <em>Ultimate Wilderness pg. 154</em>, <em>Heroes of the Wild pg. 10</em><br/><strong>Price</strong> 30 gp; <strong>Weight</strong> -<br/><strong>Category</strong> Herbs<br/><strong>Gather</strong> DC 16; <strong>Yield</strong> 1 dose (1 lb.)<br/><strong>Terrain</strong> any forests, mountains, plains, or swamps<br/><strong>Preparation</strong> Properly preparing a dose of goblinvine requires a successful DC 20 Sleight of Hand check and 1 minute of work to weave and roll the vines into a compact, fist-sized ball so the hairy side of the leaves faces inward. On a failure by 5 or more, the leaves become torn and ruined. If gloves or gauntlets aren't worn, the preparer is automatically exposed to the goblinvine's effects. If the preparation check's result is a natural 1, the preparer is exposed to those effects regardless of any hand protection worn. The goblin vine must then be stored in an area of bright light for at least 1 hour for the inner surface of the leaves to properly 'sweat' and build up enough irritating oil to function as a thrown weapon.<br/><strong>Use</strong> Once woven into a tight ball of vines and left to sweat, a ball of goblinvine leaves can be used as an improvised thrown weapon as a ranged touch attack. On a hit, a target must succeed at a DC 10 Fortitude save or develop a distracting, itchy rash that imposes a -2 penalty on ability checks, attack rolls, saving throws, and skill checks. This effect persists for 10 minutes or until the rash is tended with a successful DC 12 Heal check attempted as a full-round action. This is a poison effect, but creatures with the goblinoid subtype are immune to the effect. Innovative characters (including many goblins) have developed other uses for goblinvine, including as snares and ropes to make those bound or entangled itchy as well, but since goblinvine is relatively fragile, it makes for a very poor substitute for rope.</p><h2 class=\"framing\"><img src=\"modules/pf-content/assets/PathfinderSocietySymbolN.gif\" style=\"margin:3px 3px 0px 3px;\" title=\"The herbalism subsystem is not legal for play; instead a PC with at least one rank in Craft (alchemy) and 1 rank in either Knowledge (nature) or Profession (herbalist) can purchase the herbs in this book at a 10% discount that does not stack with other discounts; if a PC's ranks in these skills are 5 or higher, the discount increases to 15%, and if a PC's ranks in these skills are 10 or higher, the discount increases to 20%\"/>Description</h2>The leaves of this invasive creeper are wide and covered with tiny hairlike filaments.",
      "unidentified": ""
    },
    "tags": [],
    "quantity": 1,
    "weight": {
      "value": 0
    },
    "price": 30,
    "size": "med",
    "equipped": true,
    "resizing": false,
    "identified": true,
    "hp": {
      "max": 10,
      "value": 10
    },
    "broken": false,
    "hardness": 0,
    "carried": true,
    "unidentified": {
      "price": 0,
      "name": ""
    },
    "cl": 0,
    "aura": {
      "custom": false,
      "school": ""
    },
    "actions": [],
    "uses": {
      "per": null,
      "value": 0,
      "maxFormula": "",
      "pricePerUse": 0,
      "autoDeductChargesCost": "1",
      "max": 0
    },
    "attackNotes": [],
    "effectNotes": [],
    "links": {
      "children": [],
      "charges": []
    },
    "tag": "goblinvine",
    "useCustomTag": false,
    "flags": {
      "boolean": {},
      "dictionary": {
        "Category": "Herbs"
      }
    },
    "scriptCalls": [],
    "subType": "misc",
    "showInQuickbar": false,
    "duration": {
      "value": null,
      "units": ""
    },
    "target": {
      "value": ""
    },
    "attackName": "",
    "actionType": null,
    "attackBonus": "",
    "critConfirmBonus": "",
    "damage": {
      "parts": [],
      "critParts": [],
      "nonCritParts": []
    },
    "attackParts": [],
    "formulaicAttacks": {
      "count": {
        "formula": "",
        "value": null
      },
      "bonus": {
        "formula": ""
      },
      "label": null
    },
    "formula": "",
    "ability": {
      "attack": null,
      "damage": null,
      "damageMult": 1,
      "critRange": 20,
      "critMult": 2
    },
    "save": {
      "dc": 0,
      "type": "",
      "description": ""
    },
    "soundEffect": "",
    "attack": {
      "parts": []
    }
  },
  "ownership": {
    "default": 0
  },
  "_stats": {
    "systemId": null,
    "systemVersion": null,
    "coreVersion": null,
    "createdTime": null,
    "modifiedTime": null,
    "lastModifiedBy": null
  },
  "_key": "!actors.items!CCkERpkJdM2ZhIti.OdQi4lnImHxVKUWz"
}