{
  "_id": "ICbKHyMq0RfzSIlY",
  "name": "Halteres",
  "type": "loot",
  "sort": 5900000,
  "flags": {},
  "img": "icons/commodities/metal/clasp-steel.webp",
  "effects": [],
  "folder": null,
  "system": {
    "description": {
      "value": "<p><strong>Source</strong> <em>Martial Arts Handbook pg. 30</em><br/><strong>Price</strong> 8 gp; <strong>Weight</strong> 24 lbs.<br/><strong>Category</strong> Tools</p><h2 class=\"framing\"><img src=\"modules/pf-content/assets/PathfinderSocietySymbol.gif\" style=\"margin:3px 3px 0px 3px;\" title=\"PFS Legal\"/>Description</h2>These paired stone or metal weights look like a pair of curved stones with handles. An athlete can take one weight in each hand and swing them back and forth before jumping, using the momentum to gain greater distance when taking off. Training with halteres requires 1 hour of practice and a DC 16 Acrobatics check. If you succeed at the check, you gain a +2 circumstance bonus on Acrobatics checks to make long jumps. This bonus lasts for 24 hours or until you fail an Acrobatics check.",
      "unidentified": ""
    },
    "tags": [],
    "quantity": 1,
    "weight": {
      "value": 24
    },
    "price": 8,
    "size": "med",
    "equipped": false,
    "resizing": false,
    "identified": true,
    "hp": {
      "max": 10,
      "value": 10
    },
    "broken": false,
    "hardness": 0,
    "carried": true,
    "unidentified": {
      "price": 0,
      "name": ""
    },
    "cl": 0,
    "aura": {
      "custom": false,
      "school": ""
    },
    "changes": [],
    "changeFlags": {
      "loseDexToAC": false,
      "noEncumbrance": false,
      "mediumArmorFullSpeed": false,
      "heavyArmorFullSpeed": false
    },
    "contextNotes": [],
    "links": {
      "children": []
    },
    "tag": "halteres",
    "useCustomTag": false,
    "flags": {
      "boolean": {},
      "dictionary": {
        "Category": "Tools"
      }
    },
    "scriptCalls": [],
    "subType": "gear",
    "extraType": "",
    "uses": {
      "value": 0,
      "max": 0
    }
  },
  "ownership": {
    "default": 0
  },
  "_stats": {
    "systemId": null,
    "systemVersion": null,
    "coreVersion": null,
    "createdTime": null,
    "modifiedTime": null,
    "lastModifiedBy": null
  },
  "_key": "!actors.items!e6kN1rNIhFaZykRh.ICbKHyMq0RfzSIlY"
}