{
  "_id": "9DtylEBnDVVAP0Ck",
  "name": "Hanging board",
  "type": "loot",
  "sort": 6200000,
  "flags": {},
  "img": "icons/commodities/leather/leather-patch-brown.webp",
  "effects": [],
  "folder": null,
  "system": {
    "description": {
      "value": "<p><strong>Source</strong> <em>Adventurer's Armory 2 pg. 14</em><br/><strong>Price</strong> 75 gp; <strong>Weight</strong> 7 lbs.<br/><strong>Category</strong> Tools</p><h2 class=\"framing\"><img src=\"modules/pf-content/assets/PathfinderSocietySymbol.gif\" style=\"margin:3px 3px 0px 3px;\" title=\"PFS Legal\"/>Description</h2>This wooden board bears a number of narrow, thin holes large enough to hold by the fingertips. The board mounts to a wall, allowing climbers to practice their technique and improve their grip by hanging from the board. Using a hanging board to improve your grip requires 1 hour of practice and a DC 18 Climb check. If you succeed at the check, you gain a +10 circumstance bonus on Climb checks to catch yourself while falling and a +5 bonus to catch a falling character while climbing. This bonus lasts for 24 hours.",
      "unidentified": ""
    },
    "tags": [],
    "quantity": 1,
    "weight": {
      "value": 7
    },
    "price": 75,
    "size": "med",
    "equipped": false,
    "resizing": false,
    "identified": true,
    "hp": {
      "max": 10,
      "value": 10
    },
    "broken": false,
    "hardness": 0,
    "carried": true,
    "unidentified": {
      "price": 0,
      "name": ""
    },
    "cl": 0,
    "aura": {
      "custom": false,
      "school": ""
    },
    "changes": [],
    "changeFlags": {
      "loseDexToAC": false,
      "noEncumbrance": false,
      "mediumArmorFullSpeed": false,
      "heavyArmorFullSpeed": false
    },
    "contextNotes": [],
    "links": {
      "children": []
    },
    "tag": "hangingBoard",
    "useCustomTag": false,
    "flags": {
      "boolean": {},
      "dictionary": {
        "Category": "Tools"
      }
    },
    "scriptCalls": [],
    "subType": "gear",
    "extraType": "",
    "uses": {
      "value": 0,
      "max": 0
    }
  },
  "ownership": {
    "default": 0
  },
  "_stats": {
    "systemId": null,
    "systemVersion": null,
    "coreVersion": null,
    "createdTime": null,
    "modifiedTime": null,
    "lastModifiedBy": null
  },
  "_key": "!actors.items!e6kN1rNIhFaZykRh.9DtylEBnDVVAP0Ck"
}