{
  "_id": "YJjtteYusOh6PLRi",
  "name": "Heathensnuff",
  "type": "consumable",
  "sort": 2900000,
  "flags": {},
  "img": "icons/commodities/materials/bowl-powder-grey.webp",
  "effects": [],
  "folder": null,
  "system": {
    "description": {
      "value": "<p><strong>Source</strong> <em>Cities of Golarion pg. 42</em><br/><strong>Price</strong> 10 gp; <strong>Weight</strong> -<br/><strong>Category</strong> Black Market</p><h2 class=\"framing\"><img src=\"modules/pf-content/assets/PathfinderSocietySymbol.gif\" style=\"margin:3px 3px 0px 3px;\" title=\"PFS Legal\"/>Description</h2>Others lacking the will to harden themselves appropriately turn to alchemical methods to endure. This purplish paste is made from sea urchin toxins and numbs the user's ability to sense pain. Illegal in Nidal, the drug is used mostly by those attempting to emulate true belief in Zon-Kuthon or who anticipate great pain. A dose gives the user the Endure Pain feat for 1 hour, though it also has debilitating side effects and leaves telltale reddish-purple stains around the nostrils for up to one day, easily identified by those familiar with the symptoms. Followers of the Midnight Lord believe using heathensnuff is a sure sign that an individual lacks faith.<br/><br/>Anyone who takes the drug must make a DC 10 saving throw or become addicted. A snuff addict can stave off withdrawal for 5 days by taking a dose; failure means he must save or take 1d4 Dex and 1d4 Wis damage. This save DC increases by +5 for every 5 days since the last time the addict had a dose. If the addict makes two of these saves in a row, he is no longer addicted. <em>Remove disease</em> can cure an addict if the caster's caster level check succeeds against a DC equal to the addict's current withdrawal DC. <em>Greater restoration</em> or heal cures the addiction without requiring a roll.<br/><br/><strong>Type</strong> poison, ingested; <strong>Save</strong> Fortitude DC 13<br/><strong>Frequency</strong> 1/hour for 4 hours<br/><strong>Initial Effect</strong> Endure Pain feat for 1 hour (see above);<br/><strong>Secondary Effect</strong> 1 Con damage; <strong>Cure</strong> 1 save<br/><strong>Cost</strong> 10 gp",
      "unidentified": ""
    },
    "tags": [],
    "quantity": 1,
    "weight": {
      "value": 0
    },
    "price": 10,
    "size": "med",
    "equipped": true,
    "resizing": false,
    "identified": true,
    "hp": {
      "max": 10,
      "value": 10
    },
    "broken": false,
    "hardness": 0,
    "carried": true,
    "unidentified": {
      "price": 0,
      "name": ""
    },
    "cl": 0,
    "aura": {
      "custom": false,
      "school": ""
    },
    "actions": [],
    "uses": {
      "per": null,
      "value": 0,
      "maxFormula": "",
      "pricePerUse": 0,
      "autoDeductChargesCost": "1",
      "max": 0
    },
    "attackNotes": [],
    "effectNotes": [],
    "links": {
      "children": [],
      "charges": []
    },
    "tag": "heathensnuff",
    "useCustomTag": false,
    "flags": {
      "boolean": {},
      "dictionary": {
        "Category": "Black Market"
      }
    },
    "scriptCalls": [],
    "subType": "drug",
    "showInQuickbar": false,
    "duration": {
      "value": null,
      "units": ""
    },
    "target": {
      "value": ""
    },
    "attackName": "",
    "actionType": null,
    "attackBonus": "",
    "critConfirmBonus": "",
    "damage": {
      "parts": [],
      "critParts": [],
      "nonCritParts": []
    },
    "attackParts": [],
    "formulaicAttacks": {
      "count": {
        "formula": "",
        "value": null
      },
      "bonus": {
        "formula": ""
      },
      "label": null
    },
    "formula": "",
    "ability": {
      "attack": null,
      "damage": null,
      "damageMult": 1,
      "critRange": 20,
      "critMult": 2
    },
    "save": {
      "dc": 0,
      "type": "",
      "description": ""
    },
    "soundEffect": "",
    "attack": {
      "parts": []
    }
  },
  "ownership": {
    "default": 0
  },
  "_stats": {
    "systemId": null,
    "systemVersion": null,
    "coreVersion": null,
    "createdTime": null,
    "modifiedTime": null,
    "lastModifiedBy": null
  },
  "_key": "!actors.items!nN8pFnzpXU2QBiDG.YJjtteYusOh6PLRi"
}