{
  "_id": "3Y0BaC7O36zD9I4f",
  "name": "Heated gloves",
  "type": "equipment",
  "sort": 2800000,
  "flags": {},
  "img": "icons/equipment/hand/glove-cuffed-studded-red.webp",
  "effects": [],
  "folder": null,
  "system": {
    "description": {
      "value": "<p><strong>Source</strong> <em>Merchant's Manifest pg. 13</em><br/><strong>Price</strong> 2 gp; <strong>Weight</strong> 1 lb.<br/><strong>Category</strong> Clothing</p><h2 class=\"framing\"><img src=\"modules/pf-content/assets/PathfinderSocietySymbol.gif\" style=\"margin:3px 3px 0px 3px;\" title=\"PFS Legal\"/>Description</h2>These thick, fur-lined gloves have several internal pockets containing segmented packets of alchemical reagents that produce heat for 4 hours when broken and mixed. The wearer can massage the gloves to activate these heat packets as a full-round action. While the heat packets last, the wearer ignores the Strength and Dexterity penalties from the fatigued condition when performing Climb, Disable Device, and Sleight of Hand checks. Replacement heat packets cost 1 gp, and the heat packets in the gloves can be replaced with 1 minute of uninterrupted work.",
      "unidentified": ""
    },
    "tags": [],
    "quantity": 1,
    "weight": {
      "value": 1
    },
    "price": 2,
    "size": "med",
    "equipped": true,
    "resizing": false,
    "identified": true,
    "hp": {
      "max": 10,
      "value": 10
    },
    "broken": false,
    "hardness": 0,
    "carried": true,
    "unidentified": {
      "price": 0,
      "name": ""
    },
    "cl": 0,
    "aura": {
      "custom": false,
      "school": ""
    },
    "changes": [],
    "changeFlags": {
      "loseDexToAC": false,
      "noEncumbrance": false,
      "mediumArmorFullSpeed": false,
      "heavyArmorFullSpeed": false
    },
    "contextNotes": [],
    "actions": [],
    "uses": {
      "per": null,
      "value": 0,
      "maxFormula": "",
      "autoDeductChargesCost": "1",
      "max": 0
    },
    "attackNotes": [],
    "effectNotes": [],
    "links": {
      "children": [],
      "charges": []
    },
    "tag": "heatedGloves",
    "useCustomTag": false,
    "flags": {
      "boolean": {},
      "dictionary": {}
    },
    "scriptCalls": [],
    "masterwork": false,
    "enh": null,
    "proficient": true,
    "held": "normal",
    "subType": "clothing",
    "baseTypes": [],
    "equipmentSubtype": "lightArmor",
    "armor": {
      "value": 0,
      "dex": null,
      "acp": 0,
      "enh": 0
    },
    "spellFailure": 0,
    "slot": "hands",
    "showInQuickbar": false,
    "duration": {
      "value": null,
      "units": ""
    },
    "target": {
      "value": ""
    },
    "attackName": "",
    "actionType": null,
    "attackBonus": "",
    "critConfirmBonus": "",
    "damage": {
      "parts": [],
      "critParts": [],
      "nonCritParts": []
    },
    "attackParts": [],
    "formulaicAttacks": {
      "count": {
        "formula": "",
        "value": null
      },
      "bonus": {
        "formula": ""
      },
      "label": null
    },
    "formula": "",
    "ability": {
      "attack": null,
      "damage": null,
      "damageMult": 1,
      "critRange": 20,
      "critMult": 2
    },
    "save": {
      "dc": 0,
      "type": "",
      "description": ""
    },
    "soundEffect": "",
    "attackType": "weapon",
    "nonlethal": false,
    "attack": {
      "parts": []
    }
  },
  "ownership": {
    "default": 0
  },
  "_stats": {
    "systemId": null,
    "systemVersion": null,
    "coreVersion": null,
    "createdTime": null,
    "modifiedTime": null,
    "lastModifiedBy": null
  },
  "_key": "!actors.items!If2hjs4hEuT4fmUq.3Y0BaC7O36zD9I4f"
}