{
  "_id": "Vq5wCb8Rud7SKYb8",
  "name": "Hookah, Premium",
  "type": "loot",
  "sort": 400000,
  "flags": {},
  "img": "icons/sundries/misc/pipe-wooden-01.webp",
  "effects": [],
  "folder": null,
  "system": {
    "description": {
      "value": "<p><strong>Source</strong> <em>Alchemy Manual pg. 18</em><br/><strong>Price</strong> 1,000 gp; <strong>Weight</strong> 15 lbs.<br/><strong>Category</strong> Black Market</p><h2 class=\"framing\"><img src=\"modules/pf-content/assets/PathfinderSocietySymbol.gif\" style=\"margin:3px 3px 0px 3px;\" title=\"PFS Legal\"/>Description</h2>A premium hookah is similar to a standard hookah, except it sports enough hoses for up to eight adjacent creatures to use, and the bowl has three separate compartments, each of which can store a different type of inhalable drug, alchemical powder, or alchemical liquid. Each compartment can hold up to 3 doses of an inhalable substance (so a premium hookah can hold up to 9 doses total). Consuming these contents is still a move action. You can reload a single compartment as a move action, or you can reload all three compartments as a full-round action.",
      "unidentified": ""
    },
    "tags": [],
    "quantity": 1,
    "weight": {
      "value": 15
    },
    "price": 1000,
    "size": "med",
    "equipped": false,
    "resizing": false,
    "identified": true,
    "hp": {
      "max": 10,
      "value": 10
    },
    "broken": false,
    "hardness": 0,
    "carried": true,
    "unidentified": {
      "price": 0,
      "name": ""
    },
    "cl": 0,
    "aura": {
      "custom": false,
      "school": ""
    },
    "changes": [],
    "changeFlags": {
      "loseDexToAC": false,
      "noEncumbrance": false,
      "mediumArmorFullSpeed": false,
      "heavyArmorFullSpeed": false
    },
    "contextNotes": [],
    "links": {
      "children": []
    },
    "tag": "hookahPremium",
    "useCustomTag": false,
    "flags": {
      "boolean": {},
      "dictionary": {
        "Category": "Black Market"
      }
    },
    "scriptCalls": [],
    "subType": "tradeGoods",
    "extraType": "",
    "uses": {
      "value": 0,
      "max": 0
    },
    "damage": {
      "parts": [],
      "critParts": [],
      "nonCritParts": []
    }
  },
  "ownership": {
    "default": 0
  },
  "_stats": {
    "systemId": null,
    "systemVersion": null,
    "coreVersion": null,
    "createdTime": null,
    "modifiedTime": null,
    "lastModifiedBy": null
  },
  "_key": "!actors.items!nN8pFnzpXU2QBiDG.Vq5wCb8Rud7SKYb8"
}