{
  "_id": "TSt8uH8jUepvfIJ4",
  "name": "Impact Foam",
  "type": "consumable",
  "sort": 13500000,
  "flags": {},
  "img": "icons/commodities/materials/slime-white.webp",
  "effects": [],
  "folder": null,
  "system": {
    "description": {
      "value": "<p><strong>Source</strong> <em>Ultimate Equipment pg. 103</em><br/><strong>Price</strong> 25 gp; <strong>Weight</strong> 1 lb.<br/><strong>Category</strong> Alchemical Tools</p><h2 class=\"framing\"><img src=\"modules/pf-content/assets/PathfinderSocietySymbol.gif\" style=\"margin:3px 3px 0px 3px;\" title=\"PFS Legal\"/>Description</h2>This milky white liquid bubbles into a 1-foot-thick semisolid sheet of foam when splashed across the ground. You can spend a minute to apply a flask of impact foam to a 10-foot-radius area, or you can throw the flask as a splash weapon. The foam does not interfere with movement, but reacts strongly to sudden force. A creature that falls onto a sheet of impact foam ignores the first 1d6 points of falling damage and converts the second 1d6 points of falling damage into nonlethal damage. A sheet of impact foam dissolves after 10 minutes or when exposed to at least a gallon of water.<h2 class=\"framing\">Construction</h2><strong>Craft (Alchemy)</strong> DC 20",
      "unidentified": ""
    },
    "tags": [],
    "quantity": 1,
    "weight": {
      "value": 1
    },
    "price": 25,
    "size": "med",
    "equipped": true,
    "resizing": false,
    "identified": true,
    "hp": {
      "max": 10,
      "value": 10
    },
    "broken": false,
    "hardness": 0,
    "carried": true,
    "unidentified": {
      "price": 0,
      "name": ""
    },
    "cl": 0,
    "aura": {
      "custom": false,
      "school": ""
    },
    "actions": [],
    "uses": {
      "per": null,
      "value": 0,
      "maxFormula": "",
      "pricePerUse": 0,
      "autoDeductChargesCost": "1",
      "max": 0
    },
    "attackNotes": [],
    "effectNotes": [],
    "links": {
      "children": [],
      "charges": []
    },
    "tag": "impactFoam",
    "useCustomTag": false,
    "flags": {
      "boolean": {},
      "dictionary": {
        "Category": "Alchemical Tools"
      }
    },
    "scriptCalls": [],
    "subType": "misc",
    "showInQuickbar": false,
    "duration": {
      "value": null,
      "units": ""
    },
    "target": {
      "value": ""
    },
    "attackName": "",
    "actionType": null,
    "attackBonus": "",
    "critConfirmBonus": "",
    "damage": {
      "parts": [],
      "critParts": [],
      "nonCritParts": []
    },
    "attackParts": [],
    "formulaicAttacks": {
      "count": {
        "formula": "",
        "value": null
      },
      "bonus": {
        "formula": ""
      },
      "label": null
    },
    "formula": "",
    "ability": {
      "attack": null,
      "damage": null,
      "damageMult": 1,
      "critRange": 20,
      "critMult": 2
    },
    "save": {
      "dc": 0,
      "type": "",
      "description": ""
    },
    "soundEffect": "",
    "attack": {
      "parts": []
    }
  },
  "ownership": {
    "default": 0
  },
  "_stats": {
    "systemId": null,
    "systemVersion": null,
    "coreVersion": null,
    "createdTime": null,
    "modifiedTime": null,
    "lastModifiedBy": null
  },
  "_key": "!actors.items!CCkERpkJdM2ZhIti.TSt8uH8jUepvfIJ4"
}