{
  "_id": "3N54DisgcZXXGHjb",
  "name": "Instrument of the divine",
  "type": "loot",
  "sort": 6600000,
  "flags": {},
  "img": "icons/commodities/materials/hair-tuft-brown-gold.webp",
  "effects": [],
  "folder": null,
  "system": {
    "description": {
      "value": "<p><strong>Source</strong> <em>Adventurer's Armory pg. 25</em><br/><strong>Price</strong> 200 gp; <strong>Weight</strong> 3 lbs.<br/><strong>Category</strong> Channel Foci<br/><strong>Deity</strong> Any</p><h2 class=\"framing\"><img src=\"modules/pf-content/assets/PathfinderSocietySymbol.gif\" style=\"margin:3px 3px 0px 3px;\" title=\"PFS Legal\"/>Description</h2>This masterwork musical instrument may be of any type (lyre, harp, drum, and so on). As a focus, it transforms faith into powerful music. Once activated, a member of the cleric's faith can draw upon the power in the instrument to add a sacred (if positive energy) or profane (if negative energy) bonus on his next Perform check; this bonus is equal to the number of dice of the cleric's channel energy ability. The bonus persists for the entirety of the performance.",
      "unidentified": ""
    },
    "tags": [],
    "quantity": 1,
    "weight": {
      "value": 3
    },
    "price": 200,
    "size": "med",
    "equipped": false,
    "resizing": false,
    "identified": true,
    "hp": {
      "max": 10,
      "value": 10
    },
    "broken": false,
    "hardness": 0,
    "carried": true,
    "unidentified": {
      "price": 0,
      "name": ""
    },
    "cl": 0,
    "aura": {
      "custom": false,
      "school": ""
    },
    "changes": [],
    "changeFlags": {
      "loseDexToAC": false,
      "noEncumbrance": false,
      "mediumArmorFullSpeed": false,
      "heavyArmorFullSpeed": false
    },
    "contextNotes": [],
    "links": {
      "children": []
    },
    "tag": "instrumentOfTheDivine",
    "useCustomTag": false,
    "flags": {
      "boolean": {},
      "dictionary": {
        "Category": "Channel Foci"
      }
    },
    "scriptCalls": [],
    "subType": "gear",
    "extraType": "",
    "uses": {
      "value": 0,
      "max": 0
    }
  },
  "ownership": {
    "default": 0
  },
  "_stats": {
    "systemId": null,
    "systemVersion": null,
    "coreVersion": null,
    "createdTime": null,
    "modifiedTime": null,
    "lastModifiedBy": null
  },
  "_key": "!actors.items!e6kN1rNIhFaZykRh.3N54DisgcZXXGHjb"
}