{
  "_id": "EBmyitmxIomBfZbI",
  "name": "Linguist's codex",
  "type": "loot",
  "sort": 9200000,
  "flags": {},
  "img": "icons/commodities/materials/hair-tuft-brown-gold.webp",
  "effects": [],
  "folder": null,
  "system": {
    "description": {
      "value": "<p><strong>Source</strong> <em>Adventurer's Armory pg. 25</em><br/><strong>Price</strong> +50 gp; <strong>Weight</strong> 1 lb.<br/><strong>Category</strong> Channel Foci<br/><strong>Deity</strong> Any</p><h2 class=\"framing\"><img src=\"modules/pf-content/assets/PathfinderSocietySymbol.gif\" style=\"margin:3px 3px 0px 3px;\" title=\"PFS Legal\"/>Description</h2>This sturdy lock may be of any quality; the cost of making it a channel focus is in addition to the normal lock cost. When activated, the lock's Disable Device DC and the break DC for whatever it is locking (such as a door or chest) increase by 5; the lock gains +2 hardness and +4 hit points. The lock retains these bonuses for 24 hours or until it is forced open (including picking the lock).",
      "unidentified": ""
    },
    "tags": [],
    "quantity": 1,
    "weight": {
      "value": 1
    },
    "price": 50,
    "size": "med",
    "equipped": false,
    "resizing": false,
    "identified": true,
    "hp": {
      "max": 10,
      "value": 10
    },
    "broken": false,
    "hardness": 0,
    "carried": true,
    "unidentified": {
      "price": 0,
      "name": ""
    },
    "cl": 0,
    "aura": {
      "custom": false,
      "school": ""
    },
    "changes": [],
    "changeFlags": {
      "loseDexToAC": false,
      "noEncumbrance": false,
      "mediumArmorFullSpeed": false,
      "heavyArmorFullSpeed": false
    },
    "contextNotes": [],
    "links": {
      "children": []
    },
    "tag": "lockOfTheSaved",
    "useCustomTag": false,
    "flags": {
      "boolean": {},
      "dictionary": {
        "Category": "Channel Foci"
      }
    },
    "scriptCalls": [],
    "subType": "gear",
    "extraType": "",
    "uses": {
      "value": 0,
      "max": 0
    }
  },
  "ownership": {
    "default": 0
  },
  "_stats": {
    "systemId": null,
    "systemVersion": null,
    "coreVersion": null,
    "createdTime": null,
    "modifiedTime": null,
    "lastModifiedBy": null
  },
  "_key": "!actors.items!e6kN1rNIhFaZykRh.EBmyitmxIomBfZbI"
}