{
  "_id": "sh1JM4hJNsJB0bRs",
  "name": "Litmus Strip",
  "type": "consumable",
  "sort": 16400000,
  "flags": {},
  "img": "icons/sundries/documents/parchment-plain-tan.webp",
  "effects": [],
  "folder": null,
  "system": {
    "description": {
      "value": "<p><strong>Source</strong> <em>Dungeoneer's Handbook pg. 26</em><br/><strong>Price</strong> 15 gp; <strong>Weight</strong> -<br/><strong>Category</strong> Alchemical Tools</p><h2 class=\"framing\"><img src=\"modules/pf-content/assets/PathfinderSocietySymbol.gif\" style=\"margin:3px 3px 0px 3px;\" title=\"PFS Legal\"/>Description</h2>This white paper strip treated with dyes extracted from common lichen is used to quickly test the composition of any wate-rbased solution. The user dips the end of the strip in the liquid and waits 1 round for the chemical reaction to change the color of the strip. If the strip turns purple, then the water contains poisonous toxins and must be purified before consumption. The darker purple the strip turns, the more toxic the substance. If the strip remains white, the solution is poison-free. Though it's not useful for testing oils, slimes, or gases, a strip can be invaluable in determining whether a water source or beverage is tainted.<h2 class=\"framing\">Construction</h2><strong>Craft (Alchemy)</strong> DC 20",
      "unidentified": ""
    },
    "tags": [],
    "quantity": 1,
    "weight": {
      "value": 0
    },
    "price": 15,
    "size": "med",
    "equipped": true,
    "resizing": false,
    "identified": true,
    "hp": {
      "max": 10,
      "value": 10
    },
    "broken": false,
    "hardness": 0,
    "carried": true,
    "unidentified": {
      "price": 0,
      "name": ""
    },
    "cl": 0,
    "aura": {
      "custom": false,
      "school": ""
    },
    "actions": [],
    "uses": {
      "per": null,
      "value": 0,
      "maxFormula": "",
      "pricePerUse": 0,
      "autoDeductChargesCost": "1",
      "max": 0
    },
    "attackNotes": [],
    "effectNotes": [],
    "links": {
      "children": [],
      "charges": []
    },
    "tag": "litmusStrip",
    "useCustomTag": false,
    "flags": {
      "boolean": {},
      "dictionary": {
        "Category": "Alchemical Tools"
      }
    },
    "scriptCalls": [],
    "subType": "misc",
    "showInQuickbar": false,
    "duration": {
      "value": null,
      "units": ""
    },
    "target": {
      "value": ""
    },
    "attackName": "",
    "actionType": null,
    "attackBonus": "",
    "critConfirmBonus": "",
    "damage": {
      "parts": [],
      "critParts": [],
      "nonCritParts": []
    },
    "attackParts": [],
    "formulaicAttacks": {
      "count": {
        "formula": "",
        "value": null
      },
      "bonus": {
        "formula": ""
      },
      "label": null
    },
    "formula": "",
    "ability": {
      "attack": null,
      "damage": null,
      "damageMult": 1,
      "critRange": 20,
      "critMult": 2
    },
    "save": {
      "dc": 0,
      "type": "",
      "description": ""
    },
    "soundEffect": "",
    "attack": {
      "parts": []
    }
  },
  "ownership": {
    "default": 0
  },
  "_stats": {
    "systemId": null,
    "systemVersion": null,
    "coreVersion": null,
    "createdTime": null,
    "modifiedTime": null,
    "lastModifiedBy": null
  },
  "_key": "!actors.items!CCkERpkJdM2ZhIti.sh1JM4hJNsJB0bRs"
}