{
  "_id": "ORqGvglNPpb5cboA",
  "name": "Longbeard Lambic",
  "type": "consumable",
  "sort": 4000000,
  "flags": {},
  "img": "systems/pf1/icons/items/inventory/tankard-full.jpg",
  "effects": [],
  "folder": null,
  "system": {
    "description": {
      "value": "<p><strong>Source</strong> <em>Alchemy Manual pg. 13</em><br/><strong>Price</strong> 20 gp; <strong>Weight</strong> 1 lb.<br/><strong>Category</strong> Alchemical Remedies</p><h2 class=\"framing\"><img src=\"modules/pf-content/assets/PathfinderSocietySymbol.gif\" style=\"margin:3px 3px 0px 3px;\" title=\"PFS Legal\"/>Description</h2>One of the oldest known dwarven ales, longbeard lambic is fermented with wild airborne yeasts and cultures, especially those that proliferate in the dank caves where it has been brewed since long before the Quest for Sky began. Longbeard lambic has a bracing effect that shocks the system. If the drinker is fatigued, shaken, or staggered, she can ignore these conditions for 1d4 rounds after imbibing longbeard lambic. In addition, a dose of longbeard lambic can reduce the exhausted condition to fatigued or the frightened condition to shaken (drinker's choice) for the same duration. If you consume a second longbeard lambic within 1 minute of the previous dose, you must succeed at a DC 15 Fortitude save or be nauseated for 1d4 rounds. The DC increases by 5 for each dose imbibed within the same time span. Dwarves gain a +5 racial bonus on this saving throw.<h2 class=\"framing\">Alchemical Recipe</h2><strong>Recipe</strong> (3 gold + 5 quicksilver + 4 spirit of wine)/fermentation; <strong>Craft</strong> 18<br/><strong>Time</strong> 1 week; <strong>Tools</strong> brewer's kit; <strong>Type</strong> alcohol",
      "unidentified": ""
    },
    "tags": [],
    "quantity": 1,
    "weight": {
      "value": 1
    },
    "price": 20,
    "size": "med",
    "equipped": true,
    "resizing": false,
    "identified": true,
    "hp": {
      "max": 10,
      "value": 10
    },
    "broken": false,
    "hardness": 0,
    "carried": true,
    "unidentified": {
      "price": 0,
      "name": ""
    },
    "cl": 0,
    "aura": {
      "custom": false,
      "school": ""
    },
    "actions": [],
    "uses": {
      "per": null,
      "value": 0,
      "maxFormula": "",
      "pricePerUse": 0,
      "autoDeductChargesCost": "1",
      "max": 0
    },
    "attackNotes": [],
    "effectNotes": [],
    "links": {
      "children": [],
      "charges": []
    },
    "tag": "longbeardLambic",
    "useCustomTag": false,
    "flags": {
      "boolean": {},
      "dictionary": {
        "Category": "Alchemical Remedies"
      }
    },
    "scriptCalls": [],
    "subType": "potion",
    "showInQuickbar": false,
    "duration": {
      "value": null,
      "units": ""
    },
    "target": {
      "value": ""
    },
    "attackName": "",
    "actionType": "",
    "attackBonus": "",
    "critConfirmBonus": "",
    "damage": {
      "parts": [],
      "critParts": [],
      "nonCritParts": []
    },
    "attackParts": [],
    "formulaicAttacks": {
      "count": {
        "formula": "",
        "value": null
      },
      "bonus": {
        "formula": ""
      },
      "label": null
    },
    "formula": "",
    "ability": {
      "attack": null,
      "damage": null,
      "damageMult": 1,
      "critRange": 20,
      "critMult": 2
    },
    "save": {
      "dc": 0,
      "type": "",
      "description": ""
    },
    "soundEffect": "",
    "attack": {
      "parts": []
    }
  },
  "ownership": {
    "default": 0
  },
  "_stats": {
    "systemId": null,
    "systemVersion": null,
    "coreVersion": null,
    "createdTime": null,
    "modifiedTime": null,
    "lastModifiedBy": null
  },
  "_key": "!actors.items!IiFJeAJs0HgXmQMS.ORqGvglNPpb5cboA"
}