{
  "_id": "YmHDWNhvz1L51zqk",
  "name": "Monkey",
  "type": "loot",
  "sort": 7000000,
  "flags": {},
  "img": "icons/commodities/materials/slime-brown.webp",
  "effects": [],
  "folder": null,
  "system": {
    "description": {
      "value": "<p><strong>Source</strong> <em>Ultimate Equipment pg. 80</em>, <em>Adventurer's Armory pg. 19</em><br/><strong>Price</strong> 3 gp; <strong>Weight</strong> 5 lbs.<br/><strong>Category</strong> Mounts/Pets</p><h2 class=\"framing\"><img src=\"modules/pf-content/assets/PathfinderSocietySymbolN.gif\" style=\"margin:3px 3px 0px 3px;\" title=\"A PC can only purchase an animal, mount, or similar creature if its Challenge Rating is lower than that character's level; creatures with a Challenge Rating of 1 or lower are exempt from this restriction, as are horses.\"/>Description</h2>These Tiny herbivorous primates can be found in a variety of habitats, but typically favor warm forests and jungles. They can grasp and carry objects that weigh under a pound. They are sometimes used as familiars. More information on monkeys can be found in the <em>Bestiary</em>.",
      "unidentified": ""
    },
    "tags": [],
    "quantity": 1,
    "weight": {
      "value": 5
    },
    "price": 3,
    "size": "med",
    "equipped": false,
    "resizing": false,
    "identified": true,
    "hp": {
      "max": 10,
      "value": 10
    },
    "broken": false,
    "hardness": 0,
    "carried": true,
    "unidentified": {
      "price": 0,
      "name": ""
    },
    "cl": 0,
    "aura": {
      "custom": false,
      "school": ""
    },
    "changes": [],
    "changeFlags": {
      "loseDexToAC": false,
      "noEncumbrance": false,
      "mediumArmorFullSpeed": false,
      "heavyArmorFullSpeed": false
    },
    "contextNotes": [],
    "links": {
      "children": []
    },
    "tag": "monkey",
    "useCustomTag": false,
    "flags": {
      "boolean": {},
      "dictionary": {
        "Category": "Mounts/Pets"
      }
    },
    "scriptCalls": [],
    "subType": "misc",
    "extraType": "",
    "uses": {
      "value": 0,
      "max": 0
    },
    "damage": {
      "parts": [],
      "critParts": [],
      "nonCritParts": []
    }
  },
  "ownership": {
    "default": 0
  },
  "_stats": {
    "systemId": null,
    "systemVersion": null,
    "coreVersion": null,
    "createdTime": null,
    "modifiedTime": null,
    "lastModifiedBy": null
  },
  "_key": "!actors.items!ZL2yKxLksxmMXN0W.YmHDWNhvz1L51zqk"
}