{
  "_id": "n3dEGWqMuEVW0oIR",
  "name": "Monochrome Camouflage",
  "type": "consumable",
  "sort": 18400000,
  "flags": {},
  "img": "icons/commodities/materials/bowl-liquid-white.webp",
  "effects": [],
  "folder": null,
  "system": {
    "description": {
      "value": "<p><strong>Source</strong> <em>Heroes of the Darklands pg. 30</em><br/><strong>Price</strong> 40 gp; <strong>Weight</strong> 1 lb.<br/><strong>Category</strong> Alchemical Tools</p><h2 class=\"framing\"><img src=\"modules/pf-content/assets/PathfinderSocietySymbol.gif\" style=\"margin:3px 3px 0px 3px;\" title=\"PFS Legal\"/>Description</h2>This slimy gray unguent distorts wavelengths of light beyond of the normal visual spectrum, causing you to appear blurry to creatures using darkvision. Applying the camouflage takes 1 minute and provides a +4 alchemical bonus on Stealth checks against creatures relying on darkvision to see. One dose of monochrome camouflage lasts for 1 hour.",
      "unidentified": ""
    },
    "tags": [],
    "quantity": 1,
    "weight": {
      "value": 1
    },
    "price": 40,
    "size": "med",
    "equipped": true,
    "resizing": false,
    "identified": true,
    "hp": {
      "max": 10,
      "value": 10
    },
    "broken": false,
    "hardness": 0,
    "carried": true,
    "unidentified": {
      "price": 0,
      "name": ""
    },
    "cl": 0,
    "aura": {
      "custom": false,
      "school": ""
    },
    "actions": [],
    "uses": {
      "per": null,
      "value": 0,
      "maxFormula": "",
      "pricePerUse": 0,
      "autoDeductChargesCost": "1",
      "max": 0
    },
    "attackNotes": [],
    "effectNotes": [],
    "links": {
      "children": [],
      "charges": []
    },
    "tag": "monochromeCamouflage",
    "useCustomTag": false,
    "flags": {
      "boolean": {},
      "dictionary": {
        "Category": "Alchemical Tools"
      }
    },
    "scriptCalls": [],
    "subType": "misc",
    "showInQuickbar": false,
    "duration": {
      "value": null,
      "units": ""
    },
    "target": {
      "value": ""
    },
    "attackName": "",
    "actionType": null,
    "attackBonus": "",
    "critConfirmBonus": "",
    "damage": {
      "parts": [],
      "critParts": [],
      "nonCritParts": []
    },
    "attackParts": [],
    "formulaicAttacks": {
      "count": {
        "formula": "",
        "value": null
      },
      "bonus": {
        "formula": ""
      },
      "label": null
    },
    "formula": "",
    "ability": {
      "attack": null,
      "damage": null,
      "damageMult": 1,
      "critRange": 20,
      "critMult": 2
    },
    "save": {
      "dc": 0,
      "type": "",
      "description": ""
    },
    "soundEffect": "",
    "attack": {
      "parts": []
    }
  },
  "ownership": {
    "default": 0
  },
  "_stats": {
    "systemId": null,
    "systemVersion": null,
    "coreVersion": null,
    "createdTime": null,
    "modifiedTime": null,
    "lastModifiedBy": null
  },
  "_key": "!actors.items!CCkERpkJdM2ZhIti.n3dEGWqMuEVW0oIR"
}