{
  "_id": "nNgq5ZZLHglTkocX",
  "name": "Muscle Grout",
  "type": "consumable",
  "sort": 4600000,
  "flags": {},
  "img": "icons/commodities/materials/bowl-powder-teal.webp",
  "effects": [],
  "folder": null,
  "system": {
    "description": {
      "value": "<p><strong>Source</strong> <em>Heroes of the Darklands pg. 30</em><br/><strong>Price</strong> 100 gp; <strong>Weight</strong> 1 lb.<br/><strong>Category</strong> Alchemical Remedies</p><h2 class=\"framing\"><img src=\"modules/pf-content/assets/PathfinderSocietySymbol.gif\" style=\"margin:3px 3px 0px 3px;\" title=\"PFS Legal\"/>Description</h2>A gritty salve with an earthy odor, muscle grout is frequently sold in areas where giant spiders or ropers haunt local trade routes. When massaged into the muscles as a full-round action, this ointment provides a +2 alchemical bonus on saving throws to resist nonmagical effects that cause Strength damage. Any Strength damage you take manifests gradually as the salve slows muscle decay; anytime you take Strength damage, you take only 1 point per round until the full amount of damage is dealt. Additional Strength damage adds to the total, but is dealt only at a maximum rate of 1 point per round, as long as the grout is active. A dose of muscle grout lasts for 10 minutes. One dose of muscle grout is sufficient for a Medium or smaller creature; Large creatures require 2 doses, Huge creatures require 4 doses, and so on.",
      "unidentified": ""
    },
    "tags": [],
    "quantity": 1,
    "weight": {
      "value": 1
    },
    "price": 100,
    "size": "med",
    "equipped": true,
    "resizing": false,
    "identified": true,
    "hp": {
      "max": 10,
      "value": 10
    },
    "broken": false,
    "hardness": 0,
    "carried": true,
    "unidentified": {
      "price": 0,
      "name": ""
    },
    "cl": 0,
    "aura": {
      "custom": false,
      "school": ""
    },
    "actions": [],
    "uses": {
      "per": null,
      "value": 0,
      "maxFormula": "",
      "pricePerUse": 0,
      "autoDeductChargesCost": "1",
      "max": 0
    },
    "attackNotes": [],
    "effectNotes": [],
    "links": {
      "children": [],
      "charges": []
    },
    "tag": "muscleGrout",
    "useCustomTag": false,
    "flags": {
      "boolean": {},
      "dictionary": {
        "Category": "Alchemical Remedies"
      }
    },
    "scriptCalls": [],
    "subType": "misc",
    "showInQuickbar": false,
    "duration": {
      "value": null,
      "units": ""
    },
    "target": {
      "value": ""
    },
    "attackName": "",
    "actionType": "",
    "attackBonus": "",
    "critConfirmBonus": "",
    "damage": {
      "parts": [],
      "critParts": [],
      "nonCritParts": []
    },
    "attackParts": [],
    "formulaicAttacks": {
      "count": {
        "formula": "",
        "value": null
      },
      "bonus": {
        "formula": ""
      },
      "label": null
    },
    "formula": "",
    "ability": {
      "attack": null,
      "damage": null,
      "damageMult": 1,
      "critRange": 20,
      "critMult": 2
    },
    "save": {
      "dc": 0,
      "type": "",
      "description": ""
    },
    "soundEffect": "",
    "attack": {
      "parts": []
    }
  },
  "ownership": {
    "default": 0
  },
  "_stats": {
    "systemId": null,
    "systemVersion": null,
    "coreVersion": null,
    "createdTime": null,
    "modifiedTime": null,
    "lastModifiedBy": null
  },
  "_key": "!actors.items!IiFJeAJs0HgXmQMS.nNgq5ZZLHglTkocX"
}