{
  "_id": "4CPpd62NrwkBohTa",
  "name": "Nightsage",
  "type": "consumable",
  "sort": 19300000,
  "flags": {},
  "img": "icons/commodities/flowers/lotus-purple.webp",
  "effects": [],
  "folder": null,
  "system": {
    "description": {
      "value": "<p><strong>Source</strong> <em>Ultimate Wilderness pg. 155</em>, <em>Heroes of the Wild pg. 10</em><br/><strong>Price</strong> 100 gp; <strong>Weight</strong> -<br/><strong>Category</strong> Herbs<br/><strong>Gather</strong> DC 14; <strong>Yield</strong> 1 dose<br/><strong>Terrain</strong> any jungles<br/><strong>Preparation</strong> A dose of nightsage must be sprinkled with holy water periodically over an 8-hour drying process in natural sunlight; this process requires a successful DC 12 Craft (alchemy) check and one flask of holy water.<br/><strong>Use</strong> When dried nightsage is lit on fire (a standard action), it produces a thin but pleasant-smelling smoke almost like that produced by a stick of incense. A dose of nightsage burns for 10 minutes and can be extinguished and reignited for multiple uses (but it is always used in 1 minute increments, regardless of the actual time spent burning).<br/><br/>While nightsage burns, each corporeal undead creature within a 5-foot radius gains a +2 profane bonus on saving throws against positive energy effects (including channel energy effects). Necromancers are fond of supplying their undead minions with small thuribles containing a burning stick of nightsage that can be worn while carrying out their commands. A moderate or stronger wind extinguishes a burning stick of nightsage.</p><h2 class=\"framing\"><img src=\"modules/pf-content/assets/PathfinderSocietySymbolN.gif\" style=\"margin:3px 3px 0px 3px;\" title=\"The herbalism subsystem is not legal for play; instead a PC with at least one rank in Craft (alchemy) and 1 rank in either Knowledge (nature) or Profession (herbalist) can purchase the herbs in this book at a 10% discount that does not stack with other discounts; if a PC's ranks in these skills are 5 or higher, the discount increases to 15%, and if a PC's ranks in these skills are 10 or higher, the discount increases to 20%\"/>Description</h2>The fragrant purple blossoms of this night-blooming wildflower are so deep in hue that they appear almost black.",
      "unidentified": ""
    },
    "tags": [],
    "quantity": 1,
    "weight": {
      "value": 0
    },
    "price": 100,
    "size": "med",
    "equipped": true,
    "resizing": false,
    "identified": true,
    "hp": {
      "max": 10,
      "value": 10
    },
    "broken": false,
    "hardness": 0,
    "carried": true,
    "unidentified": {
      "price": 0,
      "name": ""
    },
    "cl": 0,
    "aura": {
      "custom": false,
      "school": ""
    },
    "actions": [],
    "uses": {
      "per": null,
      "value": 0,
      "maxFormula": "",
      "pricePerUse": 0,
      "autoDeductChargesCost": "1",
      "max": 0
    },
    "attackNotes": [],
    "effectNotes": [],
    "links": {
      "children": [],
      "charges": []
    },
    "tag": "nightsage",
    "useCustomTag": false,
    "flags": {
      "boolean": {},
      "dictionary": {
        "Category": "Herbs"
      }
    },
    "scriptCalls": [],
    "subType": "misc",
    "showInQuickbar": false,
    "duration": {
      "value": null,
      "units": ""
    },
    "target": {
      "value": ""
    },
    "attackName": "",
    "actionType": null,
    "attackBonus": "",
    "critConfirmBonus": "",
    "damage": {
      "parts": [],
      "critParts": [],
      "nonCritParts": []
    },
    "attackParts": [],
    "formulaicAttacks": {
      "count": {
        "formula": "",
        "value": null
      },
      "bonus": {
        "formula": ""
      },
      "label": null
    },
    "formula": "",
    "ability": {
      "attack": null,
      "damage": null,
      "damageMult": 1,
      "critRange": 20,
      "critMult": 2
    },
    "save": {
      "dc": 0,
      "type": "",
      "description": ""
    },
    "soundEffect": "",
    "attack": {
      "parts": []
    }
  },
  "ownership": {
    "default": 0
  },
  "_stats": {
    "systemId": null,
    "systemVersion": null,
    "coreVersion": null,
    "createdTime": null,
    "modifiedTime": null,
    "lastModifiedBy": null
  },
  "_key": "!actors.items!CCkERpkJdM2ZhIti.4CPpd62NrwkBohTa"
}