{
  "_id": "79lLmtwoDOhXGbzD",
  "name": "Nostalgia Oil",
  "type": "consumable",
  "sort": 4700000,
  "flags": {},
  "img": "icons/commodities/materials/bowl-liquid-red.webp",
  "effects": [],
  "folder": null,
  "system": {
    "description": {
      "value": "<p><strong>Source</strong> <em>Adventurer's Guide pg. 147</em><br/><strong>Price</strong> 80 gp; <strong>Weight</strong> -<br/><strong>Category</strong> Alchemical Remedies</p><h2 class=\"framing\"><img src=\"modules/pf-content/assets/PathfinderSocietySymbol.gif\" style=\"margin:3px 3px 0px 3px;\" title=\"PFS Legal\"/>Description</h2>Pathfinders pride themselves on their camaraderie, and among the worst threats are those that can magically compel agents to fight among themselves. Nostalgia oil is a vial of concentrated aromatics that evoke positive memories of the Grand Lodge and common trials overcome during a Pathfinder's training. By dabbing this oil on her face, neck, or arms as a standard action, a Pathfinder gains a +2 alchemical bonus on saving throws against effects with the emotion<sup>UM</sup> descriptor and on secondary saving throws made to resist <em>dominate person</em> and similar compulsion effects that would force her to harm her allies or betray her mission. Applied in this way, a vial of nostalgia oil remains potent for 8 hours or until washed off with soap and water. Nostalgia oil can also be thrown as a splash weapon, extending its benefits for 1 hour to any Pathfinder struck with a direct hit. Alternatively, a creature can mix it with a pint of lantern oil or piece of incense, which grants half the nostalgia oil's benefits to all Pathfinders within 20 feet of the lantern or censor for 1 hour; any strong wind (21+ mph) dissipates the aroma for 1 minute.<br/><br/> Crafting a vial of nostalgia oil requires a successful DC 25 Craft (alchemy) check. Although most nostalgia oil is mixed to benefit only Pathfinder agents, other mixtures might be created to benefit only members of another clan, neighborhood, or organization.",
      "unidentified": ""
    },
    "tags": [],
    "quantity": 1,
    "weight": {
      "value": 0
    },
    "price": 80,
    "size": "med",
    "equipped": true,
    "resizing": false,
    "identified": true,
    "hp": {
      "max": 10,
      "value": 10
    },
    "broken": false,
    "hardness": 0,
    "carried": true,
    "unidentified": {
      "price": 0,
      "name": ""
    },
    "cl": 0,
    "aura": {
      "custom": false,
      "school": ""
    },
    "actions": [],
    "uses": {
      "per": null,
      "value": 0,
      "maxFormula": "",
      "pricePerUse": 0,
      "autoDeductChargesCost": "1",
      "max": 0
    },
    "attackNotes": [],
    "effectNotes": [],
    "links": {
      "children": [],
      "charges": []
    },
    "tag": "nostalgiaOil",
    "useCustomTag": false,
    "flags": {
      "boolean": {},
      "dictionary": {
        "Category": "Alchemical Remedies"
      }
    },
    "scriptCalls": [],
    "subType": "potion",
    "showInQuickbar": false,
    "duration": {
      "value": null,
      "units": ""
    },
    "target": {
      "value": ""
    },
    "attackName": "",
    "actionType": "",
    "attackBonus": "",
    "critConfirmBonus": "",
    "damage": {
      "parts": [],
      "critParts": [],
      "nonCritParts": []
    },
    "attackParts": [],
    "formulaicAttacks": {
      "count": {
        "formula": "",
        "value": null
      },
      "bonus": {
        "formula": ""
      },
      "label": null
    },
    "formula": "",
    "ability": {
      "attack": null,
      "damage": null,
      "damageMult": 1,
      "critRange": 20,
      "critMult": 2
    },
    "save": {
      "dc": 0,
      "type": "",
      "description": ""
    },
    "soundEffect": "",
    "attack": {
      "parts": []
    }
  },
  "ownership": {
    "default": 0
  },
  "_stats": {
    "systemId": null,
    "systemVersion": null,
    "coreVersion": null,
    "createdTime": null,
    "modifiedTime": null,
    "lastModifiedBy": null
  },
  "_key": "!actors.items!IiFJeAJs0HgXmQMS.79lLmtwoDOhXGbzD"
}