{
  "_id": "wY752xHfvXpjIh2p",
  "name": "Pseudodragon",
  "type": "loot",
  "sort": 9100000,
  "flags": {},
  "img": "icons/commodities/biological/wing-lizard-green.webp",
  "effects": [],
  "folder": null,
  "system": {
    "description": {
      "value": "<p><strong>Source</strong> <em>Ultimate Equipment pg. 80</em>, <em>Adventurer's Armory pg. 19</em><br/><strong>Price</strong> 200 gp; <strong>Weight</strong> 7 lbs.<br/><strong>Category</strong> Mounts/Pets</p><h2 class=\"framing\"><img src=\"modules/pf-content/assets/PathfinderSocietySymbolN.gif\" style=\"margin:3px 3px 0px 3px;\" title=\"A pseudodragon is not legal for purchase unless you're a wizard with the Improved Familiar feat\"/>Description</h2>Found primarily in temperate forests, pseudodragons are intelligent enough that some consider their sale slavery. A handful of pseudodragons offer themselves for hire to adventurers, typically for half their listed price per week of work. For more information, see the <em>Bestiary</em>.",
      "unidentified": ""
    },
    "tags": [],
    "quantity": 1,
    "weight": {
      "value": 7
    },
    "price": 200,
    "size": "med",
    "equipped": false,
    "resizing": false,
    "identified": true,
    "hp": {
      "max": 10,
      "value": 10
    },
    "broken": false,
    "hardness": 0,
    "carried": true,
    "unidentified": {
      "price": 0,
      "name": ""
    },
    "cl": 0,
    "aura": {
      "custom": false,
      "school": ""
    },
    "changes": [],
    "changeFlags": {
      "loseDexToAC": false,
      "noEncumbrance": false,
      "mediumArmorFullSpeed": false,
      "heavyArmorFullSpeed": false
    },
    "contextNotes": [],
    "links": {
      "children": []
    },
    "tag": "pseudodragon",
    "useCustomTag": false,
    "flags": {
      "boolean": {},
      "dictionary": {
        "Category": "Mounts/Pets"
      }
    },
    "scriptCalls": [],
    "subType": "misc",
    "extraType": "",
    "uses": {
      "value": 0,
      "max": 0
    }
  },
  "ownership": {
    "default": 0
  },
  "_stats": {
    "systemId": null,
    "systemVersion": null,
    "coreVersion": null,
    "createdTime": null,
    "modifiedTime": null,
    "lastModifiedBy": null
  },
  "_key": "!actors.items!ZL2yKxLksxmMXN0W.wY752xHfvXpjIh2p"
}