{
  "_id": "7sdf4blaHkFqqEfv",
  "name": "Rhinoceros, Wholly",
  "type": "loot",
  "sort": 5700000,
  "flags": {},
  "img": "icons/commodities/bones/hooves-cloven-brown.webp",
  "effects": [],
  "folder": null,
  "system": {
    "description": {
      "value": "<p><strong>Source</strong> <em>Animal Archive pg. 14</em><br/><strong>Price</strong> 3,000 gp (combat-trained), <img src=\"modules/pf-content/assets/PathfinderSocietySymbolN.gif\" style=\"margin:3px 3px 0px 3px;\" title=\"A PC can only purchase an animal, mount, or similar creature if its Challenge Rating is lower than that character's level; creatures with a Challenge Rating of 1 or lower are exempt from this restriction, as are horses.\"/> 2,000 gp (common), 2,000 gp (normal); <strong>Weight</strong> 3 tons (combat-trained), - (common), 3 tons (normal)</p><h2 class=\"framing\">Description</h2><em>Description from \"Riding Animals\" section of Animal Archive, page 14.</em><br/>When reared from birth, the following animals can easily be ridden by Small or Medium humanoids, depending on the riding animal's size. In addition, most of these animals can be purchased already trained for combat.Poached from the Realm of the Mammoth Lords, these hairy pachyderms are used by the orcs of Belkzen as mounts and living siege engines. As if these mounts weren't intimidating enough, the orcs outfit them with spiked metal barding and tusk blades.",
      "unidentified": ""
    },
    "tags": [],
    "quantity": 1,
    "weight": {
      "value": 8000
    },
    "price": 2000,
    "size": "med",
    "equipped": false,
    "resizing": false,
    "identified": true,
    "hp": {
      "max": 10,
      "value": 10
    },
    "broken": false,
    "hardness": 0,
    "carried": true,
    "unidentified": {
      "price": 0,
      "name": ""
    },
    "cl": 0,
    "aura": {
      "custom": false,
      "school": ""
    },
    "changes": [],
    "changeFlags": {
      "loseDexToAC": false,
      "noEncumbrance": false,
      "mediumArmorFullSpeed": false,
      "heavyArmorFullSpeed": false
    },
    "contextNotes": [],
    "links": {
      "children": []
    },
    "tag": "rhinocerosWholly",
    "useCustomTag": false,
    "flags": {
      "boolean": {},
      "dictionary": {
        "Category": "Mounts/Pets"
      }
    },
    "scriptCalls": [],
    "subType": "misc",
    "extraType": "",
    "uses": {
      "value": 0,
      "max": 0
    },
    "damage": {
      "parts": [],
      "critParts": [],
      "nonCritParts": []
    }
  },
  "ownership": {
    "default": 0
  },
  "_stats": {
    "systemId": null,
    "systemVersion": null,
    "coreVersion": null,
    "createdTime": null,
    "modifiedTime": null,
    "lastModifiedBy": null
  },
  "_key": "!actors.items!BF2w7sEj3MrUAqez.7sdf4blaHkFqqEfv"
}