{
  "_id": "FMzB4z26eXFmp1nU",
  "name": "Roc",
  "type": "loot",
  "sort": 4900000,
  "flags": {},
  "img": "icons/commodities/claws/claw-bird-pink.webp",
  "effects": [],
  "folder": null,
  "system": {
    "description": {
      "value": "<p><strong>Source</strong> <em>Animal Archive pg. 14</em><br/><strong>Price</strong> 10,800 gp (combat-trained), 7,200 gp (common); <strong>Weight</strong> - (combat-trained), - (common)</p><h2 class=\"framing\">Description</h2><em>Description from \"Riding Animals\" section of Animal Archive, page 14.</em><br/>When reared from birth, the following animals can easily be ridden by Small or Medium humanoids, depending on the riding animal's size. In addition, most of these animals can be purchased already trained for combat.",
      "unidentified": ""
    },
    "tags": [],
    "quantity": 1,
    "weight": {
      "value": 0
    },
    "price": 7200,
    "size": "med",
    "equipped": false,
    "resizing": false,
    "identified": true,
    "hp": {
      "max": 10,
      "value": 10
    },
    "broken": false,
    "hardness": 0,
    "carried": true,
    "unidentified": {
      "price": 0,
      "name": ""
    },
    "cl": 0,
    "aura": {
      "custom": false,
      "school": ""
    },
    "changes": [],
    "changeFlags": {
      "loseDexToAC": false,
      "noEncumbrance": false,
      "mediumArmorFullSpeed": false,
      "heavyArmorFullSpeed": false
    },
    "contextNotes": [],
    "links": {
      "children": []
    },
    "tag": "roc",
    "useCustomTag": false,
    "flags": {
      "boolean": {},
      "dictionary": {
        "Category": "Mounts/Pets"
      }
    },
    "scriptCalls": [],
    "subType": "misc",
    "extraType": "",
    "uses": {
      "value": 0,
      "max": 0
    },
    "damage": {
      "parts": [],
      "critParts": [],
      "nonCritParts": []
    }
  },
  "ownership": {
    "default": 0
  },
  "_stats": {
    "systemId": null,
    "systemVersion": null,
    "coreVersion": null,
    "createdTime": null,
    "modifiedTime": null,
    "lastModifiedBy": null
  },
  "_key": "!actors.items!BF2w7sEj3MrUAqez.FMzB4z26eXFmp1nU"
}