{
  "_id": "qTeVofVqN7SsWhAu",
  "name": "Scorpion, Greensting",
  "type": "loot",
  "sort": 10600000,
  "flags": {},
  "img": "icons/commodities/biological/stinger-insect-grey.webp",
  "effects": [],
  "folder": null,
  "system": {
    "description": {
      "value": "<p><strong>Source</strong> <em>Ultimate Equipment pg. 80</em><br/><strong>Price</strong> 15 gp; <strong>Weight</strong> 9 oz.<br/><strong>Category</strong> Mounts/Pets</p><h2 class=\"framing\"><img src=\"modules/pf-content/assets/PathfinderSocietySymbolN.gif\" style=\"margin:3px 3px 0px 3px;\" title=\"A PC can only purchase an animal, mount, or similar creature if its Challenge Rating is lower than that character's level; creatures with a Challenge Rating of 1 or lower are exempt from this restriction, as are horses.\"/>Description</h2>Typically found in forested areas, these Tiny scorpions sport pincers too small to be dangerous to anything larger than an insect, but they still possess a poisonous stinger. Sometimes they are kept as pets or serve as familiars. Greensting scorpions employed as familiars have an Intelligence score and lose the mindless trait. More information on greensting scorpions can be found in <em>Ultimate Magic</em>.",
      "unidentified": ""
    },
    "tags": [],
    "quantity": 1,
    "weight": {
      "value": 0.55
    },
    "price": 15,
    "size": "med",
    "equipped": false,
    "resizing": false,
    "identified": true,
    "hp": {
      "max": 10,
      "value": 10
    },
    "broken": false,
    "hardness": 0,
    "carried": true,
    "unidentified": {
      "price": 0,
      "name": ""
    },
    "cl": 0,
    "aura": {
      "custom": false,
      "school": ""
    },
    "changes": [],
    "changeFlags": {
      "loseDexToAC": false,
      "noEncumbrance": false,
      "mediumArmorFullSpeed": false,
      "heavyArmorFullSpeed": false
    },
    "contextNotes": [],
    "links": {
      "children": []
    },
    "tag": "scorpionGreensting",
    "useCustomTag": false,
    "flags": {
      "boolean": {},
      "dictionary": {
        "Category": "Mounts/Pets"
      }
    },
    "scriptCalls": [],
    "subType": "misc",
    "extraType": "",
    "uses": {
      "value": 0,
      "max": 0
    }
  },
  "ownership": {
    "default": 0
  },
  "_stats": {
    "systemId": null,
    "systemVersion": null,
    "coreVersion": null,
    "createdTime": null,
    "modifiedTime": null,
    "lastModifiedBy": null
  },
  "_key": "!actors.items!ZL2yKxLksxmMXN0W.qTeVofVqN7SsWhAu"
}