{
  "_id": "36aSdMse9dFy5O9n",
  "name": "Seahorse, Giant (Combat Trained)",
  "type": "loot",
  "sort": 5200000,
  "flags": {},
  "img": "modules/pf-content/icons/spell780.png",
  "effects": [],
  "folder": null,
  "system": {
    "description": {
      "value": "<p><strong>Source</strong> <em>Blood of the Sea pg. 19</em><br/><strong>Price</strong> <img src=\"modules/pf-content/assets/PathfinderSocietySymbol.gif\" style=\"margin:3px 3px 0px 3px;\" title=\"PFS Legal\"/> 500 gp (combat trained), <img src=\"modules/pf-content/assets/PathfinderSocietySymbol.gif\" style=\"margin:3px 3px 0px 3px;\" title=\"PFS Legal\"/> 350 gp (normal); <strong>Weight</strong> 1,200 lbs. (combat trained), 1,100 lbs. (normal)</p><h2 class=\"framing\">Description</h2>Giant seahorses (<em>Pathfinder RPG Bestiary</em> 4 234) are commonly used as mounts and beasts of burden by undersea races such as aquatic elves and tritons. Although they are often dismissed as too skittish to be ridden into a fight, seahorses are clever and, with diligent training, make loyal war steeds. Tritons in particular pride themselves on breeding and training seahorses to fight in battle or to serve as guard animals.",
      "unidentified": ""
    },
    "tags": [],
    "quantity": 1,
    "weight": {
      "value": 1200
    },
    "price": 500,
    "size": "med",
    "equipped": false,
    "resizing": false,
    "identified": true,
    "hp": {
      "max": 10,
      "value": 10
    },
    "broken": false,
    "hardness": 0,
    "carried": true,
    "unidentified": {
      "price": 0,
      "name": ""
    },
    "cl": 0,
    "aura": {
      "custom": false,
      "school": ""
    },
    "changes": [],
    "changeFlags": {
      "loseDexToAC": false,
      "noEncumbrance": false,
      "mediumArmorFullSpeed": false,
      "heavyArmorFullSpeed": false
    },
    "contextNotes": [],
    "links": {
      "children": []
    },
    "tag": "seahorseGiantCombatTrained",
    "useCustomTag": false,
    "flags": {
      "boolean": {},
      "dictionary": {
        "Category": "Mounts/Pets"
      }
    },
    "scriptCalls": [],
    "subType": "misc",
    "extraType": "",
    "uses": {
      "value": 0,
      "max": 0
    }
  },
  "ownership": {
    "default": 0
  },
  "_stats": {
    "systemId": null,
    "systemVersion": null,
    "coreVersion": null,
    "createdTime": null,
    "modifiedTime": null,
    "lastModifiedBy": null
  },
  "_key": "!actors.items!BF2w7sEj3MrUAqez.36aSdMse9dFy5O9n"
}