{
  "_id": "j6iUg62ozotaBAE9",
  "name": "Synthetic Mumia",
  "type": "consumable",
  "sort": 27300000,
  "flags": {},
  "img": "systems/pf1/icons/items/potions/unique-7.jpg",
  "effects": [],
  "folder": null,
  "system": {
    "description": {
      "value": "<p><strong>Source</strong> <em>Undead Slayer's Handbook pg. 9</em><br/><strong>Price</strong> 150 gp; <strong>Weight</strong> -<br/><strong>Category</strong> Alchemical Remedies</p><h2 class=\"framing\"><img src=\"modules/pf-content/assets/PathfinderSocietySymbol.gif\" style=\"margin:3px 3px 0px 3px;\" title=\"PFS Legal\"/>Description</h2>A laboratory-created version of the expensive and infamous Osirian drug mumia (<em>Pathfinder Campaign Setting: Lost Kingdoms</em> 21), synthetic mumia is a mixture of honey, embalming fluids, and various animal organs. The murky liquid comes enclosed in small packets made of intestine. Mumia and synthetic mumia may be taken interchangeably to stave off the effects of addiction to either substance, and is thus used by some mumia junkies hoping to quit their addiction. Crafting synthetic mumia requires a successful DC 14 Craft (Alchemy) check. <h2 class=\"title\">Synthetic Mumia</h2> <strong>Type </strong>ingested or injury; <strong>Addiction </strong>moderate, Fortitude DC 14<br/> <strong>Price </strong>150 gp<br/> <strong>Effects </strong>1 hour; +2 alchemical bonus on saving throws against spells and effects with the curse or disease descriptor, fatigue<br/> <strong>Damage </strong>1d2 Wis damage<h2 class=\"framing\">Construction</h2><strong>Craft (Alchemy)</strong> DC 14",
      "unidentified": ""
    },
    "tags": [],
    "quantity": 1,
    "weight": {
      "value": 0
    },
    "price": 150,
    "size": "med",
    "equipped": true,
    "resizing": false,
    "identified": true,
    "hp": {
      "max": 10,
      "value": 10
    },
    "broken": false,
    "hardness": 0,
    "carried": true,
    "unidentified": {
      "price": 0,
      "name": ""
    },
    "cl": 0,
    "aura": {
      "custom": false,
      "school": ""
    },
    "actions": [],
    "uses": {
      "per": null,
      "value": 0,
      "maxFormula": "",
      "pricePerUse": 0,
      "autoDeductChargesCost": "1",
      "max": 0
    },
    "attackNotes": [],
    "effectNotes": [],
    "links": {
      "children": [],
      "charges": []
    },
    "tag": "syntheticMumia",
    "useCustomTag": false,
    "flags": {
      "boolean": {},
      "dictionary": {
        "Category": "Alchemical Remedies"
      }
    },
    "scriptCalls": [],
    "subType": "drug",
    "showInQuickbar": false,
    "duration": {
      "value": null,
      "units": ""
    },
    "target": {
      "value": ""
    },
    "attackName": "",
    "actionType": "",
    "attackBonus": "",
    "critConfirmBonus": "",
    "damage": {
      "parts": [],
      "critParts": [],
      "nonCritParts": []
    },
    "attackParts": [],
    "formulaicAttacks": {
      "count": {
        "formula": "",
        "value": null
      },
      "bonus": {
        "formula": ""
      },
      "label": null
    },
    "formula": "",
    "ability": {
      "attack": null,
      "damage": null,
      "damageMult": 1,
      "critRange": 20,
      "critMult": 2
    },
    "save": {
      "dc": 0,
      "type": "",
      "description": ""
    },
    "soundEffect": "",
    "attack": {
      "parts": []
    }
  },
  "ownership": {
    "default": 0
  },
  "_stats": {
    "systemId": null,
    "systemVersion": null,
    "coreVersion": null,
    "createdTime": null,
    "modifiedTime": null,
    "lastModifiedBy": null
  },
  "_key": "!actors.items!CCkERpkJdM2ZhIti.j6iUg62ozotaBAE9"
}