{
  "_id": "nCrJqTmDU4HLAC9Y",
  "name": "Terror kite",
  "type": "loot",
  "sort": 3200000,
  "flags": {},
  "img": "icons/commodities/cloth/yarn-skein-white-grey.webp",
  "effects": [],
  "folder": null,
  "system": {
    "description": {
      "value": "<p><strong>Source</strong> <em>Advanced Race Guide pg. 165</em><br/><strong>Price</strong> 20 gp; <strong>Weight</strong> -<br/><strong>Category</strong> Entertainment</p><h2 class=\"framing\"><img src=\"modules/pf-content/assets/PathfinderSocietySymbol.gif\" style=\"margin:3px 3px 0px 3px;\" title=\"PFS Legal\"/>Description</h2>This small kite is usually painted with a fierce face and bright colors and is edged with serrated wooden blades. Its twine is strengthened by soaking it in glue and sometimes with crushed glass to give it a slight cutting edge. The kite has hardness 5 and 3 hit points. Participants in a kite battle make alternating sunder combat maneuvers against each other's kites; each successful maneuver allows a competitor to roll 1d6 points of damage against the opponent's kite. When a kite reaches 0 hit points, it is broken or its string is cut, and its player loses the match. In some matches, points are awarded for touching the kite's top to the opponent's string, with the winner being the first to reach a set point total. Those interested in kite-fighting may select the terror kite as a weapon for the purpose of feats such as Weapon Focus and Weapon Specialization, and apply these bonuses on kite damage rolls and on their sunder combat maneuver attempts made while using terror kites.",
      "unidentified": ""
    },
    "tags": [],
    "quantity": 1,
    "weight": {
      "value": 0
    },
    "price": 20,
    "size": "med",
    "equipped": false,
    "resizing": false,
    "identified": true,
    "hp": {
      "max": 10,
      "value": 10
    },
    "broken": false,
    "hardness": 0,
    "carried": true,
    "unidentified": {
      "price": 0,
      "name": ""
    },
    "cl": 0,
    "aura": {
      "custom": false,
      "school": ""
    },
    "changes": [],
    "changeFlags": {
      "loseDexToAC": false,
      "noEncumbrance": false,
      "mediumArmorFullSpeed": false,
      "heavyArmorFullSpeed": false
    },
    "contextNotes": [],
    "links": {
      "children": []
    },
    "tag": "terrorKite",
    "useCustomTag": false,
    "flags": {
      "boolean": {},
      "dictionary": {
        "Category": "Entertainment"
      }
    },
    "scriptCalls": [],
    "subType": "tradeGoods",
    "extraType": "",
    "uses": {
      "value": 0,
      "max": 0
    },
    "damage": {
      "parts": [],
      "critParts": [],
      "nonCritParts": []
    }
  },
  "ownership": {
    "default": 0
  },
  "_stats": {
    "systemId": null,
    "systemVersion": null,
    "coreVersion": null,
    "createdTime": null,
    "modifiedTime": null,
    "lastModifiedBy": null
  },
  "_key": "!actors.items!7uVk35v2pIQBJCvt.nCrJqTmDU4HLAC9Y"
}