{
  "_id": "osFSKHOElghv659b",
  "name": "Traveling bee hive",
  "type": "loot",
  "sort": 5000000,
  "flags": {},
  "img": "systems/pf1/icons/items/inventory/amber.jpg",
  "effects": [],
  "folder": null,
  "system": {
    "description": {
      "value": "<p><strong>Source</strong> <em>Advanced Class Guide pg. 206</em><br/><strong>Price</strong> 10 gp; <strong>Weight</strong> 10 lbs.<br/><strong>Category</strong> Animal Gear</p><h2 class=\"framing\"><img src=\"modules/pf-content/assets/PathfinderSocietySymbol.gif\" style=\"margin:3px 3px 0px 3px;\" title=\"PFS Legal\"/>Description</h2>These straw baskets provide a portable home for bees. They are dome shaped, with a hole in the top that a smaller woven basket covers as a cap. This hole allows for the harvesting of small amounts of honey without destroying the entire hive. Believing that certain bees provide for a superior crop yield, some farmers pay beekeepers to travel to their farms with the bees.<br/><br/> Destroying a traveling bee hive causes the bees to swarm, creating a 5-foot-radius cloud. A creature is blinded and for as long as it remains in the cloud, and must succeed at a DC 12 Fortitude saving throw or become sickened for 1 minute. The sickened condition is a poison effect.",
      "unidentified": ""
    },
    "tags": [],
    "quantity": 1,
    "weight": {
      "value": 10
    },
    "price": 10,
    "size": "med",
    "equipped": false,
    "resizing": false,
    "identified": true,
    "hp": {
      "max": 10,
      "value": 10
    },
    "broken": false,
    "hardness": 0,
    "carried": true,
    "unidentified": {
      "price": 0,
      "name": ""
    },
    "cl": 0,
    "aura": {
      "custom": false,
      "school": ""
    },
    "changes": [],
    "changeFlags": {
      "loseDexToAC": false,
      "noEncumbrance": false,
      "mediumArmorFullSpeed": false,
      "heavyArmorFullSpeed": false
    },
    "contextNotes": [],
    "links": {
      "children": []
    },
    "tag": "travelingBeeHive",
    "useCustomTag": false,
    "flags": {
      "boolean": {},
      "dictionary": {
        "Category": "Animal Gear"
      }
    },
    "scriptCalls": [],
    "subType": "gear",
    "extraType": "",
    "uses": {
      "value": 0,
      "max": 0
    },
    "damage": {
      "parts": [],
      "critParts": [],
      "nonCritParts": []
    }
  },
  "ownership": {
    "default": 0
  },
  "_stats": {
    "systemId": null,
    "systemVersion": null,
    "coreVersion": null,
    "createdTime": null,
    "modifiedTime": null,
    "lastModifiedBy": null
  },
  "_key": "!actors.items!o18MJTZtGKgoF7oy.osFSKHOElghv659b"
}