{
  "_id": "0XPC1uuRF6FiETcy",
  "name": "Vapors Of Easy Breath",
  "type": "consumable",
  "sort": 7100000,
  "flags": {},
  "img": "systems/pf1/icons/items/potions/minor-blue.jpg",
  "effects": [],
  "folder": null,
  "system": {
    "description": {
      "value": "<p><strong>Source</strong> <em>Alchemy Manual pg. 25</em><br/><strong>Price</strong> 75 gp; <strong>Weight</strong> 3 lbs.<br/><strong>Category</strong> Alchemical Remedies</p><h2 class=\"framing\"><img src=\"modules/pf-content/assets/PathfinderSocietySymbol.gif\" style=\"margin:3px 3px 0px 3px;\" title=\"PFS Legal\"/>Description</h2>This waxy ball of resin and herbs is stored in a large glass jar or other airtight container. When the jar is opened, it instantly evaporates into a soothing vapor that renders the lungs of any adjacent creatures resistant to inhaled poisons, diseases, and irritants such as choking smoke. Each creature within 5 feet of the jar when it is opened gains a +5 alchemical bonus on saving throws against such effects for the next 10 minutes. If already affected by an airborne affliction, an affected creature can immediately attempt another saving throw against the effect (with the +5 bonus); a creature can attempt only one such additional saving throw in a 24-hour period.<h2 class=\"framing\">Alchemical Recipe</h2><strong>Recipe</strong> (60 myrrh + 50 salt + 60 ginger extract)/congelation; <strong>Craft</strong> 25<br/><strong>Time</strong> 10 minutes; <strong>Tools</strong> alchemist's lab; <strong>Type</strong> alchemical remedy",
      "unidentified": ""
    },
    "tags": [],
    "quantity": 1,
    "weight": {
      "value": 3
    },
    "price": 75,
    "size": "med",
    "equipped": true,
    "resizing": false,
    "identified": true,
    "hp": {
      "max": 10,
      "value": 10
    },
    "broken": false,
    "hardness": 0,
    "carried": true,
    "unidentified": {
      "price": 0,
      "name": ""
    },
    "cl": 0,
    "aura": {
      "custom": false,
      "school": ""
    },
    "actions": [],
    "uses": {
      "per": null,
      "value": 0,
      "maxFormula": "",
      "pricePerUse": 0,
      "autoDeductChargesCost": "1",
      "max": 0
    },
    "attackNotes": [],
    "effectNotes": [],
    "links": {
      "children": [],
      "charges": []
    },
    "tag": "vaporsOfEasyBreath",
    "useCustomTag": false,
    "flags": {
      "boolean": {},
      "dictionary": {
        "Category": "Alchemical Remedies"
      }
    },
    "scriptCalls": [],
    "subType": "misc",
    "showInQuickbar": false,
    "duration": {
      "value": null,
      "units": ""
    },
    "target": {
      "value": ""
    },
    "attackName": "",
    "actionType": null,
    "attackBonus": "",
    "critConfirmBonus": "",
    "damage": {
      "parts": [],
      "critParts": [],
      "nonCritParts": []
    },
    "attackParts": [],
    "formulaicAttacks": {
      "count": {
        "formula": "",
        "value": null
      },
      "bonus": {
        "formula": ""
      },
      "label": null
    },
    "formula": "",
    "ability": {
      "attack": null,
      "damage": null,
      "damageMult": 1,
      "critRange": 20,
      "critMult": 2
    },
    "save": {
      "dc": 0,
      "type": "",
      "description": ""
    },
    "soundEffect": "",
    "attack": {
      "parts": []
    }
  },
  "ownership": {
    "default": 0
  },
  "_stats": {
    "systemId": null,
    "systemVersion": null,
    "coreVersion": null,
    "createdTime": null,
    "modifiedTime": null,
    "lastModifiedBy": null
  },
  "_key": "!actors.items!IiFJeAJs0HgXmQMS.0XPC1uuRF6FiETcy"
}