{
  "_id": "xJpuX5uE6dY6Py5Z",
  "flags": {
    "better-rolltables": {
      "brt-result-formula": {
        "formula": ""
      }
    }
  },
  "type": 2,
  "text": "Ice Storm",
  "img": "systems/pf1/icons/skills/ice_09.jpg",
  "collection": "pf1.spells",
  "resultId": "t1uhggjfimtabp4v",
  "weight": 4,
  "range": [
    51,
    54
  ],
  "drawn": false,
  "_key": "!tables.results!7OcSlcVtY2y1g8cy.xJpuX5uE6dY6Py5Z"
}