{
  "_id": "A7hTZCwQcRkbGOEX",
  "flags": {
    "better-rolltables": {
      "brt-result-formula": {
        "formula": ""
      }
    }
  },
  "type": 2,
  "text": "Uncommon Level 7 Arcane Scrolls",
  "img": "icons/sundries/scrolls/scroll-bound-ruby-red.webp",
  "collection": "pf-content.pf-magic-tables",
  "resultId": "0CkmG2h2ltHnB3Gb",
  "weight": 30,
  "range": [
    6,
    35
  ],
  "drawn": false,
  "_key": "!tables.results!ODSFGMRfWFWOUeuA.A7hTZCwQcRkbGOEX"
}