{
  "_id": "LXLLKewL0yj2Z1UL",
  "flags": {
    "better-rolltables": {
      "brt-result-formula": {
        "formula": ""
      }
    }
  },
  "type": 2,
  "text": "Sica",
  "img": "systems/pf1/icons/items/weapons/sica.png",
  "collection": "pf1.weapons-and-ammo",
  "resultId": "P3gUxPKX72ZnojXx",
  "weight": 1,
  "range": [
    46,
    46
  ],
  "drawn": false,
  "_key": "!tables.results!72zqtiYTb1AiDydF.LXLLKewL0yj2Z1UL"
}