{
  "_id": "OjtnMAcZ3dmKU9z0",
  "flags": {
    "better-rolltables": {
      "brt-result-formula": {
        "formula": ""
      }
    }
  },
  "type": 2,
  "text": "Dominate Person",
  "img": "systems/pf1/icons/misc/magic-swirl.png",
  "collection": "pf1.spells",
  "resultId": "q070n0zoq3zojpas",
  "weight": 5,
  "range": [
    27,
    31
  ],
  "drawn": false,
  "_key": "!tables.results!SqnA7sT1iAMTwaXW.OjtnMAcZ3dmKU9z0"
}