{
  "_id": "3B4SOCXwOIhtf9AV",
  "flags": {
    "better-rolltables": {
      "brt-result-formula": {
        "formula": ""
      }
    }
  },
  "type": 2,
  "text": "Contagious Flame",
  "img": "systems/pf1/icons/misc/magic-swirl.png",
  "collection": "pf1.spells",
  "resultId": "0cbreqkr1vp7meyi",
  "weight": 5,
  "range": [
    16,
    20
  ],
  "drawn": false,
  "_key": "!tables.results!G9O3WmOBE4zquqTi.3B4SOCXwOIhtf9AV"
}