{
  "_id": "PQeeiEqEeEfK3DvC",
  "flags": {
    "better-rolltables": {
      "brt-result-formula": {
        "formula": ""
      }
    }
  },
  "type": 2,
  "text": "Burning Gaze",
  "img": "systems/pf1/icons/misc/magic-swirl.png",
  "collection": "pf1.spells",
  "resultId": "1wnzvfrpl2gp829u",
  "weight": 3,
  "range": [
    7,
    9
  ],
  "drawn": false,
  "_key": "!tables.results!GTSdrB8MokztIHzW.PQeeiEqEeEfK3DvC"
}