{
  "_id": "plc1ZsDSEJJ5adjc",
  "flags": {
    "better-rolltables": {
      "brt-result-formula": {
        "formula": ""
      }
    }
  },
  "type": 2,
  "text": "Status",
  "img": "systems/pf1/icons/misc/magic-swirl.png",
  "collection": "pf1.spells",
  "resultId": "4ya1fs9tyvsqnwqx",
  "weight": 8,
  "range": [
    83,
    90
  ],
  "drawn": false,
  "_key": "!tables.results!KbGqR2w7YPK5iXMw.plc1ZsDSEJJ5adjc"
}