{
  "_id": "6K7OjVUiIl6DR30H",
  "flags": {},
  "type": 2,
  "text": "Fire Shield",
  "img": "systems/pf1/icons/misc/magic-swirl.png",
  "collection": "pf1.spells",
  "resultId": "nfm6i9z9r3n2fku7",
  "weight": 2,
  "range": [
    43,
    44
  ],
  "drawn": false,
  "_key": "!tables.results!VmPCNRAGvxhJBFwf.6K7OjVUiIl6DR30H"
}