{
  "_id": "t3kXwJ2XCMJQeqrF",
  "flags": {},
  "type": 2,
  "text": "Arcane Eye",
  "img": "systems/pf1/icons/misc/magic-swirl.png",
  "collection": "pf1.spells",
  "resultId": "fmuea6pmgrylbux7",
  "weight": 3,
  "range": [
    2,
    4
  ],
  "drawn": false,
  "_key": "!tables.results!MNyecR1TI8xc6Bmc.t3kXwJ2XCMJQeqrF"
}