{
  "_id": "b0oMOy4F0fkbhtc6",
  "flags": {
    "better-rolltables": {
      "brt-result-formula": {
        "formula": ""
      }
    }
  },
  "type": 2,
  "text": "Hold Portal",
  "img": "systems/pf1/icons/misc/magic-swirl.png",
  "collection": "pf1.spells",
  "resultId": "2ubwr3811rn9jvop",
  "weight": 3,
  "range": [
    44,
    46
  ],
  "drawn": false,
  "_key": "!tables.results!cYCnZgLBjKS3rxV2.b0oMOy4F0fkbhtc6"
}