{
  "_id": "CN8xN260LbBf2SgK",
  "flags": {
    "better-rolltables": {
      "brt-result-formula": {
        "formula": ""
      }
    }
  },
  "type": 2,
  "text": "Greater Medium Staff",
  "img": "icons/weapons/staves/staff-obsidian.webp",
  "collection": "pf-content.pf-magic-tables",
  "resultId": "RnkW3DRX8e7c9IaR",
  "weight": 1,
  "range": [
    60,
    62
  ],
  "drawn": false,
  "rangeL": 60,
  "rangeH": 62,
  "_key": "!tables.results!Ki0kXJ5yPIe8gi2r.CN8xN260LbBf2SgK"
}