{
  "_id": "Gao7iYo7LMkTTMdM",
  "flags": {
    "better-rolltables": {
      "brt-result-formula": {
        "formula": ""
      }
    }
  },
  "type": 2,
  "text": "Gladius",
  "img": "systems/pf1/icons/items/weapons/sword-short.PNG",
  "collection": "pf1.weapons-and-ammo",
  "resultId": "EC7p0d1z4wtFhThr",
  "weight": 1,
  "range": [
    13,
    13
  ],
  "drawn": false,
  "_key": "!tables.results!72zqtiYTb1AiDydF.Gao7iYo7LMkTTMdM"
}