{
  "_id": "uJGZqUBGAij3NkoF",
  "flags": {},
  "type": 2,
  "text": "Flame Arrow",
  "img": "systems/pf1/icons/misc/magic-swirl.png",
  "collection": "pf1.spells",
  "resultId": "sw043b79qfk3lj2e",
  "weight": 1,
  "range": [
    35,
    35
  ],
  "drawn": false,
  "_key": "!tables.results!0aVojCkNbt3BZgNp.uJGZqUBGAij3NkoF"
}