{
  "_id": "XtLFwO3xGyJoNpjV",
  "flags": {
    "better-rolltables": {
      "brt-result-formula": {
        "formula": ""
      }
    }
  },
  "type": 2,
  "text": "Magic Circle against Evil",
  "img": "systems/pf1/icons/misc/magic-swirl.png",
  "collection": "pf1.spells",
  "resultId": "1i8b1v3dngkxj6jp",
  "weight": 3,
  "range": [
    55,
    57
  ],
  "drawn": false,
  "_key": "!tables.results!nwyFcMtuCrcLVDgR.XtLFwO3xGyJoNpjV"
}