{
  "_id": "VwwvxtTi2igKkMjx",
  "flags": {
    "better-rolltables": {
      "brt-result-formula": {
        "formula": ""
      }
    }
  },
  "type": 2,
  "text": "Fire Shield",
  "img": "systems/pf1/icons/misc/magic-swirl.png",
  "collection": "pf1.spells",
  "resultId": "nfm6i9z9r3n2fku7",
  "weight": 4,
  "range": [
    44,
    47
  ],
  "drawn": false,
  "_key": "!tables.results!7OcSlcVtY2y1g8cy.VwwvxtTi2igKkMjx"
}