{
  "_id": "u2t5oe9fDIYuLVp8",
  "flags": {
    "better-rolltables": {
      "brt-result-formula": {
        "formula": ""
      }
    }
  },
  "type": 0,
  "text": "Divine Scroll",
  "img": "icons/svg/d20-black.svg",
  "resultId": "",
  "weight": 3,
  "range": [
    1,
    100
  ],
  "drawn": false,
  "_key": "!tables.results!EMFZvVvAceeWf58W.u2t5oe9fDIYuLVp8"
}