{
  "_id": "BKfsZN3ZyzjiHHMX",
  "flags": {
    "better-rolltables": {
      "brt-result-formula": {
        "formula": ""
      }
    }
  },
  "type": 2,
  "text": "Gentle Repose",
  "img": "systems/pf1/icons/misc/magic-swirl.png",
  "collection": "pf1.spells",
  "resultId": "vdmsaodgnbo8wjfx",
  "weight": 8,
  "range": [
    49,
    56
  ],
  "drawn": false,
  "_key": "!tables.results!KbGqR2w7YPK5iXMw.BKfsZN3ZyzjiHHMX"
}