{
  "_id": "UpnkCouY9Ybbwwct",
  "flags": {
    "better-rolltables": {
      "brt-result-formula": {
        "formula": ""
      }
    }
  },
  "type": 2,
  "text": "Common Level 6 Arcane Scrolls",
  "img": "icons/sundries/scrolls/scroll-bound-sealed-black-orange.webp",
  "collection": "pf-content.pf-magic-tables",
  "resultId": "XgOb7FjVyToQrT28",
  "weight": 25,
  "range": [
    66,
    90
  ],
  "drawn": false,
  "_key": "!tables.results!1SB5opX0HhPjs7hg.UpnkCouY9Ybbwwct"
}