{
  "_id": "tRNOzPhXGHekBEp8",
  "flags": {
    "better-rolltables": {
      "brt-result-formula": {
        "formula": ""
      }
    }
  },
  "type": 2,
  "text": "Align Weapon",
  "img": "systems/pf1/icons/misc/magic-swirl.png",
  "collection": "pf1.spells",
  "resultId": "zujht80bgjdk9cyb",
  "weight": 3,
  "range": [
    5,
    7
  ],
  "drawn": false,
  "_key": "!tables.results!dtXhs097VtxyPHpw.tRNOzPhXGHekBEp8"
}