{
  "_id": "xSmkOkVNYE1LPZa9",
  "flags": {
    "better-rolltables": {
      "brt-result-formula": {
        "formula": ""
      }
    }
  },
  "type": 2,
  "text": "Vanish",
  "img": "systems/pf1/icons/misc/magic-swirl.png",
  "collection": "pf1.spells",
  "resultId": "c11olzqztodz5o5x",
  "weight": 8,
  "range": [
    93,
    100
  ],
  "drawn": false,
  "_key": "!tables.results!3mPidIdKSHeaphcT.xSmkOkVNYE1LPZa9"
}