{
  "_id": "dApORZIduUiZawdt",
  "flags": {
    "better-rolltables": {
      "brt-result-formula": {
        "formula": ""
      }
    }
  },
  "type": 2,
  "text": "Knuckle Axe",
  "img": "systems/pf1/icons/items/weapons/axe-knuckle.PNG",
  "collection": "pf1.weapons-and-ammo",
  "resultId": "abv8SSqPMJW1jrIM",
  "weight": 1,
  "range": [
    37,
    37
  ],
  "drawn": false,
  "_key": "!tables.results!72zqtiYTb1AiDydF.dApORZIduUiZawdt"
}