{
  "_id": "U5MgGhHZuiZwjyEN",
  "flags": {},
  "type": 0,
  "text": "49,000 gp",
  "img": "icons/svg/d20-black.svg",
  "resultId": "",
  "weight": 1,
  "range": [
    76,
    100
  ],
  "drawn": false,
  "_key": "!tables.results!S4okmESMFJ7TvaG3.U5MgGhHZuiZwjyEN"
}