{
  "_id": "L6UWoOKV5bx364LD",
  "flags": {
    "better-rolltables": {
      "brt-result-formula": {
        "formula": ""
      }
    }
  },
  "type": 2,
  "text": "Jump",
  "img": "systems/pf1/icons/misc/magic-swirl.png",
  "collection": "pf1.spells",
  "resultId": "ns2zo6qgd9co02uf",
  "weight": 4,
  "range": [
    55,
    58
  ],
  "drawn": false,
  "_key": "!tables.results!cYCnZgLBjKS3rxV2.L6UWoOKV5bx364LD"
}