{
  "_id": "U5MgGhHZuiZwjyEN",
  "flags": {},
  "type": 0,
  "text": "17,500 gp",
  "img": "icons/svg/d20-black.svg",
  "resultId": "",
  "weight": 1,
  "range": [
    94,
    100
  ],
  "drawn": false,
  "_key": "!tables.results!FTHyC55dox6K8LRw.U5MgGhHZuiZwjyEN"
}