{
  "_id": "5MSlFUDBb2RECOSy",
  "flags": {
    "better-rolltables": {
      "brt-result-formula": {
        "formula": ""
      }
    }
  },
  "type": 2,
  "text": "Waves of Exhaustion",
  "img": "systems/pf1/icons/misc/magic-swirl.png",
  "collection": "pf1.spells",
  "resultId": "9f3hf9h3j8q8062b",
  "weight": 3,
  "range": [
    88,
    90
  ],
  "drawn": false,
  "_key": "!tables.results!5WjVf0rkaN3Y8zBj.5MSlFUDBb2RECOSy"
}