{
  "_id": "C4QysVyPdWrEijYp",
  "flags": {
    "better-rolltables": {
      "brt-result-formula": {
        "formula": ""
      }
    }
  },
  "type": 2,
  "text": "Erase",
  "img": "systems/pf1/icons/misc/magic-swirl.png",
  "collection": "pf1.spells",
  "resultId": "qvpzcjm5lmtn389j",
  "weight": 2,
  "range": [
    37,
    38
  ],
  "drawn": false,
  "_key": "!tables.results!cYCnZgLBjKS3rxV2.C4QysVyPdWrEijYp"
}