{
  "_id": "QBNerxagIsfi0VmI",
  "flags": {
    "better-rolltables": {
      "brt-result-formula": {
        "formula": ""
      }
    }
  },
  "type": 2,
  "text": "Demand",
  "img": "systems/pf1/icons/misc/magic-swirl.png",
  "collection": "pf1.spells",
  "resultId": "21r9ptvsjo99o3yw",
  "weight": 4,
  "range": [
    6,
    9
  ],
  "drawn": false,
  "_key": "!tables.results!DrSZPRw1NcXOQziB.QBNerxagIsfi0VmI"
}