{
  "_id": "hqmKzsgIbQDPy1CB",
  "flags": {
    "better-rolltables": {
      "brt-result-formula": {
        "formula": ""
      }
    }
  },
  "type": 2,
  "text": "Earth Breaker",
  "img": "systems/pf1/icons/items/weapons/earthbreaker.PNG",
  "collection": "pf1.weapons-and-ammo",
  "resultId": "b0hY6M0sYwvjnMZH",
  "weight": 1,
  "range": [
    9,
    9
  ],
  "drawn": false,
  "_key": "!tables.results!BMDVuMyNnK14lP9l.hqmKzsgIbQDPy1CB"
}