{
  "_id": "2lrOszqeWz7c43x3",
  "flags": {},
  "type": 0,
  "text": "Vermin",
  "img": "icons/svg/d20-black.svg",
  "resultId": "",
  "weight": 1,
  "range": [
    99,
    100
  ],
  "drawn": false,
  "_key": "!tables.results!HVU0F3ByvLby6pgY.2lrOszqeWz7c43x3"
}