{
  "_id": "U5MgGhHZuiZwjyEN",
  "flags": {},
  "type": 0,
  "text": "17,200 gp",
  "img": "icons/svg/d20-black.svg",
  "resultId": "",
  "weight": 1,
  "range": [
    92,
    100
  ],
  "drawn": false,
  "_key": "!tables.results!r38i4XsfMfW2vM2l.U5MgGhHZuiZwjyEN"
}