{
  "_id": "2lrOszqeWz7c43x3",
  "flags": {},
  "type": 2,
  "text": "Robe Of Arcane Heritage",
  "img": "icons/svg/d20-black.svg",
  "collection": "pf-content.pf-wondrous",
  "resultId": "JUshn1ZTwKG29POm",
  "weight": 1,
  "range": [
    76,
    100
  ],
  "drawn": false,
  "_key": "!tables.results!yg1xUR0P7M4E76g1.2lrOszqeWz7c43x3"
}