{
  "_id": "w2CdzjAmmuTcFTP7",
  "flags": {},
  "type": 2,
  "text": "Pain Strike",
  "img": "systems/pf1/icons/misc/magic-swirl.png",
  "collection": "pf1.spells",
  "resultId": "jy64xofud29j5ju6",
  "weight": 2,
  "range": [
    53,
    54
  ],
  "drawn": false,
  "_key": "!tables.results!kPxi5l3FlGLyTQSi.w2CdzjAmmuTcFTP7"
}