{
  "_id": "F0TwiO5FcyKe3yKt",
  "flags": {
    "better-rolltables": {
      "brt-result-formula": {
        "formula": ""
      }
    }
  },
  "type": 2,
  "text": "Diminish Plants",
  "img": "systems/pf1/icons/misc/magic-swirl.png",
  "collection": "pf1.spells",
  "resultId": "pasrd8rsy38vmaw6",
  "weight": 2,
  "range": [
    35,
    36
  ],
  "drawn": false,
  "_key": "!tables.results!WeUu0rFOMNi1av0x.F0TwiO5FcyKe3yKt"
}