{
  "_id": "0p15cKMuo6wKgEWr",
  "flags": {
    "better-rolltables": {
      "brt-result-formula": {
        "formula": ""
      }
    }
  },
  "type": 2,
  "text": "Magic Mouth",
  "img": "systems/pf1/icons/misc/magic-swirl.png",
  "collection": "pf1.spells",
  "resultId": "7vamkma4y88ek4q6",
  "weight": 2,
  "range": [
    95,
    96
  ],
  "drawn": false,
  "_key": "!tables.results!GTSdrB8MokztIHzW.0p15cKMuo6wKgEWr"
}