{
  "_id": "2SbaQYGeVzi0lSEQ",
  "flags": {
    "better-rolltables": {
      "brt-result-formula": {
        "formula": ""
      }
    }
  },
  "type": 2,
  "text": "Light Wooden Shield",
  "img": "systems/pf1/icons/items/armor/shield-light-wood.png",
  "collection": "pf1.armors-and-shields",
  "resultId": "l1qNkx4xGXelq6yY",
  "weight": 1,
  "range": [
    6,
    6
  ],
  "drawn": false,
  "_key": "!tables.results!wzS3qk0RHftNzCC5.2SbaQYGeVzi0lSEQ"
}