{
  "_id": "KcZL7XQWJbFLICVM",
  "flags": {
    "better-rolltables": {
      "brt-result-formula": {
        "formula": ""
      }
    }
  },
  "type": 2,
  "text": "Helping Hand",
  "img": "systems/pf1/icons/misc/magic-swirl.png",
  "collection": "pf1.spells",
  "resultId": "fp5r5razueuqj8z8",
  "weight": 3,
  "range": [
    49,
    51
  ],
  "drawn": false,
  "_key": "!tables.results!WeUu0rFOMNi1av0x.KcZL7XQWJbFLICVM"
}