{
  "_id": "ofYLFSW0JZr2zjEs",
  "flags": {
    "better-rolltables": {
      "brt-result-formula": {
        "formula": ""
      }
    }
  },
  "type": 2,
  "text": "Brass Knuckles",
  "img": "systems/pf1/icons/items/weapons/brass-knuckles.PNG",
  "collection": "pf1.weapons-and-ammo",
  "resultId": "b5FfLdVhbcxQrNdU",
  "weight": 1,
  "range": [
    2,
    2
  ],
  "drawn": false,
  "_key": "!tables.results!72zqtiYTb1AiDydF.ofYLFSW0JZr2zjEs"
}