{
  "_id": "EQcGkbAPgmfn9b2d",
  "flags": {
    "better-rolltables": {
      "brt-result-formula": {
        "formula": ""
      }
    }
  },
  "type": 2,
  "text": "Passwall",
  "img": "systems/pf1/icons/misc/magic-swirl.png",
  "collection": "pf1.spells",
  "resultId": "ujo3w551azr3kran",
  "weight": 3,
  "range": [
    52,
    54
  ],
  "drawn": false,
  "_key": "!tables.results!SqnA7sT1iAMTwaXW.EQcGkbAPgmfn9b2d"
}