{
  "_id": "l7smfhlzmTfBF831",
  "flags": {
    "better-rolltables": {
      "brt-result-formula": {
        "formula": ""
      }
    }
  },
  "type": 0,
  "text": "Great Terbutje",
  "img": "icons/svg/d20-black.svg",
  "resultId": "",
  "weight": 1,
  "range": [
    28,
    28
  ],
  "drawn": false,
  "_key": "!tables.results!5j28w13lJRkiv3PI.l7smfhlzmTfBF831"
}