{
  "_id": "yVNym3qdgCUVph4z",
  "flags": {
    "better-rolltables": {
      "brt-result-formula": {
        "formula": ""
      }
    }
  },
  "type": 0,
  "text": "+3, with one +1 special ability:",
  "img": "icons/svg/d20-black.svg",
  "resultId": "",
  "weight": 20,
  "range": [
    63,
    65
  ],
  "drawn": false,
  "_key": "!tables.results!E9KLCjEA3mvSWVIG.yVNym3qdgCUVph4z"
}