{
  "_id": "erawzVuFAS2Jw0Mr",
  "flags": {
    "better-rolltables": {
      "brt-result-formula": {
        "formula": ""
      }
    }
  },
  "type": 2,
  "text": "Cloak of Chaos",
  "img": "systems/pf1/icons/misc/magic-swirl.png",
  "collection": "pf1.spells",
  "resultId": "o0s3eo85npgigh3w",
  "weight": 6,
  "range": [
    9,
    14
  ],
  "drawn": false,
  "_key": "!tables.results!JMXd5E2NLxUr09Pg.erawzVuFAS2Jw0Mr"
}