{
  "_id": "VUd9vOVfGK5ysgX0",
  "flags": {
    "better-rolltables": {
      "brt-result-formula": {
        "formula": ""
      }
    }
  },
  "type": 2,
  "text": "Detect Secret Doors",
  "img": "systems/pf1/icons/misc/magic-swirl.png",
  "collection": "pf1.spells",
  "resultId": "moftgchcn1d0p2t0",
  "weight": 3,
  "range": [
    31,
    33
  ],
  "drawn": false,
  "_key": "!tables.results!cYCnZgLBjKS3rxV2.VUd9vOVfGK5ysgX0"
}