{
  "_id": "2PGTXxGrUfOjo0EA",
  "flags": {
    "better-rolltables": {
      "brt-result-formula": {
        "formula": ""
      }
    }
  },
  "type": 2,
  "text": "Ray of Enfeeblement",
  "img": "systems/pf1/icons/misc/magic-swirl.png",
  "collection": "pf1.spells",
  "resultId": "mczdgwo3xl8c6e26",
  "weight": 4,
  "range": [
    72,
    75
  ],
  "drawn": false,
  "_key": "!tables.results!YYYZOSnDsV20zdJp.2PGTXxGrUfOjo0EA"
}