{
  "_id": "fKLdZGcAppxzUStT",
  "flags": {
    "better-rolltables": {
      "brt-result-formula": {
        "formula": ""
      }
    }
  },
  "type": 2,
  "text": "Contingency",
  "img": "systems/pf1/icons/misc/magic-swirl.png",
  "collection": "pf1.spells",
  "resultId": "4br9puuneexco5hx",
  "weight": 6,
  "range": [
    21,
    26
  ],
  "drawn": false,
  "_key": "!tables.results!G9O3WmOBE4zquqTi.fKLdZGcAppxzUStT"
}