{
  "_id": "oqoCVdYXo9SoWR6n",
  "flags": {
    "better-rolltables": {
      "brt-result-formula": {
        "formula": ""
      }
    }
  },
  "type": 2,
  "text": "Stoneplate",
  "img": "systems/pf1/icons/items/armor/stone-plate.png",
  "collection": "pf1.armors-and-shields",
  "resultId": "khCNizGc3q1SZsXg",
  "weight": 1,
  "range": [
    11,
    11
  ],
  "drawn": false,
  "_key": "!tables.results!G2fVdnu27PAkjiLX.oqoCVdYXo9SoWR6n"
}