{
  "_id": "uLasP43br0QxdBuI",
  "flags": {
    "better-rolltables": {
      "brt-result-formula": {
        "formula": ""
      }
    }
  },
  "type": 2,
  "text": "Nightmare",
  "img": "systems/pf1/icons/misc/magic-swirl.png",
  "collection": "pf1.spells",
  "resultId": "siv3ub7hbmcklf8c",
  "weight": 4,
  "range": [
    51,
    54
  ],
  "drawn": false,
  "_key": "!tables.results!63tGlqj040dbsLt9.uLasP43br0QxdBuI"
}