{
  "_id": "FZpV7SEWQdiN6sFT",
  "flags": {
    "better-rolltables": {
      "brt-result-formula": {
        "formula": ""
      }
    }
  },
  "type": 2,
  "text": "Eagle's Splendor",
  "img": "systems/pf1/icons/misc/magic-swirl.png",
  "collection": "pf1.spells",
  "resultId": "d4oubr5bdoo8w1ev",
  "weight": 5,
  "range": [
    45,
    49
  ],
  "drawn": false,
  "_key": "!tables.results!dtXhs097VtxyPHpw.FZpV7SEWQdiN6sFT"
}