{
  "_id": "iAWumTQDV1Ev4kTh",
  "flags": {
    "better-rolltables": {
      "brt-result-formula": {
        "formula": ""
      }
    }
  },
  "type": 2,
  "text": "Comprehend Languages",
  "img": "systems/pf1/icons/misc/magic-swirl.png",
  "collection": "pf1.spells",
  "resultId": "jcs7ba5depdyitey",
  "weight": 3,
  "range": [
    24,
    26
  ],
  "drawn": false,
  "_key": "!tables.results!cYCnZgLBjKS3rxV2.iAWumTQDV1Ev4kTh"
}