{
  "_id": "nx2CbapxBwDdFxEa",
  "flags": {
    "better-rolltables": {
      "brt-result-formula": {
        "formula": ""
      }
    }
  },
  "type": 2,
  "text": "Shillelagh",
  "img": "systems/pf1/icons/misc/magic-swirl.png",
  "collection": "pf1.spells",
  "resultId": "v05u8sl116ab2n9c",
  "weight": 4,
  "range": [
    81,
    84
  ],
  "drawn": false,
  "_key": "!tables.results!3mPidIdKSHeaphcT.nx2CbapxBwDdFxEa"
}