{
  "_id": "EpfCJlg1oXB4exDy",
  "flags": {},
  "type": 2,
  "text": "Armour Type",
  "img": "icons/svg/d20-black.svg",
  "collection": "pf1.ultimate-equipment",
  "resultId": "epzojqBeYIGA9ZkT",
  "weight": 10,
  "range": [
    1,
    60
  ],
  "drawn": false,
  "_key": "!tables.results!c0TFgztciG9HrfjJ.EpfCJlg1oXB4exDy"
}