{
  "_id": "hNgUXj4l5tlkgoV9",
  "flags": {
    "better-rolltables": {
      "brt-result-formula": {
        "formula": ""
      }
    }
  },
  "type": 2,
  "text": "Rope Trick",
  "img": "systems/pf1/icons/misc/magic-swirl.png",
  "collection": "pf1.spells",
  "resultId": "hrlql4cdfkppfblb",
  "weight": 2,
  "range": [
    74,
    75
  ],
  "drawn": false,
  "_key": "!tables.results!VJdq2HWCWIdWnPIR.hNgUXj4l5tlkgoV9"
}