{
  "_id": "CXtx8vqatHDn796X",
  "flags": {
    "better-rolltables": {
      "brt-result-formula": {
        "formula": ""
      }
    }
  },
  "type": 2,
  "text": "Flare",
  "img": "systems/pf1/icons/misc/magic-swirl.png",
  "collection": "pf1.spells",
  "resultId": "eg67vvykmv9c6j7h",
  "weight": 18,
  "range": [
    16,
    33
  ],
  "drawn": false,
  "_key": "!tables.results!c682IPpkjXjlUjAz.CXtx8vqatHDn796X"
}