{
  "_id": "2lrOszqeWz7c43x3",
  "flags": {},
  "type": 2,
  "text": "Ring Of Spell Storing, Major",
  "img": "systems/pf1/icons/items/jewelry/ring-red.jpg",
  "collection": "pf-content.pf-wondrous",
  "resultId": "0bjga8mIF9pAFOjS",
  "weight": 1,
  "range": [
    98,
    100
  ],
  "drawn": false,
  "_key": "!tables.results!MTaO8e21pUk6kQGJ.2lrOszqeWz7c43x3"
}