{
  "_id": "7GE8ktKdZy6Rm10T",
  "flags": {
    "better-rolltables": {
      "brt-result-formula": {
        "formula": ""
      }
    }
  },
  "type": 2,
  "text": "Sympathy",
  "img": "systems/pf1/icons/misc/magic-swirl.png",
  "collection": "pf1.spells",
  "resultId": "7wcosqq4v4x0bvep",
  "weight": 4,
  "range": [
    92,
    95
  ],
  "drawn": false,
  "_key": "!tables.results!inqz3NKgd9xgFkJr.7GE8ktKdZy6Rm10T"
}