{
  "_id": "SRpBa3MCDuJ3jGUJ",
  "flags": {
    "better-rolltables": {
      "brt-result-formula": {
        "formula": ""
      }
    }
  },
  "type": 2,
  "text": "+4 Ammunition Special Abilities",
  "img": "icons/svg/d20-grey.svg",
  "collection": "pf-content.pf-magic-tables",
  "resultId": "Yqh3n0yO89j7zZoA",
  "weight": 20,
  "range": [
    78,
    78
  ],
  "drawn": false,
  "_key": "!tables.results!Sa0HV1bL7OtDeu3u.SRpBa3MCDuJ3jGUJ"
}