{
  "_id": "2lrOszqeWz7c43x3",
  "flags": {},
  "type": 0,
  "text": "+8000 gp",
  "img": "icons/svg/d20-black.svg",
  "resultId": "",
  "weight": 1,
  "range": [
    95,
    100
  ],
  "drawn": false,
  "_key": "!tables.results!btoBe1HVMi04t9bR.2lrOszqeWz7c43x3"
}