{
  "_id": "LTaXh371ajPa2BhV",
  "flags": {
    "better-rolltables": {
      "brt-result-formula": {
        "formula": ""
      }
    }
  },
  "type": 0,
  "text": "Bane: Dragon",
  "img": "icons/svg/d20-black.svg",
  "resultId": "",
  "weight": 11,
  "range": [
    17,
    27
  ],
  "drawn": false,
  "_key": "!tables.results!XYMcAtKi3v8CqRr9.LTaXh371ajPa2BhV"
}