{
  "_id": "57DJhpgyWKd0Os3t",
  "flags": {
    "better-rolltables": {
      "brt-result-formula": {
        "formula": ""
      }
    }
  },
  "type": 2,
  "text": "Greater Medium Feet",
  "img": "icons/equipment/feet/boots-collared-red.webp",
  "collection": "pf-content.pf-magic-tables",
  "resultId": "rbAWNYyrbope5U5d",
  "weight": 1,
  "range": [
    85,
    86
  ],
  "drawn": false,
  "rangeL": 85,
  "rangeH": 86,
  "_key": "!tables.results!Ki0kXJ5yPIe8gi2r.57DJhpgyWKd0Os3t"
}