{
  "_id": "hl6cOM4BT1ww6Q1T",
  "flags": {},
  "type": 2,
  "text": "Spike Growth",
  "img": "systems/pf1/icons/misc/magic-swirl.png",
  "collection": "pf1.spells",
  "resultId": "tog7q2uezhexxp92",
  "weight": 2,
  "range": [
    75,
    76
  ],
  "drawn": false,
  "_key": "!tables.results!kPxi5l3FlGLyTQSi.hl6cOM4BT1ww6Q1T"
}