{
  "_id": "C8usBMk2Dx9jjyIh",
  "flags": {},
  "type": 2,
  "text": "Rainbow Pattern",
  "img": "systems/pf1/icons/misc/magic-swirl.png",
  "collection": "pf1.spells",
  "resultId": "6lebv7569xsypp8u",
  "weight": 2,
  "range": [
    47,
    48
  ],
  "drawn": false,
  "_key": "!tables.results!MNyecR1TI8xc6Bmc.C8usBMk2Dx9jjyIh"
}