{
  "_id": "H2v9T3jBIeoR4q6y",
  "flags": {
    "better-rolltables": {
      "brt-result-formula": {
        "formula": ""
      }
    }
  },
  "type": 2,
  "text": "Knock",
  "img": "systems/pf1/icons/misc/magic-swirl.png",
  "collection": "pf1.spells",
  "resultId": "2o9tacbz7tbrlhvv",
  "weight": 2,
  "range": [
    53,
    54
  ],
  "drawn": false,
  "_key": "!tables.results!VJdq2HWCWIdWnPIR.H2v9T3jBIeoR4q6y"
}