{
  "_id": "O3WoHniNNQxX2KbG",
  "flags": {
    "better-rolltables": {
      "brt-result-formula": {
        "formula": ""
      }
    }
  },
  "type": 2,
  "text": "Stone Fist",
  "img": "systems/pf1/icons/misc/magic-swirl.png",
  "collection": "pf1.spells",
  "resultId": "879sdozw7ca7ci9k",
  "weight": 3,
  "range": [
    78,
    80
  ],
  "drawn": false,
  "_key": "!tables.results!cYCnZgLBjKS3rxV2.O3WoHniNNQxX2KbG"
}