{
  "_id": "BpboJBq8tGf4K20N",
  "flags": {},
  "type": 0,
  "text": "+2, with one +2 special ability:",
  "img": "icons/svg/d20-black.svg",
  "resultId": "",
  "weight": 10,
  "range": [
    73,
    75
  ],
  "drawn": false,
  "_key": "!tables.results!xiye8g60Sugv2iA2.BpboJBq8tGf4K20N"
}