{
  "_id": "qAvn48IyANwqZiW8",
  "flags": {
    "better-rolltables": {
      "brt-result-formula": {
        "formula": ""
      }
    }
  },
  "type": 2,
  "text": "Disguise Self",
  "img": "systems/pf1/icons/misc/magic-swirl.png",
  "collection": "pf1.spells",
  "resultId": "oj36nfak6jc2s5ky",
  "weight": 4,
  "range": [
    18,
    21
  ],
  "drawn": false,
  "_key": "!tables.results!YYYZOSnDsV20zdJp.qAvn48IyANwqZiW8"
}