{
  "_id": "GmVQIXmZb7WoYicB",
  "flags": {
    "better-rolltables": {
      "brt-result-formula": {
        "formula": ""
      }
    }
  },
  "type": 2,
  "text": "Shout",
  "img": "systems/pf1/icons/misc/magic-swirl.png",
  "collection": "pf1.spells",
  "resultId": "bacuzpculp9tld48",
  "weight": 2,
  "range": [
    75,
    76
  ],
  "drawn": false,
  "_key": "!tables.results!7OcSlcVtY2y1g8cy.GmVQIXmZb7WoYicB"
}