{
  "_id": "li9goXMOfn0TH51n",
  "flags": {
    "better-rolltables": {
      "brt-result-formula": {
        "formula": ""
      }
    }
  },
  "type": 2,
  "text": "Contact Other Plane",
  "img": "systems/pf1/icons/misc/magic-swirl.png",
  "collection": "pf1.spells",
  "resultId": "68ngvzmzvadhf6vs",
  "weight": 2,
  "range": [
    22,
    23
  ],
  "drawn": false,
  "_key": "!tables.results!SqnA7sT1iAMTwaXW.li9goXMOfn0TH51n"
}