{
  "_id": "kBk9uAeFc5PD3ji7",
  "flags": {},
  "type": 2,
  "text": "Continual Flame",
  "img": "systems/pf1/icons/misc/magic-swirl.png",
  "collection": "pf1.spells",
  "resultId": "b8vp8fgt1o6pq1qc",
  "weight": 1,
  "range": [
    99,
    99
  ],
  "drawn": false,
  "_key": "!tables.results!7ZDjKM4rlZJIqz9t.kBk9uAeFc5PD3ji7"
}