{
  "_id": "2lrOszqeWz7c43x3",
  "flags": {},
  "type": 2,
  "text": "Luck Blade 3 Wishes",
  "img": "systems/pf1/icons/items/weapons/estoc.PNG",
  "collection": "pf-content.pf-magicitems",
  "resultId": "vVkS9RcbmUUxeVtq",
  "weight": 1,
  "range": [
    97,
    100
  ],
  "drawn": false,
  "_key": "!tables.results!xtPC2clVmcIzmarU.2lrOszqeWz7c43x3"
}