{
  "_id": "dMy1WEggvAEcpPAL",
  "flags": {},
  "type": 2,
  "text": "Neutralize Poison",
  "img": "systems/pf1/icons/misc/magic-swirl.png",
  "collection": "pf1.spells",
  "resultId": "6l904edkt8jv9jor",
  "weight": 3,
  "range": [
    50,
    52
  ],
  "drawn": false,
  "_key": "!tables.results!kPxi5l3FlGLyTQSi.dMy1WEggvAEcpPAL"
}