{
  "_id": "hRg4sZvGQHn7ZnDG",
  "flags": {},
  "type": 2,
  "text": "Uncommon Level 4 Wands",
  "img": "icons/weapons/wands/wand-gem-teal.webp",
  "collection": "pf-content.pf-magic-tables",
  "resultId": "MNyecR1TI8xc6Bmc",
  "weight": 1,
  "range": [
    73,
    76
  ],
  "drawn": false,
  "rangeL": 73,
  "rangeH": 76,
  "_key": "!tables.results!bqMOCg4zoZShwoz7.hRg4sZvGQHn7ZnDG"
}