{
  "_id": "HuCPUZG0vXR43qPA",
  "flags": {
    "better-rolltables": {
      "brt-result-formula": {
        "formula": ""
      }
    }
  },
  "type": 2,
  "text": "Lesser Medium Shoulders",
  "img": "icons/equipment/shoulder/shoulderguard-rounded-leather.webp",
  "collection": "pf-content.pf-magic-tables",
  "resultId": "r38i4XsfMfW2vM2l",
  "weight": 1,
  "range": [
    95,
    96
  ],
  "drawn": false,
  "rangeL": 95,
  "rangeH": 96,
  "_key": "!tables.results!5UmlBvgZ67Rs3PtQ.HuCPUZG0vXR43qPA"
}