{
  "_id": "zQVRg0IJs9iOX9Ev",
  "flags": {
    "better-rolltables": {
      "brt-result-formula": {
        "formula": ""
      }
    }
  },
  "type": 2,
  "text": "Remove Paralysis",
  "img": "systems/pf1/icons/misc/magic-swirl.png",
  "collection": "pf1.spells",
  "resultId": "7xdn59ffjaqchhrz",
  "weight": 2,
  "range": [
    64,
    65
  ],
  "drawn": false,
  "_key": "!tables.results!ScAeR4ImuVB68nz1.zQVRg0IJs9iOX9Ev"
}