{
  "_id": "RQDhjGEYCmp1pCuQ",
  "flags": {
    "better-rolltables": {
      "brt-result-formula": {
        "formula": ""
      }
    }
  },
  "type": 2,
  "text": "Cat's Grace",
  "img": "systems/pf1/icons/misc/magic-swirl.png",
  "collection": "pf1.spells",
  "resultId": "ns8jbp0ilbvbvuif",
  "weight": 5,
  "range": [
    26,
    30
  ],
  "drawn": false,
  "_key": "!tables.results!dtXhs097VtxyPHpw.RQDhjGEYCmp1pCuQ"
}