{
  "_id": "YgYqAOWnklLfVy5x",
  "flags": {
    "better-rolltables": {
      "brt-result-formula": {
        "formula": ""
      }
    }
  },
  "type": 2,
  "text": "Elemental Swarm",
  "img": "systems/pf1/icons/misc/magic-swirl.png",
  "collection": "pf1.spells",
  "resultId": "pfy97qyneoa391ek",
  "weight": 7,
  "range": [
    1,
    7
  ],
  "drawn": false,
  "_key": "!tables.results!KCr03KGPwBiGS4Eo.YgYqAOWnklLfVy5x"
}