{
  "_id": "BJgxl7hKXVyel7rU",
  "flags": {},
  "type": 2,
  "text": "Defensive Shock",
  "img": "systems/pf1/icons/misc/magic-swirl.png",
  "collection": "pf1.spells",
  "resultId": "22xn589bmr7ginow",
  "weight": 3,
  "range": [
    30,
    32
  ],
  "drawn": false,
  "_key": "!tables.results!7ZDjKM4rlZJIqz9t.BJgxl7hKXVyel7rU"
}