{
  "_id": "va8fOsQ3L1YUAbQs",
  "flags": {
    "better-rolltables": {
      "brt-result-formula": {
        "formula": ""
      }
    }
  },
  "type": 2,
  "text": "Planar Adaptation, Mass",
  "img": "systems/pf1/icons/misc/magic-swirl.png",
  "collection": "pf1.spells",
  "resultId": "kuaup99425ovuou0",
  "weight": 5,
  "range": [
    47,
    51
  ],
  "drawn": false,
  "_key": "!tables.results!YilKy1GcxhSxq4sH.va8fOsQ3L1YUAbQs"
}