{
  "_id": "9jX028vWVG0AJDiJ",
  "flags": {},
  "type": 0,
  "text": "+1, with one +2 special ability:",
  "img": "icons/svg/d20-black.svg",
  "resultId": "",
  "weight": 12,
  "range": [
    52,
    60
  ],
  "drawn": false,
  "_key": "!tables.results!bCuEGMbhmQOi1ik7.9jX028vWVG0AJDiJ"
}