{
  "_id": "2lrOszqeWz7c43x3",
  "flags": {},
  "type": 2,
  "text": "Sniper Goggles, Greater",
  "img": "icons/svg/d20-black.svg",
  "collection": "pf-content.pf-wondrous",
  "resultId": "s7NlBVB3P0i3s4BN",
  "weight": 1,
  "range": [
    61,
    100
  ],
  "drawn": false,
  "_key": "!tables.results!1ZxH1LXzGBz3veLE.2lrOszqeWz7c43x3"
}