{
  "_id": "cwENrfeCsNPew8H9",
  "flags": {
    "better-rolltables": {
      "brt-result-formula": {
        "formula": ""
      }
    }
  },
  "type": 2,
  "text": "Ray of Sickening",
  "img": "systems/pf1/icons/misc/magic-swirl.png",
  "collection": "pf1.spells",
  "resultId": "c3iz720zjv922b6j",
  "weight": 3,
  "range": [
    67,
    69
  ],
  "drawn": false,
  "_key": "!tables.results!cYCnZgLBjKS3rxV2.cwENrfeCsNPew8H9"
}