{
  "_id": "fpN58CPUf9vwJJpr",
  "flags": {
    "better-rolltables": {
      "brt-result-formula": {
        "formula": ""
      }
    }
  },
  "type": 2,
  "text": "Lesser Major Chest",
  "img": "icons/equipment/chest/robe-layered-purple.webp",
  "collection": "pf-content.pf-magic-tables",
  "resultId": "SPuOyuNrCaAppPjs",
  "weight": 1,
  "range": [
    81,
    82
  ],
  "drawn": false,
  "rangeL": 81,
  "rangeH": 82,
  "_key": "!tables.results!NaMYbJoiaw5h9Wwv.fpN58CPUf9vwJJpr"
}