{
  "_id": "2EGk9Dp9Ms5yIVNU",
  "flags": {
    "better-rolltables": {
      "brt-result-formula": {
        "formula": ""
      }
    }
  },
  "type": 0,
  "text": "+2, with one +1 special ability:",
  "img": "icons/svg/d20-black.svg",
  "resultId": "",
  "weight": 20,
  "range": [
    60,
    62
  ],
  "drawn": false,
  "_key": "!tables.results!E9KLCjEA3mvSWVIG.2EGk9Dp9Ms5yIVNU"
}