{
  "_id": "Yt0Dw5GvTxpEsOLJ",
  "flags": {},
  "type": 2,
  "text": "Blink",
  "img": "systems/pf1/icons/misc/magic-swirl.png",
  "collection": "pf1.spells",
  "resultId": "qmorw7eojkfqr00m",
  "weight": 2,
  "range": [
    3,
    4
  ],
  "drawn": false,
  "_key": "!tables.results!0aVojCkNbt3BZgNp.Yt0Dw5GvTxpEsOLJ"
}