{
  "_id": "U5MgGhHZuiZwjyEN",
  "flags": {},
  "type": 0,
  "text": "25,000 gp",
  "img": "icons/svg/d20-black.svg",
  "resultId": "",
  "weight": 1,
  "range": [
    91,
    100
  ],
  "drawn": false,
  "_key": "!tables.results!6t8EXP92DquUya0k.U5MgGhHZuiZwjyEN"
}