{
  "_id": "qAuTiDTJT43kyRTc",
  "flags": {
    "better-rolltables": {
      "brt-result-formula": {
        "formula": ""
      }
    }
  },
  "type": 2,
  "text": "Summon Monster VI",
  "img": "systems/pf1/icons/misc/magic-swirl.png",
  "collection": "pf1.spells",
  "resultId": "mf6k8tg8xu0wedoz",
  "weight": 4,
  "range": [
    84,
    87
  ],
  "drawn": false,
  "_key": "!tables.results!LYxMTdR5eFR4memv.qAuTiDTJT43kyRTc"
}