{
  "_id": "0bO8D2ul38c5BhMB",
  "flags": {
    "better-rolltables": {
      "brt-result-formula": {
        "formula": ""
      }
    }
  },
  "type": 2,
  "text": "Create Greater Undead",
  "img": "systems/pf1/icons/misc/magic-swirl.png",
  "collection": "pf1.spells",
  "resultId": "j209j280fyqccq61",
  "weight": 5,
  "range": [
    84,
    88
  ],
  "drawn": false,
  "_key": "!tables.results!DMT8HjajTpzgip62.0bO8D2ul38c5BhMB"
}