{
  "_id": "NoiJhMWvSJiVPzjF",
  "flags": {},
  "type": 2,
  "text": "Consecrate",
  "img": "systems/pf1/icons/misc/magic-swirl.png",
  "collection": "pf1.spells",
  "resultId": "zpav8ywcqwkcuojw",
  "weight": 1,
  "range": [
    97,
    97
  ],
  "drawn": false,
  "_key": "!tables.results!7ZDjKM4rlZJIqz9t.NoiJhMWvSJiVPzjF"
}