{
  "_id": "XZYN1a9aS3yzP4dv",
  "flags": {
    "better-rolltables": {
      "brt-result-formula": {
        "formula": ""
      }
    }
  },
  "type": 2,
  "text": "Wood Shape",
  "img": "systems/pf1/icons/misc/magic-swirl.png",
  "collection": "pf1.spells",
  "resultId": "10e3iwsr5jkq4q73",
  "weight": 5,
  "range": [
    96,
    100
  ],
  "drawn": false,
  "_key": "!tables.results!KbGqR2w7YPK5iXMw.XZYN1a9aS3yzP4dv"
}