{
  "_id": "Y0kzjnMDAViiGwiT",
  "flags": {},
  "type": 2,
  "text": "Clairaudience/Clairvoyance",
  "img": "systems/pf1/icons/misc/magic-swirl.png",
  "collection": "pf1.spells",
  "resultId": "6kmkxepwgsbta6ui",
  "weight": 3,
  "range": [
    18,
    20
  ],
  "drawn": false,
  "_key": "!tables.results!kPxi5l3FlGLyTQSi.Y0kzjnMDAViiGwiT"
}