{
  "_id": "a89qT7xDmDXTnclc",
  "flags": {
    "better-rolltables": {
      "brt-result-formula": {
        "formula": ""
      }
    }
  },
  "type": 2,
  "text": "Scizore",
  "img": "systems/pf1/icons/items/weapons/scizore.png",
  "collection": "pf1.weapons-and-ammo",
  "resultId": "fqiZkTAd1BlgOaII",
  "weight": 1,
  "range": [
    17,
    17
  ],
  "drawn": false,
  "_key": "!tables.results!5j28w13lJRkiv3PI.a89qT7xDmDXTnclc"
}