{
  "_id": "kWKkENkfxXfot9UJ",
  "flags": {},
  "type": 0,
  "text": "+2, with one +1 special ability:",
  "img": "icons/svg/d20-black.svg",
  "resultId": "",
  "weight": 10,
  "range": [
    77,
    78
  ],
  "drawn": false,
  "_key": "!tables.results!bCuEGMbhmQOi1ik7.kWKkENkfxXfot9UJ"
}