{
  "_id": "T3OgGvJyxGRgrzZK",
  "flags": {
    "better-rolltables": {
      "brt-result-formula": {
        "formula": ""
      }
    }
  },
  "type": 2,
  "text": "Daylight",
  "img": "systems/pf1/icons/misc/magic-swirl.png",
  "collection": "pf1.spells",
  "resultId": "7x2z0i8rcx7s81fk",
  "weight": 12,
  "range": [
    25,
    36
  ],
  "drawn": false,
  "_key": "!tables.results!VexBVnzysCLmK0b7.T3OgGvJyxGRgrzZK"
}