{
  "_id": "lpeWr55WbFuLwp5E",
  "flags": {
    "better-rolltables": {
      "brt-result-formula": {
        "formula": ""
      }
    }
  },
  "type": 0,
  "text": "+1",
  "img": "icons/svg/d20-black.svg",
  "resultId": "",
  "weight": 26,
  "range": [
    1,
    20
  ],
  "drawn": false,
  "_key": "!tables.results!2tjtR3WQLiCavlwU.lpeWr55WbFuLwp5E"
}