{
  "_id": "r9VC23hOvnqPlLT2",
  "flags": {
    "better-rolltables": {
      "brt-result-formula": {
        "formula": ""
      }
    }
  },
  "type": 2,
  "text": "Spiked Chain",
  "img": "systems/pf1/icons/items/weapons/spiked-chain.png",
  "collection": "pf1.weapons-and-ammo",
  "resultId": "u6Hv3AYMgkAtR7Jm",
  "weight": 1,
  "range": [
    51,
    51
  ],
  "drawn": false,
  "_key": "!tables.results!BMDVuMyNnK14lP9l.r9VC23hOvnqPlLT2"
}