{
  "_id": "T5ELOmjSSUx2Wrcq",
  "flags": {
    "better-rolltables": {
      "brt-result-formula": {
        "formula": ""
      }
    }
  },
  "type": 2,
  "text": "Gate",
  "img": "systems/pf1/icons/misc/magic-swirl.png",
  "collection": "pf1.spells",
  "resultId": "ursm11405zobemi3",
  "weight": 8,
  "range": [
    23,
    30
  ],
  "drawn": false,
  "_key": "!tables.results!KCr03KGPwBiGS4Eo.T5ELOmjSSUx2Wrcq"
}