{
  "_id": "gtTsG7EL9H1AJkVX",
  "flags": {},
  "type": 2,
  "text": "Bull's Strength",
  "img": "systems/pf1/icons/misc/magic-swirl.png",
  "collection": "pf1.spells",
  "resultId": "05i5rxwim12hwktu",
  "weight": 3,
  "range": [
    12,
    14
  ],
  "drawn": false,
  "_key": "!tables.results!cTWxjjSE3QBvrnBt.gtTsG7EL9H1AJkVX"
}