{
  "_id": "e9pVp9pDW2m70Tko",
  "flags": {
    "better-rolltables": {
      "brt-result-formula": {
        "formula": ""
      }
    }
  },
  "type": 2,
  "text": "Light Armours",
  "img": "icons/equipment/chest/breastplate-layered-leather-brown-silver.webp",
  "collection": "pf-content.pf-magic-tables",
  "resultId": "duDBDzs65XUNg31p",
  "weight": 1,
  "range": [
    1,
    25
  ],
  "drawn": false,
  "_key": "!tables.results!zWYxThikS0pPVBbo.e9pVp9pDW2m70Tko"
}