{
  "_id": "Bq6YZpor2WHmjGim",
  "flags": {
    "better-rolltables": {
      "brt-result-formula": {
        "formula": ""
      }
    }
  },
  "type": 2,
  "text": "Deathwatch",
  "img": "systems/pf1/icons/misc/magic-swirl.png",
  "collection": "pf1.spells",
  "resultId": "1hjxxr3k62rcpb5c",
  "weight": 2,
  "range": [
    16,
    17
  ],
  "drawn": false,
  "_key": "!tables.results!m2ekq0yCW991zuCK.Bq6YZpor2WHmjGim"
}