{
  "_id": "VGwnBbyATYz4hAfK",
  "flags": {},
  "type": 2,
  "text": "Tiny Hut",
  "img": "systems/pf1/icons/misc/magic-swirl.png",
  "collection": "pf1.spells",
  "resultId": "spmmt3l9ch7t3zfj",
  "weight": 1,
  "range": [
    77,
    77
  ],
  "drawn": false,
  "_key": "!tables.results!kPxi5l3FlGLyTQSi.VGwnBbyATYz4hAfK"
}