{
  "_id": "3luZyuuk5rGVDd0m",
  "flags": {
    "better-rolltables": {
      "brt-result-formula": {
        "formula": ""
      }
    }
  },
  "type": 2,
  "text": "Fog Cloud",
  "img": "systems/pf1/icons/misc/magic-swirl.png",
  "collection": "pf1.spells",
  "resultId": "g33euis7yi9pwddy",
  "weight": 2,
  "range": [
    45,
    46
  ],
  "drawn": false,
  "_key": "!tables.results!ScAeR4ImuVB68nz1.3luZyuuk5rGVDd0m"
}