{
  "_id": "prp3LT2J4FKUuOGZ",
  "flags": {},
  "type": 0,
  "text": "+1, with one +3 special ability:",
  "img": "icons/svg/d20-black.svg",
  "resultId": "",
  "weight": 12,
  "range": [
    53,
    60
  ],
  "drawn": false,
  "_key": "!tables.results!xiye8g60Sugv2iA2.prp3LT2J4FKUuOGZ"
}