{
  "_id": "vNvCnVGE4d6XdUh7",
  "flags": {
    "better-rolltables": {
      "brt-result-formula": {
        "formula": ""
      }
    }
  },
  "type": 2,
  "text": "Magic Circle against Good",
  "img": "systems/pf1/icons/misc/magic-swirl.png",
  "collection": "pf1.spells",
  "resultId": "ym1we9ko60qcvn4t",
  "weight": 3,
  "range": [
    58,
    60
  ],
  "drawn": false,
  "_key": "!tables.results!nwyFcMtuCrcLVDgR.vNvCnVGE4d6XdUh7"
}