{
  "_id": "f6XGvQTXYzuPvnK6",
  "flags": {
    "better-rolltables": {
      "brt-result-formula": {
        "formula": ""
      }
    }
  },
  "type": 2,
  "text": "Wall of Fire",
  "img": "systems/pf1/icons/misc/magic-swirl.png",
  "collection": "pf1.spells",
  "resultId": "92hth51cs9oi0nfe",
  "weight": 5,
  "range": [
    84,
    88
  ],
  "drawn": false,
  "_key": "!tables.results!7OcSlcVtY2y1g8cy.f6XGvQTXYzuPvnK6"
}