{
  "_id": "dbhuwU6KNTz3e021",
  "flags": {},
  "type": 0,
  "text": "+5, with one +3 special ability:",
  "img": "icons/svg/d20-black.svg",
  "resultId": "",
  "weight": 4,
  "range": [
    52,
    54
  ],
  "drawn": false,
  "_key": "!tables.results!vCOfQyCMW29FlGbz.dbhuwU6KNTz3e021"
}