{
  "_id": "h05fzCQht7j3gv67",
  "flags": {
    "better-rolltables": {
      "brt-result-formula": {
        "formula": ""
      }
    }
  },
  "type": 2,
  "text": "Gaseous Form",
  "img": "systems/pf1/icons/misc/magic-swirl.png",
  "collection": "pf1.spells",
  "resultId": "mqdoexj35atgqafn",
  "weight": 5,
  "range": [
    21,
    25
  ],
  "drawn": false,
  "_key": "!tables.results!h0G1Fj2UnFtz02E0.h05fzCQht7j3gv67"
}