{
  "_id": "U5MgGhHZuiZwjyEN",
  "flags": {},
  "type": 0,
  "text": "16,000",
  "img": "icons/svg/d20-black.svg",
  "resultId": "",
  "weight": 1,
  "range": [
    91,
    100
  ],
  "drawn": false,
  "_key": "!tables.results!I20A7GVGTt8svB5R.U5MgGhHZuiZwjyEN"
}