{
  "_id": "tR58GIK2GL7bDLs9",
  "flags": {
    "better-rolltables": {
      "brt-result-formula": {
        "formula": ""
      }
    }
  },
  "type": 2,
  "text": "Battle Aspergillum",
  "img": "systems/pf1/icons/items/weapons/battle-aspergillum.png",
  "collection": "pf1.weapons-and-ammo",
  "resultId": "EIBbk25EwcmJqoKC",
  "weight": 1,
  "range": [
    1,
    1
  ],
  "drawn": false,
  "_key": "!tables.results!72zqtiYTb1AiDydF.tR58GIK2GL7bDLs9"
}