{
  "_id": "EuZ4m0d7RAyr0XxI",
  "flags": {},
  "type": 2,
  "text": "Grease",
  "img": "systems/pf1/icons/misc/magic-swirl.png",
  "collection": "pf1.spells",
  "resultId": "ik9u3eel5vfwrtb5",
  "weight": 2,
  "range": [
    47,
    48
  ],
  "drawn": false,
  "_key": "!tables.results!fifQBagT9v3tPWjW.EuZ4m0d7RAyr0XxI"
}