{
  "_id": "vAwPB9oKVcaAMOEA",
  "flags": {
    "better-rolltables": {
      "brt-result-formula": {
        "formula": ""
      }
    }
  },
  "type": 2,
  "text": "Stinking Cloud",
  "img": "systems/pf1/icons/misc/magic-swirl.png",
  "collection": "pf1.spells",
  "resultId": "kjke96zd1j1jz48z",
  "weight": 3,
  "range": [
    79,
    81
  ],
  "drawn": false,
  "_key": "!tables.results!nwyFcMtuCrcLVDgR.vAwPB9oKVcaAMOEA"
}