{
  "_id": "pQNaC3ft9tI17p9E",
  "flags": {
    "better-rolltables": {
      "brt-result-formula": {
        "formula": ""
      }
    }
  },
  "type": 2,
  "text": "Greater Minor Armour and Shields",
  "img": "icons/equipment/chest/breastplate-banded-steel-studded.webp",
  "collection": "pf-content.pf-magic-tables",
  "resultId": "c0TFgztciG9HrfjJ",
  "weight": 1,
  "range": [
    1,
    4
  ],
  "drawn": false,
  "rangeL": 1,
  "rangeH": 4,
  "_key": "!tables.results!TbLlKyCioDD2AVgH.pQNaC3ft9tI17p9E"
}