{
  "_id": "2lrOszqeWz7c43x3",
  "flags": {},
  "type": 2,
  "text": "Lion's Shield",
  "img": "systems/pf1/icons/items/armor/shield-light-metal.png",
  "collection": "pf-content.pf-magicitems",
  "resultId": "ur9YJ7sv5fHRTQ4x",
  "weight": 1,
  "range": [
    66,
    100
  ],
  "drawn": false,
  "_key": "!tables.results!Qfbfr8IatWdSaq2h.2lrOszqeWz7c43x3"
}