{
  "_id": "kmPJeQ0zSjCxnMLW",
  "flags": {
    "better-rolltables": {
      "brt-result-formula": {
        "formula": ""
      }
    }
  },
  "type": 2,
  "text": "Continual Flame",
  "img": "systems/pf1/icons/misc/magic-swirl.png",
  "collection": "pf1.spells",
  "resultId": "b8vp8fgt1o6pq1qc",
  "weight": 3,
  "range": [
    91,
    93
  ],
  "drawn": false,
  "_key": "!tables.results!WeUu0rFOMNi1av0x.kmPJeQ0zSjCxnMLW"
}