{
  "_id": "tRaatu147wUtoB0T",
  "flags": {
    "better-rolltables": {
      "brt-result-formula": {
        "formula": ""
      }
    }
  },
  "type": 2,
  "text": "Parade Armor",
  "img": "systems/pf1/icons/items/armor/parade-armor.png",
  "collection": "pf1.armors-and-shields",
  "resultId": "9UAJTH51u59M1tau",
  "weight": 1,
  "range": [
    7,
    7
  ],
  "drawn": false,
  "_key": "!tables.results!duDBDzs65XUNg31p.tRaatu147wUtoB0T"
}