{
  "_id": "HJveb5RagMe9J3Fo",
  "flags": {
    "better-rolltables": {
      "brt-result-formula": {
        "formula": ""
      }
    }
  },
  "type": 0,
  "text": "Bane: Outsider (Evil)",
  "img": "icons/svg/d20-black.svg",
  "resultId": "",
  "weight": 3,
  "range": [
    78,
    80
  ],
  "drawn": false,
  "_key": "!tables.results!XYMcAtKi3v8CqRr9.HJveb5RagMe9J3Fo"
}