{
  "_id": "X5IVCvcwy7uH1UzT",
  "flags": {},
  "type": 0,
  "text": "+3, with one +1 special ability:",
  "img": "icons/svg/d20-black.svg",
  "resultId": "",
  "weight": 12,
  "range": [
    20,
    27
  ],
  "drawn": false,
  "_key": "!tables.results!xiye8g60Sugv2iA2.X5IVCvcwy7uH1UzT"
}