{
  "_id": "YTKnlooIjnDFCfz4",
  "flags": {
    "better-rolltables": {
      "brt-result-formula": {
        "formula": ""
      }
    }
  },
  "type": 0,
  "text": "Lungchuan Tamo",
  "img": "icons/svg/d20-black.svg",
  "resultId": "",
  "weight": 1,
  "range": [
    22,
    22
  ],
  "drawn": false,
  "_key": "!tables.results!72zqtiYTb1AiDydF.YTKnlooIjnDFCfz4"
}