{
  "_id": "RZXEDx3J3QSlpOLf",
  "flags": {
    "better-rolltables": {
      "brt-result-formula": {
        "formula": ""
      }
    }
  },
  "type": 2,
  "text": "Reduce Animal",
  "img": "systems/pf1/icons/misc/magic-swirl.png",
  "collection": "pf1.spells",
  "resultId": "xpbgovfguxskvniy",
  "weight": 5,
  "range": [
    68,
    72
  ],
  "drawn": false,
  "_key": "!tables.results!KbGqR2w7YPK5iXMw.RZXEDx3J3QSlpOLf"
}