{
  "_id": "fwmYvZqK9pyO5ETf",
  "flags": {
    "better-rolltables": {
      "brt-result-formula": {
        "formula": ""
      }
    }
  },
  "type": 2,
  "text": "Common Level 2 Arcane Scrolls",
  "img": "icons/sundries/scrolls/scroll-bound-sealed-black-orange.webp",
  "collection": "pf-content.pf-magic-tables",
  "resultId": "VJdq2HWCWIdWnPIR",
  "weight": 5,
  "range": [
    96,
    100
  ],
  "drawn": false,
  "_key": "!tables.results!6IkNz16s1s9a0Q7P.fwmYvZqK9pyO5ETf"
}