{
  "_id": "r0BilyJJFlv3ZObs",
  "flags": {
    "better-rolltables": {
      "brt-result-formula": {
        "formula": ""
      }
    }
  },
  "type": 2,
  "text": "Uncommon Level 1 Wands",
  "img": "icons/weapons/wands/wand-gem-teal.webp",
  "collection": "pf-content.pf-magic-tables",
  "resultId": "Ojdxyzq92m1nyIMf",
  "weight": 1,
  "range": [
    83,
    83
  ],
  "drawn": false,
  "rangeL": 83,
  "rangeH": 83,
  "_key": "!tables.results!TbLlKyCioDD2AVgH.r0BilyJJFlv3ZObs"
}