{
  "_id": "gN9pRgp2Kgc6FpiI",
  "flags": {},
  "type": 0,
  "text": "28,825 gp",
  "img": "icons/svg/d20-black.svg",
  "resultId": "",
  "weight": 1,
  "range": [
    95,
    100
  ],
  "drawn": false,
  "_key": "!tables.results!uXzAusoy9wUI1yii.gN9pRgp2Kgc6FpiI"
}