{
  "_id": "2lrOszqeWz7c43x3",
  "flags": {
    "better-rolltables": {
      "brt-result-formula": {
        "formula": ""
      }
    }
  },
  "type": 2,
  "text": "Prismatic Plate",
  "img": "systems/pf1/icons/items/armor/hellknight-leather.PNG",
  "collection": "pf-content.pf-magicitems",
  "resultId": "1LUakvIYSW7SVWgD",
  "weight": 1,
  "range": [
    97,
    100
  ],
  "drawn": false,
  "_key": "!tables.results!gybFG7lkYK4GJTLj.2lrOszqeWz7c43x3"
}