{
  "_id": "KJOLwAMUYTBZkbTG",
  "flags": {},
  "type": 2,
  "text": "Glyph of Warding",
  "img": "systems/pf1/icons/misc/magic-swirl.png",
  "collection": "pf1.spells",
  "resultId": "53dyu81yaw4y0nz4",
  "weight": 1,
  "range": [
    99,
    99
  ],
  "drawn": false,
  "_key": "!tables.results!kPxi5l3FlGLyTQSi.KJOLwAMUYTBZkbTG"
}