{
  "_id": "gk1SxgmbAfn1a0NN",
  "flags": {
    "better-rolltables": {
      "brt-result-formula": {
        "formula": ""
      }
    }
  },
  "type": 2,
  "text": "Refuge",
  "img": "systems/pf1/icons/misc/magic-swirl.png",
  "collection": "pf1.spells",
  "resultId": "080el1lfozrhf6c2",
  "weight": 5,
  "range": [
    96,
    100
  ],
  "drawn": false,
  "_key": "!tables.results!2ElYVVBi2UJILxXQ.gk1SxgmbAfn1a0NN"
}