{
  "_id": "eFs5HRX4y0FpbG3R",
  "flags": {
    "better-rolltables": {
      "brt-result-formula": {
        "formula": ""
      }
    }
  },
  "type": 2,
  "text": "Snag Net",
  "img": "systems/pf1/icons/items/weapons/net.png",
  "collection": "pf1.weapons-and-ammo",
  "resultId": "o4vWDCKqxbn9Gelq",
  "weight": 1,
  "range": [
    33,
    33
  ],
  "drawn": false,
  "_key": "!tables.results!4XWBeNQEeruUw2U9.eFs5HRX4y0FpbG3R"
}