{
  "_id": "Eg4SseiaRAjve4U2",
  "flags": {
    "better-rolltables": {
      "brt-result-formula": {
        "formula": ""
      }
    }
  },
  "type": 2,
  "text": "Glide",
  "img": "systems/pf1/icons/misc/magic-swirl.png",
  "collection": "pf1.spells",
  "resultId": "d8yy4njnr25hacek",
  "weight": 1,
  "range": [
    41,
    41
  ],
  "drawn": false,
  "_key": "!tables.results!GTSdrB8MokztIHzW.Eg4SseiaRAjve4U2"
}