{
  "_id": "YHCWPabbQpPkTXxu",
  "flags": {
    "better-rolltables": {
      "brt-result-formula": {
        "formula": ""
      }
    }
  },
  "type": 2,
  "text": "Levitate",
  "img": "systems/pf1/icons/misc/magic-swirl.png",
  "collection": "pf1.spells",
  "resultId": "plou8h168bfn5hq6",
  "weight": 5,
  "range": [
    62,
    66
  ],
  "drawn": false,
  "_key": "!tables.results!dtXhs097VtxyPHpw.YHCWPabbQpPkTXxu"
}