{
  "_id": "FoEEFMrAQc8dX7Uw",
  "flags": {
    "better-rolltables": {
      "brt-result-formula": {
        "formula": ""
      }
    }
  },
  "type": 2,
  "text": "Mage Armor",
  "img": "systems/pf1/icons/misc/magic-swirl.png",
  "collection": "pf1.spells",
  "resultId": "ucc0a31d1y86oleh",
  "weight": 8,
  "range": [
    34,
    41
  ],
  "drawn": false,
  "_key": "!tables.results!0WVF1i5DCmFkb9pl.FoEEFMrAQc8dX7Uw"
}