{
  "_id": "RUFrxj0dYWmbcj2e",
  "flags": {},
  "type": 2,
  "text": "Metamagic Rods (+3 Spell Level), Normal",
  "img": "icons/weapons/wands/wand-gem-teal.webp",
  "collection": "pf-content.pf-magic-tables",
  "resultId": "MagB5tV8y65b7cFr",
  "weight": 1,
  "range": [
    43,
    45
  ],
  "drawn": false,
  "rangeL": 43,
  "rangeH": 45,
  "_key": "!tables.results!bqMOCg4zoZShwoz7.RUFrxj0dYWmbcj2e"
}