{
  "_id": "7bNUIlSkG7hsH9vh",
  "flags": {
    "better-rolltables": {
      "brt-result-formula": {
        "formula": ""
      }
    }
  },
  "type": 2,
  "text": "Animate Dead",
  "img": "systems/pf1/icons/misc/magic-swirl.png",
  "collection": "pf1.spells",
  "resultId": "8uwmrygxgih1fb57",
  "weight": 3,
  "range": [
    98,
    100
  ],
  "drawn": false,
  "_key": "!tables.results!EMFZvVvAceeWf58W.7bNUIlSkG7hsH9vh"
}