{
  "_id": "wDSpnhqfOMNsrZ95",
  "flags": {
    "better-rolltables": {
      "brt-result-formula": {
        "formula": ""
      }
    }
  },
  "type": 2,
  "text": "+1 Weapon Special Ability",
  "img": "icons/svg/d20-grey.svg",
  "collection": "pf-content.pf-magic-tables",
  "resultId": "76bTIbzwDWKspYoJ",
  "weight": 20,
  "range": [
    15,
    35
  ],
  "drawn": false,
  "_key": "!tables.results!E9KLCjEA3mvSWVIG.wDSpnhqfOMNsrZ95"
}