{
  "_id": "4c53fcewKgKjsjbq",
  "flags": {},
  "type": 0,
  "text": "Wand",
  "img": "icons/svg/d20-black.svg",
  "resultId": "",
  "weight": 1,
  "range": [
    1,
    100
  ],
  "drawn": false,
  "_key": "!tables.results!MNyecR1TI8xc6Bmc.4c53fcewKgKjsjbq"
}