{
  "_id": "louAXQGrI7dL1irs",
  "flags": {
    "better-rolltables": {
      "brt-result-formula": {
        "formula": ""
      }
    }
  },
  "type": 2,
  "text": "Obscure Object",
  "img": "systems/pf1/icons/misc/magic-swirl.png",
  "collection": "pf1.spells",
  "resultId": "x5hunybxpzhd3gcm",
  "weight": 2,
  "range": [
    57,
    58
  ],
  "drawn": false,
  "_key": "!tables.results!WeUu0rFOMNi1av0x.louAXQGrI7dL1irs"
}