{
  "_id": "RRjrJTrKjUAWPB3W",
  "flags": {},
  "type": 2,
  "text": "Deathwatch",
  "img": "systems/pf1/icons/misc/magic-swirl.png",
  "collection": "pf1.spells",
  "resultId": "1hjxxr3k62rcpb5c",
  "weight": 2,
  "range": [
    20,
    21
  ],
  "drawn": false,
  "_key": "!tables.results!Ojdxyzq92m1nyIMf.RRjrJTrKjUAWPB3W"
}