{
  "_id": "YN7hNXliYsW7Rhuy",
  "flags": {
    "better-rolltables": {
      "brt-result-formula": {
        "formula": ""
      }
    }
  },
  "type": 2,
  "text": "Detect Poison",
  "img": "systems/pf1/icons/misc/magic-swirl.png",
  "collection": "pf1.spells",
  "resultId": "kgynwswfuj9oo0es",
  "weight": 10,
  "range": [
    26,
    35
  ],
  "drawn": false,
  "_key": "!tables.results!5BRZGh1QWUEg0Fs7.YN7hNXliYsW7Rhuy"
}