{
  "_id": "4i4YqT0GVCWCTrp9",
  "flags": {
    "better-rolltables": {
      "brt-result-formula": {
        "formula": ""
      }
    }
  },
  "type": 2,
  "text": "Blessing of the Salamander",
  "img": "systems/pf1/icons/misc/magic-swirl.png",
  "collection": "pf1.spells",
  "resultId": "3evz2hiv9r97vtmm",
  "weight": 3,
  "range": [
    9,
    11
  ],
  "drawn": false,
  "_key": "!tables.results!iSA3cNDMoW5uqQIF.4i4YqT0GVCWCTrp9"
}