{
  "_id": "Kq8vTkxKFSjz2mdB",
  "flags": {
    "better-rolltables": {
      "brt-result-formula": {
        "formula": ""
      }
    }
  },
  "type": 2,
  "text": "Energy Drain",
  "img": "systems/pf1/icons/misc/magic-swirl.png",
  "collection": "pf1.spells",
  "resultId": "khfprkujokr9uigq",
  "weight": 8,
  "range": [
    8,
    15
  ],
  "drawn": false,
  "_key": "!tables.results!KCr03KGPwBiGS4Eo.Kq8vTkxKFSjz2mdB"
}