{
  "_id": "U5MgGhHZuiZwjyEN",
  "flags": {},
  "type": 0,
  "text": "+5 bonus",
  "img": "icons/svg/d20-black.svg",
  "resultId": "",
  "weight": 1,
  "range": [
    86,
    100
  ],
  "drawn": false,
  "_key": "!tables.results!eu7zrveJEcGp9nWD.U5MgGhHZuiZwjyEN"
}