{
  "_id": "CSGN2KoqzxzVLZIX",
  "flags": {
    "better-rolltables": {
      "brt-result-formula": {
        "formula": ""
      }
    }
  },
  "type": 2,
  "text": "Glyph of Warding",
  "img": "systems/pf1/icons/misc/magic-swirl.png",
  "collection": "pf1.spells",
  "resultId": "53dyu81yaw4y0nz4",
  "weight": 2,
  "range": [
    97,
    98
  ],
  "drawn": false,
  "_key": "!tables.results!WeUu0rFOMNi1av0x.CSGN2KoqzxzVLZIX"
}