{
  "_id": "h4z1zevtDkBOGjou",
  "flags": {
    "better-rolltables": {
      "brt-result-formula": {
        "formula": ""
      }
    }
  },
  "type": 2,
  "text": "Guards and Wards",
  "img": "systems/pf1/icons/misc/magic-swirl.png",
  "collection": "pf1.spells",
  "resultId": "8z4tlk1fojr9t9yb",
  "weight": 2,
  "range": [
    58,
    59
  ],
  "drawn": false,
  "_key": "!tables.results!G9O3WmOBE4zquqTi.h4z1zevtDkBOGjou"
}