{
  "_id": "fxOuLMkwG3y6WYiB",
  "flags": {
    "better-rolltables": {
      "brt-result-formula": {
        "formula": ""
      }
    }
  },
  "type": 2,
  "text": "Scent Trail",
  "img": "systems/pf1/icons/misc/magic-swirl.png",
  "collection": "pf1.spells",
  "resultId": "sxmqgt29h4ojebx6",
  "weight": 2,
  "range": [
    61,
    62
  ],
  "drawn": false,
  "_key": "!tables.results!aH64d9BiT0SOKezM.fxOuLMkwG3y6WYiB"
}