{
  "_id": "f2QRmAQVkfSLKWjH",
  "flags": {
    "better-rolltables": {
      "brt-result-formula": {
        "formula": ""
      }
    }
  },
  "type": 2,
  "text": "Padded Armor",
  "img": "systems/pf1/icons/items/armor/padded.png",
  "collection": "pf1.armors-and-shields",
  "resultId": "ziXQ1DlDMGTAUOe9",
  "weight": 1,
  "range": [
    2,
    2
  ],
  "drawn": false,
  "_key": "!tables.results!duDBDzs65XUNg31p.f2QRmAQVkfSLKWjH"
}