{
  "_id": "HYITcbsZlD0K8GFP",
  "flags": {},
  "type": 0,
  "text": "+4",
  "img": "icons/svg/d20-black.svg",
  "resultId": "",
  "weight": 12,
  "range": [
    11,
    19
  ],
  "drawn": false,
  "_key": "!tables.results!xiye8g60Sugv2iA2.HYITcbsZlD0K8GFP"
}