{
  "_id": "AUEODBHtpNlOuawf",
  "flags": {
    "better-rolltables": {
      "brt-result-formula": {
        "formula": ""
      }
    }
  },
  "type": 2,
  "text": "Weapon Type",
  "img": "systems/pf1/icons/skills/weapon_22.jpg",
  "collection": "pf-content.pf-magic-tables",
  "resultId": "fT9YjsKsPLwYznz7",
  "weight": 20,
  "range": [
    1,
    40
  ],
  "drawn": false,
  "_key": "!tables.results!Sa0HV1bL7OtDeu3u.AUEODBHtpNlOuawf"
}