{
  "_id": "2lrOszqeWz7c43x3",
  "flags": {},
  "type": 2,
  "text": "Designating (greater)",
  "img": "icons/weapons/ammunition/arrow-head-war-flight.webp",
  "collection": "pf-content.pf-special-qualities",
  "resultId": "0wTHpOq0DwKVzpdr",
  "weight": 1,
  "range": [
    67,
    100
  ],
  "drawn": false,
  "_key": "!tables.results!hjDQcZZ5S58CV7aV.2lrOszqeWz7c43x3"
}