{
  "_id": "7ZuXK7pQ4fiK9i1D",
  "flags": {
    "better-rolltables": {
      "brt-result-formula": {
        "formula": ""
      }
    }
  },
  "type": 2,
  "text": "Heroism",
  "img": "systems/pf1/icons/misc/magic-swirl.png",
  "collection": "pf1.spells",
  "resultId": "vqfrp8t0c1lw1jna",
  "weight": 3,
  "range": [
    38,
    40
  ],
  "drawn": false,
  "_key": "!tables.results!nwyFcMtuCrcLVDgR.7ZuXK7pQ4fiK9i1D"
}