{
  "_id": "8Sy7H0xkvqAHIfAD",
  "flags": {},
  "type": 0,
  "text": "+2",
  "img": "icons/svg/d20-black.svg",
  "resultId": "",
  "weight": 27,
  "range": [
    21,
    40
  ],
  "drawn": false,
  "_key": "!tables.results!c0TFgztciG9HrfjJ.8Sy7H0xkvqAHIfAD"
}