{
  "_id": "2lrOszqeWz7c43x3",
  "flags": {},
  "type": 2,
  "text": "Hunter's Cloak",
  "img": "icons/svg/d20-black.svg",
  "collection": "pf-content.pf-wondrous",
  "resultId": "4ymg1RJvayMwKUHS",
  "weight": 1,
  "range": [
    95,
    100
  ],
  "drawn": false,
  "_key": "!tables.results!6MEQphEEfKqXLgtR.2lrOszqeWz7c43x3"
}