{
  "_id": "O5aDwl2pHtzNB5Lm",
  "flags": {},
  "type": 2,
  "text": "Chill Metal",
  "img": "systems/pf1/icons/misc/magic-swirl.png",
  "collection": "pf1.spells",
  "resultId": "3p5s2rkpe7u7ifzn",
  "weight": 3,
  "range": [
    22,
    24
  ],
  "drawn": false,
  "_key": "!tables.results!7ZDjKM4rlZJIqz9t.O5aDwl2pHtzNB5Lm"
}