{
  "_id": "4xCe35L0b1coClWD",
  "flags": {
    "better-rolltables": {
      "brt-result-formula": {
        "formula": ""
      }
    }
  },
  "type": 2,
  "text": "Common Level 3 Divine Scrolls",
  "img": "icons/sundries/scrolls/scroll-bound-sealed-orange.webp",
  "collection": "pf-content.pf-magic-tables",
  "resultId": "EMFZvVvAceeWf58W",
  "weight": 10,
  "range": [
    91,
    100
  ],
  "drawn": false,
  "_key": "!tables.results!jxm6jJi2l2qLmVli.4xCe35L0b1coClWD"
}