{
  "_id": "3CrpuEYPfSisMoen",
  "flags": {
    "better-rolltables": {
      "brt-result-formula": {
        "formula": ""
      }
    }
  },
  "type": 2,
  "text": "Animate Rope",
  "img": "systems/pf1/icons/misc/magic-swirl.png",
  "collection": "pf1.spells",
  "resultId": "7k5ypftnzy9r7mzz",
  "weight": 2,
  "range": [
    7,
    8
  ],
  "drawn": false,
  "_key": "!tables.results!cYCnZgLBjKS3rxV2.3CrpuEYPfSisMoen"
}