{
  "_id": "2lrOszqeWz7c43x3",
  "flags": {},
  "type": 2,
  "text": "Thundering",
  "img": "systems/pf1/icons/skills/violet_04.jpg",
  "collection": "pf-content.pf-special-qualities",
  "resultId": "oeONR56hlllcddEm",
  "weight": 1,
  "range": [
    93,
    100
  ],
  "drawn": false,
  "_key": "!tables.results!3N5glZsqEHzX9uCw.2lrOszqeWz7c43x3"
}