{
  "_id": "6kgn9ouvLAfgX89y",
  "flags": {
    "better-rolltables": {
      "brt-result-formula": {
        "formula": ""
      }
    }
  },
  "type": 2,
  "text": "Globe of Invulnerability",
  "img": "systems/pf1/icons/misc/magic-swirl.png",
  "collection": "pf1.spells",
  "resultId": "w6ttezzz9rt4qnh7",
  "weight": 3,
  "range": [
    54,
    56
  ],
  "drawn": false,
  "_key": "!tables.results!XgOb7FjVyToQrT28.6kgn9ouvLAfgX89y"
}