{
  "_id": "eXpjurJV95TeAjbD",
  "flags": {
    "better-rolltables": {
      "brt-result-formula": {
        "formula": ""
      }
    }
  },
  "type": 2,
  "text": "Summon Nature's Ally II",
  "img": "systems/pf1/icons/misc/magic-swirl.png",
  "collection": "pf1.spells",
  "resultId": "9fdte3s6lnanf9rg",
  "weight": 2,
  "range": [
    92,
    93
  ],
  "drawn": false,
  "_key": "!tables.results!ScAeR4ImuVB68nz1.eXpjurJV95TeAjbD"
}