{
  "_id": "dMBQdU6JXqobxH9E",
  "flags": {
    "better-rolltables": {
      "brt-result-formula": {
        "formula": ""
      }
    }
  },
  "type": 2,
  "text": "Dictum",
  "img": "systems/pf1/icons/misc/magic-swirl.png",
  "collection": "pf1.spells",
  "resultId": "7e22urxux6i2mua5",
  "weight": 4,
  "range": [
    25,
    28
  ],
  "drawn": false,
  "_key": "!tables.results!1mpZODkUPoK1bmi3.dMBQdU6JXqobxH9E"
}