{
  "_id": "CXEhSNL8T1SFFpZR",
  "flags": {
    "better-rolltables": {
      "brt-result-formula": {
        "formula": ""
      }
    }
  },
  "type": 2,
  "text": "Enlarge Person",
  "img": "systems/pf1/icons/misc/magic-swirl.png",
  "collection": "pf1.spells",
  "resultId": "jnlr9cuepka1l26e",
  "weight": 8,
  "range": [
    20,
    27
  ],
  "drawn": false,
  "_key": "!tables.results!0WVF1i5DCmFkb9pl.CXEhSNL8T1SFFpZR"
}