{
  "_id": "2lrOszqeWz7c43x3",
  "flags": {},
  "type": 2,
  "text": "Toppling Metamagic Rod",
  "img": "systems/pf1/icons/items/weapons/sword-cane.png",
  "collection": "pf-content.pf-wondrous",
  "resultId": "2LxNuUfIqnHri61W",
  "weight": 1,
  "range": [
    96,
    100
  ],
  "drawn": false,
  "_key": "!tables.results!lGmbqABQCW8pcdLg.2lrOszqeWz7c43x3"
}