{
  "_id": "ksPNJ1F8Mi3uFQ3j",
  "flags": {},
  "type": 2,
  "text": "Crushing Despair",
  "img": "systems/pf1/icons/misc/magic-swirl.png",
  "collection": "pf1.spells",
  "resultId": "zt7cje76dck9hwp9",
  "weight": 2,
  "range": [
    15,
    16
  ],
  "drawn": false,
  "_key": "!tables.results!VmPCNRAGvxhJBFwf.ksPNJ1F8Mi3uFQ3j"
}