{
  "_id": "oBLmwEmUg8OvgzTz",
  "flags": {
    "better-rolltables": {
      "brt-result-formula": {
        "formula": ""
      }
    }
  },
  "type": 2,
  "text": "Cold Ice Strike",
  "img": "systems/pf1/icons/misc/magic-swirl.png",
  "collection": "pf1.spells",
  "resultId": "z20pbbpjqkxnltts",
  "weight": 4,
  "range": [
    16,
    19
  ],
  "drawn": false,
  "_key": "!tables.results!YilKy1GcxhSxq4sH.oBLmwEmUg8OvgzTz"
}