{
  "_id": "59b5yRY7VgTmTcY0",
  "flags": {
    "better-rolltables": {
      "brt-result-formula": {
        "formula": ""
      }
    }
  },
  "type": 2,
  "text": "Protection from Law",
  "img": "systems/pf1/icons/misc/magic-swirl.png",
  "collection": "pf1.spells",
  "resultId": "ekhygw5fzfe52n35",
  "weight": 2,
  "range": [
    70,
    71
  ],
  "drawn": false,
  "_key": "!tables.results!YYYZOSnDsV20zdJp.59b5yRY7VgTmTcY0"
}