{
  "_id": "43rKxdmDDz8gYqPt",
  "flags": {},
  "type": 2,
  "text": "Bleed",
  "img": "systems/pf1/icons/misc/magic-swirl.png",
  "collection": "pf1.spells",
  "resultId": "n390v9tbwxya1tz4",
  "weight": 9,
  "range": [
    7,
    15
  ],
  "drawn": false,
  "_key": "!tables.results!5nwKxmMad5RcCKP1.43rKxdmDDz8gYqPt"
}