{
  "_id": "BcqjTKK6n8LtAgwo",
  "flags": {
    "better-rolltables": {
      "brt-result-formula": {
        "formula": ""
      }
    }
  },
  "type": 2,
  "text": "+3 Weapon Special Abilities",
  "img": "icons/svg/d20-grey.svg",
  "collection": "pf-content.pf-magic-tables",
  "resultId": "YQHT7WtiVEePkuL2",
  "weight": 20,
  "range": [
    39,
    40
  ],
  "drawn": false,
  "_key": "!tables.results!Sa0HV1bL7OtDeu3u.BcqjTKK6n8LtAgwo"
}