{
  "_id": "X2yeEiMuBc9HKyjA",
  "flags": {
    "better-rolltables": {
      "brt-result-formula": {
        "formula": ""
      }
    }
  },
  "type": 2,
  "text": "Discern Lies",
  "img": "systems/pf1/icons/misc/magic-swirl.png",
  "collection": "pf1.spells",
  "resultId": "9vdjohbrj896e2ot",
  "weight": 3,
  "range": [
    23,
    25
  ],
  "drawn": false,
  "_key": "!tables.results!2WbcSSs3G1Z7AKXR.X2yeEiMuBc9HKyjA"
}