{
  "_id": "WY10IZa9DZuKPNsa",
  "flags": {
    "better-rolltables": {
      "brt-result-formula": {
        "formula": ""
      }
    }
  },
  "type": 0,
  "text": "Urumi",
  "img": "icons/svg/d20-black.svg",
  "resultId": "",
  "weight": 1,
  "range": [
    38,
    38
  ],
  "drawn": false,
  "_key": "!tables.results!5j28w13lJRkiv3PI.WY10IZa9DZuKPNsa"
}