{
  "_id": "J0z3FI3ErQffSF6Y",
  "flags": {
    "better-rolltables": {
      "brt-result-formula": {
        "formula": ""
      }
    }
  },
  "type": 2,
  "text": "Lesser Medium Arcane Scrolls",
  "img": "icons/sundries/scrolls/scroll-bound-sealed-red-white.webp",
  "collection": "pf-content.pf-magic-tables",
  "resultId": "9mvhhDtemf5JXC1F",
  "weight": 1,
  "range": [
    47,
    53
  ],
  "drawn": false,
  "rangeL": 47,
  "rangeH": 53,
  "_key": "!tables.results!5UmlBvgZ67Rs3PtQ.J0z3FI3ErQffSF6Y"
}