{
  "_id": "U5MgGhHZuiZwjyEN",
  "flags": {},
  "type": 0,
  "text": "45,000 gp",
  "img": "icons/svg/d20-black.svg",
  "resultId": "",
  "weight": 1,
  "range": [
    61,
    100
  ],
  "drawn": false,
  "_key": "!tables.results!l42W97vyree59i3X.U5MgGhHZuiZwjyEN"
}