{
  "_id": "UXH2C7e8W4P8ViWX",
  "flags": {
    "better-rolltables": {
      "brt-result-formula": {
        "formula": ""
      }
    }
  },
  "type": 2,
  "text": "Beast Shape II",
  "img": "systems/pf1/icons/misc/magic-swirl.png",
  "collection": "pf1.spells",
  "resultId": "774kmgcb7ygviht0",
  "weight": 3,
  "range": [
    1,
    3
  ],
  "drawn": false,
  "_key": "!tables.results!7OcSlcVtY2y1g8cy.UXH2C7e8W4P8ViWX"
}