{
  "_id": "T6BSZQb5oCamOzNY",
  "flags": {},
  "type": 0,
  "text": "+1, with one +1 special ability:",
  "img": "icons/svg/d20-black.svg",
  "resultId": "",
  "weight": 27,
  "range": [
    41,
    60
  ],
  "drawn": false,
  "_key": "!tables.results!c0TFgztciG9HrfjJ.T6BSZQb5oCamOzNY"
}