{
  "_id": "7MXs95WnyR9ltuns",
  "flags": {
    "better-rolltables": {
      "brt-result-formula": {
        "formula": ""
      }
    }
  },
  "type": 2,
  "text": "Siangham",
  "img": "systems/pf1/icons/items/weapons/siangham.PNG",
  "collection": "pf1.weapons-and-ammo",
  "resultId": "L4KYkvLrUYAQJcdl",
  "weight": 1,
  "range": [
    45,
    45
  ],
  "drawn": false,
  "_key": "!tables.results!72zqtiYTb1AiDydF.7MXs95WnyR9ltuns"
}