{
  "_id": "ZiwVDYkCl8L1KpJs",
  "flags": {
    "better-rolltables": {
      "brt-result-formula": {
        "formula": ""
      }
    }
  },
  "type": 2,
  "text": "Breastplate",
  "img": "systems/pf1/icons/items/armor/breastplate.PNG",
  "collection": "pf1.armors-and-shields",
  "resultId": "5TzaS38RPAx1oj9p",
  "weight": 1,
  "range": [
    8,
    8
  ],
  "drawn": false,
  "_key": "!tables.results!OY3eLbEotFWtF2Q2.ZiwVDYkCl8L1KpJs"
}