{
  "_id": "WYZHtBd5bZHKLPKf",
  "flags": {
    "better-rolltables": {
      "brt-result-formula": {
        "formula": ""
      }
    }
  },
  "type": 2,
  "text": "Shield of Faith",
  "img": "systems/pf1/icons/misc/magic-swirl.png",
  "collection": "pf1.spells",
  "resultId": "y2uhoqr4itdbw5g4",
  "weight": 6,
  "range": [
    89,
    94
  ],
  "drawn": false,
  "_key": "!tables.results!8qMPIb19AVDkKjZp.WYZHtBd5bZHKLPKf"
}