{
  "_id": "P3l7fbaRfqDFahDO",
  "flags": {
    "better-rolltables": {
      "brt-result-formula": {
        "formula": ""
      }
    }
  },
  "type": 2,
  "text": "Aid",
  "img": "systems/pf1/icons/misc/magic-swirl.png",
  "collection": "pf1.spells",
  "resultId": "ibk7jrc5rwubpia6",
  "weight": 4,
  "range": [
    1,
    4
  ],
  "drawn": false,
  "_key": "!tables.results!dtXhs097VtxyPHpw.P3l7fbaRfqDFahDO"
}