{
  "_id": "jmwz0XbBwYspYX1U",
  "flags": {
    "better-rolltables": {
      "brt-result-formula": {
        "formula": ""
      }
    }
  },
  "type": 0,
  "text": "Tepoztopilli",
  "img": "icons/svg/d20-black.svg",
  "resultId": "",
  "weight": 1,
  "range": [
    32,
    32
  ],
  "drawn": false,
  "_key": "!tables.results!BMDVuMyNnK14lP9l.jmwz0XbBwYspYX1U"
}