{
  "_id": "hAD9QE7VuW22h36j",
  "flags": {},
  "type": 2,
  "text": "+2 Shield Special Abilities",
  "img": "icons/equipment/shield/round-wooden-boss-notched-red.webp",
  "collection": "pf-content.pf-magic-tables",
  "resultId": "0rxSYC0uWfy5tL9D",
  "weight": 10,
  "range": [
    76,
    80
  ],
  "drawn": false,
  "_key": "!tables.results!30RRwmHpiSoXwfHE.hAD9QE7VuW22h36j"
}