{
  "_id": "0ddsUA9w93SEWNzr",
  "flags": {
    "better-rolltables": {
      "brt-result-formula": {
        "formula": ""
      }
    }
  },
  "type": 2,
  "text": "Shifting Sand",
  "img": "systems/pf1/icons/misc/magic-swirl.png",
  "collection": "pf1.spells",
  "resultId": "gfpijdqnckv9i34s",
  "weight": 3,
  "range": [
    65,
    67
  ],
  "drawn": false,
  "_key": "!tables.results!WeUu0rFOMNi1av0x.0ddsUA9w93SEWNzr"
}