{
  "_id": "FSfZLiRydik8Niga",
  "flags": {
    "better-rolltables": {
      "brt-result-formula": {
        "formula": ""
      }
    }
  },
  "type": 2,
  "text": "Lesser Medium Specific Weapons",
  "img": "icons/svg/d20-grey.svg",
  "collection": "pf-content.pf-magic-tables",
  "resultId": "CVzq9j2bjOeaZUSV",
  "weight": 20,
  "range": [
    81,
    100
  ],
  "drawn": false,
  "_key": "!tables.results!hIE1faa19lXWYdXE.FSfZLiRydik8Niga"
}