{
  "_id": "2MlJDaIAB2ra8SLa",
  "flags": {
    "better-rolltables": {
      "brt-result-formula": {
        "formula": ""
      }
    }
  },
  "type": 2,
  "text": "Uncommon Level 1 Potions and Oils",
  "img": "systems/pf1/icons/items/potions/minor-red.jpg",
  "collection": "pf-content.pf-magic-tables",
  "resultId": "3mPidIdKSHeaphcT",
  "weight": 1,
  "range": [
    10,
    32
  ],
  "drawn": false,
  "rangeL": 10,
  "rangeH": 32,
  "_key": "!tables.results!TbLlKyCioDD2AVgH.2MlJDaIAB2ra8SLa"
}