{
  "_id": "MEA7KChIyWgGROS8",
  "flags": {},
  "type": 2,
  "text": "Phantom Trap",
  "img": "systems/pf1/icons/misc/magic-swirl.png",
  "collection": "pf1.spells",
  "resultId": "np203icv5b3gr1s9",
  "weight": 1,
  "range": [
    100,
    100
  ],
  "drawn": false,
  "_key": "!tables.results!7ZDjKM4rlZJIqz9t.MEA7KChIyWgGROS8"
}