{
  "_id": "JVIS7V3ODjzSrX0B",
  "flags": {},
  "type": 2,
  "text": "Acid Arrow",
  "img": "systems/pf1/icons/misc/magic-swirl.png",
  "collection": "pf1.spells",
  "resultId": "wh9zc2reqneafxro",
  "weight": 2,
  "range": [
    1,
    2
  ],
  "drawn": false,
  "_key": "!tables.results!cTWxjjSE3QBvrnBt.JVIS7V3ODjzSrX0B"
}