{
  "_id": "jAAuqDnjsXhgTK7Q",
  "flags": {
    "better-rolltables": {
      "brt-result-formula": {
        "formula": ""
      }
    }
  },
  "type": 2,
  "text": "Frost",
  "img": "systems/pf1/icons/skills/violet_04.jpg",
  "collection": "pf-content.pf-special-qualities",
  "resultId": "jycc5bhVFUophNhQ",
  "weight": 13,
  "range": [
    44,
    56
  ],
  "drawn": false,
  "_key": "!tables.results!AvRuYsAnvU5N0lot.jAAuqDnjsXhgTK7Q"
}