{
  "_id": "ouflyiDweUabKB3H",
  "flags": {},
  "type": 0,
  "text": "+2, with one +2 special ability:",
  "img": "icons/svg/d20-black.svg",
  "resultId": "",
  "weight": 10,
  "range": [
    79,
    80
  ],
  "drawn": false,
  "_key": "!tables.results!30RRwmHpiSoXwfHE.ouflyiDweUabKB3H"
}