{
  "_id": "ix6vRpUOQPvj6BZ7",
  "flags": {
    "better-rolltables": {
      "brt-result-formula": {
        "formula": ""
      }
    }
  },
  "type": 0,
  "text": "Temple Sword",
  "img": "icons/svg/d20-black.svg",
  "resultId": "",
  "weight": 1,
  "range": [
    37,
    37
  ],
  "drawn": false,
  "_key": "!tables.results!5j28w13lJRkiv3PI.ix6vRpUOQPvj6BZ7"
}