{
  "_id": "1xblpZwJ40xiycwg",
  "flags": {
    "better-rolltables": {
      "brt-result-formula": {
        "formula": ""
      }
    }
  },
  "type": 2,
  "text": "Greater Medium Eye",
  "img": "icons/equipment/head/goggles-leather-blue.webp",
  "collection": "pf-content.pf-magic-tables",
  "resultId": "pTwngP3vdHl62EId",
  "weight": 1,
  "range": [
    83,
    84
  ],
  "drawn": false,
  "rangeL": 83,
  "rangeH": 84,
  "_key": "!tables.results!Ki0kXJ5yPIe8gi2r.1xblpZwJ40xiycwg"
}