{
  "_id": "iTOv0Ft6AoU95ZRF",
  "flags": {
    "better-rolltables": {
      "brt-result-formula": {
        "formula": ""
      }
    }
  },
  "type": 2,
  "text": "Arrow of Law",
  "img": "systems/pf1/icons/misc/magic-swirl.png",
  "collection": "pf1.spells",
  "resultId": "5iztb4bo8ybh1wzo",
  "weight": 3,
  "range": [
    11,
    13
  ],
  "drawn": false,
  "_key": "!tables.results!aH64d9BiT0SOKezM.iTOv0Ft6AoU95ZRF"
}