{
  "_id": "2lrOszqeWz7c43x3",
  "flags": {},
  "type": 0,
  "text": "@Compendium[pf-content.pf-wondrous.d5gZcPLgCSh5BRH9]{Horseshoes Of Mist}",
  "resultId": "",
  "weight": 1,
  "range": [
    73,
    100
  ],
  "drawn": false,
  "_key": "!tables.results!rbAWNYyrbope5U5d.2lrOszqeWz7c43x3"
}