{
  "_id": "ceZ1hN6FNmg9NpFA",
  "flags": {
    "better-rolltables": {
      "brt-result-formula": {
        "formula": ""
      }
    }
  },
  "type": 2,
  "text": "Shadow Projection",
  "img": "systems/pf1/icons/misc/magic-swirl.png",
  "collection": "pf1.spells",
  "resultId": "9u4mn2uxm862cpbb",
  "weight": 3,
  "range": [
    72,
    74
  ],
  "drawn": false,
  "_key": "!tables.results!74GR4HJc6t6n1mC1.ceZ1hN6FNmg9NpFA"
}