{
  "_id": "HrhIOZWcXhaiOTTv",
  "flags": {
    "better-rolltables": {
      "brt-result-formula": {
        "formula": ""
      }
    }
  },
  "type": 2,
  "text": "Hunga Munga",
  "img": "systems/pf1/icons/items/weapons/hunga-munga.PNG",
  "collection": "pf1.weapons-and-ammo",
  "resultId": "0TcB4dJHX1TDYslC",
  "weight": 1,
  "range": [
    14,
    14
  ],
  "drawn": false,
  "_key": "!tables.results!4XWBeNQEeruUw2U9.HrhIOZWcXhaiOTTv"
}