{
  "_id": "2lrOszqeWz7c43x3",
  "flags": {},
  "type": 0,
  "text": "@Compendium[pf-content.pf-wondrous.p7ju5ufckw9mDbks]{Arachnid Goggles}",
  "resultId": "",
  "weight": 1,
  "range": [
    83,
    100
  ],
  "drawn": false,
  "_key": "!tables.results!vSit7tLxGlHFetFa.2lrOszqeWz7c43x3"
}