{
  "_id": "lvMAWmzXqlEMxlus",
  "flags": {
    "better-rolltables": {
      "brt-result-formula": {
        "formula": ""
      }
    }
  },
  "type": 0,
  "text": "+2, with one +2 special ability:",
  "img": "icons/svg/d20-black.svg",
  "resultId": "",
  "weight": 12,
  "range": [
    43,
    50
  ],
  "drawn": false,
  "_key": "!tables.results!E9KLCjEA3mvSWVIG.lvMAWmzXqlEMxlus"
}