{
  "_id": "tjVL2CXXoxucC6oW",
  "flags": {
    "better-rolltables": {
      "brt-result-formula": {
        "formula": ""
      }
    }
  },
  "type": 2,
  "text": "Heal",
  "img": "systems/pf1/icons/misc/magic-swirl.png",
  "collection": "pf1.spells",
  "resultId": "4re1j2w8wkvsvnsi",
  "weight": 8,
  "range": [
    56,
    63
  ],
  "drawn": false,
  "_key": "!tables.results!LYxMTdR5eFR4memv.tjVL2CXXoxucC6oW"
}