{
  "_id": "EaVEisREfWdyLcJZ",
  "flags": {
    "better-rolltables": {
      "brt-result-formula": {
        "formula": ""
      }
    }
  },
  "type": 2,
  "text": "Planar Ally",
  "img": "systems/pf1/icons/misc/magic-swirl.png",
  "collection": "pf1.spells",
  "resultId": "gfvnfa5k1tnpvg8v",
  "weight": 4,
  "range": [
    97,
    100
  ],
  "drawn": false,
  "_key": "!tables.results!LYxMTdR5eFR4memv.EaVEisREfWdyLcJZ"
}