{
  "_id": "Wvi0cQBU8rfoSOMn",
  "flags": {
    "better-rolltables": {
      "brt-result-formula": {
        "formula": ""
      }
    }
  },
  "type": 2,
  "text": "Dwarven Urgrosh",
  "img": "systems/pf1/icons/items/weapons/dwarven-urgrosh.PNG",
  "collection": "pf1.weapons-and-ammo",
  "resultId": "aji2yHRoqFAHHfm6",
  "weight": 1,
  "range": [
    40,
    40
  ],
  "drawn": false,
  "_key": "!tables.results!BMDVuMyNnK14lP9l.Wvi0cQBU8rfoSOMn"
}