{
  "_id": "vy5ZXe4dZujcJJBS",
  "flags": {
    "better-rolltables": {
      "brt-result-formula": {
        "formula": ""
      }
    }
  },
  "type": 2,
  "text": "Command",
  "img": "systems/pf1/icons/misc/magic-swirl.png",
  "collection": "pf1.spells",
  "resultId": "2p6fzj5t03oivndd",
  "weight": 4,
  "range": [
    16,
    19
  ],
  "drawn": false,
  "_key": "!tables.results!8qMPIb19AVDkKjZp.vy5ZXe4dZujcJJBS"
}