{
  "_id": "2lrOszqeWz7c43x3",
  "flags": {},
  "type": 2,
  "text": "Word of Chaos",
  "img": "systems/pf1/icons/misc/magic-swirl.png",
  "collection": "pf1.spells",
  "resultId": "3zi4ie97hxr1d3ng",
  "weight": 1,
  "range": [
    99,
    100
  ],
  "drawn": false,
  "_key": "!tables.results!1bRJWO4UTzM0XSIK.2lrOszqeWz7c43x3"
}