{
  "_id": "Z8MBSRUpGwDXB9yM",
  "flags": {
    "better-rolltables": {
      "brt-result-formula": {
        "formula": ""
      }
    }
  },
  "type": 2,
  "text": "Scrying",
  "img": "systems/pf1/icons/misc/magic-swirl.png",
  "collection": "pf1.spells",
  "resultId": "g66w32kdup1f43bp",
  "weight": 5,
  "range": [
    79,
    83
  ],
  "drawn": false,
  "_key": "!tables.results!ha3Tn6vrPhLeagAr.Z8MBSRUpGwDXB9yM"
}