{
  "_id": "A6ZeivAvlI5kBYBT",
  "flags": {},
  "type": 2,
  "text": "Fire Trap",
  "img": "systems/pf1/icons/misc/magic-swirl.png",
  "collection": "pf1.spells",
  "resultId": "vi5fko8sb8mxlk0i",
  "weight": 1,
  "range": [
    100,
    100
  ],
  "drawn": false,
  "_key": "!tables.results!cTWxjjSE3QBvrnBt.A6ZeivAvlI5kBYBT"
}