{
  "_id": "PJQc1pWw7W6H6zfI",
  "flags": {
    "better-rolltables": {
      "brt-result-formula": {
        "formula": ""
      }
    }
  },
  "type": 2,
  "text": "Ogre Hook",
  "img": "systems/pf1/icons/items/weapons/ogre-hook.png",
  "collection": "pf1.weapons-and-ammo",
  "resultId": "JkoO6jywpLP87OHt",
  "weight": 1,
  "range": [
    27,
    27
  ],
  "drawn": false,
  "_key": "!tables.results!BMDVuMyNnK14lP9l.PJQc1pWw7W6H6zfI"
}