{
  "_id": "X7gPqKJpCfouMv6i",
  "flags": {
    "better-rolltables": {
      "brt-result-formula": {
        "formula": ""
      }
    }
  },
  "type": 2,
  "text": "Disintegrate",
  "img": "systems/pf1/icons/misc/magic-swirl.png",
  "collection": "pf1.spells",
  "resultId": "sxyiwj0z95piv96i",
  "weight": 6,
  "range": [
    26,
    31
  ],
  "drawn": false,
  "_key": "!tables.results!XgOb7FjVyToQrT28.X7gPqKJpCfouMv6i"
}