{
  "_id": "SdsldY76E8FAFO1e",
  "flags": {
    "better-rolltables": {
      "brt-result-formula": {
        "formula": ""
      }
    }
  },
  "type": 2,
  "text": "Common Level 1 Arcane Scrolls",
  "img": "icons/sundries/scrolls/scroll-bound-sealed-black-orange.webp",
  "collection": "pf-content.pf-magic-tables",
  "resultId": "YYYZOSnDsV20zdJp",
  "weight": 30,
  "range": [
    6,
    35
  ],
  "drawn": false,
  "_key": "!tables.results!lFiWAMikvb6AAe2w.SdsldY76E8FAFO1e"
}