{
  "_id": "mRkKzqNG7JWzQesK",
  "flags": {
    "better-rolltables": {
      "brt-result-formula": {
        "formula": ""
      }
    }
  },
  "type": 2,
  "text": "Dispel Magic, Greater",
  "img": "systems/pf1/icons/misc/magic-swirl.png",
  "collection": "pf1.spells",
  "resultId": "e5kw4dwf9qwty6tl",
  "weight": 6,
  "range": [
    32,
    37
  ],
  "drawn": false,
  "_key": "!tables.results!XgOb7FjVyToQrT28.mRkKzqNG7JWzQesK"
}