{
  "_id": "0SFOTbfmmdm7Fvv7",
  "flags": {
    "better-rolltables": {
      "brt-result-formula": {
        "formula": ""
      }
    }
  },
  "type": 2,
  "text": "Beast Shape I",
  "img": "systems/pf1/icons/misc/magic-swirl.png",
  "collection": "pf1.spells",
  "resultId": "tjdfluulncmqacc3",
  "weight": 3,
  "range": [
    1,
    3
  ],
  "drawn": false,
  "_key": "!tables.results!nwyFcMtuCrcLVDgR.0SFOTbfmmdm7Fvv7"
}