{
  "_id": "J0z3FI3ErQffSF6Y",
  "flags": {
    "better-rolltables": {
      "brt-result-formula": {
        "formula": ""
      }
    }
  },
  "type": 2,
  "text": "Greater Medium Arcane Scrolls",
  "img": "icons/sundries/scrolls/scroll-bound-sealed-red-white.webp",
  "collection": "pf-content.pf-magic-tables",
  "resultId": "LLRRe803UK31lyAS",
  "weight": 1,
  "range": [
    50,
    54
  ],
  "drawn": false,
  "rangeL": 50,
  "rangeH": 54,
  "_key": "!tables.results!Ki0kXJ5yPIe8gi2r.J0z3FI3ErQffSF6Y"
}