{
  "_id": "t8fi7lHZIeHgNSGi",
  "flags": {},
  "type": 2,
  "text": "Gaseous Form",
  "img": "systems/pf1/icons/misc/magic-swirl.png",
  "collection": "pf1.spells",
  "resultId": "mqdoexj35atgqafn",
  "weight": 1,
  "range": [
    38,
    38
  ],
  "drawn": false,
  "_key": "!tables.results!0aVojCkNbt3BZgNp.t8fi7lHZIeHgNSGi"
}