{
  "_id": "0uWC8CpgZrksN0Ys",
  "flags": {
    "better-rolltables": {
      "brt-result-formula": {
        "formula": ""
      }
    }
  },
  "type": 0,
  "text": "Potion of Protection From Energy, Fire",
  "img": "icons/svg/d20-black.svg",
  "resultId": "",
  "weight": 3,
  "range": [
    67,
    69
  ],
  "drawn": false,
  "_key": "!tables.results!h0G1Fj2UnFtz02E0.0uWC8CpgZrksN0Ys"
}