{
  "_id": "fpN58CPUf9vwJJpr",
  "flags": {},
  "type": 2,
  "text": "Greater Major Chest",
  "img": "icons/equipment/chest/robe-layered-purple.webp",
  "collection": "pf-content.pf-magic-tables",
  "resultId": "o5r28P2mEjP43XkJ",
  "weight": 1,
  "range": [
    81,
    82
  ],
  "drawn": false,
  "rangeL": 81,
  "rangeH": 82,
  "_key": "!tables.results!bqMOCg4zoZShwoz7.fpN58CPUf9vwJJpr"
}