{
  "_id": "uaSxfHVC6s68FOkX",
  "flags": {
    "better-rolltables": {
      "brt-result-formula": {
        "formula": ""
      }
    }
  },
  "type": 2,
  "text": "Heroism, Greater",
  "img": "systems/pf1/icons/misc/magic-swirl.png",
  "collection": "pf1.spells",
  "resultId": "z0duc2v2n3ioynta",
  "weight": 3,
  "range": [
    57,
    59
  ],
  "drawn": false,
  "_key": "!tables.results!XgOb7FjVyToQrT28.uaSxfHVC6s68FOkX"
}