{
  "_id": "RqjHobKxD4KYbfbR",
  "flags": {
    "better-rolltables": {
      "brt-result-formula": {
        "formula": ""
      }
    }
  },
  "type": 2,
  "text": "Hydraulic Push",
  "img": "systems/pf1/icons/misc/magic-swirl.png",
  "collection": "pf1.spells",
  "resultId": "ohy0ty2dawfaaqwd",
  "weight": 2,
  "range": [
    47,
    48
  ],
  "drawn": false,
  "_key": "!tables.results!cYCnZgLBjKS3rxV2.RqjHobKxD4KYbfbR"
}