{
  "_id": "2lrOszqeWz7c43x3",
  "flags": {},
  "type": 0,
  "text": "Widen Metamagic rod",
  "img": "icons/svg/d20-black.svg",
  "resultId": "",
  "weight": 1,
  "range": [
    71,
    100
  ],
  "drawn": false,
  "_key": "!tables.results!mCAGFlGwoWxK8cT3.2lrOszqeWz7c43x3"
}