{
  "_id": "bxP9UsWmXA9JtzLS",
  "flags": {
    "better-rolltables": {
      "brt-result-formula": {
        "formula": ""
      }
    }
  },
  "type": 0,
  "text": "+5, with one +3 special ability and one +2 special ability:",
  "img": "icons/svg/d20-black.svg",
  "resultId": "",
  "weight": 3,
  "range": [
    39,
    40
  ],
  "drawn": false,
  "_key": "!tables.results!Sa0HV1bL7OtDeu3u.bxP9UsWmXA9JtzLS"
}