{
  "_id": "ApIbgxtd9lhdsP65",
  "flags": {
    "better-rolltables": {
      "brt-result-formula": {
        "formula": ""
      }
    }
  },
  "type": 2,
  "text": "Shield Spikes (Light)",
  "img": "systems/pf1/icons/items/weapons/shield-spikes.PNG",
  "collection": "pf1.weapons-and-ammo",
  "resultId": "hIKoJ07Ykvh9IWQU",
  "weight": 1,
  "range": [
    3,
    3
  ],
  "drawn": false,
  "_key": "!tables.results!G9Wqbc7zfMVH3Cnw.ApIbgxtd9lhdsP65"
}