{
  "_id": "2lrOszqeWz7c43x3",
  "flags": {},
  "type": 2,
  "text": "Boots Of Levitation",
  "img": "icons/svg/d20-black.svg",
  "collection": "pf-content.pf-wondrous",
  "resultId": "l2f0rC2YxGv3C9jP",
  "weight": 1,
  "range": [
    83,
    100
  ],
  "drawn": false,
  "_key": "!tables.results!HStKze7YBEBUKb8d.2lrOszqeWz7c43x3"
}