{
  "_id": "SHITINLluXN93neX",
  "flags": {
    "better-rolltables": {
      "brt-result-formula": {
        "formula": ""
      }
    }
  },
  "type": 2,
  "text": "Neutralize Poison",
  "img": "systems/pf1/icons/misc/magic-swirl.png",
  "collection": "pf1.spells",
  "resultId": "6l904edkt8jv9jor",
  "weight": 5,
  "range": [
    57,
    61
  ],
  "drawn": false,
  "_key": "!tables.results!2WbcSSs3G1Z7AKXR.SHITINLluXN93neX"
}