{
  "_id": "NCf2Vmw37r7YdFiz",
  "flags": {
    "better-rolltables": {
      "brt-result-formula": {
        "formula": ""
      }
    }
  },
  "type": 2,
  "text": "+2 Ammunition Special Abilities",
  "img": "icons/svg/d20-grey.svg",
  "collection": "pf-content.pf-magic-tables",
  "resultId": "gihtqQepDlUQyfud",
  "weight": 20,
  "range": [
    76,
    76
  ],
  "drawn": false,
  "_key": "!tables.results!Sa0HV1bL7OtDeu3u.NCf2Vmw37r7YdFiz"
}