{
  "_id": "2lrOszqeWz7c43x3",
  "flags": {},
  "type": 2,
  "text": "Poisoner's Jacket, Greater",
  "img": "icons/svg/d20-black.svg",
  "collection": "pf-content.pf-wondrous",
  "resultId": "apBBlTfMnghj4U54",
  "weight": 1,
  "range": [
    61,
    100
  ],
  "drawn": false,
  "_key": "!tables.results!SPuOyuNrCaAppPjs.2lrOszqeWz7c43x3"
}