{
  "_id": "UhF3zol3QvL5Dcmb",
  "flags": {
    "better-rolltables": {
      "brt-result-formula": {
        "formula": ""
      }
    }
  },
  "type": 2,
  "text": "Hold Person",
  "img": "systems/pf1/icons/misc/magic-swirl.png",
  "collection": "pf1.spells",
  "resultId": "78kwl5t99j9e8tzh",
  "weight": 3,
  "range": [
    41,
    43
  ],
  "drawn": false,
  "_key": "!tables.results!nwyFcMtuCrcLVDgR.UhF3zol3QvL5Dcmb"
}