{
  "_id": "jpCMnl7my1vsgJRx",
  "flags": {},
  "type": 2,
  "text": "Doom",
  "img": "systems/pf1/icons/misc/magic-swirl.png",
  "collection": "pf1.spells",
  "resultId": "wa7p5zwwl1p0rt92",
  "weight": 4,
  "range": [
    32,
    35
  ],
  "drawn": false,
  "_key": "!tables.results!Ojdxyzq92m1nyIMf.jpCMnl7my1vsgJRx"
}