{
  "_id": "wDUZXG7V3UA3fdvV",
  "flags": {
    "better-rolltables": {
      "brt-result-formula": {
        "formula": ""
      }
    }
  },
  "type": 2,
  "text": "Continual Flame",
  "img": "systems/pf1/icons/misc/magic-swirl.png",
  "collection": "pf1.spells",
  "resultId": "b8vp8fgt1o6pq1qc",
  "weight": 5,
  "range": [
    31,
    35
  ],
  "drawn": false,
  "_key": "!tables.results!KbGqR2w7YPK5iXMw.wDUZXG7V3UA3fdvV"
}