{
  "_id": "6WlYWyq6um79iZok",
  "flags": {
    "better-rolltables": {
      "brt-result-formula": {
        "formula": ""
      }
    }
  },
  "type": 2,
  "text": "Open/Close",
  "img": "systems/pf1/icons/misc/magic-swirl.png",
  "collection": "pf1.spells",
  "resultId": "ug7ycubjoxgp7ppc",
  "weight": 7,
  "range": [
    62,
    68
  ],
  "drawn": false,
  "_key": "!tables.results!5BRZGh1QWUEg0Fs7.6WlYWyq6um79iZok"
}