{
  "_id": "aUEn1d4RFwgj1CqD",
  "flags": {
    "better-rolltables": {
      "brt-result-formula": {
        "formula": ""
      }
    }
  },
  "type": 2,
  "text": "Spiritual Ally",
  "img": "systems/pf1/icons/misc/magic-swirl.png",
  "collection": "pf1.spells",
  "resultId": "0lrux8tmaml5fkw6",
  "weight": 3,
  "range": [
    88,
    90
  ],
  "drawn": false,
  "_key": "!tables.results!ha3Tn6vrPhLeagAr.aUEn1d4RFwgj1CqD"
}