{
  "_id": "DD7k9PUGxNG45P4T",
  "flags": {},
  "type": 2,
  "text": "Water Breathing",
  "img": "systems/pf1/icons/misc/magic-swirl.png",
  "collection": "pf1.spells",
  "resultId": "7m5us8d4a9lwh1ap",
  "weight": 2,
  "range": [
    98,
    99
  ],
  "drawn": false,
  "_key": "!tables.results!0aVojCkNbt3BZgNp.DD7k9PUGxNG45P4T"
}