{
  "_id": "mMXGBPI79tqAFuAv",
  "flags": {},
  "type": 2,
  "text": "Hydraulic Torrent",
  "img": "systems/pf1/icons/misc/magic-swirl.png",
  "collection": "pf1.spells",
  "resultId": "478jgozgfbt20u0q",
  "weight": 2,
  "range": [
    44,
    45
  ],
  "drawn": false,
  "_key": "!tables.results!kPxi5l3FlGLyTQSi.mMXGBPI79tqAFuAv"
}