{
  "_id": "i6Q7HitJDgvTNPv6",
  "flags": {
    "better-rolltables": {
      "brt-result-formula": {
        "formula": ""
      }
    }
  },
  "type": 2,
  "text": "Reduce Person, Mass",
  "img": "systems/pf1/icons/misc/magic-swirl.png",
  "collection": "pf1.spells",
  "resultId": "f4v928e4ebt7h0hz",
  "weight": 2,
  "range": [
    63,
    64
  ],
  "drawn": false,
  "_key": "!tables.results!74GR4HJc6t6n1mC1.i6Q7HitJDgvTNPv6"
}