{
  "_id": "rmbVujoDqiJchYtI",
  "flags": {
    "better-rolltables": {
      "brt-result-formula": {
        "formula": ""
      }
    }
  },
  "type": 0,
  "text": "Rhoka Sword",
  "img": "icons/svg/d20-black.svg",
  "resultId": "",
  "weight": 1,
  "range": [
    33,
    33
  ],
  "drawn": false,
  "_key": "!tables.results!5j28w13lJRkiv3PI.rmbVujoDqiJchYtI"
}