{
  "_id": "VkVc8NIO8usQ9KSy",
  "flags": {
    "better-rolltables": {
      "brt-result-formula": {
        "formula": ""
      }
    }
  },
  "type": 2,
  "text": "Dispel Magic",
  "img": "systems/pf1/icons/misc/magic-swirl.png",
  "collection": "pf1.spells",
  "resultId": "gmgwyjfpeuuc4t4o",
  "weight": 5,
  "range": [
    24,
    28
  ],
  "drawn": false,
  "_key": "!tables.results!EMFZvVvAceeWf58W.VkVc8NIO8usQ9KSy"
}