{
  "_id": "HPLf7N7OPELsZxnR",
  "flags": {
    "better-rolltables": {
      "brt-result-formula": {
        "formula": ""
      }
    }
  },
  "type": 0,
  "text": "Emei Piercer",
  "img": "icons/svg/d20-black.svg",
  "resultId": "",
  "weight": 1,
  "range": [
    34,
    34
  ],
  "drawn": false,
  "_key": "!tables.results!72zqtiYTb1AiDydF.HPLf7N7OPELsZxnR"
}