{
  "_id": "hcii7yXbtHtEVeyf",
  "flags": {
    "better-rolltables": {
      "brt-result-formula": {
        "formula": ""
      }
    }
  },
  "type": 2,
  "text": "+4/+5 Weapon Special Abilities",
  "img": "icons/svg/d20-grey.svg",
  "collection": "pf-content.pf-magic-tables",
  "resultId": "E3Uv4gGcILiwGUZn",
  "weight": 20,
  "range": [
    37,
    38
  ],
  "drawn": false,
  "_key": "!tables.results!Sa0HV1bL7OtDeu3u.hcii7yXbtHtEVeyf"
}