{
  "_id": "nhSDYmFUIXmuQucG",
  "flags": {
    "better-rolltables": {
      "brt-result-formula": {
        "formula": ""
      }
    }
  },
  "type": 2,
  "text": "Shortsword",
  "img": "systems/pf1/icons/items/weapons/sword-short.PNG",
  "collection": "pf1.weapons-and-ammo",
  "resultId": "7tGcTtI2fEj1AFaT",
  "weight": 1,
  "range": [
    25,
    25
  ],
  "drawn": false,
  "_key": "!tables.results!72zqtiYTb1AiDydF.nhSDYmFUIXmuQucG"
}