{
  "_id": "iuMmUUf9De63OCAu",
  "flags": {
    "better-rolltables": {
      "brt-result-formula": {
        "formula": ""
      }
    }
  },
  "type": 0,
  "text": "Potion",
  "img": "icons/svg/d20-black.svg",
  "resultId": "",
  "weight": 5,
  "range": [
    1,
    100
  ],
  "drawn": false,
  "_key": "!tables.results!KbGqR2w7YPK5iXMw.iuMmUUf9De63OCAu"
}