{
  "_id": "sydAPkyDNbLbdkGS",
  "flags": {
    "better-rolltables": {
      "brt-result-formula": {
        "formula": ""
      }
    }
  },
  "type": 0,
  "text": "+1",
  "img": "icons/svg/d20-black.svg",
  "resultId": "",
  "weight": 20,
  "range": [
    71,
    72
  ],
  "drawn": false,
  "_key": "!tables.results!hIE1faa19lXWYdXE.sydAPkyDNbLbdkGS"
}