{
  "_id": "cB2SycFhikuoJb4P",
  "flags": {
    "better-rolltables": {
      "brt-result-formula": {
        "formula": ""
      }
    }
  },
  "type": 2,
  "text": "Fog Cloud",
  "img": "systems/pf1/icons/misc/magic-swirl.png",
  "collection": "pf1.spells",
  "resultId": "g33euis7yi9pwddy",
  "weight": 4,
  "range": [
    35,
    38
  ],
  "drawn": false,
  "_key": "!tables.results!GTSdrB8MokztIHzW.cB2SycFhikuoJb4P"
}