{
  "_id": "GSbDFyDZzsgcWDan",
  "flags": {
    "better-rolltables": {
      "brt-result-formula": {
        "formula": ""
      }
    }
  },
  "type": 2,
  "text": "Reincarnate",
  "img": "systems/pf1/icons/misc/magic-swirl.png",
  "collection": "pf1.spells",
  "resultId": "3w1ozzzf8hk0gdzm",
  "weight": 5,
  "range": [
    68,
    72
  ],
  "drawn": false,
  "_key": "!tables.results!ha3Tn6vrPhLeagAr.GSbDFyDZzsgcWDan"
}