{
  "_id": "zzhjqdQA90TCZ39y",
  "flags": {},
  "type": 2,
  "text": "Force Punch",
  "img": "systems/pf1/icons/misc/magic-swirl.png",
  "collection": "pf1.spells",
  "resultId": "lmst00dtapf4xhya",
  "weight": 4,
  "range": [
    31,
    34
  ],
  "drawn": false,
  "_key": "!tables.results!kPxi5l3FlGLyTQSi.zzhjqdQA90TCZ39y"
}