{
  "_id": "m2f5Zg3hq0PE66kb",
  "flags": {
    "better-rolltables": {
      "brt-result-formula": {
        "formula": ""
      }
    }
  },
  "type": 2,
  "text": "Ball Lightning",
  "img": "systems/pf1/icons/misc/magic-swirl.png",
  "collection": "pf1.spells",
  "resultId": "1moeejp3mch70ys5",
  "weight": 4,
  "range": [
    7,
    10
  ],
  "drawn": false,
  "_key": "!tables.results!74GR4HJc6t6n1mC1.m2f5Zg3hq0PE66kb"
}