{
  "_id": "U5MgGhHZuiZwjyEN",
  "flags": {},
  "type": 0,
  "text": "147,000 gp",
  "img": "icons/svg/d20-black.svg",
  "resultId": "",
  "weight": 1,
  "range": [
    98,
    100
  ],
  "drawn": false,
  "_key": "!tables.results!eCBumd3kZeo4sJ7D.U5MgGhHZuiZwjyEN"
}