{
  "_id": "5L5pcuuqxl5YsEO1",
  "flags": {
    "better-rolltables": {
      "brt-result-formula": {
        "formula": ""
      }
    }
  },
  "type": 2,
  "text": "+1 Ranged Weapon Special Abilities",
  "img": "icons/svg/d20-grey.svg",
  "collection": "pf-content.pf-magic-tables",
  "resultId": "nhm3eGrTtSj69V0X",
  "weight": 20,
  "range": [
    60,
    68
  ],
  "drawn": false,
  "_key": "!tables.results!hIE1faa19lXWYdXE.5L5pcuuqxl5YsEO1"
}