{
  "_id": "P5OHzMPbp5bbu6Fn",
  "flags": {
    "better-rolltables": {
      "brt-result-formula": {
        "formula": ""
      }
    }
  },
  "type": 2,
  "text": "Bane Subtypes",
  "img": "icons/svg/d20-grey.svg",
  "collection": "pf-content.pf-magic-tables",
  "resultId": "6uWjLZ4e9wtoseeB",
  "weight": 11,
  "range": [
    6,
    16
  ],
  "drawn": false,
  "_key": "!tables.results!AvRuYsAnvU5N0lot.P5OHzMPbp5bbu6Fn"
}