{
  "_id": "BYF9XRb37BMpZvMi",
  "flags": {
    "better-rolltables": {
      "brt-result-formula": {
        "formula": ""
      }
    }
  },
  "type": 2,
  "text": "Undetectable Alignment",
  "img": "systems/pf1/icons/misc/magic-swirl.png",
  "collection": "pf1.spells",
  "resultId": "vsr1e8ib0hfhbnxb",
  "weight": 1,
  "range": [
    85,
    85
  ],
  "drawn": false,
  "_key": "!tables.results!aH64d9BiT0SOKezM.BYF9XRb37BMpZvMi"
}