{
  "_id": "kogg9q0iIr3t7Uqa",
  "flags": {
    "better-rolltables": {
      "brt-result-formula": {
        "formula": ""
      }
    }
  },
  "type": 2,
  "text": "Secret Chest",
  "img": "systems/pf1/icons/misc/magic-swirl.png",
  "collection": "pf1.spells",
  "resultId": "d6lfhyonb3ewpjt4",
  "weight": 2,
  "range": [
    69,
    70
  ],
  "drawn": false,
  "_key": "!tables.results!63tGlqj040dbsLt9.kogg9q0iIr3t7Uqa"
}