{
  "_id": "cFMNwiwigMT1AqqX",
  "flags": {
    "better-rolltables": {
      "brt-result-formula": {
        "formula": ""
      }
    }
  },
  "type": 2,
  "text": "Winds of Vengeance",
  "img": "systems/pf1/icons/misc/magic-swirl.png",
  "collection": "pf1.spells",
  "resultId": "lun2gymejsmkjg4g",
  "weight": 9,
  "range": [
    72,
    80
  ],
  "drawn": false,
  "_key": "!tables.results!IMJyQQZRVRA359xS.cFMNwiwigMT1AqqX"
}