{
  "_id": "beVmrvkRw8AHURtj",
  "flags": {
    "better-rolltables": {
      "brt-result-formula": {
        "formula": ""
      }
    }
  },
  "type": 2,
  "text": "Eagle's Splendor, Mass",
  "img": "systems/pf1/icons/misc/magic-swirl.png",
  "collection": "pf1.spells",
  "resultId": "wkmkd6wvqjj15vnd",
  "weight": 5,
  "range": [
    33,
    37
  ],
  "drawn": false,
  "_key": "!tables.results!LYxMTdR5eFR4memv.beVmrvkRw8AHURtj"
}