{
  "_id": "tEgOuVnF9TIvUZxP",
  "flags": {
    "better-rolltables": {
      "brt-result-formula": {
        "formula": ""
      }
    }
  },
  "type": 2,
  "text": "Greater Medium Neck",
  "img": "icons/equipment/neck/pendant-rough-green.webp",
  "collection": "pf-content.pf-magic-tables",
  "resultId": "KQyLGR2aN64Guri6",
  "weight": 1,
  "range": [
    93,
    94
  ],
  "drawn": false,
  "rangeL": 93,
  "rangeH": 94,
  "_key": "!tables.results!Ki0kXJ5yPIe8gi2r.tEgOuVnF9TIvUZxP"
}