{
  "_id": "jDGaa0borexMoLi8",
  "flags": {},
  "type": 2,
  "text": "Secret Page",
  "img": "systems/pf1/icons/misc/magic-swirl.png",
  "collection": "pf1.spells",
  "resultId": "6klw6f8yrhu9z9mn",
  "weight": 1,
  "range": [
    70,
    70
  ],
  "drawn": false,
  "_key": "!tables.results!kPxi5l3FlGLyTQSi.jDGaa0borexMoLi8"
}