{
  "_id": "1lF54RGLpmfknLrc",
  "flags": {
    "better-rolltables": {
      "brt-result-formula": {
        "formula": ""
      }
    }
  },
  "type": 2,
  "text": "Remove Disease",
  "img": "systems/pf1/icons/misc/magic-swirl.png",
  "collection": "pf1.spells",
  "resultId": "ocbjt6z7amc3yn8w",
  "weight": 3,
  "range": [
    74,
    76
  ],
  "drawn": false,
  "_key": "!tables.results!EMFZvVvAceeWf58W.1lF54RGLpmfknLrc"
}