{
  "_id": "NoIwrQeEYhOjduqF",
  "flags": {
    "better-rolltables": {
      "brt-result-formula": {
        "formula": ""
      }
    }
  },
  "type": 2,
  "text": "Greater Medium Belt",
  "img": "icons/equipment/waist/belt-buckle-engraved-spiral.webp",
  "collection": "pf-content.pf-magic-tables",
  "resultId": "BlXgjU5kEcMurMSg",
  "weight": 1,
  "range": [
    77,
    78
  ],
  "drawn": false,
  "rangeL": 77,
  "rangeH": 78,
  "_key": "!tables.results!Ki0kXJ5yPIe8gi2r.NoIwrQeEYhOjduqF"
}