{
  "_id": "6GBPK1ACa672LjTN",
  "flags": {
    "better-rolltables": {
      "brt-result-formula": {
        "formula": "3d4"
      }
    }
  },
  "type": 2,
  "text": "*Generate Minor Magic Item",
  "img": "systems/pf1/icons/spells/enchant-sky-3.jpg",
  "collection": "pf-content.pf-magic-tables",
  "resultId": "9zpuDLaD6gHAbRul",
  "weight": 1,
  "range": [
    1,
    1
  ],
  "drawn": false,
  "_key": "!tables.results!QXyUVVF8KntGjWIC.6GBPK1ACa672LjTN"
}