{
  "_id": "tdrTw1F5eQPTV62t",
  "flags": {
    "better-rolltables": {
      "brt-result-formula": {
        "formula": ""
      }
    }
  },
  "type": 2,
  "text": "Magic Weapon, Greater",
  "img": "systems/pf1/icons/misc/magic-swirl.png",
  "collection": "pf1.spells",
  "resultId": "zq7xi7l5vgpqu7rt",
  "weight": 5,
  "range": [
    52,
    56
  ],
  "drawn": false,
  "_key": "!tables.results!2WbcSSs3G1Z7AKXR.tdrTw1F5eQPTV62t"
}