{
  "_id": "LzuyvcmQHY9M9n6G",
  "flags": {
    "better-rolltables": {
      "brt-result-formula": {
        "formula": ""
      }
    }
  },
  "type": 2,
  "text": "Armored Coat",
  "img": "systems/pf1/icons/items/armor/armored-coat.PNG",
  "collection": "pf1.armors-and-shields",
  "resultId": "mJYWI4VZBo0c0CCC",
  "weight": 1,
  "range": [
    1,
    1
  ],
  "drawn": false,
  "_key": "!tables.results!OY3eLbEotFWtF2Q2.LzuyvcmQHY9M9n6G"
}