{
  "_id": "5wSG5NxrXIMcAtku",
  "flags": {
    "better-rolltables": {
      "brt-result-formula": {
        "formula": ""
      }
    }
  },
  "type": 2,
  "text": "Chainmail",
  "img": "systems/pf1/icons/items/armor/chain-mail.png",
  "collection": "pf1.armors-and-shields",
  "resultId": "unY9jt1B8a5bbnzO",
  "weight": 1,
  "range": [
    9,
    9
  ],
  "drawn": false,
  "_key": "!tables.results!OY3eLbEotFWtF2Q2.5wSG5NxrXIMcAtku"
}