{
  "_id": "CH1F4d9xKGn9hjnu",
  "flags": {
    "better-rolltables": {
      "brt-result-formula": {
        "formula": ""
      }
    }
  },
  "type": 2,
  "text": "Hold Portal",
  "img": "systems/pf1/icons/misc/magic-swirl.png",
  "collection": "pf1.spells",
  "resultId": "2ubwr3811rn9jvop",
  "weight": 4,
  "range": [
    50,
    53
  ],
  "drawn": false,
  "_key": "!tables.results!3mPidIdKSHeaphcT.CH1F4d9xKGn9hjnu"
}