{
  "_id": "KwbQKmEjBl42pp85",
  "flags": {
    "better-rolltables": {
      "brt-result-formula": {
        "formula": ""
      }
    }
  },
  "type": 2,
  "text": "+1 Ammunition Special Abilities",
  "img": "icons/svg/d20-grey.svg",
  "collection": "pf-content.pf-magic-tables",
  "resultId": "KZ52LWgOI6fJW43R",
  "weight": 20,
  "range": [
    78,
    78
  ],
  "drawn": false,
  "_key": "!tables.results!hIE1faa19lXWYdXE.KwbQKmEjBl42pp85"
}