{
  "_id": "0PZU4QLRtUMCkzfD",
  "flags": {},
  "type": 2,
  "text": "Make Whole",
  "img": "systems/pf1/icons/misc/magic-swirl.png",
  "collection": "pf1.spells",
  "resultId": "x23pz2agjub1eh89",
  "weight": 1,
  "range": [
    61,
    61
  ],
  "drawn": false,
  "_key": "!tables.results!7ZDjKM4rlZJIqz9t.0PZU4QLRtUMCkzfD"
}