{
  "_id": "w2wVxflj1ocMtFnq",
  "flags": {
    "better-rolltables": {
      "brt-result-formula": {
        "formula": ""
      }
    }
  },
  "type": 2,
  "text": "Fireball",
  "img": "systems/pf1/icons/misc/magic-swirl.png",
  "collection": "pf1.spells",
  "resultId": "6oq1wcryviik9ice",
  "weight": 5,
  "range": [
    17,
    21
  ],
  "drawn": false,
  "_key": "!tables.results!nwyFcMtuCrcLVDgR.w2wVxflj1ocMtFnq"
}