{
  "_id": "877WlIRA77JwXdFl",
  "flags": {
    "better-rolltables": {
      "brt-result-formula": {
        "formula": ""
      }
    }
  },
  "type": 2,
  "text": "Uncommon Level 6 Arcane Scrolls",
  "img": "icons/sundries/scrolls/scroll-bound-ruby-red.webp",
  "collection": "pf-content.pf-magic-tables",
  "resultId": "G9O3WmOBE4zquqTi",
  "weight": 5,
  "range": [
    1,
    5
  ],
  "drawn": false,
  "_key": "!tables.results!ODSFGMRfWFWOUeuA.877WlIRA77JwXdFl"
}