{
  "_id": "mXaFxIhbbxSLyonL",
  "flags": {
    "better-rolltables": {
      "brt-result-formula": {
        "formula": ""
      }
    }
  },
  "type": 2,
  "text": "Greater Minor Specific Weapons",
  "img": "icons/svg/d20-grey.svg",
  "collection": "pf-content.pf-magic-tables",
  "resultId": "8U1KC201rI0jFlsc",
  "weight": 20,
  "range": [
    81,
    100
  ],
  "drawn": false,
  "_key": "!tables.results!2tjtR3WQLiCavlwU.mXaFxIhbbxSLyonL"
}