{
  "_id": "LcluY65t7OoYe0Fl",
  "flags": {},
  "type": 2,
  "text": "Whispering Wind",
  "img": "systems/pf1/icons/misc/magic-swirl.png",
  "collection": "pf1.spells",
  "resultId": "v8czhud6wpmc9esu",
  "weight": 1,
  "range": [
    97,
    97
  ],
  "drawn": false,
  "_key": "!tables.results!cTWxjjSE3QBvrnBt.LcluY65t7OoYe0Fl"
}