{
  "_id": "oalQ9rPqxo55lrBL",
  "flags": {},
  "type": 2,
  "text": "Greater Major Hand",
  "img": "icons/equipment/hand/gauntlet-simple-leather-brown-gold.webp",
  "collection": "pf-content.pf-magic-tables",
  "resultId": "nGHtVB3vz1p2M4Qk",
  "weight": 1,
  "range": [
    87,
    88
  ],
  "drawn": false,
  "rangeL": 87,
  "rangeH": 88,
  "_key": "!tables.results!bqMOCg4zoZShwoz7.oalQ9rPqxo55lrBL"
}