{
  "_id": "t7tpE923mqaeFToj",
  "flags": {
    "better-rolltables": {
      "brt-result-formula": {
        "formula": ""
      }
    }
  },
  "type": 0,
  "text": "Potion",
  "img": "icons/svg/d20-black.svg",
  "resultId": "",
  "weight": 1,
  "range": [
    1,
    100
  ],
  "drawn": false,
  "_key": "!tables.results!Aw6ZvrLhjlwPSbgN.t7tpE923mqaeFToj"
}