{
  "_id": "ol988lLAO53lJAN5",
  "flags": {},
  "type": 2,
  "text": "Wrathful Mantle",
  "img": "systems/pf1/icons/misc/magic-swirl.png",
  "collection": "pf1.spells",
  "resultId": "1gz3zdpxu7uic5ky",
  "weight": 2,
  "range": [
    85,
    86
  ],
  "drawn": false,
  "_key": "!tables.results!kPxi5l3FlGLyTQSi.ol988lLAO53lJAN5"
}