{
  "_id": "FFhJEQshRkhkQfpt",
  "flags": {},
  "type": 2,
  "text": "Common Level 4 Wands",
  "img": "icons/weapons/wands/wand-gem-pink.webp",
  "collection": "pf-content.pf-magic-tables",
  "resultId": "VmPCNRAGvxhJBFwf",
  "weight": 1,
  "range": [
    69,
    72
  ],
  "drawn": false,
  "rangeL": 69,
  "rangeH": 72,
  "_key": "!tables.results!bqMOCg4zoZShwoz7.FFhJEQshRkhkQfpt"
}