{
  "_id": "ox9xVPEoBI6FGPWY",
  "flags": {
    "better-rolltables": {
      "brt-result-formula": {
        "formula": ""
      }
    }
  },
  "type": 2,
  "text": "Lesser Minor Neck",
  "img": "icons/equipment/neck/amulet-round-silver-teal.webp",
  "collection": "pf-content.pf-magic-tables",
  "resultId": "91ficR34RgVQeyJ8",
  "weight": 1,
  "range": [
    97,
    97
  ],
  "drawn": false,
  "_key": "!tables.results!aWX5rqLgFXSa1oUj.ox9xVPEoBI6FGPWY"
}