{
  "_id": "ZbndzjvnymFSTBtW",
  "flags": {
    "better-rolltables": {
      "brt-result-formula": {
        "formula": ""
      }
    }
  },
  "type": 2,
  "text": "Detect Evil",
  "img": "systems/pf1/icons/misc/magic-swirl.png",
  "collection": "pf1.spells",
  "resultId": "tr7m97npkbgm4wp7",
  "weight": 2,
  "range": [
    31,
    32
  ],
  "drawn": false,
  "_key": "!tables.results!8qMPIb19AVDkKjZp.ZbndzjvnymFSTBtW"
}