{
  "_id": "P9PjUFWybE1V3qbQ",
  "flags": {
    "better-rolltables": {
      "brt-result-formula": {
        "formula": ""
      }
    }
  },
  "type": 2,
  "text": "Illusion of Calm",
  "img": "systems/pf1/icons/misc/magic-swirl.png",
  "collection": "pf1.spells",
  "resultId": "nju9j6zlv9sbiznw",
  "weight": 3,
  "range": [
    52,
    54
  ],
  "drawn": false,
  "_key": "!tables.results!cYCnZgLBjKS3rxV2.P9PjUFWybE1V3qbQ"
}