{
  "_id": "CciSH8U3DE7CeNDp",
  "flags": {
    "better-rolltables": {
      "brt-result-formula": {
        "formula": ""
      }
    }
  },
  "type": 2,
  "text": "Disguise Other",
  "img": "systems/pf1/icons/misc/magic-swirl.png",
  "collection": "pf1.spells",
  "resultId": "80f89nrksbofs5vx",
  "weight": 4,
  "range": [
    24,
    27
  ],
  "drawn": false,
  "_key": "!tables.results!GTSdrB8MokztIHzW.CciSH8U3DE7CeNDp"
}