{
  "_id": "hiPvpVzXJihWAv6B",
  "flags": {
    "better-rolltables": {
      "brt-result-formula": {
        "formula": ""
      }
    }
  },
  "type": 2,
  "text": "Wooden Armor",
  "img": "systems/pf1/icons/items/armor/wooden.png",
  "collection": "pf1.armors-and-shields",
  "resultId": "yLlOfnD759pfPms8",
  "weight": 1,
  "range": [
    9,
    9
  ],
  "drawn": false,
  "_key": "!tables.results!duDBDzs65XUNg31p.hiPvpVzXJihWAv6B"
}