{
  "_id": "zvdA9XTKr35USYYL",
  "flags": {
    "better-rolltables": {
      "brt-result-formula": {
        "formula": ""
      }
    }
  },
  "type": 2,
  "text": "Delay Poison",
  "img": "systems/pf1/icons/misc/magic-swirl.png",
  "collection": "pf1.spells",
  "resultId": "l7e01shgg8c44zfg",
  "weight": 3,
  "range": [
    34,
    36
  ],
  "drawn": false,
  "_key": "!tables.results!ScAeR4ImuVB68nz1.zvdA9XTKr35USYYL"
}