{
  "_id": "2lrOszqeWz7c43x3",
  "flags": {},
  "type": 2,
  "text": "Unholy",
  "img": "systems/pf1/icons/skills/violet_04.jpg",
  "collection": "pf-content.pf-special-qualities",
  "resultId": "uyas5VK4fSLQzDFd",
  "weight": 1,
  "range": [
    91,
    100
  ],
  "drawn": false,
  "_key": "!tables.results!2lFDe63bFUk0OPDl.2lrOszqeWz7c43x3"
}