{
  "_id": "Zn7dX3uUAAljCK3C",
  "flags": {
    "better-rolltables": {
      "brt-result-formula": {
        "formula": ""
      }
    }
  },
  "type": 2,
  "text": "Obscuring Mist",
  "img": "systems/pf1/icons/misc/magic-swirl.png",
  "collection": "pf1.spells",
  "resultId": "tuh5vc2bojaws3ig",
  "weight": 4,
  "range": [
    59,
    62
  ],
  "drawn": false,
  "_key": "!tables.results!YYYZOSnDsV20zdJp.Zn7dX3uUAAljCK3C"
}