{
  "_id": "ok7NLAaKkhhv9YwR",
  "flags": {},
  "type": 2,
  "text": "Shrink Item",
  "img": "systems/pf1/icons/misc/magic-swirl.png",
  "collection": "pf1.spells",
  "resultId": "gvfrhibwwuar2rcf",
  "weight": 1,
  "range": [
    71,
    71
  ],
  "drawn": false,
  "_key": "!tables.results!kPxi5l3FlGLyTQSi.ok7NLAaKkhhv9YwR"
}