{
  "_id": "9va65ATYS5zHY62P",
  "flags": {
    "better-rolltables": {
      "brt-result-formula": {
        "formula": ""
      }
    }
  },
  "type": 2,
  "text": "Refuge",
  "img": "systems/pf1/icons/misc/magic-swirl.png",
  "collection": "pf1.spells",
  "resultId": "080el1lfozrhf6c2",
  "weight": 6,
  "range": [
    84,
    89
  ],
  "drawn": false,
  "_key": "!tables.results!ObuGwyZhU5SMWATi.9va65ATYS5zHY62P"
}