{
  "_id": "e1WCQDfHIjrgNILP",
  "flags": {
    "better-rolltables": {
      "brt-result-formula": {
        "formula": ""
      }
    }
  },
  "type": 0,
  "text": "Nine-Section Whip",
  "img": "icons/svg/d20-black.svg",
  "resultId": "",
  "weight": 1,
  "range": [
    32,
    32
  ],
  "drawn": false,
  "_key": "!tables.results!5j28w13lJRkiv3PI.e1WCQDfHIjrgNILP"
}