{
  "_id": "3WlJ05n1gSXEmrdF",
  "flags": {},
  "type": 2,
  "text": "Locate Object",
  "img": "systems/pf1/icons/misc/magic-swirl.png",
  "collection": "pf1.spells",
  "resultId": "tcnirpnzjdaym1fd",
  "weight": 1,
  "range": [
    60,
    60
  ],
  "drawn": false,
  "_key": "!tables.results!7ZDjKM4rlZJIqz9t.3WlJ05n1gSXEmrdF"
}