{
  "_id": "2lrOszqeWz7c43x3",
  "flags": {},
  "type": 0,
  "text": "Blindsense",
  "img": "icons/svg/d20-black.svg",
  "resultId": "",
  "weight": 1,
  "range": [
    91,
    100
  ],
  "drawn": false,
  "_key": "!tables.results!diWHsUgjAcB6F7LC.2lrOszqeWz7c43x3"
}