{
  "_id": "LHzvgsT1EqdUlwwZ",
  "flags": {
    "better-rolltables": {
      "brt-result-formula": {
        "formula": ""
      }
    }
  },
  "type": 0,
  "text": "Arcane Scroll",
  "img": "icons/svg/d20-black.svg",
  "resultId": "",
  "weight": 3,
  "range": [
    1,
    100
  ],
  "drawn": false,
  "_key": "!tables.results!nwyFcMtuCrcLVDgR.LHzvgsT1EqdUlwwZ"
}