{
  "_id": "BcSSD0y2wI9q5jzl",
  "flags": {
    "better-rolltables": {
      "brt-result-formula": {
        "formula": ""
      }
    }
  },
  "type": 0,
  "text": "Jutte",
  "img": "icons/svg/d20-black.svg",
  "resultId": "",
  "weight": 1,
  "range": [
    16,
    16
  ],
  "drawn": false,
  "_key": "!tables.results!72zqtiYTb1AiDydF.BcSSD0y2wI9q5jzl"
}