{
  "_id": "ZAwxtDV3EDuLxK05",
  "flags": {
    "better-rolltables": {
      "brt-result-formula": {
        "formula": ""
      }
    }
  },
  "type": 2,
  "text": "Repel Wood",
  "img": "systems/pf1/icons/misc/magic-swirl.png",
  "collection": "pf1.spells",
  "resultId": "ipc85wy0f0lmr0l4",
  "weight": 3,
  "range": [
    52,
    54
  ],
  "drawn": false,
  "_key": "!tables.results!YilKy1GcxhSxq4sH.ZAwxtDV3EDuLxK05"
}