{
  "_id": "rOHcPDbuRdsgPJ69",
  "flags": {
    "better-rolltables": {
      "brt-result-formula": {
        "formula": ""
      }
    }
  },
  "type": 2,
  "text": "Bullet Shield",
  "img": "systems/pf1/icons/misc/magic-swirl.png",
  "collection": "pf1.spells",
  "resultId": "vhfj5bkt9hmgvh9p",
  "weight": 5,
  "range": [
    20,
    24
  ],
  "drawn": false,
  "_key": "!tables.results!KbGqR2w7YPK5iXMw.rOHcPDbuRdsgPJ69"
}