{
  "_id": "5ZqFSzZQORsKKkL0",
  "flags": {
    "better-rolltables": {
      "brt-result-formula": {
        "formula": ""
      }
    }
  },
  "type": 0,
  "text": "Arcane Scroll",
  "img": "icons/svg/d20-black.svg",
  "resultId": "",
  "weight": 4,
  "range": [
    1,
    100
  ],
  "drawn": false,
  "_key": "!tables.results!CSGYwVzv8KJSaAxt.5ZqFSzZQORsKKkL0"
}