{
  "_id": "2lrOszqeWz7c43x3",
  "flags": {},
  "type": 2,
  "text": "Robe Of Useful Items",
  "img": "icons/svg/d20-black.svg",
  "collection": "pf-content.pf-wondrous",
  "resultId": "MWGIULrt80XU8xa0",
  "weight": 1,
  "range": [
    76,
    100
  ],
  "drawn": false,
  "_key": "!tables.results!e0vXByc4J8xe3o4w.2lrOszqeWz7c43x3"
}