{
  "_id": "dFboKghqpuofXTcm",
  "flags": {
    "better-rolltables": {
      "brt-result-formula": {
        "formula": ""
      }
    }
  },
  "type": 2,
  "text": "Disguise Other",
  "img": "systems/pf1/icons/misc/magic-swirl.png",
  "collection": "pf1.spells",
  "resultId": "80f89nrksbofs5vx",
  "weight": 8,
  "range": [
    41,
    48
  ],
  "drawn": false,
  "_key": "!tables.results!KbGqR2w7YPK5iXMw.dFboKghqpuofXTcm"
}