{
  "_id": "dzqbq4YEVCkTtOkG",
  "flags": {},
  "type": 2,
  "text": "Lesser Medium Specific Magic Shields",
  "img": "icons/equipment/shield/heater-embossed-gold.webp",
  "collection": "pf-content.pf-magic-tables",
  "resultId": "Qfbfr8IatWdSaq2h",
  "weight": 10,
  "range": [
    91,
    100
  ],
  "drawn": false,
  "_key": "!tables.results!bCuEGMbhmQOi1ik7.dzqbq4YEVCkTtOkG"
}