{
  "_id": "TxetC8oawBixOSds",
  "flags": {
    "better-rolltables": {
      "brt-result-formula": {
        "formula": ""
      }
    }
  },
  "type": 2,
  "text": "Sanctify Corpse",
  "img": "systems/pf1/icons/misc/magic-swirl.png",
  "collection": "pf1.spells",
  "resultId": "5o8uysrb153tnvci",
  "weight": 1,
  "range": [
    75,
    75
  ],
  "drawn": false,
  "_key": "!tables.results!m2ekq0yCW991zuCK.TxetC8oawBixOSds"
}