{
  "_id": "nVKSd19dZLXSqbQ2",
  "flags": {},
  "type": 2,
  "text": "Spark",
  "img": "systems/pf1/icons/misc/magic-swirl.png",
  "collection": "pf1.spells",
  "resultId": "eg2gwmkpoaqljkzu",
  "weight": 8,
  "range": [
    87,
    94
  ],
  "drawn": false,
  "_key": "!tables.results!5nwKxmMad5RcCKP1.nVKSd19dZLXSqbQ2"
}