{
  "_id": "Ru9EKQIGLGYnv1jf",
  "flags": {},
  "type": 2,
  "text": "Status",
  "img": "systems/pf1/icons/misc/magic-swirl.png",
  "collection": "pf1.spells",
  "resultId": "4ya1fs9tyvsqnwqx",
  "weight": 2,
  "range": [
    79,
    80
  ],
  "drawn": false,
  "_key": "!tables.results!7ZDjKM4rlZJIqz9t.Ru9EKQIGLGYnv1jf"
}