{
  "_id": "oI7LEdYb67u3N7tF",
  "flags": {
    "better-rolltables": {
      "brt-result-formula": {
        "formula": ""
      }
    }
  },
  "type": 2,
  "text": "Light Hammer",
  "img": "systems/pf1/icons/items/weapons/hammer-light.PNG",
  "collection": "pf1.weapons-and-ammo",
  "resultId": "Dwk80eD0rB93lPnN",
  "weight": 1,
  "range": [
    19,
    19
  ],
  "drawn": false,
  "_key": "!tables.results!72zqtiYTb1AiDydF.oI7LEdYb67u3N7tF"
}