{
  "_id": "mf58cffKyazbLwOR",
  "flags": {},
  "type": 2,
  "text": "Greater Major Feet",
  "img": "icons/equipment/feet/shoes-collared-leather-blue.webp",
  "collection": "pf-content.pf-magic-tables",
  "resultId": "ZUq7nRjktPUZMARt",
  "weight": 1,
  "range": [
    85,
    86
  ],
  "drawn": false,
  "rangeL": 85,
  "rangeH": 86,
  "_key": "!tables.results!bqMOCg4zoZShwoz7.mf58cffKyazbLwOR"
}