{
  "_id": "Jjg2VmEeFv93dlEB",
  "flags": {
    "better-rolltables": {
      "brt-result-formula": {
        "formula": ""
      }
    }
  },
  "type": 2,
  "text": "+2 Weapon Special Abilities",
  "img": "icons/svg/d20-grey.svg",
  "collection": "pf-content.pf-magic-tables",
  "resultId": "eNvfAItWB9SUs0vv",
  "weight": 20,
  "range": [
    43,
    50
  ],
  "drawn": false,
  "_key": "!tables.results!hIE1faa19lXWYdXE.Jjg2VmEeFv93dlEB"
}