{
  "_id": "e1Lb8XKPsl6KuKUM",
  "flags": {
    "better-rolltables": {
      "brt-result-formula": {
        "formula": ""
      }
    }
  },
  "type": 2,
  "text": "Snake Staff",
  "img": "systems/pf1/icons/misc/magic-swirl.png",
  "collection": "pf1.spells",
  "resultId": "1rhpxleafu8mi5yu",
  "weight": 6,
  "range": [
    67,
    72
  ],
  "drawn": false,
  "_key": "!tables.results!iSA3cNDMoW5uqQIF.e1Lb8XKPsl6KuKUM"
}