{
  "_id": "J4PIPPCEdBLYKIsV",
  "flags": {
    "better-rolltables": {
      "brt-result-formula": {
        "formula": ""
      }
    }
  },
  "type": 0,
  "text": "+3, with one +1 special ability:",
  "img": "icons/svg/d20-black.svg",
  "resultId": "",
  "weight": 20,
  "range": [
    75,
    76
  ],
  "drawn": false,
  "_key": "!tables.results!ZhuhgCfGIPdHnwYY.J4PIPPCEdBLYKIsV"
}