{
  "_id": "eZREepZFSIoUyG2Z",
  "flags": {
    "better-rolltables": {
      "brt-result-formula": {
        "formula": ""
      }
    }
  },
  "type": 2,
  "text": "Ranged",
  "img": "icons/weapons/bows/longbow-recurve-leather-red.webp",
  "collection": "pf-content.pf-magic-tables",
  "resultId": "4XWBeNQEeruUw2U9",
  "weight": 20,
  "range": [
    51,
    70
  ],
  "drawn": false,
  "_key": "!tables.results!2tjtR3WQLiCavlwU.eZREepZFSIoUyG2Z"
}