{
  "_id": "rGkyZJmZGAJgclBG",
  "flags": {
    "better-rolltables": {
      "brt-result-formula": {
        "formula": ""
      }
    }
  },
  "type": 2,
  "text": "Tongues",
  "img": "systems/pf1/icons/misc/magic-swirl.png",
  "collection": "pf1.spells",
  "resultId": "m1rmcpcaixcpz9ib",
  "weight": 3,
  "range": [
    84,
    86
  ],
  "drawn": false,
  "_key": "!tables.results!2WbcSSs3G1Z7AKXR.rGkyZJmZGAJgclBG"
}