{
  "_id": "xPuoWdAPCl188y18",
  "flags": {},
  "type": 0,
  "text": "Wand",
  "img": "icons/svg/d20-black.svg",
  "resultId": "",
  "weight": 1,
  "range": [
    1,
    100
  ],
  "drawn": false,
  "_key": "!tables.results!kPxi5l3FlGLyTQSi.xPuoWdAPCl188y18"
}