{
  "_id": "ecHFzPtWbkMg3zfL",
  "flags": {
    "better-rolltables": {
      "brt-result-formula": {
        "formula": ""
      }
    }
  },
  "type": 2,
  "text": "Identify",
  "img": "systems/pf1/icons/misc/magic-swirl.png",
  "collection": "pf1.spells",
  "resultId": "llxrra87kbofmyhl",
  "weight": 3,
  "range": [
    40,
    42
  ],
  "drawn": false,
  "_key": "!tables.results!YYYZOSnDsV20zdJp.ecHFzPtWbkMg3zfL"
}