{
  "_id": "ZeTyeL1dfoqbG55i",
  "flags": {
    "better-rolltables": {
      "brt-result-formula": {
        "formula": ""
      }
    }
  },
  "type": 2,
  "text": "Greater Minor Divine Scrolls",
  "img": "icons/sundries/scrolls/scroll-bound-blue-white.webp",
  "collection": "pf-content.pf-magic-tables",
  "resultId": "jxm6jJi2l2qLmVli",
  "weight": 1,
  "range": [
    47,
    63
  ],
  "drawn": false,
  "rangeL": 47,
  "rangeH": 63,
  "_key": "!tables.results!TbLlKyCioDD2AVgH.ZeTyeL1dfoqbG55i"
}