{
  "_id": "uK0MNxdh6CnbmiUC",
  "flags": {
    "better-rolltables": {
      "brt-result-formula": {
        "formula": ""
      }
    }
  },
  "type": 2,
  "text": "Stormbolts",
  "img": "systems/pf1/icons/misc/magic-swirl.png",
  "collection": "pf1.spells",
  "resultId": "f7gaaxcschrg2r0q",
  "weight": 6,
  "range": [
    67,
    72
  ],
  "drawn": false,
  "_key": "!tables.results!inqz3NKgd9xgFkJr.uK0MNxdh6CnbmiUC"
}