{
  "_id": "W06GDc46ff2wILmf",
  "flags": {
    "better-rolltables": {
      "brt-result-formula": {
        "formula": ""
      }
    }
  },
  "type": 2,
  "text": "Dimensional Lock",
  "img": "systems/pf1/icons/misc/magic-swirl.png",
  "collection": "pf1.spells",
  "resultId": "ef75tkrzjuotgra2",
  "weight": 4,
  "range": [
    10,
    13
  ],
  "drawn": false,
  "_key": "!tables.results!DrSZPRw1NcXOQziB.W06GDc46ff2wILmf"
}