{
  "_id": "crkcNdqVMi8LLTXX",
  "flags": {},
  "type": 2,
  "text": "Greater Major Neck",
  "img": "icons/equipment/neck/amulet-simple-carved-stone-spiral.webp",
  "collection": "pf-content.pf-magic-tables",
  "resultId": "Iqwsqf4OyvotHdwz",
  "weight": 1,
  "range": [
    93,
    94
  ],
  "drawn": false,
  "rangeL": 93,
  "rangeH": 94,
  "_key": "!tables.results!bqMOCg4zoZShwoz7.crkcNdqVMi8LLTXX"
}