{
  "_id": "U5MgGhHZuiZwjyEN",
  "flags": {},
  "type": 0,
  "text": "17,000 gp",
  "img": "icons/svg/d20-black.svg",
  "resultId": "",
  "weight": 1,
  "range": [
    100,
    0
  ],
  "drawn": false,
  "_key": "!tables.results!tzq8TAK5R2lqnpV8.U5MgGhHZuiZwjyEN"
}