{
  "_id": "BTw9snd81jbCQNvl",
  "flags": {
    "better-rolltables": {
      "brt-result-formula": {
        "formula": ""
      }
    }
  },
  "type": 2,
  "text": "Quilted Cloth",
  "img": "systems/pf1/icons/items/armor/quilted-cloth.PNG",
  "collection": "pf1.armors-and-shields",
  "resultId": "6gpjknDwY1HNvQcU",
  "weight": 1,
  "range": [
    3,
    3
  ],
  "drawn": false,
  "_key": "!tables.results!duDBDzs65XUNg31p.BTw9snd81jbCQNvl"
}