{
  "_id": "SG5d2a7zjLGzWpPQ",
  "flags": {
    "better-rolltables": {
      "brt-result-formula": {
        "formula": ""
      }
    }
  },
  "type": 2,
  "text": "Heavy Steel Shield",
  "img": "systems/pf1/icons/items/armor/shield-heavy-metal.png",
  "collection": "pf1.weapons-and-ammo",
  "resultId": "KPxOj8IzOgkoXctF",
  "weight": 1,
  "range": [
    9,
    9
  ],
  "drawn": false,
  "_key": "!tables.results!5j28w13lJRkiv3PI.SG5d2a7zjLGzWpPQ"
}