{
  "_id": "QCBrw4nQ1IFk0Fi7",
  "flags": {
    "better-rolltables": {
      "brt-result-formula": {
        "formula": ""
      }
    }
  },
  "type": 0,
  "text": "Divine Scroll",
  "img": "icons/svg/d20-black.svg",
  "resultId": "",
  "weight": 2,
  "range": [
    1,
    100
  ],
  "drawn": false,
  "_key": "!tables.results!ha3Tn6vrPhLeagAr.QCBrw4nQ1IFk0Fi7"
}