{
  "_id": "jNBOkpMa2tnkITnD",
  "flags": {
    "better-rolltables": {
      "brt-result-formula": {
        "formula": ""
      }
    }
  },
  "type": 2,
  "text": "Power Word Blind",
  "img": "systems/pf1/icons/misc/magic-swirl.png",
  "collection": "pf1.spells",
  "resultId": "gado7zyg5knc83ir",
  "weight": 4,
  "range": [
    54,
    57
  ],
  "drawn": false,
  "_key": "!tables.results!5WjVf0rkaN3Y8zBj.jNBOkpMa2tnkITnD"
}