{
  "_id": "Y9Hx1vHUVMsaXA9f",
  "flags": {
    "better-rolltables": {
      "brt-result-formula": {
        "formula": ""
      }
    }
  },
  "type": 2,
  "text": "Symbol of Stunning",
  "img": "systems/pf1/icons/misc/magic-swirl.png",
  "collection": "pf1.spells",
  "resultId": "mfmo3q7h6kqr15fa",
  "weight": 6,
  "range": [
    90,
    95
  ],
  "drawn": false,
  "_key": "!tables.results!ObuGwyZhU5SMWATi.Y9Hx1vHUVMsaXA9f"
}