{
  "_id": "JmIJZbWSSxBCMXEm",
  "flags": {
    "better-rolltables": {
      "brt-result-formula": {
        "formula": ""
      }
    }
  },
  "type": 2,
  "text": "Shadow Walk",
  "img": "systems/pf1/icons/misc/magic-swirl.png",
  "collection": "pf1.spells",
  "resultId": "btoow6tyv39443gh",
  "weight": 3,
  "range": [
    68,
    70
  ],
  "drawn": false,
  "_key": "!tables.results!XgOb7FjVyToQrT28.JmIJZbWSSxBCMXEm"
}