{
  "_id": "yAuDGeFfGwmzjUfM",
  "flags": {
    "better-rolltables": {
      "brt-result-formula": {
        "formula": ""
      }
    }
  },
  "type": 2,
  "text": "Shield",
  "img": "systems/pf1/icons/misc/magic-swirl.png",
  "collection": "pf1.spells",
  "resultId": "sz7j540uypmqqvti",
  "weight": 5,
  "range": [
    76,
    80
  ],
  "drawn": false,
  "_key": "!tables.results!YYYZOSnDsV20zdJp.yAuDGeFfGwmzjUfM"
}