{
  "_id": "CN8xN260LbBf2SgK",
  "flags": {
    "better-rolltables": {
      "brt-result-formula": {
        "formula": ""
      }
    }
  },
  "type": 2,
  "text": "Lesser Medium Staff",
  "img": "icons/weapons/staves/staff-obsidian.webp",
  "collection": "pf-content.pf-magic-tables",
  "resultId": "OdHJWq1h0Jtq9XLU",
  "weight": 1,
  "range": [
    61,
    63
  ],
  "drawn": false,
  "rangeL": 61,
  "rangeH": 63,
  "_key": "!tables.results!5UmlBvgZ67Rs3PtQ.CN8xN260LbBf2SgK"
}