{
  "_id": "cpuSIX90svf3tF6p",
  "flags": {
    "better-rolltables": {
      "brt-result-formula": {
        "formula": ""
      }
    }
  },
  "type": 2,
  "text": "Sickle",
  "img": "systems/pf1/icons/items/weapons/sickle.png",
  "collection": "pf1.weapons-and-ammo",
  "resultId": "oAb9EXEzaLRGfYxL",
  "weight": 1,
  "range": [
    8,
    8
  ],
  "drawn": false,
  "_key": "!tables.results!72zqtiYTb1AiDydF.cpuSIX90svf3tF6p"
}