{
  "_id": "NsVpOBM4PZQVzNAm",
  "flags": {},
  "type": 2,
  "text": "Greater Major Shoulders",
  "img": "icons/equipment/shoulder/pauldron-segmented-steel-yellow.webp",
  "collection": "pf-content.pf-magic-tables",
  "resultId": "Ara3F7NtX7vbOngF",
  "weight": 1,
  "range": [
    95,
    96
  ],
  "drawn": false,
  "rangeL": 95,
  "rangeH": 96,
  "_key": "!tables.results!bqMOCg4zoZShwoz7.NsVpOBM4PZQVzNAm"
}