{
  "_id": "Qg8sYoZC4J1GCrAI",
  "flags": {},
  "type": 0,
  "text": "+1",
  "img": "icons/svg/d20-black.svg",
  "resultId": "",
  "weight": 10,
  "range": [
    1,
    7
  ],
  "drawn": false,
  "_key": "!tables.results!bCuEGMbhmQOi1ik7.Qg8sYoZC4J1GCrAI"
}