{
  "_id": "FBTDdK82m5ykvuZQ",
  "flags": {
    "better-rolltables": {
      "brt-result-formula": {
        "formula": ""
      }
    }
  },
  "type": 2,
  "text": "Mage's Private Sanctum",
  "img": "systems/pf1/icons/misc/magic-swirl.png",
  "collection": "pf1.spells",
  "resultId": "9v2s3xjlakjm1eq1",
  "weight": 2,
  "range": [
    39,
    40
  ],
  "drawn": false,
  "_key": "!tables.results!63tGlqj040dbsLt9.FBTDdK82m5ykvuZQ"
}