{
  "_id": "HlShHQDuRWkM3R9x",
  "flags": {
    "better-rolltables": {
      "brt-result-formula": {
        "formula": ""
      }
    }
  },
  "type": 2,
  "text": "Ranged",
  "img": "icons/weapons/bows/longbow-recurve-leather-red.webp",
  "collection": "pf-content.pf-magic-tables",
  "resultId": "4XWBeNQEeruUw2U9",
  "weight": 20,
  "range": [
    41,
    65
  ],
  "drawn": false,
  "_key": "!tables.results!Sa0HV1bL7OtDeu3u.HlShHQDuRWkM3R9x"
}