{
  "_id": "G7cr9fnI7FvccaUF",
  "flags": {
    "better-rolltables": {
      "brt-result-formula": {
        "formula": ""
      }
    }
  },
  "type": 2,
  "text": "Lesser Major Armour and Shields",
  "img": "icons/equipment/chest/breastplate-layered-steel.webp",
  "collection": "pf-content.pf-magic-tables",
  "resultId": "xiye8g60Sugv2iA2",
  "weight": 1,
  "range": [
    1,
    10
  ],
  "drawn": false,
  "rangeL": 1,
  "rangeH": 10,
  "_key": "!tables.results!NaMYbJoiaw5h9Wwv.G7cr9fnI7FvccaUF"
}