{
  "_id": "XVHq7xGui9mclYUv",
  "flags": {},
  "type": 2,
  "text": "Alter Self",
  "img": "systems/pf1/icons/misc/magic-swirl.png",
  "collection": "pf1.spells",
  "resultId": "kouqz0pm1xl8xilm",
  "weight": 2,
  "range": [
    4,
    5
  ],
  "drawn": false,
  "_key": "!tables.results!cTWxjjSE3QBvrnBt.XVHq7xGui9mclYUv"
}