{
  "_id": "cZNQntf1Xovgxi7n",
  "flags": {
    "better-rolltables": {
      "brt-result-formula": {
        "formula": ""
      }
    }
  },
  "type": 2,
  "text": "Lesser Major Head",
  "img": "icons/equipment/head/helm-norman-brown.webp",
  "collection": "pf-content.pf-magic-tables",
  "resultId": "IThlRD6uvInzSBBQ",
  "weight": 1,
  "range": [
    89,
    90
  ],
  "drawn": false,
  "rangeL": 89,
  "rangeH": 90,
  "_key": "!tables.results!NaMYbJoiaw5h9Wwv.cZNQntf1Xovgxi7n"
}