{
  "_id": "gNIAu9CshmhTq7ge",
  "flags": {
    "better-rolltables": {
      "brt-result-formula": {
        "formula": ""
      }
    }
  },
  "type": 2,
  "text": "Uncommon Level 6 Divine Scrolls",
  "img": "icons/svg/d20-grey.svg",
  "collection": "pf-content.pf-magic-tables",
  "resultId": "YilKy1GcxhSxq4sH",
  "weight": 5,
  "range": [
    1,
    5
  ],
  "drawn": false,
  "_key": "!tables.results!6Qas3aE1CYuEHaMK.gNIAu9CshmhTq7ge"
}