{
  "_id": "s4HSTiRHzAorn0EB",
  "flags": {
    "better-rolltables": {
      "brt-result-formula": {
        "formula": ""
      }
    }
  },
  "type": 2,
  "text": "Common Level 3 Wands",
  "img": "icons/weapons/wands/wand-gem-pink.webp",
  "collection": "pf-content.pf-magic-tables",
  "resultId": "0aVojCkNbt3BZgNp",
  "weight": 1,
  "range": [
    69,
    70
  ],
  "drawn": false,
  "rangeL": 69,
  "rangeH": 70,
  "_key": "!tables.results!NaMYbJoiaw5h9Wwv.s4HSTiRHzAorn0EB"
}