{
  "_id": "bmONR7vainzr71DV",
  "flags": {},
  "type": 0,
  "text": "+2, with one +2 special ability:",
  "img": "icons/svg/d20-black.svg",
  "resultId": "",
  "weight": 12,
  "range": [
    53,
    60
  ],
  "drawn": false,
  "_key": "!tables.results!30RRwmHpiSoXwfHE.bmONR7vainzr71DV"
}