{
  "_id": "ekhIMcTuaZoM2bVF",
  "flags": {
    "better-rolltables": {
      "brt-result-formula": {
        "formula": ""
      }
    }
  },
  "type": 2,
  "text": "Fire Trap",
  "img": "systems/pf1/icons/misc/magic-swirl.png",
  "collection": "pf1.spells",
  "resultId": "vi5fko8sb8mxlk0i",
  "weight": 2,
  "range": [
    98,
    99
  ],
  "drawn": false,
  "_key": "!tables.results!aH64d9BiT0SOKezM.ekhIMcTuaZoM2bVF"
}