{
  "_id": "QT3pzxlMw5FhxAYs",
  "flags": {
    "better-rolltables": {
      "brt-result-formula": {
        "formula": ""
      }
    }
  },
  "type": 2,
  "text": "Summon Monster I",
  "img": "systems/pf1/icons/misc/magic-swirl.png",
  "collection": "pf1.spells",
  "resultId": "kyo0kwhw2jhuztju",
  "weight": 3,
  "range": [
    94,
    96
  ],
  "drawn": false,
  "_key": "!tables.results!YYYZOSnDsV20zdJp.QT3pzxlMw5FhxAYs"
}