{
  "_id": "QrfNNeQC4K7hkpEg",
  "flags": {
    "better-rolltables": {
      "brt-result-formula": {
        "formula": ""
      }
    }
  },
  "type": 2,
  "text": "Ride the Lightning",
  "img": "systems/pf1/icons/misc/magic-swirl.png",
  "collection": "pf1.spells",
  "resultId": "xnaypubwvslrof5d",
  "weight": 7,
  "range": [
    51,
    57
  ],
  "drawn": false,
  "_key": "!tables.results!2ElYVVBi2UJILxXQ.QrfNNeQC4K7hkpEg"
}