{
  "_id": "fcWbqJvpznAIzgIa",
  "flags": {
    "better-rolltables": {
      "brt-result-formula": {
        "formula": ""
      }
    }
  },
  "type": 2,
  "text": "Mage Armor",
  "img": "systems/pf1/icons/misc/magic-swirl.png",
  "collection": "pf1.spells",
  "resultId": "ucc0a31d1y86oleh",
  "weight": 6,
  "range": [
    43,
    48
  ],
  "drawn": false,
  "_key": "!tables.results!YYYZOSnDsV20zdJp.fcWbqJvpznAIzgIa"
}