{
  "_id": "V3woI2iqbzHfsQUc",
  "flags": {},
  "type": 2,
  "text": "Animal Messenger",
  "img": "systems/pf1/icons/misc/magic-swirl.png",
  "collection": "pf1.spells",
  "resultId": "0324zq42g3fu4kko",
  "weight": 1,
  "range": [
    6,
    6
  ],
  "drawn": false,
  "_key": "!tables.results!7ZDjKM4rlZJIqz9t.V3woI2iqbzHfsQUc"
}