{
  "_id": "Geb61Edg9niXXW5n",
  "flags": {
    "better-rolltables": {
      "brt-result-formula": {
        "formula": ""
      }
    }
  },
  "type": 2,
  "text": "Magic Stone",
  "img": "systems/pf1/icons/misc/magic-swirl.png",
  "collection": "pf1.spells",
  "resultId": "fv9mgob508qv99zz",
  "weight": 4,
  "range": [
    65,
    68
  ],
  "drawn": false,
  "_key": "!tables.results!3mPidIdKSHeaphcT.Geb61Edg9niXXW5n"
}