{
  "_id": "wht8OCoropA3aU1d",
  "flags": {
    "better-rolltables": {
      "brt-result-formula": {
        "formula": ""
      }
    }
  },
  "type": 2,
  "text": "Create Demiplane",
  "img": "systems/pf1/icons/misc/magic-swirl.png",
  "collection": "pf1.spells",
  "resultId": "wniqskqkk0cubu9u",
  "weight": 6,
  "range": [
    19,
    24
  ],
  "drawn": false,
  "_key": "!tables.results!DMT8HjajTpzgip62.wht8OCoropA3aU1d"
}