{
  "_id": "KP2iupGKWa3KX2Nf",
  "flags": {},
  "type": 2,
  "text": "Animal Aspect",
  "img": "systems/pf1/icons/misc/magic-swirl.png",
  "collection": "pf1.spells",
  "resultId": "w6bdfme0t8frk73p",
  "weight": 3,
  "range": [
    3,
    5
  ],
  "drawn": false,
  "_key": "!tables.results!7ZDjKM4rlZJIqz9t.KP2iupGKWa3KX2Nf"
}