{
  "_id": "NUkjlGMpfUHjy5KZ",
  "flags": {
    "better-rolltables": {
      "brt-result-formula": {
        "formula": ""
      }
    }
  },
  "type": 2,
  "text": "Hide Armor",
  "img": "systems/pf1/icons/items/armor/hide-armor.PNG",
  "collection": "pf1.armors-and-shields",
  "resultId": "aI6gSI7gnCLCucw0",
  "weight": 1,
  "range": [
    2,
    2
  ],
  "drawn": false,
  "_key": "!tables.results!OY3eLbEotFWtF2Q2.NUkjlGMpfUHjy5KZ"
}