{
  "_id": "a3kzgT90oe0HSAWW",
  "flags": {
    "better-rolltables": {
      "brt-result-formula": {
        "formula": ""
      }
    }
  },
  "type": 2,
  "text": "Hydraulic Push",
  "img": "systems/pf1/icons/misc/magic-swirl.png",
  "collection": "pf1.spells",
  "resultId": "ohy0ty2dawfaaqwd",
  "weight": 3,
  "range": [
    50,
    52
  ],
  "drawn": false,
  "_key": "!tables.results!m2ekq0yCW991zuCK.a3kzgT90oe0HSAWW"
}