{
  "_id": "h9cMeMFDo7npJL43",
  "flags": {
    "better-rolltables": {
      "brt-result-formula": {
        "formula": ""
      }
    }
  },
  "type": 2,
  "text": "Etherealness",
  "img": "systems/pf1/icons/misc/magic-swirl.png",
  "collection": "pf1.spells",
  "resultId": "gw9bes9othfqm7mi",
  "weight": 8,
  "range": [
    16,
    23
  ],
  "drawn": false,
  "_key": "!tables.results!2ElYVVBi2UJILxXQ.h9cMeMFDo7npJL43"
}