{
  "_id": "TNf1r11yTpjL0IRU",
  "flags": {
    "better-rolltables": {
      "brt-result-formula": {
        "formula": ""
      }
    }
  },
  "type": 2,
  "text": "Planar",
  "img": "systems/pf1/icons/skills/violet_04.jpg",
  "collection": "pf-content.pf-special-qualities",
  "resultId": "X4DI5H2WnWaqCeR6",
  "weight": 1,
  "range": [
    68,
    68
  ],
  "drawn": false,
  "_key": "!tables.results!AvRuYsAnvU5N0lot.TNf1r11yTpjL0IRU"
}