{
  "_id": "cdpLY6xGtnk1Ymcg",
  "flags": {},
  "type": 2,
  "text": "Deeper Darkness",
  "img": "systems/pf1/icons/misc/magic-swirl.png",
  "collection": "pf1.spells",
  "resultId": "jdsvncnna6oy189a",
  "weight": 2,
  "range": [
    19,
    20
  ],
  "drawn": false,
  "_key": "!tables.results!0aVojCkNbt3BZgNp.cdpLY6xGtnk1Ymcg"
}