{
  "_id": "sk87O8IMJzXmpvvQ",
  "flags": {
    "better-rolltables": {
      "brt-result-formula": {
        "formula": ""
      }
    }
  },
  "type": 2,
  "text": "Fiery Body",
  "img": "systems/pf1/icons/misc/magic-swirl.png",
  "collection": "pf1.spells",
  "resultId": "qk3oeq4awbc1smjw",
  "weight": 8,
  "range": [
    24,
    31
  ],
  "drawn": false,
  "_key": "!tables.results!2ElYVVBi2UJILxXQ.sk87O8IMJzXmpvvQ"
}