{
  "_id": "tTFmYVRDrMFqX2an",
  "flags": {
    "better-rolltables": {
      "brt-result-formula": {
        "formula": ""
      }
    }
  },
  "type": 2,
  "text": "+2 Weapon Special Abilities",
  "img": "icons/svg/d20-grey.svg",
  "collection": "pf-content.pf-magic-tables",
  "resultId": "eNvfAItWB9SUs0vv",
  "weight": 20,
  "range": [
    16,
    19
  ],
  "drawn": false,
  "_key": "!tables.results!Sa0HV1bL7OtDeu3u.tTFmYVRDrMFqX2an"
}