{
  "_id": "tX4rdJKmlWsC3AMN",
  "flags": {
    "better-rolltables": {
      "brt-result-formula": {
        "formula": ""
      }
    }
  },
  "type": 0,
  "text": "+5, with one +3/4 special ability and one +2 special ability:",
  "img": "icons/svg/d20-black.svg",
  "resultId": "",
  "weight": 20,
  "range": [
    65,
    65
  ],
  "drawn": false,
  "_key": "!tables.results!Sa0HV1bL7OtDeu3u.tX4rdJKmlWsC3AMN"
}