{
  "_id": "6h2gHNQdjcTzhHsI",
  "flags": {
    "better-rolltables": {
      "brt-result-formula": {
        "formula": ""
      }
    }
  },
  "type": 0,
  "text": "+1, with one +2 special ability:",
  "img": "icons/svg/d20-black.svg",
  "resultId": "",
  "weight": 20,
  "range": [
    66,
    68
  ],
  "drawn": false,
  "_key": "!tables.results!E9KLCjEA3mvSWVIG.6h2gHNQdjcTzhHsI"
}