{
  "_id": "2lrOszqeWz7c43x3",
  "flags": {},
  "type": 2,
  "text": "Ring Of Revelation, Greater",
  "img": "systems/pf1/icons/items/jewelry/ring-red.jpg",
  "collection": "pf-content.pf-wondrous",
  "resultId": "xEEvHFg7Z1zBfgcu",
  "weight": 1,
  "range": [
    96,
    100
  ],
  "drawn": false,
  "_key": "!tables.results!WqEurcKF6R8iXCgk.2lrOszqeWz7c43x3"
}