{
  "_id": "hvbyNpWtNQ7JYp0d",
  "flags": {},
  "type": 2,
  "text": "Remove Paralysis",
  "img": "systems/pf1/icons/misc/magic-swirl.png",
  "collection": "pf1.spells",
  "resultId": "7xdn59ffjaqchhrz",
  "weight": 1,
  "range": [
    61,
    61
  ],
  "drawn": false,
  "_key": "!tables.results!cTWxjjSE3QBvrnBt.hvbyNpWtNQ7JYp0d"
}