{
  "_id": "2ovjTeZnPARZYIjj",
  "flags": {
    "better-rolltables": {
      "brt-result-formula": {
        "formula": ""
      }
    }
  },
  "type": 2,
  "text": "False Life, Greater",
  "img": "systems/pf1/icons/misc/magic-swirl.png",
  "collection": "pf1.spells",
  "resultId": "ytyr7ttgr5xyk92t",
  "weight": 5,
  "range": [
    24,
    28
  ],
  "drawn": false,
  "_key": "!tables.results!74GR4HJc6t6n1mC1.2ovjTeZnPARZYIjj"
}