{
  "_id": "2lrOszqeWz7c43x3",
  "flags": {},
  "type": 2,
  "text": "Gloves Of Dueling",
  "img": "icons/svg/d20-black.svg",
  "collection": "pf-content.pf-wondrous",
  "resultId": "HmiOKJhLVpLqTc9v",
  "weight": 1,
  "range": [
    77,
    100
  ],
  "drawn": false,
  "_key": "!tables.results!jWBDWCxry6OUAqXu.2lrOszqeWz7c43x3"
}