{
  "_id": "q5ROkJwViCrrFQtr",
  "flags": {
    "better-rolltables": {
      "brt-result-formula": {
        "formula": ""
      }
    }
  },
  "type": 2,
  "text": "Ironwood",
  "img": "systems/pf1/icons/misc/magic-swirl.png",
  "collection": "pf1.spells",
  "resultId": "xmacjpo6tgm1xhnv",
  "weight": 4,
  "range": [
    30,
    33
  ],
  "drawn": false,
  "_key": "!tables.results!YilKy1GcxhSxq4sH.q5ROkJwViCrrFQtr"
}