{
  "_id": "0GeV42v86i62IoTR",
  "flags": {
    "better-rolltables": {
      "brt-result-formula": {
        "formula": ""
      }
    }
  },
  "type": 2,
  "text": "Delayed Blast Fireball",
  "img": "systems/pf1/icons/misc/magic-swirl.png",
  "collection": "pf1.spells",
  "resultId": "cm3l4h4mld9j8lar",
  "weight": 6,
  "range": [
    8,
    13
  ],
  "drawn": false,
  "_key": "!tables.results!5WjVf0rkaN3Y8zBj.0GeV42v86i62IoTR"
}