{
  "_id": "2lrOszqeWz7c43x3",
  "flags": {},
  "type": 2,
  "text": "Spell Resistance (13)",
  "img": "icons/equipment/chest/breastplate-cuirass-steel-grey.webp",
  "collection": "pf-content.pf-special-qualities",
  "resultId": "idN0SJSh3Plgd7AB",
  "weight": 1,
  "range": [
    89,
    100
  ],
  "drawn": false,
  "_key": "!tables.results!5xl1CYkS7ZCVmLWH.2lrOszqeWz7c43x3"
}