{
  "_id": "2lrOszqeWz7c43x3",
  "flags": {},
  "type": 2,
  "text": "Stalker's Mask",
  "img": "icons/svg/d20-black.svg",
  "collection": "pf-content.pf-wondrous",
  "resultId": "HOx5fobC2aYkfo5y",
  "weight": 1,
  "range": [
    86,
    100
  ],
  "drawn": false,
  "_key": "!tables.results!str0FsSjaLkOIYqq.2lrOszqeWz7c43x3"
}