{
  "_id": "pjKUpg22oCOELpyE",
  "flags": {
    "better-rolltables": {
      "brt-result-formula": {
        "formula": ""
      }
    }
  },
  "type": 2,
  "text": "Mage's Sword",
  "img": "systems/pf1/icons/misc/magic-swirl.png",
  "collection": "pf1.spells",
  "resultId": "96wkex2umgqrjwr4",
  "weight": 4,
  "range": [
    36,
    39
  ],
  "drawn": false,
  "_key": "!tables.results!5WjVf0rkaN3Y8zBj.pjKUpg22oCOELpyE"
}