{
  "_id": "f0viRHVgKrZjPguK",
  "flags": {
    "better-rolltables": {
      "brt-result-formula": {
        "formula": ""
      }
    }
  },
  "type": 2,
  "text": "Light",
  "img": "systems/pf1/icons/misc/magic-swirl.png",
  "collection": "pf1.spells",
  "resultId": "ip9onjfp6nf1vlv9",
  "weight": 11,
  "range": [
    45,
    55
  ],
  "drawn": false,
  "_key": "!tables.results!5hwwmw4Noj0Guac4.f0viRHVgKrZjPguK"
}