{
  "_id": "8W8MmzJ16i5cqmth",
  "flags": {},
  "type": 2,
  "text": "Ash Storm",
  "img": "systems/pf1/icons/misc/magic-swirl.png",
  "collection": "pf1.spells",
  "resultId": "o7er5j77wzgf84fc",
  "weight": 3,
  "range": [
    12,
    14
  ],
  "drawn": false,
  "_key": "!tables.results!kPxi5l3FlGLyTQSi.8W8MmzJ16i5cqmth"
}