{
  "_id": "KMcSULchq0dGoXSM",
  "flags": {
    "better-rolltables": {
      "brt-result-formula": {
        "formula": ""
      }
    }
  },
  "type": 2,
  "text": "Plant Shape II",
  "img": "systems/pf1/icons/misc/magic-swirl.png",
  "collection": "pf1.spells",
  "resultId": "ik4riccm7tozdwox",
  "weight": 5,
  "range": [
    72,
    76
  ],
  "drawn": false,
  "_key": "!tables.results!G9O3WmOBE4zquqTi.KMcSULchq0dGoXSM"
}