{
  "_id": "xiTXbbGHYO209yJk",
  "flags": {
    "better-rolltables": {
      "brt-result-formula": {
        "formula": ""
      }
    }
  },
  "type": 2,
  "text": "Pillar of Life",
  "img": "systems/pf1/icons/misc/magic-swirl.png",
  "collection": "pf1.spells",
  "resultId": "i22bvq17g4r3bp4j",
  "weight": 5,
  "range": [
    59,
    63
  ],
  "drawn": false,
  "_key": "!tables.results!iSA3cNDMoW5uqQIF.xiTXbbGHYO209yJk"
}