{
  "_id": "hGdCkSRrmz6SIiCf",
  "flags": {
    "better-rolltables": {
      "brt-result-formula": {
        "formula": ""
      }
    }
  },
  "type": 0,
  "text": "+2",
  "img": "icons/svg/d20-black.svg",
  "resultId": "",
  "weight": 27,
  "range": [
    21,
    35
  ],
  "drawn": false,
  "_key": "!tables.results!2tjtR3WQLiCavlwU.hGdCkSRrmz6SIiCf"
}