{
  "_id": "TUKkg5UVoPTxtFsL",
  "flags": {
    "better-rolltables": {
      "brt-result-formula": {
        "formula": ""
      }
    }
  },
  "type": 2,
  "text": "Water Breathing",
  "img": "systems/pf1/icons/misc/magic-swirl.png",
  "collection": "pf1.spells",
  "resultId": "7m5us8d4a9lwh1ap",
  "weight": 4,
  "range": [
    92,
    95
  ],
  "drawn": false,
  "_key": "!tables.results!EMFZvVvAceeWf58W.TUKkg5UVoPTxtFsL"
}