{
  "_id": "Lfh6yrXWHbQsCyVC",
  "flags": {
    "better-rolltables": {
      "brt-result-formula": {
        "formula": ""
      }
    }
  },
  "type": 2,
  "text": "Distracting Cacophony",
  "img": "systems/pf1/icons/misc/magic-swirl.png",
  "collection": "pf1.spells",
  "resultId": "exe45ci6j1nh9j3l",
  "weight": 3,
  "range": [
    25,
    27
  ],
  "drawn": false,
  "_key": "!tables.results!TGbdOKEW2h1xCQaU.Lfh6yrXWHbQsCyVC"
}