{
  "_id": "iFbNvyAuEZhBQONZ",
  "flags": {},
  "type": 2,
  "text": "Bless Weapon",
  "img": "systems/pf1/icons/misc/magic-swirl.png",
  "collection": "pf1.spells",
  "resultId": "hl9l92qfalq6c55z",
  "weight": 2,
  "range": [
    6,
    7
  ],
  "drawn": false,
  "_key": "!tables.results!Ojdxyzq92m1nyIMf.iFbNvyAuEZhBQONZ"
}