{
  "_id": "2lrOszqeWz7c43x3",
  "flags": {
    "better-rolltables": {
      "brt-result-formula": {
        "formula": ""
      }
    }
  },
  "type": 2,
  "text": "Quicken Metamagic Rod, Greater",
  "img": "systems/pf1/icons/items/weapons/sword-cane.png",
  "collection": "pf-content.pf-wondrous",
  "resultId": "8p41ydoxmU2PI5db",
  "weight": 1,
  "range": [
    96,
    100
  ],
  "drawn": false,
  "_key": "!tables.results!6WawIcv5zgGgljd5.2lrOszqeWz7c43x3"
}