{
  "_id": "7rLVdNGlJ6DHO88y",
  "flags": {
    "better-rolltables": {
      "brt-result-formula": {
        "formula": ""
      }
    }
  },
  "type": 2,
  "text": "Make Whole",
  "img": "systems/pf1/icons/misc/magic-swirl.png",
  "collection": "pf1.spells",
  "resultId": "x23pz2agjub1eh89",
  "weight": 3,
  "range": [
    58,
    60
  ],
  "drawn": false,
  "_key": "!tables.results!GTSdrB8MokztIHzW.7rLVdNGlJ6DHO88y"
}