{
  "_id": "vQ2Jw61t9LXhnzJ1",
  "flags": {
    "better-rolltables": {
      "brt-result-formula": {
        "formula": ""
      }
    }
  },
  "type": 0,
  "text": "+5, with one +2 special ability:",
  "img": "icons/svg/d20-black.svg",
  "resultId": "",
  "weight": 20,
  "range": [
    60,
    61
  ],
  "drawn": false,
  "_key": "!tables.results!Sa0HV1bL7OtDeu3u.vQ2Jw61t9LXhnzJ1"
}