{
  "_id": "jsGRYsw4PgfHKm6u",
  "flags": {},
  "type": 2,
  "text": "Open/Close",
  "img": "systems/pf1/icons/misc/magic-swirl.png",
  "collection": "pf1.spells",
  "resultId": "ug7ycubjoxgp7ppc",
  "weight": 6,
  "range": [
    74,
    79
  ],
  "drawn": false,
  "_key": "!tables.results!5nwKxmMad5RcCKP1.jsGRYsw4PgfHKm6u"
}