{
  "_id": "nuoTzaTFklriq60F",
  "flags": {
    "better-rolltables": {
      "brt-result-formula": {
        "formula": ""
      }
    }
  },
  "type": 2,
  "text": "Delay Poison",
  "img": "systems/pf1/icons/misc/magic-swirl.png",
  "collection": "pf1.spells",
  "resultId": "l7e01shgg8c44zfg",
  "weight": 3,
  "range": [
    42,
    44
  ],
  "drawn": false,
  "_key": "!tables.results!dtXhs097VtxyPHpw.nuoTzaTFklriq60F"
}