{
  "_id": "nb3WlbbJF71M0gAI",
  "flags": {
    "better-rolltables": {
      "brt-result-formula": {
        "formula": ""
      }
    }
  },
  "type": 2,
  "text": "Protection from Energy",
  "img": "systems/pf1/icons/misc/magic-swirl.png",
  "collection": "pf1.spells",
  "resultId": "1vh2ewwvzvxunoxk",
  "weight": 4,
  "range": [
    58,
    71
  ],
  "drawn": false,
  "_key": "!tables.results!h0G1Fj2UnFtz02E0.nb3WlbbJF71M0gAI"
}