{
  "_id": "1IFZ5dqyZqylzTPo",
  "flags": {
    "better-rolltables": {
      "brt-result-formula": {
        "formula": ""
      }
    }
  },
  "type": 2,
  "text": "Fox's Cunning",
  "img": "systems/pf1/icons/misc/magic-swirl.png",
  "collection": "pf1.spells",
  "resultId": "743anqr1ahefv8zd",
  "weight": 5,
  "range": [
    50,
    54
  ],
  "drawn": false,
  "_key": "!tables.results!dtXhs097VtxyPHpw.1IFZ5dqyZqylzTPo"
}