{
  "_id": "2f4gMdtj6zrCr9ni",
  "flags": {
    "better-rolltables": {
      "brt-result-formula": {
        "formula": ""
      }
    }
  },
  "type": 2,
  "text": "Uncommon Level 8 Divine Scrolls",
  "img": "icons/svg/d20-grey.svg",
  "collection": "pf-content.pf-magic-tables",
  "resultId": "DMT8HjajTpzgip62",
  "weight": 35,
  "range": [
    36,
    70
  ],
  "drawn": false,
  "_key": "!tables.results!6Qas3aE1CYuEHaMK.2f4gMdtj6zrCr9ni"
}