{
  "_id": "1zb4IymSWqQ3BVri",
  "flags": {
    "better-rolltables": {
      "brt-result-formula": {
        "formula": ""
      }
    }
  },
  "type": 0,
  "text": "Double-Chained Kama",
  "img": "icons/svg/d20-black.svg",
  "resultId": "",
  "weight": 1,
  "range": [
    39,
    39
  ],
  "drawn": false,
  "_key": "!tables.results!BMDVuMyNnK14lP9l.1zb4IymSWqQ3BVri"
}