{
  "_id": "2304EU2sFWyDircn",
  "flags": {
    "better-rolltables": {
      "brt-result-formula": {
        "formula": ""
      }
    }
  },
  "type": 2,
  "text": "Plague Storm",
  "img": "systems/pf1/icons/misc/magic-swirl.png",
  "collection": "pf1.spells",
  "resultId": "7l7wofgz2iafjsdr",
  "weight": 4,
  "range": [
    43,
    46
  ],
  "drawn": false,
  "_key": "!tables.results!YilKy1GcxhSxq4sH.2304EU2sFWyDircn"
}