{
  "_id": "CEr3nuAeUNsbHCVp",
  "flags": {},
  "type": 2,
  "text": "Shields",
  "img": "icons/equipment/shield/buckler-wooden-boss-brown.webp",
  "collection": "pf-content.pf-magic-tables",
  "resultId": "wzS3qk0RHftNzCC5",
  "weight": 10,
  "range": [
    61,
    80
  ],
  "drawn": false,
  "_key": "!tables.results!bCuEGMbhmQOi1ik7.CEr3nuAeUNsbHCVp"
}