{
  "_id": "lrGsqYcjdKIzhYiO",
  "flags": {
    "better-rolltables": {
      "brt-result-formula": {
        "formula": ""
      }
    }
  },
  "type": 0,
  "text": "+4, with one +1 special ability:",
  "img": "icons/svg/d20-black.svg",
  "resultId": "",
  "weight": 20,
  "range": [
    71,
    71
  ],
  "drawn": false,
  "_key": "!tables.results!Sa0HV1bL7OtDeu3u.lrGsqYcjdKIzhYiO"
}