{
  "_id": "K1WUFrhPY9zWzQlb",
  "flags": {
    "better-rolltables": {
      "brt-result-formula": {
        "formula": ""
      }
    }
  },
  "type": 2,
  "text": "Wail of the Banshee",
  "img": "systems/pf1/icons/misc/magic-swirl.png",
  "collection": "pf1.spells",
  "resultId": "wplgawb6aznjx7se",
  "weight": 9,
  "range": [
    80,
    88
  ],
  "drawn": false,
  "_key": "!tables.results!2ElYVVBi2UJILxXQ.K1WUFrhPY9zWzQlb"
}