{
  "_id": "sqfjVWGKglupGri0",
  "flags": {
    "better-rolltables": {
      "brt-result-formula": {
        "formula": ""
      }
    }
  },
  "type": 2,
  "text": "Shotel",
  "img": "systems/pf1/icons/items/weapons/shotel.png",
  "collection": "pf1.weapons-and-ammo",
  "resultId": "1vNxFfAeYalooWIF",
  "weight": 1,
  "range": [
    35,
    35
  ],
  "drawn": false,
  "_key": "!tables.results!5j28w13lJRkiv3PI.sqfjVWGKglupGri0"
}