{
  "_id": "wjTP7IsptgfLljTQ",
  "flags": {
    "better-rolltables": {
      "brt-result-formula": {
        "formula": ""
      }
    }
  },
  "type": 2,
  "text": "Thorn Body",
  "img": "systems/pf1/icons/misc/magic-swirl.png",
  "collection": "pf1.spells",
  "resultId": "818uuekrao87o57u",
  "weight": 3,
  "range": [
    91,
    93
  ],
  "drawn": false,
  "_key": "!tables.results!ha3Tn6vrPhLeagAr.wjTP7IsptgfLljTQ"
}