{
  "_id": "KuBW7ExXc4aE0UXB",
  "flags": {},
  "type": 2,
  "text": "+3 Armor Special Abilities",
  "img": "icons/equipment/chest/breastplate-cuirass-steel-grey.webp",
  "collection": "pf-content.pf-magic-tables",
  "resultId": "XjybRANNXvCGhHiz",
  "weight": 10,
  "range": [
    49,
    54
  ],
  "drawn": false,
  "_key": "!tables.results!vCOfQyCMW29FlGbz.KuBW7ExXc4aE0UXB"
}