{
  "_id": "0CjHfLOLo8NZBx8w",
  "flags": {
    "better-rolltables": {
      "brt-result-formula": {
        "formula": ""
      }
    }
  },
  "type": 2,
  "text": "Summon Nature's Ally IX",
  "img": "systems/pf1/icons/misc/magic-swirl.png",
  "collection": "pf1.spells",
  "resultId": "x6y3kyvxf8s31jhy",
  "weight": 6,
  "range": [
    88,
    93
  ],
  "drawn": false,
  "_key": "!tables.results!KCr03KGPwBiGS4Eo.0CjHfLOLo8NZBx8w"
}