{
  "_id": "an78XqSxEqcPqraV",
  "flags": {
    "better-rolltables": {
      "brt-result-formula": {
        "formula": ""
      }
    }
  },
  "type": 2,
  "text": "Whispering Wind",
  "img": "systems/pf1/icons/misc/magic-swirl.png",
  "collection": "pf1.spells",
  "resultId": "v8czhud6wpmc9esu",
  "weight": 2,
  "range": [
    99,
    100
  ],
  "drawn": false,
  "_key": "!tables.results!VJdq2HWCWIdWnPIR.an78XqSxEqcPqraV"
}