{
  "_id": "Ogj8xOBy1YgasQP4",
  "flags": {},
  "type": 2,
  "text": "Gentle Repose",
  "img": "systems/pf1/icons/misc/magic-swirl.png",
  "collection": "pf1.spells",
  "resultId": "vdmsaodgnbo8wjfx",
  "weight": 2,
  "range": [
    49,
    50
  ],
  "drawn": false,
  "_key": "!tables.results!7ZDjKM4rlZJIqz9t.Ogj8xOBy1YgasQP4"
}