{
  "_id": "WE5hPO0I9l8lrED9",
  "flags": {},
  "type": 0,
  "text": "+3",
  "img": "icons/svg/d20-black.svg",
  "resultId": "",
  "weight": 10,
  "range": [
    68,
    70
  ],
  "drawn": false,
  "_key": "!tables.results!bCuEGMbhmQOi1ik7.WE5hPO0I9l8lrED9"
}