{
  "_id": "RG931TAH19SLupzr",
  "flags": {
    "better-rolltables": {
      "brt-result-formula": {
        "formula": ""
      }
    }
  },
  "type": 2,
  "text": "Common Level 0 Divine Scrolls",
  "img": "icons/svg/d20-grey.svg",
  "collection": "pf-content.pf-magic-tables",
  "resultId": "5hwwmw4Noj0Guac4",
  "weight": 15,
  "range": [
    1,
    15
  ],
  "drawn": false,
  "_key": "!tables.results!7yv4m16T27ZJTilF.RG931TAH19SLupzr"
}