{
  "_id": "2lrOszqeWz7c43x3",
  "flags": {},
  "type": 2,
  "text": "Headband Of Fortune's Favor",
  "img": "icons/svg/d20-black.svg",
  "collection": "pf-content.pf-wondrous",
  "resultId": "sqLzrC3vpcgd46XY",
  "weight": 1,
  "range": [
    92,
    100
  ],
  "drawn": false,
  "_key": "!tables.results!GTf29WwgubVTgO05.2lrOszqeWz7c43x3"
}