{
  "_id": "c5SpiHBnbi90r96T",
  "flags": {
    "better-rolltables": {
      "brt-result-formula": {
        "formula": ""
      }
    }
  },
  "type": 2,
  "text": "Teleportation Circle",
  "img": "systems/pf1/icons/misc/magic-swirl.png",
  "collection": "pf1.spells",
  "resultId": "if867t28tu6zxaei",
  "weight": 6,
  "range": [
    91,
    96
  ],
  "drawn": false,
  "_key": "!tables.results!CSGYwVzv8KJSaAxt.c5SpiHBnbi90r96T"
}