{
  "_id": "5gfKmb3QFbM9rEfp",
  "flags": {
    "better-rolltables": {
      "brt-result-formula": {
        "formula": ""
      }
    }
  },
  "type": 2,
  "text": "Create Pit",
  "img": "systems/pf1/icons/misc/magic-swirl.png",
  "collection": "pf1.spells",
  "resultId": "8w67l6dzzsi6oz5f",
  "weight": 2,
  "range": [
    15,
    16
  ],
  "drawn": false,
  "_key": "!tables.results!GTSdrB8MokztIHzW.5gfKmb3QFbM9rEfp"
}