{
  "_id": "IHexbKQ4CSlLMg52",
  "flags": {
    "better-rolltables": {
      "brt-result-formula": {
        "formula": ""
      }
    }
  },
  "type": 2,
  "text": "Blindness/Deafness",
  "img": "systems/pf1/icons/misc/magic-swirl.png",
  "collection": "pf1.spells",
  "resultId": "k7cf5gshkp8xxqux",
  "weight": 4,
  "range": [
    13,
    16
  ],
  "drawn": false,
  "_key": "!tables.results!WeUu0rFOMNi1av0x.IHexbKQ4CSlLMg52"
}