{
  "_id": "0z2eLHiblBZxdUyT",
  "flags": {},
  "type": 2,
  "text": "Disrupt Undead",
  "img": "systems/pf1/icons/misc/magic-swirl.png",
  "collection": "pf1.spells",
  "resultId": "oyu8efso7sio8arn",
  "weight": 9,
  "range": [
    32,
    40
  ],
  "drawn": false,
  "_key": "!tables.results!5nwKxmMad5RcCKP1.0z2eLHiblBZxdUyT"
}