{
  "_id": "QU7gqjllyEtvtGm9",
  "flags": {},
  "type": 2,
  "text": "Alarm",
  "img": "systems/pf1/icons/misc/magic-swirl.png",
  "collection": "pf1.spells",
  "resultId": "nee6cxpoekp3aklq",
  "weight": 2,
  "range": [
    1,
    2
  ],
  "drawn": false,
  "_key": "!tables.results!fifQBagT9v3tPWjW.QU7gqjllyEtvtGm9"
}