{
  "_id": "fmFI3rJG03gvBgqU",
  "flags": {},
  "type": 2,
  "text": "Greater Major Specific Magic Armor",
  "img": "icons/equipment/chest/breastplate-layered-steel.webp",
  "collection": "pf-content.pf-magic-tables",
  "resultId": "gybFG7lkYK4GJTLj",
  "weight": 10,
  "range": [
    81,
    90
  ],
  "drawn": false,
  "_key": "!tables.results!vCOfQyCMW29FlGbz.fmFI3rJG03gvBgqU"
}