{
  "_id": "TTT8xSY5WGOkUWTa",
  "flags": {
    "better-rolltables": {
      "brt-result-formula": {
        "formula": ""
      }
    }
  },
  "type": 0,
  "text": "Kerambit",
  "img": "icons/svg/d20-black.svg",
  "resultId": "",
  "weight": 1,
  "range": [
    17,
    17
  ],
  "drawn": false,
  "_key": "!tables.results!72zqtiYTb1AiDydF.TTT8xSY5WGOkUWTa"
}