{
  "_id": "2lrOszqeWz7c43x3",
  "flags": {},
  "type": 2,
  "text": "Boots Of Teleportation",
  "img": "icons/svg/d20-black.svg",
  "collection": "pf-content.pf-wondrous",
  "resultId": "ANRXYCH5tgzxd4QW",
  "weight": 1,
  "range": [
    76,
    100
  ],
  "drawn": false,
  "_key": "!tables.results!S4okmESMFJ7TvaG3.2lrOszqeWz7c43x3"
}