{
  "_id": "uOYHFJC9X35pc9OV",
  "flags": {
    "better-rolltables": {
      "brt-result-formula": {
        "formula": ""
      }
    }
  },
  "type": 0,
  "text": "Bane: Elf",
  "img": "icons/svg/d20-black.svg",
  "resultId": "",
  "weight": 2,
  "range": [
    36,
    37
  ],
  "drawn": false,
  "_key": "!tables.results!XYMcAtKi3v8CqRr9.uOYHFJC9X35pc9OV"
}