{
  "_id": "cb0uza8gqhQwLgPT",
  "flags": {
    "better-rolltables": {
      "brt-result-formula": {
        "formula": ""
      }
    }
  },
  "type": 2,
  "text": "Uncommon Level 2 Potions and Oils",
  "img": "systems/pf1/icons/items/potions/minor-red.jpg",
  "collection": "pf-content.pf-magic-tables",
  "resultId": "KbGqR2w7YPK5iXMw",
  "weight": 1,
  "range": [
    21,
    25
  ],
  "drawn": false,
  "rangeL": 21,
  "rangeH": 25,
  "_key": "!tables.results!Ki0kXJ5yPIe8gi2r.cb0uza8gqhQwLgPT"
}