{
  "_id": "3c5M2HNAVuhadqej",
  "flags": {
    "better-rolltables": {
      "brt-result-formula": {
        "formula": ""
      }
    }
  },
  "type": 2,
  "text": "Owl's Wisdom",
  "img": "systems/pf1/icons/misc/magic-swirl.png",
  "collection": "pf1.spells",
  "resultId": "b9ggsagifzk4fwut",
  "weight": 5,
  "range": [
    67,
    71
  ],
  "drawn": false,
  "_key": "!tables.results!dtXhs097VtxyPHpw.3c5M2HNAVuhadqej"
}