{
  "_id": "5DN99ECkktxX76fq",
  "flags": {
    "better-rolltables": {
      "brt-result-formula": {
        "formula": ""
      }
    }
  },
  "type": 2,
  "text": "Order's Wrath",
  "img": "systems/pf1/icons/misc/magic-swirl.png",
  "collection": "pf1.spells",
  "resultId": "8zeulunjetwrdgwj",
  "weight": 3,
  "range": [
    62,
    64
  ],
  "drawn": false,
  "_key": "!tables.results!2WbcSSs3G1Z7AKXR.5DN99ECkktxX76fq"
}