{
  "_id": "XL4MEpyb2lI56LO3",
  "flags": {
    "better-rolltables": {
      "brt-result-formula": {
        "formula": ""
      }
    }
  },
  "type": 2,
  "text": "*Greater Medium Magic Items",
  "img": "systems/pf1/icons/spells/enchant-eerie-3.jpg",
  "collection": "pf-content.pf-magic-tables",
  "resultId": "Ki0kXJ5yPIe8gi2r",
  "weight": 1,
  "range": [
    5,
    6
  ],
  "drawn": false,
  "_key": "!tables.results!61ZKmAr0lryZAHOn.XL4MEpyb2lI56LO3"
}