{
  "_id": "2HgPmwoqeRGVmnRK",
  "flags": {
    "better-rolltables": {
      "brt-result-formula": {
        "formula": ""
      }
    }
  },
  "type": 2,
  "text": "Magic Weapon, Greater",
  "img": "systems/pf1/icons/misc/magic-swirl.png",
  "collection": "pf1.spells",
  "resultId": "zq7xi7l5vgpqu7rt",
  "weight": 5,
  "range": [
    57,
    61
  ],
  "drawn": false,
  "_key": "!tables.results!TGbdOKEW2h1xCQaU.2HgPmwoqeRGVmnRK"
}