{
  "_id": "ZE3BpuMZBAqLloFv",
  "flags": {
    "better-rolltables": {
      "brt-result-formula": {
        "formula": ""
      }
    }
  },
  "type": 2,
  "text": "Wind Blades",
  "img": "systems/pf1/icons/misc/magic-swirl.png",
  "collection": "pf1.spells",
  "resultId": "ive4f1t2funreg5v",
  "weight": 4,
  "range": [
    83,
    86
  ],
  "drawn": false,
  "_key": "!tables.results!iSA3cNDMoW5uqQIF.ZE3BpuMZBAqLloFv"
}