{
  "_id": "7qdoDOgPUnoIWjU9",
  "flags": {
    "better-rolltables": {
      "brt-result-formula": {
        "formula": ""
      }
    }
  },
  "type": 2,
  "text": "Death Ward",
  "img": "systems/pf1/icons/misc/magic-swirl.png",
  "collection": "pf1.spells",
  "resultId": "e0rlki4hwu76l5ya",
  "weight": 4,
  "range": [
    31,
    34
  ],
  "drawn": false,
  "_key": "!tables.results!eAcOSi0oSjeczJXS.7qdoDOgPUnoIWjU9"
}