{
  "_id": "KbkdxJMn1Rz401AM",
  "flags": {
    "better-rolltables": {
      "brt-result-formula": {
        "formula": ""
      }
    }
  },
  "type": 2,
  "text": "Phantasmal Killer",
  "img": "systems/pf1/icons/misc/magic-swirl.png",
  "collection": "pf1.spells",
  "resultId": "6efjgs1qvmj6yxqv",
  "weight": 5,
  "range": [
    60,
    64
  ],
  "drawn": false,
  "_key": "!tables.results!7OcSlcVtY2y1g8cy.KbkdxJMn1Rz401AM"
}