{
  "_id": "jiCJ4Aom7CGVtznN",
  "flags": {
    "better-rolltables": {
      "brt-result-formula": {
        "formula": ""
      }
    }
  },
  "type": 2,
  "text": "Shadow Evocation, Greater",
  "img": "systems/pf1/icons/misc/magic-swirl.png",
  "collection": "pf1.spells",
  "resultId": "967ur7a9xepd704y",
  "weight": 6,
  "range": [
    57,
    62
  ],
  "drawn": false,
  "_key": "!tables.results!inqz3NKgd9xgFkJr.jiCJ4Aom7CGVtznN"
}