{
  "_id": "5qwK8It94bV70zo5",
  "flags": {
    "better-rolltables": {
      "brt-result-formula": {
        "formula": ""
      }
    }
  },
  "type": 2,
  "text": "Telekinetic Charge",
  "img": "systems/pf1/icons/misc/magic-swirl.png",
  "collection": "pf1.spells",
  "resultId": "lus8q7aa6wrunafj",
  "weight": 4,
  "range": [
    80,
    83
  ],
  "drawn": false,
  "_key": "!tables.results!74GR4HJc6t6n1mC1.5qwK8It94bV70zo5"
}