{
  "_id": "6udpUlJ4a2TUKAgf",
  "flags": {
    "better-rolltables": {
      "brt-result-formula": {
        "formula": ""
      }
    }
  },
  "type": 2,
  "text": "Fly",
  "img": "systems/pf1/icons/misc/magic-swirl.png",
  "collection": "pf1.spells",
  "resultId": "7d6sv5ecvi7kho3m",
  "weight": 6,
  "range": [
    15,
    20
  ],
  "drawn": false,
  "_key": "!tables.results!h0G1Fj2UnFtz02E0.6udpUlJ4a2TUKAgf"
}