{
  "_id": "PdbVyEHFoU2Hg4A5",
  "flags": {
    "better-rolltables": {
      "brt-result-formula": {
        "formula": ""
      }
    }
  },
  "type": 2,
  "text": "Greater Medium Slotless",
  "img": "icons/commodities/treasure/broach-eye-silver-teal.webp",
  "collection": "pf-content.pf-magic-tables",
  "resultId": "JUqRTB8RZe3QDgFQ",
  "weight": 1,
  "range": [
    99,
    100
  ],
  "drawn": false,
  "rangeL": 99,
  "rangeH": 100,
  "_key": "!tables.results!Ki0kXJ5yPIe8gi2r.PdbVyEHFoU2Hg4A5"
}