{
  "_id": "UXgQ4o4wmqNFnHj6",
  "flags": {
    "better-rolltables": {
      "brt-result-formula": {
        "formula": ""
      }
    }
  },
  "type": 2,
  "text": "+2 Ranged Weapon Special Abilities",
  "img": "icons/svg/d20-grey.svg",
  "collection": "pf-content.pf-magic-tables",
  "resultId": "4hLYt8GkTkl8mXCC",
  "weight": 20,
  "range": [
    69,
    70
  ],
  "drawn": false,
  "_key": "!tables.results!hIE1faa19lXWYdXE.UXgQ4o4wmqNFnHj6"
}