{
  "_id": "5RkCepz0KeSlggrN",
  "flags": {
    "better-rolltables": {
      "brt-result-formula": {
        "formula": ""
      }
    }
  },
  "type": 2,
  "text": "Greater Minor Shoulders",
  "img": "icons/equipment/shoulder/pauldron-segmented-red.webp",
  "collection": "pf-content.pf-magic-tables",
  "resultId": "6MEQphEEfKqXLgtR",
  "weight": 1,
  "range": [
    98,
    98
  ],
  "drawn": false,
  "rangeL": 98,
  "rangeH": 98,
  "_key": "!tables.results!TbLlKyCioDD2AVgH.5RkCepz0KeSlggrN"
}