{
  "_id": "6X0DOyNdhZnxV6tk",
  "flags": {
    "better-rolltables": {
      "brt-result-formula": {
        "formula": ""
      }
    }
  },
  "type": 2,
  "text": "Virtue",
  "img": "systems/pf1/icons/misc/magic-swirl.png",
  "collection": "pf1.spells",
  "resultId": "22x4iooz3c3vqof9",
  "weight": 15,
  "range": [
    86,
    100
  ],
  "drawn": false,
  "_key": "!tables.results!c682IPpkjXjlUjAz.6X0DOyNdhZnxV6tk"
}