{
  "_id": "viRYrZtG1poy487y",
  "flags": {
    "better-rolltables": {
      "brt-result-formula": {
        "formula": ""
      }
    }
  },
  "type": 2,
  "text": "Darkvision, Greater",
  "img": "systems/pf1/icons/misc/magic-swirl.png",
  "collection": "pf1.spells",
  "resultId": "nntvnla4qnawr0xn",
  "weight": 4,
  "range": [
    14,
    17
  ],
  "drawn": false,
  "_key": "!tables.results!74GR4HJc6t6n1mC1.viRYrZtG1poy487y"
}