{
  "_id": "s1DoX13EZYZlesps",
  "flags": {
    "better-rolltables": {
      "brt-result-formula": {
        "formula": ""
      }
    }
  },
  "type": 0,
  "text": "+4",
  "img": "icons/svg/d20-black.svg",
  "resultId": "",
  "weight": 20,
  "range": [
    41,
    43
  ],
  "drawn": false,
  "_key": "!tables.results!Sa0HV1bL7OtDeu3u.s1DoX13EZYZlesps"
}