{
  "_id": "GGbq8n7Nky36XfcF",
  "flags": {},
  "type": 2,
  "text": "Bestow Curse",
  "img": "systems/pf1/icons/misc/magic-swirl.png",
  "collection": "pf1.spells",
  "resultId": "lsboosfk26m0ycqv",
  "weight": 3,
  "range": [
    15,
    17
  ],
  "drawn": false,
  "_key": "!tables.results!kPxi5l3FlGLyTQSi.GGbq8n7Nky36XfcF"
}