{
  "_id": "spPNTp74zI3Pg02B",
  "flags": {
    "better-rolltables": {
      "brt-result-formula": {
        "formula": ""
      }
    }
  },
  "type": 2,
  "text": "Light Flail",
  "img": "systems/pf1/icons/items/weapons/flail-light.PNG",
  "collection": "pf1.weapons-and-ammo",
  "resultId": "BcY8IkVwo2hXC6ND",
  "weight": 1,
  "range": [
    12,
    12
  ],
  "drawn": false,
  "_key": "!tables.results!5j28w13lJRkiv3PI.spPNTp74zI3Pg02B"
}