{
  "_id": "9wT6T3138MArqDpB",
  "flags": {
    "better-rolltables": {
      "brt-result-formula": {
        "formula": ""
      }
    }
  },
  "type": 2,
  "text": "Greater Medium Headband",
  "img": "icons/equipment/finger/ring-crown-teal-gold.webp",
  "collection": "pf-content.pf-magic-tables",
  "resultId": "rHDgoZvjpiKEVSRO",
  "weight": 1,
  "range": [
    91,
    92
  ],
  "drawn": false,
  "rangeL": 91,
  "rangeH": 92,
  "_key": "!tables.results!Ki0kXJ5yPIe8gi2r.9wT6T3138MArqDpB"
}