{
  "_id": "uzXs3pxWYA5nFKPp",
  "flags": {
    "better-rolltables": {
      "brt-result-formula": {
        "formula": ""
      }
    }
  },
  "type": 2,
  "text": "Hide from Undead",
  "img": "systems/pf1/icons/misc/magic-swirl.png",
  "collection": "pf1.spells",
  "resultId": "rekl0ikgnorz60jc",
  "weight": 8,
  "range": [
    42,
    49
  ],
  "drawn": false,
  "_key": "!tables.results!3mPidIdKSHeaphcT.uzXs3pxWYA5nFKPp"
}