{
  "_id": "0CVNDp00XI8A68La",
  "flags": {},
  "type": 2,
  "text": "Invisibility, Greater",
  "img": "systems/pf1/icons/misc/magic-swirl.png",
  "collection": "pf1.spells",
  "resultId": "cxgi0ub77t6aink1",
  "weight": 4,
  "range": [
    62,
    65
  ],
  "drawn": false,
  "_key": "!tables.results!VmPCNRAGvxhJBFwf.0CVNDp00XI8A68La"
}