{
  "_id": "D6J7gnVZBmu93cgh",
  "flags": {},
  "type": 2,
  "text": "Legend Lore",
  "img": "systems/pf1/icons/misc/magic-swirl.png",
  "collection": "pf1.spells",
  "resultId": "b5mz8voksps5g4yq",
  "weight": 1,
  "range": [
    100,
    100
  ],
  "drawn": false,
  "_key": "!tables.results!MNyecR1TI8xc6Bmc.D6J7gnVZBmu93cgh"
}