{
  "_id": "qTIrqUtIpZybLUk0",
  "flags": {
    "better-rolltables": {
      "brt-result-formula": {
        "formula": ""
      }
    }
  },
  "type": 0,
  "text": "+2",
  "img": "icons/svg/d20-black.svg",
  "resultId": "",
  "weight": 20,
  "range": [
    73,
    74
  ],
  "drawn": false,
  "_key": "!tables.results!hIE1faa19lXWYdXE.qTIrqUtIpZybLUk0"
}