{
  "_id": "2lrOszqeWz7c43x3",
  "flags": {},
  "type": 2,
  "text": "Shifter's Headband +4",
  "img": "icons/svg/d20-black.svg",
  "collection": "pf-content.pf-wondrous",
  "resultId": "kgQADEZXNOHiafCh",
  "weight": 1,
  "range": [
    94,
    100
  ],
  "drawn": false,
  "_key": "!tables.results!FTHyC55dox6K8LRw.2lrOszqeWz7c43x3"
}