{
  "_id": "YHirITua4tSdV3RH",
  "flags": {
    "better-rolltables": {
      "brt-result-formula": {
        "formula": ""
      }
    }
  },
  "type": 2,
  "text": "Uncommon Level 3 Potions and Oils",
  "img": "systems/pf1/icons/items/potions/minor-red.jpg",
  "collection": "pf-content.pf-magic-tables",
  "resultId": "VexBVnzysCLmK0b7",
  "weight": 1,
  "range": [
    26,
    30
  ],
  "drawn": false,
  "rangeL": 26,
  "rangeH": 30,
  "_key": "!tables.results!Ki0kXJ5yPIe8gi2r.YHirITua4tSdV3RH"
}