{
  "_id": "hd80qDhMlMHJL7uC",
  "flags": {
    "better-rolltables": {
      "brt-result-formula": {
        "formula": ""
      }
    }
  },
  "type": 2,
  "text": "Wind Blades",
  "img": "systems/pf1/icons/misc/magic-swirl.png",
  "collection": "pf1.spells",
  "resultId": "ive4f1t2funreg5v",
  "weight": 4,
  "range": [
    95,
    98
  ],
  "drawn": false,
  "_key": "!tables.results!63tGlqj040dbsLt9.hd80qDhMlMHJL7uC"
}