{
  "_id": "vvNbrI2BmprnHJdj",
  "flags": {
    "better-rolltables": {
      "brt-result-formula": {
        "formula": ""
      }
    }
  },
  "type": 2,
  "text": "Symbol of Sleep",
  "img": "systems/pf1/icons/misc/magic-swirl.png",
  "collection": "pf1.spells",
  "resultId": "0khn0u6nd4fat6wb",
  "weight": 3,
  "range": [
    98,
    100
  ],
  "drawn": false,
  "_key": "!tables.results!SqnA7sT1iAMTwaXW.vvNbrI2BmprnHJdj"
}