{
  "_id": "7ZzrZf7b1d0p3li8",
  "flags": {
    "better-rolltables": {
      "brt-result-formula": {
        "formula": ""
      }
    }
  },
  "type": 2,
  "text": "Summon Nature's Ally VI",
  "img": "systems/pf1/icons/misc/magic-swirl.png",
  "collection": "pf1.spells",
  "resultId": "jktwukpp2lhxvs0a",
  "weight": 4,
  "range": [
    88,
    91
  ],
  "drawn": false,
  "_key": "!tables.results!LYxMTdR5eFR4memv.7ZzrZf7b1d0p3li8"
}