{
  "_id": "3blWsEfqO2ABBhK3",
  "flags": {
    "better-rolltables": {
      "brt-result-formula": {
        "formula": ""
      }
    }
  },
  "type": 2,
  "text": "Unholy Blight",
  "img": "systems/pf1/icons/misc/magic-swirl.png",
  "collection": "pf1.spells",
  "resultId": "okui7mft5bquqfrg",
  "weight": 3,
  "range": [
    87,
    89
  ],
  "drawn": false,
  "_key": "!tables.results!2WbcSSs3G1Z7AKXR.3blWsEfqO2ABBhK3"
}