{
  "_id": "VFi8hdrdJtqkoyrw",
  "flags": {
    "better-rolltables": {
      "brt-result-formula": {
        "formula": "2d4"
      }
    }
  },
  "type": 2,
  "text": "*Generate Major Magic Item",
  "img": "systems/pf1/icons/spells/enchant-blue-3.jpg",
  "collection": "pf-content.pf-magic-tables",
  "resultId": "1At0v38dODMSHJvX",
  "weight": 1,
  "range": [
    1,
    1
  ],
  "drawn": false,
  "_key": "!tables.results!ri5RffeGAjMMQF25.VFi8hdrdJtqkoyrw"
}