{
  "_id": "ShGtwX6RLcZ1ky7J",
  "flags": {
    "better-rolltables": {
      "brt-result-formula": {
        "formula": ""
      }
    }
  },
  "type": 2,
  "text": "Detect Law",
  "img": "systems/pf1/icons/misc/magic-swirl.png",
  "collection": "pf1.spells",
  "resultId": "jo67xdocgdmk5hhh",
  "weight": 2,
  "range": [
    35,
    36
  ],
  "drawn": false,
  "_key": "!tables.results!8qMPIb19AVDkKjZp.ShGtwX6RLcZ1ky7J"
}