{
  "_id": "nU5soP7iEQBi5sOR",
  "flags": {
    "better-rolltables": {
      "brt-result-formula": {
        "formula": ""
      }
    }
  },
  "type": 2,
  "text": "Glaive",
  "img": "systems/pf1/icons/items/weapons/glaive.png",
  "collection": "pf1.weapons-and-ammo",
  "resultId": "wKIv4yCj8L3ADceU",
  "weight": 1,
  "range": [
    11,
    11
  ],
  "drawn": false,
  "_key": "!tables.results!BMDVuMyNnK14lP9l.nU5soP7iEQBi5sOR"
}