{
  "_id": "KaPvZ8gYRZPBsvyP",
  "flags": {
    "better-rolltables": {
      "brt-result-formula": {
        "formula": ""
      }
    }
  },
  "type": 2,
  "text": "Reverse Gravity",
  "img": "systems/pf1/icons/misc/magic-swirl.png",
  "collection": "pf1.spells",
  "resultId": "3bdfw5f15hwcxlth",
  "weight": 4,
  "range": [
    63,
    66
  ],
  "drawn": false,
  "_key": "!tables.results!5WjVf0rkaN3Y8zBj.KaPvZ8gYRZPBsvyP"
}