{
  "_id": "ZQt0tbgpJRC3eBSS",
  "flags": {},
  "type": 2,
  "text": "Cure Moderate Wounds",
  "img": "systems/pf1/icons/spells/heal-sky-1.jpg",
  "collection": "pf1.spells",
  "resultId": "e67esdjp4nojtbr7",
  "weight": 6,
  "range": [
    17,
    22
  ],
  "drawn": false,
  "_key": "!tables.results!cTWxjjSE3QBvrnBt.ZQt0tbgpJRC3eBSS"
}