{
  "_id": "H6F8sMQepKc2tTnO",
  "flags": {
    "better-rolltables": {
      "brt-result-formula": {
        "formula": ""
      }
    }
  },
  "type": 2,
  "text": "Prayer",
  "img": "systems/pf1/icons/misc/magic-swirl.png",
  "collection": "pf1.spells",
  "resultId": "hu8179fdqfkl0bqj",
  "weight": 6,
  "range": [
    60,
    65
  ],
  "drawn": false,
  "_key": "!tables.results!EMFZvVvAceeWf58W.H6F8sMQepKc2tTnO"
}