{
  "_id": "0UUxTCuJKhYdEukN",
  "flags": {
    "better-rolltables": {
      "brt-result-formula": {
        "formula": ""
      }
    }
  },
  "type": 2,
  "text": "Transmute Mud to Rock",
  "img": "systems/pf1/icons/misc/magic-swirl.png",
  "collection": "pf1.spells",
  "resultId": "fdg9goug5f6s1qtx",
  "weight": 2,
  "range": [
    83,
    84
  ],
  "drawn": false,
  "_key": "!tables.results!63tGlqj040dbsLt9.0UUxTCuJKhYdEukN"
}