{
  "_id": "U5MgGhHZuiZwjyEN",
  "flags": {},
  "type": 0,
  "text": "3,200",
  "img": "icons/svg/d20-black.svg",
  "resultId": "",
  "weight": 1,
  "range": [
    85,
    100
  ],
  "drawn": false,
  "_key": "!tables.results!Oie0Ud8WGFeUkswG.U5MgGhHZuiZwjyEN"
}