{
  "_id": "qyGg5k9cTRg3hiQj",
  "flags": {
    "better-rolltables": {
      "brt-result-formula": {
        "formula": ""
      }
    }
  },
  "type": 2,
  "text": "Sleet Storm",
  "img": "systems/pf1/icons/misc/magic-swirl.png",
  "collection": "pf1.spells",
  "resultId": "qnp4eosajai8s3sf",
  "weight": 3,
  "range": [
    81,
    83
  ],
  "drawn": false,
  "_key": "!tables.results!TGbdOKEW2h1xCQaU.qyGg5k9cTRg3hiQj"
}