{
  "_id": "CByhaiaFZIgrNvCd",
  "flags": {
    "better-rolltables": {
      "brt-result-formula": {
        "formula": ""
      }
    }
  },
  "type": 2,
  "text": "Greataxe",
  "img": "systems/pf1/icons/items/weapons/greataxe.png",
  "collection": "pf1.weapons-and-ammo",
  "resultId": "Wx22UaMqWgCrYi7r",
  "weight": 1,
  "range": [
    13,
    13
  ],
  "drawn": false,
  "_key": "!tables.results!BMDVuMyNnK14lP9l.CByhaiaFZIgrNvCd"
}