{
  "_id": "1sF9iSqy0qTiHRRe",
  "flags": {},
  "type": 2,
  "text": "Lullaby",
  "img": "systems/pf1/icons/misc/magic-swirl.png",
  "collection": "pf1.spells",
  "resultId": "99xovzg8h1nh9o9a",
  "weight": 8,
  "range": [
    66,
    73
  ],
  "drawn": false,
  "_key": "!tables.results!5nwKxmMad5RcCKP1.1sF9iSqy0qTiHRRe"
}