{
  "_id": "ySg7yCrQyMTAThVr",
  "flags": {},
  "type": 2,
  "text": "Summon Monster III",
  "img": "systems/pf1/icons/misc/magic-swirl.png",
  "collection": "pf1.spells",
  "resultId": "1zmn8vqy3s5l9kiv",
  "weight": 1,
  "range": [
    93,
    93
  ],
  "drawn": false,
  "_key": "!tables.results!0aVojCkNbt3BZgNp.ySg7yCrQyMTAThVr"
}