{
  "_id": "RblDDpaSf99dOJa4",
  "flags": {
    "better-rolltables": {
      "brt-result-formula": {
        "formula": ""
      }
    }
  },
  "type": 2,
  "text": "Keen Senses",
  "img": "systems/pf1/icons/misc/magic-swirl.png",
  "collection": "pf1.spells",
  "resultId": "54x9nw6ni4rpphcn",
  "weight": 4,
  "range": [
    56,
    59
  ],
  "drawn": false,
  "_key": "!tables.results!m2ekq0yCW991zuCK.RblDDpaSf99dOJa4"
}