{
  "_id": "TOsX9H5T9ANvgEBQ",
  "flags": {
    "better-rolltables": {
      "brt-result-formula": {
        "formula": ""
      }
    }
  },
  "type": 0,
  "text": "Potion",
  "img": "icons/svg/d20-black.svg",
  "resultId": "",
  "weight": 13,
  "range": [
    1,
    100
  ],
  "drawn": false,
  "_key": "!tables.results!VexBVnzysCLmK0b7.TOsX9H5T9ANvgEBQ"
}