{
  "_id": "hPM0q4CnmU71I1e9",
  "flags": {},
  "type": 2,
  "text": "Detect Good",
  "img": "systems/pf1/icons/misc/magic-swirl.png",
  "collection": "pf1.spells",
  "resultId": "mkgysr5o92kxxn59",
  "weight": 1,
  "range": [
    25,
    25
  ],
  "drawn": false,
  "_key": "!tables.results!Ojdxyzq92m1nyIMf.hPM0q4CnmU71I1e9"
}