{
  "_id": "EzN7UieGxXXlSVxI",
  "flags": {},
  "type": 2,
  "text": "Searing Light",
  "img": "systems/pf1/icons/misc/magic-swirl.png",
  "collection": "pf1.spells",
  "resultId": "dnet1tyxbsnwailm",
  "weight": 3,
  "range": [
    80,
    82
  ],
  "drawn": false,
  "_key": "!tables.results!0aVojCkNbt3BZgNp.EzN7UieGxXXlSVxI"
}