{
  "_id": "ZoIGdA478ZcjtOEy",
  "flags": {
    "better-rolltables": {
      "brt-result-formula": {
        "formula": ""
      }
    }
  },
  "type": 2,
  "text": "Charm Monster, Mass",
  "img": "systems/pf1/icons/misc/magic-swirl.png",
  "collection": "pf1.spells",
  "resultId": "q2r6jrgsbwjgssdg",
  "weight": 5,
  "range": [
    1,
    5
  ],
  "drawn": false,
  "_key": "!tables.results!DrSZPRw1NcXOQziB.ZoIGdA478ZcjtOEy"
}