{
  "_id": "2lrOszqeWz7c43x3",
  "flags": {},
  "type": 2,
  "text": "Cloak Of The Bat",
  "img": "icons/svg/d20-black.svg",
  "collection": "pf-content.pf-wondrous",
  "resultId": "vJYR0BfziyYMdJSY",
  "weight": 1,
  "range": [
    89,
    100
  ],
  "drawn": false,
  "_key": "!tables.results!tyrLk1dnUCU7VzDi.2lrOszqeWz7c43x3"
}