{
  "_id": "K81tQJUtTWKMLdjX",
  "flags": {},
  "type": 0,
  "text": "9th Level Scroll",
  "img": "icons/svg/d20-black.svg",
  "resultId": "",
  "weight": 1,
  "range": [
    1,
    100
  ],
  "drawn": false,
  "_key": "!tables.results!uXzAusoy9wUI1yii.K81tQJUtTWKMLdjX"
}