{
  "_id": "ZeTyeL1dfoqbG55i",
  "flags": {
    "better-rolltables": {
      "brt-result-formula": {
        "formula": ""
      }
    }
  },
  "type": 2,
  "text": "Lesser Minor Divine Scrolls",
  "img": "icons/sundries/scrolls/scroll-bound-blue-white.webp",
  "collection": "pf-content.pf-magic-tables",
  "resultId": "7yv4m16T27ZJTilF",
  "weight": 1,
  "range": [
    47,
    63
  ],
  "drawn": false,
  "_key": "!tables.results!aWX5rqLgFXSa1oUj.ZeTyeL1dfoqbG55i"
}