{
  "_id": "tKeUcmyrBNdCe7lW",
  "flags": {},
  "type": 2,
  "text": "Feather Fall",
  "img": "systems/pf1/icons/misc/magic-swirl.png",
  "collection": "pf1.spells",
  "resultId": "68m9du7zw2di7ew6",
  "weight": 1,
  "range": [
    46,
    46
  ],
  "drawn": false,
  "_key": "!tables.results!fifQBagT9v3tPWjW.tKeUcmyrBNdCe7lW"
}