{
  "_id": "STXKafukDpvIr59v",
  "flags": {
    "better-rolltables": {
      "brt-result-formula": {
        "formula": ""
      }
    }
  },
  "type": 2,
  "text": "Lesser Minor Arcane Scrolls",
  "img": "icons/sundries/scrolls/scroll-bound-sealed-red-white.webp",
  "collection": "pf-content.pf-magic-tables",
  "resultId": "6IkNz16s1s9a0Q7P",
  "weight": 1,
  "range": [
    64,
    79
  ],
  "drawn": false,
  "_key": "!tables.results!aWX5rqLgFXSa1oUj.STXKafukDpvIr59v"
}