{
  "_id": "xRnltIPkH7JIvCQw",
  "flags": {
    "better-rolltables": {
      "brt-result-formula": {
        "formula": ""
      }
    }
  },
  "type": 2,
  "text": "Animal Messenger",
  "img": "systems/pf1/icons/misc/magic-swirl.png",
  "collection": "pf1.spells",
  "resultId": "0324zq42g3fu4kko",
  "weight": 2,
  "range": [
    7,
    8
  ],
  "drawn": false,
  "_key": "!tables.results!ScAeR4ImuVB68nz1.xRnltIPkH7JIvCQw"
}