{
  "_id": "SeQvzcGSlqFUQyPp",
  "flags": {},
  "type": 0,
  "text": "+1",
  "img": "icons/svg/d20-black.svg",
  "resultId": "yRH2la53YVYSnYET",
  "weight": 80,
  "range": [
    1,
    80
  ],
  "drawn": false,
  "_key": "!tables.results!S6DDwwliVG1VYtbM.SeQvzcGSlqFUQyPp"
}