{
  "_id": "0pfM3pKwfIl4XbhF",
  "flags": {
    "better-rolltables": {
      "brt-result-formula": {
        "formula": ""
      }
    }
  },
  "type": 2,
  "text": "Protection from Law",
  "img": "systems/pf1/icons/misc/magic-swirl.png",
  "collection": "pf1.spells",
  "resultId": "ekhygw5fzfe52n35",
  "weight": 4,
  "range": [
    73,
    76
  ],
  "drawn": false,
  "_key": "!tables.results!0WVF1i5DCmFkb9pl.0pfM3pKwfIl4XbhF"
}