{
  "_id": "FTmgJTLMaV5jmgXC",
  "flags": {},
  "type": 2,
  "text": "Resistance",
  "img": "systems/pf1/icons/misc/magic-swirl.png",
  "collection": "pf1.spells",
  "resultId": "g8j278xcu2s1zlwy",
  "weight": 7,
  "range": [
    80,
    86
  ],
  "drawn": false,
  "_key": "!tables.results!5nwKxmMad5RcCKP1.FTmgJTLMaV5jmgXC"
}