{
  "_id": "nzOdLzmUcTnI02ph",
  "flags": {
    "better-rolltables": {
      "brt-result-formula": {
        "formula": ""
      }
    }
  },
  "type": 2,
  "text": "Quarterstaff",
  "img": "systems/pf1/icons/items/weapons/quarterstaff.png",
  "collection": "pf1.weapons-and-ammo",
  "resultId": "6eAg4BT0RM8tfyUN",
  "weight": 1,
  "range": [
    4,
    4
  ],
  "drawn": false,
  "_key": "!tables.results!BMDVuMyNnK14lP9l.nzOdLzmUcTnI02ph"
}