{
  "_id": "B10FxjHSaR9ViwhI",
  "flags": {},
  "type": 2,
  "text": "Hypnotic Pattern",
  "img": "systems/pf1/icons/misc/magic-swirl.png",
  "collection": "pf1.spells",
  "resultId": "zyfm6dq35i4hip4u",
  "weight": 2,
  "range": [
    58,
    59
  ],
  "drawn": false,
  "_key": "!tables.results!7ZDjKM4rlZJIqz9t.B10FxjHSaR9ViwhI"
}