{
  "_id": "Uzvcsf7iWUcPH0rC",
  "flags": {
    "better-rolltables": {
      "brt-result-formula": {
        "formula": ""
      }
    }
  },
  "type": 2,
  "text": "Summon Nature's Ally VII",
  "img": "systems/pf1/icons/misc/magic-swirl.png",
  "collection": "pf1.spells",
  "resultId": "jjmoi5qbwkbguzbn",
  "weight": 4,
  "range": [
    70,
    73
  ],
  "drawn": false,
  "_key": "!tables.results!1mpZODkUPoK1bmi3.Uzvcsf7iWUcPH0rC"
}