{
  "_id": "YiFp4FMUwb7PFOIx",
  "flags": {
    "better-rolltables": {
      "brt-result-formula": {
        "formula": ""
      }
    }
  },
  "type": 2,
  "text": "Arcane Sight, Greater",
  "img": "systems/pf1/icons/misc/magic-swirl.png",
  "collection": "pf1.spells",
  "resultId": "ln4jpuurxbrfxw5j",
  "weight": 4,
  "range": [
    1,
    4
  ],
  "drawn": false,
  "_key": "!tables.results!5WjVf0rkaN3Y8zBj.YiFp4FMUwb7PFOIx"
}