{
  "_id": "rgVKQnc3iG8oZpek",
  "flags": {},
  "type": 2,
  "text": "Black Tentacles",
  "img": "systems/pf1/icons/misc/magic-swirl.png",
  "collection": "pf1.spells",
  "resultId": "wralcmyi4tdcai24",
  "weight": 3,
  "range": [
    5,
    7
  ],
  "drawn": false,
  "_key": "!tables.results!VmPCNRAGvxhJBFwf.rgVKQnc3iG8oZpek"
}