{
  "_id": "HiYeJM7GNgC11crL",
  "flags": {
    "better-rolltables": {
      "brt-result-formula": {
        "formula": ""
      }
    }
  },
  "type": 2,
  "text": "Forbid Action",
  "img": "systems/pf1/icons/misc/magic-swirl.png",
  "collection": "pf1.spells",
  "resultId": "mmdypasgl5us00wb",
  "weight": 3,
  "range": [
    37,
    39
  ],
  "drawn": false,
  "_key": "!tables.results!m2ekq0yCW991zuCK.HiYeJM7GNgC11crL"
}