{
  "_id": "fda1szQIVwBSTKj1",
  "flags": {
    "better-rolltables": {
      "brt-result-formula": {
        "formula": ""
      }
    }
  },
  "type": 2,
  "text": "Mountain Pattern",
  "img": "systems/pf1/icons/items/armor/mountain-pattern.PNG",
  "collection": "pf1.armors-and-shields",
  "resultId": "wVKTG7gN2I8jalGg",
  "weight": 1,
  "range": [
    12,
    12
  ],
  "drawn": false,
  "_key": "!tables.results!OY3eLbEotFWtF2Q2.fda1szQIVwBSTKj1"
}