{
  "_id": "caaamsFBffEReMvv",
  "flags": {
    "better-rolltables": {
      "brt-result-formula": {
        "formula": ""
      }
    }
  },
  "type": 2,
  "text": "Feeblemind",
  "img": "systems/pf1/icons/misc/magic-swirl.png",
  "collection": "pf1.spells",
  "resultId": "66vvhyiy5q8yzbq2",
  "weight": 4,
  "range": [
    32,
    35
  ],
  "drawn": false,
  "_key": "!tables.results!SqnA7sT1iAMTwaXW.caaamsFBffEReMvv"
}