{
  "_id": "2lrOszqeWz7c43x3",
  "flags": {},
  "type": 2,
  "text": "Eyes Of Doom",
  "img": "icons/svg/d20-black.svg",
  "collection": "pf-content.pf-wondrous",
  "resultId": "szPZrCWENbgZ5u4a",
  "weight": 1,
  "range": [
    78,
    100
  ],
  "drawn": false,
  "_key": "!tables.results!pTwngP3vdHl62EId.2lrOszqeWz7c43x3"
}