{
  "_id": "cV1k8m5ZHRNnXb1z",
  "flags": {
    "better-rolltables": {
      "brt-result-formula": {
        "formula": ""
      }
    }
  },
  "type": 2,
  "text": "Terbutje",
  "img": "systems/pf1/icons/items/weapons/terbutje.PNG",
  "collection": "pf1.weapons-and-ammo",
  "resultId": "4gTggKvYq8jePFNq",
  "weight": 1,
  "range": [
    22,
    22
  ],
  "drawn": false,
  "_key": "!tables.results!5j28w13lJRkiv3PI.cV1k8m5ZHRNnXb1z"
}