{
  "_id": "KF25GUMWCjygwg2T",
  "flags": {
    "better-rolltables": {
      "brt-result-formula": {
        "formula": ""
      }
    }
  },
  "type": 2,
  "text": "Tar Pool",
  "img": "systems/pf1/icons/misc/magic-swirl.png",
  "collection": "pf1.spells",
  "resultId": "hzkaqaa8n6ygwmub",
  "weight": 4,
  "range": [
    71,
    74
  ],
  "drawn": false,
  "_key": "!tables.results!YilKy1GcxhSxq4sH.KF25GUMWCjygwg2T"
}