{
  "_id": "3WC4RgWftVnfp1RU",
  "flags": {
    "better-rolltables": {
      "brt-result-formula": {
        "formula": ""
      }
    }
  },
  "type": 2,
  "text": "+1 Ranged Weapon Special Abilities",
  "img": "icons/svg/d20-grey.svg",
  "collection": "pf-content.pf-magic-tables",
  "resultId": "nhm3eGrTtSj69V0X",
  "weight": 20,
  "range": [
    58,
    59
  ],
  "drawn": false,
  "_key": "!tables.results!Sa0HV1bL7OtDeu3u.3WC4RgWftVnfp1RU"
}