{
  "_id": "Jasx4eWyl4Txy2y7",
  "flags": {
    "better-rolltables": {
      "brt-result-formula": {
        "formula": ""
      }
    }
  },
  "type": 2,
  "text": "Sunbeam",
  "img": "systems/pf1/icons/misc/magic-swirl.png",
  "collection": "pf1.spells",
  "resultId": "vax8ojz8g3oovwzu",
  "weight": 5,
  "range": [
    74,
    78
  ],
  "drawn": false,
  "_key": "!tables.results!1mpZODkUPoK1bmi3.Jasx4eWyl4Txy2y7"
}