{
  "_id": "4PV73gmFwXi9PMTT",
  "flags": {},
  "type": 2,
  "text": "Effortless Armor",
  "img": "systems/pf1/icons/misc/magic-swirl.png",
  "collection": "pf1.spells",
  "resultId": "5kaozniy9sjydygq",
  "weight": 3,
  "range": [
    40,
    42
  ],
  "drawn": false,
  "_key": "!tables.results!7ZDjKM4rlZJIqz9t.4PV73gmFwXi9PMTT"
}