{
  "_id": "JTCUaJIAAKuiPZQ4",
  "flags": {
    "better-rolltables": {
      "brt-result-formula": {
        "formula": ""
      }
    }
  },
  "type": 0,
  "text": "+2, with one +1 special ability:",
  "img": "icons/svg/d20-black.svg",
  "resultId": "",
  "weight": 20,
  "range": [
    79,
    79
  ],
  "drawn": false,
  "_key": "!tables.results!hIE1faa19lXWYdXE.JTCUaJIAAKuiPZQ4"
}