{
  "_id": "CF0X89CUnronFiOg",
  "flags": {
    "better-rolltables": {
      "brt-result-formula": {
        "formula": ""
      }
    }
  },
  "type": 2,
  "text": "Message",
  "img": "systems/pf1/icons/misc/magic-swirl.png",
  "collection": "pf1.spells",
  "resultId": "msaqovkgfxi6q8s8",
  "weight": 10,
  "range": [
    52,
    61
  ],
  "drawn": false,
  "_key": "!tables.results!5BRZGh1QWUEg0Fs7.CF0X89CUnronFiOg"
}