{
  "_id": "EgQmDcnz3regDH1d",
  "flags": {
    "better-rolltables": {
      "brt-result-formula": {
        "formula": ""
      }
    }
  },
  "type": 0,
  "text": "Potion of Resist Energy, Fire",
  "img": "icons/svg/d20-black.svg",
  "resultId": "",
  "weight": 4,
  "range": [
    89,
    92
  ],
  "drawn": false,
  "_key": "!tables.results!dtXhs097VtxyPHpw.EgQmDcnz3regDH1d"
}