{
  "_id": "Kx24VZMvO9Ut0oak",
  "flags": {
    "better-rolltables": {
      "brt-result-formula": {
        "formula": ""
      }
    }
  },
  "type": 2,
  "text": "Common Level 0 Wands",
  "img": "icons/weapons/wands/wand-gem-pink.webp",
  "collection": "pf-content.pf-magic-tables",
  "resultId": "URkavU5BeEOqCYBN",
  "weight": 1,
  "range": [
    80,
    82
  ],
  "drawn": false,
  "_key": "!tables.results!aWX5rqLgFXSa1oUj.Kx24VZMvO9Ut0oak"
}