{
  "_id": "CHdns06CvHhxE575",
  "flags": {},
  "type": 2,
  "text": "Hypnotism",
  "img": "systems/pf1/icons/misc/magic-swirl.png",
  "collection": "pf1.spells",
  "resultId": "3ntxp3zun1j9mf0m",
  "weight": 2,
  "range": [
    55,
    56
  ],
  "drawn": false,
  "_key": "!tables.results!Ojdxyzq92m1nyIMf.CHdns06CvHhxE575"
}