{
  "_id": "EhEavw81ZOQFSEUF",
  "flags": {
    "better-rolltables": {
      "brt-result-formula": {
        "formula": ""
      }
    }
  },
  "type": 2,
  "text": "Ant Haul",
  "img": "systems/pf1/icons/misc/magic-swirl.png",
  "collection": "pf1.spells",
  "resultId": "ngcx59msygjom4h2",
  "weight": 7,
  "range": [
    5,
    11
  ],
  "drawn": false,
  "_key": "!tables.results!3mPidIdKSHeaphcT.EhEavw81ZOQFSEUF"
}