{
  "_id": "JlcwfnW2BWHW0b6I",
  "flags": {
    "better-rolltables": {
      "brt-result-formula": {
        "formula": ""
      }
    }
  },
  "type": 2,
  "text": "Greatsword",
  "img": "systems/pf1/icons/items/weapons/greatsword.PNG",
  "collection": "pf1.weapons-and-ammo",
  "resultId": "oyUApQSVsAqzyjdz",
  "weight": 1,
  "range": [
    15,
    15
  ],
  "drawn": false,
  "_key": "!tables.results!BMDVuMyNnK14lP9l.JlcwfnW2BWHW0b6I"
}