{
  "_id": "KCemlTZreAIReC1g",
  "flags": {
    "better-rolltables": {
      "brt-result-formula": {
        "formula": ""
      }
    }
  },
  "type": 2,
  "text": "Finger of Death",
  "img": "systems/pf1/icons/misc/magic-swirl.png",
  "collection": "pf1.spells",
  "resultId": "7toeli7vcq5a7tv1",
  "weight": 7,
  "range": [
    32,
    38
  ],
  "drawn": false,
  "_key": "!tables.results!JMXd5E2NLxUr09Pg.KCemlTZreAIReC1g"
}