{
  "_id": "mltIgLNuWfVCWxxl",
  "flags": {
    "better-rolltables": {
      "brt-result-formula": {
        "formula": ""
      }
    }
  },
  "type": 0,
  "text": "Bane: Outsider (Air)",
  "img": "icons/svg/d20-black.svg",
  "resultId": "",
  "weight": 1,
  "range": [
    73,
    73
  ],
  "drawn": false,
  "_key": "!tables.results!XYMcAtKi3v8CqRr9.mltIgLNuWfVCWxxl"
}