{
  "_id": "U5MgGhHZuiZwjyEN",
  "flags": {},
  "type": 0,
  "text": "7,500 gp",
  "img": "icons/svg/d20-black.svg",
  "resultId": "",
  "weight": 1,
  "range": [
    90,
    100
  ],
  "drawn": false,
  "_key": "!tables.results!uXCqF0A07QPHpOwz.U5MgGhHZuiZwjyEN"
}