{
  "name": "+4 Armor Special Abilities",
  "flags": {
    "scene-packer": {
      "sourceId": "RollTable.24VrISylbn7k7piA"
    },
    "cf": {
      "id": "temp_8pf4jk5286g",
      "path": "Magic Shop#/CF_SEP/Special Abilities",
      "color": "#000000"
    }
  },
  "img": "icons/equipment/chest/breastplate-cuirass-steel-grey.webp",
  "description": "",
  "results": [
    "2lrOszqeWz7c43x3",
    "U5MgGhHZuiZwjyEN",
    "2lrOszqeWz7c43x3",
    "U5MgGhHZuiZwjyEN",
    "2lrOszqeWz7c43x3",
    "U5MgGhHZuiZwjyEN",
    "2lrOszqeWz7c43x3",
    "U5MgGhHZuiZwjyEN",
    "2lrOszqeWz7c43x3",
    "U5MgGhHZuiZwjyEN",
    "2lrOszqeWz7c43x3",
    "U5MgGhHZuiZwjyEN"
  ],
  "formula": "1d100 + 0",
  "replacement": true,
  "displayRoll": true,
  "_id": "fpw1Lv5BkvfvJLxs",
  "_key": "!tables!fpw1Lv5BkvfvJLxs"
}