{
  "name": "#[CF_tempEntity]",
  "flags": {
    "cf": {
      "id": "temp_qkdk5etzwgb",
      "path": "Magic Shop#/CF_SEP/Wondrous#/CF_SEP/Ring",
      "color": "#000000",
      "name": "Ring",
      "children": [
        "MTaO8e21pUk6kQGJ",
        "1Af80t64OefgKX36",
        "TMwReZfQMx51MQns",
        "4GlYOQh4uEdBBbQ0",
        "WqEurcKF6R8iXCgk",
        "tonnimie0CCQSTO3"
      ],
      "folderPath": [
        "temp_yzwrerbiocl",
        "temp_20j6rdcrz78"
      ]
    }
  },
  "img": "icons/svg/d20-grey.svg",
  "results": [],
  "replacement": true,
  "displayRoll": true,
  "_id": "QGgJqU0Kz91dKSRK",
  "_key": "!tables!QGgJqU0Kz91dKSRK"
}