{
  "_id": "A76aNkqIItRTQrIJ",
  "name": "#[CF_tempEntity]",
  "flags": {
    "cf": {
      "id": "temp_e044mrpgnwc",
      "path": "Magic Shop#/CF_SEP/Wondrous#/CF_SEP/Head",
      "color": "#000000",
      "name": "Head",
      "children": [
        "w91CwGwWWHX6o4gD",
        "14Wy21YU1IJpOmf2",
        "Ur0hfZ9NykaHrSPf",
        "IZ2JRD5NyHpjiyVu",
        "SXjrGS5D3SeEY65s",
        "str0FsSjaLkOIYqq",
        "enlcEouC7e5x0qKs",
        "VgfdR455guAUjZm1",
        "txpWQqQcnFBwqC9X",
        "IThlRD6uvInzSBBQ",
        "nommELSAyWOR7QVc",
        "xeG5KgPM0wRXxgcl"
      ],
      "folderPath": [
        "temp_yzwrerbiocl",
        "temp_20j6rdcrz78"
      ]
    }
  },
  "img": "icons/svg/d20-grey.svg",
  "results": [],
  "replacement": true,
  "displayRoll": true,
  "_key": "!tables!A76aNkqIItRTQrIJ"
}