{
  "name": "#[CF_tempEntity]",
  "flags": {
    "cf": {
      "id": "temp_5x0flqf0kii",
      "path": "Magic Shop#/CF_SEP/Wondrous#/CF_SEP/Neck",
      "color": "#000000",
      "name": "Neck",
      "children": [
        "Iqwsqf4OyvotHdwz",
        "KQyLGR2aN64Guri6",
        "uXCqF0A07QPHpOwz",
        "cg2Bzd6BFFenUygA",
        "oS5nWZGKTlY1QUs0",
        "91ficR34RgVQeyJ8"
      ],
      "folderPath": [
        "temp_yzwrerbiocl",
        "temp_20j6rdcrz78"
      ]
    }
  },
  "img": "icons/svg/d20-grey.svg",
  "results": [],
  "replacement": true,
  "displayRoll": true,
  "_id": "h8obVlFXFPLwzRxR",
  "_key": "!tables!h8obVlFXFPLwzRxR"
}