{
  "name": "#[CF_tempEntity]",
  "flags": {
    "cf": {
      "id": "temp_me48eeg2qms",
      "path": "Magic Shop#/CF_SEP/Wondrous#/CF_SEP/Belt",
      "color": "#000000",
      "name": "Belt",
      "children": [
        "KCc76IoF8ZTMJhjY",
        "BlXgjU5kEcMurMSg",
        "cnmz8ageAJKmG2AP",
        "1RNAjsaJUOn299oN",
        "I20A7GVGTt8svB5R",
        "Oie0Ud8WGFeUkswG"
      ],
      "folderPath": [
        "temp_yzwrerbiocl",
        "temp_20j6rdcrz78"
      ]
    }
  },
  "img": "icons/svg/d20-grey.svg",
  "results": [],
  "replacement": true,
  "displayRoll": true,
  "_id": "AJGnYQ7aQ7H2v2dL",
  "_key": "!tables!AJGnYQ7aQ7H2v2dL"
}