{
  "name": "#[CF_tempEntity]",
  "flags": {
    "cf": {
      "id": "temp_eil19jpb42k",
      "path": "Magic Shop#/CF_SEP/Wondrous#/CF_SEP/Shoulders",
      "color": "#000000",
      "name": "Shoulders",
      "children": [
        "Ara3F7NtX7vbOngF",
        "tyrLk1dnUCU7VzDi",
        "6MEQphEEfKqXLgtR",
        "l42W97vyree59i3X",
        "r38i4XsfMfW2vM2l",
        "foJs98xHaug0p8Zt"
      ],
      "folderPath": [
        "temp_yzwrerbiocl",
        "temp_20j6rdcrz78"
      ]
    }
  },
  "img": "icons/svg/d20-grey.svg",
  "results": [],
  "replacement": true,
  "displayRoll": true,
  "_id": "xvqKra3qHQz8YDCe",
  "_key": "!tables!xvqKra3qHQz8YDCe"
}