{
  "name": "#[CF_tempEntity]",
  "flags": {
    "cf": {
      "id": "temp_kqrti4dj05c",
      "path": "Magic Shop#/CF_SEP/Optional",
      "color": "#000000",
      "name": "Optional",
      "children": [
        "XYMcAtKi3v8CqRr9",
        "2B9V8CIQ6bh4MEjZ",
        "1h1KobvEs8nPxTfa"
      ],
      "folderPath": [
        "temp_yzwrerbiocl"
      ]
    }
  },
  "img": "icons/svg/d20-grey.svg",
  "results": [],
  "replacement": true,
  "displayRoll": true,
  "_id": "eFGLeYpp7pU4hfOA",
  "_key": "!tables!eFGLeYpp7pU4hfOA"
}