{
  "_id": "1At0v38dODMSHJvX",
  "name": "*Generate Major Magic Item",
  "flags": {
    "better-rolltables": {
      "table-type": "better",
      "loot-amount-key": ""
    },
    "scene-packer": {
      "sourceId": "RollTable.RJmDJZ6QCvB5G7le"
    },
    "cf": {
      "id": "temp_8obhge9hi3e"
    }
  },
  "img": "systems/pf1/icons/spells/enchant-blue-3.jpg",
  "description": "Generate a random Lesser Major or Greater Major magic item.",
  "results": [
    "fVJUxhdmQpBWjowu",
    "PLaDrv6dG6dFzbnC"
  ],
  "formula": "1d6",
  "replacement": true,
  "displayRoll": true,
  "_key": "!tables!1At0v38dODMSHJvX"
}