{
  "_id": "TbLlKyCioDD2AVgH",
  "name": "*Greater Minor Magic Item",
  "img": "systems/pf1/icons/spells/enchant-sky-2.jpg",
  "description": "",
  "results": [
    "pQNaC3ft9tI17p9E",
    "uZHHBJcoX0Txe24Z",
    "2MlJDaIAB2ra8SLa",
    "0zuYjLT72xx0mnm6",
    "FWm8Ioyi2h4pQD3h",
    "ZeTyeL1dfoqbG55i",
    "STXKafukDpvIr59v",
    "Kx24VZMvO9Ut0oak",
    "r0BilyJJFlv3ZObs",
    "eCBvczwecfSs1E6l",
    "OjAjgwNhkAmtNOLu",
    "wRma0PI57MIfvz8c",
    "hGRBMVD8cOgHiaIJ",
    "QcLieMNB4lF4FiSj",
    "oe2xzw2oNHkucFCs",
    "kw3TBH2PHH32Oloe",
    "MPUGQfgGzP7guatu",
    "9LtIaEAOb7MByiBm",
    "ldLIYYmqZmUo5EyO",
    "ox9xVPEoBI6FGPWY",
    "5RkCepz0KeSlggrN",
    "T99IeS2E0u0H6Q2j",
    "WKXxxPrEwjcC2f9e"
  ],
  "formula": "1d100",
  "replacement": true,
  "displayRoll": true,
  "flags": {
    "better-rolltables": {
      "table-type": "better",
      "table-currency-string": "",
      "loot-amount-key": "",
      "loot-actor-name": ""
    }
  },
  "_key": "!tables!TbLlKyCioDD2AVgH"
}