{
  "_id": "5UmlBvgZ67Rs3PtQ",
  "name": "*Lesser Medium Magic Items",
  "img": "systems/pf1/icons/spells/enchant-eerie-3.jpg",
  "description": "",
  "results": [
    "G7cr9fnI7FvccaUF",
    "UUzBILwaECO0WYoz",
    "cb0uza8gqhQwLgPT",
    "YHirITua4tSdV3RH",
    "VbuER5eJYQnIYjzw",
    "n41cUmqky7dgYupe",
    "dEKsaSkAXahQhgYT",
    "J0z3FI3ErQffSF6Y",
    "deKK89YWEMjyPIm0",
    "CN8xN260LbBf2SgK",
    "s4HSTiRHzAorn0EB",
    "bpVGp4AXwLre07tg",
    "Iw1EkkYwPe2S29ym",
    "zDknTMDw5NtIQxzs",
    "NoIwrQeEYhOjduqF",
    "RPUQbdm9pLpzJ585",
    "YxBNOoYVVYwreBdT",
    "1xblpZwJ40xiycwg",
    "57DJhpgyWKd0Os3t",
    "pHCdY5FxJVKaS7Xd",
    "Z6DOYWFu48bd7wyN",
    "9wT6T3138MArqDpB",
    "tEgOuVnF9TIvUZxP",
    "HuCPUZG0vXR43qPA",
    "Dk3iXclr7ZpgtYAJ",
    "PdbVyEHFoU2Hg4A5"
  ],
  "formula": "1d100",
  "replacement": true,
  "displayRoll": true,
  "flags": {
    "better-rolltables": {
      "table-type": "better",
      "table-currency-string": "",
      "loot-amount-key": "",
      "loot-actor-name": ""
    }
  },
  "_key": "!tables!5UmlBvgZ67Rs3PtQ"
}