{
  "_id": "zWYxThikS0pPVBbo",
  "name": "Armour Type",
  "flags": {
    "better-rolltables": {
      "table-type": "better",
      "loot-amount-key": ""
    },
    "scene-packer": {
      "sourceId": "RollTable.5TZV1ODn2THwX7kp"
    },
    "cf": {
      "id": "temp_wkzryczdqlf",
      "path": "Magic Shop#/CF_SEP/Armor",
      "color": "#000000"
    }
  },
  "img": "icons/equipment/chest/breastplate-layered-leather-studded-brown.webp",
  "description": "",
  "results": [
    "e9pVp9pDW2m70Tko",
    "kDvWAatUntbxcgOS",
    "nOiToXw9KSMgLKcU",
    "qKL8nLICdIqtkQP8"
  ],
  "formula": "1d100",
  "replacement": true,
  "displayRoll": true,
  "_key": "!tables!zWYxThikS0pPVBbo"
}