{
  "_id": "XYMcAtKi3v8CqRr9",
  "name": "Bane Subtypes",
  "flags": {
    "better-rolltables": {
      "table-type": "better",
      "loot-amount-key": ""
    },
    "scene-packer": {
      "sourceId": "RollTable.33EgV0aMEe4YTSXH"
    },
    "cf": {
      "id": "temp_8pf4jk5286g",
      "path": "Magic Shop#/CF_SEP/Optional",
      "color": "#000000"
    }
  },
  "img": "systems/pf1/icons/skills/affliction_21.jpg",
  "description": "",
  "results": [
    "nUnLk1v2mozKde9O",
    "FskR3TnftTJPeT4g",
    "siJDwG6YICm0F58q",
    "LTaXh371ajPa2BhV",
    "2WBWokDsFATPpBRR",
    "onZKlO7Z28iosIPV",
    "SuiNqFjS9S4xM57z",
    "uOYHFJC9X35pc9OV",
    "fAselvAYEf6uhDrL",
    "LxhCOk3oeCRugOA8",
    "DSKUAqmVo3xJftqx",
    "hnQ4Cmgahc7J27xp",
    "VXcKCJSUwsB3VtFI",
    "HzlZ3tkKDITpxiar",
    "8iVYbPk31SNs7dRg",
    "nOwKRU9S7FxTSnIM",
    "0wJJBFYjnTIzDTLQ",
    "NgSXntZaOiWnjYmh",
    "oDrqrNSjG54O1EYL",
    "mltIgLNuWfVCWxxl",
    "QQ48IUjRAixRno0K",
    "ADZFK8kTFtTdzDF3",
    "HJveb5RagMe9J3Fo",
    "wozIE1MpJJjLQsKX",
    "PMFfGJHW0B8CWRfH",
    "MoP1F31refpYt87C",
    "JO7T59ETToFprK57",
    "EHebN8roMoh114nw",
    "iMh6KHovSPcY10Wh",
    "Y7yenb2j9bwb9y1e"
  ],
  "formula": "1d100",
  "replacement": true,
  "displayRoll": true,
  "_key": "!tables!XYMcAtKi3v8CqRr9"
}