{
  "name": "Bane Table",
  "flags": {
    "scene-packer": {
      "sourceId": "RollTable.XJXpssr7Q3FOSwmS"
    },
    "cf": {
      "id": "temp_xwh47pyqaj",
      "path": "Magic Shop#/CF_SEP/Intelligent",
      "color": "#000000"
    }
  },
  "img": "systems/pf1/icons/skills/affliction_04.jpg",
  "description": "To randomly determine a weapon's designated foe, roll on the following table.",
  "results": [
    "2lrOszqeWz7c43x3",
    "2lrOszqeWz7c43x3",
    "2lrOszqeWz7c43x3",
    "2lrOszqeWz7c43x3",
    "2lrOszqeWz7c43x3",
    "2lrOszqeWz7c43x3",
    "2lrOszqeWz7c43x3",
    "2lrOszqeWz7c43x3",
    "2lrOszqeWz7c43x3",
    "2lrOszqeWz7c43x3",
    "2lrOszqeWz7c43x3",
    "2lrOszqeWz7c43x3",
    "2lrOszqeWz7c43x3"
  ],
  "formula": "1d100 + 0",
  "replacement": true,
  "displayRoll": true,
  "_id": "HVU0F3ByvLby6pgY",
  "_key": "!tables!HVU0F3ByvLby6pgY"
}