{
  "_id": "VmPCNRAGvxhJBFwf",
  "name": "Common Level 4 Wands",
  "flags": {
    "scene-packer": {
      "sourceId": "RollTable.AARufBGeW7tm0ZLW"
    },
    "cf": {
      "id": "temp_qkcej4d065",
      "path": "Magic Shop#/CF_SEP/Wands",
      "color": "#000000"
    }
  },
  "img": "icons/weapons/wands/wand-gem-pink.webp",
  "description": "",
  "results": [
    "MxUFM00BMW8uZvwV",
    "igJkiSzOpUwYsoEq",
    "rgVKQnc3iG8oZpek",
    "N75AE2UzIwqjyAeb",
    "xeeMa8ZvoUhIuXEA",
    "nPeLUzQY25MgIIa1",
    "ksPNJ1F8Mi3uFQ3j",
    "LaDdLo51TAxOjfL3",
    "k64FY6cbbuURR4ew",
    "ufmNrZRG9DlYeyNV",
    "ZG49ZmPhFtnBcoy1",
    "dKo1vJNmg8DGQ3aI",
    "ZisbWHrlk5gbgWz6",
    "6YwKNlIljtfs82D7",
    "qEBMAqPtlVRNuf73",
    "722wFeIEC0jFMssf",
    "cmm7lHUMPA5ksq0l",
    "6K7OjVUiIl6DR30H",
    "HoTb2mDR9VSR7Ws1",
    "LyTACoXWeq4O1iWg",
    "LaKFT88X8Pl7m5rC",
    "j9xLrr5wynX3z56V",
    "tKCYicVYJlaCx9dq",
    "TVv4yo2XQRlVk1dr",
    "QdoqWIwQd2w90WSa",
    "0CVNDp00XI8A68La",
    "Bwjxa2kmmTHyqsKg",
    "QnfWJddMYgwpqPGI",
    "LeBDRwbr6In745TZ",
    "EtSHwBkQEstIzogn",
    "EE6jJFuwZ2L5grdS",
    "IucKJm2Shsk4UMcw",
    "Pd4e82jBceLefOKJ",
    "o8vjhtLAPml5rKjw",
    "NizvqomxKzwH018r",
    "fvVvfVhHdCfVQs6W",
    "Uy88TCDmnLZ5RH9A",
    "JcEQqQvBfj0qjIDq",
    "yXmWnpUYMB7G7nn4",
    "AjNUpsI0l377ohPa",
    "iwwbaY9hBTJiOyMp",
    "qwAMSbF6IzC9EubU",
    "O0Ez4GjRiRl4px04",
    "lWw9RBBMVX6LTusc",
    "GeEKOZLkhkaQx0ze",
    "UP7gcEPEPFw9xdVK"
  ],
  "formula": "1d100",
  "replacement": true,
  "displayRoll": true,
  "_key": "!tables!VmPCNRAGvxhJBFwf"
}