{
  "_id": "KCr03KGPwBiGS4Eo",
  "name": "Common Level 9 Divine Scrolls",
  "flags": {
    "better-rolltables": {
      "table-type": "better",
      "loot-amount-key": ""
    },
    "scene-packer": {
      "sourceId": "RollTable.CRInXdnbdLQEOLpq"
    },
    "cf": {
      "id": "temp_8hyggeoiwe6",
      "path": "Magic Shop#/CF_SEP/Scrolls#/CF_SEP/Divine",
      "color": "#000000"
    }
  },
  "img": "icons/sundries/scrolls/scroll-bound-sealed-orange.webp",
  "description": "",
  "results": [
    "YgYqAOWnklLfVy5x",
    "Kq8vTkxKFSjz2mdB",
    "YazJXUBkagGwW40N",
    "T5ELOmjSSUx2Wrcq",
    "YIXfSKCAGNsywWm8",
    "4licamsQe6vbk5uM",
    "TEEpn8rRNsUB6U0h",
    "psCAEuBi5fE3quJz",
    "KxQ0PIAqSKxcJqJ7",
    "6naiUSffbKp8nG9v",
    "ac7qyBJsbSSZHiEJ",
    "0CjHfLOLo8NZBx8w",
    "JIIjxZJ0sgZwzUxb",
    "w1JM89xHJmscxHTf"
  ],
  "formula": "1d100",
  "replacement": true,
  "displayRoll": true,
  "_key": "!tables!KCr03KGPwBiGS4Eo"
}