{
  "_id": "dtXhs097VtxyPHpw",
  "name": "Common Level 2 Potions and Oils",
  "flags": {
    "better-rolltables": {
      "table-type": "better",
      "loot-amount-key": ""
    },
    "scene-packer": {
      "sourceId": "RollTable.FnjRmt2EfJXUfjh3"
    },
    "cf": {
      "id": "temp_umand1qvbs",
      "path": "Magic Shop#/CF_SEP/Potions",
      "color": "#000000"
    }
  },
  "img": "systems/pf1/icons/items/potions/minor-blue.jpg",
  "description": "",
  "results": [
    "P3l7fbaRfqDFahDO",
    "tRNOzPhXGHekBEp8",
    "NWtxKkhJyAZ3LDAm",
    "xlg0KpFaKtjKFBgq",
    "N2atctm3kyN0GgaS",
    "yplzzt4gpMB0TgpZ",
    "RQDhjGEYCmp1pCuQ",
    "xKUv8QohxoXHIVr6",
    "h50dBvGTqTV6cDCS",
    "nuoTzaTFklriq60F",
    "FZpV7SEWQdiN6sFT",
    "1IFZ5dqyZqylzTPo",
    "wTVesvtXpshI4Mdt",
    "YHCWPabbQpPkTXxu",
    "3c5M2HNAVuhadqej",
    "wxvEEhz5HDtFVIsw",
    "k3laxHFNCpnUhYYS",
    "en6DcEQCnO8I5smu",
    "fqnnO79FryUCJmEp",
    "TWOUCwdYdnsublIx",
    "0XlbyEtu2D4U8t3W",
    "EgQmDcnz3regDH1d",
    "QeQbre4xUyIUXJqx",
    "7VKmyIuqwSiD6b4D",
    "nWhGdHTofk73CFjD",
    "ANeBN1lmvDYb0B43"
  ],
  "formula": "1d201",
  "replacement": true,
  "displayRoll": true,
  "_key": "!tables!dtXhs097VtxyPHpw"
}