{
  "_id": "cTWxjjSE3QBvrnBt",
  "name": "Common Level 2 Wands",
  "flags": {
    "scene-packer": {
      "sourceId": "RollTable.SMMC9x16X3JTS7TW"
    },
    "cf": {
      "id": "temp_qkcej4d065",
      "path": "Magic Shop#/CF_SEP/Wands",
      "color": "#000000"
    }
  },
  "img": "icons/weapons/wands/wand-gem-pink.webp",
  "description": "",
  "results": [
    "JVIS7V3ODjzSrX0B",
    "ygtLmBbTGFmvfo54",
    "XVHq7xGui9mclYUv",
    "PufO0kevk1FNwWm4",
    "3nsarzht7LAa63Xa",
    "BR5JaSlW6e5XzMG4",
    "gtTsG7EL9H1AJkVX",
    "ihGG27LaEs1Pm94u",
    "ZQt0tbgpJRC3eBSS",
    "R7tNQD3RvU2bPNMF",
    "qIptMGniHQXukFg4",
    "El5CBCQnprbRYT3f",
    "fDQpSP1AeCfphr7P",
    "f6rhhbbiLYm7L09R",
    "EIjVChujK1iXllvy",
    "HeLftY8cppLxbb0R",
    "A1FXZSeP7LCvv5tA",
    "SJvChhGLAI5t7qFU",
    "cwhfkzIZcD6PhpFa",
    "aRndBIwtU5tkNiPe",
    "EfCSEdQkSXNBF2WU",
    "kNl6V4nYjpFQPgCo",
    "fX4OtgKk3Bka6hV6",
    "kg6AnqNXAlTNp3t0",
    "hjbnvb3Y7Qh8QfSp",
    "jOLzv0DMGW0UVeDq",
    "QfYJ3EjhIhVCjkGE",
    "0y6HHFhvbUNO3qSI",
    "C0ecKAHyX9I6Cju3",
    "z4n20fcPj6RfgwhM",
    "hvbyNpWtNQ7JYp0d",
    "OIhVb7TW4ptknCVg",
    "j8RQoGKI4MQDNZ4L",
    "81C1JjlRKzY8WSeV",
    "M6DP5Xh3VL41h47W",
    "sYldLZT953H95fnB",
    "hKdEt7b4LoMD5Dd9",
    "eI9piXifKk7O3du4",
    "R7n5ExjjR3Vo7OOK",
    "XMyknfwL5QxWvgyr",
    "puNQjbmNnLPWqonr",
    "yG44FMU68zKM4wpc",
    "cFQO8rk57wL5WSqT",
    "iuP4mJdYKQJDjvuO",
    "LuyrmDzzNfircH21",
    "LcluY65t7OoYe0Fl",
    "bJCTfnAq1mnpwoV5",
    "A6ZeivAvlI5kBYBT",
    "08Xwv9RHBqzXCyyD"
  ],
  "formula": "1d100",
  "replacement": true,
  "displayRoll": true,
  "_key": "!tables!cTWxjjSE3QBvrnBt"
}