{
  "_id": "5hwwmw4Noj0Guac4",
  "name": "Common Level 0 Divine Scrolls",
  "flags": {
    "better-rolltables": {
      "table-type": "better",
      "loot-amount-key": ""
    },
    "cf": {
      "id": "temp_8hyggeoiwe6",
      "path": "Magic Shop#/CF_SEP/Scrolls#/CF_SEP/Divine",
      "color": "#000000"
    },
    "scene-packer": {
      "sourceId": "RollTable.hNwq02yGi2Sez78E"
    }
  },
  "img": "icons/sundries/scrolls/scroll-bound-sealed-orange.webp",
  "description": "",
  "results": [
    "UN7usqO3bo8PHRzK",
    "pFVzUcgJaM9jflBU",
    "SLhy8jsASX9my4Ic",
    "ClyOkqTIML88Iekg",
    "f0viRHVgKrZjPguK",
    "VfYlDEcTEEpukYiY",
    "Htgtlh8XevXYuEZY",
    "32EPiqrwNWnFidfT",
    "Vkz10zh6FHxQkVMw",
    "orLLrGyMb4JXd4C3"
  ],
  "formula": "1d201",
  "replacement": true,
  "displayRoll": true,
  "_key": "!tables!5hwwmw4Noj0Guac4"
}