{
  "_id": "h0G1Fj2UnFtz02E0",
  "name": "Common Level 3 Potions and Oils",
  "flags": {
    "better-rolltables": {
      "table-type": "better",
      "loot-amount-key": ""
    },
    "scene-packer": {
      "sourceId": "RollTable.p3fqrhDuFZZhkajd"
    },
    "cf": {
      "id": "temp_umand1qvbs",
      "path": "Magic Shop#/CF_SEP/Potions",
      "color": "#000000"
    }
  },
  "img": "systems/pf1/icons/items/potions/minor-blue.jpg",
  "description": "",
  "results": [
    "muOUuFgBMQk1dmPb",
    "SrZ5QTtmpGqVfWWB",
    "1a7bQFZUhyfYWM2C",
    "6udpUlJ4a2TUKAgf",
    "h05fzCQht7j3gv67",
    "H64qKzlO3cb4ShCt",
    "vxwDoA9THuQx78Iu",
    "rCNdz3jcZxYCkKdN",
    "z6FRrLFNbzNAUnjI",
    "RMgsfozmpN1vOAT9",
    "G1su5noKWhlZTiaz",
    "dHxzPsEHRrdUXCVv",
    "QdcFzrVuuQ61MLKd",
    "nb3WlbbJF71M0gAI",
    "o0t5F1IQvtXWcdyg",
    "qmnPmhQMf19xrstm",
    "0uWC8CpgZrksN0Ys",
    "VwEwEhixRXxO275W",
    "5NPEDkDFZhA4bxCU",
    "7DaXpUjfcNjsIxb8",
    "gK7iqd76uoaWz7u4",
    "GOFdUuK0DQhBqs8G",
    "p7BlAscAV6kjFh0m",
    "NVxBpWz6UPSZZHX7",
    "DlcgMoqA4yMIIETw",
    "q5kLsasm7o11Jtrs"
  ],
  "formula": "1d203",
  "replacement": true,
  "displayRoll": true,
  "_key": "!tables!h0G1Fj2UnFtz02E0"
}