{
  "name": "Greater Major Shoulders",
  "flags": {
    "scene-packer": {
      "sourceId": "RollTable.YLJELvBxEVY2fXT3"
    },
    "cf": {
      "id": "temp_eil19jpb42k",
      "path": "Magic Shop#/CF_SEP/Wondrous#/CF_SEP/Shoulders",
      "color": "#000000"
    }
  },
  "img": "icons/equipment/shoulder/pauldron-segmented-steel-yellow.webp",
  "description": "",
  "results": [
    "2lrOszqeWz7c43x3",
    "U5MgGhHZuiZwjyEN",
    "2lrOszqeWz7c43x3",
    "U5MgGhHZuiZwjyEN",
    "2lrOszqeWz7c43x3",
    "U5MgGhHZuiZwjyEN",
    "2lrOszqeWz7c43x3",
    "U5MgGhHZuiZwjyEN",
    "2lrOszqeWz7c43x3",
    "U5MgGhHZuiZwjyEN"
  ],
  "formula": "1d100 + 0",
  "replacement": true,
  "displayRoll": true,
  "_id": "Ara3F7NtX7vbOngF",
  "_key": "!tables!Ara3F7NtX7vbOngF"
}