{
  "_id": "jxm6jJi2l2qLmVli",
  "name": "Greater Minor Divine Scrolls",
  "flags": {
    "better-rolltables": {
      "table-type": "better",
      "loot-amount-key": ""
    },
    "cf": {
      "id": "temp_8hyggeoiwe6",
      "path": "Magic Shop#/CF_SEP/Scrolls#/CF_SEP/Divine",
      "color": "#000000"
    },
    "scene-packer": {
      "sourceId": "RollTable.v7I33nESa0CWWPx7"
    }
  },
  "img": "icons/sundries/scrolls/scroll-bound-blue-white.webp",
  "description": "",
  "results": [
    "OX5G3i2yo3tkVlED",
    "zzSzqLGwTozDbEjI",
    "elsBfan535Lf3pWW",
    "4xCe35L0b1coClWD"
  ],
  "formula": "1d100",
  "replacement": true,
  "displayRoll": true,
  "_key": "!tables!jxm6jJi2l2qLmVli"
}