{
  "name": "Greater Minor Chest",
  "flags": {
    "scene-packer": {
      "sourceId": "RollTable.XKBNvcMq9g4CnABP"
    },
    "cf": {
      "id": "temp_0c9cbv5h8n1e",
      "path": "Magic Shop#/CF_SEP/Wondrous#/CF_SEP/Chest",
      "color": "#000000"
    }
  },
  "img": "icons/equipment/chest/shirt-collared-grey.webp",
  "description": "",
  "results": [
    "2lrOszqeWz7c43x3",
    "U5MgGhHZuiZwjyEN",
    "2lrOszqeWz7c43x3",
    "U5MgGhHZuiZwjyEN",
    "2lrOszqeWz7c43x3",
    "U5MgGhHZuiZwjyEN",
    "2lrOszqeWz7c43x3",
    "U5MgGhHZuiZwjyEN",
    "2lrOszqeWz7c43x3",
    "U5MgGhHZuiZwjyEN",
    "2lrOszqeWz7c43x3",
    "U5MgGhHZuiZwjyEN",
    "2lrOszqeWz7c43x3",
    "U5MgGhHZuiZwjyEN",
    "2lrOszqeWz7c43x3",
    "U5MgGhHZuiZwjyEN",
    "2lrOszqeWz7c43x3",
    "U5MgGhHZuiZwjyEN",
    "2lrOszqeWz7c43x3",
    "U5MgGhHZuiZwjyEN"
  ],
  "formula": "1d100 + 0",
  "replacement": true,
  "displayRoll": true,
  "_id": "4IaxWGPmeRjyrP5F",
  "_key": "!tables!4IaxWGPmeRjyrP5F"
}