{
  "name": "Greater Medium Headband",
  "flags": {
    "scene-packer": {
      "sourceId": "RollTable.5EqfD20Axj9hFakh"
    },
    "cf": {
      "id": "temp_h15yeqjjffk",
      "path": "Magic Shop#/CF_SEP/Wondrous#/CF_SEP/Headband",
      "color": "#000000"
    }
  },
  "img": "icons/equipment/finger/ring-crown-teal-gold.webp",
  "description": "",
  "results": [
    "2lrOszqeWz7c43x3",
    "U5MgGhHZuiZwjyEN",
    "2lrOszqeWz7c43x3",
    "U5MgGhHZuiZwjyEN",
    "2lrOszqeWz7c43x3",
    "U5MgGhHZuiZwjyEN"
  ],
  "formula": "1d100 + 0",
  "replacement": true,
  "displayRoll": true,
  "_id": "rHDgoZvjpiKEVSRO",
  "_key": "!tables!rHDgoZvjpiKEVSRO"
}