{
  "name": "Greater Minor Specific Magic Armor",
  "flags": {
    "scene-packer": {
      "sourceId": "RollTable.DizaK1bLpqQVawb9"
    },
    "better-rolltables": {
      "table-type": "better",
      "loot-amount-key": ""
    },
    "cf": {
      "id": "temp_blrm3g4ryvp",
      "path": "Magic Shop#/CF_SEP/Armor",
      "color": "#000000"
    }
  },
  "img": "icons/equipment/chest/breastplate-layered-steel-black.webp",
  "description": "Greater Minor Magic Armor or Shield",
  "results": [
    "2lrOszqeWz7c43x3",
    "U5MgGhHZuiZwjyEN",
    "2lrOszqeWz7c43x3",
    "U5MgGhHZuiZwjyEN",
    "2lrOszqeWz7c43x3",
    "U5MgGhHZuiZwjyEN"
  ],
  "formula": "1d100 + 0",
  "replacement": true,
  "displayRoll": true,
  "_id": "VyE5mJzzTO9XKLta",
  "_key": "!tables!VyE5mJzzTO9XKLta"
}