{
  "name": "Greater Major Belt",
  "flags": {
    "scene-packer": {
      "sourceId": "RollTable.Doah7uKdSieeilAl"
    },
    "cf": {
      "id": "temp_me48eeg2qms",
      "path": "Magic Shop#/CF_SEP/Wondrous#/CF_SEP/Belt",
      "color": "#000000"
    }
  },
  "img": "icons/equipment/waist/belt-buckle-gem-red.webp",
  "description": "",
  "results": [
    "2lrOszqeWz7c43x3",
    "U5MgGhHZuiZwjyEN",
    "2lrOszqeWz7c43x3",
    "U5MgGhHZuiZwjyEN",
    "2lrOszqeWz7c43x3",
    "U5MgGhHZuiZwjyEN",
    "2lrOszqeWz7c43x3",
    "U5MgGhHZuiZwjyEN",
    "2lrOszqeWz7c43x3",
    "U5MgGhHZuiZwjyEN"
  ],
  "formula": "1d100 + 0",
  "replacement": true,
  "displayRoll": true,
  "_id": "KCc76IoF8ZTMJhjY",
  "_key": "!tables!KCc76IoF8ZTMJhjY"
}