{
  "name": "Greater Minor Neck",
  "flags": {
    "scene-packer": {
      "sourceId": "RollTable.bPcuEt4wX0C0z6Nr"
    },
    "cf": {
      "id": "temp_5x0flqf0kii",
      "path": "Magic Shop#/CF_SEP/Wondrous#/CF_SEP/Neck",
      "color": "#000000"
    }
  },
  "img": "icons/equipment/neck/amulet-round-silver-teal.webp",
  "description": "",
  "results": [
    "2lrOszqeWz7c43x3",
    "U5MgGhHZuiZwjyEN",
    "2lrOszqeWz7c43x3",
    "U5MgGhHZuiZwjyEN",
    "2lrOszqeWz7c43x3",
    "U5MgGhHZuiZwjyEN",
    "2lrOszqeWz7c43x3",
    "U5MgGhHZuiZwjyEN",
    "2lrOszqeWz7c43x3",
    "U5MgGhHZuiZwjyEN",
    "2lrOszqeWz7c43x3",
    "U5MgGhHZuiZwjyEN",
    "2lrOszqeWz7c43x3",
    "U5MgGhHZuiZwjyEN",
    "2lrOszqeWz7c43x3",
    "U5MgGhHZuiZwjyEN",
    "2lrOszqeWz7c43x3",
    "U5MgGhHZuiZwjyEN",
    "2lrOszqeWz7c43x3",
    "U5MgGhHZuiZwjyEN",
    "2lrOszqeWz7c43x3",
    "U5MgGhHZuiZwjyEN"
  ],
  "formula": "1d100 + 0",
  "replacement": true,
  "displayRoll": true,
  "_id": "uXCqF0A07QPHpOwz",
  "_key": "!tables!uXCqF0A07QPHpOwz"
}