{
  "name": "Greater Major Specific Magic Shields",
  "flags": {
    "scene-packer": {
      "sourceId": "RollTable.QcpaIXCd2Ij8XG5g"
    },
    "cf": {
      "id": "temp_391i8aa1x0s",
      "path": "Magic Shop#/CF_SEP/Shield",
      "color": "#000000"
    }
  },
  "img": "icons/equipment/shield/heater-steel-gold.webp",
  "description": "",
  "results": [
    "2lrOszqeWz7c43x3",
    "U5MgGhHZuiZwjyEN",
    "2lrOszqeWz7c43x3",
    "U5MgGhHZuiZwjyEN",
    "2lrOszqeWz7c43x3",
    "U5MgGhHZuiZwjyEN",
    "2lrOszqeWz7c43x3",
    "U5MgGhHZuiZwjyEN",
    "2lrOszqeWz7c43x3",
    "U5MgGhHZuiZwjyEN",
    "2lrOszqeWz7c43x3",
    "U5MgGhHZuiZwjyEN"
  ],
  "formula": "1d100 + 0",
  "replacement": true,
  "displayRoll": true,
  "_id": "0ZjcPkCJC0jeiEHW",
  "_key": "!tables!0ZjcPkCJC0jeiEHW"
}