{
  "name": "Greater Minor Feet",
  "flags": {
    "scene-packer": {
      "sourceId": "RollTable.V9YCMZpClKjZiaa5"
    },
    "cf": {
      "id": "temp_48x9szzold7",
      "path": "Magic Shop#/CF_SEP/Wondrous#/CF_SEP/Feet",
      "color": "#000000"
    }
  },
  "img": "icons/equipment/feet/boots-leather-engraved-brown.webp",
  "description": "",
  "results": [
    "2lrOszqeWz7c43x3",
    "U5MgGhHZuiZwjyEN",
    "2lrOszqeWz7c43x3",
    "U5MgGhHZuiZwjyEN",
    "2lrOszqeWz7c43x3",
    "U5MgGhHZuiZwjyEN",
    "2lrOszqeWz7c43x3",
    "U5MgGhHZuiZwjyEN",
    "2lrOszqeWz7c43x3",
    "U5MgGhHZuiZwjyEN",
    "2lrOszqeWz7c43x3",
    "U5MgGhHZuiZwjyEN",
    "2lrOszqeWz7c43x3",
    "U5MgGhHZuiZwjyEN",
    "2lrOszqeWz7c43x3",
    "U5MgGhHZuiZwjyEN",
    "2lrOszqeWz7c43x3",
    "U5MgGhHZuiZwjyEN",
    "2lrOszqeWz7c43x3",
    "U5MgGhHZuiZwjyEN",
    "2lrOszqeWz7c43x3",
    "U5MgGhHZuiZwjyEN"
  ],
  "formula": "1d100 + 0",
  "replacement": true,
  "displayRoll": true,
  "_id": "HStKze7YBEBUKb8d",
  "_key": "!tables!HStKze7YBEBUKb8d"
}