{
  "name": "Greater Major Feet",
  "flags": {
    "scene-packer": {
      "sourceId": "RollTable.wSFOSGtez1THiLi8"
    },
    "cf": {
      "id": "temp_48x9szzold7",
      "path": "Magic Shop#/CF_SEP/Wondrous#/CF_SEP/Feet",
      "color": "#000000"
    }
  },
  "img": "icons/equipment/feet/shoes-collared-leather-blue.webp",
  "description": "",
  "results": [
    "2lrOszqeWz7c43x3",
    "U5MgGhHZuiZwjyEN",
    "2lrOszqeWz7c43x3",
    "U5MgGhHZuiZwjyEN",
    "2lrOszqeWz7c43x3",
    "U5MgGhHZuiZwjyEN"
  ],
  "formula": "1d100 + 0",
  "replacement": true,
  "displayRoll": true,
  "_id": "ZUq7nRjktPUZMARt",
  "_key": "!tables!ZUq7nRjktPUZMARt"
}