{
  "name": "Greater Medium Feet",
  "flags": {
    "scene-packer": {
      "sourceId": "RollTable.EL3IfCyRpuBDCqaX"
    },
    "cf": {
      "id": "temp_48x9szzold7",
      "path": "Magic Shop#/CF_SEP/Wondrous#/CF_SEP/Feet",
      "color": "#000000"
    }
  },
  "img": "icons/equipment/feet/boots-collared-red.webp",
  "description": "",
  "results": [
    "2lrOszqeWz7c43x3",
    "U5MgGhHZuiZwjyEN",
    "2lrOszqeWz7c43x3",
    "U5MgGhHZuiZwjyEN",
    "2lrOszqeWz7c43x3",
    "U5MgGhHZuiZwjyEN"
  ],
  "formula": "1d100 + 0",
  "replacement": true,
  "displayRoll": true,
  "_id": "rbAWNYyrbope5U5d",
  "_key": "!tables!rbAWNYyrbope5U5d"
}