{
  "name": "Intelligent Item Ability Score",
  "flags": {
    "scene-packer": {
      "sourceId": "RollTable.CccTLmJf0VLYp8lb"
    },
    "cf": {
      "id": "temp_xwh47pyqaj",
      "path": "Magic Shop#/CF_SEP/Intelligent",
      "color": "#000000"
    }
  },
  "img": "icons/weapons/swords/greatsword-guard-split-eyes.webp",
  "description": "Intelligent magic items possess all three mental ability scores: Intelligence, Wisdom, and Charisma. Each one of these ability scores begins at a value of 10, but can be increased to as high as 20. Table 15-22 shows the cost to increase one of the item's ability scores. This cost must be paid for each ability score raised above 10. For example, an intelligent magic item with a 15 Intelligence, 12 Wisdom, and 10 Charisma would cost at least 2,400 gp more than the base item (including the 500 gp for being an intelligent item). Cost to increase Ability scores",
  "results": [
    "2lrOszqeWz7c43x3",
    "U5MgGhHZuiZwjyEN",
    "2lrOszqeWz7c43x3",
    "U5MgGhHZuiZwjyEN",
    "2lrOszqeWz7c43x3",
    "U5MgGhHZuiZwjyEN",
    "2lrOszqeWz7c43x3",
    "U5MgGhHZuiZwjyEN",
    "2lrOszqeWz7c43x3",
    "U5MgGhHZuiZwjyEN",
    "2lrOszqeWz7c43x3",
    "U5MgGhHZuiZwjyEN",
    "2lrOszqeWz7c43x3",
    "U5MgGhHZuiZwjyEN",
    "2lrOszqeWz7c43x3",
    "U5MgGhHZuiZwjyEN",
    "2lrOszqeWz7c43x3",
    "U5MgGhHZuiZwjyEN",
    "2lrOszqeWz7c43x3",
    "U5MgGhHZuiZwjyEN",
    "2lrOszqeWz7c43x3",
    "U5MgGhHZuiZwjyEN"
  ],
  "formula": "1d100 + 0",
  "replacement": true,
  "displayRoll": true,
  "_id": "btoBe1HVMi04t9bR",
  "_key": "!tables!btoBe1HVMi04t9bR"
}