{
  "_id": "GW3j0fqE0bqMsi1v",
  "name": "Lesser Medium Divine Scrolls",
  "flags": {
    "better-rolltables": {
      "table-type": "better",
      "loot-amount-key": ""
    },
    "scene-packer": {
      "sourceId": "RollTable.SL0tmLuMSLeF1UaD"
    },
    "cf": {
      "id": "temp_8hyggeoiwe6",
      "path": "Magic Shop#/CF_SEP/Scrolls#/CF_SEP/Divine",
      "color": "#000000"
    }
  },
  "img": "icons/sundries/scrolls/scroll-bound-blue-white.webp",
  "description": "",
  "results": [
    "uwQc7yolwwfWhKKW",
    "ZcrmPfmdxTiL3KLR",
    "yHbwbazCdZpUqMbM"
  ],
  "formula": "1d100",
  "replacement": true,
  "displayRoll": true,
  "_key": "!tables!GW3j0fqE0bqMsi1v"
}