{
  "_id": "9H83tuwHyXWu4cqB",
  "name": "Lesser Major Divine Scrolls",
  "flags": {
    "better-rolltables": {
      "table-type": "better",
      "loot-amount-key": ""
    },
    "scene-packer": {
      "sourceId": "RollTable.Lqdw7MlrBTsvRrlR"
    },
    "cf": {
      "id": "temp_8hyggeoiwe6",
      "path": "Magic Shop#/CF_SEP/Scrolls#/CF_SEP/Divine",
      "color": "#000000"
    }
  },
  "img": "icons/sundries/scrolls/scroll-bound-blue-white.webp",
  "description": "",
  "results": [
    "oh5j2UFsBDWykLAR",
    "uQbIyD1aF39jLkLi",
    "JtJVGuhSLnLP6aYg",
    "vH2lgnkXlpD1LiQe"
  ],
  "formula": "1d100",
  "replacement": true,
  "displayRoll": true,
  "_key": "!tables!9H83tuwHyXWu4cqB"
}