{
  "name": "Lesser Major Body",
  "flags": {
    "scene-packer": {
      "sourceId": "RollTable.P28VHy7CLu02Ls0F"
    },
    "cf": {
      "id": "temp_kgje0p74kos",
      "path": "Magic Shop#/CF_SEP/Wondrous#/CF_SEP/Body",
      "color": "#000000"
    }
  },
  "img": "icons/equipment/chest/coat-collared-red-gold.webp",
  "description": "",
  "results": [
    "2lrOszqeWz7c43x3",
    "U5MgGhHZuiZwjyEN",
    "2lrOszqeWz7c43x3",
    "U5MgGhHZuiZwjyEN",
    "2lrOszqeWz7c43x3",
    "U5MgGhHZuiZwjyEN"
  ],
  "formula": "1d100 + 0",
  "replacement": true,
  "displayRoll": true,
  "_id": "BesNargiPusSUaXl",
  "_key": "!tables!BesNargiPusSUaXl"
}