{
  "_id": "9mvhhDtemf5JXC1F",
  "name": "Lesser Medium Arcane Scrolls",
  "flags": {
    "better-rolltables": {
      "table-type": "better",
      "loot-amount-key": ""
    },
    "scene-packer": {
      "sourceId": "RollTable.ygfxKq0tmKTxXTXA"
    },
    "cf": {
      "id": "temp_6qwz0wy06z9",
      "path": "Magic Shop#/CF_SEP/Scrolls#/CF_SEP/Arcane",
      "color": "#000000"
    }
  },
  "img": "icons/sundries/scrolls/scroll-bound-sealed-red-white.webp",
  "description": "",
  "results": [
    "xPIzM3z0W4PnmeoU",
    "ZzGYaMoRfvfY8rwp",
    "lDq9kjRk8AIm6ZHr"
  ],
  "formula": "1d100",
  "replacement": true,
  "displayRoll": true,
  "_key": "!tables!9mvhhDtemf5JXC1F"
}