{
  "_id": "JXbFk6jVfTL7p9pO",
  "name": "Lesser Minor Weapon",
  "flags": {
    "better-rolltables": {
      "table-type": "better",
      "loot-amount-key": ""
    },
    "scene-packer": {
      "sourceId": "RollTable.B6l1zl705beWHqYF"
    },
    "cf": {
      "id": "temp_d3o34do1vkq",
      "path": "Magic Shop#/CF_SEP/Weapon",
      "color": "#000000"
    }
  },
  "img": "icons/weapons/swords/sword-guard-bronze.webp",
  "description": "",
  "results": [
    "mZ7qanSLLYKocL98",
    "TrSK9OvuUDI1RteB",
    "spOW7JJDZKMTI80u",
    "Zo648ASO3t4t0MCW",
    "qFTo5NaeU6NQ5u0o"
  ],
  "formula": "1d100",
  "replacement": true,
  "displayRoll": true,
  "_key": "!tables!JXbFk6jVfTL7p9pO"
}