{
  "_id": "W3cVeivafQxRB3uF",
  "name": "Lesser Medium Rod",
  "flags": {
    "scene-packer": {
      "sourceId": "RollTable.TKt2QEcKXVXIaWJS"
    },
    "cf": {
      "id": "temp_r0wdhv2dj4",
      "path": "Magic Shop#/CF_SEP/Rod",
      "color": "#000000"
    }
  },
  "img": "icons/weapons/wands/wand-carved-pink.webp",
  "description": "",
  "results": [
    "2lrOszqeWz7c43x3",
    "U5MgGhHZuiZwjyEN",
    "2lrOszqeWz7c43x3",
    "U5MgGhHZuiZwjyEN",
    "2lrOszqeWz7c43x3",
    "U5MgGhHZuiZwjyEN",
    "2lrOszqeWz7c43x3",
    "U5MgGhHZuiZwjyEN",
    "2lrOszqeWz7c43x3",
    "U5MgGhHZuiZwjyEN",
    "2lrOszqeWz7c43x3",
    "U5MgGhHZuiZwjyEN",
    "2lrOszqeWz7c43x3",
    "U5MgGhHZuiZwjyEN",
    "2lrOszqeWz7c43x3",
    "U5MgGhHZuiZwjyEN",
    "2lrOszqeWz7c43x3",
    "U5MgGhHZuiZwjyEN",
    "2lrOszqeWz7c43x3",
    "U5MgGhHZuiZwjyEN"
  ],
  "formula": "1d100 + 0",
  "replacement": true,
  "displayRoll": true,
  "_key": "!tables!W3cVeivafQxRB3uF"
}