{
  "_id": "OdHJWq1h0Jtq9XLU",
  "name": "Lesser Medium Staff",
  "flags": {
    "scene-packer": {
      "sourceId": "RollTable.kLjTmBmwxvHO2ytP"
    },
    "cf": {
      "id": "temp_1ts0bn3evv5i",
      "path": "Magic Shop#/CF_SEP/Staves",
      "color": "#000000"
    }
  },
  "img": "icons/weapons/staves/staff-obsidian.webp",
  "description": "",
  "results": [
    "2lrOszqeWz7c43x3",
    "U5MgGhHZuiZwjyEN",
    "2lrOszqeWz7c43x3",
    "U5MgGhHZuiZwjyEN",
    "2lrOszqeWz7c43x3",
    "U5MgGhHZuiZwjyEN",
    "2lrOszqeWz7c43x3",
    "U5MgGhHZuiZwjyEN",
    "2lrOszqeWz7c43x3",
    "U5MgGhHZuiZwjyEN",
    "2lrOszqeWz7c43x3",
    "U5MgGhHZuiZwjyEN",
    "2lrOszqeWz7c43x3",
    "U5MgGhHZuiZwjyEN",
    "2lrOszqeWz7c43x3",
    "U5MgGhHZuiZwjyEN"
  ],
  "formula": "1d100 + 0",
  "replacement": true,
  "displayRoll": true,
  "_key": "!tables!OdHJWq1h0Jtq9XLU"
}