{
  "_id": "1SB5opX0HhPjs7hg",
  "name": "Lesser Major Arcane Scrolls",
  "flags": {
    "better-rolltables": {
      "table-type": "better",
      "loot-amount-key": ""
    },
    "cf": {
      "id": "temp_6qwz0wy06z9",
      "path": "Magic Shop#/CF_SEP/Scrolls#/CF_SEP/Arcane",
      "color": "#000000"
    },
    "scene-packer": {
      "sourceId": "RollTable.NDSDeF31iaLWuMpD"
    }
  },
  "img": "icons/sundries/scrolls/scroll-bound-sealed-red-white.webp",
  "description": "",
  "results": [
    "PxfAwoQQFhXE1KDm",
    "6kRygHw9qIOgTag8",
    "UpnkCouY9Ybbwwct",
    "f5tjtBOOxuWbeMXf"
  ],
  "formula": "1d100",
  "replacement": true,
  "displayRoll": true,
  "_key": "!tables!1SB5opX0HhPjs7hg"
}