{
  "name": "Lesser Medium Eye",
  "flags": {
    "scene-packer": {
      "sourceId": "RollTable.0P3BUq9PhcnoYZpx"
    },
    "cf": {
      "id": "temp_a2qzlvkw53q",
      "path": "Magic Shop#/CF_SEP/Wondrous#/CF_SEP/Eye",
      "color": "#000000"
    }
  },
  "img": "icons/equipment/head/goggles-leather-blue.webp",
  "description": "",
  "results": [
    "2lrOszqeWz7c43x3",
    "U5MgGhHZuiZwjyEN",
    "2lrOszqeWz7c43x3",
    "U5MgGhHZuiZwjyEN",
    "2lrOszqeWz7c43x3",
    "U5MgGhHZuiZwjyEN",
    "2lrOszqeWz7c43x3",
    "U5MgGhHZuiZwjyEN",
    "2lrOszqeWz7c43x3",
    "U5MgGhHZuiZwjyEN",
    "2lrOszqeWz7c43x3",
    "U5MgGhHZuiZwjyEN"
  ],
  "formula": "1d100 + 0",
  "replacement": true,
  "displayRoll": true,
  "_id": "vSit7tLxGlHFetFa",
  "_key": "!tables!vSit7tLxGlHFetFa"
}