{
  "name": "Lesser Medium Chest",
  "flags": {
    "scene-packer": {
      "sourceId": "RollTable.hULGokVIueAUgdzd"
    },
    "better-rolltables": {
      "table-type": "none"
    },
    "cf": {
      "id": "temp_0c9cbv5h8n1e",
      "path": "Magic Shop#/CF_SEP/Wondrous#/CF_SEP/Chest",
      "color": "#000000"
    }
  },
  "img": "icons/equipment/chest/coat-leather-blue.webp",
  "description": "",
  "results": [
    "2lrOszqeWz7c43x3",
    "U5MgGhHZuiZwjyEN",
    "2lrOszqeWz7c43x3",
    "U5MgGhHZuiZwjyEN",
    "2lrOszqeWz7c43x3",
    "U5MgGhHZuiZwjyEN",
    "2lrOszqeWz7c43x3",
    "U5MgGhHZuiZwjyEN",
    "2lrOszqeWz7c43x3",
    "U5MgGhHZuiZwjyEN",
    "2lrOszqeWz7c43x3",
    "U5MgGhHZuiZwjyEN"
  ],
  "formula": "1d100 + 0",
  "replacement": true,
  "displayRoll": true,
  "_id": "G7g9AfPYUZZKjOl6",
  "_key": "!tables!G7g9AfPYUZZKjOl6"
}