{
  "_id": "ggXBdDiQ5Bnd69oo",
  "name": "Magic Shop: Metropolis (1)",
  "flags": {
    "better-rolltables": {
      "table-type": "better",
      "loot-amount-key": "1"
    },
    "scene-packer": {
      "sourceId": "RollTable.ajbixXwcr91C0uAA"
    },
    "cf": {
      "id": "temp_8obhge9hi3e"
    }
  },
  "img": "icons/environment/settlement/watchtower-city.webp",
  "description": "<strong>Note</strong> Roll both Metropolis tables. <br> <strong>Pop:</strong> 25,001+ <br> Reroll items worth < 16,000 gp. <br> Add Spells as Potion, Scroll, or Wand.",
  "results": [
    "L7BF2BigVQ6zWzcE"
  ],
  "formula": "1d1",
  "replacement": true,
  "displayRoll": true,
  "_key": "!tables!ggXBdDiQ5Bnd69oo"
}