{
  "_id": "QXyUVVF8KntGjWIC",
  "name": "Magic Shop: Town, Large",
  "flags": {
    "better-rolltables": {
      "table-type": "better",
      "loot-amount-key": "1"
    },
    "scene-packer": {
      "sourceId": "RollTable.4WhHnYHZnK3wOZXU"
    },
    "cf": {
      "id": "temp_8obhge9hi3e",
      "path": "Magic Shop#/CF_SEP/Magic Shop",
      "color": "#000000"
    }
  },
  "img": "icons/environment/settlement/house-farmland.webp",
  "description": "Pop: 2,001–5,000 <br> Reroll items worth < 2,000 gp. <br> Add Spells as Potion, Scroll, or Wand.",
  "results": [
    "6GBPK1ACa672LjTN",
    "rpc2rBfaW5gZxpjF",
    "VFi8hdrdJtqkoyrw"
  ],
  "formula": "1d1",
  "replacement": true,
  "displayRoll": true,
  "_key": "!tables!QXyUVVF8KntGjWIC"
}