{
  "_id": "xu49wZjgkzDZo8Eq",
  "name": "Specific Cursed Item",
  "flags": {
    "scene-packer": {
      "sourceId": "RollTable.aZbaN543AqhRzUkA"
    },
    "cf": {
      "id": "temp_oid7dteh83"
    }
  },
  "img": "systems/pf1/icons/skills/affliction_18.jpg",
  "description": "",
  "results": [
    "2lrOszqeWz7c43x3",
    "2lrOszqeWz7c43x3",
    "2lrOszqeWz7c43x3",
    "2lrOszqeWz7c43x3",
    "2lrOszqeWz7c43x3",
    "2lrOszqeWz7c43x3",
    "2lrOszqeWz7c43x3",
    "2lrOszqeWz7c43x3",
    "2lrOszqeWz7c43x3",
    "2lrOszqeWz7c43x3",
    "2lrOszqeWz7c43x3",
    "2lrOszqeWz7c43x3",
    "2lrOszqeWz7c43x3",
    "2lrOszqeWz7c43x3",
    "2lrOszqeWz7c43x3",
    "2lrOszqeWz7c43x3",
    "2lrOszqeWz7c43x3",
    "2lrOszqeWz7c43x3",
    "2lrOszqeWz7c43x3",
    "2lrOszqeWz7c43x3",
    "2lrOszqeWz7c43x3",
    "2lrOszqeWz7c43x3",
    "2lrOszqeWz7c43x3",
    "2lrOszqeWz7c43x3",
    "2lrOszqeWz7c43x3",
    "2lrOszqeWz7c43x3",
    "2lrOszqeWz7c43x3",
    "2lrOszqeWz7c43x3",
    "2lrOszqeWz7c43x3",
    "2lrOszqeWz7c43x3",
    "2lrOszqeWz7c43x3",
    "2lrOszqeWz7c43x3",
    "2lrOszqeWz7c43x3",
    "2lrOszqeWz7c43x3",
    "2lrOszqeWz7c43x3",
    "2lrOszqeWz7c43x3",
    "2lrOszqeWz7c43x3",
    "2lrOszqeWz7c43x3",
    "2lrOszqeWz7c43x3",
    "2lrOszqeWz7c43x3",
    "2lrOszqeWz7c43x3",
    "2lrOszqeWz7c43x3"
  ],
  "formula": "1d100 + 0",
  "replacement": true,
  "displayRoll": true,
  "_key": "!tables!xu49wZjgkzDZo8Eq"
}