{
  "_id": "2ElYVVBi2UJILxXQ",
  "name": "Uncommon Level 9 Arcane Scrolls",
  "flags": {
    "better-rolltables": {
      "table-type": "better",
      "loot-amount-key": ""
    },
    "cf": {
      "id": "temp_6qwz0wy06z9",
      "path": "Magic Shop#/CF_SEP/Scrolls#/CF_SEP/Arcane",
      "color": "#000000"
    },
    "scene-packer": {
      "sourceId": "RollTable.26kNhFiWbhiklQ2e"
    }
  },
  "img": "icons/sundries/scrolls/scroll-bound-ruby-red.webp",
  "description": "",
  "results": [
    "WWurvGwVvR4aIMnN",
    "k3wVbJkuaywiK8xQ",
    "h9cMeMFDo7npJL43",
    "sk87O8IMJzXmpvvQ",
    "le46kcb5KSlwLnai",
    "fxE3XGYEqQLV2Hme",
    "eCkX9tF6V4Y1iF27",
    "QrfNNeQC4K7hkpEg",
    "DE8AjmBvo8Vo1zoO",
    "8Pm7Kzxqn4xIXEK9",
    "Pz3xfZ1SXkOFgtvg",
    "K1WUFrhPY9zWzQlb",
    "wZv1VzJNkHwcSdSx",
    "gk1SxgmbAfn1a0NN",
    "Q3IdsrtAxoLeHcqw"
  ],
  "formula": "1d100",
  "replacement": true,
  "displayRoll": true,
  "_key": "!tables!2ElYVVBi2UJILxXQ"
}