{
  "_id": "c682IPpkjXjlUjAz",
  "name": "Uncommon Level 0 Divine Scrolls",
  "flags": {
    "better-rolltables": {
      "table-type": "better",
      "loot-amount-key": ""
    },
    "scene-packer": {
      "sourceId": "RollTable.hwtgVlECD2p0PKM3"
    },
    "cf": {
      "id": "temp_8hyggeoiwe6",
      "path": "Magic Shop#/CF_SEP/Scrolls#/CF_SEP/Divine",
      "color": "#000000"
    }
  },
  "img": "icons/sundries/scrolls/scroll-bound-sealed-blue.webp",
  "description": "",
  "results": [
    "pJr31kv7WWNVasIH",
    "CXtx8vqatHDn796X",
    "X0JyeNqymTA9j4wy",
    "M06jK0Tg9tCoM6vx",
    "zDPD2rsPhfELMYnS",
    "6X0DOyNdhZnxV6tk",
    "uNUIxHmftW6Oj9FD"
  ],
  "formula": "1d115",
  "replacement": true,
  "displayRoll": true,
  "_key": "!tables!c682IPpkjXjlUjAz"
}