{
  "_id": "5nwKxmMad5RcCKP1",
  "name": "Uncommon Level 0 Wands",
  "flags": {
    "scene-packer": {
      "sourceId": "RollTable.tcKnNOSvPDkUdWI1"
    },
    "cf": {
      "id": "temp_qkcej4d065",
      "path": "Magic Shop#/CF_SEP/Wands",
      "color": "#000000"
    }
  },
  "img": "icons/weapons/wands/wand-gem-teal.webp",
  "description": "",
  "results": [
    "AvYoR7vQ8EHs8pO0",
    "43rKxdmDDz8gYqPt",
    "YTdiObwMOGRe3pUU",
    "DDoKMgTD2WezrE5U",
    "0z2eLHiblBZxdUyT",
    "G6RIwpkiVBFv6cM0",
    "B6LgetmmV5AetP4z",
    "jDk2BbJf1fnAFH1j",
    "1sF9iSqy0qTiHRRe",
    "jsGRYsw4PgfHKm6u",
    "FTmgJTLMaV5jmgXC",
    "nVKSd19dZLXSqbQ2",
    "1XrHnokbJuwkvw5H",
    "UczftMT4NB0iegLz"
  ],
  "formula": "1d106",
  "replacement": true,
  "displayRoll": true,
  "_key": "!tables!5nwKxmMad5RcCKP1"
}