{
  "_id": "YilKy1GcxhSxq4sH",
  "name": "Uncommon Level 6 Divine Scrolls",
  "flags": {
    "better-rolltables": {
      "table-type": "better",
      "loot-amount-key": ""
    },
    "scene-packer": {
      "sourceId": "RollTable.wbqsvaWRhmlau16g"
    },
    "cf": {
      "id": "temp_8hyggeoiwe6",
      "path": "Magic Shop#/CF_SEP/Scrolls#/CF_SEP/Divine",
      "color": "#000000"
    }
  },
  "img": "icons/sundries/scrolls/scroll-bound-sealed-blue.webp",
  "description": "",
  "results": [
    "v8U8Whg9QvZhBEg0",
    "DijIIhfosLHm2yh0",
    "KNYS3vBjuusaMvb8",
    "oBLmwEmUg8OvgzTz",
    "n5dIIFWr9CirRHHM",
    "s5gajyX8Jr8GcoeQ",
    "q5ROkJwViCrrFQtr",
    "mSxHeW9sXZxH1dgY",
    "uwiGnmuqOpjmCdr0",
    "2304EU2sFWyDircn",
    "va8fOsQ3L1YUAbQs",
    "ZAwxtDV3EDuLxK05",
    "3ukemTgCkwHSPXyt",
    "16w0LOttQThcHvdK",
    "h70OoDvrtnqrCb8E",
    "kQe6aYwslx6qW1mH",
    "KF25GUMWCjygwg2T",
    "LpwNigGMA1Bbeyvn",
    "ZIEbycAJeqUZXsCM",
    "O7X1uLJtMIjmJOZ8",
    "g8OZHDg3FCaLG0Jf",
    "lJw5D1tqPIsjngSY",
    "eENJsxn2UnI29lJX",
    "YXlTOhix6MVT3hsR",
    "GN8tuUJz1tiqM6mh",
    "aRL0odcy5BDW2EpY"
  ],
  "formula": "1d100",
  "replacement": true,
  "displayRoll": true,
  "_key": "!tables!YilKy1GcxhSxq4sH"
}