{
  "_id": "DMT8HjajTpzgip62",
  "name": "Uncommon Level 8 Divine Scrolls",
  "flags": {
    "better-rolltables": {
      "table-type": "better",
      "loot-amount-key": ""
    },
    "scene-packer": {
      "sourceId": "RollTable.DADlMrJa5C5e6BPu"
    },
    "cf": {
      "id": "temp_8hyggeoiwe6",
      "path": "Magic Shop#/CF_SEP/Scrolls#/CF_SEP/Divine",
      "color": "#000000"
    }
  },
  "img": "icons/sundries/scrolls/scroll-bound-sealed-blue.webp",
  "description": "",
  "results": [
    "m7Lh8O6TjaAbEGOT",
    "501nKL2UarpnDRB8",
    "6ABrPAYaOOknCF37",
    "wht8OCoropA3aU1d",
    "Fi1eO0yTlrYrGb4O",
    "hUI9YKEhtngkHb9k",
    "3lxMF4LeS8UgnS7o",
    "l2wF4btQ8SAjOklo",
    "xPSXK7gEfL2BDrj2",
    "TvHadlF1pUMwLeH2",
    "uwKlBAXWGQZ4BRsM",
    "0urFDmrf6OGdhQRR",
    "O40r129YOG37n2zr",
    "0bO8D2ul38c5BhMB",
    "SzFLhSXBTEDWEKZE",
    "nlZiKmJDd7HSqxvM",
    "e2Lv0nmC5Pq2B8Mp"
  ],
  "formula": "1d100",
  "replacement": true,
  "displayRoll": true,
  "_key": "!tables!DMT8HjajTpzgip62"
}