{
  "_id": "TGbdOKEW2h1xCQaU",
  "name": "Uncommon Level 3 Arcane Scrolls",
  "flags": {
    "better-rolltables": {
      "table-type": "better",
      "loot-amount-key": ""
    },
    "scene-packer": {
      "sourceId": "RollTable.lcpOwE2k9mqUbbtf"
    },
    "cf": {
      "id": "temp_6qwz0wy06z9",
      "path": "Magic Shop#/CF_SEP/Scrolls#/CF_SEP/Arcane",
      "color": "#000000"
    }
  },
  "img": "icons/sundries/scrolls/scroll-bound-ruby-red.webp",
  "description": "",
  "results": [
    "FP0xw76ON77aOQfi",
    "ezJUpqRrj4vkH9cJ",
    "dZwzTsRkm4pPveYf",
    "tc0AVZVPnnlR9Pkd",
    "dLDbs2XxmUeWE7CP",
    "zbKsLwLyhiqXItSa",
    "6lnli0pv39l2KfCw",
    "jiRMDKEXMRy0M3Ns",
    "Lfh6yrXWHbQsCyVC",
    "TdAAji9o6CaiMmsR",
    "ZLLPgeUjnaJJmoRY",
    "d4WJUqWjxgyED7iL",
    "o2lOkJeXcO8M62uW",
    "Y2oi7zDKOpPUqeJ7",
    "XMd9KQZiLxBTk28E",
    "eCE4teGWNQTn8os1",
    "K14fqCa2KnMU7xsv",
    "rs2vzfVJq7yfncPN",
    "2HgPmwoqeRGVmnRK",
    "HjZhigWPSb9mftoQ",
    "d41rVlvuTN89a1cY",
    "M0XVFfofwGJGMGjD",
    "yQ8nCbIDeEIMfIST",
    "TU2EMjLMUnZdVFZs",
    "HgO3jbKfGtWDAKDM",
    "v5Ot6AxoSbuTepLj",
    "qyGg5k9cTRg3hiQj",
    "UQ7DI5RvJYffUSF6",
    "9KSiIsNuIwUb15bq",
    "XJJ1SnJwXc40Lvr5",
    "LAF6v0hc6VtRQvfV",
    "mnJ6fEokKf5E0LKi",
    "wD7eXrrFwAYWRqnO",
    "TIiFqOsv7igsMEZe",
    "m6MyKwukE0VMxZGF"
  ],
  "formula": "1d100",
  "replacement": true,
  "displayRoll": true,
  "_key": "!tables!TGbdOKEW2h1xCQaU"
}