{
  "_id": "E0sCDZkb2hVw5H5U",
  "name": "Ability Score Increase",
  "type": "feat",
  "img": "systems/pf1/icons/skills/green_19.jpg",
  "effects": [],
  "folder": null,
  "sort": 0,
  "flags": {
    "scene-packer": {
      "sourceId": "Item.5mTQwTOwM6bU3rYG"
    },
    "pf1": {},
    "core": {
      "sourceId": "Compendium.pf-content.pf-eidolon-evolutions.ImmUxMdvqPXD55Qm"
    }
  },
  "system": {
    "description": {
      "value": "<p><span id=\"ctl00_MainContent_DataListTypes_ctl00_LabelName\">The Eidolon adds +1 to one of its ability scores at levels 5, 10, and 15.</span></p>\n<p>Current Ability Points: [[@classes.eidolon.level &gt; 14 ? 3 : @classes.eidolon.level &gt; 9 ? 2 : @classes.eidolon.level &gt; 4 ? 1 : 0]]</p>\n<p><strong>Usage</strong></p>\n<p>Add ability score increase in Changes.&nbsp;</p>",
      "unidentified": ""
    },
    "tags": [
      "Eidolon"
    ],
    "actions": [],
    "uses": {
      "per": null,
      "value": 0,
      "maxFormula": "",
      "autoDeductChargesCost": "1",
      "max": 0
    },
    "attackNotes": [],
    "effectNotes": [],
    "changes": [],
    "changeFlags": {
      "loseDexToAC": false,
      "noEncumbrance": false,
      "mediumArmorFullSpeed": false,
      "heavyArmorFullSpeed": false,
      "noStr": false,
      "noDex": false,
      "oneInt": false,
      "oneWis": false,
      "oneCha": false
    },
    "contextNotes": [],
    "links": {
      "children": [],
      "charges": []
    },
    "tag": "abilityScoreIncrease",
    "useCustomTag": false,
    "armorProf": {
      "value": [],
      "custom": ""
    },
    "weaponProf": {
      "value": [],
      "custom": ""
    },
    "languages": {
      "value": [],
      "custom": ""
    },
    "flags": {
      "boolean": {},
      "dictionary": {}
    },
    "scriptCalls": [],
    "subType": "classFeat",
    "associations": {
      "classes": [
        "Eidolon"
      ]
    },
    "showInQuickbar": false,
    "abilityType": "ex",
    "crOffset": "",
    "disabled": false,
    "classSkills": {},
    "nonlethal": false,
    "duration": {
      "value": null,
      "units": ""
    },
    "target": {
      "value": ""
    },
    "attackName": "",
    "actionType": "",
    "attackBonus": "",
    "critConfirmBonus": "",
    "damage": {
      "parts": [],
      "critParts": [],
      "nonCritParts": []
    },
    "attackParts": [],
    "formulaicAttacks": {
      "count": {
        "formula": "",
        "value": null
      },
      "bonus": {
        "formula": ""
      },
      "label": null
    },
    "formula": "",
    "ability": {
      "attack": null,
      "damage": null,
      "damageMult": 1,
      "critRange": 20,
      "critMult": 2
    },
    "save": {
      "dc": 0,
      "type": "",
      "description": ""
    },
    "soundEffect": "",
    "powerAttack": {
      "multiplier": "",
      "damageBonus": 2,
      "critMultiplier": 1
    },
    "attack": {
      "parts": []
    },
    "conditionals": [],
    "auraStrength": 0
  },
  "ownership": {
    "default": 0
  },
  "_stats": {
    "systemId": null,
    "systemVersion": null,
    "coreVersion": null,
    "createdTime": null,
    "modifiedTime": null,
    "lastModifiedBy": null
  },
  "_key": "!actors.items!b0SoTGipMbqlrtaC.E0sCDZkb2hVw5H5U"
}