{
  "_id": "aJkFSskZjKGvTY2R",
  "name": "Eidolon Saves",
  "type": "feat",
  "img": "systems/pf1/icons/feats/greater-shield-focus.jpg",
  "effects": [],
  "folder": null,
  "sort": 0,
  "flags": {
    "autoanimations": {
      "killAnim": false,
      "override": false,
      "animType": "t1",
      "animName": "",
      "hmAnim": "a1",
      "color": "n1",
      "dtvar": "dt1",
      "explosion": false,
      "explodeVariant": "ev1",
      "explodeColor": "ec1",
      "explodeRadius": "0",
      "explodeLoop": "1",
      "selfRadius": "5",
      "animTint": "#ffffff",
      "auraOpacity": 0.75,
      "ctaOption": false
    },
    "core": {
      "sourceId": "Compendium.pf-content.pf-eidolon-evolutions.Gl5sWXBXpYD14pXl"
    },
    "pf1": {},
    "scene-packer": {
      "sourceId": "Item.lV3oXnYIl6qG6o18"
    }
  },
  "system": {
    "description": {
      "value": "<p style=\"box-sizing: border-box; user-select: text; color: #191813; font-size: 13px;\"><span style=\"color: #191813;\">These are the eidolon's base saving throw bonuses. An eidolon possesses two good saving throws and one bad saving throw, determined by the creature's base form.</span></p>\n<p style=\"box-sizing: border-box; user-select: text; color: #191813; font-size: 13px;\"><strong style=\"color: #191813; font-size: 13px;\">Good Saves:&nbsp;</strong><span style=\"color: #191813;\"><span style=\"font-size: 13px;\">[[@classes.eidolon.level &gt; 17 ? 9 : @classes.eidolon.level &gt; 14 ? 8 : @classes.eidolon.level &gt; 12 ? 7 : @classes.eidolon.level &gt; 9 ? 6 : @classes.eidolon.level &gt; 6 ? 5 : @classes.eidolon.level &gt; 4 ? 4 : @classes.eidolon.level &gt; 1 ? 3 : 2]]</span></span></p>\n<p style=\"box-sizing: border-box; user-select: text; color: #191813; font-size: 13px;\"><strong>Bad Save</strong>: [[(floor((@classes.eidolon.level + 1) / 4))]]</p>\n<p style=\"box-sizing: border-box; user-select: text; color: #191813; font-size: 13px;\">&nbsp;</p>",
      "unidentified": ""
    },
    "tags": [
      "Eidolon"
    ],
    "actions": [],
    "uses": {
      "per": null,
      "value": 0,
      "maxFormula": "",
      "autoDeductChargesCost": "1",
      "max": 0
    },
    "attackNotes": [],
    "effectNotes": [],
    "changes": [],
    "changeFlags": {
      "loseDexToAC": false,
      "noEncumbrance": false,
      "mediumArmorFullSpeed": false,
      "heavyArmorFullSpeed": false,
      "noStr": false,
      "noDex": false,
      "oneInt": false,
      "oneWis": false,
      "oneCha": false
    },
    "contextNotes": [],
    "links": {
      "children": [],
      "charges": []
    },
    "tag": "eidolonSaves",
    "useCustomTag": false,
    "armorProf": {
      "value": [],
      "custom": ""
    },
    "weaponProf": {
      "value": [],
      "custom": ""
    },
    "languages": {
      "value": [],
      "custom": ""
    },
    "flags": {
      "boolean": {},
      "dictionary": {}
    },
    "scriptCalls": [],
    "subType": "classFeat",
    "associations": {
      "classes": [
        "Eidolon"
      ]
    },
    "showInQuickbar": false,
    "abilityType": "none",
    "crOffset": "",
    "disabled": false,
    "classSkills": {},
    "nonlethal": false,
    "duration": {
      "value": null,
      "units": ""
    },
    "target": {
      "value": ""
    },
    "attackName": "",
    "actionType": "",
    "attackBonus": "",
    "critConfirmBonus": "",
    "damage": {
      "parts": [],
      "critParts": [],
      "nonCritParts": []
    },
    "attackParts": [],
    "formulaicAttacks": {
      "count": {
        "formula": "",
        "value": null
      },
      "bonus": {
        "formula": ""
      },
      "label": null
    },
    "formula": "",
    "ability": {
      "attack": null,
      "damage": null,
      "damageMult": 1,
      "critRange": 20,
      "critMult": 2
    },
    "save": {
      "dc": 0,
      "type": "",
      "description": ""
    },
    "soundEffect": "",
    "powerAttack": {
      "multiplier": "",
      "damageBonus": 2,
      "critMultiplier": 1
    },
    "attack": {
      "parts": []
    },
    "conditionals": []
  },
  "ownership": {
    "default": 0
  },
  "_stats": {
    "systemId": null,
    "systemVersion": null,
    "coreVersion": null,
    "createdTime": null,
    "modifiedTime": null,
    "lastModifiedBy": null
  },
  "_key": "!actors.items!b0SoTGipMbqlrtaC.aJkFSskZjKGvTY2R"
}