{
  "_id": "4YpSXOFMLWFBuvxY",
  "name": "Evolution Pool (Unchained)",
  "type": "feat",
  "img": "systems/pf1/icons/feats/intimidating-prowess.jpg",
  "effects": [],
  "folder": null,
  "sort": 3700000,
  "flags": {
    "autoanimations": {
      "killAnim": false,
      "override": false,
      "animType": "t1",
      "animName": "",
      "hmAnim": "a1",
      "color": "n1",
      "dtvar": "dt1",
      "explosion": false,
      "explodeVariant": "ev1",
      "explodeColor": "ec1",
      "explodeRadius": "0",
      "explodeLoop": "1",
      "selfRadius": "5",
      "animTint": "#ffffff",
      "auraOpacity": 0.75,
      "ctaOption": false
    },
    "pf1": {},
    "scene-packer": {
      "sourceId": "Item.4WlcyEkZPlKfU28P"
    },
    "core": {
      "sourceId": "Compendium.pf-content.pf-eidolon-evolutions.gQahVj8GpA8Yvguq"
    }
  },
  "system": {
    "description": {
      "value": "<p><strong>Current Pool:&nbsp;</strong>[[(round(@classes.eidolon.level * .75))]]</p>\n<p>The value given in this column is the total number of points in the eidolon's evolution pool. Points from this pool can be spent on a wide variety of modifications and upgrades that add new abilities, attacks, and powers to the eidolon.</p>\n<p>Whenever the summoner gains a level, the number in this pool increases and the summoner can spend these points to change the abilities of the eidolon. These choices are not set.</p>\n<p>The summoner can change them whenever he gains a level (and through the transmogrify spell).</p>\n<p><strong>Usage</strong></p>\n<p>Subtract from the total when adding evolutions.</p>",
      "unidentified": ""
    },
    "tags": [
      "Eidolon"
    ],
    "actions": [
      {
        "_id": "6vjgbbt25qtw09uh",
        "name": "Use",
        "img": "systems/pf1/icons/feats/intimidating-prowess.jpg",
        "description": "",
        "tag": "evolutionPoolUnchained",
        "activation": {
          "cost": 1,
          "type": "passive",
          "unchained": {
            "cost": 1,
            "type": "passive"
          }
        },
        "duration": {
          "value": null,
          "units": ""
        },
        "target": {
          "value": ""
        },
        "range": {
          "units": "",
          "maxIncrements": 1,
          "minValue": null,
          "minUnits": ""
        },
        "uses": {
          "autoDeductChargesCost": "0",
          "self": {
            "value": 0,
            "maxFormula": "",
            "per": null
          },
          "per": "charges",
          "value": 1,
          "maxFormula": "floor((@classes.eidolon.level - 1) * .75) + 1 + (((((@classes.eidolon.level - 1) * .75) * 100) % 100) >= 50 ? 1 : 0)",
          "max": 0
        },
        "measureTemplate": {
          "type": "",
          "size": "",
          "overrideColor": false,
          "customColor": "",
          "overrideTexture": false,
          "customTexture": ""
        },
        "attackName": "",
        "actionType": "",
        "attackBonus": "",
        "critConfirmBonus": "",
        "damage": {
          "parts": [],
          "critParts": [],
          "nonCritParts": []
        },
        "attackParts": [],
        "formulaicAttacks": {
          "count": {
            "formula": "",
            "value": null
          },
          "bonus": {
            "formula": ""
          },
          "label": null
        },
        "formula": "",
        "ability": {
          "attack": null,
          "damage": null,
          "damageMult": 1,
          "critRange": 20,
          "critMult": 2
        },
        "save": {
          "dc": 0,
          "type": "",
          "description": ""
        },
        "effectNotes": [],
        "attackNotes": [],
        "soundEffect": "",
        "powerAttack": {
          "multiplier": "",
          "damageBonus": 2,
          "critMultiplier": 1
        },
        "naturalAttack": {
          "primaryAttack": true,
          "secondary": {
            "attackBonus": "-5",
            "damageMult": 0.5
          }
        },
        "nonlethal": false,
        "touch": false,
        "usesAmmo": false,
        "spellEffect": "",
        "spellArea": "",
        "conditionals": [],
        "enh": {
          "value": null
        }
      }
    ],
    "uses": {
      "per": "charges",
      "value": 1,
      "maxFormula": "floor((@classes.eidolon.level - 1) * .75) + 1 + (((((@classes.eidolon.level - 1) * .75) * 100) % 100) >= 50 ? 1 : 0)",
      "autoDeductChargesCost": "0",
      "max": 0
    },
    "attackNotes": [],
    "effectNotes": [],
    "changes": [],
    "changeFlags": {
      "loseDexToAC": false,
      "noEncumbrance": false,
      "mediumArmorFullSpeed": false,
      "heavyArmorFullSpeed": false,
      "noStr": false,
      "noDex": false,
      "oneInt": false,
      "oneWis": false,
      "oneCha": false
    },
    "contextNotes": [],
    "links": {
      "children": [],
      "charges": []
    },
    "tag": "evolutionPoolUnchained",
    "useCustomTag": false,
    "armorProf": {
      "value": [],
      "custom": ""
    },
    "weaponProf": {
      "value": [],
      "custom": ""
    },
    "languages": {
      "value": [],
      "custom": ""
    },
    "flags": {
      "boolean": {},
      "dictionary": {}
    },
    "scriptCalls": [],
    "subType": "classFeat",
    "associations": {
      "classes": [
        "Eidolon"
      ]
    },
    "showInQuickbar": false,
    "abilityType": "ex",
    "crOffset": "",
    "disabled": false,
    "classSkills": {},
    "nonlethal": false,
    "duration": {
      "value": null,
      "units": ""
    },
    "target": {
      "value": ""
    },
    "attackName": "",
    "actionType": "",
    "attackBonus": "",
    "critConfirmBonus": "",
    "damage": {
      "parts": [],
      "critParts": [],
      "nonCritParts": []
    },
    "attackParts": [],
    "formulaicAttacks": {
      "count": {
        "formula": "",
        "value": null
      },
      "bonus": {
        "formula": ""
      },
      "label": null
    },
    "formula": "",
    "ability": {
      "attack": null,
      "damage": null,
      "damageMult": 1,
      "critRange": 20,
      "critMult": 2
    },
    "save": {
      "dc": 0,
      "type": "",
      "description": ""
    },
    "soundEffect": "",
    "powerAttack": {
      "multiplier": "",
      "damageBonus": 2,
      "critMultiplier": 1
    },
    "attack": {
      "parts": []
    }
  },
  "ownership": {
    "default": 0
  },
  "_stats": {
    "systemId": null,
    "systemVersion": null,
    "coreVersion": null,
    "createdTime": null,
    "modifiedTime": null,
    "lastModifiedBy": null
  },
  "_key": "!actors.items!Thxu8cGB9fglytxD.4YpSXOFMLWFBuvxY"
}