{
  "_id": "gNCFN7Ek9GScX5bn",
  "name": "Improved Natural Armor (Base)",
  "type": "feat",
  "sort": 1600000,
  "flags": {
    "core": {
      "sourceId": "Compendium.world.eidolon-features.luyrfe90KgHKmvMw"
    },
    "scene-packer": {
      "sourceId": "Item.kuFmgIQCyNIoD8hG"
    }
  },
  "img": "icons/commodities/biological/shell-ridged-blue.webp",
  "effects": [],
  "folder": null,
  "system": {
    "description": {
      "value": "<p>An eidolon's hide grows thick fur, rigid scales, or bony plates, giving it a +2 bonus to its natural armor. This evolution can be taken once for every five levels the summoner possesses.</p>\n<p><strong>Usage</strong></p>\n<p>Increase the +2 if taken more than once.</p>",
      "unidentified": ""
    },
    "tags": [
      "Eidolon Evolution"
    ],
    "actions": [],
    "uses": {
      "per": null,
      "value": 0,
      "maxFormula": "",
      "autoDeductChargesCost": "1",
      "max": 0
    },
    "attackNotes": [],
    "effectNotes": [],
    "changes": [
      {
        "_id": "x08fhzuw",
        "formula": "2",
        "operator": "add",
        "subTarget": "nac",
        "modifier": "untyped",
        "priority": 0,
        "value": 2
      }
    ],
    "changeFlags": {
      "loseDexToAC": false,
      "noEncumbrance": false,
      "mediumArmorFullSpeed": false,
      "heavyArmorFullSpeed": false
    },
    "contextNotes": [],
    "links": {
      "children": [],
      "charges": []
    },
    "tag": "improvedNaturalArmor1Ep",
    "useCustomTag": false,
    "armorProf": {
      "value": [],
      "custom": ""
    },
    "weaponProf": {
      "value": [],
      "custom": ""
    },
    "languages": {
      "value": [],
      "custom": ""
    },
    "flags": {
      "boolean": {},
      "dictionary": {}
    },
    "scriptCalls": [],
    "subType": "misc",
    "associations": {
      "classes": []
    },
    "showInQuickbar": false,
    "abilityType": "ex",
    "crOffset": "",
    "disabled": false,
    "classSkills": {},
    "nonlethal": false,
    "duration": {
      "value": null,
      "units": ""
    },
    "target": {
      "value": ""
    },
    "attackName": "",
    "actionType": "",
    "attackBonus": "",
    "critConfirmBonus": "",
    "damage": {
      "parts": [],
      "critParts": [],
      "nonCritParts": []
    },
    "attackParts": [],
    "formulaicAttacks": {
      "count": {
        "formula": "",
        "value": null
      },
      "bonus": {
        "formula": ""
      },
      "label": null
    },
    "formula": "",
    "ability": {
      "attack": null,
      "damage": null,
      "damageMult": 1,
      "critRange": 20,
      "critMult": 2
    },
    "save": {
      "dc": 0,
      "type": "",
      "description": ""
    },
    "soundEffect": "",
    "powerAttack": {
      "multiplier": "",
      "damageBonus": 2,
      "critMultiplier": 1
    },
    "attack": {
      "parts": []
    }
  },
  "ownership": {
    "default": 0
  },
  "_stats": {
    "systemId": null,
    "systemVersion": null,
    "coreVersion": null,
    "createdTime": null,
    "modifiedTime": null,
    "lastModifiedBy": null
  },
  "_key": "!actors.items!sZ0DpKCo4mzz46r6.gNCFN7Ek9GScX5bn"
}