{
  "_id": "5UUMpxxvG8EyuXqa",
  "name": "Limbs (Legs x 2)",
  "type": "feat",
  "sort": 2200000,
  "flags": {
    "core": {
      "sourceId": "Compendium.world.eidolon-features.jeFLqJiQXQTjGOI5"
    },
    "scene-packer": {
      "sourceId": "Item.vBQVNDY5uZQQwoH2"
    }
  },
  "img": "icons/commodities/biological/hand-gnarled-green.webp",
  "effects": [],
  "folder": null,
  "system": {
    "description": {
      "value": "<p>An eidolon grows an additional pair of limbs. These limbs can take one of two forms.</p>\n<ul>\n<li>They can be made into legs, complete with feet. Each pair of legs increases the eidolon's base speed by 10 feet.</li>\n<li>Alternatively, they can be made into arms, complete with hands.</li>\n</ul>\n<p>The eidolon does not gain any additional natural attacks for an additional pair of arms, but it can take other evolutions that add additional attacks (such as claws or a slam). Arms that have hands can be used to wield weapons, if the eidolon is proficient.</p>\n<p>This evolution can be selected more than once.</p>",
      "unidentified": ""
    },
    "tags": [
      "Eidolon Evolution"
    ],
    "actions": [],
    "uses": {
      "per": null,
      "value": 0,
      "maxFormula": "",
      "autoDeductChargesCost": "1",
      "max": 0
    },
    "attackNotes": [],
    "effectNotes": [],
    "changes": [],
    "changeFlags": {
      "loseDexToAC": false,
      "noEncumbrance": false,
      "mediumArmorFullSpeed": false,
      "heavyArmorFullSpeed": false
    },
    "contextNotes": [],
    "links": {
      "children": [],
      "charges": []
    },
    "tag": "limbs2Ep",
    "useCustomTag": false,
    "armorProf": {
      "value": [],
      "custom": ""
    },
    "weaponProf": {
      "value": [],
      "custom": ""
    },
    "languages": {
      "value": [],
      "custom": ""
    },
    "flags": {
      "boolean": {},
      "dictionary": {}
    },
    "scriptCalls": [],
    "subType": "misc",
    "associations": {
      "classes": []
    },
    "showInQuickbar": false,
    "abilityType": "ex",
    "crOffset": "",
    "disabled": false,
    "classSkills": {},
    "nonlethal": false,
    "duration": {
      "value": null,
      "units": ""
    },
    "target": {
      "value": ""
    },
    "attackName": "",
    "actionType": "",
    "attackBonus": "",
    "critConfirmBonus": "",
    "damage": {
      "parts": [],
      "critParts": [],
      "nonCritParts": []
    },
    "attackParts": [],
    "formulaicAttacks": {
      "count": {
        "formula": "",
        "value": null
      },
      "bonus": {
        "formula": ""
      },
      "label": null
    },
    "formula": "",
    "ability": {
      "attack": null,
      "damage": null,
      "damageMult": 1,
      "critRange": 20,
      "critMult": 2
    },
    "save": {
      "dc": 0,
      "type": "",
      "description": ""
    },
    "soundEffect": "",
    "powerAttack": {
      "multiplier": "",
      "damageBonus": 2,
      "critMultiplier": 1
    },
    "attack": {
      "parts": []
    }
  },
  "ownership": {
    "default": 0
  },
  "_stats": {
    "systemId": null,
    "systemVersion": null,
    "coreVersion": null,
    "createdTime": null,
    "modifiedTime": null,
    "lastModifiedBy": null
  },
  "_key": "!actors.items!b0SoTGipMbqlrtaC.5UUMpxxvG8EyuXqa"
}