{
  "_id": "E5jCtWCaAAR0LOvs",
  "name": "Link",
  "type": "feat",
  "img": "systems/pf1/icons/feats/quick-draw.jpg",
  "effects": [],
  "folder": null,
  "sort": 0,
  "flags": {
    "autoanimations": {
      "killAnim": false,
      "override": false,
      "animType": "t1",
      "animName": "",
      "hmAnim": "a1",
      "color": "n1",
      "dtvar": "dt1",
      "explosion": false,
      "explodeVariant": "ev1",
      "explodeColor": "ec1",
      "explodeRadius": "0",
      "explodeLoop": "1",
      "selfRadius": "5",
      "animTint": "#ffffff",
      "auraOpacity": 0.75,
      "ctaOption": false
    },
    "pf1": {},
    "scene-packer": {
      "sourceId": "Item.BLnLSlCUOWcLPYoT"
    },
    "core": {
      "sourceId": "Compendium.pf-content.pf-eidolon-evolutions.wtM7xs3CFcQdHL83"
    }
  },
  "system": {
    "description": {
      "value": "<p>A summoner and his eidolon share a mental link allows for communication across any distance (as long as they are on the same plane). This communication is a free action, allowing the summoner to give orders to his eidolon at any time. In addition, magic items interfere with the summoner's connection to his eidolon.</p>\n<p>As a result, the summoner and his eidolon share magic item slots.</p>\n<p>For example, if the summoner is wearing a ring, his eidolon can wear no more than one ring. In case of a conflict, the items worn by the summoner remain active, and those used by the eidolon become dormant. The eidolon must possess the appropriate appendages to utilize a magic item.</p>",
      "unidentified": ""
    },
    "tags": [
      "Eidolon"
    ],
    "actions": [],
    "uses": {
      "per": null,
      "value": 0,
      "maxFormula": "",
      "autoDeductChargesCost": "1",
      "max": 0
    },
    "attackNotes": [],
    "effectNotes": [],
    "changes": [],
    "changeFlags": {
      "loseDexToAC": false,
      "noEncumbrance": false,
      "mediumArmorFullSpeed": false,
      "heavyArmorFullSpeed": false,
      "noStr": false,
      "noDex": false,
      "oneInt": false,
      "oneWis": false,
      "oneCha": false
    },
    "contextNotes": [],
    "links": {
      "children": [],
      "charges": []
    },
    "tag": "link",
    "useCustomTag": false,
    "armorProf": {
      "value": [],
      "custom": ""
    },
    "weaponProf": {
      "value": [],
      "custom": ""
    },
    "languages": {
      "value": [],
      "custom": ""
    },
    "flags": {
      "boolean": {},
      "dictionary": {}
    },
    "scriptCalls": [],
    "subType": "classFeat",
    "associations": {
      "classes": [
        "Eidolon"
      ]
    },
    "showInQuickbar": false,
    "abilityType": "ex",
    "crOffset": "",
    "disabled": false,
    "classSkills": {},
    "nonlethal": false,
    "duration": {
      "value": null,
      "units": ""
    },
    "target": {
      "value": ""
    },
    "attackName": "",
    "actionType": "",
    "attackBonus": "",
    "critConfirmBonus": "",
    "damage": {
      "parts": [],
      "critParts": [],
      "nonCritParts": []
    },
    "attackParts": [],
    "formulaicAttacks": {
      "count": {
        "formula": "",
        "value": null
      },
      "bonus": {
        "formula": ""
      },
      "label": null
    },
    "formula": "",
    "ability": {
      "attack": null,
      "damage": null,
      "damageMult": 1,
      "critRange": 20,
      "critMult": 2
    },
    "save": {
      "dc": 0,
      "type": "",
      "description": ""
    },
    "soundEffect": "",
    "powerAttack": {
      "multiplier": "",
      "damageBonus": 2,
      "critMultiplier": 1
    },
    "attack": {
      "parts": []
    },
    "conditionals": []
  },
  "ownership": {
    "default": 0
  },
  "_stats": {
    "systemId": null,
    "systemVersion": null,
    "coreVersion": null,
    "createdTime": null,
    "modifiedTime": null,
    "lastModifiedBy": null
  },
  "_key": "!actors.items!C1c1pIWUhbO0m54c.E5jCtWCaAAR0LOvs"
}