{
  "_id": "oo6C3YvwWgD4biRo",
  "name": "Requires Manual Setup",
  "type": "feat",
  "img": "systems/pf1/icons/misc/hazard-sign.svg",
  "effects": [],
  "folder": null,
  "sort": 0,
  "flags": {
    "scene-packer": {
      "sourceId": "Item.Qy0VeVAdeG8c1tef"
    },
    "core": {
      "sourceId": "Compendium.pf-content.pf-eidolon-evolutions.WRk36VbOw70z0KKP"
    },
    "pf1": {}
  },
  "system": {
    "description": {
      "value": "<p><strong>Skills</strong></p>\n<p>At first level, select 4 additional class skills (if the eidolon has a fly speed, it gains Fly for free) through editting the Class.</p>\n<p><strong>Evolution Points</strong></p>\n<p>If you are using an Unchained Summoner, use @Compendium[pf-content.pf-eidolon-evolutions.B2McodEGU4IGjGqi]{Evolution Pool (Unchained)}.</p>\n<p>If you are using a Chained Summoner, use @Compendium[pf-content.pf-eidolon-evolutions.gQahVj8GpA8Yvguq]{Evolution Pool (Chained)} for tracking evolution points.</p>",
      "unidentified": ""
    },
    "tags": [],
    "actions": [],
    "uses": {
      "per": null,
      "value": 0,
      "maxFormula": "",
      "autoDeductChargesCost": "1",
      "max": 0
    },
    "attackNotes": [],
    "effectNotes": [],
    "changes": [],
    "changeFlags": {
      "loseDexToAC": false,
      "noEncumbrance": false,
      "mediumArmorFullSpeed": false,
      "heavyArmorFullSpeed": false
    },
    "contextNotes": [],
    "links": {
      "children": [],
      "charges": []
    },
    "tag": "requiresManualSetup",
    "useCustomTag": false,
    "armorProf": {
      "value": [],
      "custom": ""
    },
    "weaponProf": {
      "value": [],
      "custom": ""
    },
    "languages": {
      "value": [],
      "custom": ""
    },
    "flags": {
      "boolean": {},
      "dictionary": {}
    },
    "scriptCalls": [],
    "subType": "feat",
    "associations": {
      "classes": []
    },
    "showInQuickbar": false,
    "abilityType": "none",
    "crOffset": "",
    "disabled": false,
    "classSkills": {},
    "nonlethal": false,
    "duration": {
      "value": null,
      "units": ""
    },
    "target": {
      "value": ""
    },
    "attackName": "",
    "actionType": "",
    "attackBonus": "",
    "critConfirmBonus": "",
    "damage": {
      "parts": [],
      "critParts": [],
      "nonCritParts": []
    },
    "attackParts": [],
    "formulaicAttacks": {
      "count": {
        "formula": "",
        "value": null
      },
      "bonus": {
        "formula": ""
      },
      "label": null
    },
    "formula": "",
    "ability": {
      "attack": null,
      "damage": null,
      "damageMult": 1,
      "critRange": 20,
      "critMult": 2
    },
    "save": {
      "dc": 0,
      "type": "",
      "description": ""
    },
    "soundEffect": "",
    "powerAttack": {
      "multiplier": "",
      "damageBonus": 2,
      "critMultiplier": 1
    },
    "conditionals": [],
    "attack": {
      "parts": []
    }
  },
  "ownership": {
    "default": 0
  },
  "_stats": {
    "systemId": null,
    "systemVersion": null,
    "coreVersion": null,
    "createdTime": null,
    "modifiedTime": null,
    "lastModifiedBy": null
  },
  "_key": "!actors.items!sZ0DpKCo4mzz46r6.oo6C3YvwWgD4biRo"
}