{
  "_id": "CfKBzEA1Ibzrj4br",
  "name": "Breach the Veil of Dreams (Occult Ritual)",
  "type": "spell",
  "img": "systems/pf1/icons/skills/affliction_05.jpg",
  "flags": {
    "autoanimations": {
      "killAnim": false,
      "override": false,
      "animType": "t1",
      "animName": "",
      "bards": {
        "bardAnim": "a1",
        "bardTarget": true,
        "bardTargetAnim": "a1",
        "bardTargetColor": "a1",
        "bardSelf": true,
        "marker": true,
        "markerColor": "a1",
        "markerColorTarget": "a1"
      },
      "spellVar": "a1",
      "hmAnim": "a1",
      "color": "n1",
      "spellOptions": {
        "spellLoops": 1
      },
      "uaStrikeType": "physical",
      "dtvar": "dt1",
      "divineSmite": {
        "dsEnable": false,
        "dsSelf": true,
        "dsSelfDelay": 0,
        "dsSelfColor": "a1",
        "dsTarget": true,
        "dsTargetDelay": 1250,
        "dsTargetColor": "a1"
      },
      "explosion": false,
      "explodeVariant": "ev1",
      "explodeColor": "",
      "explodeRadius": "0",
      "explodeLoop": "1",
      "allSounds": {
        "explosion": {
          "audioExplodeEnabled": false,
          "file": "",
          "delay": 100,
          "volume": 25
        },
        "item": {
          "enableAudio": false,
          "file": "",
          "delay": 100,
          "volume": 25
        }
      },
      "selfRadius": "5",
      "animTint": "#ffffff",
      "auraOpacity": 0.75,
      "ctaOption": false,
      "teleDist": 30
    }
  },
  "system": {
    "description": {
      "value": "",
      "unidentified": ""
    },
    "tags": [],
    "actions": [
      {
        "_id": "0rmy2etk3ut9j7v5",
        "name": "Use",
        "img": "systems/pf1/icons/skills/affliction_05.jpg",
        "description": "",
        "tag": "",
        "activation": {
          "cost": 1,
          "type": "standard",
          "unchained": {
            "cost": 2,
            "type": "action"
          }
        },
        "duration": {
          "value": "",
          "units": ""
        },
        "target": {
          "value": ""
        },
        "range": {
          "units": "",
          "maxIncrements": 1,
          "minValue": null,
          "minUnits": ""
        },
        "uses": {
          "autoDeductChargesCost": "1 + @sl",
          "self": {
            "value": 0,
            "maxFormula": "",
            "per": null
          },
          "per": null,
          "value": 0,
          "maxFormula": ""
        },
        "measureTemplate": {
          "type": "",
          "size": "",
          "overrideColor": false,
          "customColor": "",
          "overrideTexture": false,
          "customTexture": ""
        },
        "attackName": "",
        "actionType": "other",
        "attackBonus": "",
        "critConfirmBonus": "",
        "damage": {
          "parts": [],
          "critParts": [],
          "nonCritParts": []
        },
        "attackParts": [],
        "formulaicAttacks": {
          "count": {
            "formula": ""
          },
          "bonus": {
            "formula": ""
          },
          "label": null
        },
        "formula": "",
        "ability": {
          "attack": null,
          "damage": "",
          "damageMult": 1,
          "critRange": 20,
          "critMult": 2
        },
        "save": {
          "dc": "0",
          "type": "null",
          "description": ""
        },
        "effectNotes": [],
        "attackNotes": [],
        "soundEffect": "",
        "powerAttack": {
          "multiplier": "",
          "damageBonus": 2,
          "critMultiplier": 1
        },
        "naturalAttack": {
          "primaryAttack": true,
          "secondary": {
            "attackBonus": "-5",
            "damageMult": 0.5
          }
        },
        "nonlethal": false,
        "touch": false,
        "usesAmmo": false,
        "spellEffect": "",
        "spellArea": "",
        "conditionals": [],
        "enh": {
          "value": null
        }
      }
    ],
    "uses": {
      "per": null,
      "value": 0,
      "maxFormula": "",
      "autoDeductChargesCost": "1"
    },
    "attackNotes": [],
    "effectNotes": [],
    "links": {
      "children": []
    },
    "flags": {
      "boolean": {},
      "dictionary": {
        "summary": "Transport yourself from the Material Plane to the Dimension of Dreams"
      }
    },
    "scriptCalls": [],
    "learnedAt": {
      "class": {},
      "domain": {},
      "subDomain": {},
      "elementalSchool": {},
      "bloodline": {}
    },
    "level": 6,
    "clOffset": 0,
    "slOffset": 0,
    "school": "con",
    "subschool": "",
    "types": "",
    "components": {
      "value": "components",
      "verbal": true,
      "somatic": true,
      "thought": false,
      "emotion": false,
      "material": true,
      "focus": true,
      "divineFocus": 0
    },
    "castTime": "60 minutes",
    "materials": {
      "value": "incenses burned in a bowl filled with grave earth, a bottle of wormwood wine for each caster",
      "focus": "an ornate silver and mithral key worth 5,000 gp",
      "gpValue": 0
    },
    "spellbook": "",
    "preparation": {
      "preparedAmount": 0,
      "maxAmount": 0,
      "spontaneousPrepared": true
    },
    "atWill": false,
    "sr": false,
    "shortDescription": "<p><strong>Source</strong> <em>Occult Adventures pg. 209</em></p><p><strong>School</strong> conjuration (creation); <strong>Level</strong> 6</p><p><strong>Casting Time</strong> 60 minutes</p><p><strong>Components</strong> V, S, M (incenses burned in a bowl filled with grave earth, a bottle of wormwood wine for each caster), F (an ornate silver and mithral key worth 5,000 gp), SC (up to the Intelligence modifier of the primary caster)</p><p><strong>Skill Checks</strong> Knowledge (arcana) DC 32, 3 successes; Knowledge (planes) DC 32, 3 successes</p><p><strong>Range</strong> touch</p><p><strong>Duration</strong> instantaneous; see text</p><p><strong>Saving Throw</strong> none; <strong>SR</strong> no</p><p><strong>Backlash</strong> The primary caster takes 2d6 points of damage and becomes exhausted.</p><p><strong>Failure</strong> An animate dream appears at the site of the ritual and attacks the casters. At the GM's discretion, the animate dream may have the advanced template, be accompanied by fellow animate dreams, or both.</p><h3 class=\"framing\">Effect</h3><p>This ritual must be cast at night on the Material Plane. The casters drink the wormwood wine and begin chanting the incantation as the incense burns. The casters mix the ashes with the grave earth and use the mixture to draw a threshold with a keyhole. They then insert the key into this door as the incantation is completed. Success indicates the casters pass through the portal and enter a random location on the Dimension of Dreams.</p><p></p><p> If the casters wish to return to the Material Plane from the Dimension of Dreams, each must succeed at a DC 35 concentration check to do so. This is a full-round action that doesn't provoke attacks of opportunity. The DC of this check is reduced by 1 for every 2d6 points of damage the traveler willingly takes from psychic and physical trauma as part of the full-round action (this damage can't be reduced in any way). If successful, the caster is transported back to the site of the ritual's casting of the Material Plane. The casters can try again if they fail their concentration checks. A caster can use her character level + her Charisma modifier as her bonus on the concentration check if she isn't a spellcaster or if that value is higher than her usual concentration bonus.</p>",
    "showInQuickbar": false,
    "domain": false,
    "slotCost": 1,
    "spellDuration": "",
    "spellEffect": "",
    "spellArea": "",
    "spellPoints": {
      "cost": "1 + @sl"
    }
  },
  "ownership": {
    "default": 0
  },
  "_stats": {
    "systemId": "pf1",
    "systemVersion": "9.1",
    "coreVersion": "10.291",
    "createdTime": 1665428381659,
    "modifiedTime": 1689797932179,
    "lastModifiedBy": "ppv91YxratjWnkJi"
  },
  "effects": [],
  "folder": null,
  "sort": 0,
  "_key": "!items!CfKBzEA1Ibzrj4br"
}