{
  "_id": "Zalsq7hFPkDJSYuG",
  "name": "Festival of Flowers (Occult Ritual)",
  "type": "spell",
  "img": "systems/pf1/icons/skills/affliction_05.jpg",
  "flags": {
    "autoanimations": {
      "killAnim": false,
      "override": false,
      "animType": "t1",
      "animName": "",
      "bards": {
        "bardAnim": "a1",
        "bardTarget": true,
        "bardTargetAnim": "a1",
        "bardTargetColor": "a1",
        "bardSelf": true,
        "marker": true,
        "markerColor": "a1",
        "markerColorTarget": "a1"
      },
      "spellVar": "a1",
      "hmAnim": "a1",
      "color": "n1",
      "spellOptions": {
        "spellLoops": 1
      },
      "uaStrikeType": "physical",
      "dtvar": "dt1",
      "divineSmite": {
        "dsEnable": false,
        "dsSelf": true,
        "dsSelfDelay": 0,
        "dsSelfColor": "a1",
        "dsTarget": true,
        "dsTargetDelay": 1250,
        "dsTargetColor": "a1"
      },
      "explosion": false,
      "explodeVariant": "ev1",
      "explodeColor": "",
      "explodeRadius": "0",
      "explodeLoop": "1",
      "allSounds": {
        "explosion": {
          "audioExplodeEnabled": false,
          "file": "",
          "delay": 100,
          "volume": 25
        },
        "item": {
          "enableAudio": false,
          "file": "",
          "delay": 100,
          "volume": 25
        }
      },
      "selfRadius": "5",
      "animTint": "#ffffff",
      "auraOpacity": 0.75,
      "ctaOption": false,
      "teleDist": 30
    }
  },
  "system": {
    "description": {
      "value": "",
      "unidentified": ""
    },
    "tags": [],
    "actions": [
      {
        "_id": "9cjrun54769fult9",
        "name": "Use",
        "img": "systems/pf1/icons/skills/affliction_05.jpg",
        "description": "",
        "tag": "",
        "activation": {
          "cost": 1,
          "type": "standard",
          "unchained": {
            "cost": 2,
            "type": "action"
          }
        },
        "duration": {
          "value": "",
          "units": ""
        },
        "target": {
          "value": "primary caster and secondary casters"
        },
        "range": {
          "units": "",
          "maxIncrements": 1,
          "minValue": null,
          "minUnits": ""
        },
        "uses": {
          "autoDeductChargesCost": "1 + @sl",
          "self": {
            "value": 0,
            "maxFormula": "",
            "per": null
          },
          "per": null,
          "value": 0,
          "maxFormula": ""
        },
        "measureTemplate": {
          "type": "",
          "size": "",
          "overrideColor": false,
          "customColor": "",
          "overrideTexture": false,
          "customTexture": ""
        },
        "attackName": "",
        "actionType": "other",
        "attackBonus": "",
        "critConfirmBonus": "",
        "damage": {
          "parts": [],
          "critParts": [],
          "nonCritParts": []
        },
        "attackParts": [],
        "formulaicAttacks": {
          "count": {
            "formula": ""
          },
          "bonus": {
            "formula": ""
          },
          "label": null
        },
        "formula": "",
        "ability": {
          "attack": null,
          "damage": "",
          "damageMult": 1,
          "critRange": 20,
          "critMult": 2
        },
        "save": {
          "dc": "0",
          "type": "will",
          "description": "negates (harmless)"
        },
        "effectNotes": [],
        "attackNotes": [],
        "soundEffect": "",
        "powerAttack": {
          "multiplier": "",
          "damageBonus": 2,
          "critMultiplier": 1
        },
        "naturalAttack": {
          "primaryAttack": true,
          "secondary": {
            "attackBonus": "-5",
            "damageMult": 0.5
          }
        },
        "nonlethal": false,
        "touch": false,
        "usesAmmo": false,
        "spellEffect": "",
        "spellArea": "",
        "conditionals": [],
        "enh": {
          "value": null
        }
      }
    ],
    "uses": {
      "per": null,
      "value": 0,
      "maxFormula": "",
      "autoDeductChargesCost": "1"
    },
    "attackNotes": [],
    "effectNotes": [],
    "links": {
      "children": []
    },
    "flags": {
      "boolean": {},
      "dictionary": {
        "summary": "Casters gain a +1 luck bonus to saving throws for 3 months"
      }
    },
    "scriptCalls": [],
    "learnedAt": {
      "class": {},
      "domain": {},
      "subDomain": {},
      "elementalSchool": {},
      "bloodline": {}
    },
    "level": 4,
    "clOffset": 0,
    "slOffset": 0,
    "school": "div",
    "subschool": "compulsion",
    "types": "",
    "components": {
      "value": "components",
      "verbal": true,
      "somatic": true,
      "thought": false,
      "emotion": false,
      "material": true,
      "focus": true,
      "divineFocus": 0
    },
    "castTime": "12 hours",
    "materials": {
      "value": "100 lbs. of flowers per caster, a feast consisting of 1,000 gp worth of food and drink",
      "focus": "set of 7 silver cups worth a total of 1,500 gp",
      "gpValue": 1000
    },
    "spellbook": "",
    "preparation": {
      "preparedAmount": 0,
      "maxAmount": 0,
      "spontaneousPrepared": true
    },
    "atWill": false,
    "sr": false,
    "shortDescription": "<p><strong>Source</strong> <em>Distant Shores pg. 52</em></p><p><strong>School</strong> divination; <strong>Level</strong> 4</p><p><strong>Casting Time</strong> 12 hours</p><p><strong>Components</strong> V, S, M (100 lbs. of flowers per caster, a feast consisting of 1,000 gp worth of food and drink), F (set of 7 silver cups worth a total of 1,500 gp), SC (7)</p><p><strong>Skill Checks</strong> Knowledge (nature) DC 30, 1 success; Perform (dance) DC 30, 1 success; Perform (sing) DC 30, 2 successes</p><p><strong>Range</strong> touch</p><p><strong>Target</strong> primary caster and secondary casters</p><p><strong>Duration</strong> 3 months or until discharged</p><p><strong>Saving Throw</strong> Will negates (harmless); <strong>SR</strong> no</p><p><strong>Backlash</strong> The next time the casters attempt a check, they must roll twice and take the worse result.</p><p><strong>Failure</strong> All casters receive a –1 luck penalty on saving throws for 1 year.</p><h3 class=\"framing\">Effect</h3><p>The ritual takes place from sunrise to sunset, and involves the performance of dozens of traditional songs and dances. At the completion of the ritual, the Seven Petals drink a special brew made from herbs and fungus from seven silver cups.</p><p></p><p> The primary and secondary casters gain a +1 luck bonus on all saving throws for 3 months following the ritual. At any point during this time, a caster can roll twice for a single saving throw and take the higher result, but once this reroll is used, the luck bonus ends.</p>",
    "showInQuickbar": false,
    "domain": false,
    "slotCost": 1,
    "spellDuration": "",
    "spellEffect": "",
    "spellArea": "",
    "spellPoints": {
      "cost": "1 + @sl"
    }
  },
  "ownership": {
    "default": 0
  },
  "_stats": {
    "systemId": "pf1",
    "systemVersion": "9.1",
    "coreVersion": "10.291",
    "createdTime": 1665428381699,
    "modifiedTime": 1689797932402,
    "lastModifiedBy": "ppv91YxratjWnkJi"
  },
  "effects": [],
  "folder": null,
  "sort": 0,
  "_key": "!items!Zalsq7hFPkDJSYuG"
}