{
  "_id": "DYMnO6BnpuZOStKi",
  "name": "Hag's Eye Brew (Occult Ritual)",
  "type": "spell",
  "img": "systems/pf1/icons/skills/affliction_05.jpg",
  "flags": {
    "autoanimations": {
      "killAnim": false,
      "override": false,
      "animType": "t1",
      "animName": "",
      "bards": {
        "bardAnim": "a1",
        "bardTarget": true,
        "bardTargetAnim": "a1",
        "bardTargetColor": "a1",
        "bardSelf": true,
        "marker": true,
        "markerColor": "a1",
        "markerColorTarget": "a1"
      },
      "spellVar": "a1",
      "hmAnim": "a1",
      "color": "n1",
      "spellOptions": {
        "spellLoops": 1
      },
      "uaStrikeType": "physical",
      "dtvar": "dt1",
      "divineSmite": {
        "dsEnable": false,
        "dsSelf": true,
        "dsSelfDelay": 0,
        "dsSelfColor": "a1",
        "dsTarget": true,
        "dsTargetDelay": 1250,
        "dsTargetColor": "a1"
      },
      "explosion": false,
      "explodeVariant": "ev1",
      "explodeColor": "",
      "explodeRadius": "0",
      "explodeLoop": "1",
      "allSounds": {
        "explosion": {
          "audioExplodeEnabled": false,
          "file": "",
          "delay": 100,
          "volume": 25
        },
        "item": {
          "enableAudio": false,
          "file": "",
          "delay": 100,
          "volume": 25
        }
      },
      "selfRadius": "5",
      "animTint": "#ffffff",
      "auraOpacity": 0.75,
      "ctaOption": false,
      "teleDist": 30
    }
  },
  "system": {
    "description": {
      "value": "",
      "unidentified": ""
    },
    "tags": [],
    "actions": [
      {
        "_id": "26la8m2z1en9ropv",
        "name": "Use",
        "img": "systems/pf1/icons/skills/affliction_05.jpg",
        "description": "",
        "tag": "",
        "activation": {
          "cost": 1,
          "type": "standard",
          "unchained": {
            "cost": 2,
            "type": "action"
          }
        },
        "duration": {
          "value": "",
          "units": ""
        },
        "target": {
          "value": ""
        },
        "range": {
          "units": "",
          "maxIncrements": 1,
          "minValue": null,
          "minUnits": ""
        },
        "uses": {
          "autoDeductChargesCost": "1 + @sl",
          "self": {
            "value": 0,
            "maxFormula": "",
            "per": null
          },
          "per": null,
          "value": 0,
          "maxFormula": ""
        },
        "measureTemplate": {
          "type": "",
          "size": "",
          "overrideColor": false,
          "customColor": "",
          "overrideTexture": false,
          "customTexture": ""
        },
        "attackName": "",
        "actionType": "other",
        "attackBonus": "",
        "critConfirmBonus": "",
        "damage": {
          "parts": [],
          "critParts": [],
          "nonCritParts": []
        },
        "attackParts": [],
        "formulaicAttacks": {
          "count": {
            "formula": ""
          },
          "bonus": {
            "formula": ""
          },
          "label": null
        },
        "formula": "",
        "ability": {
          "attack": null,
          "damage": "",
          "damageMult": 1,
          "critRange": 20,
          "critMult": 2
        },
        "save": {
          "dc": "0",
          "type": "null",
          "description": ""
        },
        "effectNotes": [],
        "attackNotes": [],
        "soundEffect": "",
        "powerAttack": {
          "multiplier": "",
          "damageBonus": 2,
          "critMultiplier": 1
        },
        "naturalAttack": {
          "primaryAttack": true,
          "secondary": {
            "attackBonus": "-5",
            "damageMult": 0.5
          }
        },
        "nonlethal": false,
        "touch": false,
        "usesAmmo": false,
        "spellEffect": "",
        "spellArea": "",
        "conditionals": [],
        "enh": {
          "value": null
        }
      }
    ],
    "uses": {
      "per": null,
      "value": 0,
      "maxFormula": "",
      "autoDeductChargesCost": "1"
    },
    "attackNotes": [],
    "effectNotes": [],
    "links": {
      "children": []
    },
    "flags": {
      "boolean": {},
      "dictionary": {
        "summary": "Create a hag eye ooze loyal to the caster"
      }
    },
    "scriptCalls": [],
    "learnedAt": {
      "class": {},
      "domain": {},
      "subDomain": {},
      "elementalSchool": {},
      "bloodline": {}
    },
    "level": 4,
    "clOffset": 0,
    "slOffset": 0,
    "school": "trs",
    "subschool": "calling",
    "types": "",
    "components": {
      "value": "components",
      "verbal": true,
      "somatic": true,
      "thought": false,
      "emotion": false,
      "material": true,
      "focus": false,
      "divineFocus": 0
    },
    "castTime": "2 weeks, plus 4 hours; see text",
    "materials": {
      "value": "a hag or witch eye",
      "focus": "",
      "gpValue": 0
    },
    "spellbook": "",
    "preparation": {
      "preparedAmount": 0,
      "maxAmount": 0,
      "spontaneousPrepared": true
    },
    "atWill": false,
    "sr": false,
    "shortDescription": "<p><strong>Source</strong> <em>Blood of the Coven pg. 25</em></p><p><strong>School</strong> transmutation (creation); <strong>Level</strong> 4</p><p><strong>Casting Time</strong> 2 weeks, plus 4 hours; see text</p><p><strong>Components</strong> V, S, M (a hag or witch eye), SC (up to 6)</p><p><strong>Skill Checks</strong> Knowledge (dungeoneering) DC 30, 2 successes; Craft (alchemy) or Profession (cook) DC 30, 2 successes</p><p><strong>Range</strong> touch</p><p><strong>Duration</strong> instantaneous</p><p><strong>Backlash</strong> All casters are sickened from the fumes for 24 hours.</p><p><strong>Failure</strong> The primary caster is permanently blinded.</p><h3 class=\"framing\">Effect</h3><p>This ritual is used to create a loyal servant and spy for the coven: a hag eye ooze. Before the ritual can begin, the primary caster must spend 2 weeks carefully preparing an alchemical stew of animal organs, poisonous plants, and potent liquors.</p><p></p><p> Once the brew is prepared, the casters begin a 4-hour ritual of chanting around the bubbling cauldron. At the ritual's end, the eye of a hag or witch-ideally the primary caster-is added to the cauldron (using an eye from anyone not participating in the ritual increases all skill check DCs by 5). If the ritual is successful, the noxious fluid in the cauldron animates into a hag eye ooze loyal to the ritual's primary caster.</p>",
    "showInQuickbar": false,
    "domain": false,
    "slotCost": 1,
    "spellDuration": "",
    "spellEffect": "",
    "spellArea": "",
    "spellPoints": {
      "cost": "1 + @sl"
    }
  },
  "ownership": {
    "default": 0
  },
  "_stats": {
    "systemId": "pf1",
    "systemVersion": "9.1",
    "coreVersion": "10.291",
    "createdTime": 1665428381661,
    "modifiedTime": 1689797932194,
    "lastModifiedBy": "ppv91YxratjWnkJi"
  },
  "effects": [],
  "folder": null,
  "sort": 0,
  "_key": "!items!DYMnO6BnpuZOStKi"
}