{
  "_id": "mm8iM0l3RwWSkXSf",
  "name": "Invoke the Nemisis (Occult Ritual)",
  "type": "spell",
  "img": "systems/pf1/icons/skills/affliction_05.jpg",
  "flags": {
    "autoanimations": {
      "killAnim": false,
      "override": false,
      "animType": "t1",
      "animName": "",
      "bards": {
        "bardAnim": "a1",
        "bardTarget": true,
        "bardTargetAnim": "a1",
        "bardTargetColor": "a1",
        "bardSelf": true,
        "marker": true,
        "markerColor": "a1",
        "markerColorTarget": "a1"
      },
      "spellVar": "a1",
      "hmAnim": "a1",
      "color": "n1",
      "spellOptions": {
        "spellLoops": 1
      },
      "uaStrikeType": "physical",
      "dtvar": "dt1",
      "divineSmite": {
        "dsEnable": false,
        "dsSelf": true,
        "dsSelfDelay": 0,
        "dsSelfColor": "a1",
        "dsTarget": true,
        "dsTargetDelay": 1250,
        "dsTargetColor": "a1"
      },
      "explosion": false,
      "explodeVariant": "ev1",
      "explodeColor": "",
      "explodeRadius": "0",
      "explodeLoop": "1",
      "allSounds": {
        "explosion": {
          "audioExplodeEnabled": false,
          "file": "",
          "delay": 100,
          "volume": 25
        },
        "item": {
          "enableAudio": false,
          "file": "",
          "delay": 100,
          "volume": 25
        }
      },
      "selfRadius": "5",
      "animTint": "#ffffff",
      "auraOpacity": 0.75,
      "ctaOption": false,
      "teleDist": 30
    }
  },
  "system": {
    "description": {
      "value": "",
      "unidentified": ""
    },
    "tags": [],
    "actions": [
      {
        "_id": "l2ugg520wt2pfz1d",
        "name": "Use",
        "img": "systems/pf1/icons/skills/affliction_05.jpg",
        "description": "",
        "tag": "",
        "activation": {
          "cost": 1,
          "type": "standard",
          "unchained": {
            "cost": 2,
            "type": "action"
          }
        },
        "duration": {
          "value": "",
          "units": ""
        },
        "target": {
          "value": "one creature; see text"
        },
        "range": {
          "units": "",
          "maxIncrements": 1,
          "minValue": null,
          "minUnits": ""
        },
        "uses": {
          "autoDeductChargesCost": "1 + @sl",
          "self": {
            "value": 0,
            "maxFormula": "",
            "per": null
          },
          "per": null,
          "value": 0,
          "maxFormula": ""
        },
        "measureTemplate": {
          "type": "",
          "size": "",
          "overrideColor": false,
          "customColor": "",
          "overrideTexture": false,
          "customTexture": ""
        },
        "attackName": "",
        "actionType": "other",
        "attackBonus": "",
        "critConfirmBonus": "",
        "damage": {
          "parts": [],
          "critParts": [],
          "nonCritParts": []
        },
        "attackParts": [],
        "formulaicAttacks": {
          "count": {
            "formula": ""
          },
          "bonus": {
            "formula": ""
          },
          "label": null
        },
        "formula": "",
        "ability": {
          "attack": null,
          "damage": "",
          "damageMult": 1,
          "critRange": 20,
          "critMult": 2
        },
        "save": {
          "dc": "0",
          "type": "will",
          "description": "partial; see text"
        },
        "effectNotes": [],
        "attackNotes": [],
        "soundEffect": "",
        "powerAttack": {
          "multiplier": "",
          "damageBonus": 2,
          "critMultiplier": 1
        },
        "naturalAttack": {
          "primaryAttack": true,
          "secondary": {
            "attackBonus": "-5",
            "damageMult": 0.5
          }
        },
        "nonlethal": false,
        "touch": false,
        "usesAmmo": false,
        "spellEffect": "",
        "spellArea": "",
        "conditionals": [],
        "enh": {
          "value": null
        }
      }
    ],
    "uses": {
      "per": null,
      "value": 0,
      "maxFormula": "",
      "autoDeductChargesCost": "1"
    },
    "attackNotes": [],
    "effectNotes": [],
    "links": {
      "children": []
    },
    "flags": {
      "boolean": {},
      "dictionary": {
        "summary": "Call forth a creature to harrass the target"
      }
    },
    "scriptCalls": [],
    "learnedAt": {
      "class": {},
      "domain": {},
      "subDomain": {},
      "elementalSchool": {},
      "bloodline": {}
    },
    "level": 7,
    "clOffset": 0,
    "slOffset": 0,
    "school": "con",
    "subschool": "polymorph",
    "types": "",
    "components": {
      "value": "components",
      "verbal": true,
      "somatic": true,
      "thought": false,
      "emotion": false,
      "material": true,
      "focus": true,
      "divineFocus": 0
    },
    "castTime": "7 hours",
    "materials": {
      "value": "a treasured possession of the target",
      "focus": "a depiction of the nemesis creature worth at least 5,000 gp",
      "gpValue": 0
    },
    "spellbook": "",
    "preparation": {
      "preparedAmount": 0,
      "maxAmount": 0,
      "spontaneousPrepared": true
    },
    "atWill": false,
    "sr": true,
    "shortDescription": "<p><strong>Source</strong> <em>Blood of the Coven pg. 25</em></p><p><strong>School</strong> conjuration (calling) [curse]; <strong>Level</strong> 7</p><p><strong>Casting Time</strong> 7 hours</p><p><strong>Components</strong> V, S, M (a treasured possession of the target), F (a depiction of the nemesis creature worth at least 5,000 gp)</p><p><strong>Skill Checks</strong> Bluff DC 30, 2 successes; Diplomacy DC 30, 2 successes; Knowledge (planes) DC 30, 3 successes</p><p><strong>Range</strong> touch; see text</p><p><strong>Target</strong> one creature; see text</p><p><strong>Duration</strong> a year and a day; see text</p><p><strong>Saving Throw</strong> Will partial; see text; <strong>SR</strong> yes; see text</p><p><strong>Backlash</strong> The nemesis creature feeds on a portion of the primary caster's life force, inflicting a permanent negative level that cannot be healed until the nemesis creature is dismissed.</p><p><strong>Failure</strong> The nemesis creature is offended and harries the primary caster for a year and a day.</p><h3 class=\"framing\">Effect</h3><p>This ritual conjures forth a restless spirit or otherworldly entity to harass and sabotage a target of the caster's choice. The ritual must take place in an environment pleasing to the nemesis creature (an allip must be called in an asylum, a gremlin must be called in a clocktower or site of misfortune, etc.). The caster supplicates before a representation- usually a statue or tapestry-of the nemesis creature, reciting a long litany of the target's real or imagined sins and how deeply the target deserves to suffer.</p><p></p><p> Success conjures up the nemesis creature chosen from the list below, which goes forth to harass the victim to the best of its abilities. A pugwampi will hide and subject its victim to bad luck, while a lovelorn will stalk the victim and undermine his relationships.</p><p></p><p> Nemesis creatures do not kill their victims, and they avoid doing anything that might result in their victims' deaths (though they have no rules against killing others).</p><p></p><p> Beyond defining the nemesis creature's target, the ritual casters have no special control over or connection to the conjured beast.</p><p></p><p> A nemesis creature always knows its victim's location, but it must travel to the victim under its own power (or its creator's power). A victim can conceal itself from the nemesis creature's senses for 24 hours by succeeding at a Will saving throw each day at dawn. Should the nemesis creature be discovered and slain, its spirit returns to the depiction used to conjure it, where it re-forms after 1d4 days per Hit Die. Once re-formed, the nemesis creature emerges from its depiction to resume its campaign of subterfuge. The curse bestowed by this spell cannot be dispelled, but it can be removed with a miracle or wish spell. If the depiction of the nemesis creature is destroyed or if it is targeted with a remove curse or break enchantment spell, the nemesis creature is immediately destroyed and the curse ends.</p><p></p><p> The following creatures can be summoned as nemesis creatures: allip, gremlin (any), hellhound, imp, lovelorn, poltergeist, quasit, or tooth fairy.</p>",
    "showInQuickbar": false,
    "domain": false,
    "slotCost": 1,
    "spellDuration": "",
    "spellEffect": "",
    "spellArea": "",
    "spellPoints": {
      "cost": "1 + @sl"
    }
  },
  "ownership": {
    "default": 0
  },
  "_stats": {
    "systemId": "pf1",
    "systemVersion": "9.1",
    "coreVersion": "10.291",
    "createdTime": 1665428381724,
    "modifiedTime": 1689797932539,
    "lastModifiedBy": "ppv91YxratjWnkJi"
  },
  "effects": [],
  "folder": null,
  "sort": 0,
  "_key": "!items!mm8iM0l3RwWSkXSf"
}