{
  "_id": "VV0Tz3XbLtplBZii",
  "name": "Labyrinthine Wilds (Occult Ritual)",
  "type": "spell",
  "img": "systems/pf1/icons/skills/affliction_05.jpg",
  "flags": {
    "autoanimations": {
      "killAnim": false,
      "override": false,
      "animType": "t1",
      "animName": "",
      "bards": {
        "bardAnim": "a1",
        "bardTarget": true,
        "bardTargetAnim": "a1",
        "bardTargetColor": "a1",
        "bardSelf": true,
        "marker": true,
        "markerColor": "a1",
        "markerColorTarget": "a1"
      },
      "spellVar": "a1",
      "hmAnim": "a1",
      "color": "n1",
      "spellOptions": {
        "spellLoops": 1
      },
      "uaStrikeType": "physical",
      "dtvar": "dt1",
      "divineSmite": {
        "dsEnable": false,
        "dsSelf": true,
        "dsSelfDelay": 0,
        "dsSelfColor": "a1",
        "dsTarget": true,
        "dsTargetDelay": 1250,
        "dsTargetColor": "a1"
      },
      "explosion": false,
      "explodeVariant": "ev1",
      "explodeColor": "",
      "explodeRadius": "0",
      "explodeLoop": "1",
      "allSounds": {
        "explosion": {
          "audioExplodeEnabled": false,
          "file": "",
          "delay": 100,
          "volume": 25
        },
        "item": {
          "enableAudio": false,
          "file": "",
          "delay": 100,
          "volume": 25
        }
      },
      "selfRadius": "5",
      "animTint": "#ffffff",
      "auraOpacity": 0.75,
      "ctaOption": false,
      "teleDist": 30
    }
  },
  "system": {
    "description": {
      "value": "",
      "unidentified": ""
    },
    "tags": [],
    "actions": [
      {
        "_id": "9zft73iot2sl5tb0",
        "name": "Use",
        "img": "systems/pf1/icons/skills/affliction_05.jpg",
        "description": "",
        "tag": "",
        "activation": {
          "cost": 1,
          "type": "standard",
          "unchained": {
            "cost": 2,
            "type": "action"
          }
        },
        "duration": {
          "value": "",
          "units": ""
        },
        "target": {
          "value": ""
        },
        "range": {
          "units": "",
          "maxIncrements": 1,
          "minValue": null,
          "minUnits": ""
        },
        "uses": {
          "autoDeductChargesCost": "1 + @sl",
          "self": {
            "value": 0,
            "maxFormula": "",
            "per": null
          },
          "per": null,
          "value": 0,
          "maxFormula": ""
        },
        "measureTemplate": {
          "type": "",
          "size": "",
          "overrideColor": false,
          "customColor": "",
          "overrideTexture": false,
          "customTexture": ""
        },
        "attackName": "",
        "actionType": "other",
        "attackBonus": "",
        "critConfirmBonus": "",
        "damage": {
          "parts": [],
          "critParts": [],
          "nonCritParts": []
        },
        "attackParts": [],
        "formulaicAttacks": {
          "count": {
            "formula": ""
          },
          "bonus": {
            "formula": ""
          },
          "label": null
        },
        "formula": "",
        "ability": {
          "attack": null,
          "damage": "",
          "damageMult": 1,
          "critRange": 20,
          "critMult": 2
        },
        "save": {
          "dc": "0",
          "type": "will",
          "description": "disbelief (if interacted with)"
        },
        "effectNotes": [],
        "attackNotes": [],
        "soundEffect": "",
        "powerAttack": {
          "multiplier": "",
          "damageBonus": 2,
          "critMultiplier": 1
        },
        "naturalAttack": {
          "primaryAttack": true,
          "secondary": {
            "attackBonus": "-5",
            "damageMult": 0.5
          }
        },
        "nonlethal": false,
        "touch": false,
        "usesAmmo": false,
        "spellEffect": "",
        "spellArea": "",
        "conditionals": [],
        "enh": {
          "value": null
        }
      }
    ],
    "uses": {
      "per": null,
      "value": 0,
      "maxFormula": "",
      "autoDeductChargesCost": "1"
    },
    "attackNotes": [],
    "effectNotes": [],
    "links": {
      "children": []
    },
    "flags": {
      "boolean": {},
      "dictionary": {
        "summary": "Turn an area into a labyrinth"
      }
    },
    "scriptCalls": [],
    "learnedAt": {
      "class": {},
      "domain": {},
      "subDomain": {},
      "elementalSchool": {},
      "bloodline": {}
    },
    "level": 5,
    "clOffset": 0,
    "slOffset": 0,
    "school": "ill",
    "subschool": "",
    "types": "",
    "components": {
      "value": "components",
      "verbal": true,
      "somatic": true,
      "thought": false,
      "emotion": false,
      "material": true,
      "focus": true,
      "divineFocus": 0
    },
    "castTime": "50 minutes",
    "materials": {
      "value": "the bones of local wildlife carved into divining runes and daubed in specially treated wildlife blood worth 2,000 gp",
      "focus": "a compass using a highly sensitive magnetic needle worth 10,000 gp",
      "gpValue": 2000
    },
    "spellbook": "",
    "preparation": {
      "preparedAmount": 0,
      "maxAmount": 0,
      "spontaneousPrepared": true
    },
    "atWill": false,
    "sr": false,
    "shortDescription": "<p><strong>Source</strong> <em>Ultimate Wilderness pg. 238</em></p><p><strong>School</strong> illusion (glamer); <strong>Level</strong> 5</p><p><strong>Casting Time</strong> 50 minutes</p><p><strong>Components</strong> V, S, M (the bones of local wildlife carved into divining runes and daubed in specially treated wildlife blood worth 2,000 gp), F (a compass using a highly sensitive magnetic needle worth 10,000 gp), SC (at least 4 and up to 10)</p><p><strong>Skill Checks</strong> Knowledge (geography) DC 30, 2 successes; Survival DC 30, 3 successes</p><p><strong>Range</strong> close</p><p><strong>Area</strong> a 2-square-mile region/character level of the primary caster</p><p><strong>Duration</strong> permanent (D)</p><p><strong>Saving Throw</strong> Will disbelief (if interacted with); <strong>SR</strong> no</p><p><strong>Backlash</strong> The primary caster gains 1 temporary negative level.</p><p><strong>Failure</strong> All casters gain 2 temporary negative levels and are permanently blinded (the blindness is a curse effect, and it can be removed with <em>remove curse</em> and similar effects).</p><h3 class=\"framing\">Effect</h3><p>The primary caster must prepare for this ritual by walking a path along the outer edge of the desired area-an act that likely takes longer than the ritual casting time. As the primary caster walks this path, she must periodically mark the area with tiny runes. Once the primary caster returns to her starting point, and assuming the area she outlined is less than 2 square miles per character level she has, the actual casting of the ritual can begin. At this point, all casters cross the threshold to enter the region and then begin following a series of erratic paths, each using the material component divining runes as they wander aimlessly. Completing this ritual creates a powerful obfuscating effect, affecting creatures entering the area surrounded by the primary caster's initial walk.</p><p></p><p> The area within the border becomes an illusory replica of the local terrain that is difficult to navigate. In order to successfully travel to a desired location within the labyrinthine wilds, a creature must succeed at a DC 20 Intelligence check or a DC 30 Survival check. Success at this check allows a creature to reach its destination as normal. Failure at this check indicates the creature (and any allies it guides) spends 2d6 hours traveling along the path, only to return the starting point with no memory of its wanderings and fatigued from the journey.</p>",
    "showInQuickbar": false,
    "domain": false,
    "slotCost": 1,
    "spellDuration": "",
    "spellEffect": "",
    "spellArea": "",
    "spellPoints": {
      "cost": "1 + @sl"
    }
  },
  "ownership": {
    "default": 0
  },
  "_stats": {
    "systemId": "pf1",
    "systemVersion": "9.1",
    "coreVersion": "10.291",
    "createdTime": 1665428381690,
    "modifiedTime": 1689797932356,
    "lastModifiedBy": "ppv91YxratjWnkJi"
  },
  "effects": [],
  "folder": null,
  "sort": 0,
  "_key": "!items!VV0Tz3XbLtplBZii"
}