{
  "_id": "G5xBAA8MUlspPvFS",
  "name": "Manifest Manifestation (Occult Ritual)",
  "type": "spell",
  "img": "systems/pf1/icons/skills/affliction_05.jpg",
  "flags": {
    "autoanimations": {
      "killAnim": false,
      "override": false,
      "animType": "t1",
      "animName": "",
      "bards": {
        "bardAnim": "a1",
        "bardTarget": true,
        "bardTargetAnim": "a1",
        "bardTargetColor": "a1",
        "bardSelf": true,
        "marker": true,
        "markerColor": "a1",
        "markerColorTarget": "a1"
      },
      "spellVar": "a1",
      "hmAnim": "a1",
      "color": "n1",
      "spellOptions": {
        "spellLoops": 1
      },
      "uaStrikeType": "physical",
      "dtvar": "dt1",
      "divineSmite": {
        "dsEnable": false,
        "dsSelf": true,
        "dsSelfDelay": 0,
        "dsSelfColor": "a1",
        "dsTarget": true,
        "dsTargetDelay": 1250,
        "dsTargetColor": "a1"
      },
      "explosion": false,
      "explodeVariant": "ev1",
      "explodeColor": "",
      "explodeRadius": "0",
      "explodeLoop": "1",
      "allSounds": {
        "explosion": {
          "audioExplodeEnabled": false,
          "file": "",
          "delay": 100,
          "volume": 25
        },
        "item": {
          "enableAudio": false,
          "file": "",
          "delay": 100,
          "volume": 25
        }
      },
      "selfRadius": "5",
      "animTint": "#ffffff",
      "auraOpacity": 0.75,
      "ctaOption": false,
      "teleDist": 30
    }
  },
  "system": {
    "description": {
      "value": "",
      "unidentified": ""
    },
    "tags": [],
    "actions": [
      {
        "_id": "ws12x4r4grmvyvit",
        "name": "Use",
        "img": "systems/pf1/icons/skills/affliction_05.jpg",
        "description": "",
        "tag": "",
        "activation": {
          "cost": 1,
          "type": "standard",
          "unchained": {
            "cost": 2,
            "type": "action"
          }
        },
        "duration": {
          "value": "",
          "units": ""
        },
        "target": {
          "value": ""
        },
        "range": {
          "units": "",
          "maxIncrements": 1,
          "minValue": null,
          "minUnits": ""
        },
        "uses": {
          "autoDeductChargesCost": "1 + @sl",
          "self": {
            "value": 0,
            "maxFormula": "",
            "per": null
          },
          "per": null,
          "value": 0,
          "maxFormula": ""
        },
        "measureTemplate": {
          "type": "",
          "size": "",
          "overrideColor": false,
          "customColor": "",
          "overrideTexture": false,
          "customTexture": ""
        },
        "attackName": "",
        "actionType": "other",
        "attackBonus": "",
        "critConfirmBonus": "",
        "damage": {
          "parts": [],
          "critParts": [],
          "nonCritParts": []
        },
        "attackParts": [],
        "formulaicAttacks": {
          "count": {
            "formula": ""
          },
          "bonus": {
            "formula": ""
          },
          "label": null
        },
        "formula": "",
        "ability": {
          "attack": null,
          "damage": "",
          "damageMult": 1,
          "critRange": 20,
          "critMult": 2
        },
        "save": {
          "dc": "0",
          "type": "null",
          "description": ""
        },
        "effectNotes": [],
        "attackNotes": [],
        "soundEffect": "",
        "powerAttack": {
          "multiplier": "",
          "damageBonus": 2,
          "critMultiplier": 1
        },
        "naturalAttack": {
          "primaryAttack": true,
          "secondary": {
            "attackBonus": "-5",
            "damageMult": 0.5
          }
        },
        "nonlethal": false,
        "touch": false,
        "usesAmmo": false,
        "spellEffect": "",
        "spellArea": "",
        "conditionals": [],
        "enh": {
          "value": null
        }
      }
    ],
    "uses": {
      "per": null,
      "value": 0,
      "maxFormula": "",
      "autoDeductChargesCost": "1"
    },
    "attackNotes": [],
    "effectNotes": [],
    "links": {
      "children": []
    },
    "flags": {
      "boolean": {},
      "dictionary": {
        "summary": "Learn a the true name of a fiend"
      }
    },
    "scriptCalls": [],
    "learnedAt": {
      "class": {},
      "domain": {},
      "subDomain": {},
      "elementalSchool": {},
      "bloodline": {}
    },
    "level": 9,
    "clOffset": 0,
    "slOffset": 0,
    "school": "div",
    "subschool": "calling",
    "types": "evil",
    "components": {
      "value": "components",
      "verbal": false,
      "somatic": true,
      "thought": false,
      "emotion": false,
      "material": false,
      "focus": true,
      "divineFocus": 0
    },
    "castTime": "90 minutes",
    "materials": {
      "value": "",
      "focus": "the complete book of the damned or the diabolic book of the damned",
      "gpValue": 0
    },
    "spellbook": "",
    "preparation": {
      "preparedAmount": 0,
      "maxAmount": 0,
      "spontaneousPrepared": true
    },
    "atWill": false,
    "sr": false,
    "shortDescription": "<p><strong>Source</strong> <em>Book of the Damned pg. 193</em></p><p><strong>School</strong> divination; <strong>Level</strong> 9</p><p><strong>Casting Time</strong> 90 minutes</p><p><strong>Components</strong> S, F (the complete <em>Book of the Damned</em> or the diabolic <em>Book of the Damned</em>)</p><p><strong>Skill Checks</strong> Knowledge (planes) DC 33, 3 successes; Linguistics DC 33, 4 successes; Perception DC 33, 2 successes (these checks take a –4 penalty if the diabolic <em>Book of the Damned</em> is used as the ritual's focus)</p><p><strong>Range</strong> touch</p><p><strong>Duration</strong> instantaneous</p><p><strong>Saving Throw</strong> none; <strong>SR</strong> no</p><p><strong>Backlash</strong> The caster becomes exhausted.</p><p><strong>Failure</strong> The caster's own true name appears somewhere in a random document in a library located somewhere on Abaddon, in the Abyss, or in Hell. Once per year, at a time chosen by the GM (invariably at a time that is inconvenient to the caster), there is a percent chance equal to the number of times the caster's true name has appeared in such a document (1% per failed attempt to perform the manifest manifestation) that some other force discovers the caster's true name and uses it. Typically, this results in the caster being conjured elsewhere via powerful magic to perform services-at the GM's discretion, this could be played out, or the caster could simply return to his point of origin 4d6 hours later with 1d6 points of ability drain, 1d3 negative levels, a strange curse, or some other affliction but with no memories of how this affliction came to be. Removing one's name from these locations can be accomplished only via a significant quest.</p><h3 class=\"framing\">Effect</h3><p>When the caster begins the manifest manifestation ritual, he must have in mind a specific type of fiend to learn the true name of. If he seeks to learn the true name of a specific individual fiend or unique fiend, the DC of the skill checks for manifest manifestation increase by 5, and if he seeks to learn the true name of a fiendish demigod or quasi deity, all skill checks for manifest manifestation increase by 10. (In the latter case, the fiendish demigod or quasi deity's true name changes once the caster learns it, so this information is useful only once, and in the event of a failure, the demigod or quasi deity learns the caster's true name instead.) Once a creature's true name is divulged by the manifestation of the <em>Book of the Damned's</em> list of true names, the caster can use that information how he sees fit, but abuse of the information will likely have repercussions. For example, a caster who gains a reputation for spreading a powerful fiend's true name far and wide could find himself hunted by a wide range of powerful fiends, all eager to see the caster destroyed. Such reprisals rise not out of any sort of familial devotion to the inconvenienced fiend but purely from self-defense, for who is to say which fiend's true name might next be publicized by such a careless caster?</p>",
    "showInQuickbar": false,
    "domain": false,
    "slotCost": 1,
    "spellDuration": "",
    "spellEffect": "",
    "spellArea": "",
    "spellPoints": {
      "cost": "1 + @sl"
    }
  },
  "ownership": {
    "default": 0
  },
  "_stats": {
    "systemId": "pf1",
    "systemVersion": "9.1",
    "coreVersion": "10.291",
    "createdTime": 1665428381665,
    "modifiedTime": 1689797932225,
    "lastModifiedBy": "ppv91YxratjWnkJi"
  },
  "effects": [],
  "folder": null,
  "sort": 0,
  "_key": "!items!G5xBAA8MUlspPvFS"
}