{
  "_id": "AZNDfpL1MX99HG2h",
  "name": "Runelord Manifestation (Occult Ritual)",
  "type": "spell",
  "img": "systems/pf1/icons/skills/affliction_05.jpg",
  "flags": {
    "autoanimations": {
      "killAnim": false,
      "override": false,
      "animType": "t1",
      "animName": "",
      "bards": {
        "bardAnim": "a1",
        "bardTarget": true,
        "bardTargetAnim": "a1",
        "bardTargetColor": "a1",
        "bardSelf": true,
        "marker": true,
        "markerColor": "a1",
        "markerColorTarget": "a1"
      },
      "spellVar": "a1",
      "hmAnim": "a1",
      "color": "n1",
      "spellOptions": {
        "spellLoops": 1
      },
      "uaStrikeType": "physical",
      "dtvar": "dt1",
      "divineSmite": {
        "dsEnable": false,
        "dsSelf": true,
        "dsSelfDelay": 0,
        "dsSelfColor": "a1",
        "dsTarget": true,
        "dsTargetDelay": 1250,
        "dsTargetColor": "a1"
      },
      "explosion": false,
      "explodeVariant": "ev1",
      "explodeColor": "",
      "explodeRadius": "0",
      "explodeLoop": "1",
      "allSounds": {
        "explosion": {
          "audioExplodeEnabled": false,
          "file": "",
          "delay": 100,
          "volume": 25
        },
        "item": {
          "enableAudio": false,
          "file": "",
          "delay": 100,
          "volume": 25
        }
      },
      "selfRadius": "5",
      "animTint": "#ffffff",
      "auraOpacity": 0.75,
      "ctaOption": false,
      "teleDist": 30
    }
  },
  "system": {
    "description": {
      "value": "",
      "unidentified": ""
    },
    "tags": [],
    "actions": [
      {
        "_id": "0lv1u7lm55hajqeh",
        "name": "Use",
        "img": "systems/pf1/icons/skills/affliction_05.jpg",
        "description": "",
        "tag": "",
        "activation": {
          "cost": 1,
          "type": "standard",
          "unchained": {
            "cost": 2,
            "type": "action"
          }
        },
        "duration": {
          "value": "",
          "units": ""
        },
        "target": {
          "value": ""
        },
        "range": {
          "units": "",
          "maxIncrements": 1,
          "minValue": null,
          "minUnits": ""
        },
        "uses": {
          "autoDeductChargesCost": "1 + @sl",
          "self": {
            "value": 0,
            "maxFormula": "",
            "per": null
          },
          "per": null,
          "value": 0,
          "maxFormula": ""
        },
        "measureTemplate": {
          "type": "",
          "size": "",
          "overrideColor": false,
          "customColor": "",
          "overrideTexture": false,
          "customTexture": ""
        },
        "attackName": "",
        "actionType": "other",
        "attackBonus": "",
        "critConfirmBonus": "",
        "damage": {
          "parts": [],
          "critParts": [],
          "nonCritParts": []
        },
        "attackParts": [],
        "formulaicAttacks": {
          "count": {
            "formula": ""
          },
          "bonus": {
            "formula": ""
          },
          "label": null
        },
        "formula": "",
        "ability": {
          "attack": null,
          "damage": "",
          "damageMult": 1,
          "critRange": 20,
          "critMult": 2
        },
        "save": {
          "dc": "0",
          "type": "null",
          "description": ""
        },
        "effectNotes": [],
        "attackNotes": [],
        "soundEffect": "",
        "powerAttack": {
          "multiplier": "",
          "damageBonus": 2,
          "critMultiplier": 1
        },
        "naturalAttack": {
          "primaryAttack": true,
          "secondary": {
            "attackBonus": "-5",
            "damageMult": 0.5
          }
        },
        "nonlethal": false,
        "touch": false,
        "usesAmmo": false,
        "spellEffect": "",
        "spellArea": "",
        "conditionals": [],
        "enh": {
          "value": null
        }
      }
    ],
    "uses": {
      "per": null,
      "value": 0,
      "maxFormula": "",
      "autoDeductChargesCost": "1"
    },
    "attackNotes": [],
    "effectNotes": [],
    "links": {
      "children": []
    },
    "flags": {
      "boolean": {},
      "dictionary": {
        "summary": "As scrying, but the scrying sensor is a visable image of the primary caster"
      }
    },
    "scriptCalls": [],
    "learnedAt": {
      "class": {},
      "domain": {},
      "subDomain": {},
      "elementalSchool": {},
      "bloodline": {}
    },
    "level": 8,
    "clOffset": 0,
    "slOffset": 0,
    "school": "div",
    "subschool": "",
    "types": "curse, evil",
    "components": {
      "value": "components",
      "verbal": true,
      "somatic": true,
      "thought": false,
      "emotion": false,
      "material": true,
      "focus": true,
      "divineFocus": 0
    },
    "castTime": "80 minutes",
    "materials": {
      "value": "a pool of water",
      "focus": "a silver mirror worth 5,000 gp",
      "gpValue": 0
    },
    "spellbook": "",
    "preparation": {
      "preparedAmount": 0,
      "maxAmount": 0,
      "spontaneousPrepared": true
    },
    "atWill": false,
    "sr": false,
    "shortDescription": "<p><strong>Source</strong> <em>Pathfinder #135: Runeplague pg. 77</em></p><p><strong>School</strong> divination (scrying); <strong>Level</strong> 8</p><p><strong>Casting Time</strong> 80 minutes</p><p><strong>Components</strong> V, S, M (a pool of water), F (a silver mirror worth 5,000 gp), SC (up to 8)</p><p><strong>Skill Checks</strong> Knowledge (arcana) DC 28, 3 successes; Knowledge (planes) DC 28, 2 successes; Spellcraft DC 28, 3 successes</p><p><strong>Range</strong> primary caster</p><p><strong>Duration</strong> 1 minute/level of the primary caster (D)</p><p><strong>Saving Throw</strong> none; <strong>SR</strong> no</p><p><strong>Backlash</strong> The primary caster takes 2d6 points of damage and becomes exhausted.</p><p><strong>Failure</strong> All casters gain a temporary negative level (DC = 16 + the primary caster's Charisma bonus to remove the negative level after the first day), and the primary caster takes a –4 penalty to resist all scrying effects for 1 week.</p><h3 class=\"framing\">Effect</h3><p>The ritual allows the primary caster to observe an area at any distance, as per <em></em>, except that the sensor created for this scrying effect is an enormous visible image of the primary caster in the air above the area (even if the area viewed is indoors or underground) that cannot be dispelled. This image can take any form that the primary caster desires, such as an exact replica or a shape formed from shadows or clouds, but the image is always recognizable as the primary caster. The primary caster can speak to any creatures in the area with a loud voice that emanates from the image. The following spells function reliably through the sensor: <em>detect chaos</em>, <em>detect evil</em>, <em>detect good</em>, <em>detect law</em>, <em>detect magic</em>, <em>detect thoughts</em>, <em>message</em>, <em>read magic</em>, <em>tongues</em>, and <em>true seeing</em>. Any other spell requires a successful concentration check to function through the image (DC = 20 + double the level of the spell); on a failure, the spell is lost.</p>",
    "showInQuickbar": false,
    "domain": false,
    "slotCost": 1,
    "spellDuration": "",
    "spellEffect": "",
    "spellArea": "",
    "spellPoints": {
      "cost": "1 + @sl"
    }
  },
  "ownership": {
    "default": 0
  },
  "_stats": {
    "systemId": "pf1",
    "systemVersion": "9.1",
    "coreVersion": "10.291",
    "createdTime": 1665428381652,
    "modifiedTime": 1689797932142,
    "lastModifiedBy": "ppv91YxratjWnkJi"
  },
  "effects": [],
  "folder": null,
  "sort": 0,
  "_key": "!items!AZNDfpL1MX99HG2h"
}