{
  "_id": "UMX5P8V29EnLvVtf",
  "name": "Anulite Paprika",
  "type": "consumable",
  "img": "icons/commodities/materials/bowl-powder-yellow.webp",
  "system": {
    "description": {
      "value": "<p><strong>Source</strong> <em>Merchant's Manifest pg. 7</em><br/><strong>Price</strong> 3 gp; <strong>Weight</strong> -<br/><strong>Category</strong> Food/Drink</p><h2 class=\"framing\"><img src=\"modules/pf-content/assets/PathfinderSocietySymbol.gif\" style=\"margin:3px 3px 0px 3px;\" title=\"PFS Legal\"/>Description</h2><p>Although Anulites make great use of foreign spices, Anulite paprika is perhaps the most popular in the city, especially among the wealthy. This bright red seasoning is used in all manner of seafood and vegetable dishes, imparting the heat greatly treasured in Anulite cuisine. Consuming a meal seasoned with Anulite paprika grants you some resistance against flames, reducing the amount of damage taken each round when you have caught on fire by 1. This benefit lasts for 8 hours and does not stack with itself.<br/><br/> The price and weight listed represent a jar containing enough paprika to season 10 meals.</p>",
      "unidentified": ""
    },
    "tags": [],
    "quantity": 1,
    "weight": {
      "value": 0
    },
    "price": 3,
    "size": "med",
    "equipped": true,
    "resizing": false,
    "identified": true,
    "hp": {
      "max": 10,
      "value": 10
    },
    "broken": false,
    "hardness": 0,
    "carried": true,
    "unidentified": {
      "price": 0,
      "name": ""
    },
    "cl": 0,
    "aura": {
      "custom": false,
      "school": ""
    },
    "actions": [],
    "uses": {
      "per": null,
      "value": 0,
      "maxFormula": "",
      "pricePerUse": 0,
      "autoDeductChargesCost": "1"
    },
    "attackNotes": [],
    "effectNotes": [],
    "links": {
      "children": [],
      "charges": []
    },
    "tag": "anulitePaprika",
    "useCustomTag": false,
    "flags": {
      "boolean": {},
      "dictionary": {
        "Category": "Food/Drink"
      }
    },
    "scriptCalls": [],
    "subType": "misc",
    "showInQuickbar": false
  },
  "ownership": {
    "default": 0
  },
  "_stats": {
    "systemId": "pf1",
    "systemVersion": "9.1",
    "coreVersion": "10.291",
    "createdTime": 1665428364344,
    "modifiedTime": 1689797907201,
    "lastModifiedBy": "ppv91YxratjWnkJi"
  },
  "effects": [],
  "folder": null,
  "sort": 0,
  "flags": {},
  "_key": "!items!UMX5P8V29EnLvVtf"
}