{
  "_id": "o0WvViW7zOhEfgPu",
  "name": "Apprentice Chapbook of Rul Thaven (Spellbook, Level 2 Diviner)",
  "type": "loot",
  "img": "icons/sundries/books/book-worn-brown.webp",
  "system": {
    "description": {
      "value": "<p><strong>Source</strong> <em>Ultimate Magic pg. 121</em><br/><em>This slim book is carefully but amateurishly bound, with leather stretched tight across thin boards. The writing inside is fussy and crammed together, with words that are occasionally illegible. Eight of its pages contain spells; the final 10 pages are blank. A portrait of a plain woman, unsmiling, has been bound into the inside front cover.</em><br/><strong>Opposition</strong> Illusion, transmutation<br/><strong>Value</strong> 195 gp ( gp with the preparation ritual)</p><h2 class=\"framing\">Spells</h2><p>1st-<em>comprehend languages</em><sub>S</sub>, <em>detect secret doors</em><sub>S</sub>, <em>detect undead</em><sub>S</sub>, <em>identify</em><sub>S</sub>, <em>protection from evil</em>, <em>protection from law</em>, <em>summon monster I</em>, <em>true strike</em><sub>S</sub></p>",
      "unidentified": ""
    },
    "tags": [],
    "quantity": 1,
    "weight": {
      "value": 5
    },
    "price": 195,
    "size": "med",
    "equipped": false,
    "resizing": false,
    "identified": true,
    "hp": {
      "max": 10,
      "value": 10
    },
    "broken": false,
    "hardness": 0,
    "carried": true,
    "unidentified": {
      "price": 0,
      "name": ""
    },
    "cl": 0,
    "aura": {
      "custom": false,
      "school": ""
    },
    "changes": [],
    "changeFlags": {
      "loseDexToAC": false,
      "noEncumbrance": false,
      "mediumArmorFullSpeed": false,
      "heavyArmorFullSpeed": false
    },
    "contextNotes": [],
    "links": {
      "children": []
    },
    "tag": "apprenticeChapbookOfRulThavenSpellbookLevel2Diviner",
    "useCustomTag": false,
    "flags": {
      "boolean": {},
      "dictionary": {
        "Category": "Spellbooks"
      }
    },
    "scriptCalls": [],
    "subType": "gear",
    "extraType": "",
    "uses": {
      "value": 0,
      "max": 0
    }
  },
  "ownership": {
    "default": 0
  },
  "_stats": {
    "systemId": "pf1",
    "systemVersion": "9.1",
    "coreVersion": "10.291",
    "createdTime": 1665428364521,
    "modifiedTime": 1689793668770,
    "lastModifiedBy": "ppv91YxratjWnkJi"
  },
  "effects": [],
  "folder": null,
  "sort": 0,
  "flags": {},
  "_key": "!items!o0WvViW7zOhEfgPu"
}