{
  "_id": "y2qfQQDdpPRnf0aU",
  "name": "Aquarium ball",
  "type": "loot",
  "img": "icons/commodities/materials/glass-orb-blue.webp",
  "system": {
    "description": {
      "value": "<p><strong>Source</strong> <em>Familiar Folio pg. 20</em><br/><strong>Price</strong> 80 gp; <strong>Weight</strong> 20 lbs.<br/><strong>Category</strong> Animal Gear</p><h2 class=\"framing\"><img src=\"modules/pf-content/assets/PathfinderSocietySymbol.gif\" style=\"margin:3px 3px 0px 3px;\" title=\"PFS Legal\"/>Description</h2><p>This clear, 1-inch-thick glass orb is the size of a large melon and hangs from a thick chain. It can hold up to 2 gallons of freshwater or saltwater, allowing it to house aquatic creatures such as fish or frogs. The cap near the top of the ball can be unscrewed for access. One Tiny creature or two Diminutive creatures can fit comfortably into an aquarium ball. The water within the orb must be changed daily in order to keep the creatures within alive. Otherwise, the inhabitants begin to slowly suffocate (see page 445 of the <em>Pathfinder RPG Core Rulebook</em>).</p>",
      "unidentified": ""
    },
    "tags": [],
    "quantity": 1,
    "weight": {
      "value": 20
    },
    "price": 80,
    "size": "med",
    "equipped": false,
    "resizing": false,
    "identified": true,
    "hp": {
      "max": 10,
      "value": 10
    },
    "broken": false,
    "hardness": 0,
    "carried": true,
    "unidentified": {
      "price": 0,
      "name": ""
    },
    "cl": 0,
    "aura": {
      "custom": false,
      "school": ""
    },
    "changes": [],
    "changeFlags": {
      "loseDexToAC": false,
      "noEncumbrance": false,
      "mediumArmorFullSpeed": false,
      "heavyArmorFullSpeed": false
    },
    "contextNotes": [],
    "links": {
      "children": []
    },
    "tag": "aquariumBall",
    "useCustomTag": false,
    "flags": {
      "boolean": {},
      "dictionary": {
        "Category": "Animal Gear"
      }
    },
    "scriptCalls": [],
    "subType": "gear",
    "extraType": "",
    "uses": {
      "value": 0,
      "max": 0
    }
  },
  "ownership": {
    "default": 0
  },
  "_stats": {
    "systemId": "pf1",
    "systemVersion": "9.1",
    "coreVersion": "10.291",
    "createdTime": 1665428364744,
    "modifiedTime": 1689793669105,
    "lastModifiedBy": "ppv91YxratjWnkJi"
  },
  "effects": [],
  "folder": null,
  "sort": 0,
  "flags": {},
  "_key": "!items!y2qfQQDdpPRnf0aU"
}