{
  "_id": "dcfDWQqRoYxilMzn",
  "name": "Arctic Call (Spellbook, Level 11 Evoker)",
  "type": "loot",
  "img": "icons/sundries/books/book-worn-brown.webp",
  "system": {
    "description": {
      "value": "<p><strong>Source</strong> <em>Ultimate Magic pg. 124</em><br/><em>Fine vellum sheets fill these two well-worn books. Beautiful illustrations depict the effects of each spell, many with a distinctly arctic theme. Though the pages and their wintry illustrations are of high quality, the protective leather case that encloses both books smells and feels greasy, as if the hide has been crudely waterproofed with animal fat.</em><br/><strong>Opposition</strong> Illusion, necromancy<br/><strong>Protection</strong> <em>fire trap</em> modified to inflict cold damage (Reflex DC 17)<br/><strong>Value</strong> 4,335 gp (5,985 gp with the preparation ritual)</p><h2 class=\"framing\">Spells</h2><p>p>6th-<em>contingency</em><sub>S</sub>, <em>freezing sphere</em><sub>S</sub>, <em>repulsion</em><br/>5th-<em>cone of cold</em><sub>S</sub>, <em>mage's private sanctum</em>, <em>permanency</em>, <em>teleport</em>, <em>wall of force</em><sub>S</sub><br/>4th-<em>ice storm</em><sub>S</sub>, <em>shout</em><sub>S</sub>, <em>stoneskin</em>, <em>symbol of revelation</em>, <em>wall of ice</em><sub>S</sub><br/>3rd-<em>arcane sight</em>, <em>dispel magic</em>, <em>elemental aura</em><sub>S</sub>, <em>fire trap</em>, <em>heroism</em>, <em>lightning bolt</em><sub>S</sub>, <em>phantom steed</em>, <em>seek thoughts</em><br/>2nd-<em>bull's strength</em>, <em>false life</em><sub>OP</sub>, <em>glitterdust</em>, <em>hideous laughter</em>, <em>make whole</em>, <em>resist energy</em>, <em>rope trick</em><br/> 1st-<em>detect secret doors</em>, <em>endure elements</em>, <em>enlarge person</em>, <em>feather fall</em>, <em>mage armor</em>, <em>magic missile<sub>S</sub>, <em>obscuring mist</em>, <em>shield</em>, <em>shocking grasp</em><sub>S</sub></p><h2 class=\"framing\">Ritual</h2><p><strong>Rime Bite (Su)</strong> You infuse your spell with a biting cold that few can withstand. Spend this boon as a free action when you cast a spell with the cold descriptor. Any damage from that spell ignores all resistance to cold, but does not ignore immunity to cold.</em></p>",
      "unidentified": ""
    },
    "tags": [],
    "quantity": 1,
    "weight": {
      "value": 5
    },
    "price": 5985,
    "size": "med",
    "equipped": false,
    "resizing": false,
    "identified": true,
    "hp": {
      "max": 10,
      "value": 10
    },
    "broken": false,
    "hardness": 0,
    "carried": true,
    "unidentified": {
      "price": 0,
      "name": ""
    },
    "cl": 0,
    "aura": {
      "custom": false,
      "school": ""
    },
    "changes": [],
    "changeFlags": {
      "loseDexToAC": false,
      "noEncumbrance": false,
      "mediumArmorFullSpeed": false,
      "heavyArmorFullSpeed": false
    },
    "contextNotes": [],
    "links": {
      "children": []
    },
    "tag": "arcticCallSpellbookLevel11Evoker",
    "useCustomTag": false,
    "flags": {
      "boolean": {},
      "dictionary": {
        "Category": "Spellbooks"
      }
    },
    "scriptCalls": [],
    "subType": "gear",
    "extraType": "",
    "uses": {
      "value": 0,
      "max": 0
    }
  },
  "ownership": {
    "default": 0
  },
  "_stats": {
    "systemId": "pf1",
    "systemVersion": "9.1",
    "coreVersion": "10.291",
    "createdTime": 1665428364433,
    "modifiedTime": 1689793668545,
    "lastModifiedBy": "ppv91YxratjWnkJi"
  },
  "effects": [],
  "folder": null,
  "sort": 0,
  "flags": {},
  "_key": "!items!dcfDWQqRoYxilMzn"
}