{
  "_id": "Kpy6Hvo1j8xn0sDf",
  "name": "Bat, Dire (Riding, Combat Trained)",
  "type": "loot",
  "img": "icons/commodities/biological/wing-bat-pink.webp",
  "system": {
    "description": {
      "value": "<p><strong>Source</strong> <em>Ultimate Equipment pg. 81</em>, <em>Advanced Race Guide pg. 105</em><br/><strong>Price</strong> 220 gp (common), <img src=\"modules/pf-content/assets/PathfinderSocietySymbolN.gif\" style=\"margin:3px 3px 0px 3px;\" title=\"A PC can only purchase an animal, mount, or similar creature if its Challenge Rating is lower than that character's level; creatures with a Challenge Rating of 1 or lower are exempt from this restriction, as are horses.\"/> 300 gp (riding), <img src=\"modules/pf-content/assets/PathfinderSocietySymbolN.gif\" style=\"margin:3px 3px 0px 3px;\" title=\"A PC can only purchase an animal, mount, or similar creature if its Challenge Rating is lower than that character's level; creatures with a Challenge Rating of 1 or lower are exempt from this restriction, as are horses.\"/> 450 gp (riding, combat trained); <strong>Weight</strong> - (common), 400 lbs. (riding), 450 lbs. (riding, combat trained)</p><h2 class=\"framing\">Description</h2><p><em>Description from \"Dire Animals\" section of Animal Archive, page 15.</em><br/>These feral beasts are all but untamable, and are typically only sought out by violent brawlers or cruel lords, either for brutish protection or to pit against equally vicious creatures in violent animal fights. At the GM's discretion, PCs who acquire dire animals may be required to attempt wild empathy or Handle Animal checks every day to keep their pets from running away or attacking them and their allies. Dire animals are not generally suitable as mounts, though the GM may make exceptions at her discretion.Considered to be the fastest nonmagical transport in cavernous underground realms, dire bats (<em>Bestiary 30</em>) are domesticated in captivity to serve as riding animals. Stables that accommodate these massive creatures are only commonly found in cities built in larger underground caverns, owing to the greater space required for training and exercise, though the outriders of some subterranean races fly them almost to the surface. These creatures require exotic saddles to ride.</p>",
      "unidentified": ""
    },
    "tags": [],
    "quantity": 1,
    "weight": {
      "value": 450
    },
    "price": 450,
    "size": "med",
    "equipped": false,
    "resizing": false,
    "identified": true,
    "hp": {
      "max": 10,
      "value": 10
    },
    "broken": false,
    "hardness": 0,
    "carried": true,
    "unidentified": {
      "price": 0,
      "name": ""
    },
    "cl": 0,
    "aura": {
      "custom": false,
      "school": ""
    },
    "changes": [],
    "changeFlags": {
      "loseDexToAC": false,
      "noEncumbrance": false,
      "mediumArmorFullSpeed": false,
      "heavyArmorFullSpeed": false
    },
    "contextNotes": [],
    "links": {
      "children": []
    },
    "tag": "batDireRidingCombatTrained",
    "useCustomTag": false,
    "flags": {
      "boolean": {},
      "dictionary": {
        "Category": "Mounts/Pets"
      }
    },
    "scriptCalls": [],
    "subType": "misc",
    "extraType": "",
    "uses": {
      "value": 0,
      "max": 0
    }
  },
  "ownership": {
    "default": 0
  },
  "_stats": {
    "systemId": "pf1",
    "systemVersion": "9.1",
    "coreVersion": "10.291",
    "createdTime": 1665428364140,
    "modifiedTime": 1689793667961,
    "lastModifiedBy": "ppv91YxratjWnkJi"
  },
  "effects": [],
  "folder": null,
  "sort": 0,
  "flags": {},
  "_key": "!items!Kpy6Hvo1j8xn0sDf"
}