{
  "_id": "uc7fijeMvJyEM8po",
  "name": "Cage (Small or Medium)",
  "type": "loot",
  "img": "systems/pf1/icons/items/inventory/cage.jpg",
  "system": {
    "description": {
      "value": "<p><strong>Source</strong> <em>Ultimate Equipment pg. 81</em>, <em>Advanced Player's Guide pg. 185</em>, <em>Adventurer's Armory pg. 19</em><br/><strong>Price</strong> <img src=\"modules/pf-content/assets/PathfinderSocietySymbol.gif\" style=\"margin:3px 3px 0px 3px;\" title=\"PFS Legal\"/> 10 gp (Diminutive or Fine), <img src=\"modules/pf-content/assets/PathfinderSocietySymbol.gif\" style=\"margin:3px 3px 0px 3px;\" title=\"PFS Legal\"/> 60 gp (Huge), <img src=\"modules/pf-content/assets/PathfinderSocietySymbol.gif\" style=\"margin:3px 3px 0px 3px;\" title=\"PFS Legal\"/> 30 gp (Large), <img src=\"modules/pf-content/assets/PathfinderSocietySymbol.gif\" style=\"margin:3px 3px 0px 3px;\" title=\"PFS Legal\"/> 15 gp (Small or Medium), <img src=\"modules/pf-content/assets/PathfinderSocietySymbol.gif\" style=\"margin:3px 3px 0px 3px;\" title=\"PFS Legal\"/> 2 gp (Tiny); <strong>Weight</strong> 2 lbs. (Diminutive or Fine), 960 lbs. (Huge), 240 lbs. (Large), 60 lbs. (Small or Medium), 5 lbs. (Tiny)</p><h2 class=\"framing\">Description</h2><p>This secure, portable enclosure is used to hold creatures- generally animals, but a large enough cage can hold anything. Cages are made from iron, wood, or bamboo, depending on local customs and available materials. One cage holds one animal of that size, or five animals of a smaller size. The weight of the creature adds to the weight of the cage. Cages come in the following sizes: Diminutive or Fine, Tiny, Small, Medium, Large, and Huge. Cages for aquatic creatures cost twice as much, and weigh four times the normal weight when filled with water.</p>",
      "unidentified": ""
    },
    "tags": [],
    "quantity": 1,
    "weight": {
      "value": 60
    },
    "price": 15,
    "size": "med",
    "equipped": false,
    "resizing": false,
    "identified": true,
    "hp": {
      "max": 10,
      "value": 10
    },
    "broken": false,
    "hardness": 0,
    "carried": true,
    "unidentified": {
      "price": 0,
      "name": ""
    },
    "cl": 0,
    "aura": {
      "custom": false,
      "school": ""
    },
    "changes": [],
    "changeFlags": {
      "loseDexToAC": false,
      "noEncumbrance": false,
      "mediumArmorFullSpeed": false,
      "heavyArmorFullSpeed": false
    },
    "contextNotes": [],
    "links": {
      "children": []
    },
    "tag": "cageSmallOrMedium",
    "useCustomTag": false,
    "flags": {
      "boolean": {},
      "dictionary": {
        "Category": "Animal Gear"
      }
    },
    "scriptCalls": [],
    "subType": "gear",
    "extraType": "",
    "uses": {
      "value": 0,
      "max": 0
    }
  },
  "ownership": {
    "default": 0
  },
  "_stats": {
    "systemId": "pf1",
    "systemVersion": "9.1",
    "coreVersion": "10.291",
    "createdTime": 1665428364593,
    "modifiedTime": 1689793668924,
    "lastModifiedBy": "ppv91YxratjWnkJi"
  },
  "effects": [],
  "folder": null,
  "sort": 0,
  "flags": {},
  "_key": "!items!uc7fijeMvJyEM8po"
}