{
  "_id": "s4MUDLlCeQ41iAbn",
  "name": "Cold Irony (Spellbook, Level 15 Bard)",
  "type": "loot",
  "img": "icons/sundries/books/book-worn-brown.webp",
  "system": {
    "description": {
      "value": "<p><strong>Source</strong> <em>Arcane Anthology pg. 24</em><br/><em>Bound in thin sheets of iron, this book is designed as a series of treatises on divination, information gathering, and rhetoric. The thoughts and notes are so complete as to qualify as a spellbook for the spells listed, despite the fact the author was a bard with no need for a spellbook.</em><br/><strong>Value</strong> 2,420 gp (2,795 gp with the preparation ritual)</p><h2 class=\"framing\"><img src=\"modules/pf-content/assets/PathfinderSocietySymbolN.gif\" style=\"margin:3px 3px 0px 3px;\" title=\"These spellbooks do not allow access to otherwise banned spells.\"/>Spells</h2><p>p>5th-<em>foe to friend</em><sup>APG</sup>, <em>greater heroism</em>, <em>song of discord</em>, <em>unwilling shield</em><sup>APG</sup><br/> 4th-<em>break enchantment</em>, <em>detect scrying</em>, <em>dominate person</em>, <em>foretell failure</em><br/> 3rd-<em>blink</em>, <em>find fault</em>, <em>glibness</em>, <em>haste</em>, <em>reviving finale</em><sup>APG</sup><br/> 2nd-<em>cure moderate wounds</em>, <em>gallant inspiration</em><sup>APG</sup>, <em>hold person</em>, <em>locate object</em>, <em>misdirection</em>, <em>perfect placement</em><br/> 1st-<em>expeditious retreat</em>, <em>memory lapse</em><sup>APG</sup>, <em>moment of greatness</em>, <em>obscure object</em>, <em>undetectable alignment</em>, <em>vanish</em></p><h2 class=\"framing\">Ritual</h2><p><strong>Brain Wash (Su)</strong> You combine magic and skill to masterfully manipulate your subjects. You can expend this boon when you cast a spell on a creature you have succeeded at a Bluff, Diplomacy, Knowledge, or Sense Motive check against. You cast that spell at +1 caster level and its save DC increases by 1.</p>",
      "unidentified": ""
    },
    "tags": [],
    "quantity": 1,
    "weight": {
      "value": 5
    },
    "price": 2795,
    "size": "med",
    "equipped": false,
    "resizing": false,
    "identified": true,
    "hp": {
      "max": 10,
      "value": 10
    },
    "broken": false,
    "hardness": 0,
    "carried": true,
    "unidentified": {
      "price": 0,
      "name": ""
    },
    "cl": 0,
    "aura": {
      "custom": false,
      "school": ""
    },
    "changes": [],
    "changeFlags": {
      "loseDexToAC": false,
      "noEncumbrance": false,
      "mediumArmorFullSpeed": false,
      "heavyArmorFullSpeed": false
    },
    "contextNotes": [],
    "links": {
      "children": []
    },
    "tag": "coldIronySpellbookLevel15Bard",
    "useCustomTag": false,
    "flags": {
      "boolean": {},
      "dictionary": {
        "Category": "Spellbooks"
      }
    },
    "scriptCalls": [],
    "subType": "gear",
    "extraType": "",
    "uses": {
      "value": 0,
      "max": 0
    }
  },
  "ownership": {
    "default": 0
  },
  "_stats": {
    "systemId": "pf1",
    "systemVersion": "9.1",
    "coreVersion": "10.291",
    "createdTime": 1665428364562,
    "modifiedTime": 1689793668868,
    "lastModifiedBy": "ppv91YxratjWnkJi"
  },
  "effects": [],
  "folder": null,
  "sort": 0,
  "flags": {},
  "_key": "!items!s4MUDLlCeQ41iAbn"
}