{
  "_id": "c0q6gtvLGXMAkWJz",
  "name": "Commissioned broadsheet (setup and proof print)",
  "type": "loot",
  "img": "icons/sundries/documents/document-official-capital.webp",
  "system": {
    "description": {
      "value": "<p><strong>Source</strong> <em>Merchant's Manifest pg. 5</em><br/><strong>Price</strong> 150 gp (print run (500 broadsheets)), 50 gp (setup and proof print); <strong>Weight</strong> - (print run (500 broadsheets)), - (setup and proof print)</p><h2 class=\"framing\">Description</h2><p>It takes 2 to 4 weeks for printers reproducing large images or those who have only engraved-plate printing presses to prepare the plate for a commissioned broadsheet. Printers with movable-type printing presses can prepare a text-only broadsheet in as little as 4 hours. Once the setup is complete (which includes a proof print), the printer can produce up to 500 copies of the broadsheet daily (about 60 per hour). A commissioned broadsheet can be used to spread a rumor requiring the author to attempt any necessary skill checks. The author takes a -8 penalty on these checks because the broadsheet cannot provide vocal or nonverbal cues, but if he's successful, spreading the rumor takes only 1d4 days (or 1 day, if smaller than a small town). If the broadsheets are delivered by trained criers or others attempting to spread the rumor, use the propaganda check result of either the author or the crier (whichever is higher) with a +2 bonus.</p>",
      "unidentified": ""
    },
    "tags": [],
    "quantity": 1,
    "weight": {
      "value": 0
    },
    "price": 50,
    "size": "med",
    "equipped": false,
    "resizing": false,
    "identified": true,
    "hp": {
      "max": 10,
      "value": 10
    },
    "broken": false,
    "hardness": 0,
    "carried": true,
    "unidentified": {
      "price": 0,
      "name": ""
    },
    "cl": 0,
    "aura": {
      "custom": false,
      "school": ""
    },
    "changes": [],
    "changeFlags": {
      "loseDexToAC": false,
      "noEncumbrance": false,
      "mediumArmorFullSpeed": false,
      "heavyArmorFullSpeed": false
    },
    "contextNotes": [],
    "links": {
      "children": []
    },
    "tag": "commissionedBroadsheetSetupAndProofPrint",
    "useCustomTag": false,
    "flags": {
      "boolean": {},
      "dictionary": {
        "Category": "Lodging/Services"
      }
    },
    "scriptCalls": [],
    "subType": "tradeGoods",
    "extraType": "",
    "uses": {
      "value": 0,
      "max": 0
    }
  },
  "ownership": {
    "default": 0
  },
  "_stats": {
    "systemId": "pf1",
    "systemVersion": "9.1",
    "coreVersion": "10.291",
    "createdTime": 1665428364419,
    "modifiedTime": 1689793668509,
    "lastModifiedBy": "ppv91YxratjWnkJi"
  },
  "effects": [],
  "folder": null,
  "sort": 0,
  "flags": {},
  "_key": "!items!c0q6gtvLGXMAkWJz"
}