{
  "_id": "ooDSmhrsCPudIgKZ",
  "name": "Dwarven Stout (Mug)",
  "type": "consumable",
  "img": "systems/pf1/icons/items/inventory/tankard-full.jpg",
  "system": {
    "description": {
      "value": "<p><strong>Source</strong> <em>Ultimate Equipment pg. 95</em>, <em>Adventurer's Armory pg. 19</em><br/><strong>Price</strong> 4 cp; <strong>Weight</strong> 1/2 lb.<br/><strong>Category</strong> Food/Drink</p><h2 class=\"framing\"><img src=\"modules/pf-content/assets/PathfinderSocietySymbol.gif\" style=\"margin:3px 3px 0px 3px;\" title=\"PFS Legal\"/>Description</h2><p>More a family of beers than one single drink, dwarven stout is known by different names in human lands. Dwarven stouts are dark beers characterized by a slightly burnt flavor and a foamy head; they are said to be as filling as a meal. Most dwarven clans use a recipe unique to that clan, and family rivalries over the best brew may date back for hundreds of years.</p>",
      "unidentified": ""
    },
    "tags": [],
    "quantity": 1,
    "weight": {
      "value": 0.5
    },
    "price": 0.04,
    "size": "med",
    "equipped": true,
    "resizing": false,
    "identified": true,
    "hp": {
      "max": 10,
      "value": 10
    },
    "broken": false,
    "hardness": 0,
    "carried": true,
    "unidentified": {
      "price": 0,
      "name": ""
    },
    "cl": 0,
    "aura": {
      "custom": false,
      "school": ""
    },
    "actions": [],
    "uses": {
      "per": null,
      "value": 0,
      "maxFormula": "",
      "pricePerUse": 0,
      "autoDeductChargesCost": "1"
    },
    "attackNotes": [],
    "effectNotes": [],
    "links": {
      "children": [],
      "charges": []
    },
    "tag": "dwarvenStoutMug",
    "useCustomTag": false,
    "flags": {
      "boolean": {},
      "dictionary": {
        "Category": "Food/Drink"
      }
    },
    "scriptCalls": [],
    "subType": "misc",
    "showInQuickbar": false
  },
  "ownership": {
    "default": 0
  },
  "_stats": {
    "systemId": "pf1",
    "systemVersion": "9.1",
    "coreVersion": "10.291",
    "createdTime": 1665428364536,
    "modifiedTime": 1689797907713,
    "lastModifiedBy": "ppv91YxratjWnkJi"
  },
  "effects": [],
  "folder": null,
  "sort": 0,
  "flags": {},
  "_key": "!items!ooDSmhrsCPudIgKZ"
}