{
  "_id": "jWeKKU3uEe2uOu3R",
  "name": "Elephant",
  "type": "loot",
  "img": "icons/commodities/biological/foot-black-grey.webp",
  "system": {
    "description": {
      "value": "<p><strong>Source</strong> <em>Ultimate Equipment pg. 81</em>, <em>Adventurer's Armory pg. 19</em><br/><strong>Price</strong> 1,000 gp; <strong>Weight</strong> 5 tons<br/><strong>Category</strong> Mounts/Pets</p><h2 class=\"framing\">Description</h2><p>These Huge animals are exceptionally strong and are quick learners. Some cultures train them for battle or labor. Most known elephants come from savannas or vast rainforest regions. They eat so much that housing them outside of their native environment is expensive. More information on elephants can be found in the <em>Bestiary</em>.</p>",
      "unidentified": ""
    },
    "tags": [],
    "quantity": 1,
    "weight": {
      "value": 10000
    },
    "price": 1000,
    "size": "med",
    "equipped": false,
    "resizing": false,
    "identified": true,
    "hp": {
      "max": 10,
      "value": 10
    },
    "broken": false,
    "hardness": 0,
    "carried": true,
    "unidentified": {
      "price": 0,
      "name": ""
    },
    "cl": 0,
    "aura": {
      "custom": false,
      "school": ""
    },
    "changes": [],
    "changeFlags": {
      "loseDexToAC": false,
      "noEncumbrance": false,
      "mediumArmorFullSpeed": false,
      "heavyArmorFullSpeed": false
    },
    "contextNotes": [],
    "links": {
      "children": []
    },
    "tag": "elephant",
    "useCustomTag": false,
    "flags": {
      "boolean": {},
      "dictionary": {
        "Category": "Mounts/Pets"
      }
    },
    "scriptCalls": [],
    "subType": "misc",
    "extraType": "",
    "uses": {
      "value": 0,
      "max": 0
    }
  },
  "ownership": {
    "default": 0
  },
  "_stats": {
    "systemId": "pf1",
    "systemVersion": "9.1",
    "coreVersion": "10.291",
    "createdTime": 1665428364483,
    "modifiedTime": 1689793668680,
    "lastModifiedBy": "ppv91YxratjWnkJi"
  },
  "effects": [],
  "folder": null,
  "sort": 0,
  "flags": {},
  "_key": "!items!jWeKKU3uEe2uOu3R"
}