{
  "_id": "cMI298U5lgCDcbYk",
  "name": "Flying straps (masterwork)",
  "type": "loot",
  "img": "systems/pf1/icons/items/inventory/ribbon-yellow.jpg",
  "system": {
    "description": {
      "value": "<p><strong>Source</strong> <em>Monster Codex pg. 105</em><br/><strong>Price</strong> <img src=\"modules/pf-content/assets/PathfinderSocietySymbolN.gif\" style=\"margin:3px 3px 0px 3px;\" title=\"Legal only for Goblin PCs\"/> 80 gp (masterwork), <img src=\"modules/pf-content/assets/PathfinderSocietySymbolN.gif\" style=\"margin:3px 3px 0px 3px;\" title=\"Legal only for Goblin PCs\"/> 10 gp (standard); <strong>Weight</strong> 10 lbs. (masterwork), 10 lbs. (standard)</p><h2 class=\"framing\">Description</h2><p>These crude straps are used to secure a goblin or other small creature to the underside of a dire bat (<em>Pathfinder RPG Bestiary</em> 30) or giant vulture (<em>Pathfinder RPG Bestiary 3</em> 284). These straps count as an exotic riding saddle. If the mount fails a Fly check, there's a 50% chance the straps break and the rider falls. Masterwork flying straps count as an exotic military saddle, and don't have a chance to break if the mount fails a Fly check.</p>",
      "unidentified": ""
    },
    "tags": [],
    "quantity": 1,
    "weight": {
      "value": 11
    },
    "price": 10,
    "size": "med",
    "equipped": false,
    "resizing": false,
    "identified": true,
    "hp": {
      "max": 10,
      "value": 10
    },
    "broken": false,
    "hardness": 0,
    "carried": true,
    "unidentified": {
      "price": 0,
      "name": ""
    },
    "cl": 0,
    "aura": {
      "custom": false,
      "school": ""
    },
    "changes": [],
    "changeFlags": {
      "loseDexToAC": false,
      "noEncumbrance": false,
      "mediumArmorFullSpeed": false,
      "heavyArmorFullSpeed": false
    },
    "contextNotes": [],
    "links": {
      "children": []
    },
    "tag": "flyingStrapsMasterwork",
    "useCustomTag": false,
    "flags": {
      "boolean": {},
      "dictionary": {
        "Category": "Animal Gear"
      }
    },
    "scriptCalls": [],
    "subType": "gear",
    "extraType": "",
    "uses": {
      "value": 0,
      "max": 0
    }
  },
  "ownership": {
    "default": 0
  },
  "_stats": {
    "systemId": "pf1",
    "systemVersion": "9.1",
    "coreVersion": "10.291",
    "createdTime": 1665428364421,
    "modifiedTime": 1689793668512,
    "lastModifiedBy": "ppv91YxratjWnkJi"
  },
  "effects": [],
  "folder": null,
  "sort": 0,
  "flags": {},
  "_key": "!items!cMI298U5lgCDcbYk"
}