{
  "_id": "mRyhaTsJz8OLYa6A",
  "name": "Gorthek saddle",
  "type": "loot",
  "img": "icons/commodities/leather/leather-studded-tan.webp",
  "system": {
    "description": {
      "value": "<p><strong>Source</strong> <em>Monster Codex pg. 164</em><br/><strong>Price</strong> 50 gp; <strong>Weight</strong> 75 lbs.<br/><strong>Category</strong> Animal Gear</p><h2 class=\"framing\">Description</h2><p>This unusual seat is designed so that an orc handler can sit astride a gorthek mount. Large leather straps loop around the beast's chest and neck to hold the seat in place. The saddle includes straps that drape over the orc's shoulders to help her stay mounted during violent collisions.</p>",
      "unidentified": ""
    },
    "tags": [],
    "quantity": 1,
    "weight": {
      "value": 75
    },
    "price": 50,
    "size": "med",
    "equipped": false,
    "resizing": false,
    "identified": true,
    "hp": {
      "max": 10,
      "value": 10
    },
    "broken": false,
    "hardness": 0,
    "carried": true,
    "unidentified": {
      "price": 0,
      "name": ""
    },
    "cl": 0,
    "aura": {
      "custom": false,
      "school": ""
    },
    "changes": [],
    "changeFlags": {
      "loseDexToAC": false,
      "noEncumbrance": false,
      "mediumArmorFullSpeed": false,
      "heavyArmorFullSpeed": false
    },
    "contextNotes": [],
    "links": {
      "children": []
    },
    "tag": "gorthekSaddle",
    "useCustomTag": false,
    "flags": {
      "boolean": {},
      "dictionary": {
        "Category": "Animal Gear"
      }
    },
    "scriptCalls": [],
    "subType": "gear",
    "extraType": "",
    "uses": {
      "value": 0,
      "max": 0
    }
  },
  "ownership": {
    "default": 0
  },
  "_stats": {
    "systemId": "pf1",
    "systemVersion": "9.1",
    "coreVersion": "10.291",
    "createdTime": 1665428364508,
    "modifiedTime": 1689793668739,
    "lastModifiedBy": "ppv91YxratjWnkJi"
  },
  "effects": [],
  "folder": null,
  "sort": 0,
  "flags": {},
  "_key": "!items!mRyhaTsJz8OLYa6A"
}