{
  "_id": "WQXPQV4b1HqDvf5t",
  "name": "Kit, Beast-training",
  "type": "loot",
  "img": "systems/pf1/icons/items/inventory/chest-light.jpg",
  "system": {
    "description": {
      "value": "<p><strong>Source</strong> <em>Animal Archive pg. 12</em><br/><strong>Price</strong> 15 gp; <strong>Weight</strong> 26 lbs.<br/><strong>Category</strong> Animal Gear</p><h2 class=\"framing\"><img src=\"modules/pf-content/assets/PathfinderSocietySymbol.gif\" style=\"margin:3px 3px 0px 3px;\" title=\"PFS Legal\"/>Description</h2><p>This kit includes a dandy brush, training harness<sup>ARG</sup>, training whip<sup>ARG</sup>, whet bone, and 2 days' worth of carnivore feed. The weight of this kit can be reduced by 10 pounds by forgoing the carnivore feed.</p>",
      "unidentified": ""
    },
    "tags": [],
    "quantity": 1,
    "weight": {
      "value": 26
    },
    "price": 15,
    "size": "med",
    "equipped": false,
    "resizing": false,
    "identified": true,
    "hp": {
      "max": 10,
      "value": 10
    },
    "broken": false,
    "hardness": 0,
    "carried": true,
    "unidentified": {
      "price": 0,
      "name": ""
    },
    "cl": 0,
    "aura": {
      "custom": false,
      "school": ""
    },
    "changes": [],
    "changeFlags": {
      "loseDexToAC": false,
      "noEncumbrance": false,
      "mediumArmorFullSpeed": false,
      "heavyArmorFullSpeed": false
    },
    "contextNotes": [],
    "links": {
      "children": []
    },
    "tag": "beasttrainingKit",
    "useCustomTag": false,
    "flags": {
      "boolean": {},
      "dictionary": {
        "Category": "Animal Gear"
      }
    },
    "scriptCalls": [],
    "subType": "gear",
    "extraType": "",
    "uses": {
      "value": 0,
      "max": 0
    }
  },
  "ownership": {
    "default": 0
  },
  "_stats": {
    "systemId": "pf1",
    "systemVersion": "9.1",
    "coreVersion": "10.291",
    "createdTime": 1665428364368,
    "modifiedTime": 1689793668410,
    "lastModifiedBy": "ppv91YxratjWnkJi"
  },
  "effects": [],
  "folder": null,
  "sort": 0,
  "flags": {},
  "_key": "!items!WQXPQV4b1HqDvf5t"
}