{
  "_id": "LkiMNZpWNSGL0jKh",
  "name": "Mengkare's shards",
  "type": "loot",
  "img": "icons/commodities/gems/gem-teardrop-blue.webp",
  "system": {
    "description": {
      "value": "<p><strong>Source</strong> <em>Lost Treasures pg. 42</em><br/><strong>Price</strong> 6,000 gp; <strong>Weight</strong> 1 lb.<br/><strong>Category</strong> Black Market</p><h2 class=\"framing\">Description</h2><p>These crystalline fragments are all that remains of an <em>orb of dragonkind</em> that was destroyed by the great wyrm gold dragon Mengkare at the outset of his grand experiment. The owner of a shard receives a +2 circumstance bonus on Diplomacy checks with citizens of Hermea. The individual shards are nonmagical, but many believe that were they to be reunited into a complete sphere, the item would regain its powers over gold dragons, including Mengkare himself.</p>",
      "unidentified": ""
    },
    "tags": [],
    "quantity": 1,
    "weight": {
      "value": 1
    },
    "price": 6000,
    "size": "med",
    "equipped": false,
    "resizing": false,
    "identified": true,
    "hp": {
      "max": 10,
      "value": 10
    },
    "broken": false,
    "hardness": 0,
    "carried": true,
    "unidentified": {
      "price": 0,
      "name": ""
    },
    "cl": 0,
    "aura": {
      "custom": false,
      "school": ""
    },
    "changes": [],
    "changeFlags": {
      "loseDexToAC": false,
      "noEncumbrance": false,
      "mediumArmorFullSpeed": false,
      "heavyArmorFullSpeed": false
    },
    "contextNotes": [],
    "links": {
      "children": []
    },
    "tag": "mengkaresShards",
    "useCustomTag": false,
    "flags": {
      "boolean": {},
      "dictionary": {
        "Category": "Black Market"
      }
    },
    "scriptCalls": [],
    "subType": "tradeGoods",
    "extraType": "",
    "uses": {
      "value": 0,
      "max": 0
    }
  },
  "ownership": {
    "default": 0
  },
  "_stats": {
    "systemId": "pf1",
    "systemVersion": "9.1",
    "coreVersion": "10.291",
    "createdTime": 1665428364145,
    "modifiedTime": 1689793667978,
    "lastModifiedBy": "ppv91YxratjWnkJi"
  },
  "effects": [],
  "folder": null,
  "sort": 0,
  "flags": {},
  "_key": "!items!LkiMNZpWNSGL0jKh"
}