{
  "_id": "fesdfKd3G5fOeQfV",
  "name": "Mishan's melodious feather",
  "type": "loot",
  "img": "icons/commodities/materials/feather-white.webp",
  "system": {
    "description": {
      "value": "<p><strong>Source</strong> <em>Lost Treasures pg. 43</em><br/><strong>Price</strong> 2,500 gp; <strong>Weight</strong> -<br/><strong>Category</strong> Black Market</p><h2 class=\"framing\">Description</h2><p>This white sea-bird feather is millennia old and coated with a thin, resinous substance that has rendered the feather as rigid as steel. When the feather is rubbed or struck, its barbs jangle against each other, emitting a curious polytonal hum like that of several tuning forks. The feather is firmly affixed to a jeweled turban pin.<br/><br/> The shaft of the feather is covered with tiny Kelish script. If read-a difficult task without magnification due to the miniscule writing-the text reveals the history of the lands of Qadira before and during the establishment of the Keleshite satrapy at the end of the Age of Destiny. This acts as a library on the history of Qadira. A character with access to the feather can attempt Knowledge (history) checks about Qadira that have a DC higher than 10, even if untrained in the skill. Characters trained in Knowledge (history) can attempt a second check after studying the feather for an hour if they fail a Knowledge (history) check on such subjects.</p>",
      "unidentified": ""
    },
    "tags": [],
    "quantity": 1,
    "weight": {
      "value": 0
    },
    "price": 2500,
    "size": "med",
    "equipped": false,
    "resizing": false,
    "identified": true,
    "hp": {
      "max": 10,
      "value": 10
    },
    "broken": false,
    "hardness": 0,
    "carried": true,
    "unidentified": {
      "price": 0,
      "name": ""
    },
    "cl": 0,
    "aura": {
      "custom": false,
      "school": ""
    },
    "changes": [],
    "changeFlags": {
      "loseDexToAC": false,
      "noEncumbrance": false,
      "mediumArmorFullSpeed": false,
      "heavyArmorFullSpeed": false
    },
    "contextNotes": [],
    "links": {
      "children": []
    },
    "tag": "mishansMelodiousFeather",
    "useCustomTag": false,
    "flags": {
      "boolean": {},
      "dictionary": {
        "Category": "Black Market"
      }
    },
    "scriptCalls": [],
    "subType": "tradeGoods",
    "extraType": "",
    "uses": {
      "value": 0,
      "max": 0
    }
  },
  "ownership": {
    "default": 0
  },
  "_stats": {
    "systemId": "pf1",
    "systemVersion": "9.1",
    "coreVersion": "10.291",
    "createdTime": 1665428364443,
    "modifiedTime": 1689793668579,
    "lastModifiedBy": "ppv91YxratjWnkJi"
  },
  "effects": [],
  "folder": null,
  "sort": 0,
  "flags": {},
  "_key": "!items!fesdfKd3G5fOeQfV"
}