{
  "_id": "Vw93aljbrES0bulo",
  "name": "Owl, Giant",
  "type": "loot",
  "img": "icons/commodities/treasure/figurine-owl.webp",
  "system": {
    "description": {
      "value": "<p><strong>Source</strong> <em>Animal Archive pg. 14</em><br/><strong>Price</strong> 9,000 gp (combat-trained), 6,000 gp (common); <strong>Weight</strong> - (combat-trained), - (common)</p><h2 class=\"framing\">Description</h2><p><em>Description from \"Riding Animals\" section of Animal Archive, page 14.</em><br/>When reared from birth, the following animals can easily be ridden by Small or Medium humanoids, depending on the riding animal's size. In addition, most of these animals can be purchased already trained for combat.</p>",
      "unidentified": ""
    },
    "tags": [],
    "quantity": 1,
    "weight": {
      "value": 0
    },
    "price": 6000,
    "size": "med",
    "equipped": false,
    "resizing": false,
    "identified": true,
    "hp": {
      "max": 10,
      "value": 10
    },
    "broken": false,
    "hardness": 0,
    "carried": true,
    "unidentified": {
      "price": 0,
      "name": ""
    },
    "cl": 0,
    "aura": {
      "custom": false,
      "school": ""
    },
    "changes": [],
    "changeFlags": {
      "loseDexToAC": false,
      "noEncumbrance": false,
      "mediumArmorFullSpeed": false,
      "heavyArmorFullSpeed": false
    },
    "contextNotes": [],
    "links": {
      "children": []
    },
    "tag": "owlGiant",
    "useCustomTag": false,
    "flags": {
      "boolean": {},
      "dictionary": {
        "Category": "Mounts/Pets"
      }
    },
    "scriptCalls": [],
    "subType": "misc",
    "extraType": "",
    "uses": {
      "value": 0,
      "max": 0
    }
  },
  "ownership": {
    "default": 0
  },
  "_stats": {
    "systemId": "pf1",
    "systemVersion": "9.1",
    "coreVersion": "10.291",
    "createdTime": 1665428364360,
    "modifiedTime": 1689793668400,
    "lastModifiedBy": "ppv91YxratjWnkJi"
  },
  "effects": [],
  "folder": null,
  "sort": 0,
  "flags": {},
  "_key": "!items!Vw93aljbrES0bulo"
}