{
  "_id": "VK2EXWiLvLUVZrN1",
  "name": "Pachycephalosaurus",
  "type": "loot",
  "img": "systems/pf1/icons/skills/yellow_43.jpg",
  "system": {
    "description": {
      "value": "<p><strong>Source</strong> <em>Animal Archive pg. 14</em><br/><strong>Price</strong> 1,000 gp; <strong>Weight</strong> -<br/><strong>Category</strong> Mounts/Pets</p><h2 class=\"framing\"><img src=\"modules/pf-content/assets/PathfinderSocietySymbolN.gif\" style=\"margin:3px 3px 0px 3px;\" title=\"A PC can only purchase an animal, mount, or similar creature if its Challenge Rating is lower than that character's level; creatures with a Challenge Rating of 1 or lower are exempt from this restriction, as are horses.\"/>Description</h2><p><em>Description from \"Dinosaurs and Megafauna\" section of Animal Archive, page 14.</em><br/>The following animals are classified as either dinosaurs or megafauna, and garner a significantly higher price than most animals on the open market. The prices listed are for dinosaurs and megafauna that have been reared from birth in order to serve as pets or mounts. Combat-trained dinosaurs and megafauna are incredibly rare and have similarly extravagant costs (if one can even find a seller). Though not normally readily available, combat-trained dinosaurs and megafauna typically cost an amount equal to 1-1/2 × the price of the standard animal.</p>",
      "unidentified": ""
    },
    "tags": [],
    "quantity": 1,
    "weight": {
      "value": 0
    },
    "price": 1000,
    "size": "med",
    "equipped": false,
    "resizing": false,
    "identified": true,
    "hp": {
      "max": 10,
      "value": 10
    },
    "broken": false,
    "hardness": 0,
    "carried": true,
    "unidentified": {
      "price": 0,
      "name": ""
    },
    "cl": 0,
    "aura": {
      "custom": false,
      "school": ""
    },
    "changes": [],
    "changeFlags": {
      "loseDexToAC": false,
      "noEncumbrance": false,
      "mediumArmorFullSpeed": false,
      "heavyArmorFullSpeed": false
    },
    "contextNotes": [],
    "links": {
      "children": []
    },
    "tag": "pachycephalosaurus",
    "useCustomTag": false,
    "flags": {
      "boolean": {},
      "dictionary": {
        "Category": "Mounts/Pets"
      }
    },
    "scriptCalls": [],
    "subType": "misc",
    "extraType": "",
    "uses": {
      "value": 0,
      "max": 0
    }
  },
  "ownership": {
    "default": 0
  },
  "_stats": {
    "systemId": "pf1",
    "systemVersion": "9.1",
    "coreVersion": "10.291",
    "createdTime": 1665428364355,
    "modifiedTime": 1689793668390,
    "lastModifiedBy": "ppv91YxratjWnkJi"
  },
  "effects": [],
  "folder": null,
  "sort": 0,
  "flags": {},
  "_key": "!items!VK2EXWiLvLUVZrN1"
}