{
  "_id": "ZIyEAvvy77ZfQzFE",
  "name": "Passage, Ship's passage",
  "type": "loot",
  "img": "icons/environment/settlement/ship.webp",
  "system": {
    "description": {
      "value": "<p><strong>Source</strong> <em>PRPG Core Rulebook pg. 159</em><br/><strong>Price</strong> -; <strong>Price of Passage (per mile)</strong> 1 sp<br/><strong>Category</strong> Transport, Sea</p><h2 class=\"framing\"><img src=\"modules/pf-content/assets/PathfinderSocietySymbol.gif\" style=\"margin:3px 3px 0px 3px;\" title=\"PFS Legal\"/>Description</h2><p>Most ships do not specialize in passengers, but many have the capability to take a few along when transporting cargo. Double the given cost for creatures larger than Medium or creatures that are otherwise difficult to bring aboard a ship.</p>",
      "unidentified": ""
    },
    "tags": [],
    "quantity": 1,
    "weight": {
      "value": 0
    },
    "price": 0.1,
    "size": "med",
    "equipped": false,
    "resizing": false,
    "identified": true,
    "hp": {
      "max": 10,
      "value": 10
    },
    "broken": false,
    "hardness": 0,
    "carried": true,
    "unidentified": {
      "price": 0,
      "name": ""
    },
    "cl": 0,
    "aura": {
      "custom": false,
      "school": ""
    },
    "changes": [],
    "changeFlags": {
      "loseDexToAC": false,
      "noEncumbrance": false,
      "mediumArmorFullSpeed": false,
      "heavyArmorFullSpeed": false
    },
    "contextNotes": [],
    "links": {
      "children": []
    },
    "tag": "passageShipsPassage",
    "useCustomTag": false,
    "flags": {
      "boolean": {},
      "dictionary": {
        "Category": "Transport, Sea"
      }
    },
    "scriptCalls": [],
    "subType": "misc",
    "extraType": "",
    "uses": {
      "value": 0,
      "max": 0
    }
  },
  "ownership": {
    "default": 0
  },
  "_stats": {
    "systemId": "pf1",
    "systemVersion": "9.1",
    "coreVersion": "10.291",
    "createdTime": 1665428364394,
    "modifiedTime": 1689793668459,
    "lastModifiedBy": "ppv91YxratjWnkJi"
  },
  "effects": [],
  "folder": null,
  "sort": 0,
  "flags": {},
  "_key": "!items!ZIyEAvvy77ZfQzFE"
}