{
  "_id": "Yj2n9jzVR5GLomHS",
  "name": "Passage, Rowboat",
  "type": "loot",
  "img": "icons/environment/settlement/ship.webp",
  "system": {
    "description": {
      "value": "<p><strong>Source</strong> <em>Ultimate Equipment pg. 87</em>, <em>PRPG Core Rulebook pg. 159</em><br/><strong>Price</strong> 50 gp; <strong>Price of Passage (per mile)</strong> 2 cp<br/><strong>Category</strong> Transport, Sea</p><h2 class=\"framing\">Description</h2><p>This 8- to 12-foot-long boat with two oars holds two or three Medium passengers, and is either carried on the deck of a larger ship or moored to a dock onshore. A rowboat moves about 1-1/2 miles per hour.</p>",
      "unidentified": ""
    },
    "tags": [],
    "quantity": 1,
    "weight": {
      "value": 0
    },
    "price": 0.02,
    "size": "med",
    "equipped": false,
    "resizing": false,
    "identified": true,
    "hp": {
      "max": 10,
      "value": 10
    },
    "broken": false,
    "hardness": 0,
    "carried": true,
    "unidentified": {
      "price": 0,
      "name": ""
    },
    "cl": 0,
    "aura": {
      "custom": false,
      "school": ""
    },
    "changes": [],
    "changeFlags": {
      "loseDexToAC": false,
      "noEncumbrance": false,
      "mediumArmorFullSpeed": false,
      "heavyArmorFullSpeed": false
    },
    "contextNotes": [],
    "links": {
      "children": []
    },
    "tag": "passageRowboat",
    "useCustomTag": false,
    "flags": {
      "boolean": {},
      "dictionary": {
        "Category": "Transport, Sea"
      }
    },
    "scriptCalls": [],
    "subType": "misc",
    "extraType": "",
    "uses": {
      "value": 0,
      "max": 0
    }
  },
  "ownership": {
    "default": 0
  },
  "_stats": {
    "systemId": "pf1",
    "systemVersion": "9.1",
    "coreVersion": "10.291",
    "createdTime": 1665428364389,
    "modifiedTime": 1689793668449,
    "lastModifiedBy": "ppv91YxratjWnkJi"
  },
  "effects": [],
  "folder": null,
  "sort": 0,
  "flags": {},
  "_key": "!items!Yj2n9jzVR5GLomHS"
}