{
  "_id": "JvkGTldQg83ItXn2",
  "name": "Pathfinder Chronicles - Volume 2",
  "type": "loot",
  "img": "icons/sundries/books/book-rounded-red.webp",
  "system": {
    "description": {
      "value": "<p><strong>Source</strong> <em>Pathfinder Society Primer pg. 26</em><br/><strong>Price</strong> 100 gp; <strong>Weight</strong> -<br/><strong>Category</strong> Pathfinder Chronicles</p><h2 class=\"framing\"><img src=\"modules/pf-content/assets/PathfinderSocietySymbol.gif\" style=\"margin:3px 3px 0px 3px;\" title=\"PFS Legal\"/>Description</h2><p>p>The second entry into the <em>Pathfinder Chronicles </em>includes Durvin Gest's thorough cataloging of 31 siege castles in the Cairnlands surrounding Absalom and notes from Borden Thalian on his journey up the Vanji River in the Mwangi Expanse to a fantastic city of jade he reportedly discovered at its headwaters. </p><h2 class=\"framing\">Skill Bonuses</h2><p> <ul><li>Navigate the many treacherous dungeons beneath and within the Cairnlands' siege castles (Knowledge [dungeoneering] +2) </li><li>Travel on a river with more efficiency and safety (Profession [sailor] +2)</li></ul></p>",
      "unidentified": ""
    },
    "tags": [],
    "quantity": 1,
    "weight": {
      "value": 0
    },
    "price": 100,
    "size": "med",
    "equipped": false,
    "resizing": false,
    "identified": true,
    "hp": {
      "max": 10,
      "value": 10
    },
    "broken": false,
    "hardness": 0,
    "carried": true,
    "unidentified": {
      "price": 0,
      "name": ""
    },
    "cl": 0,
    "aura": {
      "custom": false,
      "school": ""
    },
    "changes": [],
    "changeFlags": {
      "loseDexToAC": false,
      "noEncumbrance": false,
      "mediumArmorFullSpeed": false,
      "heavyArmorFullSpeed": false
    },
    "contextNotes": [],
    "links": {
      "children": []
    },
    "tag": "pathfinderChroniclesVolume2",
    "useCustomTag": false,
    "flags": {
      "boolean": {},
      "dictionary": {
        "Category": "Pathfinder Chronicles"
      }
    },
    "scriptCalls": [],
    "subType": "tradeGoods",
    "extraType": "",
    "uses": {
      "value": 0,
      "max": 0
    }
  },
  "ownership": {
    "default": 0
  },
  "_stats": {
    "systemId": "pf1",
    "systemVersion": "9.1",
    "coreVersion": "10.291",
    "createdTime": 1665428364135,
    "modifiedTime": 1689793667944,
    "lastModifiedBy": "ppv91YxratjWnkJi"
  },
  "effects": [],
  "folder": null,
  "sort": 0,
  "flags": {},
  "_key": "!items!JvkGTldQg83ItXn2"
}