{
  "_id": "VF5QgLwIYS1YGh4G",
  "name": "Riding Bee (Queen)",
  "type": "loot",
  "img": "systems/pf1/icons/skills/green_05.jpg",
  "system": {
    "description": {
      "value": "<p><strong>Source</strong> <em>Ultimate Wilderness pg. 12</em><br/><strong>Price</strong> <img src=\"modules/pf-content/assets/PathfinderSocietySymbol.gif\" style=\"margin:3px 3px 0px 3px;\" title=\"PFS Legal\"/> 12,000 gp (combat-trained queen), <img src=\"modules/pf-content/assets/PathfinderSocietySymbol.gif\" style=\"margin:3px 3px 0px 3px;\" title=\"PFS Legal\"/> 450 gp (combat-trained worker), <img src=\"modules/pf-content/assets/PathfinderSocietySymbol.gif\" style=\"margin:3px 3px 0px 3px;\" title=\"PFS Legal\"/> 8,000 gp (queen), <img src=\"modules/pf-content/assets/PathfinderSocietySymbol.gif\" style=\"margin:3px 3px 0px 3px;\" title=\"PFS Legal\"/> 300 gp (worker); <strong>Weight</strong> 140 lbs. (combat-trained queen), 60 lbs. (combat-trained worker), 140 lbs. (queen), 60 lbs. (worker)</p><h2 class=\"framing\">Description</h2><p>Gathlains have learned to domesticate giant bees (<em>Pathfinder RPG Bestiary 2</em> 43), which they use to travel long distances. Extra queens from a hive's brood are saved and trained for hauling heavier equipment or a retinue of gathlains. Bees require an exotic saddle, which is a sort of basket that places the rider underneath the bee's abdomen, where it protects the rider as if he were a bee larva.</p>",
      "unidentified": ""
    },
    "tags": [],
    "quantity": 1,
    "weight": {
      "value": 140
    },
    "price": 8000,
    "size": "med",
    "equipped": false,
    "resizing": false,
    "identified": true,
    "hp": {
      "max": 10,
      "value": 10
    },
    "broken": false,
    "hardness": 0,
    "carried": true,
    "unidentified": {
      "price": 0,
      "name": ""
    },
    "cl": 0,
    "aura": {
      "custom": false,
      "school": ""
    },
    "changes": [],
    "changeFlags": {
      "loseDexToAC": false,
      "noEncumbrance": false,
      "mediumArmorFullSpeed": false,
      "heavyArmorFullSpeed": false
    },
    "contextNotes": [],
    "links": {
      "children": []
    },
    "tag": "ridingBeeQueen",
    "useCustomTag": false,
    "flags": {
      "boolean": {},
      "dictionary": {
        "Category": "Mounts/Pets"
      }
    },
    "scriptCalls": [],
    "subType": "misc",
    "extraType": "",
    "uses": {
      "value": 0,
      "max": 0
    }
  },
  "ownership": {
    "default": 0
  },
  "_stats": {
    "systemId": "pf1",
    "systemVersion": "9.1",
    "coreVersion": "10.291",
    "createdTime": 1665428364351,
    "modifiedTime": 1689793668379,
    "lastModifiedBy": "ppv91YxratjWnkJi"
  },
  "effects": [],
  "folder": null,
  "sort": 0,
  "flags": {},
  "_key": "!items!VF5QgLwIYS1YGh4G"
}