{
  "_id": "BlxUxt5qp0M17o6L",
  "name": "Service, Footman",
  "type": "loot",
  "img": "icons/environment/people/commoner.webp",
  "system": {
    "description": {
      "value": "<p><strong>Source</strong> <em>Ultimate Equipment pg. 99</em><br><strong>Price</strong> 5 sp; <strong>Weight</strong> -<br><strong>Category</strong> Lodging/Services</p><h2 class=\"framing\">Description</h2><p>A footman is a house servant in good physical shape, who is dressed in his employer's livery and capable of running ahead of his employer to make arrangements at a destination (such as an inn or a noble's mansion). This is a position of lesser rank than a valet, and is often a status symbol for the employer, with taller or better-looking employees earning higher wages as footmen. A skilled and personable footman can hope to eventually become a valet. The listed price is per day.</p>",
      "unidentified": ""
    },
    "tags": [],
    "quantity": 1,
    "weight": {
      "value": 0
    },
    "price": 0.5,
    "size": "med",
    "equipped": false,
    "resizing": false,
    "identified": true,
    "hp": {
      "max": 10,
      "value": 10
    },
    "broken": false,
    "hardness": 0,
    "carried": true,
    "unidentified": {
      "price": 0,
      "name": ""
    },
    "cl": 0,
    "aura": {
      "custom": false,
      "school": ""
    },
    "changes": [],
    "changeFlags": {
      "loseDexToAC": false,
      "noEncumbrance": false,
      "mediumArmorFullSpeed": false,
      "heavyArmorFullSpeed": false
    },
    "contextNotes": [],
    "links": {
      "children": []
    },
    "tag": "serviceFootman",
    "useCustomTag": false,
    "flags": {
      "boolean": {},
      "dictionary": {
        "Category": "Lodging/Services"
      }
    },
    "scriptCalls": [],
    "subType": "tradeGoods",
    "extraType": "",
    "uses": {
      "value": 0,
      "max": 0
    }
  },
  "ownership": {
    "default": 0
  },
  "_stats": {
    "systemId": "pf1",
    "systemVersion": "9.1",
    "coreVersion": "10.291",
    "createdTime": 1665428364046,
    "modifiedTime": 1689793667699,
    "lastModifiedBy": "ppv91YxratjWnkJi"
  },
  "effects": [],
  "folder": null,
  "sort": 0,
  "flags": {},
  "_key": "!items!BlxUxt5qp0M17o6L"
}