{
  "_id": "C6EA7iShdoS14EB3",
  "name": "Spider",
  "type": "loot",
  "img": "systems/pf1/icons/skills/green_23.jpg",
  "system": {
    "description": {
      "value": "<p><strong>Source</strong> <em>Ultimate Equipment pg. 80</em><br/><strong>Price</strong> 25 gp; <strong>Weight</strong> 8 oz.<br/><strong>Category</strong> Mounts/Pets</p><h2 class=\"framing\"><img src=\"modules/pf-content/assets/PathfinderSocietySymbolN.gif\" style=\"margin:3px 3px 0px 3px;\" title=\"A PC can only purchase an animal, mount, or similar creature if its Challenge Rating is lower than that character's level; creatures with a Challenge Rating of 1 or lower are exempt from this restriction, as are horses.\"/>Description</h2><p>These Tiny spiders have red bodies and black legs. They are hunting spiders, so they do not cast webs, though they are poisonous. For more information, see <em>Ultimate Magic</em>.</p>",
      "unidentified": ""
    },
    "tags": [],
    "quantity": 1,
    "weight": {
      "value": 0.5
    },
    "price": 25,
    "size": "med",
    "equipped": false,
    "resizing": false,
    "identified": true,
    "hp": {
      "max": 10,
      "value": 10
    },
    "broken": false,
    "hardness": 0,
    "carried": true,
    "unidentified": {
      "price": 0,
      "name": ""
    },
    "cl": 0,
    "aura": {
      "custom": false,
      "school": ""
    },
    "changes": [],
    "changeFlags": {
      "loseDexToAC": false,
      "noEncumbrance": false,
      "mediumArmorFullSpeed": false,
      "heavyArmorFullSpeed": false
    },
    "contextNotes": [],
    "links": {
      "children": []
    },
    "tag": "spider",
    "useCustomTag": false,
    "flags": {
      "boolean": {},
      "dictionary": {
        "Category": "Mounts/Pets"
      }
    },
    "scriptCalls": [],
    "subType": "misc",
    "extraType": "",
    "uses": {
      "value": 0,
      "max": 0
    }
  },
  "ownership": {
    "default": 0
  },
  "_stats": {
    "systemId": "pf1",
    "systemVersion": "9.1",
    "coreVersion": "10.291",
    "createdTime": 1665428364047,
    "modifiedTime": 1689793667701,
    "lastModifiedBy": "ppv91YxratjWnkJi"
  },
  "effects": [],
  "folder": null,
  "sort": 0,
  "flags": {},
  "_key": "!items!C6EA7iShdoS14EB3"
}