{
  "_id": "1vGHjYXSsSiBi6Ry",
  "name": "The Prying Eye (Spellbook, Level 7 Universalist)",
  "type": "loot",
  "img": "icons/sundries/books/book-worn-brown.webp",
  "system": {
    "description": {
      "value": "<p><strong>Source</strong> <em>Divine Anthology pg. 5</em><br/><em>The front cover of this tome is as black as night, while the back cover is ivory white. An eye-shaped symbol graces both covers.</em><br/><strong>Value</strong> 1,940 gp (2,200 gp with the preparation ritual)</p><h2 class=\"framing\"><img src=\"modules/pf-content/assets/PathfinderSocietySymbolN.gif\" style=\"margin:3px 3px 0px 3px;\" title=\"These spellbooks do not allow access to otherwise banned spells.\"/>Spells</h2><p>p>4th-<em>arcane eye, eyes of the void<sup>ACG</sup>, medusa's bane</em><br/>3rd-<em>arcane sight, channel the gift<sup>ISG</sup>, fractions of heal and harm<sup>ISG</sup></em><br/>2nd-<em>darkvision, burning gaze<sup>APG</sup>, see invisibility, spell gauge<sup>ISG</sup></em><br/>1st-<em>countless eyesUM, detect secret doors, identify, invisibility alarm<sup>ACG</sup>, see alignment<sup></sup>, true strike</em></p><h2 class=\"framing\">Ritual</h2><p><strong>Keen Perception (Su)</strong> You can spend this boon to gain a +2 insight bonus on a single Perception or Sense Motive check.</p>",
      "unidentified": ""
    },
    "tags": [],
    "quantity": 1,
    "weight": {
      "value": 5
    },
    "price": 2200,
    "size": "med",
    "equipped": false,
    "resizing": false,
    "identified": true,
    "hp": {
      "max": 10,
      "value": 10
    },
    "broken": false,
    "hardness": 0,
    "carried": true,
    "unidentified": {
      "price": 0,
      "name": ""
    },
    "cl": 0,
    "aura": {
      "custom": false,
      "school": ""
    },
    "changes": [],
    "changeFlags": {
      "loseDexToAC": false,
      "noEncumbrance": false,
      "mediumArmorFullSpeed": false,
      "heavyArmorFullSpeed": false
    },
    "contextNotes": [],
    "links": {
      "children": []
    },
    "tag": "thePryingEyeSpellbookLevel7Universalist",
    "useCustomTag": false,
    "flags": {
      "boolean": {},
      "dictionary": {
        "Category": "Spellbooks"
      }
    },
    "scriptCalls": [],
    "subType": "gear",
    "extraType": "",
    "uses": {
      "value": 0,
      "max": 0
    }
  },
  "ownership": {
    "default": 0
  },
  "_stats": {
    "systemId": "pf1",
    "systemVersion": "9.1",
    "coreVersion": "10.291",
    "createdTime": 1665428363970,
    "modifiedTime": 1689793667476,
    "lastModifiedBy": "ppv91YxratjWnkJi"
  },
  "effects": [],
  "folder": null,
  "sort": 0,
  "flags": {},
  "_key": "!items!1vGHjYXSsSiBi6Ry"
}