{
  "_id": "OAqau0WOmObm2dfY",
  "name": "The Guide's Analects (Spellbook, Level 6 Universalist)",
  "type": "loot",
  "img": "icons/sundries/books/book-worn-brown.webp",
  "system": {
    "description": {
      "value": "<p><strong>Source</strong> <em>Arcane Anthology pg. 6</em><br/><em>This book's worn leather cover is emblazoned with a simplified winged eye superimposed on a map of Avistan.</em><br/><strong>Value</strong> 690 gp (990 gp with the preparation ritual)</p><h2 class=\"framing\"><img src=\"modules/pf-content/assets/PathfinderSocietySymbolN.gif\" style=\"margin:3px 3px 0px 3px;\" title=\"add\"/>Spells</h2><p>p>3rd-<em>Aroden's spellsword</em>, <em>heroism</em>, <em>lesser guardian monument</em>, <em>magic circle against evil</em><br/> 2nd-<em>arcane disruption</em><sup>ACG</sup>, <em>human potential</em>, <em>masterwork transformation</em><sup>UM</sup>, <em>winged sword</em><br/> 1st-<em>detect undead</em>, <em>endure elements</em>, <em>expeditious construction</em>, <em>heightened awareness</em><sup>ACG</sup>, <em>linked legacy</em>, <em>mage armor</em></p><h2 class=\"framing\">Ritual</h2><p><strong>Glorious Blade (Su)</strong> When you attack with a sword (including swordlike effects created by spells such as spiritual weapon, as long as they require attack rolls), you can expend a prepared spell or spell slot as a free action to spend this boon. If you do, you gain an insight bonus on the attack roll equal to the level of the prepared spell or spell slot expended.</p>",
      "unidentified": ""
    },
    "tags": [],
    "quantity": 1,
    "weight": {
      "value": 5
    },
    "price": 990,
    "size": "med",
    "equipped": false,
    "resizing": false,
    "identified": true,
    "hp": {
      "max": 10,
      "value": 10
    },
    "broken": false,
    "hardness": 0,
    "carried": true,
    "unidentified": {
      "price": 0,
      "name": ""
    },
    "cl": 0,
    "aura": {
      "custom": false,
      "school": ""
    },
    "changes": [],
    "changeFlags": {
      "loseDexToAC": false,
      "noEncumbrance": false,
      "mediumArmorFullSpeed": false,
      "heavyArmorFullSpeed": false
    },
    "contextNotes": [],
    "links": {
      "children": []
    },
    "tag": "theGuidesAnalectsSpellbookLevel6Universalist",
    "useCustomTag": false,
    "flags": {
      "boolean": {},
      "dictionary": {
        "Category": "Spellbooks"
      }
    },
    "scriptCalls": [],
    "subType": "gear",
    "extraType": "",
    "uses": {
      "value": 0,
      "max": 0
    }
  },
  "ownership": {
    "default": 0
  },
  "_stats": {
    "systemId": "pf1",
    "systemVersion": "9.1",
    "coreVersion": "10.291",
    "createdTime": 1665428364177,
    "modifiedTime": 1689793668061,
    "lastModifiedBy": "ppv91YxratjWnkJi"
  },
  "effects": [],
  "folder": null,
  "sort": 0,
  "flags": {},
  "_key": "!items!OAqau0WOmObm2dfY"
}