{
  "_id": "DqXrJJ5lsN9qotog",
  "name": "Thorny breastplate",
  "type": "loot",
  "img": "icons/commodities/biological/shell-tan.webp",
  "system": {
    "description": {
      "value": "<p><strong>Source</strong> <em>Dungeon Denizens Revisited pg. 36</em><br/><strong>Price</strong> 600 gp; <strong>Weight</strong> 80 lbs.<br/><strong>Category</strong> Animal Gear</p><h2 class=\"framing\"><img src=\"modules/pf-content/assets/ThreeFiveSymbol.gif\" style=\"margin: 3px 3px 0px 3px\" title=\"3.5 Material\"/>Description</h2><p>This barding is covered in thick metal spikes and is designed to protect the owlbear's chest, shoulders, and neck, while leaving the limbs mostly free for moving and attacking. It provides a +5 bonus to AC, reduces the owlbear's speed to 20 feet, and adds +1d8 piercing damage to its grapple attacks.</p>",
      "unidentified": ""
    },
    "tags": [],
    "quantity": 1,
    "weight": {
      "value": 80
    },
    "price": 600,
    "size": "med",
    "equipped": false,
    "resizing": false,
    "identified": true,
    "hp": {
      "max": 10,
      "value": 10
    },
    "broken": false,
    "hardness": 0,
    "carried": true,
    "unidentified": {
      "price": 0,
      "name": ""
    },
    "cl": 0,
    "aura": {
      "custom": false,
      "school": ""
    },
    "changes": [],
    "changeFlags": {
      "loseDexToAC": false,
      "noEncumbrance": false,
      "mediumArmorFullSpeed": false,
      "heavyArmorFullSpeed": false
    },
    "contextNotes": [],
    "links": {
      "children": []
    },
    "tag": "thornyBreastplate",
    "useCustomTag": false,
    "flags": {
      "boolean": {},
      "dictionary": {
        "Category": "Animal Gear"
      }
    },
    "scriptCalls": [],
    "subType": "gear",
    "extraType": "",
    "uses": {
      "value": 0,
      "max": 0
    }
  },
  "ownership": {
    "default": 0
  },
  "_stats": {
    "systemId": "pf1",
    "systemVersion": "9.1",
    "coreVersion": "10.291",
    "createdTime": 1665428364063,
    "modifiedTime": 1689793667751,
    "lastModifiedBy": "ppv91YxratjWnkJi"
  },
  "effects": [],
  "folder": null,
  "sort": 0,
  "flags": {},
  "_key": "!items!DqXrJJ5lsN9qotog"
}