{
  "_id": "GhkOX8kJYqGeBEX4",
  "name": "Unamed Journal (Spellbook, Level 3 Universalist)",
  "type": "loot",
  "img": "icons/sundries/books/book-worn-brown.webp",
  "system": {
    "description": {
      "value": "<p><strong>Source</strong> <em>Ultimate Magic pg. 121</em><br/><em>This is a simple, unadorned spellbook. Notes on improving the efficiency of each spell crowd the margins, most of them hopelessly misguided.</em><br/><strong>Value</strong> 275 gp ( gp with the preparation ritual)</p><h2 class=\"framing\">Spells</h2><p>2nd-<em>fox's cunning</em>, <em>scorching ray</em><br/>1st-<em>alarm</em>, <em>feather fall</em>, <em>obscuring mist</em>, <em>mount</em>, <em>shield</em>, <em>shocking grasp</em>, <em>silent image</em>, <em>sleep</em></p>",
      "unidentified": ""
    },
    "tags": [],
    "quantity": 1,
    "weight": {
      "value": 5
    },
    "price": 275,
    "size": "med",
    "equipped": false,
    "resizing": false,
    "identified": true,
    "hp": {
      "max": 10,
      "value": 10
    },
    "broken": false,
    "hardness": 0,
    "carried": true,
    "unidentified": {
      "price": 0,
      "name": ""
    },
    "cl": 0,
    "aura": {
      "custom": false,
      "school": ""
    },
    "changes": [],
    "changeFlags": {
      "loseDexToAC": false,
      "noEncumbrance": false,
      "mediumArmorFullSpeed": false,
      "heavyArmorFullSpeed": false
    },
    "contextNotes": [],
    "links": {
      "children": []
    },
    "tag": "unamedJournalSpellbookLevel3Universalist",
    "useCustomTag": false,
    "flags": {
      "boolean": {},
      "dictionary": {
        "Category": "Spellbooks"
      }
    },
    "scriptCalls": [],
    "subType": "gear",
    "extraType": "",
    "uses": {
      "value": 0,
      "max": 0
    }
  },
  "ownership": {
    "default": 0
  },
  "_stats": {
    "systemId": "pf1",
    "systemVersion": "9.1",
    "coreVersion": "10.291",
    "createdTime": 1665428364091,
    "modifiedTime": 1689793667827,
    "lastModifiedBy": "ppv91YxratjWnkJi"
  },
  "effects": [],
  "folder": null,
  "sort": 0,
  "flags": {},
  "_key": "!items!GhkOX8kJYqGeBEX4"
}