{
  "_id": "HFG4rnCGAQ70xQuJ",
  "name": "Vehicle, Caravan master's wagon",
  "type": "loot",
  "img": "icons/commodities/wood/wood-wheel-brown.webp",
  "system": {
    "description": {
      "value": "<p><strong>Source</strong> <em>Villain Codex pg. 116</em><br/><strong>Price</strong> 1,000 gp; <strong>Price of Passage (per mile)</strong> -<br/><strong>Category</strong> Transport, Land</p><h2 class=\"framing\"><img src=\"modules/pf-content/assets/PathfinderSocietySymbol.gif\" style=\"margin:3px 3px 0px 3px;\" title=\"PFS Legal\"/>Description</h2><p>The caravan master's wagon is similar in most respects to a high-quality heavy smuggler's wagon (see below), but it additionally allows for a hidden <em>portable hole</em> (price not included above) secreted within in it. The <em>portable hole</em> rests upon the surface of the wagon bed, with a second layer of wooden planks laid atop it and fastened into place with nuts and bolts so they appear to be a normal part of the wagon. Thus the <em>portable hole</em> sits between the layers of wood like a thin cut of meat between two slices of bread. Those who know about the <em>portable hole</em> can fill it with illicit goods and then fasten the second layer of decking in place and load normal cargo atop it. The wagon weighs no more than it should. This setup allows for the transport of live cargo (rendered suitably silent or unconscious, if necessary), as the planks atop the opening of the portable hole are spaced just far enough apart to allow in breathable air, if the smugglers leave the hole open and attached. Unless someone knows what to look for, a successful DC 30 Perception check is necessary to discover the hidden second layer.</p>",
      "unidentified": ""
    },
    "tags": [],
    "quantity": 1,
    "weight": {
      "value": 0
    },
    "price": 1000,
    "size": "med",
    "equipped": false,
    "resizing": false,
    "identified": true,
    "hp": {
      "max": 10,
      "value": 10
    },
    "broken": false,
    "hardness": 0,
    "carried": true,
    "unidentified": {
      "price": 0,
      "name": ""
    },
    "cl": 0,
    "aura": {
      "custom": false,
      "school": ""
    },
    "changes": [],
    "changeFlags": {
      "loseDexToAC": false,
      "noEncumbrance": false,
      "mediumArmorFullSpeed": false,
      "heavyArmorFullSpeed": false
    },
    "contextNotes": [],
    "links": {
      "children": []
    },
    "tag": "vehicleCaravanMastersWagon",
    "useCustomTag": false,
    "flags": {
      "boolean": {},
      "dictionary": {
        "Category": "Transport, Land"
      }
    },
    "scriptCalls": [],
    "subType": "misc",
    "extraType": "",
    "uses": {
      "value": 0,
      "max": 0
    }
  },
  "ownership": {
    "default": 0
  },
  "_stats": {
    "systemId": "pf1",
    "systemVersion": "9.1",
    "coreVersion": "10.291",
    "createdTime": 1665428364099,
    "modifiedTime": 1689793667846,
    "lastModifiedBy": "ppv91YxratjWnkJi"
  },
  "effects": [],
  "folder": null,
  "sort": 0,
  "flags": {},
  "_key": "!items!HFG4rnCGAQ70xQuJ"
}