{
  "_id": "WkTy9GEpCWmaeMFk",
  "name": "Wisdom of Jatembe (Six Warriors Edition) (Spellbook, Level 11 Diviner)",
  "type": "loot",
  "img": "icons/sundries/books/book-worn-brown.webp",
  "system": {
    "description": {
      "value": "<p><strong>Source</strong> <em>Arcane Anthology pg. 12</em><br/><em>This book is bound in thick, rough rawhide. Several cloth ribbons are attached to the spine and used as bookmarks, each with a yellowed tooth tied to the loose end. Two silver plates are bound to the spine, each depicting the stylized face of a different beast. The spells and stories recorded throughout the book are each written in a different handwriting, ranging from neat block script to wild looping letters that are difficult to read at first glance.</em><br/><strong>Value</strong> 4,725 gp (6,025 gp with the preparation ritual)</p><h2 class=\"framing\">Spells</h2><p>p>6th-<em>chain lightning</em>, <em>contagious flames</em><sup>APG</sup>, <em>Jatembe's ire</em>, <em>legend lore</em>, <em>planar binding</em><br/> 5th-<em>dismissal</em>, <em>lesser planar binding</em>, <em>overland flight</em>, <em>polymorph</em>, <em>sending</em>, <em>summon monster V</em>, <em>telepathic bond</em><br/> 4th-<em>black tentacles</em>, <em>dimensional anchor</em>, <em>greater celestial healing</em>, <em>wall of fire</em><br/> 3rd-<em>dispel magic</em>, <em>haste</em>, <em>planar inquiry</em>, <em>stinking cloud</em><br/> 2nd-<em>blindness/deafness</em>, <em>mirror image</em>, <em>spectral hand</em><br/> 1st-<em>celestial healing</em>, <em>magic missile</em>, <em>shocking grasp</em>, <em>true strike</em></p><h2 class=\"framing\">Ritual</h2><p><strong>Jatembe's Vindication (Su)</strong> The Old-Mage's teachings are a call to arms for all good spellcasters, stressing the importance of using one's talents altruistically and philanthropically, and his teachings foster the power of good in even the most apathetic heart. Expend this boon when you cast a spell that targets one or more creatures. The spell gains the good descriptor as well as a +2 sacred bonus on caster level checks to overcome the spell resistance of evil creatures. An evil creature cannot use this preparation ritual.</p>",
      "unidentified": ""
    },
    "tags": [],
    "quantity": 1,
    "weight": {
      "value": 5
    },
    "price": 6025,
    "size": "med",
    "equipped": false,
    "resizing": false,
    "identified": true,
    "hp": {
      "max": 10,
      "value": 10
    },
    "broken": false,
    "hardness": 0,
    "carried": true,
    "unidentified": {
      "price": 0,
      "name": ""
    },
    "cl": 0,
    "aura": {
      "custom": false,
      "school": ""
    },
    "changes": [],
    "changeFlags": {
      "loseDexToAC": false,
      "noEncumbrance": false,
      "mediumArmorFullSpeed": false,
      "heavyArmorFullSpeed": false
    },
    "contextNotes": [],
    "links": {
      "children": []
    },
    "tag": "wisdomOfJatembeSixWarriorsEditionSpellbookLevel11Diviner",
    "useCustomTag": false,
    "flags": {
      "boolean": {},
      "dictionary": {
        "Category": "Spellbooks"
      }
    },
    "scriptCalls": [],
    "subType": "gear",
    "extraType": "",
    "uses": {
      "value": 0,
      "max": 0
    }
  },
  "ownership": {
    "default": 0
  },
  "_stats": {
    "systemId": "pf1",
    "systemVersion": "9.1",
    "coreVersion": "10.291",
    "createdTime": 1665428364371,
    "modifiedTime": 1689793668417,
    "lastModifiedBy": "ppv91YxratjWnkJi"
  },
  "effects": [],
  "folder": null,
  "sort": 0,
  "flags": {},
  "_key": "!items!WkTy9GEpCWmaeMFk"
}