{
  "_id": "94osu7eckXvhYNbZ",
  "name": "Bonechill",
  "type": "feat",
  "img": "systems/pf1/icons/skills/ice_17.jpg",
  "system": {
    "description": {
      "value": "<p><strong>Type&nbsp;</strong>disease (injury); <strong>Save</strong>&nbsp;Fortitude DC 16;</p>\n<p><strong>Onset&nbsp;</strong><span id=\"ctl00_MainContent_DataListDiseases_ctl00_LabelName\">1 day</span>;&nbsp;<strong>Frequency&nbsp;</strong>1/day</p>\n<p><strong>Effect&nbsp;</strong>1d4 Dex damage and any nonlethal damage incurred from being in a cold environment becomes lethal damage (though it can still cause hypothermia)</p>\n<p><strong>Cure&nbsp;</strong>2 consecutive saves</p>",
      "unidentified": ""
    },
    "tags": [
      "Maladies",
      "Disease"
    ],
    "actions": [],
    "uses": {
      "per": null,
      "value": 0,
      "maxFormula": "",
      "autoDeductChargesCost": "1"
    },
    "attackNotes": [],
    "effectNotes": [],
    "changes": [],
    "changeFlags": {
      "loseDexToAC": false,
      "noEncumbrance": false,
      "mediumArmorFullSpeed": false,
      "heavyArmorFullSpeed": false
    },
    "contextNotes": [],
    "links": {
      "children": [],
      "charges": []
    },
    "tag": "bonechill",
    "useCustomTag": false,
    "armorProf": {
      "value": [],
      "custom": ""
    },
    "weaponProf": {
      "value": [],
      "custom": ""
    },
    "languages": {
      "value": [],
      "custom": ""
    },
    "flags": {
      "boolean": {},
      "dictionary": {}
    },
    "scriptCalls": [],
    "subType": "misc",
    "associations": {
      "classes": []
    },
    "showInQuickbar": false,
    "abilityType": "none",
    "crOffset": "",
    "disabled": false,
    "classSkills": {}
  },
  "ownership": {
    "default": 0
  },
  "_stats": {
    "systemId": "pf1",
    "systemVersion": "9.1",
    "coreVersion": "10.291",
    "createdTime": 1665428376409,
    "modifiedTime": 1689797931328,
    "lastModifiedBy": "ppv91YxratjWnkJi"
  },
  "effects": [],
  "folder": null,
  "sort": 0,
  "flags": {},
  "_key": "!items!94osu7eckXvhYNbZ"
}