{
  "_id": "vyX4fUWtp7XpD3XY",
  "name": "Cackle Fever",
  "type": "feat",
  "img": "systems/pf1/icons/skills/shadow_20.jpg",
  "system": {
    "description": {
      "value": "<p><strong>Type</strong> disease (inhaled); <strong>Save</strong>&nbsp;Fortitude DC 16;</p>\n<p><strong>Onset</strong>&nbsp;<span id=\"ctl00_MainContent_DataListDiseases_ctl00_LabelName\">1 day</span>;&nbsp;<strong>Frequency</strong>&nbsp;1/day</p>\n<p><strong>Effect</strong>&nbsp;1d6 Wis damage</p>\n<p><strong>Cure</strong>&nbsp;2 consecutive saves</p>",
      "unidentified": ""
    },
    "tags": [
      "Maladies",
      "Disease"
    ],
    "actions": [],
    "uses": {
      "per": null,
      "value": 0,
      "maxFormula": "",
      "autoDeductChargesCost": "1"
    },
    "attackNotes": [],
    "effectNotes": [],
    "changes": [],
    "changeFlags": {
      "loseDexToAC": false,
      "noEncumbrance": false,
      "mediumArmorFullSpeed": false,
      "heavyArmorFullSpeed": false
    },
    "contextNotes": [],
    "links": {
      "children": [],
      "charges": []
    },
    "tag": "cackleFever",
    "useCustomTag": false,
    "armorProf": {
      "value": [],
      "custom": ""
    },
    "weaponProf": {
      "value": [],
      "custom": ""
    },
    "languages": {
      "value": [],
      "custom": ""
    },
    "flags": {
      "boolean": {},
      "dictionary": {}
    },
    "scriptCalls": [],
    "subType": "misc",
    "associations": {
      "classes": []
    },
    "showInQuickbar": false,
    "abilityType": "none",
    "crOffset": "",
    "disabled": false,
    "classSkills": {}
  },
  "ownership": {
    "default": 0
  },
  "_stats": {
    "systemId": "pf1",
    "systemVersion": "9.1",
    "coreVersion": "10.291",
    "createdTime": 1665428376493,
    "modifiedTime": 1689797931856,
    "lastModifiedBy": "ppv91YxratjWnkJi"
  },
  "effects": [],
  "folder": null,
  "sort": 0,
  "flags": {},
  "_key": "!items!vyX4fUWtp7XpD3XY"
}