{
  "_id": "oSst1YuygC1i8AMI",
  "name": "Cursed Earth",
  "type": "feat",
  "img": "systems/pf1/icons/skills/affliction_11.jpg",
  "flags": {
    "scene-packer": {
      "sourceId": "Item.UjuNxJp648cApcW7"
    }
  },
  "system": {
    "description": {
      "value": "<p><strong>Source</strong> <em>Horror Adventures pg. 143</em></p><p><strong>Type</strong> regional curse; <strong>Save</strong> Will DC 23</p><p><strong>Effect</strong> The area is cursed with famine, living death, or plague, as described in <em>cursed earth</em>.</p>",
      "unidentified": ""
    },
    "tags": [
      "Maladies",
      "Curse"
    ],
    "actions": [],
    "uses": {
      "per": null,
      "value": 0,
      "maxFormula": "",
      "autoDeductChargesCost": "1"
    },
    "attackNotes": [],
    "effectNotes": [],
    "changes": [],
    "changeFlags": {
      "loseDexToAC": false,
      "noEncumbrance": false,
      "mediumArmorFullSpeed": false,
      "heavyArmorFullSpeed": false
    },
    "contextNotes": [],
    "links": {
      "children": [],
      "charges": []
    },
    "tag": "cursedEarth",
    "useCustomTag": false,
    "armorProf": {
      "value": [],
      "custom": ""
    },
    "weaponProf": {
      "value": [],
      "custom": ""
    },
    "languages": {
      "value": [],
      "custom": ""
    },
    "flags": {
      "boolean": {},
      "dictionary": {}
    },
    "scriptCalls": [],
    "subType": "misc",
    "associations": {
      "classes": []
    },
    "showInQuickbar": false,
    "abilityType": "none",
    "crOffset": "",
    "disabled": false,
    "classSkills": {}
  },
  "ownership": {
    "default": 0
  },
  "_stats": {
    "systemId": "pf1",
    "systemVersion": "9.1",
    "coreVersion": "10.291",
    "createdTime": 1665428376477,
    "modifiedTime": 1689797931770,
    "lastModifiedBy": "ppv91YxratjWnkJi"
  },
  "effects": [],
  "folder": null,
  "sort": 0,
  "_key": "!items!oSst1YuygC1i8AMI"
}