{
  "_id": "IsBlazcUupiurGMl",
  "name": "Delusion",
  "type": "feat",
  "img": "systems/pf1/icons/skills/affliction_03.jpg",
  "flags": {
    "scene-packer": {
      "sourceId": "Item.FYy4IlizaqhDQFFG"
    }
  },
  "system": {
    "description": {
      "value": "<p><strong>Source</strong> <em>Horror Adventures pg. 183</em></p><p><strong>Type</strong> lesser madness; <strong>Save</strong> DC 16</p><p><strong>Onset</strong> 2d6 days</p><p><strong>Effect</strong> The afflicted character believes something that is not true, and no amount of evidence can dissuade him of the belief.</p><p><strong>Dormancy Effect</strong> None</p><p><h3 class=\"framing\">Description</h3>A delusion is the persistence of a belief that no amount of evidence to the contrary can dissuade the afflicted character from having. The belief is often that another specific person either loves or wants to harm the afflicted character, or the afflicted character may have an inflated view of his own abilities or importance. Sometimes the deluded character believes he suffers from an affliction or persecution that does not exist.</p><p> The exact nature of the delusion is decided by the GM. Delusions are typically roleplayed, though a GM might apply penalties to skill and ability checks having to do with the delusion, or decide that such checks fail outright because of the character's delusion. In some circumstances, delusions can be debilitating, while in others they are merely quirky or annoying to those around the character.</p>",
      "unidentified": ""
    },
    "tags": [
      "Maladies",
      "Madness"
    ],
    "actions": [],
    "uses": {
      "per": null,
      "value": 0,
      "maxFormula": "",
      "autoDeductChargesCost": "1"
    },
    "attackNotes": [],
    "effectNotes": [],
    "changes": [],
    "changeFlags": {
      "loseDexToAC": false,
      "noEncumbrance": false,
      "mediumArmorFullSpeed": false,
      "heavyArmorFullSpeed": false
    },
    "contextNotes": [],
    "links": {
      "children": [],
      "charges": []
    },
    "tag": "delusion",
    "useCustomTag": false,
    "armorProf": {
      "value": [],
      "custom": ""
    },
    "weaponProf": {
      "value": [],
      "custom": ""
    },
    "languages": {
      "value": [],
      "custom": ""
    },
    "flags": {
      "boolean": {},
      "dictionary": {}
    },
    "scriptCalls": [],
    "subType": "misc",
    "associations": {
      "classes": []
    },
    "showInQuickbar": false,
    "abilityType": "none",
    "crOffset": "",
    "disabled": false,
    "classSkills": {}
  },
  "ownership": {
    "default": 0
  },
  "_stats": {
    "systemId": "pf1",
    "systemVersion": "9.1",
    "coreVersion": "10.291",
    "createdTime": 1665428376429,
    "modifiedTime": 1689797931454,
    "lastModifiedBy": "ppv91YxratjWnkJi"
  },
  "effects": [],
  "folder": null,
  "sort": 0,
  "_key": "!items!IsBlazcUupiurGMl"
}