{
  "_id": "e17LSqxAyki6Rhg5",
  "name": "Demon Fever",
  "type": "feat",
  "img": "systems/pf1/icons/feats/shatter-defenses.jpg",
  "system": {
    "description": {
      "value": "<p><strong>Type&nbsp;</strong>disease (injury); <strong>Save&nbsp;</strong>Fortitude DC 18;</p>\n<p><strong>Onset&nbsp;</strong><span id=\"ctl00_MainContent_DataListDiseases_ctl00_LabelName\">1 day</span>;&nbsp;<strong>Frequency&nbsp;</strong>1/day</p>\n<p><strong>Effect&nbsp;</strong>1d6 Con damage, target must make a second Fort save or 1 point of the damage is drain instead</p>\n<p><strong>Cure</strong>&nbsp;2 consecutive saves</p>",
      "unidentified": ""
    },
    "tags": [
      "Maladies",
      "Disease"
    ],
    "actions": [],
    "uses": {
      "per": null,
      "value": 0,
      "maxFormula": "",
      "autoDeductChargesCost": "1"
    },
    "attackNotes": [],
    "effectNotes": [],
    "changes": [],
    "changeFlags": {
      "loseDexToAC": false,
      "noEncumbrance": false,
      "mediumArmorFullSpeed": false,
      "heavyArmorFullSpeed": false
    },
    "contextNotes": [],
    "links": {
      "children": [],
      "charges": []
    },
    "tag": "demonFever",
    "useCustomTag": false,
    "armorProf": {
      "value": [],
      "custom": ""
    },
    "weaponProf": {
      "value": [],
      "custom": ""
    },
    "languages": {
      "value": [],
      "custom": ""
    },
    "flags": {
      "boolean": {},
      "dictionary": {}
    },
    "scriptCalls": [],
    "subType": "misc",
    "associations": {
      "classes": []
    },
    "showInQuickbar": false,
    "abilityType": "none",
    "crOffset": "",
    "disabled": false,
    "classSkills": {}
  },
  "ownership": {
    "default": 0
  },
  "_stats": {
    "systemId": "pf1",
    "systemVersion": "9.1",
    "coreVersion": "10.291",
    "createdTime": 1665428376465,
    "modifiedTime": 1689797931670,
    "lastModifiedBy": "ppv91YxratjWnkJi"
  },
  "effects": [],
  "folder": null,
  "sort": 0,
  "flags": {},
  "_key": "!items!e17LSqxAyki6Rhg5"
}