{
  "_id": "seGEx0gymT7zJ755",
  "name": "Dvezda Plague",
  "type": "feat",
  "img": "systems/pf1/icons/skills/blood_09.jpg",
  "system": {
    "description": {
      "value": "<p><strong>Type&nbsp;</strong>disease (<span id=\"ctl00_MainContent_DataListDiseases_ctl00_LabelName\">ingested or inhaled)</span>;&nbsp;<strong>Save&nbsp;</strong>Fortitude DC 16;</p>\n<p><strong>Onset&nbsp;</strong><span id=\"ctl00_MainContent_DataListDiseases_ctl00_LabelName\">1d4 days</span>;&nbsp;<strong>Frequency</strong>&nbsp;1/day</p>\n<p><strong>Effect&nbsp;</strong>1d4 Con damage and 1 Dex damage</p>\n<p><strong>Cure</strong>&nbsp;2 consecutive saves</p>\n<hr />\n<p>Days after contracting the virus, the victim becomes stricken with a high fever and begins sweating profusely. Later, the victim begins suffering from extreme tremors, followed by a thinning of the blood and bleeding from the tear ducts, nose, ears, and other orifices.</p>",
      "unidentified": ""
    },
    "tags": [
      "Maladies",
      "Disease"
    ],
    "actions": [],
    "uses": {
      "per": null,
      "value": 0,
      "maxFormula": "",
      "autoDeductChargesCost": "1"
    },
    "attackNotes": [],
    "effectNotes": [],
    "changes": [],
    "changeFlags": {
      "loseDexToAC": false,
      "noEncumbrance": false,
      "mediumArmorFullSpeed": false,
      "heavyArmorFullSpeed": false
    },
    "contextNotes": [],
    "links": {
      "children": [],
      "charges": []
    },
    "tag": "dvezdaPlague",
    "useCustomTag": false,
    "armorProf": {
      "value": [],
      "custom": ""
    },
    "weaponProf": {
      "value": [],
      "custom": ""
    },
    "languages": {
      "value": [],
      "custom": ""
    },
    "flags": {
      "boolean": {},
      "dictionary": {}
    },
    "scriptCalls": [],
    "subType": "misc",
    "associations": {
      "classes": []
    },
    "showInQuickbar": false,
    "abilityType": "none",
    "crOffset": "",
    "disabled": false,
    "classSkills": {}
  },
  "ownership": {
    "default": 0
  },
  "_stats": {
    "systemId": "pf1",
    "systemVersion": "9.1",
    "coreVersion": "10.291",
    "createdTime": 1665428376488,
    "modifiedTime": 1689797931825,
    "lastModifiedBy": "ppv91YxratjWnkJi"
  },
  "effects": [],
  "folder": null,
  "sort": 0,
  "flags": {},
  "_key": "!items!seGEx0gymT7zJ755"
}