{
  "_id": "Gn4sYgrI6e63OVrx",
  "name": "Greenscale",
  "type": "feat",
  "img": "icons/commodities/biological/tail-scaled-green.webp",
  "system": {
    "description": {
      "value": "<p><strong>Type&nbsp;</strong>disease (injury); <strong>Save&nbsp;</strong>Fortitude DC 15;</p>\n<p><strong>Onset&nbsp;</strong><span id=\"ctl00_MainContent_DataListDiseases_ctl00_LabelName\">1d6 days</span>;&nbsp;<strong>Frequency&nbsp;</strong>1/week</p>\n<p><strong>Effect&nbsp;</strong>1d2 Cha damage and 1d2 Dex damage, target must make a second Fort save or 1 point of the Cha damage is drain instead</p>\n<p><strong>Cure&nbsp;</strong>2 consecutive saves</p>\n<hr />\n<p>This disgusting disease causes patches of skin to harden and crack, weeping greenish pus and covering the body with putrid, scale-like patterns. The disease is most commonly contracted through injury or other blood-to-blood contact with an infected creature, though certain carrion eaters of the jungle particularly birds have been known to play host to the disease without themselves suffering from it.</p>",
      "unidentified": ""
    },
    "tags": [
      "Maladies",
      "Disease"
    ],
    "actions": [],
    "uses": {
      "per": null,
      "value": 0,
      "maxFormula": "",
      "autoDeductChargesCost": "1"
    },
    "attackNotes": [],
    "effectNotes": [],
    "changes": [],
    "changeFlags": {
      "loseDexToAC": false,
      "noEncumbrance": false,
      "mediumArmorFullSpeed": false,
      "heavyArmorFullSpeed": false
    },
    "contextNotes": [],
    "links": {
      "children": [],
      "charges": []
    },
    "tag": "greenscale",
    "useCustomTag": false,
    "armorProf": {
      "value": [],
      "custom": ""
    },
    "weaponProf": {
      "value": [],
      "custom": ""
    },
    "languages": {
      "value": [],
      "custom": ""
    },
    "flags": {
      "boolean": {},
      "dictionary": {}
    },
    "scriptCalls": [],
    "subType": "misc",
    "associations": {
      "classes": []
    },
    "showInQuickbar": false,
    "abilityType": "none",
    "crOffset": "",
    "disabled": false,
    "classSkills": {}
  },
  "ownership": {
    "default": 0
  },
  "_stats": {
    "systemId": "pf1",
    "systemVersion": "9.1",
    "coreVersion": "10.291",
    "createdTime": 1665428376424,
    "modifiedTime": 1689797931419,
    "lastModifiedBy": "ppv91YxratjWnkJi"
  },
  "effects": [],
  "folder": null,
  "sort": 0,
  "flags": {},
  "_key": "!items!Gn4sYgrI6e63OVrx"
}