{
  "_id": "9wpmxqfHsCZwGNRz",
  "name": "Haunting, Major",
  "type": "feat",
  "img": "systems/pf1/icons/skills/affliction_11.jpg",
  "flags": {
    "scene-packer": {
      "sourceId": "Item.iaILxCXFJqWueZUs"
    }
  },
  "system": {
    "description": {
      "value": "<p><strong>Source</strong> <em>Horror Adventures pg. 138</em></p>\n<p><strong>Type</strong> curse; <strong>Save</strong> Will DC 17</p>\n<p><strong>Effect</strong> The victim is haunted by a Ghost as described in minor haunting.</p>\n<p><strong>Cure</strong> Unlike a minor haunting, a major haunting can be ended only by putting the ghost to rest, though casting <em>remove curse</em> directly after the ghost is destroyed prevents it from reviving for 2d4 days.</p>",
      "unidentified": ""
    },
    "tags": [
      "Maladies",
      "Curse"
    ],
    "actions": [],
    "uses": {
      "per": null,
      "value": 0,
      "maxFormula": "",
      "autoDeductChargesCost": "1"
    },
    "attackNotes": [],
    "effectNotes": [],
    "changes": [],
    "changeFlags": {
      "loseDexToAC": false,
      "noEncumbrance": false,
      "mediumArmorFullSpeed": false,
      "heavyArmorFullSpeed": false
    },
    "contextNotes": [],
    "links": {
      "children": [],
      "charges": []
    },
    "tag": "hauntingMajor",
    "useCustomTag": false,
    "armorProf": {
      "value": [],
      "custom": ""
    },
    "weaponProf": {
      "value": [],
      "custom": ""
    },
    "languages": {
      "value": [],
      "custom": ""
    },
    "flags": {
      "boolean": {},
      "dictionary": {}
    },
    "scriptCalls": [],
    "subType": "misc",
    "associations": {
      "classes": []
    },
    "showInQuickbar": false,
    "abilityType": "none",
    "crOffset": "",
    "disabled": false,
    "classSkills": {}
  },
  "ownership": {
    "default": 0
  },
  "_stats": {
    "systemId": "pf1",
    "systemVersion": "9.1",
    "coreVersion": "10.291",
    "createdTime": 1665428376413,
    "modifiedTime": 1689797931353,
    "lastModifiedBy": "ppv91YxratjWnkJi"
  },
  "effects": [],
  "folder": null,
  "sort": 0,
  "_key": "!items!9wpmxqfHsCZwGNRz"
}