{
  "_id": "pqWFuMZYmxceDdcq",
  "name": "Melancholia",
  "type": "feat",
  "img": "systems/pf1/icons/skills/affliction_03.jpg",
  "flags": {
    "scene-packer": {
      "sourceId": "Item.aqzttVf6CSTt1Naj"
    }
  },
  "system": {
    "description": {
      "value": "<p><strong>Source</strong> <em>Horror Adventures pg. 185</em></p><p><strong>Type</strong> lesser madness; <strong>Save</strong> DC 14</p><p><strong>Onset</strong> 1d4 days</p><p><strong>Effect</strong> -2 penalty on initiative checks, and morale bonuses are halved (minimum +0)</p><p><strong>Dormancy Effect</strong> None</p><p><h3 class=\"framing\">Description</h3>A character suffering from melancholia struggles with severe pessimism and can often be slow to respond to threats and events going on around him. He can seem quiet and withdrawn, and his sense of enthusiasm is dulled. In extreme cases, a character suffering from melancholia becomes entirely introverted and utterly withdrawn, even to the point of near catatonia.</p>",
      "unidentified": ""
    },
    "tags": [
      "Maladies",
      "Madness"
    ],
    "actions": [],
    "uses": {
      "per": null,
      "value": 0,
      "maxFormula": "",
      "autoDeductChargesCost": "1"
    },
    "attackNotes": [],
    "effectNotes": [],
    "changes": [],
    "changeFlags": {
      "loseDexToAC": false,
      "noEncumbrance": false,
      "mediumArmorFullSpeed": false,
      "heavyArmorFullSpeed": false
    },
    "contextNotes": [],
    "links": {
      "children": [],
      "charges": []
    },
    "tag": "melancholia",
    "useCustomTag": false,
    "armorProf": {
      "value": [],
      "custom": ""
    },
    "weaponProf": {
      "value": [],
      "custom": ""
    },
    "languages": {
      "value": [],
      "custom": ""
    },
    "flags": {
      "boolean": {},
      "dictionary": {}
    },
    "scriptCalls": [],
    "subType": "misc",
    "associations": {
      "classes": []
    },
    "showInQuickbar": false,
    "abilityType": "none",
    "crOffset": "",
    "disabled": false,
    "classSkills": {}
  },
  "ownership": {
    "default": 0
  },
  "_stats": {
    "systemId": "pf1",
    "systemVersion": "9.1",
    "coreVersion": "10.291",
    "createdTime": 1665428376480,
    "modifiedTime": 1689797931796,
    "lastModifiedBy": "ppv91YxratjWnkJi"
  },
  "effects": [],
  "folder": null,
  "sort": 0,
  "_key": "!items!pqWFuMZYmxceDdcq"
}