{
  "_id": "8PGpGctntOLjXrvT",
  "name": "Paranoid",
  "type": "feat",
  "img": "systems/pf1/icons/skills/affliction_03.jpg",
  "flags": {
    "scene-packer": {
      "sourceId": "Item.BaNbSUfkBtd2oME1"
    }
  },
  "system": {
    "description": {
      "value": "<p><strong>Source</strong> <em>Horror Adventures pg. 185</em>, <em>GameMastery Guide pg. 251</em></p><p><strong>Type</strong> lesser madness; <strong>Save</strong> DC 17</p><p><strong>Onset</strong> 2d6 days</p><p><strong>Effect</strong> The afflicted character gains a +2 bonus on saving throws against charm effects, but takes a -2 penalty on Bluff, Diplomacy, and Sense Motive checks. When the afflicted character attempts a Sense Motive check, the GM rolls the check in secret, and failure gives the afflicted character the impression that those whose motives he is trying to sense are plotting against him in some way. Lastly, any time the afflicted character tries to use or gain a benefit from the aid another action, or is the target of a beneficial spell or effect from an ally, he must succeed at a Will saving throw in order to take the aid another action or gain the benefit from the action, spell, or effect.</p><p><strong>Dormancy Effect</strong> The afflicted character gains a +2 bonus on saving throws against charm effects, but takes a -2 penalty on Bluff, Diplomacy, and Sense Motive checks.</p><p><h3 class=\"framing\">Description</h3>A paranoid character is convinced that the world and society are conspiring toward his ruin. Typically those afflicted with paranoia are fidgety, argumentative, sullen, or extremely introverted.</p>",
      "unidentified": ""
    },
    "tags": [
      "Maladies",
      "Madness"
    ],
    "actions": [],
    "uses": {
      "per": null,
      "value": 0,
      "maxFormula": "",
      "autoDeductChargesCost": "1"
    },
    "attackNotes": [],
    "effectNotes": [],
    "changes": [],
    "changeFlags": {
      "loseDexToAC": false,
      "noEncumbrance": false,
      "mediumArmorFullSpeed": false,
      "heavyArmorFullSpeed": false
    },
    "contextNotes": [],
    "links": {
      "children": [],
      "charges": []
    },
    "tag": "paranoid",
    "useCustomTag": false,
    "armorProf": {
      "value": [],
      "custom": ""
    },
    "weaponProf": {
      "value": [],
      "custom": ""
    },
    "languages": {
      "value": [],
      "custom": ""
    },
    "flags": {
      "boolean": {},
      "dictionary": {}
    },
    "scriptCalls": [],
    "subType": "misc",
    "associations": {
      "classes": []
    },
    "showInQuickbar": false,
    "abilityType": "none",
    "crOffset": "",
    "disabled": false,
    "classSkills": {}
  },
  "ownership": {
    "default": 0
  },
  "_stats": {
    "systemId": "pf1",
    "systemVersion": "9.1",
    "coreVersion": "10.291",
    "createdTime": 1665428376406,
    "modifiedTime": 1689797931308,
    "lastModifiedBy": "ppv91YxratjWnkJi"
  },
  "effects": [],
  "folder": null,
  "sort": 0,
  "_key": "!items!8PGpGctntOLjXrvT"
}