{
  "_id": "QpGYkXq7z7yQ4SFe",
  "name": "Perilous Demesne, Minor",
  "type": "feat",
  "img": "systems/pf1/icons/skills/affliction_11.jpg",
  "flags": {
    "scene-packer": {
      "sourceId": "Item.0cSwqYYfmdB6ogFC"
    }
  },
  "system": {
    "description": {
      "value": "<p><strong>Source</strong> <em>Horror Adventures pg. 145</em></p><p><strong>Type</strong> regional curse; <strong>Save</strong> Will DC 13</p><p><strong>Effect</strong> Up to three hazards (see the Horror Environments section), each of CR 3 or less, imperil creatures in the area, though never with more than one hazard at a time. If a creature places this curse, it can choose the hazards. The hazards must be appropriate to the type of terrain (at the GM's discretion). Any of the hazards that are rendered safe reset themselves and become dangerous again at each midnight.</p>",
      "unidentified": ""
    },
    "tags": [
      "Maladies",
      "Curse"
    ],
    "actions": [],
    "uses": {
      "per": null,
      "value": 0,
      "maxFormula": "",
      "autoDeductChargesCost": "1"
    },
    "attackNotes": [],
    "effectNotes": [],
    "changes": [],
    "changeFlags": {
      "loseDexToAC": false,
      "noEncumbrance": false,
      "mediumArmorFullSpeed": false,
      "heavyArmorFullSpeed": false
    },
    "contextNotes": [],
    "links": {
      "children": [],
      "charges": []
    },
    "tag": "perilousDemesneMinor",
    "useCustomTag": false,
    "armorProf": {
      "value": [],
      "custom": ""
    },
    "weaponProf": {
      "value": [],
      "custom": ""
    },
    "languages": {
      "value": [],
      "custom": ""
    },
    "flags": {
      "boolean": {},
      "dictionary": {}
    },
    "scriptCalls": [],
    "subType": "misc",
    "associations": {
      "classes": []
    },
    "showInQuickbar": false,
    "abilityType": "none",
    "crOffset": "",
    "disabled": false,
    "classSkills": {}
  },
  "ownership": {
    "default": 0
  },
  "_stats": {
    "systemId": "pf1",
    "systemVersion": "9.1",
    "coreVersion": "10.291",
    "createdTime": 1665428376449,
    "modifiedTime": 1689797931566,
    "lastModifiedBy": "ppv91YxratjWnkJi"
  },
  "effects": [],
  "folder": null,
  "sort": 0,
  "_key": "!items!QpGYkXq7z7yQ4SFe"
}