{
  "_id": "Ojb0pR3nLGfJVbj1",
  "name": "Scarlet Leprosy",
  "type": "feat",
  "img": "icons/commodities/biological/hand-clawed-scale-grey.webp",
  "system": {
    "description": {
      "value": "<p><strong>Type</strong>&nbsp;disease (injury);&nbsp;<strong>Save&nbsp;</strong>Fortitude DC 20;</p>\n<p><strong>Onset&nbsp;</strong><span id=\"ctl00_MainContent_DataListDiseases_ctl00_LabelName\">1d3 day</span>;&nbsp;<strong>Frequency&nbsp;</strong>1/day</p>\n<p><strong>Effect&nbsp;</strong>1d6 Con and 1d6 Cha damage; whenever a character suffers Con damage, 1 point is permanent drain.</p>\n<p><strong>Cure&nbsp;</strong>&ndash;</p>\n<hr />\n<p>A carrion golem transmits scarlet leprosy on a successful slam attack.</p>",
      "unidentified": ""
    },
    "tags": [
      "Maladies",
      "Disease"
    ],
    "actions": [],
    "uses": {
      "per": null,
      "value": 0,
      "maxFormula": "",
      "autoDeductChargesCost": "1"
    },
    "attackNotes": [],
    "effectNotes": [],
    "changes": [],
    "changeFlags": {
      "loseDexToAC": false,
      "noEncumbrance": false,
      "mediumArmorFullSpeed": false,
      "heavyArmorFullSpeed": false
    },
    "contextNotes": [],
    "links": {
      "children": [],
      "charges": []
    },
    "tag": "scarletLeprosy",
    "useCustomTag": false,
    "armorProf": {
      "value": [],
      "custom": ""
    },
    "weaponProf": {
      "value": [],
      "custom": ""
    },
    "languages": {
      "value": [],
      "custom": ""
    },
    "flags": {
      "boolean": {},
      "dictionary": {}
    },
    "scriptCalls": [],
    "subType": "misc",
    "associations": {
      "classes": []
    },
    "showInQuickbar": false,
    "abilityType": "none",
    "crOffset": "",
    "disabled": false,
    "classSkills": {}
  },
  "ownership": {
    "default": 0
  },
  "_stats": {
    "systemId": "pf1",
    "systemVersion": "9.1",
    "coreVersion": "10.291",
    "createdTime": 1665428376442,
    "modifiedTime": 1689797931531,
    "lastModifiedBy": "ppv91YxratjWnkJi"
  },
  "effects": [],
  "folder": null,
  "sort": 0,
  "flags": {},
  "_key": "!items!Ojb0pR3nLGfJVbj1"
}