{
  "_id": "BPBJRXHJAAH8cpEt",
  "name": "Spellscar Fever",
  "type": "feat",
  "img": "systems/pf1/icons/skills/affliction_11.jpg",
  "system": {
    "description": {
      "value": "<p><strong>Type&nbsp;</strong>disease (ingested or inhaled); <strong>Save&nbsp;</strong>Fortitude DC 15 (+1 per previous save);</p>\n<p><strong>Onset&nbsp;</strong>2d6+1<span id=\"ctl00_MainContent_DataListDiseases_ctl00_LabelName\">&nbsp;days</span>;&nbsp;<strong>Frequency&nbsp;</strong>1/day</p>\n<p><strong>Effect&nbsp;</strong>1d2 Con damage, 1d2 Cha drain</p>\n<p><strong>Cure&nbsp;</strong>2 consecutive saves</p>\n<p><strong>Ongoing Save</strong>&nbsp;Fort DC equal to the save DC of the failed saving throw</p>\n<hr />\n<p>Anyone who lives with spellscar fever for a week straight without dying becomes immune to the disease and to mana fever, but also becomes a Mana Waste mutant (Pathfinder Campaign Setting: Inner Sea Bestiary pg. 28) or a mutant (Pathfinder RPG Bestiary 5 pg. 180), chosen by the GM. A Mana Waste mutant created in such a way can use the following Spellscar Fever Deformities table in place of a deformity from the Inner Sea Bestiary, while a mutant resulting from spellscar fever can take one effect from the same table in place of one deformity and one mutation.</p>\n<p>&nbsp;</p>\n<p><span id=\"ctl00_MainContent_DataListDiseases_ctl00_LabelName\"></span></p>\n<table style=\"width: 98.6014%;\" border=\"1\">\n<tbody>\n<tr>\n<td style=\"width: 6.50259%;\"><strong>d4</strong></td>\n<td style=\"width: 92.6306%;\"><strong>Effect</strong></td>\n</tr>\n<tr>\n<td style=\"width: 6.50259%;\">1</td>\n<td style=\"width: 92.6306%; padding: 3px;\"><strong>Echolocation (Ex):</strong>&nbsp;The mutant constantly emits a yipping noise, causing it to take a &ndash;4 penalty on Stealth checks. It can never cast spells with verbal components, but it gains blindsight out to a range of 15 feet.</td>\n</tr>\n<tr>\n<td style=\"width: 6.50259%;\">2</td>\n<td style=\"width: 92.6306%; padding: 3px;\"><strong>Gigantism (Ex):</strong>&nbsp;The mutant takes a &ndash;2 penalty on all Intelligence-based skill checks, but it gains the benefit of a permanent enlarge person effect.</td>\n</tr>\n<tr>\n<td style=\"width: 6.50259%;\">3</td>\n<td style=\"width: 92.6306%; padding: 3px;\"><strong>Proteanism (Ex):</strong>&nbsp;The mutant takes a &ndash;2 penalty on all Strength-based skill checks, but it gains a +2 bonus on its Disguise skill check and it gains the compression universal monster ability.</td>\n</tr>\n<tr>\n<td style=\"width: 6.50259%;\"><span id=\"ctl00_MainContent_RulesResult\">4</span></td>\n<td style=\"width: 92.6306%; padding: 3px;\"><strong>Reality Shift (Ex):</strong>&nbsp;The mutant takes a &ndash;5 penalty on initiative checks and can never act in the surprise round, but it gains the benefit of a permanent blur effect.<br /><br /></td>\n</tr>\n</tbody>\n</table>",
      "unidentified": ""
    },
    "tags": [
      "Maladies",
      "Disease"
    ],
    "actions": [],
    "uses": {
      "per": null,
      "value": 0,
      "maxFormula": "",
      "autoDeductChargesCost": "1"
    },
    "attackNotes": [],
    "effectNotes": [],
    "changes": [],
    "changeFlags": {
      "loseDexToAC": false,
      "noEncumbrance": false,
      "mediumArmorFullSpeed": false,
      "heavyArmorFullSpeed": false
    },
    "contextNotes": [],
    "links": {
      "children": [],
      "charges": []
    },
    "tag": "spellscarFever",
    "useCustomTag": false,
    "armorProf": {
      "value": [],
      "custom": ""
    },
    "weaponProf": {
      "value": [],
      "custom": ""
    },
    "languages": {
      "value": [],
      "custom": ""
    },
    "flags": {
      "boolean": {},
      "dictionary": {}
    },
    "scriptCalls": [],
    "subType": "misc",
    "associations": {
      "classes": []
    },
    "showInQuickbar": false,
    "abilityType": "none",
    "crOffset": "",
    "disabled": false,
    "classSkills": {}
  },
  "ownership": {
    "default": 0
  },
  "_stats": {
    "systemId": "pf1",
    "systemVersion": "9.1",
    "coreVersion": "10.291",
    "createdTime": 1665428376415,
    "modifiedTime": 1689797931367,
    "lastModifiedBy": "ppv91YxratjWnkJi"
  },
  "effects": [],
  "folder": null,
  "sort": 0,
  "flags": {},
  "_key": "!items!BPBJRXHJAAH8cpEt"
}