{
  "_id": "nyKZ6XfskikDjyxk",
  "name": "Zombie Rot",
  "type": "feat",
  "img": "systems/pf1/icons/skills/affliction_21.jpg",
  "system": {
    "description": {
      "value": "<p><strong>Type&nbsp;</strong>disease (contact); <strong>Save&nbsp;</strong>Fortitude DC = 10 + 1/2 the zombie&rsquo;s Hit Dice + the zombie&rsquo;s Cha modifier;</p>\n<p><strong>Onset&nbsp;</strong><span id=\"ctl00_MainContent_DataListDiseases_ctl00_LabelName\">1d4 days</span>;&nbsp;<strong>Frequency&nbsp;</strong>1/day</p>\n<p><strong>Effect&nbsp;</strong>1d2 Con damage (this damage cannot be healed while the creature is infected)</p>\n<p><strong>Cure&nbsp;</strong>2 consecutive saves</p>\n<hr />\n<p>Anyone who dies while infected rises as a plague zombie in 2d6 hours.</p>",
      "unidentified": ""
    },
    "tags": [
      "Maladies",
      "Disease"
    ],
    "actions": [],
    "uses": {
      "per": null,
      "value": 0,
      "maxFormula": "",
      "autoDeductChargesCost": "1"
    },
    "attackNotes": [],
    "effectNotes": [],
    "changes": [],
    "changeFlags": {
      "loseDexToAC": false,
      "noEncumbrance": false,
      "mediumArmorFullSpeed": false,
      "heavyArmorFullSpeed": false
    },
    "contextNotes": [],
    "links": {
      "children": [],
      "charges": []
    },
    "tag": "zombieRot",
    "useCustomTag": false,
    "armorProf": {
      "value": [],
      "custom": ""
    },
    "weaponProf": {
      "value": [],
      "custom": ""
    },
    "languages": {
      "value": [],
      "custom": ""
    },
    "flags": {
      "boolean": {},
      "dictionary": {}
    },
    "scriptCalls": [],
    "subType": "misc",
    "associations": {
      "classes": []
    },
    "showInQuickbar": false,
    "abilityType": "none",
    "crOffset": "",
    "disabled": false,
    "classSkills": {}
  },
  "ownership": {
    "default": 0
  },
  "_stats": {
    "systemId": "pf1",
    "systemVersion": "9.1",
    "coreVersion": "10.291",
    "createdTime": 1665428376475,
    "modifiedTime": 1689797931759,
    "lastModifiedBy": "ppv91YxratjWnkJi"
  },
  "effects": [],
  "folder": null,
  "sort": 0,
  "flags": {},
  "_key": "!items!nyKZ6XfskikDjyxk"
}