{
  "_id": "oZtWEEuhZ6G0D8Lu",
  "name": "Animal Companion",
  "type": "class",
  "img": "systems/pf1/icons/skills/blue_29.jpg",
  "effects": [],
  "folder": "Vvpy1gAw1xcfXp9K",
  "sort": 0,
  "flags": {
    "pf1": {
      "links": {
        "classAssociations": {
          "ixsnAPKrnuRek0lV": 1,
          "zvUjSw2hoYzH3Zbl": 1,
          "LdkQxuVv150NYTrQ": 1,
          "ewMbZykaOiSYg9e7": 1,
          "XKV3LXO1pt9Akftk": 1,
          "flDfPN4kd6rQVodc": 3,
          "Q4wLk8kGyRrxeZIW": 3.75,
          "XfkmSLTPuWxCYqAv": 4,
          "Ga4fyKIhRM1HpMql": 3.75,
          "HpQSsZ487Ezaa2ie": 3.75,
          "pjL98Lv2i2aXsaVT": 4,
          "8i9LJTWftG8XpsPF": 6,
          "iPTeoLEmZjosmpHM": 3.75,
          "ohHc5o0pE4QE3kkj": 8,
          "C7LEKbLr3Sac4nfa": 12.75,
          "U7wyruGySNeY1VuF": 3.75,
          "m0kR0wJNmEwKQBFZ": 4,
          "i1Zaa9K4xrnGHLI5": 1,
          "Rn53PvUY7uixU2Jy": 1,
          "MAHuWnNMW17Ecm8d": 1,
          "4XwKVd2jDZOo2ppX": 1,
          "lvFc2uF8WFhYRC7v": 1,
          "8FTr8SNim5cpdlwK": 1,
          "O97rnGgcXJb8Fe14": 1,
          "z11v22Y9vdY5TZq2": 3,
          "YIxGbwVWsU097kpe": 3,
          "1p9wyQvBQ3Yp3S5A": 4,
          "vIf6jIszJnzCCcsW": 6,
          "XPu7rUWyaARo4bzH": 9,
          "7aJWnfM1gUxxvLs6": 15,
          "vBaWXNTMV7HK3Pnn": 1,
          "7DxI57sSqjVrrkWR": 1,
          "DDylumZHuL6Le3KF": 1,
          "YGcmu7uvns7qjCUH": 1,
          "QaZzfmD93M3Uh0wR": 1,
          "RUXnNeT5LAj3FJh7": 1
        }
      }
    },
    "core": {
      "sourceId": "Compendium.pf-content.pf-companion-features.oczJR5oLDOOxV8mk"
    },
    "scene-packer": {
      "sourceId": "Item.7pL8LLH4d2v9stEe"
    }
  },
  "system": {
    "description": {
      "value": "<p>An animal companion&rsquo;s abilities are determined by the druid&rsquo;s&nbsp;level and its animal racial traits.&nbsp;<strong>Table: Animal Companion Base Statistics</strong>&nbsp;determines many of the base statistics of the animal companion. They remain creatures of the animal type for purposes of determining which spells can affect them.</p>\n<p>&nbsp;</p>\n<table style=\"width: 547px; height: 688px;\" border=\"1\" cellpadding=\"5\"><caption><strong>Table: Animal Companion Base Statistics</strong></caption>\n<thead>\n<tr>\n<th class=\"text\" style=\"text-align: center; width: 41px;\">Class Level</th>\n<th class=\"text\" style=\"text-align: center; width: 24px;\">HD</th>\n<th class=\"text\" style=\"text-align: center; width: 30px;\">BAB</th>\n<th class=\"text\" style=\"text-align: center; width: 26px;\">Fort</th>\n<th class=\"text\" style=\"text-align: center; width: 23px;\">Ref</th>\n<th class=\"text\" style=\"text-align: center; width: 26px;\">Will</th>\n<th class=\"text\" style=\"text-align: center; width: 35px;\">Skills</th>\n<th class=\"text\" style=\"text-align: center; width: 33px;\">Feats</th>\n<th class=\"text\" style=\"text-align: center; width: 65px;\">Natural Armor<br />Bonus</th>\n<th class=\"text\" style=\"text-align: center; width: 49px;\">Str/Dex Bonus</th>\n<th class=\"text\" style=\"text-align: center; width: 55px;\">Bonus Tricks</th>\n<th class=\"text\" style=\"text-align: center; width: 127px;\">Special</th>\n</tr>\n</thead>\n<tbody>\n<tr>\n<td class=\"number\" style=\"text-align: center; width: 39px;\">1st</td>\n<td class=\"number\" style=\"text-align: center; width: 24px;\">2</td>\n<td class=\"number\" style=\"text-align: center; width: 30px;\">+1</td>\n<td class=\"number\" style=\"text-align: center; width: 26px;\">+3</td>\n<td class=\"number\" style=\"text-align: center; width: 23px;\">+3</td>\n<td class=\"number\" style=\"text-align: center; width: 26px;\">+0</td>\n<td class=\"number\" style=\"text-align: center; width: 35px;\">2</td>\n<td class=\"number\" style=\"text-align: center; width: 33px;\">1</td>\n<td class=\"number\" style=\"text-align: center; width: 65px;\">+0</td>\n<td class=\"number\" style=\"text-align: center; width: 49px;\">+0</td>\n<td class=\"number\" style=\"text-align: center; width: 55px;\">1</td>\n<td class=\"text\" style=\"width: 127px;\">Link,&nbsp;share spells</td>\n</tr>\n<tr>\n<td class=\"number\" style=\"text-align: center; width: 39px;\">2nd</td>\n<td class=\"number\" style=\"text-align: center; width: 24px;\">3</td>\n<td class=\"number\" style=\"text-align: center; width: 30px;\">+2</td>\n<td class=\"number\" style=\"text-align: center; width: 26px;\">+3</td>\n<td class=\"number\" style=\"text-align: center; width: 23px;\">+3</td>\n<td class=\"number\" style=\"text-align: center; width: 26px;\">+1</td>\n<td class=\"number\" style=\"text-align: center; width: 35px;\">3</td>\n<td class=\"number\" style=\"text-align: center; width: 33px;\">2</td>\n<td class=\"number\" style=\"text-align: center; width: 65px;\">+0</td>\n<td class=\"number\" style=\"text-align: center; width: 49px;\">+0</td>\n<td class=\"number\" style=\"text-align: center; width: 55px;\">1</td>\n<td class=\"marker\" style=\"width: 127px;\">&mdash;</td>\n</tr>\n<tr>\n<td class=\"number\" style=\"text-align: center; width: 39px;\">3rd</td>\n<td class=\"number\" style=\"text-align: center; width: 24px;\">3</td>\n<td class=\"number\" style=\"text-align: center; width: 30px;\">+2</td>\n<td class=\"number\" style=\"text-align: center; width: 26px;\">+3</td>\n<td class=\"number\" style=\"text-align: center; width: 23px;\">+3</td>\n<td class=\"number\" style=\"text-align: center; width: 26px;\">+1</td>\n<td class=\"number\" style=\"text-align: center; width: 35px;\">3</td>\n<td class=\"number\" style=\"text-align: center; width: 33px;\">2</td>\n<td class=\"number\" style=\"text-align: center; width: 65px;\">+2</td>\n<td class=\"number\" style=\"text-align: center; width: 49px;\">+1</td>\n<td class=\"number\" style=\"text-align: center; width: 55px;\">2</td>\n<td class=\"text\" style=\"width: 127px;\">Evasion</td>\n</tr>\n<tr>\n<td class=\"number\" style=\"text-align: center; width: 39px;\">4th</td>\n<td class=\"number\" style=\"text-align: center; width: 24px;\">4</td>\n<td class=\"number\" style=\"text-align: center; width: 30px;\">+3</td>\n<td class=\"number\" style=\"text-align: center; width: 26px;\">+4</td>\n<td class=\"number\" style=\"text-align: center; width: 23px;\">+4</td>\n<td class=\"number\" style=\"text-align: center; width: 26px;\">+1</td>\n<td class=\"number\" style=\"text-align: center; width: 35px;\">4</td>\n<td class=\"number\" style=\"text-align: center; width: 33px;\">2</td>\n<td class=\"number\" style=\"text-align: center; width: 65px;\">+2</td>\n<td class=\"number\" style=\"text-align: center; width: 49px;\">+1</td>\n<td class=\"number\" style=\"text-align: center; width: 55px;\">2</td>\n<td class=\"text\" style=\"width: 127px;\">Ability score increase</td>\n</tr>\n<tr>\n<td class=\"number\" style=\"text-align: center; width: 39px;\">5th</td>\n<td class=\"number\" style=\"text-align: center; width: 24px;\">5</td>\n<td class=\"number\" style=\"text-align: center; width: 30px;\">+3</td>\n<td class=\"number\" style=\"text-align: center; width: 26px;\">+4</td>\n<td class=\"number\" style=\"text-align: center; width: 23px;\">+4</td>\n<td class=\"number\" style=\"text-align: center; width: 26px;\">+1</td>\n<td class=\"number\" style=\"text-align: center; width: 35px;\">5</td>\n<td class=\"number\" style=\"text-align: center; width: 33px;\">3</td>\n<td class=\"number\" style=\"text-align: center; width: 65px;\">+2</td>\n<td class=\"number\" style=\"text-align: center; width: 49px;\">+1</td>\n<td class=\"number\" style=\"text-align: center; width: 55px;\">2</td>\n<td class=\"marker\" style=\"width: 127px;\">&mdash;</td>\n</tr>\n<tr>\n<td class=\"number\" style=\"text-align: center; width: 39px;\">6th</td>\n<td class=\"number\" style=\"text-align: center; width: 24px;\">6</td>\n<td class=\"number\" style=\"text-align: center; width: 30px;\">+4</td>\n<td class=\"number\" style=\"text-align: center; width: 26px;\">+5</td>\n<td class=\"number\" style=\"text-align: center; width: 23px;\">+5</td>\n<td class=\"number\" style=\"text-align: center; width: 26px;\">+2</td>\n<td class=\"number\" style=\"text-align: center; width: 35px;\">6</td>\n<td class=\"number\" style=\"text-align: center; width: 33px;\">3</td>\n<td class=\"number\" style=\"text-align: center; width: 65px;\">+4</td>\n<td class=\"number\" style=\"text-align: center; width: 49px;\">+2</td>\n<td class=\"number\" style=\"text-align: center; width: 55px;\">3</td>\n<td class=\"text\" style=\"width: 127px;\">Devotion</td>\n</tr>\n<tr>\n<td class=\"number\" style=\"text-align: center; width: 39px;\">7th</td>\n<td class=\"number\" style=\"text-align: center; width: 24px;\">6</td>\n<td class=\"number\" style=\"text-align: center; width: 30px;\">+4</td>\n<td class=\"number\" style=\"text-align: center; width: 26px;\">+5</td>\n<td class=\"number\" style=\"text-align: center; width: 23px;\">+5</td>\n<td class=\"number\" style=\"text-align: center; width: 26px;\">+2</td>\n<td class=\"number\" style=\"text-align: center; width: 35px;\">6</td>\n<td class=\"number\" style=\"text-align: center; width: 33px;\">3</td>\n<td class=\"number\" style=\"text-align: center; width: 65px;\">+4</td>\n<td class=\"number\" style=\"text-align: center; width: 49px;\">+2</td>\n<td class=\"number\" style=\"text-align: center; width: 55px;\">3</td>\n<td class=\"marker\" style=\"width: 127px;\">&mdash;</td>\n</tr>\n<tr>\n<td class=\"number\" style=\"text-align: center; width: 39px;\">8th</td>\n<td class=\"number\" style=\"text-align: center; width: 24px;\">7</td>\n<td class=\"number\" style=\"text-align: center; width: 30px;\">+5</td>\n<td class=\"number\" style=\"text-align: center; width: 26px;\">+5</td>\n<td class=\"number\" style=\"text-align: center; width: 23px;\">+5</td>\n<td class=\"number\" style=\"text-align: center; width: 26px;\">+2</td>\n<td class=\"number\" style=\"text-align: center; width: 35px;\">7</td>\n<td class=\"number\" style=\"text-align: center; width: 33px;\">4</td>\n<td class=\"number\" style=\"text-align: center; width: 65px;\">+4</td>\n<td class=\"number\" style=\"text-align: center; width: 49px;\">+2</td>\n<td class=\"number\" style=\"text-align: center; width: 55px;\">3</td>\n<td class=\"marker\" style=\"width: 127px;\">&mdash;</td>\n</tr>\n<tr>\n<td class=\"number\" style=\"text-align: center; width: 39px;\">9th</td>\n<td class=\"number\" style=\"text-align: center; width: 24px;\">8</td>\n<td class=\"number\" style=\"text-align: center; width: 30px;\">+6</td>\n<td class=\"number\" style=\"text-align: center; width: 26px;\">+6</td>\n<td class=\"number\" style=\"text-align: center; width: 23px;\">+6</td>\n<td class=\"number\" style=\"text-align: center; width: 26px;\">+2</td>\n<td class=\"number\" style=\"text-align: center; width: 35px;\">8</td>\n<td class=\"number\" style=\"text-align: center; width: 33px;\">4</td>\n<td class=\"number\" style=\"text-align: center; width: 65px;\">+6</td>\n<td class=\"number\" style=\"text-align: center; width: 49px;\">+3</td>\n<td class=\"number\" style=\"text-align: center; width: 55px;\">4</td>\n<td class=\"text\" style=\"width: 127px;\">Ability score increase,&nbsp;Multiattack</td>\n</tr>\n<tr>\n<td class=\"number\" style=\"text-align: center; width: 39px;\">10th</td>\n<td class=\"number\" style=\"text-align: center; width: 24px;\">9</td>\n<td class=\"number\" style=\"text-align: center; width: 30px;\">+6</td>\n<td class=\"number\" style=\"text-align: center; width: 26px;\">+6</td>\n<td class=\"number\" style=\"text-align: center; width: 23px;\">+6</td>\n<td class=\"number\" style=\"text-align: center; width: 26px;\">+3</td>\n<td class=\"number\" style=\"text-align: center; width: 35px;\">9</td>\n<td class=\"number\" style=\"text-align: center; width: 33px;\">5</td>\n<td class=\"number\" style=\"text-align: center; width: 65px;\">+6</td>\n<td class=\"number\" style=\"text-align: center; width: 49px;\">+3</td>\n<td class=\"number\" style=\"text-align: center; width: 55px;\">4</td>\n<td class=\"marker\" style=\"width: 127px;\">&mdash;</td>\n</tr>\n<tr>\n<td class=\"number\" style=\"text-align: center; width: 39px;\">11th</td>\n<td class=\"number\" style=\"text-align: center; width: 24px;\">9</td>\n<td class=\"number\" style=\"text-align: center; width: 30px;\">+6</td>\n<td class=\"number\" style=\"text-align: center; width: 26px;\">+6</td>\n<td class=\"number\" style=\"text-align: center; width: 23px;\">+6</td>\n<td class=\"number\" style=\"text-align: center; width: 26px;\">+3</td>\n<td class=\"number\" style=\"text-align: center; width: 35px;\">9</td>\n<td class=\"number\" style=\"text-align: center; width: 33px;\">5</td>\n<td class=\"number\" style=\"text-align: center; width: 65px;\">+6</td>\n<td class=\"number\" style=\"text-align: center; width: 49px;\">+3</td>\n<td class=\"number\" style=\"text-align: center; width: 55px;\">4</td>\n<td class=\"marker\" style=\"width: 127px;\">&mdash;</td>\n</tr>\n<tr>\n<td class=\"number\" style=\"text-align: center; width: 39px;\">12th</td>\n<td class=\"number\" style=\"text-align: center; width: 24px;\">10</td>\n<td class=\"number\" style=\"text-align: center; width: 30px;\">+7</td>\n<td class=\"number\" style=\"text-align: center; width: 26px;\">+7</td>\n<td class=\"number\" style=\"text-align: center; width: 23px;\">+7</td>\n<td class=\"number\" style=\"text-align: center; width: 26px;\">+3</td>\n<td class=\"number\" style=\"text-align: center; width: 35px;\">10</td>\n<td class=\"number\" style=\"text-align: center; width: 33px;\">5</td>\n<td class=\"number\" style=\"text-align: center; width: 65px;\">+8</td>\n<td class=\"number\" style=\"text-align: center; width: 49px;\">+4</td>\n<td class=\"number\" style=\"text-align: center; width: 55px;\">5</td>\n<td class=\"marker\" style=\"width: 127px;\">&mdash;</td>\n</tr>\n<tr>\n<td class=\"number\" style=\"text-align: center; width: 39px;\">13th</td>\n<td class=\"number\" style=\"text-align: center; width: 24px;\">11</td>\n<td class=\"number\" style=\"text-align: center; width: 30px;\">+8</td>\n<td class=\"number\" style=\"text-align: center; width: 26px;\">+7</td>\n<td class=\"number\" style=\"text-align: center; width: 23px;\">+7</td>\n<td class=\"number\" style=\"text-align: center; width: 26px;\">+3</td>\n<td class=\"number\" style=\"text-align: center; width: 35px;\">11</td>\n<td class=\"number\" style=\"text-align: center; width: 33px;\">6</td>\n<td class=\"number\" style=\"text-align: center; width: 65px;\">+8</td>\n<td class=\"number\" style=\"text-align: center; width: 49px;\">+4</td>\n<td class=\"number\" style=\"text-align: center; width: 55px;\">5</td>\n<td class=\"marker\" style=\"width: 127px;\">&mdash;</td>\n</tr>\n<tr>\n<td class=\"number\" style=\"text-align: center; width: 39px;\">14th</td>\n<td class=\"number\" style=\"text-align: center; width: 24px;\">12</td>\n<td class=\"number\" style=\"text-align: center; width: 30px;\">+9</td>\n<td class=\"number\" style=\"text-align: center; width: 26px;\">+8</td>\n<td class=\"number\" style=\"text-align: center; width: 23px;\">+8</td>\n<td class=\"number\" style=\"text-align: center; width: 26px;\">+4</td>\n<td class=\"number\" style=\"text-align: center; width: 35px;\">12</td>\n<td class=\"number\" style=\"text-align: center; width: 33px;\">6</td>\n<td class=\"number\" style=\"text-align: center; width: 65px;\">+8</td>\n<td class=\"number\" style=\"text-align: center; width: 49px;\">+4</td>\n<td class=\"number\" style=\"text-align: center; width: 55px;\">5</td>\n<td class=\"text\" style=\"width: 127px;\">Ability score increase</td>\n</tr>\n<tr>\n<td class=\"number\" style=\"text-align: center; width: 39px;\">15th</td>\n<td class=\"number\" style=\"text-align: center; width: 24px;\">12</td>\n<td class=\"number\" style=\"text-align: center; width: 30px;\">+9</td>\n<td class=\"number\" style=\"text-align: center; width: 26px;\">+8</td>\n<td class=\"number\" style=\"text-align: center; width: 23px;\">+8</td>\n<td class=\"number\" style=\"text-align: center; width: 26px;\">+4</td>\n<td class=\"number\" style=\"text-align: center; width: 35px;\">12</td>\n<td class=\"number\" style=\"text-align: center; width: 33px;\">6</td>\n<td class=\"number\" style=\"text-align: center; width: 65px;\">+10</td>\n<td class=\"number\" style=\"text-align: center; width: 49px;\">+5</td>\n<td class=\"number\" style=\"text-align: center; width: 55px;\">6</td>\n<td class=\"text\" style=\"width: 127px;\">Improved evasion</td>\n</tr>\n<tr>\n<td class=\"number\" style=\"text-align: center; width: 39px;\">16th</td>\n<td class=\"number\" style=\"text-align: center; width: 24px;\">13</td>\n<td class=\"number\" style=\"text-align: center; width: 30px;\">+9</td>\n<td class=\"number\" style=\"text-align: center; width: 26px;\">+8</td>\n<td class=\"number\" style=\"text-align: center; width: 23px;\">+8</td>\n<td class=\"number\" style=\"text-align: center; width: 26px;\">+4</td>\n<td class=\"number\" style=\"text-align: center; width: 35px;\">13</td>\n<td class=\"number\" style=\"text-align: center; width: 33px;\">7</td>\n<td class=\"number\" style=\"text-align: center; width: 65px;\">+10</td>\n<td class=\"number\" style=\"text-align: center; width: 49px;\">+5</td>\n<td class=\"number\" style=\"text-align: center; width: 55px;\">6</td>\n<td class=\"marker\" style=\"width: 127px;\">&mdash;</td>\n</tr>\n<tr>\n<td class=\"number\" style=\"text-align: center; width: 39px;\">17th</td>\n<td class=\"number\" style=\"text-align: center; width: 24px;\">14</td>\n<td class=\"number\" style=\"text-align: center; width: 30px;\">+10</td>\n<td class=\"number\" style=\"text-align: center; width: 26px;\">+9</td>\n<td class=\"number\" style=\"text-align: center; width: 23px;\">+9</td>\n<td class=\"number\" style=\"text-align: center; width: 26px;\">+4</td>\n<td class=\"number\" style=\"text-align: center; width: 35px;\">14</td>\n<td class=\"number\" style=\"text-align: center; width: 33px;\">7</td>\n<td class=\"number\" style=\"text-align: center; width: 65px;\">+10</td>\n<td class=\"number\" style=\"text-align: center; width: 49px;\">+5</td>\n<td class=\"number\" style=\"text-align: center; width: 55px;\">6</td>\n<td class=\"marker\" style=\"width: 127px;\">&mdash;</td>\n</tr>\n<tr>\n<td class=\"number\" style=\"text-align: center; width: 39px;\">18th</td>\n<td class=\"number\" style=\"text-align: center; width: 24px;\">15</td>\n<td class=\"number\" style=\"text-align: center; width: 30px;\">+11</td>\n<td class=\"number\" style=\"text-align: center; width: 26px;\">+9</td>\n<td class=\"number\" style=\"text-align: center; width: 23px;\">+9</td>\n<td class=\"number\" style=\"text-align: center; width: 26px;\">+5</td>\n<td class=\"number\" style=\"text-align: center; width: 35px;\">15</td>\n<td class=\"number\" style=\"text-align: center; width: 33px;\">8</td>\n<td class=\"number\" style=\"text-align: center; width: 65px;\">+12</td>\n<td class=\"number\" style=\"text-align: center; width: 49px;\">+6</td>\n<td class=\"number\" style=\"text-align: center; width: 55px;\">7</td>\n<td class=\"marker\" style=\"width: 127px;\">&mdash;</td>\n</tr>\n<tr>\n<td class=\"number\" style=\"text-align: center; width: 39px;\">19th</td>\n<td class=\"number\" style=\"text-align: center; width: 24px;\">15</td>\n<td class=\"number\" style=\"text-align: center; width: 30px;\">+11</td>\n<td class=\"number\" style=\"text-align: center; width: 26px;\">+9</td>\n<td class=\"number\" style=\"text-align: center; width: 23px;\">+9</td>\n<td class=\"number\" style=\"text-align: center; width: 26px;\">+5</td>\n<td class=\"number\" style=\"text-align: center; width: 35px;\">15</td>\n<td class=\"number\" style=\"text-align: center; width: 33px;\">8</td>\n<td class=\"number\" style=\"text-align: center; width: 65px;\">+12</td>\n<td class=\"number\" style=\"text-align: center; width: 49px;\">+6</td>\n<td class=\"number\" style=\"text-align: center; width: 55px;\">7</td>\n<td class=\"marker\" style=\"width: 127px;\">&mdash;</td>\n</tr>\n<tr>\n<td class=\"number\" style=\"text-align: center; width: 39px;\">20th</td>\n<td class=\"number\" style=\"text-align: center; width: 24px;\">16</td>\n<td class=\"number\" style=\"text-align: center; width: 30px;\">+12</td>\n<td class=\"number\" style=\"text-align: center; width: 26px;\">+10</td>\n<td class=\"number\" style=\"text-align: center; width: 23px;\">+10</td>\n<td class=\"number\" style=\"text-align: center; width: 26px;\">+5</td>\n<td class=\"number\" style=\"text-align: center; width: 35px;\">16</td>\n<td class=\"number\" style=\"text-align: center; width: 33px;\">8</td>\n<td class=\"number\" style=\"text-align: center; width: 67px;\">+12</td>\n<td class=\"number\" style=\"text-align: center; width: 49px;\">+6</td>\n<td class=\"number\" style=\"text-align: center; width: 57px;\">7</td>\n<td class=\"text\" style=\"width: 127px;\">Ability score increase</td>\n</tr>\n</tbody>\n</table>\n<hr />\n<h2><span id=\"Features\">Animal Skills</span></h2>\n<p><span id=\"ctl00_MainContent_DataListTypes_ctl00_LabelName\">Animal companions can have ranks in any of the following skills:</span></p>\n<ul>\n<li><span id=\"ctl00_MainContent_DataListTypes_ctl00_LabelName\">Acrobatics* (Dex)</span></li>\n<li><span id=\"ctl00_MainContent_DataListTypes_ctl00_LabelName\">Climb* (Str)</span></li>\n<li><span id=\"ctl00_MainContent_DataListTypes_ctl00_LabelName\">Escape Artist (Dex)</span></li>\n<li><span id=\"ctl00_MainContent_DataListTypes_ctl00_LabelName\">Fly* (Dex)</span></li>\n<li><span id=\"ctl00_MainContent_DataListTypes_ctl00_LabelName\">Intimidate (Cha)</span></li>\n<li><span id=\"ctl00_MainContent_DataListTypes_ctl00_LabelName\">Perception* (Wis)</span></li>\n<li><span id=\"ctl00_MainContent_DataListTypes_ctl00_LabelName\">Stealth* (Dex)</span></li>\n<li><span id=\"ctl00_MainContent_DataListTypes_ctl00_LabelName\">Survival (Wis)</span></li>\n<li><span id=\"ctl00_MainContent_DataListTypes_ctl00_LabelName\">Swim* (Str)</span></li>\n</ul>\n<p><span id=\"ctl00_MainContent_DataListTypes_ctl00_LabelName\">All of the skills marked with an (*) are class skills for animal companions. Animal companions with an Intelligence of 3 or higher can put ranks into any skill.</span></p>",
      "unidentified": ""
    },
    "tags": [],
    "changes": [],
    "changeFlags": {
      "loseDexToAC": false,
      "noEncumbrance": false,
      "mediumArmorFullSpeed": false,
      "heavyArmorFullSpeed": false,
      "noStr": false,
      "noDex": false,
      "oneInt": false,
      "oneWis": false,
      "oneCha": false
    },
    "links": {
      "children": [],
      "classAssociations": [
        {
          "_index": 0,
          "level": 1,
          "name": "Bonus Tricks",
          "uuid": "Compendium.pf-content.pf-companion-features.I9aVgYTVbwwmdZYz"
        },
        {
          "_index": 1,
          "level": 1,
          "name": "Link",
          "uuid": "Compendium.pf-content.pf-companion-features.g6t6hQoc95ASlz7D"
        },
        {
          "_index": 2,
          "level": 1,
          "name": "Natural Armor Bonus",
          "uuid": "Compendium.pf-content.pf-companion-features.rSxgmcPwAAmFL4r9"
        },
        {
          "_index": 3,
          "level": 1,
          "name": "Share Spells",
          "uuid": "Compendium.pf-content.pf-companion-features.ZaBFpK3HT49DAUpE"
        },
        {
          "_index": 4,
          "level": 1,
          "name": "STR/DEX Bonus",
          "uuid": "Compendium.pf-content.pf-companion-features.nWKp65a3AOFqJOs6"
        },
        {
          "_index": 5,
          "level": 1,
          "name": "Animal Companion Feats",
          "uuid": "Compendium.pf-content.pf-companion-features.w8QhU9qZ4VXxO4Ij"
        },
        {
          "_index": 6,
          "level": 3,
          "name": "Evasion",
          "uuid": "Compendium.pf-content.pf-companion-features.Jcth45jjTCvvGBUS"
        },
        {
          "_index": 7,
          "level": 4,
          "name": "Ability Score Increase",
          "uuid": "Compendium.pf-content.pf-companion-features.HYLK9yCcU73xaVNS"
        },
        {
          "_index": 8,
          "level": 6,
          "name": "Devotion",
          "uuid": "Compendium.pf-content.pf-companion-features.5uKoaeTitZUnfnQ1"
        },
        {
          "_index": 9,
          "level": 9,
          "name": "Multiattack",
          "uuid": "Compendium.pf-content.pf-companion-features.fZ8uC8TAnvzYp9YQ"
        },
        {
          "_index": 10,
          "level": 15,
          "name": "Improved Evasion",
          "uuid": "Compendium.pf-content.pf-companion-features.FLDY1YB8IHw4G4gV"
        }
      ]
    },
    "tag": "animalCompanion",
    "useCustomTag": true,
    "armorProf": {
      "value": [],
      "custom": ""
    },
    "weaponProf": {
      "value": [],
      "custom": ""
    },
    "languages": {
      "value": [],
      "custom": ""
    },
    "flags": {
      "boolean": {},
      "dictionary": {}
    },
    "scriptCalls": [],
    "subType": "base",
    "level": 1,
    "hd": 8,
    "hp": 8,
    "bab": "med",
    "skillsPerLevel": 1,
    "savingThrows": {
      "fort": {
        "value": "high"
      },
      "ref": {
        "value": "high"
      },
      "will": {
        "value": "low"
      }
    },
    "fc": {
      "hp": {
        "value": 0
      },
      "skill": {
        "value": 0
      },
      "alt": {
        "value": 0,
        "notes": ""
      }
    },
    "classSkills": {
      "acr": true,
      "apr": false,
      "art": false,
      "blf": false,
      "clm": true,
      "crf": false,
      "dip": false,
      "dev": false,
      "dis": false,
      "esc": false,
      "fly": true,
      "han": false,
      "hea": false,
      "int": false,
      "kar": false,
      "kdu": false,
      "ken": false,
      "kge": false,
      "khi": false,
      "klo": false,
      "kna": false,
      "kno": false,
      "kpl": false,
      "kre": false,
      "lin": false,
      "lor": false,
      "per": true,
      "prf": false,
      "pro": false,
      "rid": false,
      "sen": false,
      "slt": false,
      "spl": false,
      "ste": true,
      "sur": false,
      "swm": true,
      "umd": false
    },
    "levels": 1,
    "damage": {
      "parts": []
    },
    "uses": {
      "value": 0,
      "max": 0
    },
    "conditionals": [],
    "auraStrength": 0,
    "customHD": "(round(@item.level * .75) + 1)"
  },
  "ownership": {
    "default": 0
  },
  "_stats": {
    "systemId": null,
    "systemVersion": null,
    "coreVersion": null,
    "createdTime": null,
    "modifiedTime": null,
    "lastModifiedBy": null
  },
  "_key": "!actors.items!TIpkHepscgu9gvgV.oZtWEEuhZ6G0D8Lu"
}