{
  "_id": "FjiXW8ffOnUXHgEl",
  "name": "Link",
  "type": "feat",
  "img": "systems/pf1/icons/feats/quick-draw.jpg",
  "effects": [],
  "folder": null,
  "sort": 0,
  "flags": {
    "autoanimations": {
      "killAnim": false,
      "override": false,
      "animType": "t1",
      "animName": "",
      "hmAnim": "a1",
      "color": "n1",
      "dtvar": "dt1",
      "explosion": false,
      "explodeVariant": "ev1",
      "explodeColor": "ec1",
      "explodeRadius": "0",
      "explodeLoop": "1",
      "selfRadius": "5",
      "animTint": "#ffffff",
      "auraOpacity": 0.75,
      "ctaOption": false
    },
    "pf1": {},
    "scene-packer": {
      "sourceId": "Item.EdFvI2UTFONcats7"
    },
    "core": {
      "sourceId": "Compendium.pf-content.pf-companion-features.g6t6hQoc95ASlz7D"
    }
  },
  "system": {
    "description": {
      "value": "<p><span id=\"ctl00_MainContent_DataListTypes_ctl00_LabelName\">A druid can handle her animal companion as a free action, or push it as a move action, even if she doesn't have any ranks in the Handle Animal skill. The druid gains a +4 circumstance bonus on all wild empathy checks and Handle Animal checks made regarding an animal companion.&nbsp;</span></p>",
      "unidentified": ""
    },
    "tags": [
      "Animal Companion Class Feature"
    ],
    "actions": [],
    "uses": {
      "per": null,
      "value": 0,
      "maxFormula": "",
      "autoDeductChargesCost": "1",
      "max": 0
    },
    "attackNotes": [],
    "effectNotes": [],
    "changes": [],
    "changeFlags": {
      "loseDexToAC": false,
      "noEncumbrance": false,
      "mediumArmorFullSpeed": false,
      "heavyArmorFullSpeed": false,
      "noStr": false,
      "noDex": false,
      "oneInt": false,
      "oneWis": false,
      "oneCha": false
    },
    "contextNotes": [
      {
        "text": "+[[4]] Circumstance bonus when using Wild Empathy or Handle Animal on animal companion. (Not factored in)",
        "target": "skill",
        "subTarget": "skill.han"
      }
    ],
    "links": {
      "children": [],
      "charges": []
    },
    "tag": "link",
    "useCustomTag": false,
    "armorProf": {
      "value": [],
      "custom": ""
    },
    "weaponProf": {
      "value": [],
      "custom": ""
    },
    "languages": {
      "value": [],
      "custom": ""
    },
    "flags": {
      "boolean": {},
      "dictionary": {}
    },
    "scriptCalls": [],
    "subType": "classFeat",
    "associations": {
      "classes": [
        "Animal Companion"
      ]
    },
    "showInQuickbar": false,
    "abilityType": "ex",
    "crOffset": "",
    "disabled": false,
    "classSkills": {},
    "nonlethal": false,
    "duration": {
      "value": null,
      "units": ""
    },
    "target": {
      "value": ""
    },
    "attackName": "",
    "actionType": "",
    "attackBonus": "",
    "critConfirmBonus": "",
    "damage": {
      "parts": [],
      "critParts": [],
      "nonCritParts": []
    },
    "attackParts": [],
    "formulaicAttacks": {
      "count": {
        "formula": "",
        "value": null
      },
      "bonus": {
        "formula": ""
      },
      "label": null
    },
    "formula": "",
    "ability": {
      "attack": null,
      "damage": null,
      "damageMult": 1,
      "critRange": 20,
      "critMult": 2
    },
    "save": {
      "dc": 0,
      "type": "",
      "description": ""
    },
    "soundEffect": "",
    "powerAttack": {
      "multiplier": "",
      "damageBonus": 2,
      "critMultiplier": 1
    },
    "attack": {
      "parts": []
    },
    "conditionals": []
  },
  "ownership": {
    "default": 0
  },
  "_stats": {
    "systemId": null,
    "systemVersion": null,
    "coreVersion": null,
    "createdTime": null,
    "modifiedTime": null,
    "lastModifiedBy": null
  },
  "_key": "!actors.items!beYcNfFbtSdzV1o3.FjiXW8ffOnUXHgEl"
}