{
  "name": "Achaekek",
  "content": "<p></p><h1 class=\"title\"><img src=\"http://www.aonprd.com/images/PathfinderSocietySymbol.gif\" style=\"margin:3px 3px 0px 3px\" title=\"PFS Legal\" /> Achaekek</h1><h2><b>He Who Walks in Blood</b></h2><b>Source</b> <a class=\"external-link\" href=\"http://paizo.com/products/btpy9j74?Pathfinder-Campaign-Setting-Inner-Sea-Faiths\" target=\"_blank\"><i>Inner Sea Faiths pg. 5</i></a><br /><b>Pathfinder Wiki</b> <a href=\"http://www.pathfinderwiki.com/wiki/Achaekek\">Achaekek</a><p></p><h3 class=\"framing\">Details</h3><p><b>Alignment</b> LE<br /><b>Pantheon</b> Other Deities<br /><b>Areas of Concern</b> Assassinations, divine punishment, the red mantis<br /><b>Domains</b> <a href=\"DomainDisplay.aspx?ItemName=Death\">Death</a>, <a href=\"DomainDisplay.aspx?ItemName=Evil\">Evil</a>, <a href=\"DomainDisplay.aspx?ItemName=Law\">Law</a>, <a href=\"DomainDisplay.aspx?ItemName=Trickery\">Trickery</a>, <a href=\"DomainDisplay.aspx?ItemName=War\">War</a><br /><b>Subdomains</b> <a href=\"DomainDisplay.aspx?ItemName=War\">Blood</a>, <a href=\"DomainDisplay.aspx?ItemName=Trickery\">Deception</a>, <a href=\"DomainDisplay.aspx?ItemName=Evil\">Devil (Evil)</a>, <a href=\"DomainDisplay.aspx?ItemName=Law\">Devil (Law)</a>, <a href=\"DomainDisplay.aspx?ItemName=Animal\">Insect</a>*, <a href=\"DomainDisplay.aspx?ItemName=Death\">Murder</a>, <a href=\"DomainDisplay.aspx?ItemName=War\">Tactics</a>, <a href=\"DomainDisplay.aspx?ItemName=Trickery\">Thievery</a><br /><i>* Requires the <u><a href=\"TraitDisplay.aspx?ItemName=Acolyte%20of%20Apocrypha\">Acolyte of Apocrypha</a></u> trait.</i><br /><b>Favored Weapon</b> Sawtooth sabre<br /><b>Symbol</b> Crossed mantis claws<br /><b>Sacred Animal(s)</b> Crimson mantis<br /><b>Sacred Color(s)</b> Red<br /></p><h3 class=\"framing\">Obedience</h3><p>Meditate in a private place before a trophy or broken religious symbol taken from a target you have been contracted to kill. This trophy must be anointed with a single drop of your blood, drawn from your flesh by a sawtooth sabre, and the trophy must be destroyed at the end of your meditation. If you have yet to complete a contract, have no appropriate trophies at hand, or seek to serve the Mantis God in other ways than as the god's assassin, you must instead offer your own vital fluid to He Who Walks in Blood by cutting yourself along the right arm with a sawtooth sabre. Such self-mutilation deals 1d6 points of damage to you, which cannot be healed during the hour of meditation without disrupting the obedience; after the meditation ends, the wounds can be healed by any means available. You gain a +2 profane bonus to confirm critical hits while wielding a sawtooth sabre. As long as you have a sawtooth sabre in each hand, you can use those blades to complete the somatic component of any spell you cast, and you treat sawtooth sabres as your divine focus for the casting of divine spells.</p><h3 class=\"framing\">On Golarion</h3><p><b>Centers of Worship</b> Ilizmagorti<br /><b>Nationality</b> monster</p><h2 class=\"title\">Boons - <a href=\"FeatDisplay.aspx?ItemName=Deific Obedience\">Deific Obedience</a></h2><p></p><h3 class=\"framing\"><img src=\"http://www.aonprd.com/images/PathfinderSocietySymbolN.gif\" style=\"margin:3px 3px 0px 3px\" title=\"An evangelist of Achaekek who qualifies for that deity's third boon can purchase a mask of the mantis as if it were a legal item\" /> Evangelist</h3><p><b>Source </b><a class=\"external-link\" href=\"http://paizo.com/products/btpy9j74?Pathfinder-Campaign-Setting-Inner-Sea-Faiths\" target=\"_blank\"><i>Inner Sea Faiths pg. 5</i></a><br /><b>1: Blessing of the Mantis (Sp)</b> <i>disguise self</i> 3/day, <i>invisibility</i> 2/day, or <i>gaseous form</i> 1/day<br /><b>2: Walk Unseen (Su)</b> He Who Walks in Blood cloaks your steps, ensuring that you can move clandestinely during your hunts. You are constantly under the effects of a <i>pass without trace</i> spell, unless you wish to be followed. You also gain a +2 profane bonus on Stealth checks.<br /><b>3: Second Face (Su)</b> Your deadly equipment is sacred to you. As long as you carry a <i>mask of the mantis</i> (<i>Pathfinder Campaign Setting: The Inner Sea World Guide</i> 298) on your person (even if you do so by carrying it in an extradimensional space), you can instantly don it as a free action or as part of an attack of opportunity. While you wear a <i>mask of the mantis</i>, you can attempt to demoralize a creature within 30 feet using Intimidate as a swift action. You no longer need to expend charges from a <i>mask of the mantis</i> to gain the effect of <i>deathwatch</i>, although you must expend charges as normal to use the mask's other effects.</p><h3 class=\"framing\"><img src=\"http://www.aonprd.com/images/PathfinderSocietySymbol.gif\" style=\"margin:3px 3px 0px 3px\" title=\"PFS Legal\" /> Exalted</h3><p><b>Source </b><a class=\"external-link\" href=\"http://paizo.com/products/btpy9j74?Pathfinder-Campaign-Setting-Inner-Sea-Faiths\" target=\"_blank\"><i>Inner Sea Faiths pg. 5</i></a><br /><b>1: Crimson Decree (Sp)</b> <i>doom</i> 3/day, <i>death knell</i> 2/day, or <i>blood biography</i><sup>APG</sup> 1/day<br /><b>2: Blood Scent (Sp)</b> To your heightened olfactory senses, the acrid scent of blood is as pleasing and distinctive as the sweetest perfume. Three times per day, you can cast <i>blood scent</i> (<i>Pathfinder RPG Advanced Race Guide</i> 143) on yourself as a spell-like ability. This ability does not grant the spell's bonus on attack and damage rolls, even if you are an orc or have a rage ability.<br /><b>3: Focused Assassin (Su)</b> Your combat skills are just as deadly when you have an assassination target as when you don't. When you perform your obedience for the day, if you are not contracted to kill a target, you can name a single target. You need not know the exact name of your target, but you must know a suitably detailed and correct description, such as 'the thieves' guild's second in command.' Against that target, you gain a +2 profane bonus on attack rolls and weapon damage rolls, and you deal an additional 2d6 points of damage. The save DCs of any spells you cast on the target increase by 2. If you are contracted to kill a target, these bonuses apply against that target; if you are contracted to kill multiple targets, you must choose one target against whom these bonuses apply when you perform your obedience.</p><h3 class=\"framing\"><img src=\"http://www.aonprd.com/images/PathfinderSocietySymbol.gif\" style=\"margin:3px 3px 0px 3px\" title=\"PFS Legal\" /> Sentinel</h3><p><b>Source </b><a class=\"external-link\" href=\"http://paizo.com/products/btpy9j74?Pathfinder-Campaign-Setting-Inner-Sea-Faiths\" target=\"_blank\"><i>Inner Sea Faiths pg. 5</i></a><br /><b>1: Blood Must Flow (Sp)</b> <i>lead blades</i><sup>APG</sup> 3/day, <i>spiritual weapon</i> 2/day, or <i>keen edge</i> 1/day<br /><b>2: Bleeding Wounds (Ex)</b> All wounds you inflict with a sawtooth sabre are bleeding wounds, and deal 1d4 points of bleed damage to the target. If you deal bleed damage via another source (such as the bleeding attack rogue talent or by using a <i>wounding sawtooth sabre</i>), this ability does not deal additional bleed damage. You can also use <i>bleed</i> as a quickened spell-like ability three times per day.<br /><b>3: Mantis Style Mastery (Ex)</b> You take no penalties on attack rolls from two-weapon fighting when wielding two sawtooth sabres simultaneously, and you gain a +2 profane bonus on all damage rolls with sawtooth sabres. If you deal sneak attack damage with a sawtooth sabre, you deal 2 additional points of damage for each die rolled as part of your sneak attack damage. If you have levels in the Red Mantis assassin prestige class (<i>The Inner Sea World Guide</i> 282), the DC for the save against your prayer attack increases by 2.</p><h2 class=\"title\">For Followers of Achaekek</h2><p></p><h3 class=\"framing\">Archetypes</h3><p><a href=\"ArchetypeDisplay.aspx?FixedName=Alchemist Crimson Chymist\">Crimson Chymist (Alchemist)</a>, <a href=\"ArchetypeDisplay.aspx?FixedName=Warpriest Mantis Zealot\">Mantis Zealot (Warpriest)</a></p><h3 class=\"framing\">Feats</h3><p><a href=\"FeatDisplay.aspx?ItemName=Bloody Sabres\">Bloody Sabres</a></p><h3 class=\"framing\">Magic Items - Armor</h3><p><a href=\"MagicArmorDisplay.aspx?ItemName=Red Stalker Armor\">Red Stalker Armor</a></p><h3 class=\"framing\">Magic Items - Weapons</h3><p><a href=\"MagicWeaponsDisplay.aspx?ItemName=Crimson Bluff\">Crimson Bluff</a>, <a href=\"MagicWeaponsDisplay.aspx?ItemName=Fuming Blood Sabre\">Fuming Blood Sabre</a></p><h3 class=\"framing\">Magic Items - Wondrous Items</h3><p><a href=\"MagicWondrousDisplay.aspx?FinalName=Eye of the Mantis\">Eye of the Mantis</a>, <a href=\"MagicWondrousDisplay.aspx?FinalName=Mantis Embrace\">Mantis Embrace</a>, <a href=\"MagicWondrousDisplay.aspx?FinalName=Mask of the Mantis\">Mask of the Mantis</a></p><h3 class=\"framing\">Monsters</h3><p><a href=\"MonsterDisplay.aspx?ItemName=Kaicharek\">Kaicharek</a></p><h3 class=\"framing\">Prestige Classes</h3><p><a href=\"PrestigeClassesDisplay.aspx?ItemName=Death Slayer\">Death Slayer</a>, <a href=\"PrestigeClassesDisplay.aspx?ItemName=Red Mantis Assassin\">Red Mantis Assassin</a></p><h3 class=\"framing\">Traits</h3><p><a href=\"TraitDisplay.aspx?ItemName=Deep Wounding\">Deep Wounding</a>, <a href=\"TraitDisplay.aspx?ItemName=Frightening Speed\">Frightening Speed</a></p><h2 class=\"title\">Unique Spell Rules</h2><b>Source </b><a class=\"external-link\" href=\"http://paizo.com/products/btpy94wj?Pathfinder-Campaign-Setting-Inner-Sea-Gods-Hardcover\" target=\"_blank\"><i>Inner Sea Gods pg. 175</i></a><br /><p></p><h3 class=\"framing\">Cleric/Warpriest</h3><p><i><a href=\"SpellDisplay.aspx?ItemName=Keen Senses\">Keen Senses</a></i> can be prepared as a 1st-level spell<br /><i><a href=\"SpellDisplay.aspx?ItemName=Negate Aroma\">Negate Aroma</a></i> can be prepared as a 1st-level spell<br /><i><a href=\"SpellDisplay.aspx?ItemName=Spider Climb\">Spider Climb</a></i> can be prepared as a 2nd-level spell<br /></p><h3 class=\"framing\">Druid</h3><p><i><a href=\"SpellDisplay.aspx?ItemName=Murderous Command\">Murderous Command</a></i> can be prepared as a 1st-level spell<br /><br /><img src=\"http://www.aonprd.com/images/PathfinderSocietySymbol.gif\" style=\"margin:3px 3px 0px 3px\" title=\"PFS Legal\" /> <b>Source </b><a class=\"external-link\" href=\"http://paizo.com/products/btpy9j74?Pathfinder-Campaign-Setting-Inner-Sea-Faiths\" target=\"_blank\"><i>Inner Sea Faiths pg. 7</i></a><br /></p><h3 class=\"framing\">Cleric/Warpriest</h3><p><i><a href=\"SpellDisplay.aspx?ItemName=Keen Senses\">Keen Senses</a></i> can be prepared as a 1st-level spell<br /><i><a href=\"SpellDisplay.aspx?ItemName=Negate Aroma\">Negate Aroma</a></i> can be prepared as a 1st-level spell<br /><i><a href=\"SpellDisplay.aspx?ItemName=Spider Climb\">Spider Climb</a></i> can be prepared as a 2nd-level spell<br /></p><h3 class=\"framing\">Druid</h3><p><i><a href=\"SpellDisplay.aspx?ItemName=Murderous Command\">Murderous Command</a></i> can be prepared as a 1st-level spell<br /><br /></p><div style=\"position:relative;left:0%;border:2px ridge #434343;width:100%;height:100%\"><div class=\"wiki-content-full\"><iframe style=\"overflow-y:hidden;width:100%;height:450px\" src=\"https://pathfinderwiki.com/wiki/Achaekek\"> </iframe></div>\n </div>",
  "flags": {
    "monks-enhanced-journal": {
      "type": "journal"
    }
  },
  "_id": "QBUtqQpCmOV1aaDK",
  "pages": [],
  "_key": "!journal!QBUtqQpCmOV1aaDK"
}