{
  "name": "Aesdurath",
  "content": "<p></p><h1 class=\"title\">Aesdurath</h1><h2><b>The Pale Dowager</b></h2><b>Source</b> <a class=\"external-link\" href=\"http://paizo.com/products/btpy94wj?Pathfinder-Campaign-Setting-Inner-Sea-Gods-Hardcover\" target=\"_blank\"><i>Inner Sea Gods pg. 318</i></a><br /><b>Pathfinder Wiki</b> <a href=\"http://www.pathfinderwiki.com/wiki/Aesdurath\">Aesdurath</a><p></p><h3 class=\"framing\">Details</h3><p><b>Alignment</b> NE<br /><b>Pantheon</b> Daemon Harbingers<br /><b>Areas of Concern</b> Immortality, liches, magical catastrophes<br /><b>Domains</b> <a href=\"DomainDisplay.aspx?ItemName=Death\">Death</a>, <a href=\"DomainDisplay.aspx?ItemName=Evil\">Evil</a>, <a href=\"DomainDisplay.aspx?ItemName=Magic\">Magic</a>, <a href=\"DomainDisplay.aspx?ItemName=Trickery\">Trickery</a><br /><b>Subdomains</b> <a href=\"DomainDisplay.aspx?ItemName=Magic\">Arcane</a>, <a href=\"DomainDisplay.aspx?ItemName=Evil\">Daemon</a>, <a href=\"DomainDisplay.aspx?ItemName=Magic\">Divine</a>, <a href=\"DomainDisplay.aspx?ItemName=Death\">Undead</a><br /><i>* Requires the <u><a href=\"TraitDisplay.aspx?ItemName=Acolyte%20of%20Apocrypha\">Acolyte of Apocrypha</a></u> trait.</i><br /><b>Favored Weapon</b> Dagger<br /><b>Symbol</b> Crystal skull<br /><b>Sacred Animal(s)</b> Crow<br /><b>Sacred Color(s)</b> Crystal, white<br /></p><h3 class=\"framing\">Obedience</h3><p>Eat a portion of a being killed by magic. Gain a +4 profane bonus on saving throws against death effects.</p><h2 class=\"title\">Boons - Daemon Harbingers</h2><b>Source </b><a class=\"external-link\" href=\"http://paizo.com/products/btpy9tok\" target=\"_blank\"><i>Book of the Damned pg. 112</i></a><br />Abaddon's unique daemons take on a host of titles, customized to their methods and vanity. These harbingers enjoy sweeping influence among daemons as favored advisors, and they work to cultivate their own cults on Abaddon and beyond.<br /><br /> Daemon harbingers are neutral evil demigods that range in power from CR 21 to CR 25. The boons they grant are less complex than those granted by the Horsemen themselves, manifesting as spell-like abilities usable twice per day each.<br /><br /><b>1: </b> <i>death knell</i><br /><b>2: </b> <i>animate dead</i><br /><b>3: </b> <i>circle of death</i><br /><br /><p></p><div style=\"position:relative;left:0%;border:2px ridge #434343;width:100%;height:100%\"><div class=\"wiki-content-full\"><iframe style=\"overflow-y:hidden;width:100%;height:450px\" src=\"https://pathfinderwiki.com/wiki/Aesdurath\"> </iframe></div>\n </div>",
  "flags": {
    "monks-enhanced-journal": {
      "type": "journal"
    }
  },
  "_id": "M5gd2yhoe95ucUKy",
  "pages": [],
  "_key": "!journal!M5gd2yhoe95ucUKy"
}