{
  "name": "Andoletta",
  "content": "<p></p><h1 class=\"title\"><img src=\"http://www.aonprd.com/images/PathfinderSocietySymbol.gif\" style=\"margin:3px 3px 0px 3px\" title=\"PFS Legal\" /> Andoletta</h1><h2><b>Grandmother Crow</b></h2><b>Source</b> <a class=\"external-link\" href=\"http://paizo.com/products/btpy94wj?Pathfinder-Campaign-Setting-Inner-Sea-Gods-Hardcover\" target=\"_blank\"><i>Inner Sea Gods pg. 322</i></a><br /><b>Pathfinder Wiki</b> <a href=\"http://www.pathfinderwiki.com/wiki/Andoletta\">Andoletta</a><p></p><h3 class=\"framing\">Details</h3><p><b>Alignment</b> LG<br /><b>Pantheon</b> Empyreal Lords<br /><b>Areas of Concern</b> Consolation, respect, security<br /><b>Domains</b> <a href=\"DomainDisplay.aspx?ItemName=Good\">Good</a>, <a href=\"DomainDisplay.aspx?ItemName=Knowledge\">Knowledge</a>, <a href=\"DomainDisplay.aspx?ItemName=Law\">Law</a>, <a href=\"DomainDisplay.aspx?ItemName=Protection\">Protection</a><br /><b>Subdomains</b> <a href=\"DomainDisplay.aspx?ItemName=Good\">Archon (Good)</a>, <a href=\"DomainDisplay.aspx?ItemName=Law\">Archon (Law)</a>, <a href=\"DomainDisplay.aspx?ItemName=Protection\">Defense</a>, <a href=\"DomainDisplay.aspx?ItemName=Knowledge\">Education (Knowledge)</a>, <a href=\"DomainDisplay.aspx?ItemName=Knowledge\">Memory</a>, <a href=\"DomainDisplay.aspx?ItemName=Protection\">Purity</a><br /><i>* Requires the <u><a href=\"TraitDisplay.aspx?ItemName=Acolyte%20of%20Apocrypha\">Acolyte of Apocrypha</a></u> trait.</i><br /><b>Favored Weapon</b> Quarterstaff<br /><b>Symbol</b> Hand with willow staff<br /><b>Sacred Animal(s)</b> Crow<br /><b>Sacred Color(s)</b> Black, green<br /></p><h3 class=\"framing\">Obedience</h3><p>Recite the <i>Obeisance of Glorious Preservation </i>from memory while weaving a small basket from willow branches and filling the basket with food, money, or other sources of comfort to give to the poor at your next opportunity. Gain a +4 sacred bonus on saving throws against spells that deal non-energy hit point damage.</p><h2 class=\"title\">Boons - <a href=\"FeatDisplay.aspx?ItemName=Celestial Obedience\">Celestial Obedience</a></h2><p></p><h3 class=\"framing\"><img src=\"http://www.aonprd.com/images/PathfinderSocietySymbol.gif\" style=\"margin:3px 3px 0px 3px\" title=\"PFS Legal\" /> Mystery Cultist</h3><p><b>Source </b><a class=\"external-link\" href=\"http://paizo.com/products/btpy8xe9?Pathfinder-Campaign-Setting-Chronicle-of-the-Righteous\" target=\"_blank\"><i>Chronicle of the Righteous pg. 6</i></a><br /><b>1: Comfort of Faith (Sp)</b> <i>sanctuary </i>3/day, <i>align weapon </i>(law or good only) 2/day, or <i>magic circle against chaos/evil </i>1/day<br /><b>2: Demanding Presence (Sp)</b> You can cast silenced <i>dictum </i>once per day.<br /><b>3: Divine Gaze (Su)</b> Your eyes become the golden eyes of a crow. You gain darkvision out to a range of 60 feet (or, if you already have darkvision, extend your current range by 60 feet). Once per day as a standard action, you can shower yourself and any allies within 30 feet with divine light from your eyes, granting each affected target a +4 sacred bonus to AC, a +4 resistance bonus on all saving throws, and SR 25 for 1 round per HD you possess.</p><h2 class=\"title\">Paladin Code</h2>Andoletta's paladins serve courts and other authorities. They seek to protect innocence and dispel foolishness. Their tenets include the following affirmations.<ul><li> Children must be nurtured lest their innocence become callousness or ignorance. I will never be cold or negligent to a child.</li><li> Virtue relies upon wisdom, and wisdom relies upon true awareness. I will never leave a falsehood unchallenged.</li><li> I will be firm with the ignorant, but not cruel. Ignorance can be corrected.</li><li> I will respect my elders' knowledge and wisdom, but won't abide the spreading of complacency or ignorance.</li></ul> <h2 class=\"title\">For Followers of Andoletta</h2><p></p><h3 class=\"framing\">Feats</h3><p><a href=\"FeatDisplay.aspx?ItemName=Heroic Interposition\">Heroic Interposition</a></p><h3 class=\"framing\">Traits</h3><p><a href=\"TraitDisplay.aspx?ItemName=Andoletta's Consolation\">Andoletta's Consolation</a>, <a href=\"TraitDisplay.aspx?ItemName=Empyreal Focus\">Empyreal Focus</a>, <a href=\"TraitDisplay.aspx?ItemName=Enemy of Delusion\">Enemy of Delusion</a><br /><br /></p><div style=\"position:relative;left:0%;border:2px ridge #434343;width:100%;height:100%\"><div class=\"wiki-content-full\"><iframe style=\"overflow-y:hidden;width:100%;height:450px\" src=\"https://pathfinderwiki.com/wiki/Andoletta\"> </iframe></div>\n </div>",
  "flags": {
    "monks-enhanced-journal": {
      "type": "journal"
    }
  },
  "_id": "QBvtD9X1Es9PWouJ",
  "pages": [],
  "_key": "!journal!QBvtD9X1Es9PWouJ"
}