{
  "name": "Atropos",
  "content": "<p></p><h1 class=\"title\">Atropos</h1><h2><b>The Last Sister</b></h2><b>Source</b> <a class=\"external-link\" href=\"https://paizo.com/products/btq01x4d?Pathfinder-Campaign-Setting-Concordance-of-Rivals\" target=\"_blank\"><i>Concordance of Rivals pg. 6</i></a><br /><b>Pathfinder Wiki</b> <a href=\"http://www.pathfinderwiki.com/wiki/Atropos\">Atropos</a><p></p><h3 class=\"framing\">Details</h3><p><b>Alignment</b> N<br /><b>Pantheon</b> Psychopomp Usher<br /><b>Areas of Concern</b> Fate, sleep, and youth<br /><b>Domains</b> <a href=\"DomainDisplay.aspx?ItemName=Darkness\">Darkness</a>, <a href=\"DomainDisplay.aspx?ItemName=Death\">Death</a>, <a href=\"DomainDisplay.aspx?ItemName=Luck\">Luck</a>, <a href=\"DomainDisplay.aspx?ItemName=Repose\">Repose</a><br /><b>Subdomains</b> N/A<br /><i>* Requires the <u><a href=\"TraitDisplay.aspx?ItemName=Acolyte%20of%20Apocrypha\">Acolyte of Apocrypha</a></u> trait.</i><br /><b>Favored Weapon</b> Dagger<br /><b>Symbol</b> Six overlapping lines arranged in a hexagon<br /></p><h3 class=\"framing\">Obedience</h3><p>Assemble a careful list of each activity you will undertake in the day to come and keep a careful accounting of what you fail to accomplish and why. As part of this, select three different specific checks you expect to perform that day, such as 'a Perception check to find a hidden passage,' 'a Reflex save to dodge a fireball' or 'a Heal check to treat a disease.' Once during that day, you can gain a +4 insight bonus on one of these three specified checks.</p><h2 class=\"title\">Boons - <a href=\"FeatDisplay.aspx?ItemName=Monitor Obedience\">Monitor Obedience</a></h2><p></p><h3 class=\"framing\">None</h3><p><b>Source </b><a class=\"external-link\" href=\"https://paizo.com/products/btq01x4d?Pathfinder-Campaign-Setting-Concordance-of-Rivals\" target=\"_blank\"><i>Concordance of Rivals pg. 6</i></a><br /><b>1: Fruitful Dreams (Sp)</b> <a href=\"SpellDisplay.aspx?ItemName=sleep\" style=\"text-decoration:underline\"><i>sleep</i></a> 3/day, <a href=\"SpellDisplay.aspx?ItemName=augury\" style=\"text-decoration:underline\"><i>augury</i></a> 2/day, or <a href=\"SpellDisplay.aspx?ItemName=catatonia\" style=\"text-decoration:underline\"><i>catatonia</i></a> 1/day<br /><b>2: Childlike Grace (Su)</b> Once per day as a full-round action, you can revert to a childlike form, which grants you fresh insight and new perspective. This functions as a reduce person spell with a range of personal and a duration of 1 hour per Hit Die. In this form, you gain a +2 insight bonus on Perception and Sense Motive checks and Will saving throws, but you take a -2 penalty on Intelligence-based skill checks and Fortitude saving throws.<br /><b>3: Insight into Fate (Sp)</b> You can cast <a href=\"SpellDisplay.aspx?ItemName=moment of prescience\" style=\"text-decoration:underline\"><i>moment of prescience</i></a> 1/day.</p><h2 class=\"title\">For Followers of Atropos</h2><p></p><h3 class=\"framing\">Prestige Classes</h3><p><a href=\"PrestigeClassesDisplay.aspx?ItemName=Mortal Usher\">Mortal Usher</a><br /><br /></p><div style=\"position:relative;left:0%;border:2px ridge #434343;width:100%;height:100%\"><div class=\"wiki-content-full\"><iframe style=\"overflow-y:hidden;width:100%;height:450px\" src=\"https://pathfinderwiki.com/wiki/Atropos\"> </iframe></div>\n </div>",
  "flags": {
    "monks-enhanced-journal": {
      "type": "journal"
    }
  },
  "_id": "DxdG3jg5dfRhG8tO",
  "pages": [],
  "_key": "!journal!DxdG3jg5dfRhG8tO"
}