{
  "name": "Bastet",
  "content": "<p></p><h1 class=\"title\"><img src=\"http://www.aonprd.com/images/PathfinderSocietySymbol.gif\" style=\"margin:3px 3px 0px 3px\" title=\"PFS Legal\" /> Bastet</h1><h2><b>The Sly Enchantress</b></h2><b>Source</b> <a class=\"external-link\" href=\"http://paizo.com/products/btpy94vv?Pathfinder-Adventure-Path-80-Empty-Graves\" target=\"_blank\"><i>Pathfinder #80: Empty Graves pg. 65</i></a><br /><b>Pathfinder Wiki</b> <a href=\"http://www.pathfinderwiki.com/wiki/Bastet\">Bastet</a><p></p><h3 class=\"framing\">Details</h3><p><b>Alignment</b> CN<br /><b>Pantheon</b> Deities of Ancient Osirion<br /><b>Areas of Concern</b> Cats, pleasure, secrets<br /><b>Domains</b> <a href=\"DomainDisplay.aspx?ItemName=Animal\">Animal</a>, <a href=\"DomainDisplay.aspx?ItemName=Chaos\">Chaos</a>, <a href=\"DomainDisplay.aspx?ItemName=Charm\">Charm</a>, <a href=\"DomainDisplay.aspx?ItemName=Protection\">Protection</a>, <a href=\"DomainDisplay.aspx?ItemName=Trickery\">Trickery</a><br /><b>Subdomains</b> <a href=\"DomainDisplay.aspx?ItemName=Trickery\">Deception</a>, <a href=\"DomainDisplay.aspx?ItemName=Protection\">Defense</a>, <a href=\"DomainDisplay.aspx?ItemName=Animal\">Fur</a>, <a href=\"DomainDisplay.aspx?ItemName=Charm\">Lust</a>, <a href=\"DomainDisplay.aspx?ItemName=Chaos\">Protean</a>, <a href=\"DomainDisplay.aspx?ItemName=Trickery\">Thievery</a><br /><i>* Requires the <u><a href=\"TraitDisplay.aspx?ItemName=Acolyte%20of%20Apocrypha\">Acolyte of Apocrypha</a></u> trait.</i><br /><b>Favored Weapon</b> Cat's claws (tekko-kagi)<br /><b>Symbol</b> Golden cat<br /><b>Sacred Animal(s)</b> Cat<br /><br /><br /></p><div style=\"position:relative;left:0%;border:2px ridge #434343;width:100%;height:100%\"><div class=\"wiki-content-full\"><iframe style=\"overflow-y:hidden;width:100%;height:450px\" src=\"https://pathfinderwiki.com/wiki/Bastet\"> </iframe></div>\n </div>",
  "flags": {
    "monks-enhanced-journal": {
      "type": "journal"
    }
  },
  "_id": "VYSOzEfZYHATTnPX",
  "pages": [],
  "_key": "!journal!VYSOzEfZYHATTnPX"
}