{
  "name": "Bharnarol",
  "content": "<p></p><h1 class=\"title\"><img src=\"http://www.aonprd.com/images/PathfinderSocietySymbol.gif\" style=\"margin:3px 3px 0px 3px\" title=\"PFS Legal\" /> Bharnarol</h1><h2><b>The Tempered Inventor</b></h2><b>Source</b> <a class=\"external-link\" href=\"http://paizo.com/products/btpy94wj?Pathfinder-Campaign-Setting-Inner-Sea-Gods-Hardcover\" target=\"_blank\"><i>Inner Sea Gods pg. 322</i></a><br /><b>Pathfinder Wiki</b> <a href=\"http://www.pathfinderwiki.com/wiki/Bharnarol\">Bharnarol</a><p></p><h3 class=\"framing\">Details</h3><p><b>Alignment</b> NG<br /><b>Pantheon</b> Empyreal Lords<br /><b>Areas of Concern</b> Creativity, invention, persistence<br /><b>Domains</b> <a href=\"DomainDisplay.aspx?ItemName=Artifice\">Artifice</a>, <a href=\"DomainDisplay.aspx?ItemName=Community\">Community</a>, <a href=\"DomainDisplay.aspx?ItemName=Good\">Good</a>, <a href=\"DomainDisplay.aspx?ItemName=Knowledge\">Knowledge</a><br /><b>Subdomains</b> <a href=\"DomainDisplay.aspx?ItemName=Good\">Agathion</a>, <a href=\"DomainDisplay.aspx?ItemName=Artifice\">Construct</a>, <a href=\"DomainDisplay.aspx?ItemName=Community\">Cooperation</a>, <a href=\"DomainDisplay.aspx?ItemName=Community\">Education (Community)</a>, <a href=\"DomainDisplay.aspx?ItemName=Knowledge\">Education (Knowledge)</a>, <a href=\"DomainDisplay.aspx?ItemName=Knowledge\">Thought</a><br /><i>* Requires the <u><a href=\"TraitDisplay.aspx?ItemName=Acolyte%20of%20Apocrypha\">Acolyte of Apocrypha</a></u> trait.</i><br /><b>Favored Weapon</b> Sickle<br /><b>Symbol</b> Two mixing potions<br /><b>Sacred Animal(s)</b> Elephant<br /><b>Sacred Color(s)</b> Blue, red<br /></p><h3 class=\"framing\">Obedience</h3><p>Perform the motions of your preferred method of creation while letting your mind center on the teachings of Bharnarol. Follow any creative thoughts that arise to their conclusion. Gain a +4 sacred bonus to AC against attacks made by constructs and a +4 sacred bonus on saves against spells and effects cast by constructs.</p><h2 class=\"title\">Boons - <a href=\"FeatDisplay.aspx?ItemName=Celestial Obedience\">Celestial Obedience</a></h2><p></p><h3 class=\"framing\"><img src=\"http://www.aonprd.com/images/PathfinderSocietySymbol.gif\" style=\"margin:3px 3px 0px 3px\" title=\"PFS Legal\" /> Mystery Cultist</h3><p><b>Source </b><a class=\"external-link\" href=\"http://paizo.com/products/btpy8xe9?Pathfinder-Campaign-Setting-Chronicle-of-the-Righteous\" target=\"_blank\"><i>Chronicle of the Righteous pg. 8</i></a><br /><b>1: Inventor's Tools (Sp)</b> <i>grease </i>3/day, <i>fox's cunning </i>2/day, or <i>secret page </i>1/day<br /><b>2: Improve Item (Su)</b> Three times per day, you can enhance the effects of a magic item that either is consumed during use or has charges. As a swift action, you can enhance a held expendable item's effects as if using either the Empower Spell, Enlarge Spell, or Extend Spell metamagic feat. You must use the item during the same round you improve it in order to gain the benefits of the selected metamagic feat.<br /><b>3: Transmogrify (Sp)</b> You can cast extended <i>polymorph any object </i>once per day.</p><h2 class=\"title\">For Followers of Bharnarol</h2><p></p><h3 class=\"framing\">Feats</h3><p><a href=\"FeatDisplay.aspx?ItemName=Heroic Interposition\">Heroic Interposition</a></p><h3 class=\"framing\">Traits</h3><p><a href=\"TraitDisplay.aspx?ItemName=Empyreal Focus\">Empyreal Focus</a><br /><br /></p><div style=\"position:relative;left:0%;border:2px ridge #434343;width:100%;height:100%\"><div class=\"wiki-content-full\"><iframe style=\"overflow-y:hidden;width:100%;height:450px\" src=\"https://pathfinderwiki.com/wiki/Bharnarol\"> </iframe></div>\n </div>",
  "flags": {
    "monks-enhanced-journal": {
      "type": "journal"
    }
  },
  "_id": "HsaIKrvDH86sUsis",
  "pages": [],
  "_key": "!journal!HsaIKrvDH86sUsis"
}