{
  "name": "Bokrug",
  "content": "<p></p><h1 class=\"title\">Bokrug</h1><h2><b>The Water Lizard</b></h2><b>Source</b> <a class=\"external-link\" href=\"http://paizo.com/products/btpy9nry?Pathfinder-Adventure-Path-109-In-Search-of-Sanity\" target=\"_blank\"><i>Pathfinder #109: In Search of Sanity pg. 65</i></a><br /><b>Pathfinder Wiki</b> <a href=\"http://www.pathfinderwiki.com/wiki/Bokrug\">Bokrug</a><p></p><h3 class=\"framing\">Details</h3><p><b>Alignment</b> CN<br /><b>Pantheon</b> Great Old Ones<br /><b>Areas of Concern</b> Revenge, storms, water<br /><b>Domains</b> <a href=\"DomainDisplay.aspx?ItemName=Chaos\">Chaos</a>, <a href=\"DomainDisplay.aspx?ItemName=Destruction\">Destruction</a>, <a href=\"DomainDisplay.aspx?ItemName=Water\">Water</a>, <a href=\"DomainDisplay.aspx?ItemName=Weather\">Weather</a><br /><b>Subdomains</b> <a href=\"DomainDisplay.aspx?ItemName=Destruction\">Catastrophe</a>, <a href=\"DomainDisplay.aspx?ItemName=Water\">Oceans</a>, <a href=\"DomainDisplay.aspx?ItemName=Destruction\">Rage</a>, <a href=\"DomainDisplay.aspx?ItemName=Weather\">Storms</a><br /><i>* Requires the <u><a href=\"TraitDisplay.aspx?ItemName=Acolyte%20of%20Apocrypha\">Acolyte of Apocrypha</a></u> trait.</i><br /><b>Favored Weapon</b> Ranseur<br /><b>Symbol</b> Lizard with coiled tail<br /><b>Sacred Animal(s)</b> None<br /><b>Sacred Color(s)</b> Blue, green<br /></p><h2 class=\"title\">For Followers of Bokrug</h2><p></p><h3 class=\"framing\">Feats</h3><p><a href=\"FeatDisplay.aspx?ItemName=Dreamed Secrets\">Dreamed Secrets</a></p><h3 class=\"framing\">Magic Items - Wondrous Items</h3><p><a href=\"MagicWondrousDisplay.aspx?FinalName=Preklikin's Book of Cults\">Preklikin's Book of Cults</a></p><h3 class=\"framing\">Traits</h3><p><a href=\"TraitDisplay.aspx?ItemName=Unspeakable Bond\">Unspeakable Bond</a><br /><br /></p><div style=\"position:relative;left:0%;border:2px ridge #434343;width:100%;height:100%\"><div class=\"wiki-content-full\"><iframe style=\"overflow-y:hidden;width:100%;height:450px\" src=\"https://pathfinderwiki.com/wiki/Bokrug\"> </iframe></div>\n </div>",
  "flags": {
    "monks-enhanced-journal": {
      "type": "journal"
    }
  },
  "_id": "wsEVNOFUbpiFuIQX",
  "pages": [],
  "_key": "!journal!wsEVNOFUbpiFuIQX"
}