{
  "name": "Bolka",
  "content": "<p></p><h1 class=\"title\"><img src=\"http://www.aonprd.com/images/PathfinderSocietySymbol.gif\" style=\"margin:3px 3px 0px 3px\" title=\"PFS Legal\" /> Bolka</h1><h2><b>The Golden Gift</b></h2><b>Source</b> <a class=\"external-link\" href=\"http://paizo.com/products/btpy94wj?Pathfinder-Campaign-Setting-Inner-Sea-Gods-Hardcover\" target=\"_blank\"><i>Inner Sea Gods pg. 320</i></a><br /><b>Pathfinder Wiki</b> <a href=\"http://www.pathfinderwiki.com/wiki/Bolka\">Bolka</a><p></p><h3 class=\"framing\">Details</h3><p><b>Alignment</b> NG<br /><b>Pantheon</b> Dwarven Deities<br /><b>Areas of Concern</b> Beauty, desire, love<br /><b>Domains</b> <a href=\"DomainDisplay.aspx?ItemName=Charm\">Charm</a>, <a href=\"DomainDisplay.aspx?ItemName=Community\">Community</a>, <a href=\"DomainDisplay.aspx?ItemName=Good\">Good</a>, <a href=\"DomainDisplay.aspx?ItemName=Healing\">Healing</a><br /><b>Subdomains</b> <a href=\"DomainDisplay.aspx?ItemName=Community\">Family</a>, <a href=\"DomainDisplay.aspx?ItemName=Charm\">Love</a>, <a href=\"DomainDisplay.aspx?ItemName=Charm\">Lust</a>, <a href=\"DomainDisplay.aspx?ItemName=Healing\">Restoration</a><br /><i>* Requires the <u><a href=\"TraitDisplay.aspx?ItemName=Acolyte%20of%20Apocrypha\">Acolyte of Apocrypha</a></u> trait.</i><br /><b>Favored Weapon</b> Mace<br /><b>Symbol</b> Golden bejeweled ring<br /><b>Sacred Animal(s)</b> Falcon<br /><b>Sacred Color(s)</b> Gold, green<br /></p><h2 class=\"title\">For Followers of Bolka</h2><p></p><h3 class=\"framing\">Archetypes</h3><p><a href=\"ArchetypeDisplay.aspx?FixedName=Cleric Sacred Attendant\">Sacred Attendant (Cleric)</a></p><h3 class=\"framing\">Spells</h3><p><a href=\"SpellDisplay.aspx?ItemName=Dwarven Veil\">Dwarven Veil</a></p><h3 class=\"framing\">Traits</h3><p><a href=\"TraitDisplay.aspx?ItemName=Alluring\">Alluring</a>, <a href=\"TraitDisplay.aspx?ItemName=Wedded Bliss\">Wedded Bliss</a><br /><br /></p><div style=\"position:relative;left:0%;border:2px ridge #434343;width:100%;height:100%\"><div class=\"wiki-content-full\"><iframe style=\"overflow-y:hidden;width:100%;height:450px\" src=\"https://pathfinderwiki.com/wiki/Bolka\"> </iframe></div>\n </div>",
  "flags": {
    "monks-enhanced-journal": {
      "type": "journal"
    }
  },
  "_id": "7ka0PDGds527VZTM",
  "pages": [],
  "_key": "!journal!7ka0PDGds527VZTM"
}