{
  "name": "Cihua Couatl",
  "content": "<p></p><h1 class=\"title\">Cihua Couatl</h1><h2><b>The War Children</b></h2><b>Source</b> <a class=\"external-link\" href=\"https://paizo.com/products/btq01vyh\" target=\"_blank\"><i>Pathfinder #143: Borne by the Sun's Grace pg. 66</i></a><br /><b>Pathfinder Wiki</b> <a href=\"http://www.pathfinderwiki.com/wiki/Cihua Couatl\">Cihua Couatl</a><p></p><h3 class=\"framing\">Details</h3><p><b>Alignment</b> NG<br /><b>Pantheon</b> Other Deities<br /><b>Areas of Concern</b> Childbirth, protection, and warfare<br /><b>Domains</b> <a href=\"DomainDisplay.aspx?ItemName=Good\">Good</a>, <a href=\"DomainDisplay.aspx?ItemName=Healing\">Healing</a>, <a href=\"DomainDisplay.aspx?ItemName=Protection\">Protection</a>, <a href=\"DomainDisplay.aspx?ItemName=Strength\">Strength</a>, <a href=\"DomainDisplay.aspx?ItemName=War\">War</a><br /><b>Subdomains</b> <a href=\"DomainDisplay.aspx?ItemName=Good\">Agathion</a>, <a href=\"DomainDisplay.aspx?ItemName=Protection\">Defense</a>, <a href=\"DomainDisplay.aspx?ItemName=Strength\">Ferocity</a>, <a href=\"DomainDisplay.aspx?ItemName=Strength\">Resolve</a>, <a href=\"DomainDisplay.aspx?ItemName=Healing\">Restoration</a>, <a href=\"DomainDisplay.aspx?ItemName=War\">Tactics</a><br /><i>* Requires the <u><a href=\"TraitDisplay.aspx?ItemName=Acolyte%20of%20Apocrypha\">Acolyte of Apocrypha</a></u> trait.</i><br /><b>Favored Weapon</b> Shortspear<br /><b>Symbol</b> two couatls consuming each other's tails with their wings overlapping in the center<br /><b>Sacred Animal(s)</b> hawk<br /><br /><br /></p><div style=\"position:relative;left:0%;border:2px ridge #434343;width:100%;height:100%\"><div class=\"wiki-content-full\"><iframe style=\"overflow-y:hidden;width:100%;height:450px\" src=\"https://pathfinderwiki.com/wiki/Cihua Couatl\"> </iframe></div>\n </div>",
  "flags": {
    "monks-enhanced-journal": {
      "type": "journal"
    }
  },
  "_id": "a6tMmPzYMAvZVaxk",
  "pages": [],
  "_key": "!journal!a6tMmPzYMAvZVaxk"
}