{
  "name": "Dahak",
  "content": "<p></p><h1 class=\"title\"><img src=\"http://www.aonprd.com/images/PathfinderSocietySymbol.gif\" style=\"margin:3px 3px 0px 3px\" title=\"PFS Legal\" /> Dahak</h1><h2><b>The Endless Destruction</b></h2><b>Source</b> <a class=\"external-link\" href=\"http://paizo.com/products/btpy9j74?Pathfinder-Campaign-Setting-Inner-Sea-Faiths\" target=\"_blank\"><i>Inner Sea Faiths pg. 35</i></a><br /><b>Pathfinder Wiki</b> <a href=\"http://www.pathfinderwiki.com/wiki/Dahak\">Dahak</a><p></p><h3 class=\"framing\">Details</h3><p><b>Alignment</b> CE<br /><b>Pantheon</b> Other Deities<br /><b>Other Pantheons</b> Kobold Deities, Scalefolk Deities<br /><b>Areas of Concern</b> Destruction, evil dragons, greed<br /><b>Domains</b> <a href=\"DomainDisplay.aspx?ItemName=Chaos\">Chaos</a>, <a href=\"DomainDisplay.aspx?ItemName=Destruction\">Destruction</a>, <a href=\"DomainDisplay.aspx?ItemName=Evil\">Evil</a>, <a href=\"DomainDisplay.aspx?ItemName=Scalykind\">Scalykind</a>, <a href=\"DomainDisplay.aspx?ItemName=Trickery\">Trickery</a><br /><b>Subdomains</b> <a href=\"DomainDisplay.aspx?ItemName=Destruction\">Catastrophe</a>, <a href=\"DomainDisplay.aspx?ItemName=Evil\">Corruption</a>, <a href=\"DomainDisplay.aspx?ItemName=Trickery\">Deception</a>, <a href=\"DomainDisplay.aspx?ItemName=Chaos\">Demon (Chaos)</a>, <a href=\"DomainDisplay.aspx?ItemName=Evil\">Demon (Evil)</a>, <a href=\"DomainDisplay.aspx?ItemName=Scalykind\">Dragon</a>, <a href=\"DomainDisplay.aspx?ItemName=Trickery\">Greed</a>, <a href=\"DomainDisplay.aspx?ItemName=Destruction\">Hatred</a>, <a href=\"DomainDisplay.aspx?ItemName=Destruction\">Rage</a>, <a href=\"DomainDisplay.aspx?ItemName=Trickery\">Thievery</a><br /><i>* Requires the <u><a href=\"TraitDisplay.aspx?ItemName=Acolyte%20of%20Apocrypha\">Acolyte of Apocrypha</a></u> trait.</i><br /><b>Favored Weapon</b> Bite or whip<br /><b>Symbol</b> Falling burning scale<br /><b>Sacred Animal(s)</b> None<br /><b>Sacred Color(s)</b> Chromatic colors<br /></p><h3 class=\"framing\">Obedience</h3><p>Remain entirely silent for 1 hour while you pray to Dahak, ruminating over the glories of wanton destruction committed as the culmination of waiting and planning. While you pray, let hate and anger fill you until you must lash out. Following your prayer, destroy an item worth at least 1 gp and use the shattered remains to cut yourself, preferably along preexisting scar lines, while espousing your love of chaos and destruction. Such an action deals you 1 point of damage that cannot be healed for the following 24 hours. You gain a +2 profane bonus on Bluff and Intimidate checks against creatures who can see your scars.</p><h3 class=\"framing\">On Golarion</h3><p><b>Centers of Worship</b> Darklands, the Shackles, Thuvia<br /><b>Nationality</b> dragon</p><h2 class=\"title\">Boons - <a href=\"FeatDisplay.aspx?ItemName=Deific Obedience\">Deific Obedience</a></h2><p></p><h3 class=\"framing\"><img src=\"http://www.aonprd.com/images/PathfinderSocietySymbol.gif\" style=\"margin:3px 3px 0px 3px\" title=\"PFS Legal\" /> Evangelist</h3><p><b>Source </b><a class=\"external-link\" href=\"http://paizo.com/products/btpy9j74?Pathfinder-Campaign-Setting-Inner-Sea-Faiths\" target=\"_blank\"><i>Inner Sea Faiths pg. 35</i></a><br /><b>1: Sorrowmaker's Pact (Sp)</b> <i>protection from good</i> 3/day, <i>align weapon</i> (evil only) 2/day, or <i>rage</i> 1/day<br /><b>2: Enemy of Dragonkind (Su)</b> You can protect yourself from the noble forces of the universe and are attuned to blocking out draconic threats. When you are under the effects of <i>protection from good</i> or a similar effect, true dragons with fewer Hit Dice than you count as summoned creatures for the purpose of interacting with you, regardless of their alignment. In addition, three times per day while under such an effect, you can reroll one saving throw against a breath weapon, spell, or spell-like ability used against you by a creature of the dragon type. You can only reroll a single saving throw once.<br /><b>3: Bow Before Your End! (Su)</b> You represent one of the most powerful deities in the cosmos, and you expect all creatures to recognize the unspeakable power you herald and its capacity for wanton destruction. Once per day as a standard action, you can create an effect similar to <i>overwhelming presence</i><sup>UM</sup> as though you were a cleric with an effective caster level equal to half your Hit Dice. Creatures that fail their saving throws are staggered instead of helpless for the duration of the spell, and suffer no further effects upon a successful subsequent save. Creatures of the dragon type must roll their saving throws twice and take the lower result. A creature that succeeds at its initial saving throw is unaffected by this effect.</p><h3 class=\"framing\"><img src=\"http://www.aonprd.com/images/PathfinderSocietySymbol.gif\" style=\"margin:3px 3px 0px 3px\" title=\"PFS Legal\" /> Exalted</h3><p><b>Source </b><a class=\"external-link\" href=\"http://paizo.com/products/btpy9j74?Pathfinder-Campaign-Setting-Inner-Sea-Faiths\" target=\"_blank\"><i>Inner Sea Faiths pg. 35</i></a><br /><b>1: Rites of the False Wyrm (Sp)</b> <i>charm person</i> 3/day, <i>mirror image</i> 2/day, or <i>suggestion</i> 1/day<br /><b>2: Draconic Decoys (Su)</b> Duplicity is second nature to you, and you know how to manipulate trickery-based magic to further confound your enemies. Anytime you have created an image via <i>mirror image</i>, as a swift action you can direct one of your images to move to a flanking position against an enemy within 15 feet of you. The image allows you or an ally to flank your target for the purpose of a single attack. A redirected image dissipates when you or an ally uses the image to make a flanking attack, or otherwise remains in place for 1 round before dissipating.<br /><b>3: Flaming Vengeance (Su)</b> You believe that if your enemies are foolish enough to trust you, then they are foolish enough to die by Dahak's power. Once per day as a standard action, you can gain the benefits of a <i>mislead</i> spell as though cast by a wizard of a level equal to your Hit Dice (maximum 20th level), with the following modifications. At the time of using this ability, you can establish a number of rounds before it will expire, or declare that it will expire when your illusory duplicate is touched. When either criteria is accomplished, the illusory duplicate explodes as a <i>fireball</i> spell cast by a 10th-level wizard.</p><h3 class=\"framing\"><img src=\"http://www.aonprd.com/images/PathfinderSocietySymbol.gif\" style=\"margin:3px 3px 0px 3px\" title=\"PFS Legal\" /> Sentinel</h3><p><b>Source </b><a class=\"external-link\" href=\"http://paizo.com/products/btpy9j74?Pathfinder-Campaign-Setting-Inner-Sea-Faiths\" target=\"_blank\"><i>Inner Sea Faiths pg. 35</i></a><br /><b>1: Power of the Endless Destruction (Sp)</b> <i>ear-piercing scream</i><sup>UM</sup> 3/day, <i>shatter</i> 2/day, or <i>fireball</i> 1/day<br /><b>2: Teeth of the Dragon (Ex)</b> Your teeth grow into vicious fangs, akin to those of a chromatic dragon, and elemental power issues forth from your mouth in a divine gift from Dahak himself. You gain a bite attack. This is a primary natural attack that deals 1d6 points of piercing damage for Medium creatures or 1d4 points of piercing damage for Small creatures, with a critical multiplier of x3. Every time you hit with your bite attack, you deal an additional 1d6 points of energy damage (choose from acid, cold, electricity, or fire).<br /><b>3: Elemental Outrage (Ex)</b> You can channel the power of the Endless Destruction through your vicious bites-when you hit a creature with your bite attack, you can force impressive elemental power into the attack. Up to three times per day, when you succeed at a critical hit with your bite attack, you deal 5d6 points of energy damage (choose from acid, cold, electricity, or fire) instead of 1d6 points. This extra damage is not multiplied as part of the critical hit.</p><h2 class=\"title\">Antipaladin Code</h2>Antipaladins of Dahak are grim servants of the Endless Destruction, their demeanor calm up until the moment their control slips. They hunt metallic dragons as a means of repaying Dahak for his blessing. Dahak lays down several tenets for his divine warriors to follow. <ul><li>I am an instrument of destruction, but the power I wield is mine to control, gifted to me by Dahak.</li><li>My wrath is ceaseless. It is by my judgment alone to decide when I shall unleash it. Once I strike an enemy, I will not stop until they are dead.</li><li>None are safe from the rage that boils within me. While some may be spared immediate death, I offer no such lenience to the metallic dragons, greatest of enemies to the power that gives me strength.</li><li>Forgiveness is for the weak. If I am slighted, I will go to any lengths to enact my vengeance.</li></ul><h2 class=\"title\">For Followers of Dahak</h2><p></p><h3 class=\"framing\">Feats</h3><p><a href=\"FeatDisplay.aspx?ItemName=Hunter of Dahak\">Hunter of Dahak</a></p><h3 class=\"framing\">Magic Items - Wondrous Items</h3><p><a href=\"MagicWondrousDisplay.aspx?FinalName=Nightstone of Sorrow\">Nightstone of Sorrow</a></p><h3 class=\"framing\">Traits</h3><p><a href=\"TraitDisplay.aspx?ItemName=Dragon Tracker\">Dragon Tracker</a>, <a href=\"TraitDisplay.aspx?ItemName=Dragonslayer\">Dragonslayer</a></p><h2 class=\"title\">Unique Spell Rules</h2><img src=\"http://www.aonprd.com/images/PathfinderSocietySymbol.gif\" style=\"margin:3px 3px 0px 3px\" title=\"PFS Legal\" /> <b>Source </b><a class=\"external-link\" href=\"http://paizo.com/products/btpy9nfl?Pathfinder-Player-Companion-Legacy-of-Dragons\" target=\"_blank\"><i>Legacy of Dragons pg. 28</i></a><br /><p></p><h3 class=\"framing\">Antipaladin</h3><p><i><a href=\"SpellDisplay.aspx?ItemName=Dahak's Release\">Dahak's Release</a></i> can be prepared as a 4th-level spell<br /></p><h3 class=\"framing\">Bloodrager</h3><p><i><a href=\"SpellDisplay.aspx?ItemName=Dahak's Release\">Dahak's Release</a></i> can be prepared as a 4th-level spell<br /></p><h3 class=\"framing\">Cleric/Warpriest</h3><p><i><a href=\"SpellDisplay.aspx?ItemName=Dahak's Release\">Dahak's Release</a></i> can be prepared as a 4th-level spell<br /><i><a href=\"SpellDisplay.aspx?ItemName=Draconic Ally\">Draconic Ally</a></i> can be prepared as a 3rd-level spell<br /><i><a href=\"SpellDisplay.aspx?ItemName=Tail Strike\">Tail Strike</a></i> can be prepared as a 4th-level spell<br /></p><h3 class=\"framing\">Inquisitor</h3><p><i><a href=\"SpellDisplay.aspx?ItemName=Dahak's Release\">Dahak's Release</a></i> can be prepared as a 4th-level spell<br /><i><a href=\"SpellDisplay.aspx?ItemName=Draconic Ally\">Draconic Ally</a></i> can be prepared as a 3rd-level spell<br /><i><a href=\"SpellDisplay.aspx?ItemName=Tail Strike\">Tail Strike</a></i> can be prepared as a 4th-level spell<br /></p><h3 class=\"framing\">Oracle</h3><p><i><a href=\"SpellDisplay.aspx?ItemName=Draconic Ally\">Draconic Ally</a></i> can be prepared as a 3rd-level spell<br /><i><a href=\"SpellDisplay.aspx?ItemName=Tail Strike\">Tail Strike</a></i> can be prepared as a 4th-level spell<br /><br /></p><div style=\"position:relative;left:0%;border:2px ridge #434343;width:100%;height:100%\"><div class=\"wiki-content-full\"><iframe style=\"overflow-y:hidden;width:100%;height:450px\" src=\"https://pathfinderwiki.com/wiki/Dahak\"> </iframe></div>\n </div>",
  "flags": {
    "monks-enhanced-journal": {
      "type": "journal"
    }
  },
  "_id": "cSdBftheIotG88b6",
  "pages": [],
  "_key": "!journal!cSdBftheIotG88b6"
}