{
  "name": "Deskari",
  "content": "<p></p><h1 class=\"title\"><img src=\"http://www.aonprd.com/images/PathfinderSocietySymbol.gif\" style=\"margin:3px 3px 0px 3px\" title=\"PFS Legal\" /> Deskari</h1><h2><b>Lord of the Locust Host</b></h2><b>Source</b> <a class=\"external-link\" href=\"http://paizo.com/products/btpy94wj?Pathfinder-Campaign-Setting-Inner-Sea-Gods-Hardcover\" target=\"_blank\"><i>Inner Sea Gods pg. 320</i></a><br /><b>Pathfinder Wiki</b> <a href=\"http://www.pathfinderwiki.com/wiki/Deskari\">Deskari</a><p></p><h3 class=\"framing\">Details</h3><p><b>Alignment</b> CE<br /><b>Pantheon</b> Demon Lords<br /><b>Areas of Concern</b> Chasms, infestations, locusts<br /><b>Domains</b> <a href=\"DomainDisplay.aspx?ItemName=Chaos\">Chaos</a>, <a href=\"DomainDisplay.aspx?ItemName=Destruction\">Destruction</a>, <a href=\"DomainDisplay.aspx?ItemName=Evil\">Evil</a>, <a href=\"DomainDisplay.aspx?ItemName=War\">War</a><br /><b>Subdomains</b> <a href=\"DomainDisplay.aspx?ItemName=War\">Blood</a>, <a href=\"DomainDisplay.aspx?ItemName=Destruction\">Catastrophe</a>, <a href=\"DomainDisplay.aspx?ItemName=Chaos\">Demon (Chaos)</a>, <a href=\"DomainDisplay.aspx?ItemName=Evil\">Demon (Evil)</a>, <a href=\"DomainDisplay.aspx?ItemName=Animal\">Insect</a>*, <a href=\"DomainDisplay.aspx?ItemName=War\">Tactics</a><br /><i>* Requires the <u><a href=\"TraitDisplay.aspx?ItemName=Acolyte%20of%20Apocrypha\">Acolyte of Apocrypha</a></u> trait.</i><br /><b>Favored Weapon</b> Scythe<br /><b>Symbol</b> Bloody locust wings<br /><b>Sacred Animal(s)</b> Locust<br /><b>Sacred Color(s)</b> Green, red<br /></p><h3 class=\"framing\">Obedience</h3><p>Meditate while allowing insects or worms of any type to crawl upon your body-if no such vermin is available, you must instead lie facedown in a trench dug into soil and mouth prayers to Deskari into the dirt while scratching yourself with sharp bits of bone or wood. Gain a +4 profane bonus on all saving throws against disease and against effects caused by vermin.</p><h2 class=\"title\">Boons - <a href=\"FeatDisplay.aspx?ItemName=Demonic Obedience\">Demonic Obedience</a></h2><p></p><h3 class=\"framing\">Demoniac</h3><p><b>Source </b><a class=\"external-link\" href=\"http://paizo.com/store/games/roleplayingGames/p/pathfinderRPG/paizo/pathfinderChronicles/v5748btpy8hij\" target=\"_blank\"><i>Book of the Damned - Volume 2: Lords of Chaos pg. 14</i></a><br /><b>1: Swarming Susurrus (Sp)</b> <i>inflict light wounds </i>3/day, <i>summon swarm </i>2/day, or <i>summon monster III </i>(vermin only) 1/day<br /><b>2: Swarm Walker (Su)</b> You can walk through any swarm without fear of taking damage or suffering any ill effects- swarms recognize you as one of their own. As long as you stand within a swarm, you gain a +4 profane bonus on Initiative checks and on all saving throws.<br /><b>3: Swarm Master (Sp)</b> Quickened <i>insect plague </i>1/day.</p><h2 class=\"title\">Boons - <a href=\"FeatDisplay.aspx?ItemName=Fiendish Obedience\">Fiendish Obedience</a></h2><p></p><h3 class=\"framing\">Exalted</h3><p><b>Source </b><a class=\"external-link\" href=\"http://paizo.com/products/btpy9tok\" target=\"_blank\"><i>Book of the Damned pg. 42</i></a><br /><b>1: Swarming Susurrus (Sp)</b> <i>inflict light wounds </i> 3/day, <i>summon swarm</i> 2/day, or <i>summon monster III</i> (vermin only) 1/day<br /><b>2: Swarm-Walker (Su)</b> You can walk through any swarm without taking damage or suffering any ill effects-swarms recognize you as one of their own. As long as you stand within a swarm, you gain a +4 profane bonus on initiative checks and saving throws.<br /><b>3: Swarm Master (Sp)</b> You can cast quickened <i>insect plague</i> once per day.</p><h3 class=\"framing\">Sentinel</h3><p><b>Source </b><a class=\"external-link\" href=\"http://paizo.com/products/btpy9tok\" target=\"_blank\"><i>Book of the Damned pg. 42</i></a><br /><b>1: Split the Earth (Sp)</b> <i>stumble gap </i> 3/day, <i>create pit</i> 2/day, or <i>spiked pit</i> 1/day<br /><b>2: Planar Wound (Su)</b> You can cut through the fabric of reality, delivering foes to your master's embrace. Three times per day as a standard action, you can strike the ground with a scythe to open a fissure under your feet or the feet of an adjacent Medium or smaller creature (if you target yourself, the rift opens just enough to let you-and only you-through, regardless of your size). This fissure is a planar rift that sends the creature to the Rasping Rifts in the Abyss, as per <i>plane shift</i>, except the fissure can transport only one creature and closes instantly after doing so (or after being avoided). An unwilling target can attempt a Reflex save (DC = 10 + half your Hit Dice + your Charisma modifier) to evade the fissure and negate this effect. Flying and levitating creatures are immune to this effect, and a creature capable of flight that is standing on the ground can avoid this effect if it succeeds at a DC 20 Fly check (it can still attempt a Reflex save to avoid the spell if it fails this Fly check).<br /><b>3: Welcome the Rasping Rifts (Sp)</b> You can cast <i>rift of ruin</i> once per day as a spell-like ability. When the rift closes, each creature still present within the rift must attempt a Will save (against the spell's save DC). Creatures that succeed at this save are expelled violently (as normal for the spell), while those that fail are expelled violently into the Rasping Rifts in the Abyss. If you close the rift early to summon creatures, you summon one additional creature of the same type.</p><h2 class=\"title\">For Followers of Deskari</h2><p></p><h3 class=\"framing\">Feats</h3><p><a href=\"FeatDisplay.aspx?ItemName=Channel Discord\">Channel Discord</a></p><h3 class=\"framing\">Magic Items - Sets</h3><p><a href=\"MagicSets.aspx?ItemName=Dread Demonic Armor\">Dread Demonic Armor</a></p><h3 class=\"framing\">Magic Items - Wondrous Items</h3><p><a href=\"MagicWondrousDisplay.aspx?FinalName=Dagon's Eye\">Dagon's Eye</a></p><h3 class=\"framing\">Spells</h3><p><a href=\"SpellDisplay.aspx?ItemName=Abyssal Vermin\">Abyssal Vermin</a></p><h3 class=\"framing\">Traits</h3><p><a href=\"TraitDisplay.aspx?ItemName=Demonic Persuasion\">Demonic Persuasion</a></p><h2 class=\"title\">Unique Spell Rules</h2><b>Source </b><a class=\"external-link\" href=\"http://paizo.com/products/btpy93qo?Pathfinder-Adventure-Path-78-City-of-Locusts\" target=\"_blank\"><i>Pathfinder #78: City of Locusts pg. 70</i></a><br /><p></p><h3 class=\"framing\">Antipaladin</h3><p><i><a href=\"SpellDisplay.aspx?ItemName=Cape of Wasps\">Cape of Wasps</a></i> can be prepared as a 4th-level spell<br /><i><a href=\"SpellDisplay.aspx?ItemName=Vermin Shape I\">Vermin Shape I</a></i> can be prepared as a 4th-level spell<br /></p><h3 class=\"framing\">Cleric/Warpriest</h3><p><i><a href=\"SpellDisplay.aspx?ItemName=Create Pit\">Create Pit</a></i> can be prepared as a 3rd-level spell<br /><i><a href=\"SpellDisplay.aspx?ItemName=Cape of Wasps\">Cape of Wasps</a></i> can be prepared as a 4th-level spell<br /><i><a href=\"SpellDisplay.aspx?ItemName=Vermin Shape I\">Vermin Shape I</a></i> can be prepared as a 4th-level spell<br /><i><a href=\"SpellDisplay.aspx?ItemName=Vermin Shape II\">Vermin Shape II</a></i> can be prepared as a 5th-level spell<br /><i><a href=\"SpellDisplay.aspx?ItemName=Acid Pit\">Acid Pit</a></i> can be prepared as a 6th-level spell<br /></p><h2 class=\"title\">Unique Summon Rules</h2><b>Source </b><a class=\"external-link\" href=\"http://paizo.com/products/btpy93qo?Pathfinder-Adventure-Path-78-City-of-Locusts\" target=\"_blank\"><i>Pathfinder #78: City of Locusts pg. 70</i></a><br /><a href=\"SpellDisplay.aspx?ItemName=Summon Monster 4\"><b>Summon Monster IV</b></a>: <a href=\"MonsterDisplay.aspx?ItemName=Vermlek\">Vermlek</a><br /><a href=\"SpellDisplay.aspx?ItemName=Summon Monster 5\"><b>Summon Monster V</b></a>: <a href=\"MonsterDisplay.aspx?ItemName=Giant Locust\">Fiendish Giant Locust</a><br /><a href=\"SpellDisplay.aspx?ItemName=Summon Monster 6\"><b>Summon Monster VI</b></a>: <a href=\"MonsterDisplay.aspx?ItemName=Giant Mosquito\">Fiendish Giant Mosquito</a><br /><br /><p></p><div style=\"position:relative;left:0%;border:2px ridge #434343;width:100%;height:100%\"><div class=\"wiki-content-full\"><iframe style=\"overflow-y:hidden;width:100%;height:450px\" src=\"https://pathfinderwiki.com/wiki/Deskari\"> </iframe></div>\n </div>",
  "flags": {
    "monks-enhanced-journal": {
      "type": "journal"
    }
  },
  "_id": "cVrIlAoRuQFxBoNt",
  "pages": [],
  "_key": "!journal!cVrIlAoRuQFxBoNt"
}