{
  "name": "Deumus",
  "content": "<p></p><h1 class=\"title\">Deumus</h1><h2><b>The Glutton of Graves</b></h2><b>Source</b> <a class=\"external-link\" href=\"http://paizo.com/products/btpy94wj?Pathfinder-Campaign-Setting-Inner-Sea-Gods-Hardcover\" target=\"_blank\"><i>Inner Sea Gods pg. 326</i></a><br /><b>Pathfinder Wiki</b> <a href=\"http://www.pathfinderwiki.com/wiki/Deumus\">Deumus</a><p></p><h3 class=\"framing\">Details</h3><p><b>Alignment</b> LE<br /><b>Pantheon</b> Infernal Dukes<br /><b>Areas of Concern</b> Apprehension, promises, terror<br /><b>Domains</b> <a href=\"DomainDisplay.aspx?ItemName=Darkness\">Darkness</a>, <a href=\"DomainDisplay.aspx?ItemName=Death\">Death</a>, <a href=\"DomainDisplay.aspx?ItemName=Evil\">Evil</a>, <a href=\"DomainDisplay.aspx?ItemName=Law\">Law</a><br /><b>Subdomains</b> <a href=\"DomainDisplay.aspx?ItemName=Evil\">Devil (Evil)</a>, <a href=\"DomainDisplay.aspx?ItemName=Law\">Devil (Law)</a>, <a href=\"DomainDisplay.aspx?ItemName=Death\">Murder</a>, <a href=\"DomainDisplay.aspx?ItemName=Darkness\">Night</a>, <a href=\"DomainDisplay.aspx?ItemName=Death\">Undead</a><br /><i>* Requires the <u><a href=\"TraitDisplay.aspx?ItemName=Acolyte%20of%20Apocrypha\">Acolyte of Apocrypha</a></u> trait.</i><br /><b>Favored Weapon</b> Halberd<br /><b>Symbol</b> Grave with 3 arms emerging<br /><b>Sacred Animal(s)</b> Maggot<br /><b>Sacred Color(s)</b> Gray, yellow<br /></p><h3 class=\"framing\">Obedience</h3><p>Consume three maggots plucked from a grave. Gain a +4 profane bonus on saves against poison.</p><h2 class=\"title\">Boons - Infernal Dukes</h2><b>Source </b><a class=\"external-link\" href=\"http://paizo.com/products/btpy9tok\" target=\"_blank\"><i>Book of the Damned pg. 116</i></a><br />The Lords of Hell, the Dukes of Perdition, and the Princes of Damnation are all names for the infamous nobility of the Pit- the elite caste of devilkind known as the infernal dukes.<br /><br /> All infernal dukes are lawful evil and range in power from CR 26 to CR 27. The boons they grant are less complex than those granted by archdevils, manifesting as spell-like abilities usable once per day each.<br /><br /><b>1: </b> <i>vision of Hell</i><br /><b>2: </b> <i>control undead</i><br /><b>3: </b> <i>soul bind</i><h2 class=\"title\">For Followers of Deumus</h2><p></p><h3 class=\"framing\">Feats</h3><p><a href=\"FeatDisplay.aspx?ItemName=Hellish Shackles\">Hellish Shackles</a><br /><br /></p><div style=\"position:relative;left:0%;border:2px ridge #434343;width:100%;height:100%\"><div class=\"wiki-content-full\"><iframe style=\"overflow-y:hidden;width:100%;height:450px\" src=\"https://pathfinderwiki.com/wiki/Deumus\"> </iframe></div>\n </div>",
  "flags": {
    "monks-enhanced-journal": {
      "type": "journal"
    }
  },
  "_id": "FOy7OvL8BGtjReAN",
  "pages": [],
  "_key": "!journal!FOy7OvL8BGtjReAN"
}