{
  "name": "Elion",
  "content": "<p></p><h1 class=\"title\"><img src=\"http://www.aonprd.com/images/PathfinderSocietySymbol.gif\" style=\"margin:3px 3px 0px 3px\" title=\"PFS Legal\" /> Elion</h1><h2><b>The Farseeker</b></h2><b>Source</b> <a class=\"external-link\" href=\"http://paizo.com/products/btpy9uk2?Pathfinder-Adventure-Path-123-The-Flooded-Cathedral\" target=\"_blank\"><i>Pathfinder #123: The Flooded Cathedral pg. 69</i></a><br /><b>Pathfinder Wiki</b> <a href=\"http://www.pathfinderwiki.com/wiki/Elion\">Elion</a><p></p><h3 class=\"framing\">Details</h3><p><b>Alignment</b> CG<br /><b>Pantheon</b> Azlanti Pantheon<br /><b>Areas of Concern</b> Colonization, discovery, and exploration<br /><b>Domains</b> <a href=\"DomainDisplay.aspx?ItemName=Chaos\">Chaos</a>, <a href=\"DomainDisplay.aspx?ItemName=Community\">Community</a>, <a href=\"DomainDisplay.aspx?ItemName=Good\">Good</a>, <a href=\"DomainDisplay.aspx?ItemName=Travel\">Travel</a>, <a href=\"DomainDisplay.aspx?ItemName=Weather\">Weather</a><br /><b>Subdomains</b> <a href=\"DomainDisplay.aspx?ItemName=Chaos\">Azata (Chaos)</a>, <a href=\"DomainDisplay.aspx?ItemName=Good\">Azata (Good)</a>, <a href=\"DomainDisplay.aspx?ItemName=Community\">Cooperation</a>, <a href=\"DomainDisplay.aspx?ItemName=Community\">Education (Community)</a>, <a href=\"DomainDisplay.aspx?ItemName=Travel\">Exploration</a>, <a href=\"DomainDisplay.aspx?ItemName=Good\">Friendship</a>, <a href=\"DomainDisplay.aspx?ItemName=Community\">Home</a><br /><i>* Requires the <u><a href=\"TraitDisplay.aspx?ItemName=Acolyte%20of%20Apocrypha\">Acolyte of Apocrypha</a></u> trait.</i><br /><b>Favored Weapon</b> Longbow<br /><b>Symbol</b> Compass<br /></p><h2 class=\"title\">For Followers of Elion</h2><p></p><h3 class=\"framing\">Traits</h3><p><a href=\"TraitDisplay.aspx?ItemName=Sacred Orienteer\">Sacred Orienteer</a><br /><br /></p><div style=\"position:relative;left:0%;border:2px ridge #434343;width:100%;height:100%\"><div class=\"wiki-content-full\"><iframe style=\"overflow-y:hidden;width:100%;height:450px\" src=\"https://pathfinderwiki.com/wiki/Elion\"> </iframe></div>\n </div>",
  "flags": {
    "monks-enhanced-journal": {
      "type": "journal"
    }
  },
  "_id": "yEkocvH4BjOYIWIC",
  "pages": [],
  "_key": "!journal!yEkocvH4BjOYIWIC"
}