{
  "name": "Gogunta",
  "content": "<p></p><h1 class=\"title\"><img src=\"http://www.aonprd.com/images/PathfinderSocietySymbol.gif\" style=\"margin:3px 3px 0px 3px\" title=\"PFS Legal\" /> Gogunta</h1><h2><b>Song of the Swamp</b></h2><b>Source</b> <a class=\"external-link\" href=\"http://paizo.com/products/btpy94wj?Pathfinder-Campaign-Setting-Inner-Sea-Gods-Hardcover\" target=\"_blank\"><i>Inner Sea Gods pg. 320</i></a><br /><b>Pathfinder Wiki</b> <a href=\"http://www.pathfinderwiki.com/wiki/Gogunta\">Gogunta</a><p></p><h3 class=\"framing\">Details</h3><p><b>Alignment</b> CE<br /><b>Pantheon</b> Demon Lords<br /><b>Areas of Concern</b> Amphibians, boggards, swamps<br /><b>Domains</b> <a href=\"DomainDisplay.aspx?ItemName=Chaos\">Chaos</a>, <a href=\"DomainDisplay.aspx?ItemName=Death\">Death</a>, <a href=\"DomainDisplay.aspx?ItemName=Evil\">Evil</a>, <a href=\"DomainDisplay.aspx?ItemName=Water\">Water</a><br /><b>Subdomains</b> <a href=\"DomainDisplay.aspx?ItemName=Chaos\">Demon (Chaos)</a>, <a href=\"DomainDisplay.aspx?ItemName=Evil\">Demon (Evil)</a>, <a href=\"DomainDisplay.aspx?ItemName=Death\">Murder</a>, <a href=\"DomainDisplay.aspx?ItemName=Water\">Rivers</a>, <a href=\"DomainDisplay.aspx?ItemName=Death\">Undead</a><br /><i>* Requires the <u><a href=\"TraitDisplay.aspx?ItemName=Acolyte%20of%20Apocrypha\">Acolyte of Apocrypha</a></u> trait.</i><br /><b>Favored Weapon</b> Whip<br /><b>Symbol</b> Twig fetish of a boggard<br /><b>Sacred Animal(s)</b> Frog<br /><b>Sacred Color(s)</b> Blue, green<br /></p><h3 class=\"framing\">Obedience</h3><p>Drown a living creature in swamp water (or at the very least, in muddy water), then impale the dead body on a sharp branch so wild creatures can feast on it. After impaling the creature, you must spend the rest of your obedience meditating on the sound of fluid dripping from its sodden body. Gain a +4 profane bonus on saves against disease and poison caused by exposure to the jungle or creatures native to swamps.</p><h2 class=\"title\">Boons - <a href=\"FeatDisplay.aspx?ItemName=Demonic Obedience\">Demonic Obedience</a></h2><p></p><h3 class=\"framing\">Demoniac</h3><p><b>Source </b><a class=\"external-link\" href=\"http://paizo.com/store/games/roleplayingGames/p/pathfinderRPG/paizo/pathfinderChronicles/v5748btpy8hij\" target=\"_blank\"><i>Book of the Damned - Volume 2: Lords of Chaos pg. 16</i></a><br /><b>1: Swamper's Boon (Sp)</b> <i>jump </i>3/day, <i>summon swarm </i>2/day, or <i>water walk </i>1/day<br /><b>2: Warty Skin (Ex)</b> Your skin grows thick and warty, increasing your base natural armor bonus by +3.<br /><b>3: Summon Froghemoth (Sp)</b> Once per day, you may summon a fiendish froghemoth as if using <i>summon monster IX</i>.</p><h2 class=\"title\">Boons - <a href=\"FeatDisplay.aspx?ItemName=Fiendish Obedience\">Fiendish Obedience</a></h2><p></p><h3 class=\"framing\">Evangelist</h3><p><b>Source </b><a class=\"external-link\" href=\"http://paizo.com/products/btpy9tok\" target=\"_blank\"><i>Book of the Damned pg. 54</i></a><br /><b>1: Swamp Secrets (Sp)</b> <i>obscuring mist </i> 3/day, <i>tree shape</i> 2/day, or <i>lily pad stride</i> 1/day<br /><b>2: Murky Gaze (Sp and Su)</b> Gogunta has many eyes, and nothing escapes her glare. Your eyes take on a pale green-blue hue as you are granted a fraction of the power of her murky gaze. You gain a +2 bonus on Perception checks and can see through fog and mist as though they weren't there. While in swamp terrain, you ignore concealment and cover (including total cover) from vegetation and water. In addition, once per day when in swamp terrain, you can cast <i>true seeing</i> as a spell-like ability.<br /><b>3: Fen Witchcraft (Sp or Su)</b> As one of Gogunta's most powerful worshipers, you have been granted access to some of the most sinister powers of her faith. You are constantly under the effects of <i>freedom of movement</i>. In addition, once per day as a standard action, you can activate a drowning aura. Creatures within 30 feet of you must succeed at a Will save each round (DC = 10 + half your Hit Dice + your Constitution modifier) or be unable to speak or breathe. A creature can still hold its breath, but the aura saps held breath as well-a creature in the aura can hold its breath only for a number of rounds equal to its Constitution modifier before running out of air. Worshipers of Gogunta and creatures that don't breathe air are unaffected by this aura. Once activated, your drowning aura persists for 1 round per Hit Die.</p><h3 class=\"framing\">Exalted</h3><p><b>Source </b><a class=\"external-link\" href=\"http://paizo.com/products/btpy9tok\" target=\"_blank\"><i>Book of the Damned pg. 54</i></a><br /><b>1: Swamper's Boon (Sp)</b> <i>jump</i> 3/day, <i>summon swarm</i> 2/day, or <i>water walk</i> 1/day<br /><b>2: Warty Skin (Ex)</b> Just as the flesh of her favored minions, your skin grows thick and warty (or more warty than normal, in the case of a worshiper such as a boggard), increasing your base natural armor bonus by 3.<br /><b>3: Summon Froghemoth (Sp)</b> Once per day, you can summon a fiendish froghemoth as if using <i>summon monster IX</i>.</p><h3 class=\"framing\">Sentinel</h3><p><b>Source </b><a class=\"external-link\" href=\"http://paizo.com/products/btpy9tok\" target=\"_blank\"><i>Book of the Damned pg. 54</i></a><br /><b>1: Plague of Frogs (Sp)</b> <i>summon monster I</i> (1 fiendish poisonous frog) 3/day, <i>summon monster II</i> (1 fiendish giant frog or 1d3 fiendish poisonous frogs) 2/day, or <i>rain of frogs</i> 1/day<br /><b>2: Boggard's Blessing (Ex)</b> Your form becomes batrachian in aspect, like the frogfolk of the marshes. You gain the boggard's hold breath, sticky tongue, and terrifying croak abilities. In addition, you count as a boggard for the purpose of effects, including prerequisites (although you lose access to related options if you haven't performed your obedience). If you are a boggard, you instead gain a permanent +2 profane bonus to Strength, Dexterity, Constitution, and the DC of your terrifying croak ability, and you can use your terrifying croak ability at will.<br /><b>3: Kiss of Gogunta (Sp)</b> Calling out to the Song of the Swamp, you transform those who oppose you into frogs and toads. Any number of creatures of your choice within 30 feet must succeed at a Fortitude save or be transformed into Diminutive frogs or toads, as per <i>baleful polymorph</i> but heightened to a 9th-level spell. As with <i>baleful polymorph</i>, any creature that fails its Fortitude save must then succeed at a Will save to retain its mental faculties. Any creature that intentionally touches a creature transformed this way must succeed at the same saving throws or be transformed as well; a creature that kisses a transformed creature automatically fails its Fortitude save against this effect but automatically succeeds at its Will save. This ability can be used once per day.</p><h2 class=\"title\">For Followers of Gogunta</h2><p></p><h3 class=\"framing\">Feats</h3><p><a href=\"FeatDisplay.aspx?ItemName=Channel Discord\">Channel Discord</a></p><h3 class=\"framing\">Magic Items - Wondrous Items</h3><p><a href=\"MagicWondrousDisplay.aspx?FinalName=Dagon's Eye\">Dagon's Eye</a></p><h3 class=\"framing\">Traits</h3><p><a href=\"TraitDisplay.aspx?ItemName=Demonic Persuasion\">Demonic Persuasion</a><br /><br /></p><div style=\"position:relative;left:0%;border:2px ridge #434343;width:100%;height:100%\"><div class=\"wiki-content-full\"><iframe style=\"overflow-y:hidden;width:100%;height:450px\" src=\"https://pathfinderwiki.com/wiki/Gogunta\"> </iframe></div>\n </div>",
  "flags": {
    "monks-enhanced-journal": {
      "type": "journal"
    }
  },
  "_id": "6iWbwnBKbf73EGAf",
  "pages": [],
  "_key": "!journal!6iWbwnBKbf73EGAf"
}