{
  "name": "Hathor",
  "content": "<p></p><h1 class=\"title\"><img src=\"http://www.aonprd.com/images/PathfinderSocietySymbol.gif\" style=\"margin:3px 3px 0px 3px\" title=\"PFS Legal\" /> Hathor</h1><h2><b>Mistress of Jubilation</b></h2><b>Source</b> <a class=\"external-link\" href=\"http://paizo.com/products/btpy94vv?Pathfinder-Adventure-Path-80-Empty-Graves\" target=\"_blank\"><i>Pathfinder #80: Empty Graves pg. 65</i></a><br /><b>Pathfinder Wiki</b> <a href=\"http://www.pathfinderwiki.com/wiki/Hathor\">Hathor</a><p></p><h3 class=\"framing\">Details</h3><p><b>Alignment</b> CG<br /><b>Pantheon</b> Deities of Ancient Osirion<br /><b>Areas of Concern</b> Dance, joy, love, music, the sky<br /><b>Domains</b> <a href=\"DomainDisplay.aspx?ItemName=Air\">Air</a>, <a href=\"DomainDisplay.aspx?ItemName=Chaos\">Chaos</a>, <a href=\"DomainDisplay.aspx?ItemName=Charm\">Charm</a>, <a href=\"DomainDisplay.aspx?ItemName=Good\">Good</a>, <a href=\"DomainDisplay.aspx?ItemName=Travel\">Travel</a><br /><b>Subdomains</b> <a href=\"DomainDisplay.aspx?ItemName=Chaos\">Azata (Chaos)</a>, <a href=\"DomainDisplay.aspx?ItemName=Good\">Azata (Good)</a>, <a href=\"DomainDisplay.aspx?ItemName=Air\">Cloud</a>, <a href=\"DomainDisplay.aspx?ItemName=Travel\">Exploration</a>, <a href=\"DomainDisplay.aspx?ItemName=Charm\">Love</a>, <a href=\"DomainDisplay.aspx?ItemName=Chaos\">Revelry</a>, <a href=\"DomainDisplay.aspx?ItemName=Travel\">Trade</a><br /><i>* Requires the <u><a href=\"TraitDisplay.aspx?ItemName=Acolyte%20of%20Apocrypha\">Acolyte of Apocrypha</a></u> trait.</i><br /><b>Favored Weapon</b> Short sword<br /><b>Symbol</b> Solar disk with horns<br /><b>Sacred Animal(s)</b> Cow<br /><br /><br /></p><div style=\"position:relative;left:0%;border:2px ridge #434343;width:100%;height:100%\"><div class=\"wiki-content-full\"><iframe style=\"overflow-y:hidden;width:100%;height:450px\" src=\"https://pathfinderwiki.com/wiki/Hathor\"> </iframe></div>\n </div>",
  "flags": {
    "monks-enhanced-journal": {
      "type": "journal"
    }
  },
  "_id": "QBbuKdvsVah02E52",
  "pages": [],
  "_key": "!journal!QBbuKdvsVah02E52"
}