{
  "name": "Horus",
  "content": "<p></p><h1 class=\"title\"><img src=\"http://www.aonprd.com/images/PathfinderSocietySymbol.gif\" style=\"margin:3px 3px 0px 3px\" title=\"PFS Legal\" /> Horus</h1><h2><b>The Distant Falcon</b></h2><b>Source</b> <a class=\"external-link\" href=\"http://paizo.com/products/btpy94vv?Pathfinder-Adventure-Path-80-Empty-Graves\" target=\"_blank\"><i>Pathfinder #80: Empty Graves pg. 65</i></a><br /><b>Pathfinder Wiki</b> <a href=\"http://www.pathfinderwiki.com/wiki/Horus\">Horus</a><p></p><h3 class=\"framing\">Details</h3><p><b>Alignment</b> LN<br /><b>Pantheon</b> Deities of Ancient Osirion<br /><b>Areas of Concern</b> Rulership, the sky, the sun<br /><b>Domains</b> <a href=\"DomainDisplay.aspx?ItemName=Air\">Air</a>, <a href=\"DomainDisplay.aspx?ItemName=Animal\">Animal</a>, <a href=\"DomainDisplay.aspx?ItemName=Law\">Law</a>, <a href=\"DomainDisplay.aspx?ItemName=Nobility\">Nobility</a>, <a href=\"DomainDisplay.aspx?ItemName=Sun\">Sun</a><br /><b>Subdomains</b> <a href=\"DomainDisplay.aspx?ItemName=Sun\">Day</a>, <a href=\"DomainDisplay.aspx?ItemName=Animal\">Feather</a>, <a href=\"DomainDisplay.aspx?ItemName=Law\">Inevitable</a>, <a href=\"DomainDisplay.aspx?ItemName=Nobility\">Leadership</a>, <a href=\"DomainDisplay.aspx?ItemName=Sun\">Light</a>, <a href=\"DomainDisplay.aspx?ItemName=Air\">Wind</a><br /><i>* Requires the <u><a href=\"TraitDisplay.aspx?ItemName=Acolyte%20of%20Apocrypha\">Acolyte of Apocrypha</a></u> trait.</i><br /><b>Favored Weapon</b> Khopesh<br /><b>Symbol</b> Eye of Horus<br /><b>Sacred Animal(s)</b> Falcon<br /><br /><br /></p><div style=\"position:relative;left:0%;border:2px ridge #434343;width:100%;height:100%\"><div class=\"wiki-content-full\"><iframe style=\"overflow-y:hidden;width:100%;height:450px\" src=\"https://pathfinderwiki.com/wiki/Horus\"> </iframe></div>\n </div>",
  "flags": {
    "monks-enhanced-journal": {
      "type": "journal"
    }
  },
  "_id": "7E1Kszz0P6LfFdZk",
  "pages": [],
  "_key": "!journal!7E1Kszz0P6LfFdZk"
}