{
  "name": "Iapholi",
  "content": "<p></p><h1 class=\"title\">Iapholi</h1><h2><b>Child of Bloodstone</b></h2><b>Source</b> <a class=\"external-link\" href=\"https://paizo.com/products/btq01zno\" target=\"_blank\"><i>Pathfinder #144: Midwives to Death pg. 75</i></a><br /><b>Pathfinder Wiki</b> <a href=\"http://www.pathfinderwiki.com/wiki/Iapholi\">Iapholi</a><p></p><h3 class=\"framing\">Details</h3><p><b>Alignment</b> N<br /><b>Pantheon</b> Iblydan Hero-Gods<br /><b>Areas of Concern</b> Monstrous heritage, acceptance<br /><b>Domains</b> <a href=\"DomainDisplay.aspx?ItemName=Community\">Community</a>, <a href=\"DomainDisplay.aspx?ItemName=Glory\">Glory</a>, <a href=\"DomainDisplay.aspx?ItemName=Strength\">Strength</a><br /><b>Subdomains</b> <a href=\"DomainDisplay.aspx?ItemName=Community\">Family</a>, <a href=\"DomainDisplay.aspx?ItemName=Strength\">Resolve</a><br /><i>* Requires the <u><a href=\"TraitDisplay.aspx?ItemName=Acolyte%20of%20Apocrypha\">Acolyte of Apocrypha</a></u> trait.</i><br /><b>Favored Weapon</b> tail slap or heavy flail<br /></p><h3 class=\"framing\">On Golarion</h3><p><b>Centers of Worship</b> Dhuraxilis<br /><b>Nationality</b> monster</p><h2 class=\"title\">Unique Spell Rules</h2><b>Source </b><a class=\"external-link\" href=\"https://paizo.com/products/btq01zno\" target=\"_blank\"><i>Pathfinder #144: Midwives to Death pg. 74</i></a><br /><p></p><h3 class=\"framing\">Cleric/Warpriest</h3><p><i><a href=\"SpellDisplay.aspx?ItemName=Beast Shape III\">Beast Shape III</a></i> can be prepared as a 5th-level spell [magical beast only]<br /><i><a href=\"SpellDisplay.aspx?ItemName=Beast Shape IV\">Beast Shape IV</a></i> can be prepared as a 6th-level spell [magical beast only]<br /><i><a href=\"SpellDisplay.aspx?ItemName=Magical Beast Shape\">Magical Beast Shape</a></i> can be prepared as a 7th-level spell<br /></p><h3 class=\"framing\">Oracle</h3><p><i><a href=\"SpellDisplay.aspx?ItemName=Beast Shape III\">Beast Shape III</a></i> can be prepared as a 5th-level spell [magical beast only]<br /><i><a href=\"SpellDisplay.aspx?ItemName=Beast Shape IV\">Beast Shape IV</a></i> can be prepared as a 6th-level spell [magical beast only]<br /><i><a href=\"SpellDisplay.aspx?ItemName=Magical Beast Shape\">Magical Beast Shape</a></i> can be prepared as a 7th-level spell<br /></p><h2 class=\"title\">Other Rules</h2><b>Source </b><a class=\"external-link\" href=\"https://paizo.com/products/btq01zno\" target=\"_blank\"><i>Pathfinder #144: Midwives to Death pg. 75</i></a><br />Iapholi can grant 9th-level spells<br /><br /><p></p><div style=\"position:relative;left:0%;border:2px ridge #434343;width:100%;height:100%\"><div class=\"wiki-content-full\"><iframe style=\"overflow-y:hidden;width:100%;height:450px\" src=\"https://pathfinderwiki.com/wiki/Iapholi\"> </iframe></div>\n </div>",
  "flags": {
    "monks-enhanced-journal": {
      "type": "journal"
    }
  },
  "_id": "qa0n8QQriEXWAUjI",
  "pages": [],
  "_key": "!journal!qa0n8QQriEXWAUjI"
}