{
  "name": "Irori",
  "content": "<p></p><h1 class=\"title\"><img src=\"http://www.aonprd.com/images/PathfinderSocietySymbol.gif\" style=\"margin:3px 3px 0px 3px\" title=\"PFS Legal\" /> Irori</h1><h2><b>Master of Masters</b></h2><b>Source</b> <a class=\"external-link\" href=\"http://paizo.com/products/btpy94wj?Pathfinder-Campaign-Setting-Inner-Sea-Gods-Hardcover\" target=\"_blank\"><i>Inner Sea Gods pg. 84</i></a><br /><b>Pathfinder Wiki</b> <a href=\"http://www.pathfinderwiki.com/wiki/Irori\">Irori</a><p></p><h3 class=\"framing\">Details</h3><p><b>Alignment</b> LN<br /><b>Pantheon</b> Core Deities<br /><b>Other Pantheons</b> Ascended Pantheon, Deities of Tian Xia, Order of the God Claw Pantheon, Vudrani Pantheon<br /><b>Areas of Concern</b> History, knowledge, self-perfection<br /><b>Domains</b> <a href=\"DomainDisplay.aspx?ItemName=Healing\">Healing</a>, <a href=\"DomainDisplay.aspx?ItemName=Knowledge\">Knowledge</a>, <a href=\"DomainDisplay.aspx?ItemName=Law\">Law</a>, <a href=\"DomainDisplay.aspx?ItemName=Rune\">Rune</a>, <a href=\"DomainDisplay.aspx?ItemName=Strength\">Strength</a><br /><b>Subdomains</b> <a href=\"DomainDisplay.aspx?ItemName=Strength\">Competition</a>, <a href=\"DomainDisplay.aspx?ItemName=Knowledge\">Education (Knowledge)</a>, <a href=\"DomainDisplay.aspx?ItemName=Strength\">Fist</a>, <a href=\"DomainDisplay.aspx?ItemName=Law\">Inevitable</a>, <a href=\"DomainDisplay.aspx?ItemName=Rune\">Language</a>, <a href=\"DomainDisplay.aspx?ItemName=Healing\">Medicine</a>*, <a href=\"DomainDisplay.aspx?ItemName=Knowledge\">Memory</a>, <a href=\"DomainDisplay.aspx?ItemName=Strength\">Resolve</a>, <a href=\"DomainDisplay.aspx?ItemName=Healing\">Restoration</a>, <a href=\"DomainDisplay.aspx?ItemName=Strength\">Self-Realization (Strength)</a>*, <a href=\"DomainDisplay.aspx?ItemName=Knowledge\">Thought</a><br /><i>* Requires the <u><a href=\"TraitDisplay.aspx?ItemName=Acolyte%20of%20Apocrypha\">Acolyte of Apocrypha</a></u> trait.</i><br /><b>Favored Weapon</b> Unarmed strike<br /><b>Symbol</b> Blue hand<br /><b>Sacred Animal(s)</b> Snail<br /><b>Sacred Color(s)</b> Blue, white<br /></p><h3 class=\"framing\">Obedience</h3><p>Over the course of 1 hour, spend an equal amount of time practicing with a weapon or your unarmed strikes, reading any text that you have never read before, and braiding a length of hair while contemplating the mysteries of the multiverse. Hang the length of hair around your neck when your obedience is complete and wear it for the rest of the day. Gain a +4 sacred or profane bonus on all Knowledge checks. The type of bonus depends on your alignment-if you're neither good nor evil, you must choose either sacred or profane the first time you perform your obedience, and this choice can't be changed.</p><h3 class=\"framing\">Divine Gift</h3><p><b>Source</b> <a class=\"external-link\" href=\"http://paizo.com/products/btpya1am\" target=\"_blank\"><i>Planar Adventures pg. 78</i></a><br /><i>Nethys Note: See <a href=\"Rules.aspx?Name=Divine Gifts&amp;Category=Role of the Divine\" style=\"text-decoration:underline\">here</a> for details on how to gain a Divine Gift</i><br />Irori grants a permanent +1 untyped bonus to Constitution.</p><h3 class=\"framing\">On Golarion</h3><p><b>Centers of Worship</b> Absalom, Jalmeray, Katapesh, Mana Wastes, Nex, Osirion, Qadira<br /><b>Nationality</b> Vudrani</p><h2 class=\"title\">Boons - <a href=\"FeatDisplay.aspx?ItemName=Deific Obedience\">Deific Obedience</a></h2><p></p><h3 class=\"framing\"><img src=\"http://www.aonprd.com/images/PathfinderSocietySymbol.gif\" style=\"margin:3px 3px 0px 3px\" title=\"PFS Legal\" /> Evangelist</h3><p><b>Source </b><a class=\"external-link\" href=\"http://paizo.com/products/btpy94wj?Pathfinder-Campaign-Setting-Inner-Sea-Gods-Hardcover\" target=\"_blank\"><i>Inner Sea Gods pg. 84</i></a><br /><b>1: Expansive Knowledge (Sp)</b> <i>identify </i>3/day, <i>fox's cunning </i>2/ day, or <i>secret page </i>1/day<br /><b>2: Inevitable Fist (Su)</b> For a number of rounds per day equal to your Hit Dice, you can infuse your limbs with the power of pure law. Your unarmed strikes deal damage as if you were one size category larger, and gain the <i>axiomatic </i>weapon special ability. Activating or dismissing this ability is a free action, and the rounds don't need to be consecutive.<br /><b>3: Runic Form (Sp and Su)</b> Nine runic tattoos appear on your body, three for each of the three disciplines of Irori: mind, body, and spirit. As a standard action (unless otherwise noted) you can discharge the power stored in a tattoo. Once spent, a tattoo's power returns gradually over the course of 1 week. The tattoo powers are as follows:<br /><br /><i>Body Tattoos</i>: Two contain <i>cure serious wounds</i>, which you can use as a spell-like ability. One contains <i>restoration</i>, which you can use as a spell-like ability.<br /><br /><i>Mind Tattoos</i>: Two can each be discharged as a swift action to allow you to reroll a saving throw against an enchantment spell or effect. You must use this ability before you learn the result of your save, and you must take the second result, even if it is lower. The third can be discharged to grant you a +4 sacred bonus to Wisdom for 1 minute.<br /><br /><i>Spirit Tattoos</i>: Two allow you to assume an ethereal state for 1 minute as though using the spell <i>etherealness</i>. The third allows you to gain spell resistance equal to 10 + 1 for every Hit Dice you possess for 1 minute.</p><h3 class=\"framing\"><img src=\"http://www.aonprd.com/images/PathfinderSocietySymbol.gif\" style=\"margin:3px 3px 0px 3px\" title=\"PFS Legal\" /> Exalted</h3><p><b>Source </b><a class=\"external-link\" href=\"http://paizo.com/products/btpy94wj?Pathfinder-Campaign-Setting-Inner-Sea-Gods-Hardcover\" target=\"_blank\"><i>Inner Sea Gods pg. 84</i></a><br /><b>1: Cloud the Mind of the Unwary (Sp)</b> <i>hypnotism </i>3/day, <i>daze monster </i>2/day, or <i>suggestion </i>1/day<br /><b>2: Repair the Damaged Body (Su)</b> Up to three times per day, when you can cast a conjuration (healing) spell with a range of touch, treat it as having a range of close instead.<br /><b>3: Walk Above the Earth (Su)</b> You hover several inches off the ground as if levitating. This doesn't affect your speed, and makes you immune to most kinds of difficult terrain, traps triggered by pressure, and potentially other effects. You can levitate over solid surfaces only, so you fall if you step off a cliff or over a liquid. You can, however, raise or lower yourself as <i>levitate</i>. If you make an attack while hovering, you are not subject to the attack and damage penalties listed in the <i>levitate </i>spell description. However, if you move yourself higher in the air using a move action, you become subject to the attack and damage penalties until you return to the ground.</p><h3 class=\"framing\"><img src=\"http://www.aonprd.com/images/PathfinderSocietySymbol.gif\" style=\"margin:3px 3px 0px 3px\" title=\"PFS Legal\" /> Sentinel</h3><p><b>Source </b><a class=\"external-link\" href=\"http://paizo.com/products/btpy94wj?Pathfinder-Campaign-Setting-Inner-Sea-Gods-Hardcover\" target=\"_blank\"><i>Inner Sea Gods pg. 84</i></a><br /><b>1: Masterful Warrior (Sp)</b> <i>true strike </i>1/day, <i>false life </i>2/day, or <i>haste </i>3/day<br /><b>2: Secrets of the Enemy (Ex)</b> The knowledge you've gained over the years regarding different creatures lets you strike your foes with unerring insight. As a standard action, you can study your opponent during combat, a task which requires you to succeed at a Knowledge check related to the enemy's type (<i>Pathfinder RPG Core Rulebook </i>99). The DC is equal to 10 + your opponent's Hit Dice. If you succeed at the check, you gain a +2 bonus on weapon attack and damage rolls against that enemy. If you fail at the Knowledge check, you may try again with another action, but all subsequent attempts to use this ability against the same enemy take a cumulative -2 penalty.<br /><b>3: Perfection of Form (Ex)</b> You develop your body to such a degree of physical perfection that you become almost untouchable by the ravages of toxins and disease. You gain a +4 sacred or profane bonus on saving throws against poison, magical and supernatural diseases, and spells and effects that cause ability damage, ability drain, or negative levels. You also become immune to nonmagical diseases.</p><h2 class=\"title\">Divine Fighting Technique</h2><p></p><h3 class=\"framing\"><img src=\"http://www.aonprd.com/images/PathfinderSocietySymbol.gif\" style=\"margin:3px 3px 0px 3px\" title=\"PFS Legal\" /> Irori's Perfected Fist</h3><p><b>Source</b> <a class=\"external-link\" href=\"http://paizo.com/products/btpy9nvh?Pathfinder-Player-Companion-Divine-Anthology\" target=\"_blank\"><i>Divine Anthology pg. 29</i></a><br />Practically synonymous with Irori and his faith, <i>The Woven Fist</i> is among the best known of all diving fighting manuals. Many learned monks were taught their first martial techniques using drills and regiments from this manual, which some claim was written by Irori's own hand before his ascension to divinity. Although most commonly found in temples to Irori and secluded monasteries, copies of <i>The Woven Fist</i> often make their way into less scrupulous hands because of their effectiveness.<br /><br /><b>Optional Replacement</b>: A lawful neutral brawler or monk can replace a bonus feat with the following initial benefit.<br /><br /><b>Initial Benefit</b>: You can take a -2 penalty on all attack rolls made with your unarmed strikes in order to deal the average amount of damage with each successful attack instead of rolling your weapon damage. For instance, if your unarmed strike would normally deal 1d4 points of weapon damage, you instead deal 2 points of weapon damage. Apply bonuses and modifiers to this result as if you had rolled your damage normally. You must choose to use this benefit before making an attack roll, and its effects last until your next turn. You do not average additional damage dice (such as those granted by a sneak attack) when using this ability.<br /><br /><b>Advanced Prerequisites</b>: Critical Focus; Divine Fighting Technique; Weapon Focus (unarmed strike); base attack bonus +10 or monk level 10th.<br /><br /><b>Optional Replacement</b>: A lawful neutral brawler or monk of at least 10th level who worships Irori and has the Divine Fighting Technique feat can replace a bonus feat with the following advanced benefit without meeting its prerequisites.<br /><br /><b>Advanced Benefit</b>: You no longer take a -2 penalty on attack rolls with your unarmed strikes when you choose to deal the average amount of damage. If you critically hit a creature when using this ability, you automatically inflict maximum weapon damage for that critical hit (although you must still roll sneak attack dice or any other dicebased additional damage). </p><h2 class=\"title\">For Followers of Irori</h2><p></p><h3 class=\"framing\">Archetypes</h3><p><a href=\"ArchetypeDisplay.aspx?FixedName=Monk Disciple of Wholeness\">Disciple of Wholeness (Monk)</a>, <a href=\"ArchetypeDisplay.aspx?FixedName=Monk (Unchained) Disciple of Wholeness\">Disciple of Wholeness (Monk (Unchained))</a>, <a href=\"ArchetypeDisplay.aspx?FixedName=Paladin Iroran Paladin\">Iroran Paladin (Paladin)</a>, <a href=\"ArchetypeDisplay.aspx?FixedName=Monk Ki Mystic\">Ki Mystic (Monk)</a>, <a href=\"ArchetypeDisplay.aspx?FixedName=Wizard Scrollmaster\">Scrollmaster (Wizard)</a>, <a href=\"ArchetypeDisplay.aspx?FixedName=Fighter Unarmed Fighter\">Unarmed Fighter (Fighter)</a></p><h3 class=\"framing\">Feats</h3><p><a href=\"FeatDisplay.aspx?ItemName=Improved Unarmed Strike\">Improved Unarmed Strike</a>, <a href=\"FeatDisplay.aspx?ItemName=Ki Channel\">Ki Channel</a>, <a href=\"FeatDisplay.aspx?ItemName=Master of Knowledge\">Master of Knowledge</a>, <a href=\"FeatDisplay.aspx?ItemName=Scholar\">Scholar</a>, <a href=\"FeatDisplay.aspx?ItemName=Steady Engagement\">Steady Engagement</a></p><h3 class=\"framing\">Magic Items - Altars</h3><p><a href=\"MagicAltarsDisplay.aspx?ItemName=Altar of Irori\">Altar of Irori</a></p><h3 class=\"framing\">Magic Items - Armor</h3><p><a href=\"MagicArmorDisplay.aspx?ItemName=Perfection Leather\">Perfection Leather</a></p><h3 class=\"framing\">Magic Items - Rings</h3><p><a href=\"MagicRingsDisplay.aspx?FinalName=Ring of Serene Contortions\">Ring of Serene Contortions</a></p><h3 class=\"framing\">Magic Items - Sets</h3><p><a href=\"MagicSets.aspx?ItemName=Irori's Meditation\">Irori's Meditation</a></p><h3 class=\"framing\">Magic Items - Weapons</h3><p><a href=\"MagicWeaponsDisplay.aspx?ItemName=Perfectionist Shavtoosh\">Perfectionist Shavtoosh</a>, <a href=\"MagicWeaponsDisplay.aspx?ItemName=Quarterstaff of Contemplation\">Quarterstaff of Contemplation</a></p><h3 class=\"framing\">Magic Items - Wondrous Items</h3><p><a href=\"MagicWondrousDisplay.aspx?FinalName=Amulet of Mighty Fists1\">Amulet of Mighty Fists (+1)</a>, <a href=\"MagicWondrousDisplay.aspx?FinalName=Amulet of Mighty Fists2\">Amulet of Mighty Fists (+2)</a>, <a href=\"MagicWondrousDisplay.aspx?FinalName=Amulet of Mighty Fists3\">Amulet of Mighty Fists (+3)</a>, <a href=\"MagicWondrousDisplay.aspx?FinalName=Amulet of Mighty Fists4\">Amulet of Mighty Fists (+4)</a>, <a href=\"MagicWondrousDisplay.aspx?FinalName=Amulet of Mighty Fists5\">Amulet of Mighty Fists (+5)</a>, <a href=\"MagicWondrousDisplay.aspx?FinalName=Incense of Meditation\">Incense of Meditation</a>, <a href=\"MagicWondrousDisplay.aspx?FinalName=Monk's Robe\">Monk's Robe</a>, <a href=\"MagicWondrousDisplay.aspx?FinalName=Purification Talisman\">Purification Talisman</a>, <a href=\"MagicWondrousDisplay.aspx?FinalName=Robe of the Master of Masters\">Robe of the Master of Masters</a></p><h3 class=\"framing\">Monsters</h3><p><a href=\"MonsterDisplay.aspx?ItemName=Pavbagha\">Pavbagha</a>, <a href=\"MonsterDisplay.aspx?ItemName=The Old Man\">The Old Man (Herald)</a></p><h3 class=\"framing\">Prestige Classes</h3><p><a href=\"PrestigeClassesDisplay.aspx?ItemName=Champion of Irori\">Champion of Irori</a></p><h3 class=\"framing\">Spells</h3><p><a href=\"SpellDisplay.aspx?ItemName=Abstemiousness\">Abstemiousness</a>, <a href=\"SpellDisplay.aspx?ItemName=Blood Crow Strike\">Blood Crow Strike</a>, <a href=\"SpellDisplay.aspx?ItemName=Channel Vigor\">Channel Vigor</a>, <a href=\"SpellDisplay.aspx?ItemName=Replenish Ki\">Replenish Ki</a></p><h3 class=\"framing\">Traits</h3><p><a href=\"TraitDisplay.aspx?ItemName=Centered\">Centered</a>, <a href=\"TraitDisplay.aspx?ItemName=Eternal Understanding\">Eternal Understanding</a>, <a href=\"TraitDisplay.aspx?ItemName=Seer of Reality\">Seer of Reality</a>, <a href=\"TraitDisplay.aspx?ItemName=Sensing Imperfection\">Sensing Imperfection</a>, <a href=\"TraitDisplay.aspx?ItemName=Wisdom in the Flesh\">Wisdom in the Flesh</a></p><h2 class=\"title\">Unique Spell Rules</h2><img src=\"http://www.aonprd.com/images/PathfinderSocietySymbol.gif\" style=\"margin:3px 3px 0px 3px\" title=\"PFS Legal\" /> <b>Source </b><a class=\"external-link\" href=\"http://paizo.com/products/btpy94wj?Pathfinder-Campaign-Setting-Inner-Sea-Gods-Hardcover\" target=\"_blank\"><i>Inner Sea Gods pg. 91</i></a><br /><p></p><h3 class=\"framing\">Cleric/Warpriest</h3><p><i><a href=\"SpellDisplay.aspx?ItemName=Astral Projection\">Astral Projection</a></i> can be prepared as a 8th-level spell<br /><i><a href=\"SpellDisplay.aspx?ItemName=Moment of Prescience\">Moment of Prescience</a></i> can be prepared as a 8th-level spell<br /><i><a href=\"SpellDisplay.aspx?ItemName=Transformation\">Transformation</a></i> can be prepared as a 6th-level spell<br /><i><a href=\"SpellDisplay.aspx?ItemName=Haste\">Haste</a></i> can be prepared as a 4th-level spell<br /><i><a href=\"SpellDisplay.aspx?ItemName=Legend Lore\">Legend Lore</a></i> can be prepared as a 6th-level spell<br /><i><a href=\"SpellDisplay.aspx?ItemName=Stone Fist\">Stone Fist</a></i> can be prepared as a 1st-level spell<br /></p><h3 class=\"framing\">Inquisitor</h3><p><i><a href=\"SpellDisplay.aspx?ItemName=Astral Projection\">Astral Projection</a></i> can be prepared as a 6th-level spell<br /><i><a href=\"SpellDisplay.aspx?ItemName=Moment of Prescience\">Moment of Prescience</a></i> can be prepared as a 6th-level spell<br /><i><a href=\"SpellDisplay.aspx?ItemName=Transformation\">Transformation</a></i> can be prepared as a 5th-level spell<br /><i><a href=\"SpellDisplay.aspx?ItemName=Haste\">Haste</a></i> can be prepared as a 4th-level spell<br /><i><a href=\"SpellDisplay.aspx?ItemName=Legend Lore\">Legend Lore</a></i> can be prepared as a 4th-level spell<br /><i><a href=\"SpellDisplay.aspx?ItemName=Stone Fist\">Stone Fist</a></i> can be prepared as a 1st-level spell<br /></p><h2 class=\"title\">Unique Summon Rules</h2><b>Source </b><a class=\"external-link\" href=\"http://paizo.com/pathfinder/v5748btpy8mh0\" target=\"_blank\"><i>Pathfinder #53: Tide of Honor pg. 73</i></a><br /><img src=\"http://www.aonprd.com/images/PathfinderSocietySymbol.gif\" style=\"margin:3px 3px 0px 3px\" title=\"PFS Legal\" /> <a href=\"SpellDisplay.aspx?ItemName=Summon Monster 4\"><b>Summon Monster IV</b></a>: <a href=\"MonsterDisplay.aspx?ItemName=Giant Mantis\">Giant Mantis</a> (extraplanar)<br /><img src=\"http://www.aonprd.com/images/PathfinderSocietySymbol.gif\" style=\"margin:3px 3px 0px 3px\" title=\"PFS Legal\" /> <a href=\"SpellDisplay.aspx?ItemName=Summon Monster 4\"><b>Summon Monster IV</b></a>: <a href=\"MonsterDisplay.aspx?ItemName=Tiger\">Tiger</a><br /><h2 class=\"title\">Other Rules</h2><b>Source </b><a class=\"external-link\" href=\"http://paizo.com/pathfinder/v5748btpy8mh0\" target=\"_blank\"><i>Pathfinder #53: Tide of Honor pg. 73</i></a><br />Monks with access to the quivering palm ability may use it to render a target comatose for an extended period (lasting until the target receives a <a href=\"SpellDisplay.aspx?ItemName=Heal\" style=\"text-decoration:underline\"><i>heal</i></a>, <a href=\"SpellDisplay.aspx?ItemName=Restoration\" style=\"text-decoration:underline\"><i>restoration</i></a>, or <a href=\"SpellDisplay.aspx?ItemName=Restoration, Greater\" style=\"text-decoration:underline\"><i>greater restoration</i></a> spell) rather than kill, chosen at the time the quivering palm is activated. Monks may use their wholeness of body ability on a willing creature as a standard action. The monk must touch the target, and the target becomes fatigued from this aid.<br /><br /><p></p><div style=\"position:relative;left:0%;border:2px ridge #434343;width:100%;height:100%\"><div class=\"wiki-content-full\"><iframe style=\"overflow-y:hidden;width:100%;height:450px\" src=\"https://pathfinderwiki.com/wiki/Irori\"> </iframe></div>\n </div>",
  "flags": {
    "monks-enhanced-journal": {
      "type": "journal"
    }
  },
  "_id": "1NXHKolgUY0Wm0S1",
  "pages": [],
  "_key": "!journal!1NXHKolgUY0Wm0S1"
}