{
  "name": "Jalaijatali",
  "content": "<p></p><h1 class=\"title\"><img src=\"http://www.aonprd.com/images/PathfinderSocietySymbol.gif\" style=\"margin:3px 3px 0px 3px\" title=\"PFS Legal\" /> Jalaijatali</h1><h2><b>Rillsong</b></h2><b>Source</b> <a class=\"external-link\" href=\"http://paizo.com/products/btpy94wj?Pathfinder-Campaign-Setting-Inner-Sea-Gods-Hardcover\" target=\"_blank\"><i>Inner Sea Gods pg. 322</i></a><br /><b>Pathfinder Wiki</b> <a href=\"http://www.pathfinderwiki.com/wiki/Jalaijatali\">Jalaijatali</a><p></p><h3 class=\"framing\">Details</h3><p><b>Alignment</b> CG<br /><b>Pantheon</b> Empyreal Lords<br /><b>Areas of Concern</b> Natural music, rapids, waterfalls<br /><b>Domains</b> <a href=\"DomainDisplay.aspx?ItemName=Chaos\">Chaos</a>, <a href=\"DomainDisplay.aspx?ItemName=Good\">Good</a>, <a href=\"DomainDisplay.aspx?ItemName=Scalykind\">Scalykind</a>, <a href=\"DomainDisplay.aspx?ItemName=Water\">Water</a><br /><b>Subdomains</b> <a href=\"DomainDisplay.aspx?ItemName=Chaos\">Azata (Chaos)</a>, <a href=\"DomainDisplay.aspx?ItemName=Good\">Azata (Good)</a>, <a href=\"DomainDisplay.aspx?ItemName=Water\">Flotsam</a>, <a href=\"DomainDisplay.aspx?ItemName=Chaos\">Revelry</a>, <a href=\"DomainDisplay.aspx?ItemName=Water\">Rivers</a><br /><i>* Requires the <u><a href=\"TraitDisplay.aspx?ItemName=Acolyte%20of%20Apocrypha\">Acolyte of Apocrypha</a></u> trait.</i><br /><b>Favored Weapon</b> Whip<br /><b>Symbol</b> Water from wood pipe<br /><b>Sacred Animal(s)</b> Water lizard<br /><b>Sacred Color(s)</b> Blue, green<br /></p><h3 class=\"framing\">Obedience</h3><p>Stand under a waterfall (or pour water over your head) while singing wordlessly, letting the sound of the moving water inspire you. Gain a +4 sacred bonus on saves against the spells, spell-like abilities, and supernatural abilities of creatures with the aquatic or water subtype.</p><h2 class=\"title\">Boons - <a href=\"FeatDisplay.aspx?ItemName=Celestial Obedience\">Celestial Obedience</a></h2><p></p><h3 class=\"framing\"><img src=\"http://www.aonprd.com/images/PathfinderSocietySymbol.gif\" style=\"margin:3px 3px 0px 3px\" title=\"PFS Legal\" /> Mystery Cultist</h3><p><b>Source </b><a class=\"external-link\" href=\"http://paizo.com/products/btpy8xe9?Pathfinder-Campaign-Setting-Chronicle-of-the-Righteous\" target=\"_blank\"><i>Chronicle of the Righteous pg. 16</i></a><br /><b>1: Whitewater (Sp)</b> <i>hydraulic push</i><sup>APG</sup> 3/day, <i>slipstream</i><sup>APG</sup> 2/day, or <i>water breathing </i>1/day<br /><b>2: Sacred Scales (Ex)</b> You grow a coat of iridescent scales that matches your skin tone. Your natural armor bonus to AC increases by +3.<br /><b>3: Waterform (Su)</b> Three times per day, you and a number of willing touched companions equal to 1/2 your HD may meld into a body of flowing water (such as a river or creek) and travel up or downstream at a rate of 50 miles per hour. This transformation takes 1 minute to complete. You can wind through natural obstructions with ease as long as the body of water is still flowing, but not through largely impermeable barriers such as artificial dams. This effect lasts for a number of hours equal to your HD, and you cannot otherwise act or defend yourself while traveling in this way.</p><h2 class=\"title\">For Followers of Jalaijatali</h2><p></p><h3 class=\"framing\">Feats</h3><p><a href=\"FeatDisplay.aspx?ItemName=Heroic Interposition\">Heroic Interposition</a></p><h3 class=\"framing\">Traits</h3><p><a href=\"TraitDisplay.aspx?ItemName=Empyreal Focus\">Empyreal Focus</a><br /><br /></p><div style=\"position:relative;left:0%;border:2px ridge #434343;width:100%;height:100%\"><div class=\"wiki-content-full\"><iframe style=\"overflow-y:hidden;width:100%;height:450px\" src=\"https://pathfinderwiki.com/wiki/Jalaijatali\"> </iframe></div>\n </div>",
  "flags": {
    "monks-enhanced-journal": {
      "type": "journal"
    }
  },
  "_id": "1zoIij9RL7nsxgiA",
  "pages": [],
  "_key": "!journal!1zoIij9RL7nsxgiA"
}