{
  "name": "Kerkamoth",
  "content": "<p></p><h1 class=\"title\">Kerkamoth</h1><h2><b>The Waiting Void</b></h2><b>Source</b> <a class=\"external-link\" href=\"https://paizo.com/products/btq01x4d?Pathfinder-Campaign-Setting-Concordance-of-Rivals\" target=\"_blank\"><i>Concordance of Rivals pg. 10</i></a><br /><b>Pathfinder Wiki</b> <a href=\"http://www.pathfinderwiki.com/wiki/Kerkamoth\">Kerkamoth</a><p></p><h3 class=\"framing\">Details</h3><p><b>Alignment</b> LN<br /><b>Pantheon</b> Primal Inevitable<br /><b>Areas of Concern</b> Emptiness, entropy, and stillness<br /><b>Domains</b> <a href=\"DomainDisplay.aspx?ItemName=Darkness\">Darkness</a>, <a href=\"DomainDisplay.aspx?ItemName=Destruction\">Destruction</a>, <a href=\"DomainDisplay.aspx?ItemName=Law\">Law</a>, <a href=\"DomainDisplay.aspx?ItemName=Void\">Void</a><br /><b>Subdomains</b> N/A<br /><i>* Requires the <u><a href=\"TraitDisplay.aspx?ItemName=Acolyte%20of%20Apocrypha\">Acolyte of Apocrypha</a></u> trait.</i><br /><b>Favored Weapon</b> Warhammer<br /><b>Symbol</b> Starry circle within an iron ring<br /></p><h3 class=\"framing\">Obedience</h3><p>Seek out a cluttered place, such as an overgrown garden or messy closet. Spend 1 hour cleaning the space, removing at least half of the contents to consume, donate, or destroy. If you cannot access such a space, spend 1 hour in silent contemplation in an open area, envisioning in detail the orderly creations that might soon fill that place. Gain a +4 bonus on Fortitude saves against effects that would deal hit point damage.</p><h2 class=\"title\">Boons - <a href=\"FeatDisplay.aspx?ItemName=Monitor Obedience\">Monitor Obedience</a></h2><p></p><h3 class=\"framing\">None</h3><p><b>Source </b><a class=\"external-link\" href=\"https://paizo.com/products/btq01x4d?Pathfinder-Campaign-Setting-Concordance-of-Rivals\" target=\"_blank\"><i>Concordance of Rivals pg. 10</i></a><br /><b>1: Temporal Warden (Sp)</b> <a href=\"SpellDisplay.aspx?ItemName=sanctuary\" style=\"text-decoration:underline\"><i>sanctuary</i></a> 3/day, <a href=\"SpellDisplay.aspx?ItemName=silence\" style=\"text-decoration:underline\"><i>silence</i></a> 2/day, or <a href=\"SpellDisplay.aspx?ItemName=sands of time\" style=\"text-decoration:underline\"><i>sands of time</i></a> 1/day<br /><b>2: Timely Absence (Su)</b> Once per day as an immediate action when you would fail a saving throw or be reduced to 0 hit points or fewer by an effect, you can disappear from reality altogether and avoid the immediate effects (not being hit or poisoned, for example). You leave behind a transparent afterimage, and at the beginning of your next turn, you reappear in your space (or the nearest available space if that is now occupied) and are staggered until the end of your turn.<br /><b>3: Invert Entropy (Su)</b> You take no penalties from energy drain, though you can still be killed if you accrue more negative levels than you have Hit Dice. Once per day as a move action, you can remove a number of your temporary negative levels equal to half your Hit Dice. For every 2 negative levels removed, you gain 10 temporary hit points and a cumulative +1 insight bonus on ability checks, attack rolls, saving throws, and skill checks; both effects last until the end of your next turn.<br /><br /></p><div style=\"position:relative;left:0%;border:2px ridge #434343;width:100%;height:100%\"><div class=\"wiki-content-full\"><iframe style=\"overflow-y:hidden;width:100%;height:450px\" src=\"https://pathfinderwiki.com/wiki/Kerkamoth\"> </iframe></div>\n </div>",
  "flags": {
    "monks-enhanced-journal": {
      "type": "journal"
    }
  },
  "_id": "SNzx57AbziiTrgnG",
  "pages": [],
  "_key": "!journal!SNzx57AbziiTrgnG"
}