{
  "name": "Mazludeh",
  "content": "<p></p><h1 class=\"title\"><img src=\"http://www.aonprd.com/images/PathfinderSocietySymbol.gif\" style=\"margin:3px 3px 0px 3px\" title=\"PFS Legal\" /> Mazludeh</h1><h2><b>Mother of Hearth and Wall</b></h2><b>Source</b> <a class=\"external-link\" href=\"http://paizo.com/products/btpy9gro?Pathfinder-Campaign-Setting-Distant-Shores\" target=\"_blank\"><i>Distant Shores pg. 23</i></a><br /><b>Pathfinder Wiki</b> <a href=\"http://www.pathfinderwiki.com/wiki/Mazludeh\">Mazludeh</a><p></p><h3 class=\"framing\">Details</h3><p><b>Alignment</b> NG<br /><b>Pantheon</b> Other Deities<br /><b>Areas of Concern</b> Balance, community, negotiation, and twilight<br /><b>Domains</b> <a href=\"DomainDisplay.aspx?ItemName=Artifice\">Artifice</a>, <a href=\"DomainDisplay.aspx?ItemName=Community\">Community</a>, <a href=\"DomainDisplay.aspx?ItemName=Good\">Good</a>, <a href=\"DomainDisplay.aspx?ItemName=Knowledge\">Knowledge</a><br /><b>Subdomains</b> <a href=\"DomainDisplay.aspx?ItemName=Good\">Agathion</a>, <a href=\"DomainDisplay.aspx?ItemName=Good\">Archon (Good)</a>, <a href=\"DomainDisplay.aspx?ItemName=Good\">Azata (Good)</a>, <a href=\"DomainDisplay.aspx?ItemName=Community\">Cooperation</a>, <a href=\"DomainDisplay.aspx?ItemName=Community\">Family</a>, <a href=\"DomainDisplay.aspx?ItemName=Knowledge\">Memory</a><br /><i>* Requires the <u><a href=\"TraitDisplay.aspx?ItemName=Acolyte%20of%20Apocrypha\">Acolyte of Apocrypha</a></u> trait.</i><br /><b>Favored Weapon</b> Heavy shield<br /><b>Symbol</b> Seven eggs encircled by a snake eating its own tail<br /><b>Sacred Animal(s)</b> Anaconda<br /><br /><br /></p><div style=\"position:relative;left:0%;border:2px ridge #434343;width:100%;height:100%\"><div class=\"wiki-content-full\"><iframe style=\"overflow-y:hidden;width:100%;height:450px\" src=\"https://pathfinderwiki.com/wiki/Mazludeh\"> </iframe></div>\n </div>",
  "flags": {
    "monks-enhanced-journal": {
      "type": "journal"
    }
  },
  "_id": "3aBsmy49FVfFcjjc",
  "pages": [],
  "_key": "!journal!3aBsmy49FVfFcjjc"
}