{
  "name": "Mephistopheles",
  "content": "<p></p><h1 class=\"title\"><img src=\"http://www.aonprd.com/images/PathfinderSocietySymbol.gif\" style=\"margin:3px 3px 0px 3px\" title=\"PFS Legal\" /> Mephistopheles</h1><h2><b>The Crimson Son</b></h2><b>Source</b> <a class=\"external-link\" href=\"http://paizo.com/products/btpy9i8d?Pathfinder-Adventure-Path-102-Breaking-the-Bones-of-Hell\" target=\"_blank\"><i>Pathfinder #102: Breaking the Bones of Hell pg. 70</i></a><br /><b>Pathfinder Wiki</b> <a href=\"http://www.pathfinderwiki.com/wiki/Mephistopheles\">Mephistopheles</a><p></p><h3 class=\"framing\">Details</h3><p><b>Alignment</b> LE<br /><b>Pantheon</b> Archdevils<br /><b>Areas of Concern</b> Contracts, devils, secrets<br /><b>Domains</b> <a href=\"DomainDisplay.aspx?ItemName=Evil\">Evil</a>, <a href=\"DomainDisplay.aspx?ItemName=Knowledge\">Knowledge</a>, <a href=\"DomainDisplay.aspx?ItemName=Law\">Law</a>, <a href=\"DomainDisplay.aspx?ItemName=Rune\">Rune</a><br /><b>Subdomains</b> <a href=\"DomainDisplay.aspx?ItemName=Evil\">Devil (Evil)</a>, <a href=\"DomainDisplay.aspx?ItemName=Law\">Devil (Law)</a>, <a href=\"DomainDisplay.aspx?ItemName=Rune\">Language</a>, <a href=\"DomainDisplay.aspx?ItemName=Knowledge\">Memory</a>, <a href=\"DomainDisplay.aspx?ItemName=Knowledge\">Thought</a><br /><i>* Requires the <u><a href=\"TraitDisplay.aspx?ItemName=Acolyte%20of%20Apocrypha\">Acolyte of Apocrypha</a></u> trait.</i><br /><b>Favored Weapon</b> Trident<br /><b>Symbol</b> Trident and ring<br /><b>Sacred Animal(s)</b> Mockingbird<br /><b>Sacred Color(s)</b> Red, yellow<br /></p><h3 class=\"framing\">Obedience</h3><p>Every day you must lie to someone for your own personal gain (this cannot be the same person more than once a week). Additionally, once per week, you must write down a new secret that you have learned about someone else and burn it as a sacrifice to Mephistopheles. Gain a +4 profane bonus to Diplomacy checks attempted against targets whose attitudes are unfriendly or worse.</p><h2 class=\"title\">Boons - <a href=\"FeatDisplay.aspx?ItemName=Deific Obedience\">Deific Obedience</a></h2><p></p><h3 class=\"framing\"><img src=\"http://www.aonprd.com/images/PathfinderSocietySymbol.gif\" style=\"margin:3px 3px 0px 3px\" title=\"PFS Legal\" /> Evangelist</h3><p><b>Source </b><a class=\"external-link\" href=\"http://paizo.com/products/btpy9i8d?Pathfinder-Adventure-Path-102-Breaking-the-Bones-of-Hell\" target=\"_blank\"><i>Pathfinder #102: Breaking the Bones of Hell pg. 75</i></a><br /><b>1: Fool Maker (Sp)</b> <i>charm person</i> 3/day, <i>undetectable alignment</i> 2/day, or <i>suggestion</i> 1/day<br /><b>2: Persecutor (Ex)</b> You can use your Bluff skill to demoralize opponents and influence an opponent's attitude as though it were the Intimidate skill. The effects function the same. Additionally, you may use the Knowledge (religion) skill on any check related to knowing about or interpreting the law-including infernal contracts.<br /><b>3: Charming Liar (Su)</b> Whenever you use the Bluff skill, you can use the Diplomacy skill to influence an NPC's attitude at the same time. Both skill checks are made independently, so even if one fails, the other might succeed-suggesting an obvious but charming falsehood or an aggravating but convincing lie. Additionally, any spell of the charm subschool that you cast has its DC increased by 2.</p><h3 class=\"framing\"><img src=\"http://www.aonprd.com/images/PathfinderSocietySymbol.gif\" style=\"margin:3px 3px 0px 3px\" title=\"PFS Legal\" /> Exalted</h3><p><b>Source </b><a class=\"external-link\" href=\"http://paizo.com/products/btpy9i8d?Pathfinder-Adventure-Path-102-Breaking-the-Bones-of-Hell\" target=\"_blank\"><i>Pathfinder #102: Breaking the Bones of Hell pg. 75</i></a><br /><b>1: Faith Taker (Sp)</b> <i>unseen servant</i> 3/day, <i>detect thoughts</i> 2/day, or <i>glibness</i> 1/day<br /><b>2: False Priest (Su)</b> You gain a +4 bonus on Disguise checks to pass as a worshiper of another deity and can cast spells using holy symbols other than your own. Additionally, for a number of hours per day equal to your Charisma modifier (minimum 1), you can disguise your alignment. By spending a standard action, you hide your true alignment and instead detect as being of the same alignment as the deity whose holy symbol you are wearing.<br /><b>3: Revoke Healing (Su)</b> A number of times per day equal to your Charisma modifier (minimum 1), you can deal damage to a creature in your line of sight that you have magically healed within the past 24 hours. The damage equals the amount restored by the highest-level spell with the healing descriptor that you can cast. This may result in you causing more damage than you healed. The damage occurs in a single round. In the case of healing spells that heal over multiple rounds, only healing provided in the first round is counted when determining damage.</p><h3 class=\"framing\"><img src=\"http://www.aonprd.com/images/PathfinderSocietySymbol.gif\" style=\"margin:3px 3px 0px 3px\" title=\"PFS Legal\" /> Sentinel</h3><p><b>Source </b><a class=\"external-link\" href=\"http://paizo.com/products/btpy9i8d?Pathfinder-Adventure-Path-102-Breaking-the-Bones-of-Hell\" target=\"_blank\"><i>Pathfinder #102: Breaking the Bones of Hell pg. 75</i></a><br /><b>1: Trust Breaker (Sp)</b> <i>doom</i> 3/day, <i>eagle's splendor</i> 2/day, or <i>keen edge</i> 1/day<br /><b>2: Spectacular Rival (Su)</b> A number of times per day equal to your Charisma modifier (minimum 1), you can add your Charisma modifier (minimum 1) to your combat maneuver bonus.<br /><b>3: Fatal Choice (Su)</b> Once per day, upon defeating an opponent, you can heal it and attempt to force it to obey you. As soon as you reduce a living creature to -1 or fewer hit points, you can force it to attempt a Will saving throw with a DC equal to 10 + your Hit Dice + your Charisma modifier. If it succeeds, it begins dying as normal. If the target fails, it is restored to 1 hit point and is affected as per the spell <i>charm monster</i>. The target can willingly fail this saving throw. This effect lasts for a number of minutes equal to your Charisma modifier (minimum 1). At the end of this period, the target can behave as normal.</p><h2 class=\"title\">Boons - <a href=\"FeatDisplay.aspx?ItemName=Fiendish Obedience\">Fiendish Obedience</a></h2><p></p><h3 class=\"framing\">Evangelist</h3><p><b>Source </b><a class=\"external-link\" href=\"http://paizo.com/products/btpy9tok\" target=\"_blank\"><i>Book of the Damned pg. 74</i></a><br /><b>1: Whispers from Caina (Sp)</b> <i>detect secret doors</i> 3/day, <i>augury</i> 2/day, or <i>blood biography</i> 1/day<br /><b>2: Enter the Hellfire Testament (Su)</b> As a standard action, you can forge deep and unsettling ties to the places and individuals around you. While this ability is in effect, an enemy that comes within 5 feet of you must succeed at a Will saving throw (DC = 10 + half your Hit Dice + your Charisma modifier) or be compelled to blurt out a single secret that looms heavy in its mind. This could be a personally embarrassing detail, or it could be secret plans to attack or sabotage you, at the GM's discretion. Additionally, creatures that fail their Will saving throws become confused for as long as you maintain this supernatural ability (once you've activated it, maintaining the Hellfire Testament is a free action). You can dismiss the Hellfire Testament as a free action, and you can use this ability for a number of rounds per day equal to your Hit Dice. The duration need not be used all at once, but it must be used in 1-round increments. Regardless of its saving throw result, a creature subjected to this ability once can't be affected by it again for 24 hours. This is a mind-affecting compulsion effect.<br /><b>3: Confide in the Crimson Son (Su)</b> You have an uncanny, infernal knack for earning the trust of those with weak minds and weaker wills. Three times per day as a standard action, you can target a living creature and offer dark whispers of camaraderie and flattery. Unless the creature succeeds at a Will saving throw (DC = 10 + half your Hit Dice + your Charisma modifier), it believes you are incredibly trustworthy and will refuse to harm you with any of its attacks or abilities for a number of rounds equal to your Hit Dice, and you gain a +20 profane bonus on Diplomacy checks to influence its attitude or make a request. If any of its allies attempt to harm you during this period, the creature will defend you however it is able. A creature can't be affected by this ability more than once in a 24-hour period. This is a mind-affecting effect.</p><h3 class=\"framing\">Exalted</h3><p><b>Source </b><a class=\"external-link\" href=\"http://paizo.com/products/btpy9tok\" target=\"_blank\"><i>Book of the Damned pg. 74</i></a><br /><b>1: Fulfilled by Hell (Sp)</b> <i>memorize page </i> 3/day, <i>honeyed tongue</i> 2/day, or <i>marionette possession</i> 1/day<br /><b>2: Signed with Visineir (Su)</b> The full weight of the Crimson Son backs the infernal contracts you sign, even if the signatories are coerced or otherwise tricked into agreement. Three times per day as a standard action, you can target a creature to bind it into a special Hell-backed contract. If the creature fails a Will saving throw (DC = 10 + half your Hit Dice + your Charisma modifier), for a number of rounds equal to your Hit Dice it cannot make any bodily contact with you, including attacking with manufactured weapons, as if it were a good-aligned summoned creature and you were affected with a <i>protection from good</i> spell. You can attack the affected creature without penalty. Every time the creature attempts to attack you while this ability is in effect, it is nauseated for 1 round (no saving throw).<br /><b>3: Eternal Contractual Damnation (Sp)</b> You can marshal the might of Hell to briefly imprison your enemies. This functions as <i>mass icy prison</i>, using your Hit Dice as your caster level, except the targets are trapped in infernal flames and the prison deals fire damage instead of cold damage. Affected creatures can quench the shifting wall of flames in the same way they could break an icy prison. (<i>Create water</i> has no effect on the flames, but casting a <i>quench</i> spell automatically extinguishes a single creature's prison).</p><h3 class=\"framing\">Sentinel</h3><p><b>Source </b><a class=\"external-link\" href=\"http://paizo.com/products/btpy9tok\" target=\"_blank\"><i>Book of the Damned pg. 74</i></a><br /><b>1: Call of the Crimson Son (Sp)</b> <i>keen senses </i> 3/day, <i>blood armor</i> 2/day, or <i>chain of perdition</i> 1/day<br /><b>2: Bound to the Eighth (Sp)</b> You are well versed in the complex and draconian laws of Hell and those that bind devils to service, and you can imitate this binding magic to weaken your foes. Once per day as a standard action, you can cast <i>symbol of weakness</i>.<br /><b>3: King of Devils (Sp)</b> You can call upon the infernal power of the legions of devils that answer to Mephistopheles to strengthen your body and mind. Once per day, you can summon two infernally loyal barbed devils to your side as if using <i>summon monster IX</i>.</p><h2 class=\"title\">For Followers of Mephistopheles</h2><p></p><h3 class=\"framing\">Feats</h3><p><a href=\"FeatDisplay.aspx?ItemName=Hellish Shackles\">Hellish Shackles</a></p><h3 class=\"framing\">Spells</h3><p><a href=\"SpellDisplay.aspx?ItemName=Seer's Bane\">Seer's Bane</a></p><h3 class=\"framing\">Traits</h3><p><a href=\"TraitDisplay.aspx?ItemName=Flames of Hell\">Flames of Hell</a></p><h2 class=\"title\">Unique Spell Rules</h2><b>Source </b><a class=\"external-link\" href=\"http://paizo.com/products/btpy9i8d?Pathfinder-Adventure-Path-102-Breaking-the-Bones-of-Hell\" target=\"_blank\"><i>Pathfinder #102: Breaking the Bones of Hell pg. 72</i></a><br /><p></p><h3 class=\"framing\">Cleric/Warpriest</h3><p><i><a href=\"SpellDisplay.aspx?ItemName=Message\">Message</a></i> can be prepared as a 0-level spell<br /><i><a href=\"SpellDisplay.aspx?ItemName=Undetectable Alignment\">Undetectable Alignment</a></i> can be prepared as a 1st-level spell<br /><i><a href=\"SpellDisplay.aspx?ItemName=False Vision\">False Vision</a></i> can be prepared as a 5th-level spell<br /></p><h2 class=\"title\">Unique Summon Rules</h2><b>Source </b><a class=\"external-link\" href=\"http://paizo.com/products/btpy9i8d?Pathfinder-Adventure-Path-102-Breaking-the-Bones-of-Hell\" target=\"_blank\"><i>Pathfinder #102: Breaking the Bones of Hell pg. 72</i></a><br /><a href=\"SpellDisplay.aspx?ItemName=Summon Monster 4\"><b>Summon Monster IV</b></a>: <a href=\"MonsterDisplay.aspx?ItemName=Guardian Scroll\">Guardian Scroll</a><br /><a href=\"SpellDisplay.aspx?ItemName=Summon Monster 8\"><b>Summon Monster VIII</b></a>: <a href=\"MonsterDisplay.aspx?ItemName=Contract Devil (Phistophilus)\">Contract Devil (Phistophilus)</a><br /><a href=\"SpellDisplay.aspx?ItemName=Summon Monster 9\"><b>Summon Monster IX</b></a>: <a href=\"MonsterDisplay.aspx?ItemName=Heresy Devil (Ayngavhaul)\">Heresy Devil (Ayngavhaul)</a><br /><br /><p></p><div style=\"position:relative;left:0%;border:2px ridge #434343;width:100%;height:100%\"><div class=\"wiki-content-full\"><iframe style=\"overflow-y:hidden;width:100%;height:450px\" src=\"https://pathfinderwiki.com/wiki/Mephistopheles\"> </iframe></div>\n </div>",
  "flags": {
    "monks-enhanced-journal": {
      "type": "journal"
    }
  },
  "_id": "tA2WRCHLqrt3K17M",
  "pages": [],
  "_key": "!journal!tA2WRCHLqrt3K17M"
}