{
  "name": "Mestama",
  "content": "<p></p><h1 class=\"title\"><img src=\"http://www.aonprd.com/images/PathfinderSocietySymbol.gif\" style=\"margin:3px 3px 0px 3px\" title=\"PFS Legal\" /> Mestama</h1><h2><b>The Mother of Witches</b></h2><b>Source</b> <a class=\"external-link\" href=\"http://paizo.com/products/btpy94wj?Pathfinder-Campaign-Setting-Inner-Sea-Gods-Hardcover\" target=\"_blank\"><i>Inner Sea Gods pg. 320</i></a><br /><b>Pathfinder Wiki</b> <a href=\"http://www.pathfinderwiki.com/wiki/Mestama\">Mestama</a><p></p><h3 class=\"framing\">Details</h3><p><b>Alignment</b> CE<br /><b>Pantheon</b> Demon Lords<br /><b>Areas of Concern</b> Cruelty, deception, hags<br /><b>Domains</b> <a href=\"DomainDisplay.aspx?ItemName=Chaos\">Chaos</a>, <a href=\"DomainDisplay.aspx?ItemName=Charm\">Charm</a>, <a href=\"DomainDisplay.aspx?ItemName=Evil\">Evil</a>, <a href=\"DomainDisplay.aspx?ItemName=Trickery\">Trickery</a><br /><b>Subdomains</b> <a href=\"DomainDisplay.aspx?ItemName=Trickery\">Deception</a>, <a href=\"DomainDisplay.aspx?ItemName=Chaos\">Demon (Chaos)</a>, <a href=\"DomainDisplay.aspx?ItemName=Evil\">Demon (Evil)</a>, <a href=\"DomainDisplay.aspx?ItemName=Charm\">Lust</a>, <a href=\"DomainDisplay.aspx?ItemName=Trickery\">Thievery</a><br /><i>* Requires the <u><a href=\"TraitDisplay.aspx?ItemName=Acolyte%20of%20Apocrypha\">Acolyte of Apocrypha</a></u> trait.</i><br /><b>Favored Weapon</b> Punching dagger<br /><b>Symbol</b> Eye on three sharp stones<br /><b>Sacred Animal(s)</b> Black widow<br /><b>Sacred Color(s)</b> Black, red<br /></p><h3 class=\"framing\">Obedience</h3><p>Perform an act of cruelty upon a nonbeliever of Mestama after spending an hour observing the nonbeliever- preferably from a vantage unknown by the vicitm. This act must, at the very least, incite the victim to tears or anger. Gain a +4 profane bonus on saves against illusions.</p><h2 class=\"title\">Boons - <a href=\"FeatDisplay.aspx?ItemName=Demonic Obedience\">Demonic Obedience</a></h2><p></p><h3 class=\"framing\">Demoniac</h3><p><b>Source </b><a class=\"external-link\" href=\"http://paizo.com/store/games/roleplayingGames/p/pathfinderRPG/paizo/pathfinderChronicles/v5748btpy8hij\" target=\"_blank\"><i>Book of the Damned - Volume 2: Lords of Chaos pg. 20</i></a><br /><b>1: Witch's Trick (Sp)</b> <i>disguise self </i>3/day, <i>misdirection </i>2/day, or <i>bestow curse</i> 1/day<br /><b>2: Elder's Grace (Ex)</b> You immediately age into the next age category, taking all of the appropriate bonuses to mental ability scores without any of the penalties to physical ability scores. If you are venerable when you achieve the boon, you die and become a ghost. Any illusion effect you create gains a +2 profane bonus to the save DC.<br /><b>3: Shriek of the Damned (Sp)</b> Once per day you may use <i>wail of the banshee</i>.</p><h2 class=\"title\">Boons - <a href=\"FeatDisplay.aspx?ItemName=Fiendish Obedience\">Fiendish Obedience</a></h2><p></p><h3 class=\"framing\">Evangelist</h3><p><b>Source </b><a class=\"external-link\" href=\"http://paizo.com/products/btpy9tok\" target=\"_blank\"><i>Book of the Damned pg. 76</i></a><br /><b>1: Deceiver (Sp)</b> <i>silent image </i> 3/day, <i>invisibility</i> 2/day, or <i>glibness</i> 1/day<br /><b>2: Covenant of Three (Su or Sp)</b> You may not be a hag, but you can wield hags' power in conjunction with your sisters. You count as a hag for the purpose of forming a coven. You can be part of a coven only if it has no male members. If you are already a hag (or already count as one for the purpose of forming a coven), you can use <i>project image</i> once per day as a spell-like ability.<br /><b>3: Black Magic (Su)</b> The Mother of Witches imbues you with the darkest power of witchcraft. You gain a grand hex, chosen from any of those available to witches. This hex's DC is equal to 10 + half your level + your Intelligence, Wisdom, or Charisma modifier (whichever is highest); if you are a witch, you can use your hexes' DC instead. If you are not a witch or a hag, you can use this hex only once per day.</p><h3 class=\"framing\">Exalted</h3><p><b>Source </b><a class=\"external-link\" href=\"http://paizo.com/products/btpy9tok\" target=\"_blank\"><i>Book of the Damned pg. 78</i></a><br /><b>1: Witch's Trick (Sp)</b> <i>disguise self</i> 3/day, <i>misdirection</i> 2/day, or <i>bestow curse</i> 1/day<br /><b>2: Elder's Grace (Ex)</b> You immediately age to the next age category, gaining all of the appropriate bonuses to your mental ability scores without taking any penalties to your physical ability scores. If you are venerable when you achieve this boon, you die and become a ghost. Any illusion effect you create gains a +2 profane bonus to the save DC. This transformation into a ghost persists even if you fail to perform your obedience.<br /><b>3: Shriek of the Damned (Sp)</b> Once per day, you can cast <i>wail of the banshee</i> as a spell-like ability.</p><h3 class=\"framing\">Sentinel</h3><p><b>Source </b><a class=\"external-link\" href=\"http://paizo.com/products/btpy9tok\" target=\"_blank\"><i>Book of the Damned pg. 78</i></a><br /><b>1: Tormentor's Invocation (Sp)</b> <i>ill omen </i> 3/day, <i>blindness/deafness</i> 2/day, or <i>pain strike</i> 1/day<br /><b>2: Widow's Cruelty (Ex or Su)</b> Mestama grants you a form meant to beguile and slay, as well as the power to join a witch coven. You count as a hag for the purpose of forming a coven. In addition, your nails become razor sharp, granting you two natural claw attacks that deal damage appropriate to your size (1d4 for a Medium creature). If you already had claw attacks, those attacks deal damage as though you were one size larger instead. You become female (if you weren't already) and physically attractive; depending on how drastic the changes are, you may or may not still be recognizable as your former self. Hags do not become physically attractive in this way.<br /><b>3: Maiming Strike (Su)</b> With a single ripping claw, you destroy a creature's virility and wreck its physical and magical potency. Three times per day, you can make a single claw attack as a standard action. In addition to taking normal claw damage, the creature struck must succeed at a Fortitude save (DC = 10 + half your Hit Dice + your Strength or Dexterity modifier, whichever is higher) or become permanently mutilated in a physical and spiritual way. The victim takes a -6 penalty to its Strength, Dexterity, or Constitution score (chosen by you) and on caster level checks, concentration checks, and spell penetration checks. The victim can no longer sire or birth children. This is a curse effect.</p><h2 class=\"title\">For Followers of Mestama</h2><p></p><h3 class=\"framing\">Feats</h3><p><a href=\"FeatDisplay.aspx?ItemName=Channel Discord\">Channel Discord</a></p><h3 class=\"framing\">Magic Items - Wondrous Items</h3><p><a href=\"MagicWondrousDisplay.aspx?FinalName=Dagon's Eye\">Dagon's Eye</a></p><h3 class=\"framing\">Traits</h3><p><a href=\"TraitDisplay.aspx?ItemName=Demonic Persuasion\">Demonic Persuasion</a><br /><br /></p><div style=\"position:relative;left:0%;border:2px ridge #434343;width:100%;height:100%\"><div class=\"wiki-content-full\"><iframe style=\"overflow-y:hidden;width:100%;height:450px\" src=\"https://pathfinderwiki.com/wiki/Mestama\"> </iframe></div>\n </div>",
  "flags": {
    "monks-enhanced-journal": {
      "type": "journal"
    }
  },
  "_id": "61yppwKgO7ckzy9a",
  "pages": [],
  "_key": "!journal!61yppwKgO7ckzy9a"
}