{
  "name": "Mother Vulture",
  "content": "<p></p><h1 class=\"title\">Mother Vulture</h1><h2><b>The Flesheater</b></h2><b>Source</b> <a class=\"external-link\" href=\"https://paizo.com/products/btq01x4d?Pathfinder-Campaign-Setting-Concordance-of-Rivals\" target=\"_blank\"><i>Concordance of Rivals pg. 12</i></a><br /><b>Pathfinder Wiki</b> <a href=\"http://www.pathfinderwiki.com/wiki/Mother Vulture\">Mother Vulture</a><p></p><h3 class=\"framing\">Details</h3><p><b>Alignment</b> N<br /><b>Pantheon</b> Psychopomp Usher<br /><b>Areas of Concern</b> Consumption, renewal, and transformation<br /><b>Domains</b> <a href=\"DomainDisplay.aspx?ItemName=Animal\">Animal</a>, <a href=\"DomainDisplay.aspx?ItemName=Destruction\">Destruction</a>, <a href=\"DomainDisplay.aspx?ItemName=Healing\">Healing</a>, <a href=\"DomainDisplay.aspx?ItemName=Repose\">Repose</a><br /><b>Subdomains</b> N/A<br /><i>* Requires the <u><a href=\"TraitDisplay.aspx?ItemName=Acolyte%20of%20Apocrypha\">Acolyte of Apocrypha</a></u> trait.</i><br /><b>Favored Weapon</b> Sickle<br /><b>Symbol</b> Two crossed diagonal lines with an empty circle above and a filled circle below<br /></p><h3 class=\"framing\">Obedience</h3><p>Consume the flesh or blood of your own people and reflect on the pain and death required to grant strength and life; if this is your own flesh or blood, the process deals 1d6 points of damage. Gain a +4 insight bonus against effects that would cause you to become sickened or nauseated. You can survive by eating rotting and diseased food with no ill effect.</p><h2 class=\"title\">Boons - <a href=\"FeatDisplay.aspx?ItemName=Monitor Obedience\">Monitor Obedience</a></h2><p></p><h3 class=\"framing\">None</h3><p><b>Source </b><a class=\"external-link\" href=\"https://paizo.com/products/btq01x4d?Pathfinder-Campaign-Setting-Concordance-of-Rivals\" target=\"_blank\"><i>Concordance of Rivals pg. 12</i></a><br /><b>1: Carrion Eater (Sp)</b> <a href=\"SpellDisplay.aspx?ItemName=decompose corpse\" style=\"text-decoration:underline\"><i>decompose corpse</i></a> 3/day, <a href=\"SpellDisplay.aspx?ItemName=animal aspect\" style=\"text-decoration:underline\"><i>animal aspect</i></a> 2/day, or <a href=\"SpellDisplay.aspx?ItemName=cure serious wounds\" style=\"text-decoration:underline\"><i>cure serious wounds</i></a> 1/day<br /><b>2: Devourer (Ex)</b> You gain a bite attack that deals 1d4 points of damage (1d3 for small creatures) plus your Strength modifier. If you confirm a critical hit with this attack, it also deals 1 point of bleed damage. If you already have a bite attack, your bite deals 2 points of bleed damage on a critical hit. You are considered proficient with this attack.<br /><b>3: New from Old (Sp)</b> You can cast <a href=\"SpellDisplay.aspx?ItemName=polymorph any object\" style=\"text-decoration:underline\">extended <i>polymorph any object</i></a> once per day.</p><h2 class=\"title\">For Followers of Mother Vulture</h2><p></p><h3 class=\"framing\">Prestige Classes</h3><p><a href=\"PrestigeClassesDisplay.aspx?ItemName=Mortal Usher\">Mortal Usher</a><br /><br /></p><div style=\"position:relative;left:0%;border:2px ridge #434343;width:100%;height:100%\"><div class=\"wiki-content-full\"><iframe style=\"overflow-y:hidden;width:100%;height:450px\" src=\"https://pathfinderwiki.com/wiki/Mother Vulture\"> </iframe></div>\n </div>",
  "flags": {
    "monks-enhanced-journal": {
      "type": "journal"
    }
  },
  "_id": "yqOghTY5ObrQMFgf",
  "pages": [],
  "_key": "!journal!yqOghTY5ObrQMFgf"
}