{
  "name": "Mrtyu",
  "content": "<p></p><h1 class=\"title\">Mrtyu</h1><h2><b>Death's Consort</b></h2><b>Source</b> <a class=\"external-link\" href=\"https://paizo.com/products/btq01x4d?Pathfinder-Campaign-Setting-Concordance-of-Rivals\" target=\"_blank\"><i>Concordance of Rivals pg. 12</i></a><br /><b>Pathfinder Wiki</b> <a href=\"http://www.pathfinderwiki.com/wiki/Mrtyu\">Mrtyu</a><p></p><h3 class=\"framing\">Details</h3><p><b>Alignment</b> N<br /><b>Pantheon</b> Psychopomp Usher<br /><b>Areas of Concern</b> Poetry, trauma, and war<br /><b>Domains</b> <a href=\"DomainDisplay.aspx?ItemName=Charm\">Charm</a>, <a href=\"DomainDisplay.aspx?ItemName=Death\">Death</a>, <a href=\"DomainDisplay.aspx?ItemName=Repose\">Repose</a>, <a href=\"DomainDisplay.aspx?ItemName=War\">War</a><br /><b>Subdomains</b> N/A<br /><i>* Requires the <u><a href=\"TraitDisplay.aspx?ItemName=Acolyte%20of%20Apocrypha\">Acolyte of Apocrypha</a></u> trait.</i><br /><b>Favored Weapon</b> Greatsword<br /><b>Symbol</b> A circle with five curved lines extending from it<br /></p><h3 class=\"framing\">Obedience</h3><p>Hear confessions of the dying or spend at least 1 hour burying the dead after a battle. If there are no dying or dead people in the area, spend the hour uttering prayers for the last dead person you encountered. Gain a +4 insight bonus on saving throws against spells that affect multiple creatures.</p><h2 class=\"title\">Boons - <a href=\"FeatDisplay.aspx?ItemName=Monitor Obedience\">Monitor Obedience</a></h2><p></p><h3 class=\"framing\">None</h3><p><b>Source </b><a class=\"external-link\" href=\"https://paizo.com/products/btq01x4d?Pathfinder-Campaign-Setting-Concordance-of-Rivals\" target=\"_blank\"><i>Concordance of Rivals pg. 12</i></a><br /><b>1: Ruled by Passion (Sp)</b> <a href=\"SpellDisplay.aspx?ItemName=remove fear\" style=\"text-decoration:underline\"><i>remove fear</i></a> 3/day, <a href=\"SpellDisplay.aspx?ItemName=aid\" style=\"text-decoration:underline\"><i>aid</i></a> 2/day, or <a href=\"SpellDisplay.aspx?ItemName=detect desires\" style=\"text-decoration:underline\"><i>detect desires</i></a> 1/day<br /><b>2: Death's Lover (Ex)</b> You gain Diplomacy and Sense Motive as class skills, and you gain a bonus on checks using these skills equal to half your Hit Dice.<br /><b>3: Hands of Death (Su)</b> Once per day, you can call upon a whirling mass of daggers and swords that functions as a <a href=\"SpellDisplay.aspx?ItemName=blade barrier\" style=\"text-decoration:underline\"><i>blade barrier</i></a>. This effect lasts only 1 round per Hit Die, but you can direct it to move up to 30 feet or reshape itself from a wall to circle once each round as a move action.</p><h2 class=\"title\">For Followers of Mrtyu</h2><p></p><h3 class=\"framing\">Prestige Classes</h3><p><a href=\"PrestigeClassesDisplay.aspx?ItemName=Mortal Usher\">Mortal Usher</a><br /><br /></p><div style=\"position:relative;left:0%;border:2px ridge #434343;width:100%;height:100%\"><div class=\"wiki-content-full\"><iframe style=\"overflow-y:hidden;width:100%;height:450px\" src=\"https://pathfinderwiki.com/wiki/Mrtyu\"> </iframe></div>\n </div>",
  "flags": {
    "monks-enhanced-journal": {
      "type": "journal"
    }
  },
  "_id": "crJi3EhujL6nRKwz",
  "pages": [],
  "_key": "!journal!crJi3EhujL6nRKwz"
}