{
  "name": "Myr",
  "content": "<p></p><h1 class=\"title\"><img src=\"http://www.aonprd.com/images/PathfinderSocietySymbol.gif\" style=\"margin:3px 3px 0px 3px\" title=\"PFS Legal\" /> Myr</h1><h2><b>The Guide of Perfection</b></h2><b>Source</b> <a class=\"external-link\" href=\"http://paizo.com/products/btpy9uk2?Pathfinder-Adventure-Path-123-The-Flooded-Cathedral\" target=\"_blank\"><i>Pathfinder #123: The Flooded Cathedral pg. 71</i></a><br /><b>Pathfinder Wiki</b> <a href=\"http://www.pathfinderwiki.com/wiki/Myr\">Myr</a><p></p><h3 class=\"framing\">Details</h3><p><b>Alignment</b> LG<br /><b>Pantheon</b> Azlanti Pantheon<br /><b>Areas of Concern</b> Charity, lineage, and physical perfection<br /><b>Domains</b> <a href=\"DomainDisplay.aspx?ItemName=Glory\">Glory</a>, <a href=\"DomainDisplay.aspx?ItemName=Good\">Good</a>, <a href=\"DomainDisplay.aspx?ItemName=Law\">Law</a>, <a href=\"DomainDisplay.aspx?ItemName=Nobility\">Nobility</a>, <a href=\"DomainDisplay.aspx?ItemName=Strength\">Strength</a><br /><b>Subdomains</b> <a href=\"DomainDisplay.aspx?ItemName=Repose\">Ancestors</a>, <a href=\"DomainDisplay.aspx?ItemName=Good\">Archon (Good)</a>, <a href=\"DomainDisplay.aspx?ItemName=Law\">Archon (Law)</a>, <a href=\"DomainDisplay.aspx?ItemName=Glory\">Heroism</a>, <a href=\"DomainDisplay.aspx?ItemName=Glory\">Honor</a>, <a href=\"DomainDisplay.aspx?ItemName=Nobility\">Leadership</a>, <a href=\"DomainDisplay.aspx?ItemName=Strength\">Resolve</a><br /><i>* Requires the <u><a href=\"TraitDisplay.aspx?ItemName=Acolyte%20of%20Apocrypha\">Acolyte of Apocrypha</a></u> trait.</i><br /><b>Favored Weapon</b> Longsword<br /><b>Symbol</b> Branching tree and its roots<br /></p><h2 class=\"title\">For Followers of Myr</h2><p></p><h3 class=\"framing\">Traits</h3><p><a href=\"TraitDisplay.aspx?ItemName=Shared Ancestors\">Shared Ancestors</a><br /><br /></p><div style=\"position:relative;left:0%;border:2px ridge #434343;width:100%;height:100%\"><div class=\"wiki-content-full\"><iframe style=\"overflow-y:hidden;width:100%;height:450px\" src=\"https://pathfinderwiki.com/wiki/Myr\"> </iframe></div>\n </div>",
  "flags": {
    "monks-enhanced-journal": {
      "type": "journal"
    }
  },
  "_id": "JnoBBQPfO3N2pwOL",
  "pages": [],
  "_key": "!journal!JnoBBQPfO3N2pwOL"
}