{
  "name": "Narakaas",
  "content": "<p></p><h1 class=\"title\">Narakaas</h1><h2><b>The Cleansing Sentence</b></h2><b>Source</b> <a class=\"external-link\" href=\"https://paizo.com/products/btq01x4d?Pathfinder-Campaign-Setting-Concordance-of-Rivals\" target=\"_blank\"><i>Concordance of Rivals pg. 13</i></a><br /><b>Pathfinder Wiki</b> <a href=\"http://www.pathfinderwiki.com/wiki/Narakaas\">Narakaas</a><p></p><h3 class=\"framing\">Details</h3><p><b>Alignment</b> N<br /><b>Pantheon</b> Psychopomp Usher<br /><b>Areas of Concern</b> Atonement, difficult choices, and pain<br /><b>Domains</b> <a href=\"DomainDisplay.aspx?ItemName=Death\">Death</a>, <a href=\"DomainDisplay.aspx?ItemName=Magic\">Magic</a>, <a href=\"DomainDisplay.aspx?ItemName=Repose\">Repose</a>, <a href=\"DomainDisplay.aspx?ItemName=Rune\">Rune</a><br /><b>Subdomains</b> N/A<br /><i>* Requires the <u><a href=\"TraitDisplay.aspx?ItemName=Acolyte%20of%20Apocrypha\">Acolyte of Apocrypha</a></u> trait.</i><br /><b>Favored Weapon</b> Greataxe<br /><b>Symbol</b> A vertical line intersected by two diagonal lines and capped with a circle<br /></p><h3 class=\"framing\">Obedience</h3><p>Flagellate yourself while reflecting on your personal failings or harm you have done to others, dealing 1d6 points of damage to yourself. You gain DR 2/-. If the damage you took from this obedience is healed, this damage reduction immediately ends.</p><h2 class=\"title\">Boons - <a href=\"FeatDisplay.aspx?ItemName=Monitor Obedience\">Monitor Obedience</a></h2><p></p><h3 class=\"framing\">None</h3><p><b>Source </b><a class=\"external-link\" href=\"https://paizo.com/products/btq01x4d?Pathfinder-Campaign-Setting-Concordance-of-Rivals\" target=\"_blank\"><i>Concordance of Rivals pg. 13</i></a><br /><b>1: Clarity in Pain (Sp)</b> <a href=\"SpellDisplay.aspx?ItemName=invigorate\" style=\"text-decoration:underline\"><i>invigorate</i></a> 3/day, <a href=\"SpellDisplay.aspx?ItemName=delay pain\" style=\"text-decoration:underline\"><i>delay pain</i></a> 2/day, or <a href=\"SpellDisplay.aspx?ItemName=blood biography\" style=\"text-decoration:underline\"><i>blood biography</i></a> 1/day<br /><b>2: Stronger Tomorrow (Sp)</b> You can increase the damage inflicted by your obedience to 4d6 points. If you do so, you can cast one of the following spells three times per day as a spell-like ability: <a href=\"SpellDisplay.aspx?ItemName=bear's endurance\" style=\"text-decoration:underline\"><i>bear's endurance</i></a>, <a href=\"SpellDisplay.aspx?ItemName=eagle's splendor\" style=\"text-decoration:underline\"><i>eagle's splendor</i></a>, <a href=\"SpellDisplay.aspx?ItemName=fox's cunning\" style=\"text-decoration:underline\"><i>fox's cunning</i></a>, or <a href=\"SpellDisplay.aspx?ItemName=owl's wisdom\" style=\"text-decoration:underline\"><i>owl's wisdom</i></a>.<br /><b>3: Empathy (Su)</b> You can grant any weapon you wield the <a href=\"MagicWeaponsDisplay.aspx?ItemName=Brilliant Energy\" style=\"text-decoration:underline\"><i>brilliant energy</i></a> and <a href=\"MagicWeaponsDisplay.aspx?ItemName=Merciful\" style=\"text-decoration:underline\"><i>merciful</i></a> special abilities as a single move action. You can only grant these abilities together, not separately, and the weapon immediately loses both properties if it leaves your possession. The weapon maintains these properties for a number of rounds equal to your Hit Dice. This duration does not need to be consecutive.</p><h2 class=\"title\">For Followers of Narakaas</h2><p></p><h3 class=\"framing\">Prestige Classes</h3><p><a href=\"PrestigeClassesDisplay.aspx?ItemName=Mortal Usher\">Mortal Usher</a><br /><br /></p><div style=\"position:relative;left:0%;border:2px ridge #434343;width:100%;height:100%\"><div class=\"wiki-content-full\"><iframe style=\"overflow-y:hidden;width:100%;height:450px\" src=\"https://pathfinderwiki.com/wiki/Narakaas\"> </iframe></div>\n </div>",
  "flags": {
    "monks-enhanced-journal": {
      "type": "journal"
    }
  },
  "_id": "5wlHB3APqwxlXjMV",
  "pages": [],
  "_key": "!journal!5wlHB3APqwxlXjMV"
}