{
  "name": "Neshen",
  "content": "<p></p><h1 class=\"title\"><img src=\"http://www.aonprd.com/images/PathfinderSocietySymbol.gif\" style=\"margin:3px 3px 0px 3px\" title=\"PFS Legal\" /> Neshen</h1><h2><b>Knight of the Steel Lash</b></h2><b>Source</b> <a class=\"external-link\" href=\"http://paizo.com/products/btpy94wj?Pathfinder-Campaign-Setting-Inner-Sea-Gods-Hardcover\" target=\"_blank\"><i>Inner Sea Gods pg. 322</i></a><br /><b>Pathfinder Wiki</b> <a href=\"http://www.pathfinderwiki.com/wiki/Neshen\">Neshen</a><p></p><h3 class=\"framing\">Details</h3><p><b>Alignment</b> LG<br /><b>Pantheon</b> Empyreal Lords<br /><b>Areas of Concern</b> Penitence, repentance, suffering<br /><b>Domains</b> <a href=\"DomainDisplay.aspx?ItemName=Good\">Good</a>, <a href=\"DomainDisplay.aspx?ItemName=Law\">Law</a>, <a href=\"DomainDisplay.aspx?ItemName=Liberation\">Liberation</a>, <a href=\"DomainDisplay.aspx?ItemName=Strength\">Strength</a><br /><b>Subdomains</b> <a href=\"DomainDisplay.aspx?ItemName=Good\">Archon (Good)</a>, <a href=\"DomainDisplay.aspx?ItemName=Law\">Archon (Law)</a>, <a href=\"DomainDisplay.aspx?ItemName=Liberation\">Freedom</a>, <a href=\"DomainDisplay.aspx?ItemName=Law\">Judgment</a>, <a href=\"DomainDisplay.aspx?ItemName=Strength\">Resolve</a><br /><i>* Requires the <u><a href=\"TraitDisplay.aspx?ItemName=Acolyte%20of%20Apocrypha\">Acolyte of Apocrypha</a></u> trait.</i><br /><b>Favored Weapon</b> Ranseur<br /><b>Symbol</b> Coiled steel lash<br /><b>Sacred Animal(s)</b> Ram<br /><b>Sacred Color(s)</b> Iron gray, red<br /></p><h2 class=\"title\">For Followers of Neshen</h2><p></p><h3 class=\"framing\">Feats</h3><p><a href=\"FeatDisplay.aspx?ItemName=Heroic Interposition\">Heroic Interposition</a></p><h3 class=\"framing\">Traits</h3><p><a href=\"TraitDisplay.aspx?ItemName=Empyreal Focus\">Empyreal Focus</a><br /><br /></p><div style=\"position:relative;left:0%;border:2px ridge #434343;width:100%;height:100%\"><div class=\"wiki-content-full\"><iframe style=\"overflow-y:hidden;width:100%;height:450px\" src=\"https://pathfinderwiki.com/wiki/Neshen\"> </iframe></div>\n </div>",
  "flags": {
    "monks-enhanced-journal": {
      "type": "journal"
    }
  },
  "_id": "tOFbFitQoBrKz8m7",
  "pages": [],
  "_key": "!journal!tOFbFitQoBrKz8m7"
}