{
  "name": "Nyarlathotep (Haunter of the Dark)",
  "content": "<p></p><h1 class=\"title\">Nyarlathotep</h1><h2><b>Black Pharaoh, Faceless Sphinx, and Haunter of the Dark</b></h2><b>Source</b> <a class=\"external-link\" href=\"http://paizo.com/products/btpy9nry?Pathfinder-Adventure-Path-109-In-Search-of-Sanity\" target=\"_blank\"><i>Pathfinder #109: In Search of Sanity pg. 70</i></a><br /><b>Pathfinder Wiki</b> <a href=\"http://www.pathfinderwiki.com/wiki/Nyarlathotep\">Nyarlathotep</a><p></p><h3 class=\"framing\">Details</h3><p><b>Alignment</b> CE<br /><b>Pantheon</b> Outer Gods<br /><b>Areas of Concern</b> Conspiracies, dangerous secrets, forbidden magic<br /><b>Domains (Black Pharaoh)</b> <a href=\"DomainDisplay.aspx?ItemName=Chaos\">Chaos</a>, <a href=\"DomainDisplay.aspx?ItemName=Evil\">Evil</a>, <a href=\"DomainDisplay.aspx?ItemName=Knowledge\">Knowledge</a>, <a href=\"DomainDisplay.aspx?ItemName=Magic\">Magic</a>, <a href=\"DomainDisplay.aspx?ItemName=Trickery\">Trickery</a><br /><b>Domains (Haunter of the Dark)</b> <a href=\"DomainDisplay.aspx?ItemName=Chaos\">Chaos</a>, <a href=\"DomainDisplay.aspx?ItemName=Darkness\">Darkness</a>, <a href=\"DomainDisplay.aspx?ItemName=Evil\">Evil</a>, <a href=\"DomainDisplay.aspx?ItemName=Knowledge\">Knowledge</a>, <a href=\"DomainDisplay.aspx?ItemName=Magic\">Magic</a><br /><b>Domains (Faceless Sphinx)</b> <a href=\"DomainDisplay.aspx?ItemName=Air\">Air</a>, <a href=\"DomainDisplay.aspx?ItemName=Chaos\">Chaos</a>, <a href=\"DomainDisplay.aspx?ItemName=Evil\">Evil</a>, <a href=\"DomainDisplay.aspx?ItemName=Knowledge\">Knowledge</a>, <a href=\"DomainDisplay.aspx?ItemName=Magic\">Magic</a><br /><b>Favored Weapon</b> Quarterstaff (Black Pharaoh), Dagger (Haunter of the Dark), Punching dagger (Faceless Sphinx)<br /><b>Symbol</b> Inverted ankh (Black Pharaoh), Circle with winglike arms (Haunter of the Dark), Image of a featureless face (Faceless Sphinx)<br /><b>Sacred Animal(s)</b> Panther (Black Pharaoh), Bat (Haunter of the Dark), N/A (Faceless Sphinx)<br /><b>Sacred Color(s)</b> Black, red (Black Pharaoh), Black, gold (Haunter of the Dark), N/A (Faceless Sphinx)<br /></p><h2 class=\"title\">For Followers of Nyarlathotep</h2><p></p><h3 class=\"framing\">Feats</h3><p><a href=\"FeatDisplay.aspx?ItemName=Dreamed Secrets\">Dreamed Secrets</a></p><h3 class=\"framing\">Traits</h3><p><a href=\"TraitDisplay.aspx?ItemName=Unspeakable Bond\">Unspeakable Bond</a><br /><br /></p><div style=\"position:relative;left:0%;border:2px ridge #434343;width:100%;height:100%\"><div class=\"wiki-content-full\"><iframe style=\"overflow-y:hidden;width:100%;height:450px\" src=\"https://pathfinderwiki.com/wiki/Nyarlathotep\"> </iframe></div>\n </div>",
  "flags": {
    "monks-enhanced-journal": {
      "type": "journal"
    }
  },
  "_id": "vKVILP96o30DrDvQ",
  "pages": [],
  "_key": "!journal!vKVILP96o30DrDvQ"
}