{
  "name": "Ongalte",
  "content": "<p></p><h1 class=\"title\">Ongalte</h1><h2><b>Death of Divinity</b></h2><b>Source</b> <a class=\"external-link\" href=\"https://paizo.com/products/btq01zno\" target=\"_blank\"><i>Pathfinder #144: Midwives to Death pg. 75</i></a><br /><b>Pathfinder Wiki</b> <a href=\"http://www.pathfinderwiki.com/wiki/Ongalte\">Ongalte</a><p></p><h3 class=\"framing\">Details</h3><p><b>Alignment</b> CE<br /><b>Pantheon</b> Iblydan Hero-Gods<br /><b>Areas of Concern</b> Deicide<br /><b>Domains</b> <a href=\"DomainDisplay.aspx?ItemName=Chaos\">Chaos</a>, <a href=\"DomainDisplay.aspx?ItemName=Death\">Death</a>, <a href=\"DomainDisplay.aspx?ItemName=Evil\">Evil</a><br /><b>Subdomains</b> <a href=\"DomainDisplay.aspx?ItemName=Chaos\">Entropy</a>, <a href=\"DomainDisplay.aspx?ItemName=Death\">Murder</a><br /><i>* Requires the <u><a href=\"TraitDisplay.aspx?ItemName=Acolyte%20of%20Apocrypha\">Acolyte of Apocrypha</a></u> trait.</i><br /><b>Favored Weapon</b> greataxe<br /></p><h3 class=\"framing\">On Golarion</h3><p><b>Centers of Worship</b> None<br /><b>Nationality</b> cyclops</p><h2 class=\"title\">Unique Spell Rules</h2><b>Source </b><a class=\"external-link\" href=\"https://paizo.com/products/btq01zno\" target=\"_blank\"><i>Pathfinder #144: Midwives to Death pg. 75</i></a><br /><p></p><h3 class=\"framing\">Inquisitor</h3><p><i><a href=\"SpellDisplay.aspx?ItemName=Bleed Glory\">Bleed Glory</a></i> can be prepared as a 2nd-level spell<br /><i><a href=\"SpellDisplay.aspx?ItemName=Steal Power\">Steal Power</a></i> can be prepared as a 4th-level spell<br /></p><h2 class=\"title\">Other Rules</h2><b>Source </b><a class=\"external-link\" href=\"https://paizo.com/products/btq01zno\" target=\"_blank\"><i>Pathfinder #144: Midwives to Death pg. 76</i></a><br />When casting <a href=\"SpellDisplay.aspx?ItemName=bleed glory\" style=\"text-decoration:underline\"><i>bleed glory</i></a>, <a href=\"SpellDisplay.aspx?ItemName=mythic severance\" style=\"text-decoration:underline\"><i>mythic severance</i></a>, <a href=\"SpellDisplay.aspx?ItemName=steal power\" style=\"text-decoration:underline\"><i>steal power</i></a>, or any other spell that specifically harms mythic creatures, the clerics, inquisitors, and oracles of Ongalte are treated as mythic sources for the purpose of resisting the spells' effects.<br /><br />Ongalte can grant up to 8th-level spells.<br /><br /><p></p><div style=\"position:relative;left:0%;border:2px ridge #434343;width:100%;height:100%\"><div class=\"wiki-content-full\"><iframe style=\"overflow-y:hidden;width:100%;height:450px\" src=\"https://pathfinderwiki.com/wiki/Ongalte\"> </iframe></div>\n </div>",
  "flags": {
    "monks-enhanced-journal": {
      "type": "journal"
    }
  },
  "_id": "YnSXU6QpWNogctku",
  "pages": [],
  "_key": "!journal!YnSXU6QpWNogctku"
}