{
  "name": "Osolmyr",
  "content": "<p></p><h1 class=\"title\">Osolmyr</h1><h2><b>The One True Dream</b></h2><b>Source</b> <a class=\"external-link\" href=\"http://paizo.com/products/btpy94wj?Pathfinder-Campaign-Setting-Inner-Sea-Gods-Hardcover\" target=\"_blank\"><i>Inner Sea Gods pg. 318</i></a><br /><b>Pathfinder Wiki</b> <a href=\"http://www.pathfinderwiki.com/wiki/Osolmyr\">Osolmyr</a><p></p><h3 class=\"framing\">Details</h3><p><b>Alignment</b> NE<br /><b>Pantheon</b> Daemon Harbingers<br /><b>Areas of Concern</b> Flagellation, repression, self denial<br /><b>Domains</b> <a href=\"DomainDisplay.aspx?ItemName=Evil\">Evil</a>, <a href=\"DomainDisplay.aspx?ItemName=Glory\">Glory</a>, <a href=\"DomainDisplay.aspx?ItemName=Healing\">Healing</a>, <a href=\"DomainDisplay.aspx?ItemName=Madness\">Madness</a><br /><b>Subdomains</b> <a href=\"DomainDisplay.aspx?ItemName=Evil\">Daemon</a>, <a href=\"DomainDisplay.aspx?ItemName=Glory\">Heroism</a>, <a href=\"DomainDisplay.aspx?ItemName=Madness\">Insanity</a>, <a href=\"DomainDisplay.aspx?ItemName=Healing\">Resurrection</a><br /><i>* Requires the <u><a href=\"TraitDisplay.aspx?ItemName=Acolyte%20of%20Apocrypha\">Acolyte of Apocrypha</a></u> trait.</i><br /><b>Favored Weapon</b> Flail<br /><b>Symbol</b> Bloody scourge<br /><b>Sacred Animal(s)</b> Albion peacock<br /><b>Sacred Color(s)</b> Pink, white<br /></p><h3 class=\"framing\">Obedience</h3><p>Publicly self-flagellate without acknowledging others' reactions. Gain a +4 profane bonus on saving throws against effects that damage, drain, or penalize ability scores.</p><h2 class=\"title\">Boons - Daemon Harbingers</h2><b>Source </b><a class=\"external-link\" href=\"http://paizo.com/products/btpy9tok\" target=\"_blank\"><i>Book of the Damned pg. 114</i></a><br />Abaddon's unique daemons take on a host of titles, customized to their methods and vanity. These harbingers enjoy sweeping influence among daemons as favored advisors, and they work to cultivate their own cults on Abaddon and beyond.<br /><br /> Daemon harbingers are neutral evil demigods that range in power from CR 21 to CR 25. The boons they grant are less complex than those granted by the Horsemen themselves, manifesting as spell-like abilities usable twice per day each.<br /><br /><b>1: </b> <i>inflict moderate wounds</i><br /><b>2: </b> <i>modify memory</i><br /><b>3: </b> <i>harm</i><br /><br /><p></p><div style=\"position:relative;left:0%;border:2px ridge #434343;width:100%;height:100%\"><div class=\"wiki-content-full\"><iframe style=\"overflow-y:hidden;width:100%;height:450px\" src=\"https://pathfinderwiki.com/wiki/Osolmyr\"> </iframe></div>\n </div>",
  "flags": {
    "monks-enhanced-journal": {
      "type": "journal"
    }
  },
  "_id": "ZGoyZuMmsaA79AA1",
  "pages": [],
  "_key": "!journal!ZGoyZuMmsaA79AA1"
}