{
  "name": "Pharasma",
  "content": "<p></p><h1 class=\"title\"><img src=\"http://www.aonprd.com/images/PathfinderSocietySymbol.gif\" style=\"margin:3px 3px 0px 3px\" title=\"PFS Legal\" /> Pharasma</h1><h2><b>Lady of Graves</b></h2><b>Source</b> <a class=\"external-link\" href=\"http://paizo.com/products/btpy94wj?Pathfinder-Campaign-Setting-Inner-Sea-Gods-Hardcover\" target=\"_blank\"><i>Inner Sea Gods pg. 116</i></a><br /><b>Pathfinder Wiki</b> <a href=\"http://www.pathfinderwiki.com/wiki/Pharasma\">Pharasma</a><p></p><h3 class=\"framing\">Details</h3><p><b>Alignment</b> N<br /><b>Pantheon</b> Core Deities<br /><b>Other Pantheons</b> Deities of Tian Xia<br /><b>Areas of Concern</b> Birth, death, fate, prophecy<br /><b>Domains</b> <a href=\"DomainDisplay.aspx?ItemName=Death\">Death</a>, <a href=\"DomainDisplay.aspx?ItemName=Healing\">Healing</a>, <a href=\"DomainDisplay.aspx?ItemName=Knowledge\">Knowledge</a>, <a href=\"DomainDisplay.aspx?ItemName=Repose\">Repose</a>, <a href=\"DomainDisplay.aspx?ItemName=Water\">Water</a><br /><b>Subdomains</b> <a href=\"DomainDisplay.aspx?ItemName=Repose\">Ancestors</a>, <a href=\"DomainDisplay.aspx?ItemName=Water\">Flowing</a>, <a href=\"DomainDisplay.aspx?ItemName=Water\">Ice</a>, <a href=\"DomainDisplay.aspx?ItemName=Knowledge\">Memory</a>, <a href=\"DomainDisplay.aspx?ItemName=Death\">Psychopomp (Death)</a>, <a href=\"DomainDisplay.aspx?ItemName=Repose\">Psychopomp (Repose)</a>, <a href=\"DomainDisplay.aspx?ItemName=Healing\">Resurrection</a>, <a href=\"DomainDisplay.aspx?ItemName=Repose\">Souls</a>, <a href=\"DomainDisplay.aspx?ItemName=Knowledge\">Thought</a><br /><i>* Requires the <u><a href=\"TraitDisplay.aspx?ItemName=Acolyte%20of%20Apocrypha\">Acolyte of Apocrypha</a></u> trait.</i><br /><b>Favored Weapon</b> Dagger<br /><b>Symbol</b> Spiraling comet<br /><b>Sacred Animal(s)</b> Whippoorwill<br /><b>Sacred Color(s)</b> Blue, white<br /></p><h3 class=\"framing\">Obedience</h3><p>Collect small bones whenever it is convenient and respectful to do so. When it comes time to perform your obedience, lay out the bones in a spiral. At one end of the spiral lay a slip of parchment on which you have written the name of someone newly born. At the other end of the spiral, lay a slip of parchment on which you have written the name of someone newly deceased. Chant hymns from <i>The Bones Land in a Spiral</i> while proceeding solemnly around the spiral, trailing a black scarf on the ground behind you. Gain a +2 profane or sacred bonus on attack rolls made with daggers. The type of bonus depends on your alignment-if you're neither good nor evil, you must choose either sacred or profane the first time you perform your obedience, and this choice can't be changed.</p><h3 class=\"framing\">Divine Gift</h3><p><b>Source</b> <a class=\"external-link\" href=\"http://paizo.com/products/btpya1am\" target=\"_blank\"><i>Planar Adventures pg. 79</i></a><br /><i>Nethys Note: See <a href=\"Rules.aspx?Name=Divine Gifts&amp;Category=Role of the Divine\" style=\"text-decoration:underline\">here</a> for details on how to gain a Divine Gift</i><br />The recipient is not affected by the next effect, damage, or other event that would otherwise kill him.</p><h3 class=\"framing\">On Golarion</h3><p><b>Centers of Worship</b> Brevoy, Nex, Osirion, The Shackles, Thuvia, Ustalav, Varisia<br /><b>Nationality</b> Garundi</p><h2 class=\"title\">Boons - <a href=\"FeatDisplay.aspx?ItemName=Deific Obedience\">Deific Obedience</a></h2><p></p><h3 class=\"framing\"><img src=\"http://www.aonprd.com/images/PathfinderSocietySymbol.gif\" style=\"margin:3px 3px 0px 3px\" title=\"PFS Legal\" /> Evangelist</h3><p><b>Source </b><a class=\"external-link\" href=\"http://paizo.com/products/btpy94wj?Pathfinder-Campaign-Setting-Inner-Sea-Gods-Hardcover\" target=\"_blank\"><i>Inner Sea Gods pg. 116</i></a><br /><b>1: Preserver (Sp)</b> <i>sanctuary </i>3/day, <i>gentle repose </i>2/day, or <i>speak with dead </i>1/day<br /><b>2: Decomposition (Su)</b> You can ensure the final rest of a creature. As a standard action, you can touch a corpse and cause it to dissolve into black ash. A corpse dissolved this way cannot be raised as an undead creature by any means short of a <i>miracle </i>or <i>wish</i>. The black ash left behind can, however, be used as the 'corpse' for spells that return the dead to true life-such as <i>raise dead</i>-as long as the entire collection of ash is kept together.<br /><b>3: The Veil Is Drawn Aside (Su)</b> You gain the Extra Revelation feat, choosing a revelation from either your chosen mystery or the Bones mystery. If you don't have the revelation class feature, you instead gain a +4 sacred or profane bonus on saving throws against necromancy spells and death effects.</p><h3 class=\"framing\"><img src=\"http://www.aonprd.com/images/PathfinderSocietySymbol.gif\" style=\"margin:3px 3px 0px 3px\" title=\"PFS Legal\" /> Exalted</h3><p><b>Source </b><a class=\"external-link\" href=\"http://paizo.com/products/btpy94wj?Pathfinder-Campaign-Setting-Inner-Sea-Gods-Hardcover\" target=\"_blank\"><i>Inner Sea Gods pg. 116</i></a><br /><b>1: Quietude (Sp)</b> <i>forced quiet</i><sup>UM</sup> 3/day, <i>silence </i>2/day, or <i>hold person </i>1/day<br /><b>2: Strike the Unrestful (Su)</b> As a free action, you can grant the <i>ghost touch </i>weapon special ability to a weapon that you hold. If that weapon is not magical, it is considered magical while under the effect of this ability. This ability affects only weapons held in your hand; if you drop the weapon or give it away, the effect ends on that weapon. You can affect a weapon in this way a number of rounds each day equal to 1 + 1 for every 4 Hit Dice you possess (maximum 6 rounds). These rounds don't need to be consecutive.<br /><b>3: Ally from the Tomb (Sp)</b> Once per day as a standard action, you can summon a pair of vanth psychopomps (<i>Pathfinder RPG Bestiary 4</i> 221) and gain telepathy with them to a range of 100 feet. The vanths follow your commands perfectly for 1 minute for every Hit Die you possess before vanishing back to their home in the Boneyard. The vanths don't follow commands that would cause them to aid or permit the existence of undead, and they could attack you if the command is particularly egregious.</p><h3 class=\"framing\"><img src=\"http://www.aonprd.com/images/PathfinderSocietySymbol.gif\" style=\"margin:3px 3px 0px 3px\" title=\"PFS Legal\" /> Sentinel</h3><p><b>Source </b><a class=\"external-link\" href=\"http://paizo.com/products/btpy94wj?Pathfinder-Campaign-Setting-Inner-Sea-Gods-Hardcover\" target=\"_blank\"><i>Inner Sea Gods pg. 116</i></a><br /><b>1: Undead Slayer (Sp)</b> <i>hide from undead</i> 3/day, <i>defending bone </i>2/day, or <i>halt undead </i>1/day<br /><b>2: Disrupting Strike (Su)</b> Three times per day, you can channel disruptive energy through your weapon against an undead creature. You must declare your use of this ability before you roll your attack. If your attack hits an undead creature, you deal an extra 1d6 points of damage plus 1d6 points of damage for every 4 Hit Dice you possess (maximum 6d6). If your attack misses or your target was not an undead creature, the use of the ability is wasted.<br /><b>3: Tethered to the Material (Ex)</b> You cling ferociously to life-you will go to Pharasma's realm when she calls you and no sooner. Once per day, you can send yourself into a determined state that lasts for 1 minute. While in this determined state, you can fall to a number of negative hit points equal to 10 + your Constitution score before you die. If you drop to negative hit points while in this determined state, you can continue to act normally, and do not bleed each round due to taking actions. If your determined state ends while you still have a number of negative hit points equal to or greater than your Constitution score, you die instantly. If your determined state ends while you still have negative hit points, but the number of negative hit points is not equal to or greater than your Constitution score, you fall unconscious and gain the dying condition as normal.</p><h2 class=\"title\">For Followers of Pharasma</h2><p></p><h3 class=\"framing\">Archetypes</h3><p><a href=\"ArchetypeDisplay.aspx?FixedName=Inquisitor Exorcist\">Exorcist (Inquisitor)</a>, <a href=\"ArchetypeDisplay.aspx?FixedName=Spiritualist Fated Guide\">Fated Guide (Spiritualist)</a>, <a href=\"ArchetypeDisplay.aspx?FixedName=Oracle Seer\">Seer (Oracle)</a>, <a href=\"ArchetypeDisplay.aspx?FixedName=Cleric Stoic Caregiver\">Stoic Caregiver (Cleric)</a></p><h3 class=\"framing\">Feats</h3><p><a href=\"FeatDisplay.aspx?ItemName=Eerie Sense\">Eerie Sense</a>, <a href=\"FeatDisplay.aspx?ItemName=Fateful Channel\">Fateful Channel</a>, <a href=\"FeatDisplay.aspx?ItemName=Messenger of Fate\">Messenger of Fate</a></p><h3 class=\"framing\">Magic Items - Altars</h3><p><a href=\"MagicAltarsDisplay.aspx?ItemName=Altar of Pharasma\">Altar of Pharasma</a></p><h3 class=\"framing\">Magic Items - Armor</h3><p><a href=\"MagicArmorDisplay.aspx?ItemName=Gravewatcher Chainmail\">Gravewatcher Chainmail</a></p><h3 class=\"framing\">Magic Items - Rings</h3><p><a href=\"MagicRingsDisplay.aspx?FinalName=Ghost Battling Ring\">Ghost Battling Ring</a>, <a href=\"MagicRingsDisplay.aspx?FinalName=Ring of the Faithful Dead\">Ring of the Faithful Dead</a></p><h3 class=\"framing\">Magic Items - Sets</h3><p><a href=\"MagicSets.aspx?ItemName=Pharasma's Command\">Pharasma's Command</a></p><h3 class=\"framing\">Magic Items - Weapons</h3><p><a href=\"MagicWeaponsDisplay.aspx?ItemName=Fate Blade\">Fate Blade</a>, <a href=\"MagicWeaponsDisplay.aspx?ItemName=Lady's Spiral\">Lady's Spiral</a>, <a href=\"MagicWeaponsDisplay.aspx?ItemName=Nightpiercer\">Nightpiercer</a></p><h3 class=\"framing\">Magic Items - Wondrous Items</h3><p><a href=\"MagicWondrousDisplay.aspx?FinalName=Crystal BallDetect Thoughts\">Crystal Ball (Detect Thoughts)</a>, <a href=\"MagicWondrousDisplay.aspx?FinalName=Fate's Shears\">Fate's Shears</a>, <a href=\"MagicWondrousDisplay.aspx?FinalName=Icon of the Midwife\">Icon of the Midwife</a>, <a href=\"MagicWondrousDisplay.aspx?FinalName=Lady's Mercy\">Lady's Mercy</a>, <a href=\"MagicWondrousDisplay.aspx?FinalName=Crystal BallNormal\">Crystal Ball (Normal)</a>, <a href=\"MagicWondrousDisplay.aspx?FinalName=Crystal BallSee Invisibility\">Crystal Ball (See Invisibility)</a>, <a href=\"MagicWondrousDisplay.aspx?FinalName=Stone of Tomb Warding\">Stone of Tomb Warding</a>, <a href=\"MagicWondrousDisplay.aspx?FinalName=Crystal BallTelepathy\">Crystal Ball (Telepathy)</a>, <a href=\"MagicWondrousDisplay.aspx?FinalName=Crystal BallTrue Seeing\">Crystal Ball (True Seeing)</a></p><h3 class=\"framing\">Monsters</h3><p><a href=\"MonsterDisplay.aspx?ItemName=Ahmuuth\">Ahmuuth</a>, <a href=\"MonsterDisplay.aspx?ItemName=Steward of the Skein\">Steward of the Skein (Herald)</a></p><h3 class=\"framing\">Prestige Classes</h3><p><a href=\"PrestigeClassesDisplay.aspx?ItemName=Mortal Usher\">Mortal Usher</a></p><h3 class=\"framing\">Spells</h3><p><a href=\"SpellDisplay.aspx?ItemName=Defending Bone\">Defending Bone</a>, <a href=\"SpellDisplay.aspx?ItemName=Early Judgment\">Early Judgment</a>, <a href=\"SpellDisplay.aspx?ItemName=Funereal Weapon\">Funereal Weapon</a>, <a href=\"SpellDisplay.aspx?ItemName=Necrostasis\">Necrostasis</a>, <a href=\"SpellDisplay.aspx?ItemName=Preserve\">Preserve</a>, <a href=\"SpellDisplay.aspx?ItemName=Smite Abomination\">Smite Abomination</a>, <a href=\"SpellDisplay.aspx?ItemName=Spiral Ascent\">Spiral Ascent</a>, <a href=\"SpellDisplay.aspx?ItemName=Spiral Descent\">Spiral Descent</a></p><h3 class=\"framing\">Traits</h3><p><a href=\"TraitDisplay.aspx?ItemName=Corpse Hunter\">Corpse Hunter</a>, <a href=\"TraitDisplay.aspx?ItemName=Spirit Guide\">Spirit Guide</a>, <a href=\"TraitDisplay.aspx?ItemName=Stabilizing Touch\">Stabilizing Touch</a>, <a href=\"TraitDisplay.aspx?ItemName=Undead Slayer (Pharasma)\">Undead Slayer (Pharasma)</a></p><h2 class=\"title\">Unique Spell Rules</h2><img src=\"http://www.aonprd.com/images/PathfinderSocietySymbol.gif\" style=\"margin:3px 3px 0px 3px\" title=\"PFS Legal\" /> <b>Source </b><a class=\"external-link\" href=\"http://paizo.com/products/btpy94wj?Pathfinder-Campaign-Setting-Inner-Sea-Gods-Hardcover\" target=\"_blank\"><i>Inner Sea Gods pg. 123</i></a><br /><p></p><h3 class=\"framing\">Adept</h3><p><i><a href=\"SpellDisplay.aspx?ItemName=Augury\">Augury</a></i> can be prepared as a 2nd-level spell<br /><i><a href=\"SpellDisplay.aspx?ItemName=Death Knell\">Death Knell</a></i> can be prepared as a 2nd-level spell<br /><i><a href=\"SpellDisplay.aspx?ItemName=Speak with Dead\">Speak with Dead</a></i> can be prepared as a 3rd-level spell<br /></p><h3 class=\"framing\">Bard</h3><p><i><a href=\"SpellDisplay.aspx?ItemName=Augury\">Augury</a></i> can be prepared as a 2nd-level spell<br /><i><a href=\"SpellDisplay.aspx?ItemName=Death Knell\">Death Knell</a></i> can be prepared as a 2nd-level spell<br /><i><a href=\"SpellDisplay.aspx?ItemName=Speak with Dead\">Speak with Dead</a></i> can be prepared as a 3rd-level spell<br /></p><h3 class=\"framing\">Cleric/Warpriest</h3><p><i><a href=\"SpellDisplay.aspx?ItemName=False Life\">False Life</a></i> can be prepared as a 2nd-level spell<br /><i><a href=\"SpellDisplay.aspx?ItemName=Clairaudience/Clairvoyance\">Clairaudience/Clairvoyance</a></i> can be prepared as a 3rd-level spell<br /><i><a href=\"SpellDisplay.aspx?ItemName=Moment of Prescience\">Moment of Prescience</a></i> can be prepared as a 8th-level spell<br /></p><h3 class=\"framing\">Inquisitor</h3><p><i><a href=\"SpellDisplay.aspx?ItemName=Augury\">Augury</a></i> can be prepared as a 2nd-level spell<br /><i><a href=\"SpellDisplay.aspx?ItemName=False Life\">False Life</a></i> can be prepared as a 2nd-level spell<br /><i><a href=\"SpellDisplay.aspx?ItemName=Clairaudience/Clairvoyance\">Clairaudience/Clairvoyance</a></i> can be prepared as a 3rd-level spell<br /><i><a href=\"SpellDisplay.aspx?ItemName=Moment of Prescience\">Moment of Prescience</a></i> can be prepared as a 6th-level spell<br /></p><h3 class=\"framing\">Oracle</h3><p><i><a href=\"SpellDisplay.aspx?ItemName=False Life\">False Life</a></i> can be prepared as a 2nd-level spell<br /><i><a href=\"SpellDisplay.aspx?ItemName=Clairaudience/Clairvoyance\">Clairaudience/Clairvoyance</a></i> can be prepared as a 3rd-level spell<br /><i><a href=\"SpellDisplay.aspx?ItemName=Moment of Prescience\">Moment of Prescience</a></i> can be prepared as a 8th-level spell<br /></p><h3 class=\"framing\">Ranger</h3><p><i><a href=\"SpellDisplay.aspx?ItemName=Augury\">Augury</a></i> can be prepared as a 2nd-level spell<br /><i><a href=\"SpellDisplay.aspx?ItemName=Death Knell\">Death Knell</a></i> can be prepared as a 2nd-level spell<br /><i><a href=\"SpellDisplay.aspx?ItemName=Speak with Dead\">Speak with Dead</a></i> can be prepared as a 3rd-level spell<br /></p><h3 class=\"framing\">Sorcerer</h3><p><i><a href=\"SpellDisplay.aspx?ItemName=Augury\">Augury</a></i> can be prepared as a 2nd-level spell<br /><i><a href=\"SpellDisplay.aspx?ItemName=Death Knell\">Death Knell</a></i> can be prepared as a 2nd-level spell<br /><i><a href=\"SpellDisplay.aspx?ItemName=Speak with Dead\">Speak with Dead</a></i> can be prepared as a 3rd-level spell<br /></p><h3 class=\"framing\">Wizard</h3><p><i><a href=\"SpellDisplay.aspx?ItemName=Augury\">Augury</a></i> can be prepared as a 2nd-level spell<br /><i><a href=\"SpellDisplay.aspx?ItemName=Death Knell\">Death Knell</a></i> can be prepared as a 2nd-level spell<br /><i><a href=\"SpellDisplay.aspx?ItemName=Speak with Dead\">Speak with Dead</a></i> can be prepared as a 3rd-level spell<br /></p><h2 class=\"title\">Unique Summon Rules</h2><b>Source </b><a class=\"external-link\" href=\"http://paizo.com/store/games/roleplayingGames/p/pathfinderRPG/paizo/pathfinderAdventurePath/carrionCrown/v5748btpy8j5s\" target=\"_blank\"><i>Pathfinder #44: Trial of the Beast pg. 69</i></a><br /><img src=\"http://www.aonprd.com/images/PathfinderSocietySymbol.gif\" style=\"margin:3px 3px 0px 3px\" title=\"PFS Legal\" /> <a href=\"SpellDisplay.aspx?ItemName=Summon Monster 3\"><b>Summon Monster III</b></a>: <a href=\"MonsterDisplay.aspx?ItemName=Nosoi\">Nosoi</a><br /><img src=\"http://www.aonprd.com/images/PathfinderSocietySymbol.gif\" style=\"margin:3px 3px 0px 3px\" title=\"PFS Legal\" /> <a href=\"SpellDisplay.aspx?ItemName=Summon Monster 6\"><b>Summon Monster VI</b></a>: <a href=\"MonsterDisplay.aspx?ItemName=Vanth\">Vanth</a><br /><img src=\"http://www.aonprd.com/images/PathfinderSocietySymbol.gif\" style=\"margin:3px 3px 0px 3px\" title=\"PFS Legal\" /> <a href=\"SpellDisplay.aspx?ItemName=Summon Monster 1\"><b>Summon Monster I</b></a>: <a href=\"MonsterDisplay.aspx?ItemName=Eagle\">Whippoorwill</a> (uses eagle statistics)<br /><img src=\"http://www.aonprd.com/images/PathfinderSocietySymbol.gif\" style=\"margin:3px 3px 0px 3px\" title=\"PFS Legal\" /> <a href=\"SpellDisplay.aspx?ItemName=Summon Nature's Ally 1\"><b>Summon Nature's Ally I</b></a>: <a href=\"MonsterDisplay.aspx?ItemName=Eagle\">Whippoorwill</a> (uses eagle statistics)<br /><h2 class=\"title\">Other Rules</h2><b>Source </b><a class=\"external-link\" href=\"http://paizo.com/products/btpy94wj?Pathfinder-Campaign-Setting-Inner-Sea-Gods-Hardcover\" target=\"_blank\"><i>Inner Sea Gods pg. 123</i></a><br />Since Pharasma despises undead, Pharasmin clerics with the Death domain replace the <i>animate dead </i>domain spell with <i>speak with dead</i>, replace <i>create undead </i>with <i>antilife shell</i>, and replace <i>create greater undead </i>with <i>symbol of death</i>. Clerics with the Souls subdomain (<i>Advanced Player's Guide </i>96) replace the <i>animate dead </i>domain spell with <i>speak with dead</i>.<br /><br /><p></p><div style=\"position:relative;left:0%;border:2px ridge #434343;width:100%;height:100%\"><div class=\"wiki-content-full\"><iframe style=\"overflow-y:hidden;width:100%;height:450px\" src=\"https://pathfinderwiki.com/wiki/Pharasma\"> </iframe></div>\n </div>",
  "flags": {
    "monks-enhanced-journal": {
      "type": "journal"
    }
  },
  "_id": "p83KcCCT324NFkX7",
  "pages": [],
  "_key": "!journal!p83KcCCT324NFkX7"
}