{
  "name": "Ptah",
  "content": "<p></p><h1 class=\"title\"><img src=\"http://www.aonprd.com/images/PathfinderSocietySymbol.gif\" style=\"margin:3px 3px 0px 3px\" title=\"PFS Legal\" /> Ptah</h1><h2><b>Lord of Eternity</b></h2><b>Source</b> <a class=\"external-link\" href=\"http://paizo.com/products/btpy94vv?Pathfinder-Adventure-Path-80-Empty-Graves\" target=\"_blank\"><i>Pathfinder #80: Empty Graves pg. 65</i></a><br /><b>Pathfinder Wiki</b> <a href=\"http://www.pathfinderwiki.com/wiki/Ptah\">Ptah</a><p></p><h3 class=\"framing\">Details</h3><p><b>Alignment</b> N<br /><b>Pantheon</b> Deities of Ancient Osirion<br /><b>Areas of Concern</b> Architecture, craftsmanship, creation, metalworking<br /><b>Domains</b> <a href=\"DomainDisplay.aspx?ItemName=Artifice\">Artifice</a>, <a href=\"DomainDisplay.aspx?ItemName=Earth\">Earth</a>, <a href=\"DomainDisplay.aspx?ItemName=Fire\">Fire</a>, <a href=\"DomainDisplay.aspx?ItemName=Knowledge\">Knowledge</a>, <a href=\"DomainDisplay.aspx?ItemName=Travel\">Travel</a><br /><b>Subdomains</b> <a href=\"DomainDisplay.aspx?ItemName=Fire\">Ash</a>, <a href=\"DomainDisplay.aspx?ItemName=Artifice\">Construct</a>, <a href=\"DomainDisplay.aspx?ItemName=Earth\">Metal</a>, <a href=\"DomainDisplay.aspx?ItemName=Fire\">Smoke</a>, <a href=\"DomainDisplay.aspx?ItemName=Knowledge\">Thought</a>, <a href=\"DomainDisplay.aspx?ItemName=Travel\">Trade</a><br /><i>* Requires the <u><a href=\"TraitDisplay.aspx?ItemName=Acolyte%20of%20Apocrypha\">Acolyte of Apocrypha</a></u> trait.</i><br /><b>Favored Weapon</b> Quarterstaff<br /><b>Symbol</b> Staff composed of the ankh, djed, and was<br /><b>Sacred Animal(s)</b> Bull<br /><br /><br /></p><div style=\"position:relative;left:0%;border:2px ridge #434343;width:100%;height:100%\"><div class=\"wiki-content-full\"><iframe style=\"overflow-y:hidden;width:100%;height:450px\" src=\"https://pathfinderwiki.com/wiki/Ptah\"> </iframe></div>\n </div>",
  "flags": {
    "monks-enhanced-journal": {
      "type": "journal"
    }
  },
  "_id": "ysiW9pmFWlXkM391",
  "pages": [],
  "_key": "!journal!ysiW9pmFWlXkM391"
}