{
  "name": "Ragadahn",
  "content": "<p></p><h1 class=\"title\"><img src=\"http://www.aonprd.com/images/PathfinderSocietySymbol.gif\" style=\"margin:3px 3px 0px 3px\" title=\"PFS Legal\" /> Ragadahn</h1><h2><b>The Water Lord</b></h2><b>Source</b> <a class=\"external-link\" href=\"http://paizo.com/products/btpy9op9?Pathfinder-Campaign-Setting-The-First-World-Realm-of-the-Fey\" target=\"_blank\"><i>The First World, Realm of the Fey pg. 32</i></a><br /><b>Pathfinder Wiki</b> <a href=\"http://www.pathfinderwiki.com/wiki/Ragadahn\">Ragadahn</a><p></p><h3 class=\"framing\">Details</h3><p><b>Alignment</b> CE<br /><b>Pantheon</b> Eldest<br /><b>Areas of Concern</b> Linnorms, oceans, spirals<br /><b>Domains</b> <a href=\"DomainDisplay.aspx?ItemName=Chaos\">Chaos</a>, <a href=\"DomainDisplay.aspx?ItemName=Evil\">Evil</a>, <a href=\"DomainDisplay.aspx?ItemName=Scalykind\">Scalykind</a>, <a href=\"DomainDisplay.aspx?ItemName=Water\">Water</a><br /><b>Subdomains</b> <a href=\"DomainDisplay.aspx?ItemName=Repose\">Ancestors</a>, <a href=\"DomainDisplay.aspx?ItemName=Scalykind\">Dragon</a>, <a href=\"DomainDisplay.aspx?ItemName=Water\">Oceans</a>, <a href=\"DomainDisplay.aspx?ItemName=Scalykind\">Venom</a><br /><i>* Requires the <u><a href=\"TraitDisplay.aspx?ItemName=Acolyte%20of%20Apocrypha\">Acolyte of Apocrypha</a></u> trait.</i><br /><b>Favored Weapon</b> Whip<br /><b>Symbol</b> Blue ouroboros<br /><b>Sacred Animal(s)</b> Sea snake<br /><b>Sacred Color(s)</b> Blue<br /></p><h3 class=\"framing\">Obedience</h3><p>Use the tooth of an aquatic animal to scratch a spiral into your skin, while letting a drop of your blood diffuse into a body of water or fall into a bowl of clear water. You gain a +4 sacred bonus on saving throws against the spells, spell-like abilities, and supernatural abilities of creatures with the aquatic or water subtype.</p><h2 class=\"title\">Boons - <a href=\"FeatDisplay.aspx?ItemName=Fey Obedience\">Fey Obedience</a></h2><p></p><h3 class=\"framing\"><img src=\"http://www.aonprd.com/images/PathfinderSocietySymbol.gif\" style=\"margin:3px 3px 0px 3px\" title=\"PFS Legal\" /> Feysworn</h3><p><b>Source </b><a class=\"external-link\" href=\"http://paizo.com/products/btpy9op9?Pathfinder-Campaign-Setting-The-First-World-Realm-of-the-Fey\" target=\"_blank\"><i>The First World, Realm of the Fey pg. 32</i></a><br /><b>1: Water Mastery (Sp)</b> <i>marid's mastery<sup>ARG</sup></i> 3/day, <i>aboleth's lung<sup>ARG</sup></i> 2/day, or <i>hydraulic torrent<sup>APG</sup></i> 1/day<br /><b>2: At Home in Water (Sp)</b> You gain a swim speed of 30 feet. If you already have a swim speed, increase it by 10 feet.<br /><b>3: Wear the Sea (Sp)</b> You can cast <i>seamantle<sup>APG</sup></i> once per day.</p><h2 class=\"title\">For Followers of Ragadahn</h2><p></p><h3 class=\"framing\">Archetypes</h3><p><a href=\"ArchetypeDisplay.aspx?FixedName=Barbarian Deepwater Rager\">Deepwater Rager (Barbarian)</a>, <a href=\"ArchetypeDisplay.aspx?FixedName=Skald Serpent Herald\">Serpent Herald (Skald)</a></p><h3 class=\"framing\">Feats</h3><p><a href=\"FeatDisplay.aspx?ItemName=Fey Friend\">Fey Friend</a></p><h3 class=\"framing\">Traits</h3><p><a href=\"TraitDisplay.aspx?ItemName=Shaper of Reality\">Shaper of Reality</a></p><h2 class=\"title\">Unique Spell Rules</h2><img src=\"http://www.aonprd.com/images/PathfinderSocietySymbol.gif\" style=\"margin:3px 3px 0px 3px\" title=\"PFS Legal\" /> <b>Source </b><a class=\"external-link\" href=\"http://paizo.com/products/btpy9nfl?Pathfinder-Player-Companion-Legacy-of-Dragons\" target=\"_blank\"><i>Legacy of Dragons pg. 31</i></a><br /><p></p><h3 class=\"framing\">Cleric/Warpriest</h3><p><i><a href=\"SpellDisplay.aspx?ItemName=Tail Strike\">Tail Strike</a></i> can be prepared as a 4th-level spell<br /></p><h3 class=\"framing\">Inquisitor</h3><p><i><a href=\"SpellDisplay.aspx?ItemName=Tail Strike\">Tail Strike</a></i> can be prepared as a 4th-level spell<br /></p><h3 class=\"framing\">Oracle</h3><p><i><a href=\"SpellDisplay.aspx?ItemName=Tail Strike\">Tail Strike</a></i> can be prepared as a 4th-level spell<br /><br /></p><div style=\"position:relative;left:0%;border:2px ridge #434343;width:100%;height:100%\"><div class=\"wiki-content-full\"><iframe style=\"overflow-y:hidden;width:100%;height:450px\" src=\"https://pathfinderwiki.com/wiki/Ragadahn\"> </iframe></div>\n </div>",
  "flags": {
    "monks-enhanced-journal": {
      "type": "journal"
    }
  },
  "_id": "3izv3mAuc4ssa8cb",
  "pages": [],
  "_key": "!journal!3izv3mAuc4ssa8cb"
}