{
  "name": "Roqorolos",
  "content": "<p></p><h1 class=\"title\">Roqorolos</h1><h2><b>Prince of the Wracked</b></h2><b>Source</b> <a class=\"external-link\" href=\"http://paizo.com/products/btpy94wj?Pathfinder-Campaign-Setting-Inner-Sea-Gods-Hardcover\" target=\"_blank\"><i>Inner Sea Gods pg. 318</i></a><br /><b>Pathfinder Wiki</b> <a href=\"http://www.pathfinderwiki.com/wiki/Roqorolos\">Roqorolos</a><p></p><h3 class=\"framing\">Details</h3><p><b>Alignment</b> NE<br /><b>Pantheon</b> Daemon Harbingers<br /><b>Areas of Concern</b> Castaways, fouled water, oceans<br /><b>Domains</b> <a href=\"DomainDisplay.aspx?ItemName=Evil\">Evil</a>, <a href=\"DomainDisplay.aspx?ItemName=Travel\">Travel</a>, <a href=\"DomainDisplay.aspx?ItemName=Water\">Water</a>, <a href=\"DomainDisplay.aspx?ItemName=Weather\">Weather</a><br /><b>Subdomains</b> <a href=\"DomainDisplay.aspx?ItemName=Evil\">Daemon</a>, <a href=\"DomainDisplay.aspx?ItemName=Void\">Isolation</a>, <a href=\"DomainDisplay.aspx?ItemName=Water\">Oceans</a>, <a href=\"DomainDisplay.aspx?ItemName=Weather\">Storms</a><br /><i>* Requires the <u><a href=\"TraitDisplay.aspx?ItemName=Acolyte%20of%20Apocrypha\">Acolyte of Apocrypha</a></u> trait.</i><br /><b>Favored Weapon</b> Net<br /><b>Symbol</b> Sinking ship<br /><b>Sacred Animal(s)</b> Shark<br /><b>Sacred Color(s)</b> Blue, yellow<br /></p><h3 class=\"framing\">Obedience</h3><p>Consume at least a pint of brackish water. Gain a +4 profane bonus on saving throws against waterbased effects and effects that cause suffocation or drowning.</p><h2 class=\"title\">Boons - Daemon Harbingers</h2><b>Source </b><a class=\"external-link\" href=\"http://paizo.com/products/btpy9tok\" target=\"_blank\"><i>Book of the Damned pg. 115</i></a><br />Abaddon's unique daemons take on a host of titles, customized to their methods and vanity. These harbingers enjoy sweeping influence among daemons as favored advisors, and they work to cultivate their own cults on Abaddon and beyond.<br /><br /> Daemon harbingers are neutral evil demigods that range in power from CR 21 to CR 25. The boons they grant are less complex than those granted by the Horsemen themselves, manifesting as spell-like abilities usable twice per day each.<br /><br /><b>1: </b> <i>slipstream</i><br /><b>2: </b> <i>ride the waves</i><br /><b>3: </b> <i>fluid form</i><br /><br /><p></p><div style=\"position:relative;left:0%;border:2px ridge #434343;width:100%;height:100%\"><div class=\"wiki-content-full\"><iframe style=\"overflow-y:hidden;width:100%;height:450px\" src=\"https://pathfinderwiki.com/wiki/Roqorolos\"> </iframe></div>\n </div>",
  "flags": {
    "monks-enhanced-journal": {
      "type": "journal"
    }
  },
  "_id": "fW9sVoITbb7I3buc",
  "pages": [],
  "_key": "!journal!fW9sVoITbb7I3buc"
}