{
  "name": "Saloc",
  "content": "<p></p><h1 class=\"title\">Saloc</h1><h2><b>The Minder of Immortals</b></h2><b>Source</b> <a class=\"external-link\" href=\"https://paizo.com/products/btq01x4d?Pathfinder-Campaign-Setting-Concordance-of-Rivals\" target=\"_blank\"><i>Concordance of Rivals pg. 16</i></a><br /><b>Pathfinder Wiki</b> <a href=\"http://www.pathfinderwiki.com/wiki/Saloc\">Saloc</a><p></p><h3 class=\"framing\">Details</h3><p><b>Alignment</b> N<br /><b>Pantheon</b> Psychopomp Usher<br /><b>Areas of Concern</b> Agency, bronze, and education<br /><b>Domains</b> <a href=\"DomainDisplay.aspx?ItemName=Knowledge\">Knowledge</a>, <a href=\"DomainDisplay.aspx?ItemName=Liberation\">Liberation</a>, <a href=\"DomainDisplay.aspx?ItemName=Repose\">Repose</a>, <a href=\"DomainDisplay.aspx?ItemName=Strength\">Strength</a><br /><b>Subdomains</b> N/A<br /><i>* Requires the <u><a href=\"TraitDisplay.aspx?ItemName=Acolyte%20of%20Apocrypha\">Acolyte of Apocrypha</a></u> trait.</i><br /><b>Favored Weapon</b> Guisarme<br /><b>Symbol</b> Equilateral triangle set inside a circle<br /></p><h3 class=\"framing\">Obedience</h3><p>Spend at least 1 hour observing a crowded public place and help the first person you see fail or err. This may be mundane, such as assisting a shopkeep in her accounting, or dire, as in helping a failed pickpocket escape the town guard. Gain 5 temporary ranks in a skill you do not currently have any ranks in. These bonus skill ranks vanish after 24 hours.</p><h2 class=\"title\">Boons - <a href=\"FeatDisplay.aspx?ItemName=Monitor Obedience\">Monitor Obedience</a></h2><p></p><h3 class=\"framing\">None</h3><p><b>Source </b><a class=\"external-link\" href=\"https://paizo.com/products/btq01x4d?Pathfinder-Campaign-Setting-Concordance-of-Rivals\" target=\"_blank\"><i>Concordance of Rivals pg. 16</i></a><br /><b>1: Disciplined Educator (Sp)</b> <a href=\"SpellDisplay.aspx?ItemName=forbid action\" style=\"text-decoration:underline\"><i>forbid action</i></a> 3/day, <a href=\"SpellDisplay.aspx?ItemName=bestow insight\" style=\"text-decoration:underline\"><i>bestow insight</i></a> 2/day, or <a href=\"SpellDisplay.aspx?ItemName=remove curse\" style=\"text-decoration:underline\"><i>remove curse</i></a> 1/day<br /><b>2: Elder's Insight (Su)</b> While preparing your spells, you can treat yourself as one age category older than your true age for the next 24 hours, temporarily gaining all the ability score bonuses and penalties associated with your emulated age.<br /><b>3: Cosmic Appeal (Sp)</b> You can cast <a href=\"SpellDisplay.aspx?ItemName=raise dead\" style=\"text-decoration:underline\"><i>raise dead</i></a> once per day. You cannot use this ability on the same creature more than once.</p><h2 class=\"title\">For Followers of Saloc</h2><p></p><h3 class=\"framing\">Prestige Classes</h3><p><a href=\"PrestigeClassesDisplay.aspx?ItemName=Mortal Usher\">Mortal Usher</a><br /><br /></p><div style=\"position:relative;left:0%;border:2px ridge #434343;width:100%;height:100%\"><div class=\"wiki-content-full\"><iframe style=\"overflow-y:hidden;width:100%;height:450px\" src=\"https://pathfinderwiki.com/wiki/Saloc\"> </iframe></div>\n </div>",
  "flags": {
    "monks-enhanced-journal": {
      "type": "journal"
    }
  },
  "_id": "V7Ke5wtDCdVOYZE4",
  "pages": [],
  "_key": "!journal!V7Ke5wtDCdVOYZE4"
}