{
  "name": "Scarmiglione",
  "content": "<p></p><h1 class=\"title\">Scarmiglione</h1><h2><b>The Pale Promise</b></h2><b>Source</b> <a class=\"external-link\" href=\"http://paizo.com/products/btpy94wj?Pathfinder-Campaign-Setting-Inner-Sea-Gods-Hardcover\" target=\"_blank\"><i>Inner Sea Gods pg. 328</i></a><br /><b>Pathfinder Wiki</b> <a href=\"http://www.pathfinderwiki.com/wiki/Scarmiglione\">Scarmiglione</a><p></p><h3 class=\"framing\">Details</h3><p><b>Alignment</b> LE<br /><b>Pantheon</b> Malebranche<br /><b>Areas of Concern</b> Deceit, poison, temptation<br /><b>Domains</b> <a href=\"DomainDisplay.aspx?ItemName=Charm\">Charm</a>, <a href=\"DomainDisplay.aspx?ItemName=Evil\">Evil</a>, <a href=\"DomainDisplay.aspx?ItemName=Law\">Law</a>, <a href=\"DomainDisplay.aspx?ItemName=Water\">Water</a><br /><b>Subdomains</b> <a href=\"DomainDisplay.aspx?ItemName=Trickery\">Deception</a>, <a href=\"DomainDisplay.aspx?ItemName=Evil\">Devil (Evil)</a>, <a href=\"DomainDisplay.aspx?ItemName=Law\">Devil (Law)</a>, <a href=\"DomainDisplay.aspx?ItemName=Charm\">Lust</a>, <a href=\"DomainDisplay.aspx?ItemName=Scalykind\">Venom</a><br /><i>* Requires the <u><a href=\"TraitDisplay.aspx?ItemName=Acolyte%20of%20Apocrypha\">Acolyte of Apocrypha</a></u> trait.</i><br /><b>Favored Weapon</b> Hand crossbow<br /><b>Symbol</b> Poisoned hand crossbow<br /><b>Sacred Animal(s)</b> Cobra<br /><b>Sacred Color(s)</b> White, yellow<br /></p><h3 class=\"framing\">Obedience</h3><p>Weave a fabric of lies glorifying yourself and your malebranche liege, but never name him, instead hinting at glorious truths your faith reveals. Gain a +4 profane bonus on saving throws against language-dependent effects.</p><h2 class=\"title\">Boons - Malebranche</h2><b>Source </b><a class=\"external-link\" href=\"http://paizo.com/products/btpy9tok\" target=\"_blank\"><i>Book of the Damned pg. 123</i></a><br />Malebranche are horned devils transformed so as to conquer a mortal world in Hell's name. Many malebranche exist in Hell's ranks, and the 12 detailed below are merely the best known.<br /><br /> Malebranche occupy a tier of power just below infernal dukes. All malebranche are lawful evil and range in power from CR 21 to CR 25. The boons they grant are less complex than those granted by archdevils, manifesting as spell-like abilities usable twice per day each.<br /><br /><b>1: </b> <i>detect thoughts</i><br /><b>2: </b> <i>poison</i><br /><b>3: </b> <i>veil</i><h2 class=\"title\">For Followers of Scarmiglione</h2><p></p><h3 class=\"framing\">Feats</h3><p><a href=\"FeatDisplay.aspx?ItemName=Hellish Shackles\">Hellish Shackles</a><br /><br /></p><div style=\"position:relative;left:0%;border:2px ridge #434343;width:100%;height:100%\"><div class=\"wiki-content-full\"><iframe style=\"overflow-y:hidden;width:100%;height:450px\" src=\"https://pathfinderwiki.com/wiki/Scarmiglione\"> </iframe></div>\n </div>",
  "flags": {
    "monks-enhanced-journal": {
      "type": "journal"
    }
  },
  "_id": "NgpA9bRqa153cLJ0",
  "pages": [],
  "_key": "!journal!NgpA9bRqa153cLJ0"
}