{
  "name": "Shelyn",
  "content": "<p></p><h1 class=\"title\">Shelyn (pre-Earthfall)</h1><h2><b>Song of the Prism</b></h2><b>Source</b> <a class=\"external-link\" href=\"http://paizo.com/products/btpy9uk2?Pathfinder-Adventure-Path-123-The-Flooded-Cathedral\" target=\"_blank\"><i>Pathfinder #123: The Flooded Cathedral pg. 74</i></a><br /><b>Pathfinder Wiki</b> <a href=\"http://www.pathfinderwiki.com/wiki/Shelyn (pre-Earthfall)\">Shelyn (pre-Earthfall)</a><p></p><h3 class=\"framing\">Details</h3><p><b>Alignment</b> NG<br /><b>Pantheon</b> Azlanti Pantheon<br /><b>Areas of Concern</b> Art, beauty, love, and music<br /><b>Domains</b> <a href=\"DomainDisplay.aspx?ItemName=Air\">Air</a>, <a href=\"DomainDisplay.aspx?ItemName=Charm\">Charm</a>, <a href=\"DomainDisplay.aspx?ItemName=Good\">Good</a>, <a href=\"DomainDisplay.aspx?ItemName=Luck\">Luck</a>, <a href=\"DomainDisplay.aspx?ItemName=Protection\">Protection</a><br /><b>Subdomains</b> <a href=\"DomainDisplay.aspx?ItemName=Good\">Agathion</a>, <a href=\"DomainDisplay.aspx?ItemName=Air\">Cloud</a>, <a href=\"DomainDisplay.aspx?ItemName=Protection\">Defense</a>, <a href=\"DomainDisplay.aspx?ItemName=Luck\">Fate</a>, <a href=\"DomainDisplay.aspx?ItemName=Charm\">Love</a>, <a href=\"DomainDisplay.aspx?ItemName=Protection\">Purity</a><br /><i>* Requires the <u><a href=\"TraitDisplay.aspx?ItemName=Acolyte%20of%20Apocrypha\">Acolyte of Apocrypha</a></u> trait.</i><br /><b>Favored Weapon</b> Dagger<br /><b>Symbol</b> Songbird with a multicolored tail<br /><br /><br /></p><div style=\"position:relative;left:0%;border:2px ridge #434343;width:100%;height:100%\"><div class=\"wiki-content-full\"><iframe style=\"overflow-y:hidden;width:100%;height:450px\" src=\"https://pathfinderwiki.com/wiki/Shelyn\"> </iframe></div>\n </div>",
  "flags": {
    "monks-enhanced-journal": {
      "type": "journal"
    }
  },
  "_id": "SUwDAAdgJYJNxfX4",
  "pages": [],
  "_key": "!journal!SUwDAAdgJYJNxfX4"
}