{
  "name": "Shiggarreb",
  "content": "<p></p><h1 class=\"title\">Shiggarreb</h1><h2><b>The Marauding Maw</b></h2><b>Source</b> <a class=\"external-link\" href=\"http://paizo.com/products/btpy94wj?Pathfinder-Campaign-Setting-Inner-Sea-Gods-Hardcover\" target=\"_blank\"><i>Inner Sea Gods pg. 328</i></a><br /><b>Pathfinder Wiki</b> <a href=\"http://www.pathfinderwiki.com/wiki/Shiggarreb\">Shiggarreb</a><p></p><h3 class=\"framing\">Details</h3><p><b>Alignment</b> CE<br /><b>Pantheon</b> Qlippoth Lords<br /><b>Areas of Concern</b> Forbidden magic, wartime atrocities<br /><b>Domains</b> <a href=\"DomainDisplay.aspx?ItemName=Chaos\">Chaos</a>, <a href=\"DomainDisplay.aspx?ItemName=Evil\">Evil</a>, <a href=\"DomainDisplay.aspx?ItemName=Magic\">Magic</a>, <a href=\"DomainDisplay.aspx?ItemName=War\">War</a><br /><b>Subdomains</b> <a href=\"DomainDisplay.aspx?ItemName=Magic\">Arcane</a>, <a href=\"DomainDisplay.aspx?ItemName=War\">Blood</a>, <a href=\"DomainDisplay.aspx?ItemName=Evil\">Fear</a>, <a href=\"DomainDisplay.aspx?ItemName=War\">Tactics</a><br /><i>* Requires the <u><a href=\"TraitDisplay.aspx?ItemName=Acolyte%20of%20Apocrypha\">Acolyte of Apocrypha</a></u> trait.</i><br /><b>Favored Weapon</b> Ranseur<br /><b>Symbol</b> Spider shaped rune<br /><b>Sacred Animal(s)</b> None<br /><b>Sacred Color(s)</b> Yellow<br /></p><h3 class=\"framing\">Obedience</h3><p>Study texts on the tactics of war, particularly those involving the use of powerful magic. Gain a +1 profane bonus to your Armor Class.</p><h2 class=\"title\">Boons - Qlippoth Lords</h2><b>Source </b><a class=\"external-link\" href=\"http://paizo.com/products/btpy9tok\" target=\"_blank\"><i>Book of the Damned pg. 129</i></a><br />Qlippoth lords are always chaotic evil and range in power from CR 21 to CR 25. It's quite likely that more powerful creatures akin to demigods in stature may still exist in the deepest parts of the Abyss, but such qlippoth demigods remain theoretical for now, and they do not maintain active cults on mortal worlds. The boons qlippoth lords grant are less complex than those granted by fiendish demigods, manifesting as spell-like abilities usable twice per day each.<br /><br /><b>1: </b> <i>aid</i><br /><b>2: </b> <i>curse terrain</i><br /><b>3: </b> <i>greater heroism</i><br /><br /><p></p><div style=\"position:relative;left:0%;border:2px ridge #434343;width:100%;height:100%\"><div class=\"wiki-content-full\"><iframe style=\"overflow-y:hidden;width:100%;height:450px\" src=\"https://pathfinderwiki.com/wiki/Shiggarreb\"> </iframe></div>\n </div>",
  "flags": {
    "monks-enhanced-journal": {
      "type": "journal"
    }
  },
  "_id": "uooqtHSnLa9dqoEw",
  "pages": [],
  "_key": "!journal!uooqtHSnLa9dqoEw"
}