{
  "name": "Sinashakti",
  "content": "<p></p><h1 class=\"title\"><img src=\"http://www.aonprd.com/images/PathfinderSocietySymbol.gif\" style=\"margin:3px 3px 0px 3px\" title=\"PFS Legal\" /> Sinashakti</h1><h2><b>Immaculate Joy</b></h2><b>Source</b> <a class=\"external-link\" href=\"http://paizo.com/products/btpy94wj?Pathfinder-Campaign-Setting-Inner-Sea-Gods-Hardcover\" target=\"_blank\"><i>Inner Sea Gods pg. 324</i></a><br /><b>Pathfinder Wiki</b> <a href=\"http://www.pathfinderwiki.com/wiki/Sinashakti\">Sinashakti</a><p></p><h3 class=\"framing\">Details</h3><p><b>Alignment</b> CG<br /><b>Pantheon</b> Empyreal Lords<br /><b>Areas of Concern</b> Journeys, joy, messengers<br /><b>Domains</b> <a href=\"DomainDisplay.aspx?ItemName=Chaos\">Chaos</a>, <a href=\"DomainDisplay.aspx?ItemName=Good\">Good</a>, <a href=\"DomainDisplay.aspx?ItemName=Luck\">Luck</a>, <a href=\"DomainDisplay.aspx?ItemName=Travel\">Travel</a><br /><b>Subdomains</b> <a href=\"DomainDisplay.aspx?ItemName=Chaos\">Azata (Chaos)</a>, <a href=\"DomainDisplay.aspx?ItemName=Good\">Azata (Good)</a>, <a href=\"DomainDisplay.aspx?ItemName=Travel\">Exploration</a>, <a href=\"DomainDisplay.aspx?ItemName=Luck\">Fate</a>, <a href=\"DomainDisplay.aspx?ItemName=Good\">Friendship</a><br /><i>* Requires the <u><a href=\"TraitDisplay.aspx?ItemName=Acolyte%20of%20Apocrypha\">Acolyte of Apocrypha</a></u> trait.</i><br /><b>Favored Weapon</b> Shortbow<br /><b>Symbol</b> Emerald trumpet and road<br /><b>Sacred Animal(s)</b> Horse<br /><b>Sacred Color(s)</b> Green, yellow<br /></p><h3 class=\"framing\">Obedience</h3><p>Sit cross-legged at dawn and light a candle before your face. Laugh uproariously until the force of your laughter blows out the candle. When you rise, step out with your right foot first. Gain a +4 sacred bonus on saving throws against spells and effects that would hinder your movement speed.</p><h2 class=\"title\">Boons - <a href=\"FeatDisplay.aspx?ItemName=Celestial Obedience\">Celestial Obedience</a></h2><p></p><h3 class=\"framing\"><img src=\"http://www.aonprd.com/images/PathfinderSocietySymbol.gif\" style=\"margin:3px 3px 0px 3px\" title=\"PFS Legal\" /> Mystery Cultist</h3><p><b>Source </b><a class=\"external-link\" href=\"http://paizo.com/products/btpy8xe9?Pathfinder-Campaign-Setting-Chronicle-of-the-Righteous\" target=\"_blank\"><i>Chronicle of the Righteous pg. 24</i></a><br /><b>1: Joyful Step (Sp)</b> <i>longstrider </i>3/day, <i>forest friend</i><sup>UC</sup> 2/day, or <i>good hope </i>1/day<br /><b>2: Infectious Joy (Su)</b> Your delightful demeanor is so contagious that enemies find it hard to resist your charms. The save DC of your mind-affecting effects increases by 1, or by 2 against intelligent foes of the same race as you.<br /><b>3: Familiar Journey (Sp)</b> You can cast <i>word of recall </i>once per day, except you may target up to six willing creatures within 30 feet to travel with you; these creatures need not be touching you.</p><h2 class=\"title\">For Followers of Sinashakti</h2><p></p><h3 class=\"framing\">Feats</h3><p><a href=\"FeatDisplay.aspx?ItemName=Heroic Interposition\">Heroic Interposition</a></p><h3 class=\"framing\">Traits</h3><p><a href=\"TraitDisplay.aspx?ItemName=Empyreal Focus\">Empyreal Focus</a><br /><br /></p><div style=\"position:relative;left:0%;border:2px ridge #434343;width:100%;height:100%\"><div class=\"wiki-content-full\"><iframe style=\"overflow-y:hidden;width:100%;height:450px\" src=\"https://pathfinderwiki.com/wiki/Sinashakti\"> </iframe></div>\n </div>",
  "flags": {
    "monks-enhanced-journal": {
      "type": "journal"
    }
  },
  "_id": "ghXA2XhqzoO2RRTg",
  "pages": [],
  "_key": "!journal!ghXA2XhqzoO2RRTg"
}