{
  "name": "Sivanah",
  "content": "<p></p><h1 class=\"title\"><img src=\"http://www.aonprd.com/images/PathfinderSocietySymbol.gif\" style=\"margin:3px 3px 0px 3px\" title=\"PFS Legal\" /> Sivanah</h1><h2><b>The Seventh Veil</b></h2><b>Source</b> <a class=\"external-link\" href=\"http://paizo.com/products/btpy9j74?Pathfinder-Campaign-Setting-Inner-Sea-Faiths\" target=\"_blank\"><i>Inner Sea Faiths pg. 83</i></a><br /><b>Pathfinder Wiki</b> <a href=\"http://www.pathfinderwiki.com/wiki/Sivanah\">Sivanah</a><p></p><h3 class=\"framing\">Details</h3><p><b>Alignment</b> N<br /><b>Pantheon</b> Other Deities<br /><b>Other Pantheons</b> Gnomish Deities<br /><b>Areas of Concern</b> Illusions, mystery, reflections<br /><b>Domains</b> <a href=\"DomainDisplay.aspx?ItemName=Knowledge\">Knowledge</a>, <a href=\"DomainDisplay.aspx?ItemName=Madness\">Madness</a>, <a href=\"DomainDisplay.aspx?ItemName=Magic\">Magic</a>, <a href=\"DomainDisplay.aspx?ItemName=Rune\">Rune</a>, <a href=\"DomainDisplay.aspx?ItemName=Trickery\">Trickery</a><br /><b>Subdomains</b> <a href=\"DomainDisplay.aspx?ItemName=Knowledge\">Aeon</a>, <a href=\"DomainDisplay.aspx?ItemName=Trickery\">Deception</a>, <a href=\"DomainDisplay.aspx?ItemName=Trickery\">Innuendo</a>, <a href=\"DomainDisplay.aspx?ItemName=Madness\">Insanity</a>, <a href=\"DomainDisplay.aspx?ItemName=Knowledge\">Memory</a>, <a href=\"DomainDisplay.aspx?ItemName=Chaos\">Protean</a>, <a href=\"DomainDisplay.aspx?ItemName=Magic\">Rites</a>*, <a href=\"DomainDisplay.aspx?ItemName=Knowledge\">Thought</a>, <a href=\"DomainDisplay.aspx?ItemName=Madness\">Truth</a>*, <a href=\"DomainDisplay.aspx?ItemName=Rune\">Wards</a><br /><i>* Requires the <u><a href=\"TraitDisplay.aspx?ItemName=Acolyte%20of%20Apocrypha\">Acolyte of Apocrypha</a></u> trait.</i><br /><b>Favored Weapon</b> Bladed scarf<br /><b>Symbol</b> Veils tied in a circle<br /><b>Sacred Animal(s)</b> Coyote<br /><b>Sacred Color(s)</b> Gray<br /></p><h3 class=\"framing\">Obedience</h3><p>Carry an ordinary scarf or veil and walk through a settlement, making sure you are seen and exchange pleasantries with at least one person. After you reach the settlement's edge, place the scarf or veil over your face so you aren't easily recognizable, and again speak with anyone you encountered before. If your true identity is recognized, you must deny it, providing a false name if necessary. Even if anyone you met sees through your ruse, you gain a +2 sacred or profane bonus on Disguise checks. The type of bonus depends on your alignment-if you're neither good nor evil, you must choose either sacred or profane the first time you perform your obedience, and this choice can't be changed.</p><h3 class=\"framing\">On Golarion</h3><p><b>Centers of Worship</b> Absalom, Nex, Nidal, Numeria, Razmiran<br /><b>Nationality</b> unknown</p><h2 class=\"title\">Boons - <a href=\"FeatDisplay.aspx?ItemName=Deific Obedience\">Deific Obedience</a></h2><p></p><h3 class=\"framing\"><img src=\"http://www.aonprd.com/images/PathfinderSocietySymbol.gif\" style=\"margin:3px 3px 0px 3px\" title=\"PFS Legal\" /> Evangelist</h3><p><b>Source </b><a class=\"external-link\" href=\"http://paizo.com/products/btpy9j74?Pathfinder-Campaign-Setting-Inner-Sea-Faiths\" target=\"_blank\"><i>Inner Sea Faiths pg. 83</i></a><br /><b>1: Masks and Veils (Sp)</b> <i>blurred movement</i><sup>ACG</sup> 3/day, <i>invisibility</i> 2/day, or <i>major image</i> 1/day<br /><b>2: Illusion Expert (Su)</b> Your enemies have a harder time fooling you with illusions. You gain a +4 sacred or profane bonus (of the same type as that provided by your obedience) on Will saves to disbelieve illusions. If you successfully disbelieve an illusion and communicate this fact to others, such viewers gain a +6 bonus (of the same type as above) on their saving throws to disbelieve the illusion.<br /><b>3: Protection of the Veiled Goddess (Sp)</b> You are skilled at misdirecting your opponents while preparing to do them harm. Once per day as a standard action, you can cast mislead. The spell's <i>greater invisibility</i> effect lasts a number of rounds equal to your Hit Dice.</p><h3 class=\"framing\"><img src=\"http://www.aonprd.com/images/PathfinderSocietySymbol.gif\" style=\"margin:3px 3px 0px 3px\" title=\"PFS Legal\" /> Exalted</h3><p><b>Source </b><a class=\"external-link\" href=\"http://paizo.com/products/btpy9j74?Pathfinder-Campaign-Setting-Inner-Sea-Faiths\" target=\"_blank\"><i>Inner Sea Faiths pg. 83</i></a><br /><b>1: Nothing is What It Seems (Sp)</b> <i>color spray</i> 3/day, <i>misdirection</i> 2/day, or <i>hide campsite</i><sup>APG</sup> 1/day<br /><b>2: Shared Mask (Sp)</b> As a standard action, you can alter your own appearance and that of up to four willing creatures within a 30-foot radius as per <i>disguise self</i>. All the creatures disguised appear to be of a single race or creature type; creatures in the group that could not be disguised as that creature type (such as an animal companion in a group of humanoids) cannot be affected by this ability. This effect lasts 10 minutes per Hit Die you possess.<br /><b>3: The Protecting Veil (Su)</b> You can shield an area, and those within it, from both mundane and magical observation. As a full-round action, you can meditate to veil an area with an illusion extending in a 30-foot radius around you. During this round, you can't take any other actions, including free or swift actions. The illusion appears as a general concept you envision and can't be changed once in place. The illusion affects only visual observation and scrying; it doesn't create or disguise smells, sounds, or tactile properties. You may maintain the illusion for up to 1 hour, but if you leave the square you were occupying when you initiated it, the illusion is dispelled. The DC to disbelieve the illusion is equal to 10 + your Hit Dice + your Charisma modifier.</p><h3 class=\"framing\"><img src=\"http://www.aonprd.com/images/PathfinderSocietySymbol.gif\" style=\"margin:3px 3px 0px 3px\" title=\"PFS Legal\" /> Sentinel</h3><p><b>Source </b><a class=\"external-link\" href=\"http://paizo.com/products/btpy9j74?Pathfinder-Campaign-Setting-Inner-Sea-Faiths\" target=\"_blank\"><i>Inner Sea Faiths pg. 83</i></a><br /><b>1: Hard to Pin Down (Sp)</b> <i>disguise weapon</i><sup>ACG</sup> 3/day, <i>blur</i> 2/day, or <i>displacement</i> 1/day<br /><b>2: Killer Illusion (Sp)</b> You can channel illusions through your weapon to terrify and even slay your enemies. Once per day, as a free action when you hit with a melee attack, you can cause images of a creature the target most fears to erupt from your weapon right before its eyes. Resolve this effect before rolling damage for the attack; this functions as <i>phantasmal killer</i>, and the target can attempt a Will saving throw (DC = 14 + your Charisma modifier) to recognize the image as unreal. On a failed save, the phantasm touches the target, which must then succeed at a Fortitude saving throw (against the same DC) or die from fear. Even if the target succeeds at its Fortitude saving throw, it takes 3d6 points of damage as well as the damage from the successful melee attack. Unlike <i>phantasmal killer</i>, this effect cannot be turned upon you if the subject possesses telepathy or is wearing a <i>helm of telepathy</i>.<br /><b>3: Illusive Revenge (Sp)</b> You have learned how to use illusions to torment your enemies even long after battle is over. Once per day, you can cast <i>phantasmal revenge</i> (<i>Pathfinder RPG Advanced Player's Guide</i> 235) as a spell-like ability upon a recently slain creature, which rises as a ghastly image to seek out its killer. This illusive ghost is always veiled, even if it never was so in life. After the target attempts its Will saving throw (DC = 17 + your Charisma modifier), regardless of whether the attempt was successful, the ghost tears off its veil to reveal an image of the killer's own face.</p><h2 class=\"title\">For Followers of Sivanah</h2><p></p><h3 class=\"framing\">Feats</h3><p><a href=\"FeatDisplay.aspx?ItemName=Believable Veils\">Believable Veils</a></p><h3 class=\"framing\">Magic Items - Armor</h3><p><a href=\"MagicArmorDisplay.aspx?ItemName=Veiled Chain\">Veiled Chain</a></p><h3 class=\"framing\">Magic Items - Wondrous Items</h3><p><a href=\"MagicWondrousDisplay.aspx?FinalName=Veil of Veils\">Veil of Veils</a></p><h3 class=\"framing\">Traits</h3><p><a href=\"TraitDisplay.aspx?ItemName=Strip the Veils\">Strip the Veils</a>, <a href=\"TraitDisplay.aspx?ItemName=Veils upon Veils\">Veils upon Veils</a></p><h2 class=\"title\">Unique Spell Rules</h2><img src=\"http://www.aonprd.com/images/PathfinderSocietySymbol.gif\" style=\"margin:3px 3px 0px 3px\" title=\"PFS Legal\" /> <b>Source </b><a class=\"external-link\" href=\"http://paizo.com/products/btpy9j74?Pathfinder-Campaign-Setting-Inner-Sea-Faiths\" target=\"_blank\"><i>Inner Sea Faiths pg. 86</i></a><br /><p></p><h3 class=\"framing\">Cleric/Warpriest</h3><p><i><a href=\"SpellDisplay.aspx?ItemName=Ghost Sound\">Ghost Sound</a></i> can be prepared as a 0-level spell<br /><i><a href=\"SpellDisplay.aspx?ItemName=Silent Image\">Silent Image</a></i> can be prepared as a 1st-level spell<br /><i><a href=\"SpellDisplay.aspx?ItemName=Hypnotic Pattern\">Hypnotic Pattern</a></i> can be prepared as a 2nd-level spell<br /><i><a href=\"SpellDisplay.aspx?ItemName=Veil\">Veil</a></i> can be prepared as a 6th-level spell<br /><br /></p><div style=\"position:relative;left:0%;border:2px ridge #434343;width:100%;height:100%\"><div class=\"wiki-content-full\"><iframe style=\"overflow-y:hidden;width:100%;height:450px\" src=\"https://pathfinderwiki.com/wiki/Sivanah\"> </iframe></div>\n </div>",
  "flags": {
    "monks-enhanced-journal": {
      "type": "journal"
    }
  },
  "_id": "uWLvBFqCvZXjyati",
  "pages": [],
  "_key": "!journal!uWLvBFqCvZXjyati"
}