{
  "name": "Skrymir",
  "content": "<p></p><h1 class=\"title\"><img src=\"http://www.aonprd.com/images/PathfinderSocietySymbol.gif\" style=\"margin:3px 3px 0px 3px\" title=\"PFS Legal\" /> Skrymir</h1><h2><b>The Seeker of Sunsets</b></h2><b>Source</b> <a class=\"external-link\" href=\"http://paizo.com/products/btpy94wj?Pathfinder-Campaign-Setting-Inner-Sea-Gods-Hardcover\" target=\"_blank\"><i>Inner Sea Gods pg. 324</i></a><br /><b>Pathfinder Wiki</b> <a href=\"http://www.pathfinderwiki.com/wiki/Skrymir\">Skrymir</a><p></p><h3 class=\"framing\">Details</h3><p><b>Alignment</b> CG<br /><b>Pantheon</b> Giant Deities<br /><b>Areas of Concern</b> Riddles, wanderlust, wit<br /><b>Domains</b> <a href=\"DomainDisplay.aspx?ItemName=Chaos\">Chaos</a>, <a href=\"DomainDisplay.aspx?ItemName=Good\">Good</a>, <a href=\"DomainDisplay.aspx?ItemName=Magic\">Magic</a>, <a href=\"DomainDisplay.aspx?ItemName=Trickery\">Trickery</a><br /><b>Subdomains</b> <a href=\"DomainDisplay.aspx?ItemName=Chaos\">Azata (Chaos)</a>, <a href=\"DomainDisplay.aspx?ItemName=Good\">Azata (Good)</a>, <a href=\"DomainDisplay.aspx?ItemName=Trickery\">Deception</a>, <a href=\"DomainDisplay.aspx?ItemName=Magic\">Divine</a>, <a href=\"DomainDisplay.aspx?ItemName=Chaos\">Whimsy</a><br /><i>* Requires the <u><a href=\"TraitDisplay.aspx?ItemName=Acolyte%20of%20Apocrypha\">Acolyte of Apocrypha</a></u> trait.</i><br /><b>Favored Weapon</b> Rapier<br /><b>Symbol</b> Coastline pierced by blades<br /><b>Sacred Animal(s)</b> Octopus<br /><b>Sacred Color(s)</b> Brown, silver<br /><br /><br /></p><div style=\"position:relative;left:0%;border:2px ridge #434343;width:100%;height:100%\"><div class=\"wiki-content-full\"><iframe style=\"overflow-y:hidden;width:100%;height:450px\" src=\"https://pathfinderwiki.com/wiki/Skrymir\"> </iframe></div>\n </div>",
  "flags": {
    "monks-enhanced-journal": {
      "type": "journal"
    }
  },
  "_id": "iLOJ1VAVAvMvSyMr",
  "pages": [],
  "_key": "!journal!iLOJ1VAVAvMvSyMr"
}