{
  "name": "Ssila'meshnik",
  "content": "<p></p><h1 class=\"title\">Ssila'meshnik</h1><h2><b>The Colorless Lord</b></h2><b>Source</b> <a class=\"external-link\" href=\"https://paizo.com/products/btq01x4d?Pathfinder-Campaign-Setting-Concordance-of-Rivals\" target=\"_blank\"><i>Concordance of Rivals pg. 17</i></a><br /><b>Pathfinder Wiki</b> <a href=\"http://www.pathfinderwiki.com/wiki/Ssila'meshnik\">Ssila'meshnik</a><p></p><h3 class=\"framing\">Details</h3><p><b>Alignment</b> CN<br /><b>Pantheon</b> Protean Lord<br /><b>Areas of Concern</b> Fate, freedom, and paradox<br /><b>Domains</b> <a href=\"DomainDisplay.aspx?ItemName=Chaos\">Chaos</a>, <a href=\"DomainDisplay.aspx?ItemName=Knowledge\">Knowledge</a>, <a href=\"DomainDisplay.aspx?ItemName=Liberation\">Liberation</a>, <a href=\"DomainDisplay.aspx?ItemName=Trickery\">Trickery</a><br /><b>Subdomains</b> N/A<br /><i>* Requires the <u><a href=\"TraitDisplay.aspx?ItemName=Acolyte%20of%20Apocrypha\">Acolyte of Apocrypha</a></u> trait.</i><br /><b>Favored Weapon</b> Light hammer<br /><b>Symbol</b> Triquetra over a white keketar head<br /></p><h3 class=\"framing\">Obedience</h3><p>Ritually bleach your hair and whisper prayers in protean song for an hour, naked, in public view. Gain a +4 sacred bonus on saves against the spells, spell-like abilities, and supernatural abilities of creatures with the lawful subtype.</p><h2 class=\"title\">Boons - <a href=\"FeatDisplay.aspx?ItemName=Monitor Obedience\">Monitor Obedience</a></h2><p></p><h3 class=\"framing\">None</h3><p><b>Source </b><a class=\"external-link\" href=\"https://paizo.com/products/btq01x4d?Pathfinder-Campaign-Setting-Concordance-of-Rivals\" target=\"_blank\"><i>Concordance of Rivals pg. 17</i></a><br /><b>1: Fated (Sp)</b> <a href=\"SpellDisplay.aspx?ItemName=liberating command\" style=\"text-decoration:underline\"><i>liberating command</i></a> 3/day, <a href=\"SpellDisplay.aspx?ItemName=shard of chaos\" style=\"text-decoration:underline\"><i>shard of chaos</i></a> 2/day, or <a href=\"SpellDisplay.aspx?ItemName=borrow fortune\" style=\"text-decoration:underline\"><i>borrow fortune</i></a> 1/day<br /><b>2: Inviolate Freedom (Ex)</b> Once per day as an immediate action when subjected to any circumstance or condition that impedes your movement, you can swap positions or conditions with another creature within 60 feet. An unwilling creature can resist this effect with a Will save (DC = 10 + half your HD + your Charisma modifier).<br /><b>3: Herald of Paradox (Su)</b> You can tinker with probability as a swift action. This manifests as a swirling halo of protean symbols and grants you prescience for a number of rounds equal to half your character level. This prescience allows you to roll twice and use the better result on a single d20 roll each round.<br /><br /></p><div style=\"position:relative;left:0%;border:2px ridge #434343;width:100%;height:100%\"><div class=\"wiki-content-full\"><iframe style=\"overflow-y:hidden;width:100%;height:450px\" src=\"https://pathfinderwiki.com/wiki/Ssila'meshnik\"> </iframe></div>\n </div>",
  "flags": {
    "monks-enhanced-journal": {
      "type": "journal"
    }
  },
  "_id": "eSeB2OfMfEUnUIUX",
  "pages": [],
  "_key": "!journal!eSeB2OfMfEUnUIUX"
}