{
  "name": "Sun Wukong",
  "content": "<p></p><h1 class=\"title\"><img src=\"http://www.aonprd.com/images/PathfinderSocietySymbol.gif\" style=\"margin:3px 3px 0px 3px\" title=\"PFS Legal\" /> Sun Wukong</h1><h2><b>The Monkey King</b></h2><b>Source</b> <a class=\"external-link\" href=\"http://paizo.com/products/btpy8pfu?Pathfinder-Campaign-Setting-Dragon-Empires-Gazetteer\" target=\"_blank\"><i>Dragon Empires Gazetteer pg. 58</i></a><br /><b>Pathfinder Wiki</b> <a href=\"http://www.pathfinderwiki.com/wiki/Sun Wukong\">Sun Wukong</a><p></p><h3 class=\"framing\">Details</h3><p><b>Alignment</b> CN<br /><b>Pantheon</b> Deities of Tian Xia<br /><b>Areas of Concern</b> Drunkenness, nature, trickery<br /><b>Domains</b> <a href=\"DomainDisplay.aspx?ItemName=Animal\">Animal</a>, <a href=\"DomainDisplay.aspx?ItemName=Chaos\">Chaos</a>, <a href=\"DomainDisplay.aspx?ItemName=Liberation\">Liberation</a>, <a href=\"DomainDisplay.aspx?ItemName=Travel\">Travel</a>, <a href=\"DomainDisplay.aspx?ItemName=Trickery\">Trickery</a><br /><b>Subdomains</b> <a href=\"DomainDisplay.aspx?ItemName=Trickery\">Deception</a>, <a href=\"DomainDisplay.aspx?ItemName=Travel\">Exploration</a>, <a href=\"DomainDisplay.aspx?ItemName=Liberation\">Freedom</a>, <a href=\"DomainDisplay.aspx?ItemName=Trickery\">Innuendo</a>, <a href=\"DomainDisplay.aspx?ItemName=Chaos\">Protean</a>, <a href=\"DomainDisplay.aspx?ItemName=Liberation\">Revolution</a>, <a href=\"DomainDisplay.aspx?ItemName=Trickery\">Thievery</a><br /><i>* Requires the <u><a href=\"TraitDisplay.aspx?ItemName=Acolyte%20of%20Apocrypha\">Acolyte of Apocrypha</a></u> trait.</i><br /><b>Favored Weapon</b> Quarterstaff<br /><b>Symbol</b> Stone monkey<br /><b>Sacred Animal(s)</b> Monkey<br /></p><h3 class=\"framing\">On Golarion</h3><p><b>Centers of Worship</b> Forest of Spirits, Goka, Hwanggot, Kwanlai, Minata, Quain<br /><b>Nationality</b> Monkey<br /><br /></p><div style=\"position:relative;left:0%;border:2px ridge #434343;width:100%;height:100%\"><div class=\"wiki-content-full\"><iframe style=\"overflow-y:hidden;width:100%;height:450px\" src=\"https://pathfinderwiki.com/wiki/Sun Wukong\"> </iframe></div>\n </div>",
  "flags": {
    "monks-enhanced-journal": {
      "type": "journal"
    }
  },
  "_id": "v1TxcTamCbQ51TTm",
  "pages": [],
  "_key": "!journal!v1TxcTamCbQ51TTm"
}