{
  "name": "Taraksun",
  "content": "<p></p><h1 class=\"title\">Taraksun</h1><h2><b>The Awakener of Wrath</b></h2><b>Source</b> <a class=\"external-link\" href=\"http://paizo.com/products/btpy9tok\" target=\"_blank\"><i>Book of the Damned pg. 110</i></a><br /><b>Pathfinder Wiki</b> <a href=\"http://www.pathfinderwiki.com/wiki/Taraksun\">Taraksun</a><p></p><h3 class=\"framing\">Details</h3><p><b>Alignment</b> LE<br /><b>Pantheon</b> Asura Ranas<br /><b>Areas of Concern</b> Anger, dreams, shattering of bonds<br /><b>Domains</b> <a href=\"DomainDisplay.aspx?ItemName=Evil\">Evil</a>, <a href=\"DomainDisplay.aspx?ItemName=Law\">Law</a>, <a href=\"DomainDisplay.aspx?ItemName=Liberation\">Liberation</a>, <a href=\"DomainDisplay.aspx?ItemName=Madness\">Madness</a><br /><b>Subdomains</b> <a href=\"DomainDisplay.aspx?ItemName=Liberation\">Freedom</a>, <a href=\"DomainDisplay.aspx?ItemName=Madness\">Insanity</a>, <a href=\"DomainDisplay.aspx?ItemName=Madness\">Nightmare</a>, <a href=\"DomainDisplay.aspx?ItemName=Liberation\">Revolution</a><br /><i>* Requires the <u><a href=\"TraitDisplay.aspx?ItemName=Acolyte%20of%20Apocrypha\">Acolyte of Apocrypha</a></u> trait.</i><br /><b>Favored Weapon</b> Warhammer<br /></p><h3 class=\"framing\">Obedience</h3><p>Bind yourself tightly with cords of woven hair and then lull yourself into anger-filled dreams for an hour. Gain a +4 profane bonus on saving throws against paralysis and sleep effects.</p><h2 class=\"title\">Boons - Asura Ranas</h2><b>Source </b><a class=\"external-link\" href=\"http://paizo.com/products/btpy9tok\" target=\"_blank\"><i>Book of the Damned pg. 111</i></a><br />Over time, the mightiest of the asuras complete enough cycles of reincarnation and build upon the atrocities committed over multiple lives to incarnate into the most powerful of their kind: the asura ranas.<br /><br /> Asura ranas are lawful evil demigods that range in power from CR 26 to CR 30. Each asura rana detailed below is given an obedience, but the boons they grant are less complex than those granted by archdevils, manifesting as spell-like abilities usable once per day each.<br /><br /><b>1: </b> <i>deeper slumber</i><br /><b>2: </b> <i>night terrors</i><br /><b>3: </b> <i>dream voyage</i><br /><br /><p></p><div style=\"position:relative;left:0%;border:2px ridge #434343;width:100%;height:100%\"><div class=\"wiki-content-full\"><iframe style=\"overflow-y:hidden;width:100%;height:450px\" src=\"https://pathfinderwiki.com/wiki/Taraksun\"> </iframe></div>\n </div>",
  "flags": {
    "monks-enhanced-journal": {
      "type": "journal"
    }
  },
  "_id": "UhY3fHNsb5g5qB5d",
  "pages": [],
  "_key": "!journal!UhY3fHNsb5g5qB5d"
}