{
  "name": "Teshallas",
  "content": "<p></p><h1 class=\"title\">Teshallas</h1><h2><b>The Primordial Poison</b></h2><b>Source</b> <a class=\"external-link\" href=\"https://paizo.com/products/btq01x4d?Pathfinder-Campaign-Setting-Concordance-of-Rivals\" target=\"_blank\"><i>Concordance of Rivals pg. 18</i></a><br /><b>Pathfinder Wiki</b> <a href=\"http://www.pathfinderwiki.com/wiki/Teshallas\">Teshallas</a><p></p><h3 class=\"framing\">Details</h3><p><b>Alignment</b> N<br /><b>Pantheon</b> Psychopomp Usher<br /><b>Areas of Concern</b> Aging, poison, and venomous creatures<br /><b>Domains</b> <a href=\"DomainDisplay.aspx?ItemName=Healing\">Healing</a>, <a href=\"DomainDisplay.aspx?ItemName=Magic\">Magic</a>, <a href=\"DomainDisplay.aspx?ItemName=Repose\">Repose</a>, <a href=\"DomainDisplay.aspx?ItemName=Scalykind\">Scalykind</a><br /><b>Subdomains</b> N/A<br /><i>* Requires the <u><a href=\"TraitDisplay.aspx?ItemName=Acolyte%20of%20Apocrypha\">Acolyte of Apocrypha</a></u> trait.</i><br /><b>Favored Weapon</b> Chakram<br /><b>Symbol</b> Circle pierced by two vertical lines<br /></p><h3 class=\"framing\">Obedience</h3><p>Drink a diluted preparation of poison-a single dose of poison is sufficient to prepare five such draughts, and the dilution grants you a +5 circumstance bonus on your saving throw-or allows a venomous creature to bite you. You gain an innate sense of poison, per <a href=\"SpellDisplay.aspx?ItemName=detect poison\" style=\"text-decoration:underline\"><i>detect poison</i></a>, as an extraordinary ability with a range of 20 feet.</p><h2 class=\"title\">Boons - <a href=\"FeatDisplay.aspx?ItemName=Monitor Obedience\">Monitor Obedience</a></h2><p></p><h3 class=\"framing\">None</h3><p><b>Source </b><a class=\"external-link\" href=\"https://paizo.com/products/btq01x4d?Pathfinder-Campaign-Setting-Concordance-of-Rivals\" target=\"_blank\"><i>Concordance of Rivals pg. 18</i></a><br /><b>1: Serpent's Kiss (Sp)</b> <a href=\"SpellDisplay.aspx?ItemName=polypurpose panacea\" style=\"text-decoration:underline\"><i>polypurpose panacea</i></a> 3/day, <a href=\"SpellDisplay.aspx?ItemName=touch injection\" style=\"text-decoration:underline\"><i>touch injection</i></a> 2/day, or <a href=\"SpellDisplay.aspx?ItemName=sands of time\" style=\"text-decoration:underline\"><i>sands of time</i></a> 1/day<br /><b>2: Breath of Life (Sp)</b> You can cast <a href=\"SpellDisplay.aspx?ItemName=restoration\" style=\"text-decoration:underline\"><i>restoration</i></a> once per day.<br /><b>3: Wonders of Age (Su)</b> You no longer take ability score penalties from aging and cannot be magically aged. Any penalties you may have already incurred remain in place, however. Bonuses still accrue, and you still die of old age when your time is up.</p><h2 class=\"title\">For Followers of Teshallas</h2><p></p><h3 class=\"framing\">Prestige Classes</h3><p><a href=\"PrestigeClassesDisplay.aspx?ItemName=Mortal Usher\">Mortal Usher</a><br /><br /></p><div style=\"position:relative;left:0%;border:2px ridge #434343;width:100%;height:100%\"><div class=\"wiki-content-full\"><iframe style=\"overflow-y:hidden;width:100%;height:450px\" src=\"https://pathfinderwiki.com/wiki/Teshallas\"> </iframe></div>\n </div>",
  "flags": {
    "monks-enhanced-journal": {
      "type": "journal"
    }
  },
  "_id": "dXiE76vmWjHO06g3",
  "pages": [],
  "_key": "!journal!dXiE76vmWjHO06g3"
}