{
  "name": "Thremyr",
  "content": "<p></p><h1 class=\"title\"><img src=\"http://www.aonprd.com/images/PathfinderSocietySymbol.gif\" style=\"margin:3px 3px 0px 3px\" title=\"PFS Legal\" /> Thremyr</h1><h2><b>First Jarl</b></h2><b>Source</b> <a class=\"external-link\" href=\"http://paizo.com/products/btpy94wj?Pathfinder-Campaign-Setting-Inner-Sea-Gods-Hardcover\" target=\"_blank\"><i>Inner Sea Gods pg. 324</i></a><br /><b>Pathfinder Wiki</b> <a href=\"http://www.pathfinderwiki.com/wiki/Thremyr\">Thremyr</a><p></p><h3 class=\"framing\">Details</h3><p><b>Alignment</b> CE<br /><b>Pantheon</b> Giant Deities<br /><b>Areas of Concern</b> Ice, salt, tribute<br /><b>Domains</b> <a href=\"DomainDisplay.aspx?ItemName=Chaos\">Chaos</a>, <a href=\"DomainDisplay.aspx?ItemName=Evil\">Evil</a>, <a href=\"DomainDisplay.aspx?ItemName=War\">War</a>, <a href=\"DomainDisplay.aspx?ItemName=Water\">Water</a><br /><b>Subdomains</b> <a href=\"DomainDisplay.aspx?ItemName=War\">Blood</a>, <a href=\"DomainDisplay.aspx?ItemName=Chaos\">Demon (Chaos)</a>, <a href=\"DomainDisplay.aspx?ItemName=Evil\">Demon (Evil)</a>, <a href=\"DomainDisplay.aspx?ItemName=Water\">Ice</a>, <a href=\"DomainDisplay.aspx?ItemName=War\">Tactics</a><br /><i>* Requires the <u><a href=\"TraitDisplay.aspx?ItemName=Acolyte%20of%20Apocrypha\">Acolyte of Apocrypha</a></u> trait.</i><br /><b>Favored Weapon</b> Greataxe<br /><b>Symbol</b> Frozen blue gemstone<br /><b>Sacred Animal(s)</b> Woolly rhinoceros<br /><b>Sacred Color(s)</b> Ice blue, white<br /><br /><br /></p><div style=\"position:relative;left:0%;border:2px ridge #434343;width:100%;height:100%\"><div class=\"wiki-content-full\"><iframe style=\"overflow-y:hidden;width:100%;height:450px\" src=\"https://pathfinderwiki.com/wiki/Thremyr\"> </iframe></div>\n </div>",
  "flags": {
    "monks-enhanced-journal": {
      "type": "journal"
    }
  },
  "_id": "YTodShTyI2zaYhjd",
  "pages": [],
  "_key": "!journal!YTodShTyI2zaYhjd"
}