{
  "name": "Urgathoa",
  "content": "<p></p><h1 class=\"title\"><img src=\"http://www.aonprd.com/images/PathfinderSocietySymbol.gif\" style=\"margin:3px 3px 0px 3px\" title=\"PFS Legal\" /> Urgathoa</h1><h2><b>The Pallid Princess</b></h2><b>Source</b> <a class=\"external-link\" href=\"http://paizo.com/products/btpy94wj?Pathfinder-Campaign-Setting-Inner-Sea-Gods-Hardcover\" target=\"_blank\"><i>Inner Sea Gods pg. 156</i></a><br /><b>Pathfinder Wiki</b> <a href=\"http://www.pathfinderwiki.com/wiki/Urgathoa\">Urgathoa</a><p></p><h3 class=\"framing\">Details</h3><p><b>Alignment</b> NE<br /><b>Pantheon</b> Core Deities<br /><b>Areas of Concern</b> Disease, gluttony, undeath<br /><b>Domains</b> <a href=\"DomainDisplay.aspx?ItemName=Death\">Death</a>, <a href=\"DomainDisplay.aspx?ItemName=Evil\">Evil</a>, <a href=\"DomainDisplay.aspx?ItemName=Magic\">Magic</a>, <a href=\"DomainDisplay.aspx?ItemName=Strength\">Strength</a>, <a href=\"DomainDisplay.aspx?ItemName=War\">War</a><br /><b>Subdomains</b> <a href=\"DomainDisplay.aspx?ItemName=War\">Blood</a>, <a href=\"DomainDisplay.aspx?ItemName=Evil\">Cannibalism</a>, <a href=\"DomainDisplay.aspx?ItemName=Evil\">Corruption</a>, <a href=\"DomainDisplay.aspx?ItemName=Evil\">Daemon</a>, <a href=\"DomainDisplay.aspx?ItemName=Magic\">Divine</a>, <a href=\"DomainDisplay.aspx?ItemName=Strength\">Ferocity</a>, <a href=\"DomainDisplay.aspx?ItemName=Death\">Murder</a>, <a href=\"DomainDisplay.aspx?ItemName=Death\">Plague (Death)</a>, <a href=\"DomainDisplay.aspx?ItemName=Evil\">Plague (Evil)</a>, <a href=\"DomainDisplay.aspx?ItemName=Strength\">Self-Realization (Strength)</a>*, <a href=\"DomainDisplay.aspx?ItemName=Death\">Shadow (Death)</a>, <a href=\"DomainDisplay.aspx?ItemName=Death\">Undead</a><br /><i>* Requires the <u><a href=\"TraitDisplay.aspx?ItemName=Acolyte%20of%20Apocrypha\">Acolyte of Apocrypha</a></u> trait.</i><br /><b>Favored Weapon</b> Scythe<br /><b>Symbol</b> Skull-decorated fly<br /><b>Sacred Animal(s)</b> Fly<br /><b>Sacred Color(s)</b> Red, green<br /></p><h3 class=\"framing\">Obedience</h3><p>Cover a table (or suitable flat surface) with a black velvet cloth and spread a feast atop it. If you are in the wilderness or another area where fine food is not readily available, load the table with the best quality food you can find in whatever amount you have. Eat to the point of painful fullness, sipping wine between dishes and reciting a prayer to Urgathoa. At the end of the hour, consume a piece of rotten fruit, rancid meat, moldy cheese, or other spoiled bit of food. Trust in Urgathoa to protect you from any sickness or disease that might follow. Treat your caster level as 1 higher when casting necromancy spells.</p><h3 class=\"framing\">Divine Gift</h3><p><b>Source</b> <a class=\"external-link\" href=\"http://paizo.com/products/btpya1am\" target=\"_blank\"><i>Planar Adventures pg. 81</i></a><br /><i>Nethys Note: See <a href=\"Rules.aspx?Name=Divine Gifts&amp;Category=Role of the Divine\" style=\"text-decoration:underline\">here</a> for details on how to gain a Divine Gift</i><br />The recipient dies and rises at the next sunset (or after 12 hours have passed, whichever comes first, but never in a situation that would result in the gift being granted during the day) as a vampire. (At the GM's discretion, other vampire templates, such as jiang-shi or nosferatu, can be applied rather than the standard vampire template.) If the character is already a vampire, he does not suffer any of the traditional vampire weaknesses (such as sunlight or running water) for 24 hours.</p><h3 class=\"framing\">On Golarion</h3><p><b>Centers of Worship</b> Darklands, Geb, Osirion, Ustalav, Varisia<br /><b>Nationality</b> Varisian</p><h2 class=\"title\">Boons - <a href=\"FeatDisplay.aspx?ItemName=Deific Obedience\">Deific Obedience</a></h2><p></p><h3 class=\"framing\"><img src=\"http://www.aonprd.com/images/PathfinderSocietySymbol.gif\" style=\"margin:3px 3px 0px 3px\" title=\"PFS Legal\" /> Evangelist</h3><p><b>Source </b><a class=\"external-link\" href=\"http://paizo.com/products/btpy94wj?Pathfinder-Campaign-Setting-Inner-Sea-Gods-Hardcover\" target=\"_blank\"><i>Inner Sea Gods pg. 156</i></a><br /><b>1: Pestilent Penitent (Sp)</b> <i>curse water </i>3/day, <i>feast of ashes</i><sup>APG</sup> 2/day, or <i>contagion </i>1/day<br /><b>2: Death Knowledge (Su)</b> Your knowledge of the arcane workings of death increases. Your familiar can teach you one new spell from either the Death or Magic domain spell list. The spell must be of a level you can cast, and once you choose the spell, your selection can't be changed. If you cast spells from a spellbook, you learn a new spell in the same manner, though it appears magically in your spellbook. If you cast spells spontaneously, you can choose one spell to add to your list of spells known, but you gain no additional spell slots.<br /><b>3: Blight of Ruin (Su)</b> Your blight hex gains power from Urgathoa's favor. If you use your blight hex on a plot of land, you can affect an area whose radius is equal to 20 x your combined witch and evangelist levels. If you blight a creature of the animal or plant type, increase the saving throw DC by 4 and the curse's effect to 2 points of Constitution damage per day. If the target successfully saves against your blight hex, it instead takes 3d6 points of negative energy damage. If you don't have access to the blight hex, you instead gain the ability to use <i>mass fester</i><sup>APG</sup> once per day as a spell-like ability.</p><h3 class=\"framing\"><img src=\"http://www.aonprd.com/images/PathfinderSocietySymbol.gif\" style=\"margin:3px 3px 0px 3px\" title=\"PFS Legal\" /> Exalted</h3><p><b>Source </b><a class=\"external-link\" href=\"http://paizo.com/products/btpy94wj?Pathfinder-Campaign-Setting-Inner-Sea-Gods-Hardcover\" target=\"_blank\"><i>Inner Sea Gods pg. 156</i></a><br /><b>1: Mistress of Undeath (Sp)</b> <i>inflict light wounds </i>3/day, <i>desecrate </i>2/day, or <i>animate dead </i>1/day<br /><b>2: Bolstering Channel (Su)</b> When you channel negative energy to heal undead creatures, you infuse the targets with negative energy made more powerful by Urgathoa's influence. Any undead creatures healed by your channeled energy increase their movement speed by 10 feet for 1 round for every Hit Die you possess.<br /><b>3: Ally from the Grave (Sp)</b> The Pallid Princess's servants have taken notice of your deeds and answer your call. Once per day as a standard action, you can summon a bhuta (<i>Pathfinder RPG Bestiary 3</i> 41) to serve you. You gain telepathy with the bhuta to a range of 100 feet. The bhuta follows your commands perfectly for 1 minute for every Hit Die you possess before vanishing back to its home. It doesn't obey commands that would make it perform overly good acts, and such instructions could cause it to attack you if they are particularly egregious.</p><h3 class=\"framing\"><img src=\"http://www.aonprd.com/images/PathfinderSocietySymbol.gif\" style=\"margin:3px 3px 0px 3px\" title=\"PFS Legal\" /> Sentinel</h3><p><b>Source </b><a class=\"external-link\" href=\"http://paizo.com/products/btpy94wj?Pathfinder-Campaign-Setting-Inner-Sea-Gods-Hardcover\" target=\"_blank\"><i>Inner Sea Gods pg. 156</i></a><br /><b>1: Glutton for Slaughter (Sp)</b> <i>magic missile</i> 3/day, <i>acid arrow</i> 2/day, or <i>fireball </i>1/day<br /><b>2: Scythe Wielder (Ex)</b> You have trained extensively with Urgathoa's deadly favored weapon and with many related weapons, and you wield them with the skill of the Pallid Princess's most favored undead champions. If you selected the heavy blades group for your weapon training class feature, increase your attack and damage bonuses with heavy blades by 1. If you don't have the weapon training class feature, you instead gain a +1 bonus on attack and damage rolls with the scythe only.<br /><b>3: Fearless in the Face of Undeath (Ex)</b> You have spent too much time among the unliving to be taken in by their tricks and abilities, and you are proof against many of their powers. Increase your bravery saving throw bonus by 1. This bonus now applies to saving throws against any spells and effects generated by undead creatures, as well as against fear effects. The bonus also applies to nonmagical effects generated by undead creatures, such as a deathweb's poison. If you don't have the bravery class feature, you instead gain a +2 profane bonus on saving throws against spells and effects generated by undead.</p><h2 class=\"title\">Antipaladin Code</h2>The antipaladins of Urgathoa are creatures of the night, plague-bearers and bringers of death. They seek to spread Urgathoa's gifts by the sword and by emulating their goddess. Their tenets include the following affirmations. <ul><li>The grave opens to us all. We hasten the living on their inevitable path.</li><li>The deathless are the true expression of existence, for they are beyond life and death. I will emulate their ways and destroy those who would defile their timeless perfection.</li><li>I have no duty but to my hunger and my goddess.</li><li>Existence is hunger. Both life and death feed on life. I am an instrument of transition.</li></ul><h2 class=\"title\">Divine Fighting Technique</h2><p></p><h3 class=\"framing\"><img src=\"http://www.aonprd.com/images/PathfinderSocietySymbol.gif\" style=\"margin:3px 3px 0px 3px\" title=\"PFS Legal\" /> Urgathoa's Hunger</h3><p><b>Source</b> <a class=\"external-link\" href=\"http://paizo.com/products/btpy9nvh?Pathfinder-Player-Companion-Divine-Anthology\" target=\"_blank\"><i>Divine Anthology pg. 31</i></a><br />The grisly content of <i>Pallid Cravings</i> can be found in many places where the Pallid Princess maintains a significant presence, especially within the undead nation of Geb. The pages of this manuscript are said to be tattooed onto a humanoid and flensed off while the victim is still alive; the swaths of skin are then carefully preserved for presentation in the book. <i>Pallid Cravings</i> details hundreds of ways for a member of Urgathoa's faithful to satisfy her depraved urges for an opponent's flesh and blood while in battle.<br /><br /><b>Initial Benefit</b>: A number of times per day equal to your Wisdom bonus, you can feast upon the life essence of a creature that you hit with a scythe. Activating this ability is a swift action. When you do so, you gain a number of temporary hit points equal to the damage you dealt with the scythe attack. These temporary hit points last for 1 minute and don't stack.<br /><br /><b>Advanced Prerequisites</b>: Divine Fighting Technique, Heal 10 ranks, base attack bonus +7. <br /><br /><b>Advanced Benefit</b>: A number of times per day equal to your Wisdom bonus, you can exacerbate any lingering contagions within a target's body upon making a successful melee attack with a scythe. Activating this ability is a swift action, and causes the target to immediately attempt additional saving throws against all diseases with which it is currently afflicted. Any failed saves cause the target to immediately take the effects of that disease, while a successful save does not count toward the number of consecutive saves that the target must succeed at in order to cure the disease.</p><h2 class=\"title\">For Followers of Urgathoa</h2><p></p><h3 class=\"framing\">Archetypes</h3><p><a href=\"ArchetypeDisplay.aspx?FixedName=Bard Dirge Bard\">Dirge Bard (Bard)</a>, <a href=\"ArchetypeDisplay.aspx?FixedName=Witch Gravewalker\">Gravewalker (Witch)</a>, <a href=\"ArchetypeDisplay.aspx?FixedName=Cleric Undead Lord\">Undead Lord (Cleric)</a></p><h3 class=\"framing\">Feats</h3><p><a href=\"FeatDisplay.aspx?ItemName=Bolster Undead\">Bolster Undead</a>, <a href=\"FeatDisplay.aspx?ItemName=Potion Glutton\">Potion Glutton</a>, <a href=\"FeatDisplay.aspx?ItemName=Shatter Resolve\">Shatter Resolve</a>, <a href=\"FeatDisplay.aspx?ItemName=Thanatopic Spell\">Thanatopic Spell</a>, <a href=\"FeatDisplay.aspx?ItemName=Threnodic Spell\">Threnodic Spell</a>, <a href=\"FeatDisplay.aspx?ItemName=Undead Master\">Undead Master</a></p><h3 class=\"framing\">Magic Items - Altars</h3><p><a href=\"MagicAltarsDisplay.aspx?ItemName=Altar of Urgathoa\">Altar of Urgathoa</a></p><h3 class=\"framing\">Magic Items - Armor</h3><p><a href=\"MagicArmorDisplay.aspx?ItemName=Pallid Chain\">Pallid Chain</a></p><h3 class=\"framing\">Magic Items - Rings</h3><p><a href=\"MagicRingsDisplay.aspx?FinalName=Gluttonous Feasting Ring\">Gluttonous Feasting Ring</a></p><h3 class=\"framing\">Magic Items - Sets</h3><p><a href=\"MagicSets.aspx?ItemName=Urgathoa's Gluttony\">Urgathoa's Gluttony</a></p><h3 class=\"framing\">Magic Items - Weapons</h3><p><a href=\"MagicWeaponsDisplay.aspx?ItemName=Nail of the Princess\">Nail of the Princess</a>, <a href=\"MagicWeaponsDisplay.aspx?ItemName=Reaper's Lantern\">Reaper's Lantern</a></p><h3 class=\"framing\">Magic Items - Wondrous Items</h3><p><a href=\"MagicWondrousDisplay.aspx?FinalName=Darkskull\">Darkskull</a>, <a href=\"MagicWondrousDisplay.aspx?FinalName=Gloves of Bony Power\">Gloves of Bony Power</a>, <a href=\"MagicWondrousDisplay.aspx?FinalName=Mask of the Skull\">Mask of the Skull</a>, <a href=\"MagicWondrousDisplay.aspx?FinalName=Pallid Crystal\">Pallid Crystal</a>, <a href=\"MagicWondrousDisplay.aspx?FinalName=Plagueborn Mantle\">Plagueborn Mantle</a>, <a href=\"MagicWondrousDisplay.aspx?FinalName=Robe of Bones\">Robe of Bones</a>, <a href=\"MagicWondrousDisplay.aspx?FinalName=Urgathoa's Breath\">Urgathoa's Breath</a></p><h3 class=\"framing\">Monsters</h3><p><a href=\"MonsterDisplay.aspx?ItemName=Mother's Maw\">Mother's Maw (Herald)</a>, <a href=\"MonsterDisplay.aspx?ItemName=Pallid Angel\">Pallid Angel</a>, <a href=\"MonsterDisplay.aspx?ItemName=Sarcovalt\">Sarcovalt</a></p><h3 class=\"framing\">Spells</h3><p><a href=\"SpellDisplay.aspx?ItemName=Epidemic\">Epidemic</a>, <a href=\"SpellDisplay.aspx?ItemName=Ghoul Hunger\">Ghoul Hunger</a>, <a href=\"SpellDisplay.aspx?ItemName=Plague Bearer\">Plague Bearer</a></p><h3 class=\"framing\">Traits</h3><p><a href=\"TraitDisplay.aspx?ItemName=Corpse Cannibal\">Corpse Cannibal</a>, <a href=\"TraitDisplay.aspx?ItemName=Deathspeaker\">Deathspeaker</a>, <a href=\"TraitDisplay.aspx?ItemName=Denial of Fate\">Denial of Fate</a>, <a href=\"TraitDisplay.aspx?ItemName=Inoculated\">Inoculated</a></p><h2 class=\"title\">Unique Spell Rules</h2><img src=\"http://www.aonprd.com/images/PathfinderSocietySymbol.gif\" style=\"margin:3px 3px 0px 3px\" title=\"PFS Legal\" /> <b>Source </b><a class=\"external-link\" href=\"http://paizo.com/products/btpy94wj?Pathfinder-Campaign-Setting-Inner-Sea-Gods-Hardcover\" target=\"_blank\"><i>Inner Sea Gods pg. 163</i></a><br /><p></p><h3 class=\"framing\">Antipaladin</h3><p><i><a href=\"SpellDisplay.aspx?ItemName=Ghoul Touch\">Ghoul Touch</a></i> can be prepared as a 2nd-level spell<br /><i><a href=\"SpellDisplay.aspx?ItemName=Purify Food and Drink\">Purify Food and Drink</a></i> can be prepared as a 1st-level spell<br /></p><h3 class=\"framing\">Cleric/Warpriest</h3><p><i><a href=\"SpellDisplay.aspx?ItemName=Ghoul Touch\">Ghoul Touch</a></i> can be prepared as a 2nd-level spell<br /></p><h3 class=\"framing\">Inquisitor</h3><p><i><a href=\"SpellDisplay.aspx?ItemName=Ghoul Touch\">Ghoul Touch</a></i> can be prepared as a 2nd-level spell<br /><i><a href=\"SpellDisplay.aspx?ItemName=Purify Food and Drink\">Purify Food and Drink</a></i> can be prepared as a 0-level spell<br /></p><h3 class=\"framing\">Sorcerer</h3><p><i><a href=\"SpellDisplay.aspx?ItemName=Contagion\">Contagion</a></i> can be prepared as a 3rd-level spell [arcane version]<br /><i><a href=\"SpellDisplay.aspx?ItemName=Remove Disease\">Remove Disease</a></i> can be prepared as a 3rd-level spell [arcane version]<br /></p><h3 class=\"framing\">Wizard</h3><p><i><a href=\"SpellDisplay.aspx?ItemName=Contagion\">Contagion</a></i> can be prepared as a 3rd-level spell [necromancer only, arcane version]<br /><i><a href=\"SpellDisplay.aspx?ItemName=Remove Disease\">Remove Disease</a></i> can be prepared as a 3rd-level spell [necromancer only, arcane version]<br /></p><h2 class=\"title\">Unique Summon Rules</h2><b>Source </b><a class=\"external-link\" href=\"http://paizo.com/store/games/roleplayingGames/p/pathfinderRPG/paizo/pathfinderAdventurePath/carrionCrown/v5748btpy8lv2\" target=\"_blank\"><i>Pathfinder #47: Ashes at Dawn pg. 71</i></a><br /><img src=\"http://www.aonprd.com/images/PathfinderSocietySymbol.gif\" style=\"margin:3px 3px 0px 3px\" title=\"PFS Legal\" /> <a href=\"SpellDisplay.aspx?ItemName=Summon Monster 1\"><b>Summon Monster I</b></a>: <a href=\"MonsterDisplay.aspx?ItemName=Human Skeleton\">Bloody Human Skeleton</a><br /><img src=\"http://www.aonprd.com/images/PathfinderSocietySymbol.gif\" style=\"margin:3px 3px 0px 3px\" title=\"PFS Legal\" /> <a href=\"SpellDisplay.aspx?ItemName=Summon Monster 7\"><b>Summon Monster VII</b></a>: <a href=\"MonsterDisplay.aspx?ItemName=Daughter of Urgathoa\">Daughter of Urgathoa</a> (extraplanar)<br /><h2 class=\"title\">Other Rules</h2><b>Source </b><a class=\"external-link\" href=\"http://paizo.com/products/btpy94wj?Pathfinder-Campaign-Setting-Inner-Sea-Gods-Hardcover\" target=\"_blank\"><i>Inner Sea Gods pg. 163</i></a><br />Priests who cast <i>remove disease </i>may draw diseases into themselves as they heal their targets; they become carriers without suffering ill effects. <i>Contagion </i>spells cast by Urgathoa's priests always use the caster's spell DC for the disease's secondary saves.<br /><br /><p></p><div style=\"position:relative;left:0%;border:2px ridge #434343;width:100%;height:100%\"><div class=\"wiki-content-full\"><iframe style=\"overflow-y:hidden;width:100%;height:450px\" src=\"https://pathfinderwiki.com/wiki/Urgathoa\"> </iframe></div>\n </div>",
  "flags": {
    "monks-enhanced-journal": {
      "type": "journal"
    }
  },
  "_id": "B63cJ0h77Ivuz2mE",
  "pages": [],
  "_key": "!journal!B63cJ0h77Ivuz2mE"
}