{
  "name": "Vale",
  "content": "<p></p><h1 class=\"title\">Vale</h1><h2><b>The Court of Ancestors</b></h2><b>Source</b> <a class=\"external-link\" href=\"https://paizo.com/products/btq01x4d?Pathfinder-Campaign-Setting-Concordance-of-Rivals\" target=\"_blank\"><i>Concordance of Rivals pg. 18</i></a><br /><b>Pathfinder Wiki</b> <a href=\"http://www.pathfinderwiki.com/wiki/Vale\">Vale</a><p></p><h3 class=\"framing\">Details</h3><p><b>Alignment</b> N<br /><b>Pantheon</b> Psychopomp Usher<br /><b>Areas of Concern</b> Consequence, superstition, and tradition<br /><b>Domains</b> <a href=\"DomainDisplay.aspx?ItemName=Community\">Community</a>, <a href=\"DomainDisplay.aspx?ItemName=Knowledge\">Knowledge</a>, <a href=\"DomainDisplay.aspx?ItemName=Nobility\">Nobility</a>, <a href=\"DomainDisplay.aspx?ItemName=Repose\">Repose</a><br /><b>Subdomains</b> N/A<br /><i>* Requires the <u><a href=\"TraitDisplay.aspx?ItemName=Acolyte%20of%20Apocrypha\">Acolyte of Apocrypha</a></u> trait.</i><br /><b>Favored Weapon</b> Heavy flail<br /><b>Symbol</b> Three circles bisected by a horizontal line<br /></p><h3 class=\"framing\">Obedience</h3><p>Recite a family history to a surviving member of that family. Researching requires 45 minutes, while the recitation requires 15-30 minutes. Select a particular alignment component-chaos, evil, good, or law-and gain a +2 sacred bonus to AC against opponents with that alignment component.</p><h2 class=\"title\">Boons - <a href=\"FeatDisplay.aspx?ItemName=Monitor Obedience\">Monitor Obedience</a></h2><p></p><h3 class=\"framing\">None</h3><p><b>Source </b><a class=\"external-link\" href=\"https://paizo.com/products/btq01x4d?Pathfinder-Campaign-Setting-Concordance-of-Rivals\" target=\"_blank\"><i>Concordance of Rivals pg. 18</i></a><br /><b>1: It Is Known (Sp)</b> <a href=\"SpellDisplay.aspx?ItemName=discern next of kin\" style=\"text-decoration:underline\"><i>discern next of kin</i></a> 3/day, <a href=\"SpellDisplay.aspx?ItemName=early judgment\" style=\"text-decoration:underline\"><i>early judgment</i></a> 2/day, or <a href=\"SpellDisplay.aspx?ItemName=seek thoughts\" style=\"text-decoration:underline\"><i>seek thoughts</i></a> 1/day<br /><b>2: Issue Judgment (Sp)</b> Once per day, you can issue a judgment on a crime whose testimony and evidence you have either personally witnessed or studied for at least 1 hour. If you find the target guilty, you can cast <a href=\"SpellDisplay.aspx?ItemName=major curse\" style=\"text-decoration:underline\"><i>major curse</i></a> on that creature as a spell-like ability with a caster level equal to your Hit Dice. The condition to remove the curse must relate directly to making amends or growing beyond the criminal behavior.<br /><b>3: Collective Knowledge (Su)</b> Whenever you are among a culture, you gain a +5 insight bonus on Knowledge checks to intuitively understand local customs, etiquette, history, lore, and magic of that particular culture, and you can attempt such Knowledge checks untrained. For the purposes of this power, a 'culture' is any particular group of at least 100 people within 5 miles of each other who share a common ethnicity, language, or race, and you are considered among the culture when you are no more than 1 mile away from anyone in this particular group.</p><h2 class=\"title\">For Followers of Vale</h2><p></p><h3 class=\"framing\">Prestige Classes</h3><p><a href=\"PrestigeClassesDisplay.aspx?ItemName=Mortal Usher\">Mortal Usher</a><br /><br /></p><div style=\"position:relative;left:0%;border:2px ridge #434343;width:100%;height:100%\"><div class=\"wiki-content-full\"><iframe style=\"overflow-y:hidden;width:100%;height:450px\" src=\"https://pathfinderwiki.com/wiki/Vale\"> </iframe></div>\n </div>",
  "flags": {
    "monks-enhanced-journal": {
      "type": "journal"
    }
  },
  "_id": "rPwm9Uf9R1XmsXHA",
  "pages": [],
  "_key": "!journal!rPwm9Uf9R1XmsXHA"
}