{
  "name": "Verex",
  "content": "<p></p><h1 class=\"title\">Verex</h1><h2><b>The Despoiler</b></h2><b>Source</b> <a class=\"external-link\" href=\"http://paizo.com/products/btpy94wj?Pathfinder-Campaign-Setting-Inner-Sea-Gods-Hardcover\" target=\"_blank\"><i>Inner Sea Gods pg. 328</i></a><br /><b>Pathfinder Wiki</b> <a href=\"http://www.pathfinderwiki.com/wiki/Verex\">Verex</a><p></p><h3 class=\"framing\">Details</h3><p><b>Alignment</b> CE<br /><b>Pantheon</b> Orc Deities<br /><b>Areas of Concern</b> Lust, pillage, plunder<br /><b>Domains</b> <a href=\"DomainDisplay.aspx?ItemName=Chaos\">Chaos</a>, <a href=\"DomainDisplay.aspx?ItemName=Charm\">Charm</a>, <a href=\"DomainDisplay.aspx?ItemName=Evil\">Evil</a>, <a href=\"DomainDisplay.aspx?ItemName=Trickery\">Trickery</a><br /><b>Subdomains</b> <a href=\"DomainDisplay.aspx?ItemName=Trickery\">Deception</a>, <a href=\"DomainDisplay.aspx?ItemName=Charm\">Lust</a>, <a href=\"DomainDisplay.aspx?ItemName=Trickery\">Thievery</a><br /><i>* Requires the <u><a href=\"TraitDisplay.aspx?ItemName=Acolyte%20of%20Apocrypha\">Acolyte of Apocrypha</a></u> trait.</i><br /><b>Favored Weapon</b> Battleaxe<br /><b>Symbol</b> Rat with gold coin<br /><b>Sacred Animal(s)</b> Dire rat<br /><b>Sacred Color(s)</b> Gold, green<br /><br /><br /></p><div style=\"position:relative;left:0%;border:2px ridge #434343;width:100%;height:100%\"><div class=\"wiki-content-full\"><iframe style=\"overflow-y:hidden;width:100%;height:450px\" src=\"https://pathfinderwiki.com/wiki/Verex\"> </iframe></div>\n </div>",
  "flags": {
    "monks-enhanced-journal": {
      "type": "journal"
    }
  },
  "_id": "34naYZ56gmhdE46d",
  "pages": [],
  "_key": "!journal!34naYZ56gmhdE46d"
}