{
  "name": "Ylimancha",
  "content": "<p></p><h1 class=\"title\"><img src=\"http://www.aonprd.com/images/PathfinderSocietySymbol.gif\" style=\"margin:3px 3px 0px 3px\" title=\"PFS Legal\" /> Ylimancha</h1><h2><b>Harborwing</b></h2><b>Source</b> <a class=\"external-link\" href=\"http://paizo.com/products/btpy94wj?Pathfinder-Campaign-Setting-Inner-Sea-Gods-Hardcover\" target=\"_blank\"><i>Inner Sea Gods pg. 324</i></a><br /><b>Pathfinder Wiki</b> <a href=\"http://www.pathfinderwiki.com/wiki/Ylimancha\">Ylimancha</a><p></p><h3 class=\"framing\">Details</h3><p><b>Alignment</b> NG<br /><b>Pantheon</b> Empyreal Lords<br /><b>Areas of Concern</b> Coastal waters, fisherfolk, flying creatures<br /><b>Domains</b> <a href=\"DomainDisplay.aspx?ItemName=Air\">Air</a>, <a href=\"DomainDisplay.aspx?ItemName=Animal\">Animal</a>, <a href=\"DomainDisplay.aspx?ItemName=Good\">Good</a>, <a href=\"DomainDisplay.aspx?ItemName=Water\">Water</a><br /><b>Subdomains</b> <a href=\"DomainDisplay.aspx?ItemName=Good\">Agathion</a>, <a href=\"DomainDisplay.aspx?ItemName=Animal\">Feather</a>, <a href=\"DomainDisplay.aspx?ItemName=Water\">Oceans</a>, <a href=\"DomainDisplay.aspx?ItemName=Air\">Wind</a><br /><i>* Requires the <u><a href=\"TraitDisplay.aspx?ItemName=Acolyte%20of%20Apocrypha\">Acolyte of Apocrypha</a></u> trait.</i><br /><b>Favored Weapon</b> Longbow<br /><b>Symbol</b> Golden seagull<br /><b>Sacred Animal(s)</b> Seagull<br /><b>Sacred Color(s)</b> Blue, gold<br /></p><h3 class=\"framing\">Obedience</h3><p>Wrap yourself in a robe of feathers and immerse yourself in saltwater, holding your breath for as long as possible. Climb out of the water, kneel down, and pray until the robe dries. Gain a +4 sacred bonus on saving throws against effects with the water descriptor and effects from flying creatures.</p><h2 class=\"title\">Boons - <a href=\"FeatDisplay.aspx?ItemName=Celestial Obedience\">Celestial Obedience</a></h2><p></p><h3 class=\"framing\"><img src=\"http://www.aonprd.com/images/PathfinderSocietySymbol.gif\" style=\"margin:3px 3px 0px 3px\" title=\"PFS Legal\" /> Mystery Cultist</h3><p><b>Source </b><a class=\"external-link\" href=\"http://paizo.com/products/btpy8xe9?Pathfinder-Campaign-Setting-Chronicle-of-the-Righteous\" target=\"_blank\"><i>Chronicle of the Righteous pg. 28</i></a><br /><b>1: Winged Blessing (Sp)</b> <i>feather fall </i>3/day, <i>levitate </i>2/day, or <i>water breathing </i>1/day<br /><b>2: Aspect of the Wind (Su)</b> Avian wings sprout from your back, granting you a fly speed of 30 feet with average maneuverability.<br /><b>3: Body of Water (Su)</b> Your body becomes permanently fluid and malleable, making you immune to critical hits and sneak attacks. In addition, you can move through an area as small as one-quarter your space without squeezing or one-eighth your space when squeezing.</p><h2 class=\"title\">For Followers of Ylimancha</h2><p></p><h3 class=\"framing\">Feats</h3><p><a href=\"FeatDisplay.aspx?ItemName=Heroic Interposition\">Heroic Interposition</a></p><h3 class=\"framing\">Magic Items - Wondrous Items</h3><p><a href=\"MagicWondrousDisplay.aspx?FinalName=Harborwing Cloak\">Harborwing Cloak</a></p><h3 class=\"framing\">Traits</h3><p><a href=\"TraitDisplay.aspx?ItemName=Empyreal Focus\">Empyreal Focus</a><br /><br /></p><div style=\"position:relative;left:0%;border:2px ridge #434343;width:100%;height:100%\"><div class=\"wiki-content-full\"><iframe style=\"overflow-y:hidden;width:100%;height:450px\" src=\"https://pathfinderwiki.com/wiki/Ylimancha\"> </iframe></div>\n </div>",
  "flags": {
    "monks-enhanced-journal": {
      "type": "journal"
    }
  },
  "_id": "w43Je1mdCMGZ4uZE",
  "pages": [],
  "_key": "!journal!w43Je1mdCMGZ4uZE"
}