{
  "name": "Zaebos",
  "content": "<p></p><h1 class=\"title\">Zaebos</h1><h2><b>The Prince of Broken Glass</b></h2><b>Source</b> <a class=\"external-link\" href=\"http://paizo.com/products/btpy94wj?Pathfinder-Campaign-Setting-Inner-Sea-Gods-Hardcover\" target=\"_blank\"><i>Inner Sea Gods pg. 326</i></a><br /><b>Pathfinder Wiki</b> <a href=\"http://www.pathfinderwiki.com/wiki/Zaebos\">Zaebos</a><p></p><h3 class=\"framing\">Details</h3><p><b>Alignment</b> LE<br /><b>Pantheon</b> Infernal Dukes<br /><b>Areas of Concern</b> Arrogance, nobility, sexual perversion<br /><b>Domains</b> <a href=\"DomainDisplay.aspx?ItemName=Destruction\">Destruction</a>, <a href=\"DomainDisplay.aspx?ItemName=Evil\">Evil</a>, <a href=\"DomainDisplay.aspx?ItemName=Law\">Law</a>, <a href=\"DomainDisplay.aspx?ItemName=Nobility\">Nobility</a><br /><b>Subdomains</b> <a href=\"DomainDisplay.aspx?ItemName=Evil\">Devil (Evil)</a>, <a href=\"DomainDisplay.aspx?ItemName=Law\">Devil (Law)</a>, <a href=\"DomainDisplay.aspx?ItemName=Nobility\">Leadership</a>, <a href=\"DomainDisplay.aspx?ItemName=Nobility\">Martyr</a>, <a href=\"DomainDisplay.aspx?ItemName=Destruction\">Torture</a><br /><i>* Requires the <u><a href=\"TraitDisplay.aspx?ItemName=Acolyte%20of%20Apocrypha\">Acolyte of Apocrypha</a></u> trait.</i><br /><b>Favored Weapon</b> Flail<br /><b>Symbol</b> Glass shards cutting flesh<br /><b>Sacred Animal(s)</b> Crocodile<br /><b>Sacred Color(s)</b> Black, green<br /></p><h3 class=\"framing\">Obedience</h3><p>Smash a crystal goblet and fling shards upon anyone who steps into your way. Gain a +4 profane bonus to CMD against disarm, sunder, and trip combat maneuvers.</p><h2 class=\"title\">Boons - Infernal Dukes</h2><b>Source </b><a class=\"external-link\" href=\"http://paizo.com/products/btpy9tok\" target=\"_blank\"><i>Book of the Damned pg. 119</i></a><br />The Lords of Hell, the Dukes of Perdition, and the Princes of Damnation are all names for the infamous nobility of the Pit- the elite caste of devilkind known as the infernal dukes.<br /><br /> All infernal dukes are lawful evil and range in power from CR 26 to CR 27. The boons they grant are less complex than those granted by archdevils, manifesting as spell-like abilities usable once per day each.<br /><br /><b>1: </b> <i>reckless infatuation</i><br /><b>2: </b> <i>prismatic spray</i><br /><b>3: </b> <i> mage's disjunction</i><h2 class=\"title\">For Followers of Zaebos</h2><p></p><h3 class=\"framing\">Feats</h3><p><a href=\"FeatDisplay.aspx?ItemName=Hellish Shackles\">Hellish Shackles</a><br /><br /></p><div style=\"position:relative;left:0%;border:2px ridge #434343;width:100%;height:100%\"><div class=\"wiki-content-full\"><iframe style=\"overflow-y:hidden;width:100%;height:450px\" src=\"https://pathfinderwiki.com/wiki/Zaebos\"> </iframe></div>\n </div>",
  "flags": {
    "monks-enhanced-journal": {
      "type": "journal"
    }
  },
  "_id": "POeM642LbPFcuIS7",
  "pages": [],
  "_key": "!journal!POeM642LbPFcuIS7"
}