{
  "name": "Zurapadyn",
  "content": "<p></p><h1 class=\"title\">Zurapadyn</h1><h2><b>Beast Who Waits in Smoke</b></h2><b>Source</b> <a class=\"external-link\" href=\"http://paizo.com/products/btpy9tok\" target=\"_blank\"><i>Book of the Damned pg. 110</i></a><br /><b>Pathfinder Wiki</b> <a href=\"http://www.pathfinderwiki.com/wiki/Zurapadyn\">Zurapadyn</a><p></p><h3 class=\"framing\">Details</h3><p><b>Alignment</b> LE<br /><b>Pantheon</b> Asura Ranas<br /><b>Areas of Concern</b> Fire, injustice, vendetts<br /><b>Domains</b> <a href=\"DomainDisplay.aspx?ItemName=Destruction\">Destruction</a>, <a href=\"DomainDisplay.aspx?ItemName=Evil\">Evil</a>, <a href=\"DomainDisplay.aspx?ItemName=Fire\">Fire</a>, <a href=\"DomainDisplay.aspx?ItemName=Law\">Law</a><br /><b>Subdomains</b> <a href=\"DomainDisplay.aspx?ItemName=Fire\">Arson</a>, <a href=\"DomainDisplay.aspx?ItemName=Fire\">Ash</a>, <a href=\"DomainDisplay.aspx?ItemName=Destruction\">Catastrophe</a>, <a href=\"DomainDisplay.aspx?ItemName=Destruction\">Rage</a><br /><i>* Requires the <u><a href=\"TraitDisplay.aspx?ItemName=Acolyte%20of%20Apocrypha\">Acolyte of Apocrypha</a></u> trait.</i><br /><b>Favored Weapon</b> Kukri<br /></p><h3 class=\"framing\">Obedience</h3><p>Steal something of sentimental value, burn it, and place the ashes where the owner will find them. Gain a +4 profane bonus on saving throws against fire effects.</p><h2 class=\"title\">Boons - Asura Ranas</h2><b>Source </b><a class=\"external-link\" href=\"http://paizo.com/products/btpy9tok\" target=\"_blank\"><i>Book of the Damned pg. 111</i></a><br />Over time, the mightiest of the asuras complete enough cycles of reincarnation and build upon the atrocities committed over multiple lives to incarnate into the most powerful of their kind: the asura ranas.<br /><br /> Asura ranas are lawful evil demigods that range in power from CR 26 to CR 30. Each asura rana detailed below is given an obedience, but the boons they grant are less complex than those granted by archdevils, manifesting as spell-like abilities usable once per day each.<br /><br /><b>1: </b> <i>fireball</i><br /><b>2: </b> <i>delayed blast fireball</i><br /><b>3: </b> <i>meteor swarm</i><br /><br /><p></p><div style=\"position:relative;left:0%;border:2px ridge #434343;width:100%;height:100%\"><div class=\"wiki-content-full\"><iframe style=\"overflow-y:hidden;width:100%;height:450px\" src=\"https://pathfinderwiki.com/wiki/Zurapadyn\"> </iframe></div>\n </div>",
  "flags": {
    "monks-enhanced-journal": {
      "type": "journal"
    }
  },
  "_id": "YU9qQ9jMnYRvhMOB",
  "pages": [],
  "_key": "!journal!YU9qQ9jMnYRvhMOB"
}