{
  "_id": "QMaEzYXQ0pJVfe4W",
  "name": "1.2.7.08. Goblin Subraces",
  "flags": {
    "cf": {
      "id": "temp_ykdxmtr383k"
    }
  },
  "content": "<h3 class=\"framing\"><img title=\"PFS Legal\" src=\"modules/pf-content/assets/PathfinderSocietySymbol.gif\" />&nbsp;Oversized Goblins</h3>\n<p><strong>Source</strong>&nbsp;<em>Monster Codex pg. 104</em><br />A few goblins attain a much larger size than their kin. No one is exactly sure why they grow to be giants among their kind, but it&rsquo;s probably due to a combination of luck, diet, and constant access to food. These goblins are monsters among their own kind, not just in height, but also in girth and in strength. If not cast out for eating all of the tribe&rsquo;s food, oversized goblins often become the bosses of their tribes, and the most powerful of them become chiefs.<br /><br />Oversized goblins are Medium size, and grow to 4 to 5 feet tall. They tend to be particularly obese, weighing between 225 and 275 pounds. Instead of the normal racial ability score modifiers for goblins, oversized goblins gain a +2 bonus to Strength, a +2 bonus to Dexterity, and a &ndash;2 penalty to Charisma.</p>",
  "pages": [],
  "_key": "!journal!QMaEzYXQ0pJVfe4W"
}