{
  "_id": "zOA9QmZKLKiZAsfW",
  "name": "1.3.3. Carrying Capacity",
  "flags": {
    "cf": {
      "id": "temp_ovzeb5v7gv"
    }
  },
  "content": "<p>@Compendium[pf-content.pf-rules.8scSEgBEtJZj0suf]{(Index) Basic Rules}</p>\n<p>@Compendium[pf-content.pf-rules.lm0j3gk5D1zbMSty]{1.3. Ability Scores}</p>\n<ul>\n<li>@Compendium[pf-content.pf-rules.rjdwOtqTXzWZxHdL]{1.3.1. Generating Ability Scores}</li>\n<li>@Compendium[pf-content.pf-rules.h5FyB8UrkmgirwW6]{1.3.2. Abilities and Spellcasters}</li>\n<li><strong>@Compendium[pf-content.pf-rules.zOA9QmZKLKiZAsfW]{1.3.3. Carrying Capacity}</strong></li>\n</ul>\n<hr />\n<p><strong>Source</strong>&nbsp;<em>PRPG Core Rulebook pg. 169</em></p>\n<p>These carrying capacity rules determine how much a character&rsquo;s equipment slows him down. Encumbrance comes in two parts: encumbrance by armor and encumbrance by total weight.</p>\n<p>&nbsp;</p>\n<p><strong>Encumbrance by Armor</strong>: A character&rsquo;s armor determines his maximum Dexterity bonus to AC, armor check penalty, speed, and running speed (see Table 6&ndash;6). Unless your character is weak or carrying a lot of gear, that&rsquo;s all you need to know; the extra gear your character carries won&rsquo;t slow him down any more than the armor already does.</p>\n<p>If your character is weak or carrying a lot of gear, however, then you&rsquo;ll need to calculate encumbrance by weight. Doing so is most important when your character is trying to carry some heavy object.</p>\n<p>&nbsp;</p>\n<p><strong>Encumbrance by Weight</strong>: If you want to determine whether your character&rsquo;s gear is heavy enough to slow him down more than his armor already does, total the weight of all the character&rsquo;s items, including armor, weapons, and gear (see appropriate tables in Chapter 6). Compare this total to the character&rsquo;s Strength on Table 7&ndash;4. Depending on the character&rsquo;s carrying capacity, he or she may be carrying a light, medium, or heavy load. Like armor, a character&rsquo;s load affects his maximum Dexterity bonus to AC, carries a check penalty (which works like an armor check penalty), reduces the character&rsquo;s speed, and affects how fast the character can run, as shown on Table 7&ndash;5. A medium or heavy load counts as medium or heavy armor for the purpose of abilities or skills that are restricted by armor. Carrying a light load does not encumber a character.</p>\n<p>If your character is wearing armor, use the worse figure (from armor or from load) for each category. Do not stack the penalties.</p>\n<p>&nbsp;</p>\n<p><strong>Lifting and Dragging</strong>: A character can lift as much as his maximum load over his head. A character&rsquo;s maximum load is the highest amount of weight listed for a character&rsquo;s Strength in the heavy load column of Table 7&ndash;4.</p>\n<p>A character can lift as much as double his maximum load off the ground, but he or she can only stagger around with it. While overloaded in this way, the character loses any Dexterity bonus to AC and can move only 5 feet per round (as a full-round action).</p>\n<p>A character can generally push or drag along the ground as much as five times his maximum load. Favorable conditions can double these numbers, and bad circumstances can reduce them by half or more.</p>\n<p>&nbsp;</p>\n<p><strong>Bigger and Smaller Creatures</strong>: The figures on Table 7&ndash;4 are for Medium bipedal creatures. A larger bipedal creature can carry more weight depending on its size category, as follows: Large &times;2, Huge &times;4, Gargantuan &times;8, Colossal &times;16. A smaller creature can carry less weight depending on its size category, as follows: Small &times;3/4, Tiny &times;1/2, Diminutive &times;1/4, Fine &times;1/8.</p>\n<p>Quadrupeds can carry heavier loads than bipeds can. Multiply the values corresponding to the creature&rsquo;s Strength score from Table 7&ndash;4 by the appropriate modifier, as follows: Fine &times;1/4, Diminutive &times;1/2, Tiny &times;3/4, Small &times;1, Medium &times;1-1/2, Large &times;3, Huge &times;6, Gargantuan &times;12, Colossal &times;24.</p>\n<p>&nbsp;</p>\n<p><strong>Tremendous Strength</strong>: For Strength scores not shown on Table 7&ndash;4, find the Strength score between 20 and 29 that has the same number in the &ldquo;ones&rdquo; digit as the creature&rsquo;s Strength score does and multiply the numbers in that row by 4 for every 10 points the creature&rsquo;s Strength is above the score for that row.</p>\n<p>&nbsp;</p>\n<h2>Table 7-4: Carrying Capacity</h2>\n<table style=\"height: 496px; width: 63.4918%;\" border=\"1\">\n<thead>\n<tr style=\"height: 16px;\">\n<td style=\"width: 26.0256%; height: 16px; text-align: center;\" scope=\"col\">Strength Score</td>\n<td style=\"width: 25.641%; height: 16px; text-align: center;\" scope=\"col\">Light Load</td>\n<td style=\"width: 23.0769%; height: 16px; text-align: center;\" scope=\"col\">Medium Load</td>\n<td style=\"width: 25%; height: 16px; text-align: center;\" scope=\"col\">Heavy Load</td>\n</tr>\n</thead>\n<tbody>\n<tr style=\"height: 16px;\">\n<td style=\"width: 26.0256%; height: 16px; text-align: center;\">1</td>\n<td style=\"width: 25.641%; height: 16px; text-align: center;\">3 lbs. or less</td>\n<td style=\"width: 23.0769%; height: 16px; text-align: center;\">4-6 lbs.</td>\n<td style=\"width: 25%; height: 16px; text-align: center;\">7-10 lbs.</td>\n</tr>\n<tr style=\"height: 16px;\">\n<td style=\"width: 26.0256%; height: 16px; text-align: center;\">2</td>\n<td style=\"width: 25.641%; height: 16px; text-align: center;\">6 lbs. or less</td>\n<td style=\"width: 23.0769%; height: 16px; text-align: center;\">7-13 lbs.</td>\n<td style=\"width: 25%; height: 16px; text-align: center;\">14-20 lbs.</td>\n</tr>\n<tr style=\"height: 16px;\">\n<td style=\"width: 26.0256%; height: 16px; text-align: center;\">3</td>\n<td style=\"width: 25.641%; height: 16px; text-align: center;\">10 lbs. or less</td>\n<td style=\"width: 23.0769%; height: 16px; text-align: center;\">11-20 lbs.</td>\n<td style=\"width: 25%; height: 16px; text-align: center;\">21-30 lbs.</td>\n</tr>\n<tr style=\"height: 16px;\">\n<td style=\"width: 26.0256%; height: 16px; text-align: center;\">4</td>\n<td style=\"width: 25.641%; height: 16px; text-align: center;\">13 lbs. or less</td>\n<td style=\"width: 23.0769%; height: 16px; text-align: center;\">13-26 lbs.</td>\n<td style=\"width: 25%; height: 16px; text-align: center;\">27-40 lbs.</td>\n</tr>\n<tr style=\"height: 16px;\">\n<td style=\"width: 26.0256%; height: 16px; text-align: center;\">5</td>\n<td style=\"width: 25.641%; height: 16px; text-align: center;\">16 lbs. or less</td>\n<td style=\"width: 23.0769%; height: 16px; text-align: center;\">17-33 lbs.</td>\n<td style=\"width: 25%; height: 16px; text-align: center;\">34-50 lbs.</td>\n</tr>\n<tr style=\"height: 16px;\">\n<td style=\"width: 26.0256%; height: 16px; text-align: center;\">6</td>\n<td style=\"width: 25.641%; height: 16px; text-align: center;\">20 lbs. or less</td>\n<td style=\"width: 23.0769%; height: 16px; text-align: center;\">21-40 lbs.</td>\n<td style=\"width: 25%; height: 16px; text-align: center;\">41-60 lbs.</td>\n</tr>\n<tr style=\"height: 16px;\">\n<td style=\"width: 26.0256%; height: 16px; text-align: center;\">7</td>\n<td style=\"width: 25.641%; height: 16px; text-align: center;\">23 lbs. or less</td>\n<td style=\"width: 23.0769%; height: 16px; text-align: center;\">24-46 lbs.</td>\n<td style=\"width: 25%; height: 16px; text-align: center;\">47-70 lbs.</td>\n</tr>\n<tr style=\"height: 16px;\">\n<td style=\"width: 26.0256%; height: 16px; text-align: center;\">8</td>\n<td style=\"width: 25.641%; height: 16px; text-align: center;\">26 lbs. or less</td>\n<td style=\"width: 23.0769%; height: 16px; text-align: center;\">27-53 lbs.</td>\n<td style=\"width: 25%; height: 16px; text-align: center;\">54-80 lbs.</td>\n</tr>\n<tr style=\"height: 16px;\">\n<td style=\"width: 26.0256%; height: 16px; text-align: center;\">9</td>\n<td style=\"width: 25.641%; height: 16px; text-align: center;\">30 lbs. or less</td>\n<td style=\"width: 23.0769%; height: 16px; text-align: center;\">31-60 lbs.</td>\n<td style=\"width: 25%; height: 16px; text-align: center;\">61-90 lbs.</td>\n</tr>\n<tr style=\"height: 16px;\">\n<td style=\"width: 26.0256%; height: 16px; text-align: center;\">10</td>\n<td style=\"width: 25.641%; height: 16px; text-align: center;\">33 lbs. or less</td>\n<td style=\"width: 23.0769%; height: 16px; text-align: center;\">34-66 lbs.</td>\n<td style=\"width: 25%; height: 16px; text-align: center;\">67-100 lbs.</td>\n</tr>\n<tr style=\"height: 16px;\">\n<td style=\"width: 26.0256%; height: 16px; text-align: center;\">11</td>\n<td style=\"width: 25.641%; height: 16px; text-align: center;\">38 lbs. or less</td>\n<td style=\"width: 23.0769%; height: 16px; text-align: center;\">39-76 lbs.</td>\n<td style=\"width: 25%; height: 16px; text-align: center;\">77-115 lbs.</td>\n</tr>\n<tr style=\"height: 16px;\">\n<td style=\"width: 26.0256%; height: 16px; text-align: center;\">12</td>\n<td style=\"width: 25.641%; height: 16px; text-align: center;\">43 lbs. or less</td>\n<td style=\"width: 23.0769%; height: 16px; text-align: center;\">44-86 lbs.</td>\n<td style=\"width: 25%; height: 16px; text-align: center;\">87-130 lbs.</td>\n</tr>\n<tr style=\"height: 16px;\">\n<td style=\"width: 26.0256%; height: 16px; text-align: center;\">13</td>\n<td style=\"width: 25.641%; height: 16px; text-align: center;\">50 lbs. or less</td>\n<td style=\"width: 23.0769%; height: 16px; text-align: center;\">51-100 lbs.</td>\n<td style=\"width: 25%; height: 16px; text-align: center;\">101-150 lbs.</td>\n</tr>\n<tr style=\"height: 16px;\">\n<td style=\"width: 26.0256%; height: 16px; text-align: center;\">14</td>\n<td style=\"width: 25.641%; height: 16px; text-align: center;\">58 lbs. or less</td>\n<td style=\"width: 23.0769%; height: 16px; text-align: center;\">59-116 lbs.</td>\n<td style=\"width: 25%; height: 16px; text-align: center;\">117-175 lbs.</td>\n</tr>\n<tr style=\"height: 16px;\">\n<td style=\"width: 26.0256%; height: 16px; text-align: center;\">15</td>\n<td style=\"width: 25.641%; height: 16px; text-align: center;\">66 lbs. or less</td>\n<td style=\"width: 23.0769%; height: 16px; text-align: center;\">67-134 lbs.</td>\n<td style=\"width: 25%; height: 16px; text-align: center;\">134-200 lbs.</td>\n</tr>\n<tr style=\"height: 16px;\">\n<td style=\"width: 26.0256%; height: 16px; text-align: center;\">16</td>\n<td style=\"width: 25.641%; height: 16px; text-align: center;\">76 lbs. or less</td>\n<td style=\"width: 23.0769%; height: 16px; text-align: center;\">77-153 lbs.</td>\n<td style=\"width: 25%; height: 16px; text-align: center;\">154-230 lbs.</td>\n</tr>\n<tr style=\"height: 16px;\">\n<td style=\"width: 26.0256%; height: 16px; text-align: center;\">17</td>\n<td style=\"width: 25.641%; height: 16px; text-align: center;\">86 lbs. or less</td>\n<td style=\"width: 23.0769%; height: 16px; text-align: center;\">87-173 lbs.</td>\n<td style=\"width: 25%; height: 16px; text-align: center;\">174-260 lbs.</td>\n</tr>\n<tr style=\"height: 16px;\">\n<td style=\"width: 26.0256%; height: 16px; text-align: center;\">18</td>\n<td style=\"width: 25.641%; height: 16px; text-align: center;\">100 lbs. or less</td>\n<td style=\"width: 23.0769%; height: 16px; text-align: center;\">101-200 lbs.</td>\n<td style=\"width: 25%; height: 16px; text-align: center;\">201-300 lbs.</td>\n</tr>\n<tr style=\"height: 16px;\">\n<td style=\"width: 26.0256%; height: 16px; text-align: center;\">19</td>\n<td style=\"width: 25.641%; height: 16px; text-align: center;\">116 lbs. or less</td>\n<td style=\"width: 23.0769%; height: 16px; text-align: center;\">117-233 lbs.</td>\n<td style=\"width: 25%; height: 16px; text-align: center;\">234-350 lbs.</td>\n</tr>\n<tr style=\"height: 16px;\">\n<td style=\"width: 26.0256%; height: 16px; text-align: center;\">20</td>\n<td style=\"width: 25.641%; height: 16px; text-align: center;\">133 lbs. or less</td>\n<td style=\"width: 23.0769%; height: 16px; text-align: center;\">134-266 lbs.</td>\n<td style=\"width: 25%; height: 16px; text-align: center;\">267-400 lbs.</td>\n</tr>\n<tr style=\"height: 16px;\">\n<td style=\"width: 26.0256%; height: 16px; text-align: center;\">21</td>\n<td style=\"width: 25.641%; height: 16px; text-align: center;\">153 lbs. or less</td>\n<td style=\"width: 23.0769%; height: 16px; text-align: center;\">154-306 lbs.</td>\n<td style=\"width: 25%; height: 16px; text-align: center;\">307-460 lbs.</td>\n</tr>\n<tr style=\"height: 16px;\">\n<td style=\"width: 26.0256%; height: 16px; text-align: center;\">22</td>\n<td style=\"width: 25.641%; height: 16px; text-align: center;\">173 lbs. or less</td>\n<td style=\"width: 23.0769%; height: 16px; text-align: center;\">174-346 lbs.</td>\n<td style=\"width: 25%; height: 16px; text-align: center;\">347-520 lbs.</td>\n</tr>\n<tr style=\"height: 16px;\">\n<td style=\"width: 26.0256%; height: 16px; text-align: center;\">23</td>\n<td style=\"width: 25.641%; height: 16px; text-align: center;\">200 lbs. or less</td>\n<td style=\"width: 23.0769%; height: 16px; text-align: center;\">201-400 lbs.</td>\n<td style=\"width: 25%; height: 16px; text-align: center;\">401-600 lbs.</td>\n</tr>\n<tr style=\"height: 16px;\">\n<td style=\"width: 26.0256%; height: 16px; text-align: center;\">24</td>\n<td style=\"width: 25.641%; height: 16px; text-align: center;\">233 lbs. or less</td>\n<td style=\"width: 23.0769%; height: 16px; text-align: center;\">234-466 lbs.</td>\n<td style=\"width: 25%; height: 16px; text-align: center;\">467-700 lbs.</td>\n</tr>\n<tr style=\"height: 16px;\">\n<td style=\"width: 26.0256%; height: 16px; text-align: center;\">25</td>\n<td style=\"width: 25.641%; height: 16px; text-align: center;\">266 lbs. or less</td>\n<td style=\"width: 23.0769%; height: 16px; text-align: center;\">267-533 lbs.</td>\n<td style=\"width: 25%; height: 16px; text-align: center;\">534-800 lbs.</td>\n</tr>\n<tr style=\"height: 16px;\">\n<td style=\"width: 26.0256%; height: 16px; text-align: center;\">26</td>\n<td style=\"width: 25.641%; height: 16px; text-align: center;\">306 lbs. or less</td>\n<td style=\"width: 23.0769%; height: 16px; text-align: center;\">307-613 lbs.</td>\n<td style=\"width: 25%; height: 16px; text-align: center;\">614-920 lbs.</td>\n</tr>\n<tr style=\"height: 16px;\">\n<td style=\"width: 26.0256%; height: 16px; text-align: center;\">27</td>\n<td style=\"width: 25.641%; height: 16px; text-align: center;\">346 lbs. or less</td>\n<td style=\"width: 23.0769%; height: 16px; text-align: center;\">347-693 lbs.</td>\n<td style=\"width: 25%; height: 16px; text-align: center;\">694-1,040 lbs.</td>\n</tr>\n<tr style=\"height: 16px;\">\n<td style=\"width: 26.0256%; height: 16px; text-align: center;\">28</td>\n<td style=\"width: 25.641%; height: 16px; text-align: center;\">400 lbs. or less</td>\n<td style=\"width: 23.0769%; height: 16px; text-align: center;\">401-800 lbs.</td>\n<td style=\"width: 25%; height: 16px; text-align: center;\">801-1,200 lbs.</td>\n</tr>\n<tr style=\"height: 16px;\">\n<td style=\"width: 26.0256%; height: 16px; text-align: center;\">29</td>\n<td style=\"width: 25.641%; height: 16px; text-align: center;\">466 lbs. or less</td>\n<td style=\"width: 23.0769%; height: 16px; text-align: center;\">467-933 lbs.</td>\n<td style=\"width: 25%; height: 16px; text-align: center;\">934-1,400 lbs.</td>\n</tr>\n<tr style=\"height: 16px;\">\n<td style=\"width: 26.0256%; height: 16px; text-align: center;\">+10</td>\n<td style=\"width: 25.641%; height: 16px; text-align: center;\">&times;4</td>\n<td style=\"width: 23.0769%; height: 16px; text-align: center;\">&times;4</td>\n<td style=\"width: 25%; height: 16px; text-align: center;\">&times;4</td>\n</tr>\n</tbody>\n</table>\n<p>&nbsp;</p>\n<h2>Table 7-5: Encumbrance Effects</h2>\n<table style=\"width: 78.2423%; height: 101px;\" border=\"1\">\n<thead>\n<tr style=\"height: 16px;\">\n<td style=\"width: 62.6923%; height: 16px;\" colspan=\"3\" scope=\"col\">&nbsp;</td>\n<td style=\"width: 36.1539%; height: 16px; text-align: center;\" colspan=\"3\" scope=\"col\">Speed</td>\n</tr>\n<tr style=\"height: 16px;\">\n<td style=\"width: 16.9231%; height: 16px; text-align: center;\" scope=\"col\">Load</td>\n<td style=\"width: 17.1795%; height: 16px; text-align: center;\" scope=\"col\">Max Dex</td>\n<td style=\"width: 28.5897%; height: 16px; text-align: center;\" scope=\"col\">Check Penalty</td>\n<td style=\"width: 13.8462%; height: 16px; text-align: center;\" scope=\"col\">(30 ft.)</td>\n<td style=\"width: 13.9744%; height: 16px; text-align: center;\" scope=\"col\">(20 ft.)</td>\n<td style=\"width: 8.33333%; height: 16px; text-align: center;\" scope=\"col\">Run</td>\n</tr>\n</thead>\n<tbody>\n<tr style=\"height: 16px;\">\n<td style=\"width: 16.9231%; height: 16px; text-align: center;\">Medium</td>\n<td style=\"width: 17.1795%; height: 16px; text-align: center;\">+3</td>\n<td style=\"width: 28.5897%; height: 16px; text-align: center;\">-3</td>\n<td style=\"width: 13.8462%; height: 16px; text-align: center;\">20 ft.</td>\n<td style=\"width: 13.9744%; height: 16px; text-align: center;\">15 ft.</td>\n<td style=\"width: 8.33333%; height: 16px; text-align: center;\">&times;4</td>\n</tr>\n<tr style=\"height: 16px;\">\n<td style=\"width: 16.9231%; height: 16px; text-align: center;\">Heavy</td>\n<td style=\"width: 17.1795%; height: 16px; text-align: center;\">+1</td>\n<td style=\"width: 28.5897%; height: 16px; text-align: center;\">-6</td>\n<td style=\"width: 13.8462%; height: 16px; text-align: center;\">20 ft.</td>\n<td style=\"width: 13.9744%; height: 16px; text-align: center;\">15 ft.</td>\n<td style=\"width: 8.33333%; height: 16px; text-align: center;\">&times;3</td>\n</tr>\n</tbody>\n</table>\n<p>&nbsp;</p>\n<h2>Armor and Encumbrance for Other Base Speeds</h2>\n<p>The table below provides reduced speed figures for all basespeeds from 5 feet to 120 feet (in 5-foot increments).</p>\n<table style=\"height: 437px; width: 44.2518%;\" border=\"1\">\n<thead>\n<tr>\n<td style=\"text-align: center; width: 47.8205%;\" scope=\"col\">Base Speed</td>\n<td style=\"text-align: center; width: 51.5385%;\" scope=\"col\">Reduced Speed</td>\n</tr>\n</thead>\n<tbody>\n<tr>\n<td style=\"text-align: center; width: 47.8205%;\">5 ft.</td>\n<td style=\"text-align: center; width: 51.5385%;\">5 ft.</td>\n</tr>\n<tr>\n<td style=\"text-align: center; width: 47.8205%;\">10 ft.-15 ft.</td>\n<td style=\"text-align: center; width: 51.5385%;\">10 ft.</td>\n</tr>\n<tr>\n<td style=\"text-align: center; width: 47.8205%;\">20 ft.</td>\n<td style=\"text-align: center; width: 51.5385%;\">15 ft.</td>\n</tr>\n<tr>\n<td style=\"text-align: center; width: 47.8205%;\">25 ft.-30 ft.ft.</td>\n<td style=\"text-align: center; width: 51.5385%;\">20 ft.</td>\n</tr>\n<tr>\n<td style=\"text-align: center; width: 47.8205%;\">35 ft.</td>\n<td style=\"text-align: center; width: 51.5385%;\">25 ft.</td>\n</tr>\n<tr>\n<td style=\"text-align: center; width: 47.8205%;\">40 ft.-45 ft.</td>\n<td style=\"text-align: center; width: 51.5385%;\">30 ft.</td>\n</tr>\n<tr>\n<td style=\"text-align: center; width: 47.8205%;\">50 ft.</td>\n<td style=\"text-align: center; width: 51.5385%;\">35 ft.</td>\n</tr>\n<tr>\n<td style=\"text-align: center; width: 47.8205%;\">55 ft.-60 ft.</td>\n<td style=\"text-align: center; width: 51.5385%;\">40 ft.</td>\n</tr>\n<tr>\n<td style=\"text-align: center; width: 47.8205%;\">65 ft.</td>\n<td style=\"text-align: center; width: 51.5385%;\">45 ft.</td>\n</tr>\n<tr>\n<td style=\"text-align: center; width: 47.8205%;\">70 ft.-75 ft.</td>\n<td style=\"text-align: center; width: 51.5385%;\">50 ft.</td>\n</tr>\n<tr>\n<td style=\"text-align: center; width: 47.8205%;\">80 ft.</td>\n<td style=\"text-align: center; width: 51.5385%;\">55 ft.</td>\n</tr>\n<tr>\n<td style=\"text-align: center; width: 47.8205%;\">85 ft.-90 ft.</td>\n<td style=\"text-align: center; width: 51.5385%;\">60 ft.</td>\n</tr>\n<tr>\n<td style=\"text-align: center; width: 47.8205%;\">95 ft.</td>\n<td style=\"text-align: center; width: 51.5385%;\">65 ft.</td>\n</tr>\n<tr>\n<td style=\"text-align: center; width: 47.8205%;\">100 ft.-105 ft.</td>\n<td style=\"text-align: center; width: 51.5385%;\">70 ft.</td>\n</tr>\n<tr>\n<td style=\"text-align: center; width: 47.8205%;\">110 ft.</td>\n<td style=\"text-align: center; width: 51.5385%;\">75 ft.</td>\n</tr>\n<tr>\n<td style=\"text-align: center; width: 47.8205%;\">115 ft.-120 ft.</td>\n<td style=\"text-align: center; width: 51.5385%;\">80 ft.</td>\n</tr>\n</tbody>\n</table>",
  "pages": [],
  "_key": "!journal!zOA9QmZKLKiZAsfW"
}