{
  "_id": "h5FyB8UrkmgirwW6",
  "name": "1.3.2. Abilities and Spellcasters",
  "flags": {
    "cf": {
      "id": "temp_ovzeb5v7gv"
    }
  },
  "content": "<p>@Compendium[pf-content.pf-rules.8scSEgBEtJZj0suf]{(Index) Basic Rules}</p>\n<p>@Compendium[pf-content.pf-rules.lm0j3gk5D1zbMSty]{1.3. Ability Scores}</p>\n<ul>\n<li>@Compendium[pf-content.pf-rules.rjdwOtqTXzWZxHdL]{1.3.1. Generating Ability Scores}</li>\n<li><strong>@Compendium[pf-content.pf-rules.h5FyB8UrkmgirwW6]{1.3.2. Abilities and Spellcasters}</strong></li>\n<li>@Compendium[pf-content.pf-rules.zOA9QmZKLKiZAsfW]{1.3.3. Carrying Capacity}</li>\n</ul>\n<hr />\n<p><strong>Source</strong> <em>PRPG Core Rulebook pg. 16</em></p>\n<p>The ability that governs bonus spells depends on what type of spellcaster your character is: Intelligence for wizards; Wisdom for clerics, druids, and rangers; and Charisma for bards, paladins, and sorcerers.</p>\n<p>In addition to having a high ability score, a spellcaster must be of a high enough class level to be able to cast spells or use spell slots of a given spell level.</p>\n<p>See the class descriptions for details.</p>",
  "pages": [],
  "_key": "!journal!h5FyB8UrkmgirwW6"
}