{
  "_id": "iO98MfTiAuGYTEYV",
  "name": "1.6.04. Improved Familiar List",
  "flags": {
    "cf": {
      "id": "temp_9roknj7g5zd"
    }
  },
  "content": "<p>@Compendium[pf-content.pf-rules.Ic1tlF3EE1QNW3kE]{(Index)}</p>\n<p>@Compendium[pf-content.pf-rules.8scSEgBEtJZj0suf]{(Index) Basic Rules}</p>\n<ul>\n<li>@Compendium[pf-content.pf-rules.KTAUEzhZCUioQdqK]{1.6. Familiars}\n<ul>\n<li>@Compendium[pf-content.pf-rules.veGCPC3JzsxR5MnQ]{1.6.01. Familiar Basics}</li>\n<li>@Compendium[pf-content.pf-rules.aja8EOSAA4RagQT3]{1.6.02. Familiar Ability Descriptions}</li>\n<li>@Compendium[pf-content.pf-rules.ObzGkbjtwZP7ZJtr]{1.6.03. Familiar List}</li>\n<li><strong>@Compendium[pf-content.pf-rules.iO98MfTiAuGYTEYV]{1.6.04. Improved Familiar List}</strong></li>\n<li>@Compendium[pf-content.pf-rules.1M5KD9yy2yLQ9RVo]{1.6.05. Small and Vermin Familiars}</li>\n<li>@Compendium[pf-content.pf-rules.ORtPnTEJdt3O9xHf]{1.6.06. Approximating Familiars}</li>\n<li>@Compendium[pf-content.pf-rules.bLW7my2JM1AWHcPt]{1.6.07. Controlling Companions, Familiars, and Followers}</li>\n</ul>\n</li>\n</ul>\n<hr />\n<p>&nbsp;</p>\n<table style=\"width: 97.3516%; height: 1152px;\" border=\"1\" cellpadding=\"5\">\n<thead>\n<tr style=\"height: 16px;\">\n<th style=\"width: 33.6704%; height: 16px;\">Familiar</th>\n<th style=\"width: 36.978%; height: 16px;\">Alignment</th>\n<th style=\"width: 28.6689%; height: 16px;\">Arcane Spellcaster Level</th>\n</tr>\n</thead>\n<tbody>\n<tr style=\"height: 16px;\">\n<td style=\"width: 33.6704%; height: 16px;\">@Compendium[pf-content.pf-familiars.u5TajQuOMVZgk1mT]{Aeon, Paracletus}</td>\n<td style=\"width: 36.978%; height: 16px;\">Neutral</td>\n<td style=\"width: 28.6689%; height: 16px;\">7th</td>\n</tr>\n<tr style=\"height: 16px;\">\n<td style=\"width: 33.6704%; height: 16px;\">@Compendium[pf-content.pf-familiars.HrqwccbgE9ZqzrGq]{Agathion, Silvanshee}</td>\n<td style=\"width: 36.978%; height: 16px;\">Neutral good</td>\n<td style=\"width: 28.6689%; height: 16px;\">7th</td>\n</tr>\n<tr style=\"height: 16px;\">\n<td style=\"width: 33.6704%; height: 16px;\">@Compendium[pf-content.pf-familiars.ugi2jH8ZLVmDO785]{Almiraj}</td>\n<td style=\"width: 36.978%; height: 16px;\">Any</td>\n<td style=\"width: 28.6689%; height: 16px;\">5th</td>\n</tr>\n<tr style=\"height: 16px;\">\n<td style=\"width: 33.6704%; height: 16px;\">@Compendium[pf-content.pf-familiars.Av9QAMRRLnqxGY2L]{Angel, Cassisian}</td>\n<td style=\"width: 36.978%; height: 16px;\">Lawful good</td>\n<td style=\"width: 28.6689%; height: 16px;\">7th</td>\n</tr>\n<tr style=\"height: 16px;\">\n<td style=\"width: 33.6704%; height: 16px;\">@Compendium[pf-content.pf-familiars.8GzctfaXpliRmYM8]{Archon, Harbinger}</td>\n<td style=\"width: 36.978%; height: 16px;\">Lawful good</td>\n<td style=\"width: 28.6689%; height: 16px;\">7th</td>\n</tr>\n<tr style=\"height: 16px;\">\n<td style=\"width: 33.6704%; height: 16px;\">@Compendium[pf-content.pf-familiars.8GQ96W3sXEZO017o]{Asura, Tripurasura}</td>\n<td style=\"width: 36.978%; height: 16px;\">Lawful evil</td>\n<td style=\"width: 28.6689%; height: 16px;\">7th</td>\n</tr>\n<tr style=\"height: 16px;\">\n<td style=\"width: 33.6704%; height: 16px;\">@Compendium[pf-content.pf-familiars.9p6QP7WVvRiQ7bgz]{Azata, Lyrakien}</td>\n<td style=\"width: 36.978%; height: 16px;\">Chaotic good</td>\n<td style=\"width: 28.6689%; height: 16px;\">7th</td>\n</tr>\n<tr style=\"height: 16px;\">\n<td style=\"width: 33.6704%; height: 16px;\">@Compendium[pf-content.pf-familiars.14ziFcrp6SfJctWJ]{Beheaded}</td>\n<td style=\"width: 36.978%; height: 16px;\">Neutral evil</td>\n<td style=\"width: 28.6689%; height: 16px;\">3rd</td>\n</tr>\n<tr style=\"height: 16px;\">\n<td style=\"width: 33.6704%; height: 16px;\">@Compendium[pf-content.pf-familiars.9LdCM92EVUZvIBcJ]{Brain Mole}</td>\n<td style=\"width: 36.978%; height: 16px;\">Neutral</td>\n<td style=\"width: 28.6689%; height: 16px;\">5th</td>\n</tr>\n<tr style=\"height: 16px;\">\n<td style=\"width: 33.6704%; height: 16px;\">@Compendium[pf-content.pf-familiars.TSBL07ilaLV10VIp]{Brownie}</td>\n<td style=\"width: 36.978%; height: 16px;\">Neutral</td>\n<td style=\"width: 28.6689%; height: 16px;\">5th</td>\n</tr>\n<tr style=\"height: 16px;\">\n<td style=\"width: 33.6704%; height: 16px;\">@Compendium[pf-content.pf-familiars.f6mF9s9GaUh7lZOg]{Caligraphy Wyrm}</td>\n<td style=\"width: 36.978%; height: 16px;\">Any</td>\n<td style=\"width: 28.6689%; height: 16px;\">7th</td>\n</tr>\n<tr style=\"height: 16px;\">\n<td style=\"width: 33.6704%; height: 16px;\">@Compendium[pf-content.pf-familiars.FFWh9dZ3ucFHon1t]{Carbuncle}</td>\n<td style=\"width: 36.978%; height: 16px;\">Neutral</td>\n<td style=\"width: 28.6689%; height: 16px;\">5th</td>\n</tr>\n<tr style=\"height: 16px;\">\n<td style=\"width: 33.6704%; height: 16px;\">@Compendium[pf-content.pf-familiars.yWJdyMUC5IXLp0Sw]{Cat Sith}</td>\n<td style=\"width: 36.978%; height: 16px;\">Chaotic neutral</td>\n<td style=\"width: 28.6689%; height: 16px;\">7th</td>\n</tr>\n<tr style=\"height: 16px;\">\n<td style=\"width: 33.6704%; height: 16px;\">@Compendium[pf-content.pf-familiars.gTwPgLnzzvrpmDxc]{Caypup}</td>\n<td style=\"width: 36.978%; height: 16px;\">Chaotic good</td>\n<td style=\"width: 28.6689%; height: 16px;\">7th</td>\n</tr>\n<tr style=\"height: 16px;\">\n<td style=\"width: 33.6704%; height: 16px;\">@Compendium[pf-content.pf-familiars.3N4HhQnBgy54Avmy]{Ceru}</td>\n<td style=\"width: 36.978%; height: 16px;\">Any</td>\n<td style=\"width: 28.6689%; height: 16px;\">7th</td>\n</tr>\n<tr style=\"height: 16px;\">\n<td style=\"width: 33.6704%; height: 16px;\">@Compendium[pf-content.pf-familiars.cfheGDU5aDWv9VGc]{Chuspiki}</td>\n<td style=\"width: 36.978%; height: 16px;\">Chaotic</td>\n<td style=\"width: 28.6689%; height: 16px;\">7th</td>\n</tr>\n<tr style=\"height: 16px;\">\n<td style=\"width: 33.6704%; height: 16px;\">@Compendium[pf-content.pf-familiars.SxrVrD0fP4rWnTef]{Clockwork Familiar}</td>\n<td style=\"width: 36.978%; height: 16px;\">Any</td>\n<td style=\"width: 28.6689%; height: 16px;\">7th</td>\n</tr>\n<tr style=\"height: 16px;\">\n<td style=\"width: 33.6704%; height: 16px;\">@Compendium[pf-content.pf-familiars.ncQrF6QMfd2ijN8g]{Coral Capuchin}</td>\n<td style=\"width: 36.978%; height: 16px;\">Within one step of Neutral</td>\n<td style=\"width: 28.6689%; height: 16px;\">3rd</td>\n</tr>\n<tr style=\"height: 16px;\">\n<td style=\"width: 33.6704%; height: 16px;\">@Compendium[pf-content.pf-familiars.9hzTnLck8fUK9jyw]{Cyphergull}</td>\n<td style=\"width: 36.978%; height: 16px;\">Within one step of Neutral</td>\n<td style=\"width: 28.6689%; height: 16px;\">7th</td>\n</tr>\n<tr style=\"height: 16px;\">\n<td style=\"width: 33.6704%; height: 16px;\">@Compendium[pf-content.pf-familiars.gmmmQDaXGfTejZlL]{Daemon, Cacodaemon}</td>\n<td style=\"width: 36.978%; height: 16px;\">Neutral evil</td>\n<td style=\"width: 28.6689%; height: 16px;\">7th</td>\n</tr>\n<tr style=\"height: 16px;\">\n<td style=\"width: 33.6704%; height: 16px;\">@Compendium[pf-content.pf-familiars.dWBa7YP7vSmBDDkA]{Quasit}</td>\n<td style=\"width: 36.978%; height: 16px;\">Chaotic evil</td>\n<td style=\"width: 28.6689%; height: 16px;\">7th</td>\n</tr>\n<tr style=\"height: 16px;\">\n<td style=\"width: 33.6704%; height: 16px;\">@Compendium[pf-content.pf-familiars.u6VZRmy9UvbXd7rs]{Devil, Imp}</td>\n<td style=\"width: 36.978%; height: 16px;\">Lawful evil</td>\n<td style=\"width: 28.6689%; height: 16px;\">7th</td>\n</tr>\n<tr style=\"height: 16px;\">\n<td style=\"width: 33.6704%; height: 16px;\">@Compendium[pf-content.pf-familiars.FKtSTJgE0dJkR4RG]{Dire Rat}</td>\n<td style=\"width: 36.978%; height: 16px;\">Neutral</td>\n<td style=\"width: 28.6689%; height: 16px;\">3rd</td>\n</tr>\n<tr style=\"height: 16px;\">\n<td style=\"width: 33.6704%; height: 16px;\">@Compendium[pf-content.pf-familiars.mZi1lDtyWxoaX06Y]{Div, Doru}</td>\n<td style=\"width: 36.978%; height: 16px;\">Neutral evil</td>\n<td style=\"width: 28.6689%; height: 16px;\">7th</td>\n</tr>\n<tr style=\"height: 16px;\">\n<td style=\"width: 33.6704%; height: 16px;\">@Compendium[pf-content.pf-familiars.wps3hEr8dqFac0ej]{Faerie Dragon}</td>\n<td style=\"width: 36.978%; height: 16px;\">Within one step of Chaotic good</td>\n<td style=\"width: 28.6689%; height: 16px;\">7th</td>\n</tr>\n<tr style=\"height: 16px;\">\n<td style=\"width: 33.6704%; height: 16px;\">@Compendium[pf-content.pf-familiars.UZ2GoutibWkvFFTW]{Tidepool Dragon}</td>\n<td style=\"width: 36.978%; height: 16px;\">Within one step of Chaotic neutral</td>\n<td style=\"width: 28.6689%; height: 16px;\">7th</td>\n</tr>\n<tr style=\"height: 16px;\">\n<td style=\"width: 33.6704%; height: 16px;\">@Compendium[pf-content.pf-familiars.yOJLdXnmw3brhBvx]{Shadow Drake}</td>\n<td style=\"width: 36.978%; height: 16px;\">Evil</td>\n<td style=\"width: 28.6689%; height: 16px;\">7th</td>\n</tr>\n<tr style=\"height: 16px;\">\n<td style=\"width: 33.6704%; height: 16px;\">@Compendium[pf-content.pf-familiars.tFg4TBKkrBrzjGDn]{Dweomercat Cub}</td>\n<td style=\"width: 36.978%; height: 16px;\">Chaotic Neutral</td>\n<td style=\"width: 28.6689%; height: 16px;\">7th</td>\n</tr>\n<tr style=\"height: 16px;\">\n<td style=\"width: 33.6704%; height: 16px;\">\n<p>@Compendium[pf-content.pf-familiars.XMkHU4xSZQyebb6J]{Small Aether Elemental}</p>\n<p>@Compendium[pf-content.pf-familiars.U0qTjFhRT93FHyYp]{Small Air Elemental}</p>\n<p>@Compendium[pf-content.pf-familiars.LAfGLYQLaqVbUbt9]{Small Earth Elemental}</p>\n<p>@Compendium[pf-content.pf-familiars.JpM4dHnmQaaL5QZO]{Small Fire Elemental}</p>\n<p>@Compendium[pf-content.pf-familiars.Hcu0GCa34hZ5gCli]{Small Lightning Elemental}</p>\n<p>@Compendium[pf-content.pf-familiars.lAAr1DgdsEINgXos]{Small Magma Elemental}</p>\n<p>@Compendium[pf-content.pf-familiars.h4IrE86Ad2km96ta]{Small Water Elemental}</p>\n</td>\n<td style=\"width: 36.978%; height: 16px;\">Neutral</td>\n<td style=\"width: 28.6689%; height: 16px;\">5th</td>\n</tr>\n<tr style=\"height: 16px;\">\n<td style=\"width: 33.6704%; height: 16px;\">@Compendium[pf-content.pf-familiars.uXRGQHirOx3U3wjf]{Familiar Automaton}</td>\n<td style=\"width: 36.978%; height: 16px;\">Lawful neutral</td>\n<td style=\"width: 28.6689%; height: 16px;\">7th</td>\n</tr>\n<tr style=\"height: 16px;\">\n<td style=\"width: 33.6704%; height: 16px;\">@Compendium[pf-content.pf-familiars.SxrVrD0fP4rWnTef]{Clockwork Familiar}</td>\n<td style=\"width: 36.978%; height: 16px;\">Any</td>\n<td style=\"width: 28.6689%; height: 16px;\">7th</td>\n</tr>\n<tr style=\"height: 16px;\">\n<td style=\"width: 33.6704%; height: 16px;\">@Compendium[pf-content.pf-familiars.lR3lZFZztJEBoXAf]{Galluvix}</td>\n<td style=\"width: 36.978%; height: 16px;\">&ndash;</td>\n<td style=\"width: 28.6689%; height: 16px;\">7th</td>\n</tr>\n<tr style=\"height: 16px;\">\n<td style=\"width: 33.6704%; height: 16px;\">@Compendium[pf-content.pf-familiars.Aievay6a9LBhlbD6]{Gremlin, Nuglub}</td>\n<td style=\"width: 36.978%; height: 16px;\">Chaotic evil</td>\n<td style=\"width: 28.6689%; height: 16px;\">7th</td>\n</tr>\n<tr style=\"height: 16px;\">\n<td style=\"width: 33.6704%; height: 16px;\">@Compendium[pf-content.pf-familiars.EYKUs8Wlg8TVUmkM]{Hellfire Ignis}</td>\n<td style=\"width: 36.978%; height: 16px;\">Any</td>\n<td style=\"width: 28.6689%; height: 16px;\">7th</td>\n</tr>\n<tr style=\"height: 16px;\">\n<td style=\"width: 33.6704%; height: 16px;\">@Compendium[pf-content.pf-familiars.5Sp99yWEydCCieRi]{Homunculus}</td>\n<td style=\"width: 36.978%; height: 16px;\">Any</td>\n<td style=\"width: 28.6689%; height: 16px;\">7th</td>\n</tr>\n<tr style=\"height: 16px;\">\n<td style=\"width: 33.6704%; height: 16px;\">@Compendium[pf-content.pf-familiars.3ajF7gjo5N8peMv1]{Impundulu}</td>\n<td style=\"width: 36.978%; height: 16px;\">Neutral evil</td>\n<td style=\"width: 28.6689%; height: 16px;\">7th</td>\n</tr>\n<tr style=\"height: 16px;\">\n<td style=\"width: 33.6704%; height: 16px;\">@Compendium[pf-content.pf-familiars.kyWg24EHhvL6kVpJ]{Inevitable, Arbiter}</td>\n<td style=\"width: 36.978%; height: 16px;\">Lawful neutral</td>\n<td style=\"width: 28.6689%; height: 16px;\">7th</td>\n</tr>\n<tr style=\"height: 16px;\">\n<td style=\"width: 33.6704%; height: 16px;\">@Compendium[pf-content.pf-familiars.4TI4UECygEx8uJ9L]{Isitoq}</td>\n<td style=\"width: 36.978%; height: 16px;\">Evil</td>\n<td style=\"width: 28.6689%; height: 16px;\">5th</td>\n</tr>\n<tr style=\"height: 16px;\">\n<td style=\"width: 33.6704%; height: 16px;\">@Compendium[pf-content.pf-familiars.iSYlCwT2NLour1G4]{Kami, Shikigami}</td>\n<td style=\"width: 36.978%; height: 16px;\">Lawful neutral</td>\n<td style=\"width: 28.6689%; height: 16px;\">7th</td>\n</tr>\n<tr style=\"height: 16px;\">\n<td style=\"width: 33.6704%; height: 16px;\">@Compendium[pf-content.pf-familiars.HVhVphay56oZ3heg]{Kyton, Augur}</td>\n<td style=\"width: 36.978%; height: 16px;\">Lawful evil</td>\n<td style=\"width: 28.6689%; height: 16px;\">7th</td>\n</tr>\n<tr style=\"height: 16px;\">\n<td style=\"width: 33.6704%; height: 16px;\">@Compendium[pf-content.pf-familiars.RTzxYaQCt338SWyH]{Mephit}</td>\n<td style=\"width: 36.978%; height: 16px;\">Neutral</td>\n<td style=\"width: 28.6689%; height: 16px;\">7th</td>\n</tr>\n<tr style=\"height: 16px;\">\n<td style=\"width: 33.6704%; height: 16px;\">@Compendium[pf-content.pf-familiars.Vgkomq1OoooLGWey]{Mockingfey}</td>\n<td style=\"width: 36.978%; height: 16px;\">Chaotic neutral</td>\n<td style=\"width: 28.6689%; height: 16px;\">5th</td>\n</tr>\n<tr style=\"height: 16px;\">\n<td style=\"width: 33.6704%; height: 16px;\">@Compendium[pf-content.pf-familiars.kgIMgSTHo4JM18zG]{Nycar}</td>\n<td style=\"width: 36.978%; height: 16px;\">Chaotic neutral</td>\n<td style=\"width: 28.6689%; height: 16px;\">7th</td>\n</tr>\n<tr style=\"height: 16px;\">\n<td style=\"width: 33.6704%; height: 16px;\">@Compendium[pf-content.pf-familiars.OK8irhKaMVve6V45]{Spirit Oni}</td>\n<td style=\"width: 36.978%; height: 16px;\">Lawful evil</td>\n<td style=\"width: 28.6689%; height: 16px;\">7th</td>\n</tr>\n<tr style=\"height: 16px;\">\n<td style=\"width: 33.6704%; height: 16px;\">@Compendium[pf-content.pf-familiars.ahL2Mbf2cnELGlMU]{Pipefox}</td>\n<td style=\"width: 36.978%; height: 16px;\">Neutral</td>\n<td style=\"width: 28.6689%; height: 16px;\">7th</td>\n</tr>\n<tr style=\"height: 16px;\">\n<td style=\"width: 33.6704%; height: 16px;\">@Compendium[pf-content.pf-familiars.RfZ4IRF7z8sIR21s]{Pooka}</td>\n<td style=\"width: 36.978%; height: 16px;\">Neutral</td>\n<td style=\"width: 28.6689%; height: 16px;\">7th</td>\n</tr>\n<tr style=\"height: 16px;\">\n<td style=\"width: 33.6704%; height: 16px;\">@Compendium[pf-content.pf-familiars.IHhXVCAOAnwkmNWU]{Voidworm}</td>\n<td style=\"width: 36.978%; height: 16px;\">Chaotic neutral</td>\n<td style=\"width: 28.6689%; height: 16px;\">7th</td>\n</tr>\n<tr style=\"height: 16px;\">\n<td style=\"width: 33.6704%; height: 16px;\">@Compendium[pf-content.pf-familiars.xrvwqb9Jg9wkfGiF]{Pseudodragon}</td>\n<td style=\"width: 36.978%; height: 16px;\">Neutral good</td>\n<td style=\"width: 28.6689%; height: 16px;\">7th</td>\n</tr>\n<tr style=\"height: 16px;\">\n<td style=\"width: 33.6704%; height: 16px;\">@Compendium[pf-content.pf-familiars.g1fj6L92xHcG8DgT]{Pseudosphinx}</td>\n<td style=\"width: 36.978%; height: 16px;\">Neutral</td>\n<td style=\"width: 28.6689%; height: 16px;\">7th</td>\n</tr>\n<tr style=\"height: 16px;\">\n<td style=\"width: 33.6704%; height: 16px;\">@Compendium[pf-content.pf-familiars.2bHmwMuLmrNHIwm2]{Psychopomp, Nosoi}</td>\n<td style=\"width: 36.978%; height: 16px;\">Neutral</td>\n<td style=\"width: 28.6689%; height: 16px;\">7th</td>\n</tr>\n<tr style=\"height: 16px;\">\n<td style=\"width: 33.6704%; height: 16px;\">@Compendium[pf-content.pf-familiars.Et69cPlDDy3G8oIa]{Pyrausta}</td>\n<td style=\"width: 36.978%; height: 16px;\">Chaotic neutral</td>\n<td style=\"width: 28.6689%; height: 16px;\">3rd</td>\n</tr>\n<tr style=\"height: 16px;\">\n<td style=\"width: 33.6704%; height: 16px;\">@Compendium[pf-content.pf-familiars.QZs17krkK2NHyIDW]{Cythnigot, Qlippoth}</td>\n<td style=\"width: 36.978%; height: 16px;\">Chaotic evil</td>\n<td style=\"width: 28.6689%; height: 16px;\">7th</td>\n</tr>\n<tr style=\"height: 16px;\">\n<td style=\"width: 33.6704%; height: 16px;\">@Compendium[pf-content.pf-familiars.TuYJILh48RimcJjf]{Raktavarna}</td>\n<td style=\"width: 36.978%; height: 16px;\">Lawful evil</td>\n<td style=\"width: 28.6689%; height: 16px;\">7th</td>\n</tr>\n<tr style=\"height: 16px;\">\n<td style=\"width: 33.6704%; height: 16px;\">@Compendium[pf-content.pf-familiars.1wwg4KJuby0CB1vI]{Ratling}</td>\n<td style=\"width: 36.978%; height: 16px;\">Chaotic evil</td>\n<td style=\"width: 28.6689%; height: 16px;\">7th</td>\n</tr>\n<tr style=\"height: 16px;\">\n<td style=\"width: 33.6704%; height: 16px;\">@Compendium[pf-content.pf-familiars.iBnYqMjKwrAAn1WR]{Esipil, Sahkil}</td>\n<td style=\"width: 36.978%; height: 16px;\">Neutral evil</td>\n<td style=\"width: 28.6689%; height: 16px;\">7th</td>\n</tr>\n<tr style=\"height: 16px;\">\n<td style=\"width: 33.6704%; height: 16px;\">@Compendium[pf-content.pf-familiars.ZOdVXWV4SvytEJ1k]{Sin Seeker}</td>\n<td style=\"width: 36.978%; height: 16px;\">Any</td>\n<td style=\"width: 28.6689%; height: 16px;\">5th</td>\n</tr>\n<tr style=\"height: 16px;\">\n<td style=\"width: 33.6704%; height: 16px;\">@Compendium[pf-content.pf-familiars.FEeG27DtYxA1N6VF]{Skvader}</td>\n<td style=\"width: 36.978%; height: 16px;\">Neutral</td>\n<td style=\"width: 28.6689%; height: 16px;\">3rd</td>\n</tr>\n<tr style=\"height: 16px;\">\n<td style=\"width: 33.6704%; height: 16px;\">@Compendium[pf-content.pf-familiars.6wgMmsFS3r8NLNKm]{Smokeshade}</td>\n<td style=\"width: 36.978%; height: 16px;\">Within one step of neutral evil</td>\n<td style=\"width: 28.6689%; height: 16px;\">7th</td>\n</tr>\n<tr style=\"height: 16px;\">\n<td style=\"width: 33.6704%; height: 16px;\">@Compendium[pf-content.pf-familiars.IkhZvC7RO8qjpIXM]{Sprite}</td>\n<td style=\"width: 36.978%; height: 16px;\">Chaotic neutral</td>\n<td style=\"width: 28.6689%; height: 16px;\">5th</td>\n</tr>\n<tr style=\"height: 16px;\">\n<td style=\"width: 33.6704%; height: 16px;\">@Compendium[pf-content.pf-familiars.15gp2Xd82o66dGQo]{Liminal Sprite}</td>\n<td style=\"width: 36.978%; height: 16px;\">Chaotic</td>\n<td style=\"width: 28.6689%; height: 16px;\">7th</td>\n</tr>\n<tr style=\"height: 16px;\">\n<td style=\"width: 33.6704%; height: 16px;\">@Compendium[pf-content.pf-familiars.OFb52JpaZpr0LwoA]{Stirge}</td>\n<td style=\"width: 36.978%; height: 16px;\">Neutral</td>\n<td style=\"width: 28.6689%; height: 16px;\">5th</td>\n</tr>\n<tr style=\"height: 16px;\">\n<td style=\"width: 33.6704%; height: 16px;\">@Compendium[pf-content.pf-familiars.PfxrR4m4zOBZNEsH]{Wolpertinger}</td>\n<td style=\"width: 36.978%; height: 16px;\">Neutral</td>\n<td style=\"width: 28.6689%; height: 16px;\">5th</td>\n</tr>\n<tr style=\"height: 16px;\">\n<td style=\"width: 33.6704%; height: 16px;\">\n<p>@Compendium[pf-content.pf-familiars.X2yQ0FE1CDjqOBpw]{Wysp, Aether}</p>\n<p>@Compendium[pf-content.pf-familiars.J66lqvvdzfkWEB0g]{Wysp, Air}</p>\n<p>@Compendium[pf-content.pf-familiars.V0iZzhN2Rw1g8314]{Wysp, Earth}</p>\n<p>@Compendium[pf-content.pf-familiars.xvKY7HSPrB0p7v9j]{Wysp, Fire}</p>\n<p>@Compendium[pf-content.pf-familiars.D64BPRUxB81GYMy7]{Wysp, Water}</p>\n</td>\n<td style=\"width: 36.978%; height: 16px;\">Any</td>\n<td style=\"width: 28.6689%; height: 16px;\">7th</td>\n</tr>\n<tr style=\"height: 16px;\">\n<td style=\"width: 33.6704%; height: 16px;\">@Compendium[pf-content.pf-familiars.YKrLzjkWXvEzkPNX]{Xiao}</td>\n<td style=\"width: 36.978%; height: 16px;\">Any</td>\n<td style=\"width: 28.6689%; height: 16px;\">7th</td>\n</tr>\n<tr style=\"height: 16px;\">\n<td style=\"width: 33.6704%; height: 16px;\">@Compendium[pf-content.pf-familiars.ZefKwPFt4HlFkJZx]{Zoog}</td>\n<td style=\"width: 36.978%; height: 16px;\">Chaotic neutral</td>\n<td style=\"width: 28.6689%; height: 16px;\">5th</td>\n</tr>\n</tbody>\n</table>",
  "pages": [],
  "_key": "!journal!iO98MfTiAuGYTEYV"
}