{
  "_id": "rBQpOuMH0B3O44Da",
  "name": "2.02.1. Standard Actions",
  "flags": {
    "cf": {
      "id": "temp_kwrlg0mpo9a"
    }
  },
  "content": "<p>@Compendium[pf-content.pf-rules.OiNttXSDW598DIEs]{(Index) Combat Rules}</p>\n<p>@Compendium[pf-content.pf-rules.VZCpOrg3jCyNaYeg]{2.02. Actions in Combat}</p>\n<ul>\n<li><strong>@Compendium[pf-content.pf-rules.rBQpOuMH0B3O44Da]{2.02.1. Standard Actions}</strong></li>\n</ul>\n<ul>\n<li style=\"list-style-type: none;\">\n<ul>\n<li style=\"font-weight: 400;\">@Compendium[pf-content.pf-rules.PsEv51WUo7p8GpBc]{2.02.1.1. Attack}</li>\n<li style=\"font-weight: 400;\">@Compendium[pf-content.pf-rules.r0ymFTNYo4FzlMSq]{2.02.1.2. Activate Magic Item}</li>\n<li style=\"font-weight: 400;\">@Compendium[pf-content.pf-rules.qm7mqCXwfpA2EM6w]{2.02.1.3. Cast a Spell}</li>\n<li style=\"font-weight: 400;\">@Compendium[pf-content.pf-rules.QjHgjK8yLzdgS9C2]{2.02.1.4. Start/Complete Full-Round Action}</li>\n<li style=\"font-weight: 400;\">@Compendium[pf-content.pf-rules.YVJsIHmx7LM0vjis]{2.02.1.5. Total Defense}</li>\n<li style=\"font-weight: 400;\">@Compendium[pf-content.pf-rules.1gHRLA4nwxDAlhkT]{2.02.1.6. Use Special Ability}</li>\n</ul>\n</li>\n</ul>\n<hr />\n<p><strong>Source</strong> <em>PRPG Core Rulebook pg. 182</em></p>\n<p>Most of the common actions characters take, aside from movement, fall into the realm of standard actions.</p>\n<p>&nbsp;</p>",
  "pages": [],
  "_key": "!journal!rBQpOuMH0B3O44Da"
}