{
  "_id": "pIDiwty0LLzlVhru",
  "name": "2.02.7.3. Use Skill",
  "flags": {
    "cf": {
      "id": "temp_kwrlg0mpo9a"
    }
  },
  "content": "<p>@Compendium[pf-content.pf-rules.OiNttXSDW598DIEs]{(Index) Combat Rules}</p>\n<p>@Compendium[pf-content.pf-rules.VZCpOrg3jCyNaYeg]{2.02. Actions in Combat}</p>\n<ul>\n<li>@Compendium[pf-content.pf-rules.n3ejDpqIKzKy97TU]{2.02.7. Miscellaneous Actions}\n<ul>\n<li>@Compendium[pf-content.pf-rules.3GeZw8nK6Zjs2qvC]{2.02.7.1. Take 5-Foot Step}</li>\n<li>@Compendium[pf-content.pf-rules.PHjZollV2EfO7rAa]{2.02.7.2. Use Feat}</li>\n<li><strong>@Compendium[pf-content.pf-rules.pIDiwty0LLzlVhru]{2.02.7.3. Use Skill}</strong></li>\n</ul>\n</li>\n</ul>\n<hr />\n<p><strong>Source</strong> <em>PRPG Core Rulebook pg. 189</em></p>\n<p>Most skill uses are standard actions, but some might be move actions, full-round actions, free actions, or something else entirely.</p>\n<p>&nbsp;</p>\n<p>The individual skill descriptions in Chapter 4 tell you what sorts of actions are required to perform skills.</p>",
  "pages": [],
  "_key": "!journal!pIDiwty0LLzlVhru"
}