{
  "_id": "YVJsIHmx7LM0vjis",
  "name": "2.02.1.5. Total Defense",
  "flags": {
    "cf": {
      "id": "temp_kwrlg0mpo9a",
      "path": "Rules#/CF_SEP/Combat#/CF_SEP/02 Actions in Combat",
      "color": "#000000"
    }
  },
  "content": "<p>@Compendium[pf-content.pf-rules.OiNttXSDW598DIEs]{(Index) Combat Rules}</p>\n<p>@Compendium[pf-content.pf-rules.VZCpOrg3jCyNaYeg]{2.02. Actions in Combat}</p>\n<ul>\n<li>@Compendium[pf-content.pf-rules.rBQpOuMH0B3O44Da]{2.02.1. Standard Actions}\n<ul>\n<li>@Compendium[pf-content.pf-rules.PsEv51WUo7p8GpBc]{2.02.1.1. Attack}</li>\n<li>@Compendium[pf-content.pf-rules.r0ymFTNYo4FzlMSq]{2.02.1.2. Activate Magic Item}</li>\n<li>@Compendium[pf-content.pf-rules.qm7mqCXwfpA2EM6w]{2.02.1.3. Cast a Spell}</li>\n<li>@Compendium[pf-content.pf-rules.QjHgjK8yLzdgS9C2]{2.02.1.4. Start/Complete Full-Round Action}</li>\n<li><strong>@Compendium[pf-content.pf-rules.YVJsIHmx7LM0vjis]{2.02.1.5. Total Defense}</strong></li>\n<li>@Compendium[pf-content.pf-rules.1gHRLA4nwxDAlhkT]{2.02.1.6. Use Special Ability}</li>\n</ul>\n</li>\n</ul>\n<hr />\n<p><strong>Source</strong> <em>PRPG Core Rulebook pg. 185</em></p>\n<p>You can defend yourself as a standard action. You get a +4 dodge bonus to your AC for 1 round. Your AC improves at the start of this action. You can&rsquo;t combine total defense with fighting defensively or with the benefit of the Combat Expertise feat. You can&rsquo;t make attacks of opportunity while using total defense.</p>",
  "pages": [],
  "_key": "!journal!YVJsIHmx7LM0vjis"
}