{
  "_id": "adrsWQRvBNEI4q1M",
  "name": "2.02.3.4. Run",
  "flags": {
    "cf": {
      "id": "temp_kwrlg0mpo9a"
    }
  },
  "content": "<p>@Compendium[pf-content.pf-rules.OiNttXSDW598DIEs]{(Index) Combat Rules}</p>\n<p>@Compendium[pf-content.pf-rules.q5bgNObausAXw2UA]{2.02.3. Full-Round Actions}</p>\n<ul>\n<li>@Compendium[pf-content.pf-rules.8cm2RntAmLLlg7nz]{2.02.3.1. Full Attack}</li>\n<li>@Compendium[pf-content.pf-rules.EQdgZgwMQkFK2adC]{2.02.3.2. Cast a Spell}</li>\n<li>@Compendium[pf-content.pf-rules.pHyKz8UQhg8FImjY]{2.02.3.3. Move 5 Feet through Difficult Terrain}</li>\n<li><strong>@Compendium[pf-content.pf-rules.adrsWQRvBNEI4q1M]{2.02.3.4. Run}</strong></li>\n<li>@Compendium[pf-content.pf-rules.sDdDsMio3YkKR36L]{2.02.3.5. Use Special Ability}</li>\n<li>@Compendium[pf-content.pf-rules.A0PE1jTg1M6hXYax]{2.02.3.6. Withdraw}</li>\n</ul>\n<hr />\n<p><strong>Source</strong> <em>PRPG Core Rulebook pg. 188</em></p>\n<p>You can run as a full-round action. If you do, you do not also get a 5-foot step. When you run, you can move up to four times your speed in a straight line (or three times your speed if you&rsquo;re in heavy armor). You lose any Dexterity bonus to AC unless you have the @Compendium[pf-content.pf-feats.ZAQGmcCZqF1MIbxU]{Run} feat.</p>\n<p>&nbsp;</p>\n<p>You can run for a number of rounds equal to your Constitution score, but after that you must make a DC 10 Constitution check to continue running. You must check again each round in which you continue to run, and the DC of this check increases by 1 for each check you have made. When you fail this check, you must stop running. A character who has run to his limit must rest for 1 minute (10 rounds) before running again. During a rest period, a character can move no faster than a normal move action.</p>\n<p>&nbsp;</p>\n<p>You can&rsquo;t run across difficult terrain or if you can&rsquo;t see where you&rsquo;re going.</p>\n<p>A run represents a speed of about 13 miles per hour for an unencumbered human.</p>",
  "pages": [],
  "_key": "!journal!adrsWQRvBNEI4q1M"
}