{
  "_id": "QBZtZChctrkE8ksB",
  "name": "2.07.3.10. Trip",
  "flags": {
    "cf": {
      "id": "temp_tpupf50nq7c"
    }
  },
  "content": "<p>@Compendium[pf-content.pf-rules.OiNttXSDW598DIEs]{(Index) Combat Rules}</p>\n<p>@Compendium[pf-content.pf-rules.u7ymeeQewjTXVrlW]{2.07. Special Attacks}</p>\n<p>@Compendium[pf-content.pf-rules.CK4ZYweM6IifrrV0]{2.07.3. Combat Maneuvers}</p>\n<ul>\n<li>@Compendium[pf-content.pf-rules.4ZtXz1UxNVHAoK9F]{2.07.3.01. Bull Rush}</li>\n<li>@Compendium[pf-content.pf-rules.TOgcg1rD2rqozLK8]{2.07.3.02. Dirty Trick}</li>\n<li>@Compendium[pf-content.pf-rules.2e9cYCdNMg0E9nDP]{2.07.3.03. Disarm}</li>\n<li>@Compendium[pf-content.pf-rules.2QXapJZHDOdCaqJC]{2.07.3.04. Drag}</li>\n<li>@Compendium[pf-content.pf-rules.wwDkxmSkg7edogZk]{2.07.3.05. Grapple}</li>\n<li>@Compendium[pf-content.pf-rules.6txWY4yVuOOzjdRf]{2.07.3.06. Overrun}</li>\n<li>@Compendium[pf-content.pf-rules.8CRc1rPAFBfhJfBN]{2.07.3.07. Reposition}</li>\n<li>@Compendium[pf-content.pf-rules.LiqgRZYAPqTbhf18]{2.07.3.08. Steal}</li>\n<li>@Compendium[pf-content.pf-rules.bEwb7yQOidiPzb5v]{2.07.3.09. Sunder}</li>\n<li><strong>@Compendium[pf-content.pf-rules.QBZtZChctrkE8ksB]{2.07.3.10. Trip}</strong></li>\n</ul>\n<hr />\n<p><strong>Source</strong> <em>PRPG Core Rulebook pg. 201</em></p>\n<p>You can attempt to trip your opponent in place of a melee attack. You can only trip an opponent who is no more than one size category larger than you. If you do not have the Improved Trip feat, or a similar ability, initiating a trip provokes an attack of opportunity from the target of your maneuver.</p>\n<p>&nbsp;</p>\n<p>If your attack exceeds the target&rsquo;s CMD, the target is knocked prone. If your attack fails by 10 or more, you are knocked prone instead. If the target has more than two legs, add +2 to the DC of the combat maneuver attack roll for each additional leg it has.</p>\n<p>Some creatures&mdash;such as oozes, creatures without legs, and flying creatures&mdash;cannot be tripped.</p>",
  "pages": [],
  "_key": "!journal!QBZtZChctrkE8ksB"
}