{
  "_id": "F3gWgLEiEIgTpXmd",
  "name": "2.10.16. Paralysis",
  "flags": {
    "cf": {
      "id": "temp_v401ef5a9z"
    }
  },
  "content": "<p>@Compendium[pf-content.pf-rules.OiNttXSDW598DIEs]{(Index) Combat Rules}</p>\n<ul>\n<li>@Compendium[pf-content.pf-rules.ArJtyc6VMS8w5R1V]{2.10.01. Ability Score Bonuses}</li>\n<li>@Compendium[pf-content.pf-rules.njiOxWkkqHk5F5wX]{2.10.02. Ability Score Damage, Penalty, and Drain}</li>\n<li>@Compendium[pf-content.pf-rules.xpY9oe1ZnDpzXtEK]{2.10.03. Afflictions}</li>\n<li>@Compendium[pf-content.pf-rules.8q1lwFFEyleNp24c]{2.10.04. Blindsight and Blindsense}</li>\n<li>@Compendium[pf-content.pf-rules.Zo8P2hcDTfEW8ful]{2.10.05. Channel Resistance}</li>\n<li>@Compendium[pf-content.pf-rules.c2QYDs9lJzqZBbaS]{2.10.06. Charm and Compulsion}</li>\n<li>@Compendium[pf-content.pf-rules.PByXvAfEu30oCY6w]{2.10.07. Damage Reduction}</li>\n<li>@Compendium[pf-content.pf-rules.sM4GfGeQvrDfIWsI]{2.10.08. Darkvision}</li>\n<li>@Compendium[pf-content.pf-rules.FGJ9VUFTKmFBPENt]{2.10.09. Death Attacks}</li>\n<li>@Compendium[pf-content.pf-rules.PRLXtDrJ7WKN6YzH]{2.10.10. Energy Drain and Negative Levels}</li>\n<li>@Compendium[pf-content.pf-rules.pJcmOtjOQLzgp5Fr]{2.10.11. Energy Immunity and Vulnerability}</li>\n<li>@Compendium[pf-content.pf-rules.QD4WRJrKCaJh8Ez3]{2.10.12. Energy Resistance}</li>\n<li>@Compendium[pf-content.pf-rules.RPid0ZvH9nAN4IgC]{2.10.13. Fear}</li>\n<li>@Compendium[pf-content.pf-rules.teI2mSg16BCYCEDS]{2.10.14. Invisibility}</li>\n<li>@Compendium[pf-content.pf-rules.FfJv4ZrvXW5kxKb9]{2.10.15. Low-Light Vision}</li>\n<li><strong>@Compendium[pf-content.pf-rules.F3gWgLEiEIgTpXmd]{2.10.16. Paralysis}</strong></li>\n<li>@Compendium[pf-content.pf-rules.ev7xA6qT02JglaS0]{2.10.17. Scent}</li>\n<li>@Compendium[pf-content.pf-rules.BGRuRu4kSA0KlT3S]{2.10.18. Spell Resistance}</li>\n</ul>\n<hr />\n<p><strong>Source</strong> <em>PRPG Core Rulebook pg. 565</em></p>\n<p>Some monsters and spells have the supernatural or spell-like ability to paralyze their victims, immobilizing them through magical means. Paralysis from poison is discussed in the @Compendium[pf-content.pf-rules.xpY9oe1ZnDpzXtEK]{2.10.03. Afflictions} section.</p>\n<p>A paralyzed character cannot move, speak, or take any physical action. He is rooted to the spot, frozen and helpless. Not even friends can move his limbs. He may take purely mental actions, such as casting a spell with no components.</p>\n<p>A winged creature flying in the air at the time that it becomes paralyzed cannot flap its wings and falls. A swimmer can&rsquo;t swim and may drown.</p>",
  "pages": [],
  "_key": "!journal!F3gWgLEiEIgTpXmd"
}