{
  "_id": "UmpLag06bYxL4aUl",
  "name": "2.10.03.3. Infestations",
  "flags": {
    "cf": {
      "id": "temp_v401ef5a9z"
    }
  },
  "content": "<p>@Compendium[pf-content.pf-rules.OiNttXSDW598DIEs]{(Index) Combat Rules}</p>\n<p>@Compendium[pf-content.pf-rules.gzu4LYBcxAEzhEnd]{2.10. Special Abilities}</p>\n<p>@Compendium[pf-content.pf-rules.xpY9oe1ZnDpzXtEK]{2.10.03. Afflictions}</p>\n<ul>\n<li>@Compendium[pf-content.pf-rules.olc8NbzREqhR9ETZ]{2.10.03.1. Curses}</li>\n<li>@Compendium[pf-content.pf-rules.eMDcLEOn4gft6C5s]{2.10.03.2. Diseases}</li>\n<li><strong>@Compendium[pf-content.pf-rules.UmpLag06bYxL4aUl]{2.10.03.3. Infestations}</strong></li>\n<li>@Compendium[pf-content.pf-rules.kEWYsWvNyhPgjbC6]{2.10.03.4. Poison}</li>\n</ul>\n<hr />\n<p><strong>Source</strong> <em>GameMastery Guide pg. 245</em></p>\n<p>Parasites such as ear seekers or rot grubs cause infestations, a type of affliction similar to diseases. Infestations can only be cured through specific means; no matter how many saving throws are made, the infestation continues to afflict the target. While a remove disease spell (or similar effect) instantly halts an infestation, immunity to disease offers no protection, as the infestation itself is caused by parasites.</p>",
  "pages": [],
  "_key": "!journal!UmpLag06bYxL4aUl"
}