{
  "_id": "BGRuRu4kSA0KlT3S",
  "name": "2.10.18. Spell Resistance",
  "flags": {
    "cf": {
      "id": "temp_v401ef5a9z"
    }
  },
  "content": "<p>@Compendium[pf-content.pf-rules.OiNttXSDW598DIEs]{(Index) Combat Rules}</p>\n<ul>\n<li>@Compendium[pf-content.pf-rules.ArJtyc6VMS8w5R1V]{2.10.01. Ability Score Bonuses}</li>\n<li>@Compendium[pf-content.pf-rules.njiOxWkkqHk5F5wX]{2.10.02. Ability Score Damage, Penalty, and Drain}</li>\n<li>@Compendium[pf-content.pf-rules.xpY9oe1ZnDpzXtEK]{2.10.03. Afflictions}</li>\n<li>@Compendium[pf-content.pf-rules.8q1lwFFEyleNp24c]{2.10.04. Blindsight and Blindsense}</li>\n<li>@Compendium[pf-content.pf-rules.Zo8P2hcDTfEW8ful]{2.10.05. Channel Resistance}</li>\n<li>@Compendium[pf-content.pf-rules.c2QYDs9lJzqZBbaS]{2.10.06. Charm and Compulsion}</li>\n<li>@Compendium[pf-content.pf-rules.PByXvAfEu30oCY6w]{2.10.07. Damage Reduction}</li>\n<li>@Compendium[pf-content.pf-rules.sM4GfGeQvrDfIWsI]{2.10.08. Darkvision}</li>\n<li>@Compendium[pf-content.pf-rules.FGJ9VUFTKmFBPENt]{2.10.09. Death Attacks}</li>\n<li>@Compendium[pf-content.pf-rules.PRLXtDrJ7WKN6YzH]{2.10.10. Energy Drain and Negative Levels}</li>\n<li>@Compendium[pf-content.pf-rules.pJcmOtjOQLzgp5Fr]{2.10.11. Energy Immunity and Vulnerability}</li>\n<li>@Compendium[pf-content.pf-rules.QD4WRJrKCaJh8Ez3]{2.10.12. Energy Resistance}</li>\n<li>@Compendium[pf-content.pf-rules.RPid0ZvH9nAN4IgC]{2.10.13. Fear}</li>\n<li>@Compendium[pf-content.pf-rules.teI2mSg16BCYCEDS]{2.10.14. Invisibility}</li>\n<li>@Compendium[pf-content.pf-rules.FfJv4ZrvXW5kxKb9]{2.10.15. Low-Light Vision}</li>\n<li>@Compendium[pf-content.pf-rules.F3gWgLEiEIgTpXmd]{2.10.16. Paralysis}</li>\n<li>@Compendium[pf-content.pf-rules.ev7xA6qT02JglaS0]{2.10.17. Scent}</li>\n<li><strong>@Compendium[pf-content.pf-rules.BGRuRu4kSA0KlT3S]{2.10.18. Spell Resistance}</strong></li>\n</ul>\n<hr />\n<p><strong>Source</strong> <em>PRPG Core Rulebook pg. 565</em></p>\n<p>Spell resistance is the extraordinary ability to avoid being affected by spells. Some spells also grant spell resistance.</p>\n<p>&nbsp;</p>\n<p>To affect a creature that has spell resistance, a spellcaster must make a caster level check (1d20 + caster level) at least equal to the creature&rsquo;s spell resistance. The defender&rsquo;s spell resistance is like an Armor Class against magical attacks. If the caster fails the check, the spell doesn&rsquo;t affect the creature. The possessor does not have to do anything special to use spell resistance. The creature need not even be aware of the threat for its spell resistance to operate.</p>\n<p>Only spells and spell-like abilities are subject to spell resistance. Extraordinary and supernatural abilities (including enhancement bonuses on magic weapons) are not. A creature can have some abilities that are subject to spell resistance and some that are not. Even some spells ignore spell resistance; see When Spell Resistance Applies, below.</p>\n<p>A creature can voluntarily lower its spell resistance. Doing so is a standard action that does not provoke an attack of opportunity. Once a creature lowers its resistance, it remains down until the creature&rsquo;s next turn. At the beginning of the creature&rsquo;s next turn, the creature&rsquo;s spell resistance automatically returns unless the creature intentionally keeps it down (also a standard action that does not provoke an attack of opportunity).</p>\n<p>&nbsp;</p>\n<p>A creature&rsquo;s spell resistance never interferes with its own spells, items, or abilities.</p>\n<p>A creature with spell resistance cannot impart this power to others by touching them or standing in their midst. Only the rarest of creatures and a few magic items have the ability to bestow spell resistance upon another.</p>\n<p>Spell resistance does not stack, but rather overlaps.</p>\n<p>@Compendium[pf-content.pf-rules.NCoOEMryEMMhBOzI]{2.10.18.1. When Spell Resistance Applies}</p>\n<p>@Compendium[pf-content.pf-rules.kwXGX54IlZcswZMR]{2.10.18.2. Successful Spell Resistance}</p>",
  "pages": [],
  "_key": "!journal!BGRuRu4kSA0KlT3S"
}