{
  "_id": "4rFaiDXGOywk46xm",
  "name": "2.11.3.3. Crowd's Starting Attitude",
  "flags": {
    "cf": {
      "id": "temp_lw4dp01446"
    }
  },
  "content": "<p>@Compendium[pf-content.pf-rules.OiNttXSDW598DIEs]{(Index) Combat Rules}</p>\n<p>@Compendium[pf-content.pf-rules.OWmmbQYIhQmw9DVg]{2.11. Mastering Combat}</p>\n<p>@Compendium[pf-content.pf-rules.bcZ0k2bBZhVOw0Df]{2.11.3. Performance Combat}</p>\n<ul>\n<li>@Compendium[pf-content.pf-rules.Oh6nM47XMjljsx1Z]{2.11.3.1. Types of Performance Combat}</li>\n<li>@Compendium[pf-content.pf-rules.BipbhzlQ1Kmjo9RG]{2.11.3.2. Crowd Attitudes}</li>\n<li><strong>@Compendium[pf-content.pf-rules.4rFaiDXGOywk46xm]{2.11.3.3. Crowd's Starting Attitude}</strong></li>\n<li>@Compendium[pf-content.pf-rules.3dh0rKeTWE2IZgM8]{2.11.3.4. Performance Combat Check}</li>\n<li>@Compendium[pf-content.pf-rules.UB7hSZVCiSaGvyAP]{2.11.3.5. Performance Combat Check DC}</li>\n<li>@Compendium[pf-content.pf-rules.HFhU2Omn2KgQ4fyN]{2.11.3.6. Affecting the Crowd's Attitude}</li>\n</ul>\n<hr />\n<p><strong>Source</strong> <em>Ultimate Combat pg. 154</em></p>\n<p>The first thing a GM must do in a performance combat is determine the crowd&rsquo;s starting attitude. Typically a crowd starts out with an indifferent attitude toward each side, but it could start with an attitude that&rsquo;s a step higher or lower based on other circumstances. Favored champions of a fighting pit or a city may start at a higher attitude step, while outsiders, prisoners of war, or criminals may start at a lower attitude step.</p>\n<p>If you are running a series of combats, a crowd may start with a higher or lower starting attitude based on a combatant&rsquo;s or a group of combatants&rsquo; performance in the last bout, which is determined by the number of victory points the individual or group has (see the Serialized Performance Combats section).</p>",
  "pages": [],
  "_key": "!journal!4rFaiDXGOywk46xm"
}