{
  "_id": "1OzU64OdBpfa0bJR",
  "name": "3.0.2.4. Walls, Doors, and Detect Spells",
  "flags": {
    "cf": {
      "id": "temp_9qub9vhwndv",
      "path": "Rules#/CF_SEP/Environment#/CF_SEP/00 Dungeons",
      "color": "#000000"
    }
  },
  "content": "<p>@Compendium[pf-content.pf-rules.XOJpjqmBzwE4R4n0]{(Index) Environment}</p>\n<p>@Compendium[pf-content.pf-rules.v5dHsJ6gCghRXQnL]{3.0. Dungeons}</p>\n<ul>\n<li>@Compendium[pf-content.pf-rules.oM2nAFzXnVFIS0WD]{3.0.2.1. Walls}</li>\n<li>@Compendium[pf-content.pf-rules.J0yOXyPZB6M6ZUSi]{3.0.2.2. Floors}</li>\n<li>@Compendium[pf-content.pf-rules.YwZLtJ7Z59r1fx90]{3.0.2.3. Doors}</li>\n<li>@Compendium[pf-content.pf-rules.1OzU64OdBpfa0bJR]{3.0.2.4. Walls, Doors, and Detect Spells}</li>\n<li>@Compendium[pf-content.pf-rules.tEkx7SQLAENe8KM8]{3.0.2.5. Stairs}</li>\n<li>@Compendium[pf-content.pf-rules.1bkKb1E1A73Tp1IK]{3.0.2.6. Cave-Ins and Collapses (CR 8)}</li>\n<li>@Compendium[pf-content.pf-rules.hfI8oxi1ywlhrGfs]{3.0.2.7. Slimes, Molds, and Fungi}</li>\n</ul>\n<hr />\n<p><strong>Source</strong> <em>PRPG Core Rulebook pg. 415</em></p>\n<p>Stone walls, iron walls, and iron doors are usually thick enough to block most detect spells, such as detect thoughts. Wooden walls, wooden doors, and stone doors are usually not thick enough to do so. A secret stone door built into a wall and as thick as the wall itself (at least 1 foot) does block most detect spells.</p>",
  "pages": [],
  "_key": "!journal!1OzU64OdBpfa0bJR"
}