{
  "_id": "gGGKd0tOkXUqLZya",
  "name": "3.1.4. Wilderness Traps",
  "flags": {
    "cf": {
      "id": "temp_hm6u6jw181v",
      "path": "Rules#/CF_SEP/Environment#/CF_SEP/01 Traps",
      "color": "#000000"
    }
  },
  "content": "<p>@Compendium[pf-content.pf-rules.XOJpjqmBzwE4R4n0]{(Index) Environment}</p>\n<p>@Compendium[pf-content.pf-rules.mmx5KJLX4vsGZ7vz]{3.1. Traps}</p>\n<ul>\n<li>@Compendium[pf-content.pf-rules.3f7JZIvocYHSXzvd]{3.1.1. Elements of a Trap}</li>\n<li>@Compendium[pf-content.pf-rules.XIjPXv3Qe62dFI3Z]{3.1.2. List of Traps}</li>\n<li>@Compendium[pf-content.pf-rules.IYnf1w2TjcHO2ExM]{3.1.3. Designing a Trap}</li>\n<li>@Compendium[pf-content.pf-rules.gGGKd0tOkXUqLZya]{3.1.4. Wilderness Traps}</li>\n</ul>\n<hr />\n<p><strong>Source</strong> <em>Ultimate Wilderness pg. 172</em></p>\n<p>Skilled survivalists and trappers are adept at fashioning effective, if simple, traps from humble materials. A wilderness trap has an associated terrain wherein the raw materials for the trap are commonplace. Within these associated terrains, the base cost of each trap is calculated in sp rather than gp. Wilderness traps always have a CR of 5 or lower.</p>\n<p>&nbsp;</p>\n<p>When in a trap&rsquo;s associated terrain, instead of paying one-third the item&rsquo;s price in raw materials, the trap maker can attempt a Survival check against the normal Craft DC of the trap + 2 &times; the trap&rsquo;s CR. If successful, the trap maker finds the necessary materials in the wild after 1d4 hours of foraging + 1 hour per CR of the trap. She can then attempt a Craft (traps) check, also at the normal Craft DC + 2 &times; the trap&rsquo;s CR, to build the trap, which takes another 1d4 hours + 1 hour per CR of the trap.</p>\n<p>Traps built with such crude materials don&rsquo;t last long without maintenance; they have a cumulative 20% chance to break for every day they go without being tightened and reset (which requires 10 minutes of work but no additional skill checks).</p>\n<p>&nbsp;</p>\n<p>At the GM&rsquo;s discretion, other nonmagical mechanical traps may be considered to have associated terrains and use the wilderness trap construction rules.</p>\n<p>&nbsp;</p>\n<p>@Compendium[pf-content.pf-traps-and-haunts.gOYTKgLSSriihzMn]{Breakaway Vine (CR 1)}</p>\n<p>@Compendium[pf-content.pf-traps-and-haunts.A3huBLtNg7XnZX6b]{Musk Shower (CR 1)}</p>\n<p>@Compendium[pf-content.pf-traps-and-haunts.hjkyv1pG4N9LA8Ui]{Spring Snare (CR 1)}</p>\n<p>@Compendium[pf-content.pf-traps-and-haunts.mNXAilDDXTZPd9jD]{Swinging Log Trap (CR 1)}</p>\n<p>@Compendium[pf-content.pf-traps-and-haunts.f6FQF8HF8LZ1389J]{Tar Snare (CR 1)}</p>\n<p>@Compendium[pf-content.pf-traps-and-haunts.RMQpq5bP2OBm80EA]{Clam Clamp (CR 2)}</p>\n<p>@Compendium[pf-content.pf-traps-and-haunts.pN0bgO0SPqtomnJT]{Razor Grass (CR 3)}</p>\n<p>@Compendium[pf-content.pf-traps-and-haunts.iiXB40R5zhc8OR3r]{Breakaway Log (CR 4)}</p>\n<p>@Compendium[pf-content.pf-traps-and-haunts.Z0Va5RBYGcPs7ruj]{Spring-Arm Spike (CR 1)}</p>\n<p>@Compendium[pf-content.pf-traps-and-haunts.t99rAqZDgqNuwl1C]{Deadfall (CR 5)}</p>",
  "pages": [],
  "_key": "!journal!gGGKd0tOkXUqLZya"
}