{
  "_id": "XIjPXv3Qe62dFI3Z",
  "name": "3.1.2. List of Traps",
  "flags": {
    "cf": {
      "id": "temp_hm6u6jw181v",
      "path": "Rules#/CF_SEP/Environment#/CF_SEP/01 Traps",
      "color": "#000000"
    }
  },
  "content": "<p>@Compendium[pf-content.pf-rules.XOJpjqmBzwE4R4n0]{(Index) Environment}</p>\n<p>@Compendium[pf-content.pf-rules.mmx5KJLX4vsGZ7vz]{3.1. Traps}</p>\n<ul>\n<li>@Compendium[pf-content.pf-rules.3f7JZIvocYHSXzvd]{3.1.1. Elements of a Trap}</li>\n<li>@Compendium[pf-content.pf-rules.XIjPXv3Qe62dFI3Z]{3.1.2. List of Traps}</li>\n<li>@Compendium[pf-content.pf-rules.IYnf1w2TjcHO2ExM]{3.1.3. Designing a Trap}</li>\n<li>@Compendium[pf-content.pf-rules.gGGKd0tOkXUqLZya]{3.1.4. Wilderness Traps}</li>\n</ul>\n<hr />\n<p>&nbsp;</p>\n<p>@Compendium[pf-content.pf-traps-and-haunts.hbP7dHW2yAxnNXcr]{Acid Arrow Trap (CR 3)}</p>\n<p>@Compendium[pf-content.pf-traps-and-haunts.mMRMygLqntMFZjVE]{Arrow Trap (CR 1)}</p>\n<p>@Compendium[pf-content.pf-traps-and-haunts.2qcIyRdO16PGJ5qc]{Bone Box (CR 4)}</p>\n<p>@Compendium[pf-content.pf-traps-and-haunts.A5gziZIS9NFhXCn6]{Cave-in or Collapse (CR 8)}</p>\n<p>@Compendium[pf-content.pf-traps-and-haunts.rQqjSBZQY4IS5qsK]{Crusader's Blades (CR 2)}</p>\n<p>@Compendium[pf-content.pf-traps-and-haunts.sgNybvUi6TCHitjy]{Crushing Cage Trap (CR 11)}</p>\n<p>@Compendium[pf-content.pf-traps-and-haunts.5CLZiXJzKOQLsBrJ]{Crushing Stone Trap (CR 15)}</p>\n<p>@Compendium[pf-content.pf-traps-and-haunts.gImYwUBcSeBKS5I3]{Deadly Spear Trap (CR 18)}</p>\n<p>@Compendium[pf-content.pf-traps-and-haunts.Y17FFhENXFx5s8nM]{Dual Swinging Log Trap (CR 3)}</p>\n<p>@Compendium[pf-content.pf-traps-and-haunts.uiz6Ri1jgnRF8VUH]{Ettercap Spear Trap (CR 2)}</p>\n<p>@Compendium[pf-content.pf-traps-and-haunts.0COmOWQR3DdbeFxH]{Falling Bell Trap (CR 5)}</p>\n<p>@Compendium[pf-content.pf-traps-and-haunts.ggWvv3eAYifp0CVG]{Falling Bell Trap, Large (CR 12)}</p>\n<p>@Compendium[pf-content.pf-traps-and-haunts.0byndOqpKGNO7Q98]{Falling Blocks Trap (CR 5)}</p>\n<p>@Compendium[pf-content.pf-traps-and-haunts.IUXSzjwrldpOZxNV]{Falling Bricks (CR 3)}</p>\n<p>@Compendium[pf-content.pf-traps-and-haunts.yfsQW7T5OkoTTTHV]{Falling Portcullis Trap (CR 4)}</p>\n<p>@Compendium[pf-content.pf-traps-and-haunts.ZKgY2bR0bqu8UYRt]{Fireball Trap, Maximized (CR 13)}</p>\n<p>@Compendium[pf-content.pf-traps-and-haunts.YmVQfhzarUjPf6dW]{Gallery of Lightning (CR 9)}</p>\n<p>@Compendium[pf-content.pf-traps-and-haunts.EN08ipp1bBJxWALH]{Hail of Arrows Trap (CR 9)}</p>\n<p>@Compendium[pf-content.pf-traps-and-haunts.53SF4vKqcimXJGJH]{Hail of Bolts Trap (CR 6)}</p>\n<p>@Compendium[pf-content.pf-traps-and-haunts.Ko4unFmuTlTRDmuy]{Javelin Trap (CR 2)}</p>\n<p>@Compendium[pf-content.pf-traps-and-haunts.Dcbmj5dtfUsyjH4m]{Lightning Bolt Gallery Trap (CR 17)}</p>\n<p>@Compendium[pf-content.pf-traps-and-haunts.VRB0HqcTZJuMuKZs]{Meteor Swarm Trap (CR 19)}</p>\n<p>@Compendium[pf-content.pf-traps-and-haunts.3CqoMjtlET1vFlBn]{Molten Brass Trap (CR 10)}</p>\n<p>@Compendium[pf-content.pf-traps-and-haunts.ZsyB3VWlVEWpYqxe]{Pillar of 1,000 Arrows (CR 2)}</p>\n<p>@Compendium[pf-content.pf-traps-and-haunts.wMp93BnDvRbV3i1B]{Pit Trap, Chute w/Green Slime (CR 4)}</p>\n<p>@Compendium[pf-content.pf-traps-and-haunts.AYcvJnxSSQWYxzJ0]{Poison Dart Trap (CR 1)}</p>\n<p>@Compendium[pf-content.pf-traps-and-haunts.wpMzeneB480C5eov]{Rock Deadfall (CR 2)}</p>\n<p>@Compendium[pf-content.pf-traps-and-haunts.r8M4naJMbCDl5fRj]{Rolling Boulder Trap (CR 10)}</p>\n<p>@Compendium[pf-content.pf-traps-and-haunts.fIBgXoqL81erpkv8]{Room of Darts and Blades (CR 11)}</p>\n<p>@Compendium[pf-content.pf-traps-and-haunts.Gweo2ZMkJ8CCk5iI]{Stinging Wasps (CR 7)}</p>\n<p>@Compendium[pf-content.pf-traps-and-haunts.mNXAilDDXTZPd9jD]{Swinging Log Trap (CR 1)}</p>\n<p>@Compendium[pf-content.pf-traps-and-haunts.5CK7OMiFr608UjsI]{Wailing Maidens (CR 7)}</p>\n<p>@Compendium[pf-content.pf-traps-and-haunts.sB9tY1em206CPa8V]{Wyvern Arrow Trap (CR 6)}</p>",
  "pages": [],
  "_key": "!journal!XIjPXv3Qe62dFI3Z"
}