{
  "_id": "r4t1MHGGd6myKln7",
  "name": "3.2.8.1. Underwater Combat",
  "flags": {
    "cf": {
      "id": "temp_bn6zfitu3fu"
    }
  },
  "content": "<p>@Compendium[pf-content.pf-rules.XOJpjqmBzwE4R4n0]{(Index) Environment}</p>\n<p>@Compendium[pf-content.pf-rules.CPUpraqn1jz9vhMh]{3.2. Wilderness}</p>\n<ul>\n<li>@Compendium[pf-content.pf-rules.xiRC5p84P3tFW9mo]{3.2.8. Aquatic Terrain}\n<ul>\n<li>@Compendium[pf-content.pf-rules.r4t1MHGGd6myKln7]{3.2.8.1. Underwater Combat}</li>\n<li>@Compendium[pf-content.pf-rules.AlMWpchX9rOkfomx]{3.2.8.2. Floods}</li>\n</ul>\n</li>\n</ul>\n<hr />\n<p><strong>Source</strong> <em>PRPG Core Rulebook pg. 432</em></p>\n<p>Land-based creatures can have considerable difficulty when fighting in water. Water affects a creature&rsquo;s attack rolls, damage, and movement. In some cases a creature&rsquo;s opponents might get a bonus on attacks. The effects are summarized on Table 13&ndash;7. They apply whenever a character is swimming, walking in chest-deep water, or walking along the bottom of a body of water.</p>\n<p>&nbsp;</p>\n<h2>Ranged Attacks Underwater</h2>\n<p>Thrown weapons are ineffective underwater, even when launched from land. Attacks with other ranged weapons take a &ndash;2 penalty on attack rolls for every 5 feet of water they pass through, in addition to the normal penalties for range.</p>\n<p>&nbsp;</p>\n<h2>Attacks from Land</h2>\n<p>Characters swimming, floating, or treading water on the surface, or wading in water at least chest deep, have improved cover (+8 bonus to AC, +4 bonus on Reflex saves) from opponents on land. Land-bound opponents who have freedom of movement effects ignore this cover when making melee attacks against targets in the water. A completely submerged creature has total cover against opponents on land unless those opponents have freedom of movement effects. Magical effects are unaffected except for those that require attack rolls (which are treated like any other effects) and fire effects.</p>\n<p>&nbsp;</p>\n<h2>Fire</h2>\n<p>Nonmagical fire (including alchemist&rsquo;s fire) does not burn underwater. Spells or spell-like effects with the fire descriptor are ineffective underwater unless the caster makes a caster level check (DC 20 + spell level). If the check succeeds, the spell creates a bubble of steam instead of its usual fiery effect, but otherwise the spell works as described. A supernatural fire effect is ineffective underwater unless its description states otherwise. The surface of a body of water blocks line of effect for any fire spell. If the caster has made the caster level check to make the fire spell usable underwater, the surface still blocks the spell&rsquo;s line of effect.</p>\n<p>&nbsp;</p>\n<h2>Spellcasting Underwater</h2>\n<p>Casting spells while submerged can be difficult for those who cannot breathe underwater. A creature that cannot breathe water must make a concentration check (DC 15 + spell level) to cast a spell underwater (this is in addition to the caster level check to successfully cast a fire spell underwater). Creatures that can breathe water are unaffected and can cast spells normally. Some spells might function differently underwater, subject to GM discretion.</p>\n<p>&nbsp;</p>\n<h2>Table 13-7: Combat Adjustments Underwater</h2>\n<table style=\"width: 99.0354%; height: 175px;\" border=\"1\">\n<thead>\n<tr style=\"height: 16px;\">\n<td style=\"text-align: center; width: 23.9167%; height: 16px;\" scope=\"col\">&nbsp;</td>\n<td style=\"text-align: center; width: 43.7955%; height: 16px;\" colspan=\"2\" scope=\"col\">Attack/Damage</td>\n<td style=\"text-align: center; width: 31.9188%; height: 16px;\" colspan=\"2\" scope=\"col\">&nbsp;</td>\n</tr>\n<tr style=\"height: 36px;\">\n<td style=\"text-align: center; width: 23.9167%; height: 36px;\" scope=\"col\">&nbsp;</td>\n<td style=\"text-align: center; width: 27.0058%; height: 36px;\" scope=\"col\">Slashing or Bludgeoning</td>\n<td style=\"text-align: center; width: 16.7897%; height: 36px;\" scope=\"col\">Piercing</td>\n<td style=\"text-align: center; width: 16.9742%; height: 36px;\" scope=\"col\">Movement</td>\n<td style=\"text-align: center; width: 14.9446%; height: 36px;\" scope=\"col\">Off Balance?<sup>1</sup></td>\n</tr>\n</thead>\n<tbody>\n<tr style=\"height: 33px;\">\n<td style=\"text-align: center; width: 23.9167%; height: 33px;\">Freedom of movement</td>\n<td style=\"text-align: center; width: 27.0058%; height: 33px;\">normal/normal</td>\n<td style=\"text-align: center; width: 16.7897%; height: 33px;\">normal/normal</td>\n<td style=\"text-align: center; width: 16.9742%; height: 33px;\">normal</td>\n<td style=\"text-align: center; width: 14.9446%; height: 33px;\">No</td>\n</tr>\n<tr style=\"height: 16px;\">\n<td style=\"text-align: center; width: 23.9167%; height: 16px;\">Has a swim speed</td>\n<td style=\"text-align: center; width: 27.0058%; height: 16px;\">-2/half</td>\n<td style=\"text-align: center; width: 16.7897%; height: 16px;\">normal</td>\n<td style=\"text-align: center; width: 16.9742%; height: 16px;\">normal</td>\n<td style=\"text-align: center; width: 14.9446%; height: 16px;\">No</td>\n</tr>\n<tr style=\"height: 36px;\">\n<td style=\"text-align: center; width: 23.9167%; height: 36px;\">Successful Swim check</td>\n<td style=\"text-align: center; width: 27.0058%; height: 36px;\">-2/half<sup>2</sup></td>\n<td style=\"text-align: center; width: 16.7897%; height: 36px;\">normal</td>\n<td style=\"text-align: center; width: 16.9742%; height: 36px;\">quarter or half<sup>3</sup></td>\n<td style=\"text-align: center; width: 14.9446%; height: 36px;\">No</td>\n</tr>\n<tr style=\"height: 19px;\">\n<td style=\"text-align: center; width: 23.9167%; height: 19px;\">Firm footing<sup>4</sup></td>\n<td style=\"text-align: center; width: 27.0058%; height: 19px;\">-2/half<sup>2</sup></td>\n<td style=\"text-align: center; width: 16.7897%; height: 19px;\">normal</td>\n<td style=\"text-align: center; width: 16.9742%; height: 19px;\">half</td>\n<td style=\"text-align: center; width: 14.9446%; height: 19px;\">No</td>\n</tr>\n<tr style=\"height: 19px;\">\n<td style=\"text-align: center; width: 23.9167%; height: 19px;\">None of the above</td>\n<td style=\"text-align: center; width: 27.0058%; height: 19px;\">-2/half<sup>2</sup></td>\n<td style=\"text-align: center; width: 16.7897%; height: 19px;\">-2/half</td>\n<td style=\"text-align: center; width: 16.9742%; height: 19px;\">normal</td>\n<td style=\"text-align: center; width: 14.9446%; height: 19px;\">Yes</td>\n</tr>\n</tbody>\n</table>\n<p><strong>1</strong> Creatures flailing about in the water (usually because they failed their @Compendium[pf1.skills.weCPHUuXi9sF5r4E]{Swim} checks) have a hard time fighting effectively. An off-balance creature loses its Dexterity bonus to Armor Class, and opponents gain a +2 bonus on attacks against it.</p>\n<p><strong>2</strong> A creature without freedom of movement effects or a swim speed makes grapple checks underwater at a &ndash;2 penalty, but deals damage normally when grappling.</p>\n<p><strong>3</strong> A successful Swim check lets a creature move one-quarter its speed as a move action or one-half its speed as a full-round action.</p>\n<p><strong>4</strong> Creatures have firm footing when walking along the bottom, braced against a ship&rsquo;s hull, or the like. A creature can only walk along the bottom if it wears or carries enough gear to weigh itself down: at least 16 pounds for Medium creatures, twice that for each size category larger than Medium, and half that for each size category smaller than Medium.</p>",
  "pages": [],
  "_key": "!journal!r4t1MHGGd6myKln7"
}