{
  "_id": "QrderWyxAp6RUvtz",
  "name": "3.2.1. Getting Lost",
  "flags": {
    "cf": {
      "id": "temp_bn6zfitu3fu"
    }
  },
  "content": "<p>@Compendium[pf-content.pf-rules.XOJpjqmBzwE4R4n0]{(Index) Environment}</p>\n<p>@Compendium[pf-content.pf-rules.CPUpraqn1jz9vhMh]{3.2. Wilderness}</p>\n<ul>\n<li>@Compendium[pf-content.pf-rules.QrderWyxAp6RUvtz]{3.2.1. Getting Lost}</li>\n<li>@Compendium[pf-content.pf-rules.pcu8vDTPaIYw82SU]{3.2.2. Forest Terrain}</li>\n<li>@Compendium[pf-content.pf-rules.zJ4qqxSB0Iufd5Be]{3.2.3. Marsh Terrain}</li>\n<li>@Compendium[pf-content.pf-rules.RVKULXygOAXTZ1WC]{3.2.4. Hills Terrain}</li>\n<li>@Compendium[pf-content.pf-rules.B5qjfHf1pFgEA7bg]{3.2.5. Mountain Terrain}</li>\n<li>@Compendium[pf-content.pf-rules.tuZEOzPezZUbz4Fj]{3.2.5.2. Mountain Travel}</li>\n<li>@Compendium[pf-content.pf-rules.3YyU7Yg6wbShgOKM]{3.2.6. Desert Terrain}</li>\n<li>@Compendium[pf-content.pf-rules.QOCypcVHE6zpYlyD]{3.2.7. Plains Terrain}</li>\n<li>@Compendium[pf-content.pf-rules.xiRC5p84P3tFW9mo]{3.2.8. Aquatic Terrain}</li>\n</ul>\n<hr />\n<p><strong>Source</strong> <em>PRPG Core Rulebook pg. 424</em></p>\n<p>There are many ways to get lost in the wilderness. Following an obvious road, trail, or feature such as a stream or shoreline prevents most from becoming lost, but travelers striking off cross-country might become disoriented&mdash;especially in conditions of poor visibility or in difficult terrain.</p>\n<p>&nbsp;</p>\n<h2>Poor Visibility</h2>\n<p>Anytime characters cannot see at least 60 feet due to reduced visibility conditions, they might become lost. Characters traveling through fog, snow, or a downpour might easily lose the ability to see any landmarks not in their immediate vicinity. Similarly, characters traveling at night might be at risk, too, depending on the quality of their light sources, the amount of moonlight, and whether they have darkvision or low-light vision.</p>\n<p>&nbsp;</p>\n<h2>Difficult Terrain</h2>\n<p>Any character in forest, moor, hill, or mountain terrain might become lost if he moves away from a trail, road, stream, or other obvious path or track. Forests are especially dangerous because they obscure far-off landmarks and make it hard to see the sun or stars.</p>\n<p>&nbsp;</p>\n<h2>Chance to Get Lost</h2>\n<p>If conditions exist that make getting lost a possibility, the character leading the way must succeed on a Survival check or become lost. The difficulty of this check varies based on the terrain, the visibility conditions, and whether or not the character has a map of the area being traveled through.</p>\n<p>Refer to the table below and use the highest DC that applies.</p>\n<table style=\"width: 80.3374%; height: 176px;\" border=\"1\">\n<thead>\n<tr style=\"height: 16px;\">\n<td style=\"width: 57.301%; height: 16px;\" scope=\"col\">Terrain</td>\n<td style=\"width: 41.7765%; text-align: center; height: 16px;\" scope=\"col\">Survival DC</td>\n</tr>\n</thead>\n<tbody>\n<tr style=\"height: 16px;\">\n<td style=\"width: 57.301%; height: 16px;\">Desert or plains</td>\n<td style=\"width: 41.7765%; text-align: center; height: 16px;\">14</td>\n</tr>\n<tr style=\"height: 16px;\">\n<td style=\"width: 57.301%; height: 16px;\">Forest</td>\n<td style=\"width: 41.7765%; text-align: center; height: 16px;\">16</td>\n</tr>\n<tr style=\"height: 16px;\">\n<td style=\"width: 57.301%; height: 16px;\">Moor or hill</td>\n<td style=\"width: 41.7765%; text-align: center; height: 16px;\">10</td>\n</tr>\n<tr style=\"height: 16px;\">\n<td style=\"width: 57.301%; height: 16px;\">Mountain</td>\n<td style=\"width: 41.7765%; text-align: center; height: 16px;\">12</td>\n</tr>\n<tr style=\"height: 16px;\">\n<td style=\"width: 57.301%; height: 16px;\">Open sea</td>\n<td style=\"width: 41.7765%; text-align: center; height: 16px;\">18</td>\n</tr>\n<tr style=\"height: 16px;\">\n<td style=\"width: 57.301%; height: 16px;\">Urban, ruins, or dungeon</td>\n<td style=\"width: 41.7765%; text-align: center; height: 16px;\">8</td>\n</tr>\n<tr style=\"height: 16px;\">\n<td style=\"width: 57.301%; height: 16px;\">&nbsp;</td>\n<td style=\"width: 41.7765%; text-align: center; height: 16px;\">&nbsp;</td>\n</tr>\n<tr style=\"height: 16px;\">\n<td style=\"width: 57.301%; height: 16px;\"><strong>Situation</strong></td>\n<td style=\"width: 41.7765%; text-align: center; height: 16px;\"><strong>Check Modifier</strong></td>\n</tr>\n<tr style=\"height: 16px;\">\n<td style=\"width: 57.301%; height: 16px;\">Proper navigational tools (map, sextant)</td>\n<td style=\"width: 41.7765%; text-align: center; height: 16px;\">+4</td>\n</tr>\n<tr style=\"height: 16px;\">\n<td style=\"width: 57.301%; height: 16px;\">Poor visibility</td>\n<td style=\"width: 41.7765%; height: 16px; text-align: center;\">-4</td>\n</tr>\n</tbody>\n</table>\n<p>&nbsp;</p>\n<p>A character with at least 5 ranks in Knowledge (geography) or Knowledge (local) pertaining to the area being traveled through gains a +2 bonus on this check.</p>\n<p>&nbsp;</p>\n<p>Check once per hour (or portion of an hour) spent in local or overland movement to see if travelers have become lost. In the case of a party moving together, only the character leading the way makes the check.</p>\n<p>&nbsp;</p>\n<h2>Effects of Being Lost</h2>\n<p>If a party becomes lost, it is no longer certain of moving in the direction it intended to travel. Randomly determine the direction in which the party actually travels during each hour of local or overland movement. The characters&rsquo; movement continues to be random until they blunder into a landmark they can&rsquo;t miss, or until they recognize that they are lost and make an effort to regain their bearings.</p>\n<p>&nbsp;</p>\n<h2>Recognizing You&rsquo;re Lost</h2>\n<p>Once per hour of random travel, each character in the party may attempt a Survival check (DC 20, &ndash;1 per hour of random travel) to recognize that he is no longer certain of his direction of travel. Some circumstances might make it obvious that the characters are lost.</p>\n<p>&nbsp;</p>\n<h2>Setting a New Course</h2>\n<p>Determining the correct direction of travel once a party has become lost requires a Survival check (DC 15, +2 per hour of random travel). If a character fails this check, he chooses a random direction as the &ldquo;correct&rdquo; direction for resuming travel.</p>\n<p>&nbsp;</p>\n<p>Once the characters are traveling along their new course, correct or incorrect, they might get lost again. If the conditions still make it possible for travelers to become lost, check once per hour of travel as described above to see if the party maintains its new course or begins to move at random again.</p>\n<p>&nbsp;</p>\n<h2>Conflicting Directions</h2>\n<p>It&rsquo;s possible that several characters may attempt to determine the right direction to proceed after becoming lost. Make a Survival check for each character in secret, then tell the players whose characters succeeded the correct direction in which to travel, and tell the players whose characters failed a random direction they think is right, with no indication who is correct.</p>\n<p>&nbsp;</p>\n<h2>Regaining Your Bearings</h2>\n<p>There are several ways for characters to find their way after becoming lost. First, if the characters successfully set a new course and follow it to the destination they&rsquo;re trying to reach, they&rsquo;re not lost anymore. Second, the characters, through random movement, might run into an unmistakable landmark. Third, if conditions suddenly improve&mdash; the fog lifts or the sun comes up&mdash;lost characters may attempt to set a new course, as described above, with a +4 bonus on the Survival check.</p>",
  "pages": [],
  "_key": "!journal!QrderWyxAp6RUvtz"
}