{
  "_id": "ggcyCNuPo8NdzmjI",
  "name": "3.3.2.6. City Buildings",
  "flags": {
    "cf": {
      "id": "temp_xp7dwo2tcw",
      "path": "Rules#/CF_SEP/Environment#/CF_SEP/02 Wilderness",
      "color": "#000000"
    }
  },
  "content": "<p>@Compendium[pf-content.pf-rules.XOJpjqmBzwE4R4n0]{(Index) Environment}</p>\n<p>@Compendium[pf-content.pf-rules.qx3PVEeLsKOdiESK]{3.3. Urban Adventures}</p>\n<ul>\n<li>@Compendium[pf-content.pf-rules.a0xDSVGQRE2pVzkA]{3.3.2. Urban Features}\n<ul>\n<li>@Compendium[pf-content.pf-rules.kMiP5IZwDvMssIBY]{3.3.2.1. Walls and Gates}</li>\n<li>@Compendium[pf-content.pf-rules.DBgMSNFxDzkCxJ7g]{3.3.2.2. Guards and Soldiers}</li>\n<li>@Compendium[pf-content.pf-rules.MI0493ERUqLM2bT9]{3.3.2.3. Siege Engines}</li>\n<li>@Compendium[pf-content.pf-rules.FmRlm273yvFj0UMs]{3.3.2.4. City Streets}</li>\n<li>@Compendium[pf-content.pf-rules.A9MzLZ9Eu2NRiQfp]{3.3.2.5. Above and Beneath the Streets}</li>\n<li>@Compendium[pf-content.pf-rules.ggcyCNuPo8NdzmjI]{3.3.2.6. City Buildings}</li>\n<li>@Compendium[pf-content.pf-rules.deJ36cJDbvFpa2fr]{3.3.2.7. City Lights}</li>\n</ul>\n</li>\n</ul>\n<hr />\n<p><strong>Source</strong> <em>PRPG Core Rulebook pg. 437</em></p>\n<p>Most city buildings fall into three categories. The majority of buildings in the city are two to five stories high, built side-by-side to form long rows separated by secondary or main streets. These row houses usually have businesses on the ground floor, with offices or apartments above.</p>\n<p>&nbsp;</p>\n<p>Inns, successful businesses, and large warehouses&mdash;as well as millers, tanners, and other businesses that require extra space&mdash;are generally large, free-standing buildings with up to five stories.</p>\n<p>&nbsp;</p>\n<p>Finally, small residences, shops, warehouses, or storage sheds are simple, one-story wooden buildings, especially if they&rsquo;re in poorer neighborhoods.</p>\n<p>&nbsp;</p>\n<p>Most city buildings are made of a combination of stone or clay brick (on the lower one or two stories) and timbers (for the upper stories, interior walls, and floors). Roofs are a mixture of boards, thatch, and slates, sealed with pitch. A typical lower-story wall is 1 foot thick, with AC 3, hardness 8, 90 hp, and a Climb DC of 25. Upper-story walls are 6 inches thick, with AC 3, hardness 5, 60 hp, and a Climb DC of 21. Exterior doors on most buildings are good wooden doors that are usually kept locked, except on public buildings such as shops and taverns.</p>",
  "pages": [],
  "_key": "!journal!ggcyCNuPo8NdzmjI"
}