{
  "_id": "EQFsfwmMHxeX34rq",
  "name": "3.5.3.2. Energy Planes",
  "flags": {
    "cf": {
      "id": "temp_tv2cmtdc80l",
      "path": "Rules#/CF_SEP/Environment#/CF_SEP/05 The Planes",
      "color": "#000000"
    }
  },
  "content": "<p>@Compendium[pf-content.pf-rules.XOJpjqmBzwE4R4n0]{(Index) Environment}</p>\n<p>@Compendium[pf-content.pf-rules.ryIRK7CjUk9fI8TT]{3.5. The Planes}</p>\n<ul>\n<li>@Compendium[pf-content.pf-rules.9ZxtJSapPINNjxbT]{3.5.3. Inner Planes}\n<ul>\n<li>@Compendium[pf-content.pf-rules.BtNqgktOkZENzN1c]{3.5.3.1. Elemental Planes}</li>\n<li>@Compendium[pf-content.pf-rules.EQFsfwmMHxeX34rq]{3.5.3.2. Energy Planes}</li>\n</ul>\n</li>\n</ul>\n<hr />\n<p><strong>Source</strong> <em>PRPG Core Rulebook pg. 440</em></p>\n<p>Two energy planes exist&mdash;the Positive Energy Plane (from which the animating spark of life hails) and the Negative Energy Plane (from which the sinister taint of undeath hails). Energy from both planes infuses reality, the ebb and flow of this energy running through all creatures to bear them along the journey from birth to death. Clerics utilize power from these planes when they channel energy.</p>",
  "pages": [],
  "_key": "!journal!EQFsfwmMHxeX34rq"
}