{
  "_id": "ngl3E9mNPsbToy2u",
  "name": "3.5.6. Layered Planes",
  "flags": {
    "cf": {
      "id": "temp_tv2cmtdc80l",
      "path": "Rules#/CF_SEP/Environment#/CF_SEP/05 The Planes",
      "color": "#000000"
    }
  },
  "content": "<p>@Compendium[pf-content.pf-rules.XOJpjqmBzwE4R4n0]{(Index) Environment}</p>\n<p>@Compendium[pf-content.pf-rules.ryIRK7CjUk9fI8TT]{3.5. The Planes}</p>\n<ul>\n<li>@Compendium[pf-content.pf-rules.Q71BilaWEOeIsfux]{3.5.1. Material Plane}</li>\n<li>@Compendium[pf-content.pf-rules.PWWyAj9RxKmCOZjr]{3.5.2. Transitive Planes}</li>\n<li>@Compendium[pf-content.pf-rules.9ZxtJSapPINNjxbT]{3.5.3. Inner Planes}</li>\n<li>@Compendium[pf-content.pf-rules.VNXqsTp4czvUWZn3]{3.5.4. Outer Planes}</li>\n<li>@Compendium[pf-content.pf-rules.XC9n0Ynwpq8C9Sm9]{3.5.5. Demiplanes}</li>\n<li>@Compendium[pf-content.pf-rules.ngl3E9mNPsbToy2u]{3.5.6. Layered Planes}</li>\n<li>@Compendium[pf-content.pf-rules.5HeGmOWABLZ7bME7]{3.5.7. How Planes Interact}</li>\n</ul>\n<hr />\n<p><strong>Source</strong> <em>PRPG Core Rulebook pg. 441</em></p>\n<p>Infinities may be broken into smaller infinities, and planes into smaller, related planes. These layers are effectively separate planes of existence, and each layer can have its own features and qualities. Layers are connected to each other through a variety of planar gates, natural vortices, paths, and shifting borders.</p>\n<p>&nbsp;</p>\n<p>Access to a layered plane from elsewhere usually happens on the first layer of the plane, which can be either the top or bottom layer, depending on the specific plane. Most fixed access points (such as portals and natural vortices) reach this layer, which makes it the gateway for other layers of the plane. The plane shift spell generally deposits the spellcaster on the first layer of the plane.</p>",
  "pages": [],
  "_key": "!journal!ngl3E9mNPsbToy2u"
}