{
  "_id": "8chZeOjIpuKkzTUR",
  "name": "3.6.06.1. Catching on Fire",
  "flags": {
    "cf": {
      "id": "temp_l2g09lfalv8",
      "path": "Rules#/CF_SEP/Environment#/CF_SEP/06 Environmental Rules",
      "color": "#000000"
    }
  },
  "content": "<p>@Compendium[pf-content.pf-rules.XOJpjqmBzwE4R4n0]{(Index) Environment}</p>\n<p>@Compendium[pf-content.pf-rules.cWT946eZ614UBXMT]{3.6. Environmental Rules}</p>\n<ul>\n<li>@Compendium[pf-content.pf-rules.d5jA5Uo7F7mpbfZE]{3.6.06. Heat Dangers}\n<ul>\n<li>@Compendium[pf-content.pf-rules.8chZeOjIpuKkzTUR]{3.6.06.1. Catching on Fire}</li>\n<li>@Compendium[pf-content.pf-rules.LpUSkoqMTp44gSdl]{3.6.06.2. Lava Effects}</li>\n</ul>\n</li>\n</ul>\n<hr />\n<p><strong>Source</strong> <em>PRPG Core Rulebook pg. 444</em></p>\n<p>Characters exposed to burning oil, bonfires, and noninstantaneous magic fires might find their clothes, hair, or equipment on fire. Spells with an instantaneous duration don't normally set a character on fire, since the heat and flame from these come and go in a flash. Characters at risk of catching fire are allowed a DC 15 Reflex save to avoid this fate. If a character's clothes or hair catch fire, he takes 1d6 points of damage immediately. In each subsequent round, the burning character must make another Reflex saving throw. Failure means he takes another 1d6 points of damage that round. Success means that the fire has gone out&mdash;that is, once he succeeds on his saving throw, he's no longer on fire.</p>\n<p>&nbsp;</p>\n<p>A character on fire may automatically extinguish the flames by jumping into enough water to douse himself. If no body of water is at hand, rolling on the ground or smothering the fire with cloaks or the like permits the character another save with a +4 bonus.</p>\n<p>&nbsp;</p>\n<p>Those whose clothes or equipment catch fire must make DC 15 Reflex saves for each item. Flammable items that fail take the same amount of damage as the character.</p>",
  "pages": [],
  "_key": "!journal!8chZeOjIpuKkzTUR"
}