{
  "_id": "RGIZGWIIunQuRUkT",
  "name": "3.6.03. Darkness",
  "flags": {
    "cf": {
      "id": "temp_l2g09lfalv8",
      "path": "Rules#/CF_SEP/Environment#/CF_SEP/06 Environmental Rules",
      "color": "#000000"
    }
  },
  "content": "<p>@Compendium[pf-content.pf-rules.XOJpjqmBzwE4R4n0]{(Index) Environment}</p>\n<p>@Compendium[pf-content.pf-rules.cWT946eZ614UBXMT]{3.6. Environmental Rules}</p>\n<ul>\n<li style=\"list-style-type: none;\">\n<ul>\n<li>@Compendium[pf-content.pf-rules.nw1AQDHLefid2fO2]{3.6.01. Acid Effects}</li>\n<li>@Compendium[pf-content.pf-rules.pXwhr9IdI6o8aqm5]{3.6.02. Cold Dangers}</li>\n<li>@Compendium[pf-content.pf-rules.RGIZGWIIunQuRUkT]{3.6.03. Darkness}</li>\n<li>@Compendium[pf-content.pf-rules.urb5p3PXjRMFtO79]{3.6.04. Falling}</li>\n<li>@Compendium[pf-content.pf-rules.gXBmw2TLp6TUtDqp]{3.6.05. Falling Objects}</li>\n<li>@Compendium[pf-content.pf-rules.d5jA5Uo7F7mpbfZE]{3.6.06. Heat Dangers}</li>\n<li>@Compendium[pf-content.pf-rules.CHkspcX3n9YBXU1I]{3.6.07. Smoke Effects}</li>\n<li>@Compendium[pf-content.pf-rules.Hthl6DTaWRrdoenF]{3.6.08. Starvation and Thirst}</li>\n<li>@Compendium[pf-content.pf-rules.IzDTrpYeEht9VTOF]{3.6.09. Suffocation}</li>\n<li>@Compendium[pf-content.pf-rules.dErmNWeOdWiEyQVB]{3.6.10. Water Dangers}</li>\n</ul>\n</li>\n</ul>\n<hr />\n<p><strong>Source</strong> <em>PRPG Core Rulebook pg. 442</em></p>\n<p>Darkvision allows many characters and monsters to see perfectly well without any light at all, but characters with normal or low-light vision can be rendered completely blind by putting out the lights. Torches or lanterns can be blown out by sudden gusts of subterranean wind, magical light sources can be dispelled or countered, or magical traps might create fields of impenetrable darkness.</p>\n<p>&nbsp;</p>\n<p>In many cases, some characters or monsters might be able to see while others are blinded. For purposes of the following points, a blinded creature is one who simply can&rsquo;t see through the surrounding darkness.</p>\n<p>Creatures blinded by darkness lose the ability to deal extra damage due to precision (for example, via sneak attack or a duelist&rsquo;s precise strike ability).</p>\n<p>Blind creatures must make a DC 10 Acrobatics skill check to move faster than half speed. Creatures that fail this check fall prone. Blinded creatures can&rsquo;t run or charge.</p>\n<p>&nbsp;</p>\n<p>All opponents have total concealment from a blinded creature, so the blinded creature has a 50% miss chance in combat. A blinded creature must first pinpoint the location of an opponent in order to attack the right square; if the blinded creature launches an attack without pinpointing its foe, it attacks a random square within its reach. For ranged attacks or spells against a foe whose location is not pinpointed, roll to determine which adjacent square the blinded creature is facing; its attack is directed at the closest target that lies in that direction.</p>\n<p>&nbsp;</p>\n<p>A blinded creature loses its Dexterity modifier to AC (if positive) and takes a &ndash;2 penalty to AC.</p>\n<p>A blinded creature takes a &ndash;4 penalty on Perception checks and most Strength- and Dexterity-based skill checks, including any with an armor check penalty. A creature blinded by darkness automatically fails any skill check relying on vision.</p>\n<p>Creatures blinded by darkness cannot use gaze attacks and are immune to gaze attacks.</p>\n<p>&nbsp;</p>\n<p>A creature blinded by darkness can make a Perception check as a free action each round in order to locate foes (DC equal to opponents&rsquo; Stealth checks). A successful check lets a blinded character hear an unseen creature &ldquo;over there somewhere.&rdquo; It&rsquo;s almost impossible to pinpoint the location of an unseen creature. A Perception check that beats the DC by 20 reveals the unseen creature&rsquo;s square (but the unseen creature still has total concealment from the blinded creature).</p>\n<p>&nbsp;</p>\n<p>A blinded creature can grope about to find unseen creatures. A character can make a touch attack with his hands or a weapon into two adjacent squares using a standard action. If an unseen target is in the designated square, there is a 50% miss chance on the touch attack. If successful, the groping character deals no damage but has pinpointed the unseen creature&rsquo;s current location. If the unseen creature moves, its location is once again unknown.</p>\n<p>&nbsp;</p>\n<p>If a blinded creature is struck by an unseen foe, the blinded character pinpoints the location of the creature that struck him (until the unseen creature moves, of course). The only exception is if the unseen creature has a reach greater than 5 feet (in which case the blinded character knows the location of the unseen opponent, but has not pinpointed him) or uses a ranged attack (in which case the blinded character knows the general direction of the foe, but not his location).</p>\n<p>A creature with the scent ability automatically pinpoints unseen creatures within 5 feet of its location.</p>",
  "pages": [],
  "_key": "!journal!RGIZGWIIunQuRUkT"
}