{
  "_id": "urb5p3PXjRMFtO79",
  "name": "3.6.04. Falling",
  "flags": {
    "cf": {
      "id": "temp_l2g09lfalv8",
      "path": "Rules#/CF_SEP/Environment#/CF_SEP/06 Environmental Rules",
      "color": "#000000"
    }
  },
  "content": "<p>@Compendium[pf-content.pf-rules.XOJpjqmBzwE4R4n0]{(Index) Environment}</p>\n<p>@Compendium[pf-content.pf-rules.cWT946eZ614UBXMT]{3.6. Environmental Rules}</p>\n<ul>\n<li style=\"list-style-type: none;\">\n<ul>\n<li>@Compendium[pf-content.pf-rules.nw1AQDHLefid2fO2]{3.6.01. Acid Effects}</li>\n<li>@Compendium[pf-content.pf-rules.pXwhr9IdI6o8aqm5]{3.6.02. Cold Dangers}</li>\n<li>@Compendium[pf-content.pf-rules.RGIZGWIIunQuRUkT]{3.6.03. Darkness}</li>\n<li>@Compendium[pf-content.pf-rules.urb5p3PXjRMFtO79]{3.6.04. Falling}</li>\n<li>@Compendium[pf-content.pf-rules.gXBmw2TLp6TUtDqp]{3.6.05. Falling Objects}</li>\n<li>@Compendium[pf-content.pf-rules.d5jA5Uo7F7mpbfZE]{3.6.06. Heat Dangers}</li>\n<li>@Compendium[pf-content.pf-rules.CHkspcX3n9YBXU1I]{3.6.07. Smoke Effects}</li>\n<li>@Compendium[pf-content.pf-rules.Hthl6DTaWRrdoenF]{3.6.08. Starvation and Thirst}</li>\n<li>@Compendium[pf-content.pf-rules.IzDTrpYeEht9VTOF]{3.6.09. Suffocation}</li>\n<li>@Compendium[pf-content.pf-rules.dErmNWeOdWiEyQVB]{3.6.10. Water Dangers}</li>\n</ul>\n</li>\n</ul>\n<hr />\n<p><strong>Source</strong> <em>PRPG Core Rulebook pg. 443</em></p>\n<p>Creatures that fall take 1d6 points of damage per 10 feet fallen, to a maximum of 20d6. Creatures that take lethal damage from a fall land in a prone position.</p>\n<p>&nbsp;</p>\n<p>If a character deliberately jumps instead of merely slipping or falling, the damage is the same but the first 1d6 is nonlethal damage. A DC 15 Acrobatics check allows the character to avoid any damage from the first 10 feet fallen and converts any damage from the second 10 feet to nonlethal damage. Thus, a character who slips from a ledge 30 feet up takes 3d6 damage. If the same character deliberately jumps, he takes 1d6 points of nonlethal damage and 2d6 points of lethal damage. And if the character leaps down with a successful Acrobatics check, he takes only 1d6 points of nonlethal damage and 1d6 points of lethal damage from the plunge.</p>\n<p>&nbsp;</p>\n<p>Falls onto yielding surfaces (soft ground, mud) also convert the first 1d6 of damage to nonlethal damage. This reduction is cumulative with reduced damage due to deliberate jumps and the Acrobatics skill.</p>\n<p>&nbsp;</p>\n<p>A character cannot cast a spell while falling, unless the fall is greater than 500 feet or the spell is an immediate action, such as feather fall. Casting a spell while falling requires a concentration check with a DC equal to 20 + the spell&rsquo;s level. Casting teleport or a similar spell while falling does not end your momentum, it just changes your location, meaning that you still take falling damage, even if you arrive atop a solid surface.</p>\n<p>&nbsp;</p>\n<h2>Falling into Water</h2>\n<p>Falls into water are handled somewhat differently. If the water is at least 10 feet deep, the first 20 feet of falling do no damage. The next 20 feet do nonlethal damage (1d3 per 10-foot increment). Beyond that, falling damage is lethal damage (1d6 per additional 10-foot increment).</p>\n<p>&nbsp;</p>\n<p>Characters who deliberately dive into water take no damage on a successful DC 15 Swim check or DC 15 Acrobatics check, so long as the water is at least 10 feet deep for every 30 feet fallen. The DC of the check, however, increases by 5 for every 50 feet of the dive.</p>",
  "pages": [],
  "_key": "!journal!urb5p3PXjRMFtO79"
}