{
  "_id": "LpUSkoqMTp44gSdl",
  "name": "3.6.06.2. Lava Effects",
  "flags": {
    "cf": {
      "id": "temp_l2g09lfalv8",
      "path": "Rules#/CF_SEP/Environment#/CF_SEP/06 Environmental Rules",
      "color": "#000000"
    }
  },
  "content": "<p>@Compendium[pf-content.pf-rules.XOJpjqmBzwE4R4n0]{(Index) Environment}</p>\n<p>@Compendium[pf-content.pf-rules.cWT946eZ614UBXMT]{3.6. Environmental Rules}</p>\n<ul>\n<li>@Compendium[pf-content.pf-rules.d5jA5Uo7F7mpbfZE]{3.6.06. Heat Dangers}\n<ul>\n<li>@Compendium[pf-content.pf-rules.8chZeOjIpuKkzTUR]{3.6.06.1. Catching on Fire}</li>\n<li>@Compendium[pf-content.pf-rules.LpUSkoqMTp44gSdl]{3.6.06.2. Lava Effects}</li>\n</ul>\n</li>\n</ul>\n<hr />\n<p><strong>Source</strong> <em>PRPG Core Rulebook pg. 444</em></p>\n<p>Lava or magma deals 2d6 points of fire damage per round of exposure, except in the case of total immersion (such as when a character falls into the crater of an active volcano), which deals 20d6 points of fire damage per round.</p>\n<p>&nbsp;</p>\n<p>Damage from lava continues for 1d3 rounds after exposure ceases, but this additional damage is only half of that dealt during actual contact (that is, 1d6 or 10d6 points per round). Immunity or resistance to fire serves as an immunity or resistance to lava or magma. A creature immune or resistant to fire might still drown if completely immersed in lava (see Drowning).</p>",
  "pages": [],
  "_key": "!journal!LpUSkoqMTp44gSdl"
}