{
  "_id": "vsp6TyvvUw3KOD0b",
  "name": "4.0. Movement",
  "flags": {
    "cf": {
      "id": "temp_10b4h28k1wyl",
      "path": "Rules#/CF_SEP/Exploration#/CF_SEP/00 Movement",
      "color": "#000000"
    }
  },
  "content": "<p>@Compendium[pf-content.pf-rules.kAJexDuJ2IAXZODj]{(Index) Exploration}</p>\n<p>@Compendium[pf-content.pf-rules.vsp6TyvvUw3KOD0b]{4.0. Movement}</p>\n<p>@Compendium[pf-content.pf-rules.TrYHWkJ3jiOCYufl]{4.1. Vision and Light}</p>\n<p>@Compendium[pf-content.pf-rules.1EvBiiUnVOT4cUbT]{4.2. Breaking and Entering}</p>\n<hr />\n<p><strong>Source</strong> <em>PRPG Core Rulebook pg. 170</em></p>\n<p>There are three movement scales, as follows:</p>\n<ul>\n<li>Tactical, for combat, measured in feet (or 5-foot squares) per round.</li>\n<li>Local, for exploring an area, measured in feet per minute.</li>\n<li>Overland, for getting from place to place, measured in miles per hour or miles per day.</li>\n</ul>\n<p>&nbsp;</p>\n<h2>Modes of Movement</h2>\n<p>While moving at the different movement scales, creatures generally walk, hustle, or run.</p>\n<p>&nbsp;</p>\n<h2>Walk</h2>\n<p>A walk represents unhurried but purposeful movement (3 miles per hour for an unencumbered adult human).</p>\n<p>&nbsp;</p>\n<h2>Hustle</h2>\n<p>A hustle is a jog (about 6 miles per hour for an unencumbered human). A character moving his speed twice in a single round, or moving that speed in the same round that he or she performs a standard action or another move action, is hustling when he or she moves.</p>\n<p>&nbsp;</p>\n<h2>Run (&times;3)</h2>\n<p>Moving three times speed is a running pace for a character in heavy armor (about 7 miles per hour for a human in full plate).</p>\n<p>&nbsp;</p>\n<h2>Run (&times;4)</h2>\n<p>Moving four times speed is a running pace for a character in light, medium, or no armor (about 12 miles per hour for an unencumbered human, or 9 miles per hour for a human in chainmail). See Table 7&ndash;6 for details.</p>\n<p>&nbsp;</p>\n<h2>Table 7-6: Movement and Distance</h2>\n<table style=\"width: 97.7922%; height: 303px;\" border=\"1\">\n<thead>\n<tr style=\"height: 16px;\">\n<td style=\"width: 37.7158%; height: 16px;\" scope=\"col\"><strong>Speed</strong></td>\n<td style=\"width: 19.1235%; height: 16px;\" scope=\"col\"><strong>15 feet</strong></td>\n<td style=\"width: 13.9442%; height: 16px;\" scope=\"col\"><strong>20 feet</strong></td>\n<td style=\"width: 14.077%; height: 16px;\" scope=\"col\"><strong>30 feet</strong></td>\n<td style=\"width: 14.077%; height: 16px;\" scope=\"col\"><strong>40 feet</strong></td>\n</tr>\n</thead>\n<tbody>\n<tr style=\"height: 16px;\">\n<td style=\"width: 37.7158%; height: 16px;\"><strong>One Round (Tactical)*</strong></td>\n<td style=\"width: 61.2218%; height: 16px;\" colspan=\"4\">&nbsp;</td>\n</tr>\n<tr style=\"height: 16px;\">\n<td style=\"width: 37.7158%; height: 16px;\">Walk</td>\n<td style=\"width: 19.1235%; height: 16px;\">15 ft.</td>\n<td style=\"width: 13.9442%; height: 16px;\">20 ft.</td>\n<td style=\"width: 14.077%; height: 16px;\">30 ft.</td>\n<td style=\"width: 14.077%; height: 16px;\">40 ft.</td>\n</tr>\n<tr style=\"height: 16px;\">\n<td style=\"width: 37.7158%; height: 16px;\">Hustle</td>\n<td style=\"width: 19.1235%; height: 16px;\">30 ft.</td>\n<td style=\"width: 13.9442%; height: 16px;\">40 ft.</td>\n<td style=\"width: 14.077%; height: 16px;\">60 ft.</td>\n<td style=\"width: 14.077%; height: 16px;\">80 ft.</td>\n</tr>\n<tr style=\"height: 16px;\">\n<td style=\"width: 37.7158%; height: 16px;\">Run (x3)</td>\n<td style=\"width: 19.1235%; height: 16px;\">45 ft.</td>\n<td style=\"width: 13.9442%; height: 16px;\">60 ft.</td>\n<td style=\"width: 14.077%; height: 16px;\">90 ft.</td>\n<td style=\"width: 14.077%; height: 16px;\">120 ft.</td>\n</tr>\n<tr style=\"height: 16px;\">\n<td style=\"width: 37.7158%; height: 16px;\">Run (x4)</td>\n<td style=\"width: 19.1235%; height: 16px;\">60 ft.</td>\n<td style=\"width: 13.9442%; height: 16px;\">80 ft.</td>\n<td style=\"width: 14.077%; height: 16px;\">120 ft.</td>\n<td style=\"width: 14.077%; height: 16px;\">160 ft.</td>\n</tr>\n<tr style=\"height: 16px;\">\n<td style=\"width: 37.7158%; height: 16px;\"><strong>One Minute (Local)</strong></td>\n<td style=\"width: 61.2218%; height: 16px;\" colspan=\"4\">&nbsp;</td>\n</tr>\n<tr style=\"height: 16px;\">\n<td style=\"width: 37.7158%; height: 16px;\">Walk</td>\n<td style=\"width: 19.1235%; height: 16px;\">150 ft.</td>\n<td style=\"width: 13.9442%; height: 16px;\">200 ft.</td>\n<td style=\"width: 14.077%; height: 16px;\">300 ft.</td>\n<td style=\"width: 14.077%; height: 16px;\">400 ft.</td>\n</tr>\n<tr style=\"height: 16px;\">\n<td style=\"width: 37.7158%; height: 16px;\">Hustle</td>\n<td style=\"width: 19.1235%; height: 16px;\">300 ft.</td>\n<td style=\"width: 13.9442%; height: 16px;\">400 ft.</td>\n<td style=\"width: 14.077%; height: 16px;\">600 ft.</td>\n<td style=\"width: 14.077%; height: 16px;\">800 ft.</td>\n</tr>\n<tr style=\"height: 16px;\">\n<td style=\"width: 37.7158%; height: 16px;\">Run (x3)</td>\n<td style=\"width: 19.1235%; height: 16px;\">450 ft.</td>\n<td style=\"width: 13.9442%; height: 16px;\">600 ft.</td>\n<td style=\"width: 14.077%; height: 16px;\">900 ft.</td>\n<td style=\"width: 14.077%; height: 16px;\">1,200 ft.</td>\n</tr>\n<tr style=\"height: 16px;\">\n<td style=\"width: 37.7158%; height: 16px;\">Run (x4)</td>\n<td style=\"width: 19.1235%; height: 16px;\">600 ft.</td>\n<td style=\"width: 13.9442%; height: 16px;\">800 ft.</td>\n<td style=\"width: 14.077%; height: 16px;\">1,200 ft.</td>\n<td style=\"width: 14.077%; height: 16px;\">1,600 ft.</td>\n</tr>\n<tr style=\"height: 16px;\">\n<td style=\"width: 37.7158%; height: 16px;\"><strong>One Hour (Overland)</strong></td>\n<td style=\"width: 61.2218%; height: 16px;\" colspan=\"4\">&nbsp;</td>\n</tr>\n<tr style=\"height: 15px;\">\n<td style=\"width: 37.7158%; height: 15px;\">Walk</td>\n<td style=\"width: 19.1235%; height: 15px;\">1-1/2 miles</td>\n<td style=\"width: 13.9442%; height: 15px;\">2 miles</td>\n<td style=\"width: 14.077%; height: 15px;\">3 miles</td>\n<td style=\"width: 14.077%; height: 15px;\">4 miles</td>\n</tr>\n<tr style=\"height: 16px;\">\n<td style=\"width: 37.7158%; height: 16px;\">Hustle</td>\n<td style=\"width: 19.1235%; height: 16px;\">3 miles</td>\n<td style=\"width: 13.9442%; height: 16px;\">4 miles</td>\n<td style=\"width: 14.077%; height: 16px;\">6 miles</td>\n<td style=\"width: 14.077%; height: 16px;\">8 miles</td>\n</tr>\n<tr style=\"height: 16px;\">\n<td style=\"width: 37.7158%; height: 16px;\">Run</td>\n<td style=\"width: 19.1235%; height: 16px;\">&mdash;</td>\n<td style=\"width: 13.9442%; height: 16px;\">&mdash;</td>\n<td style=\"width: 14.077%; height: 16px;\">&mdash;</td>\n<td style=\"width: 14.077%; height: 16px;\">&mdash;</td>\n</tr>\n<tr style=\"height: 16px;\">\n<td style=\"width: 37.7158%; height: 16px;\"><strong>One Day (Overland)</strong></td>\n<td style=\"width: 61.2218%; height: 16px;\" colspan=\"4\">&nbsp;</td>\n</tr>\n<tr style=\"height: 16px;\">\n<td style=\"width: 37.7158%; height: 16px;\">Walk</td>\n<td style=\"width: 19.1235%; height: 16px;\">12 miles</td>\n<td style=\"width: 13.9442%; height: 16px;\">16 miles</td>\n<td style=\"width: 14.077%; height: 16px;\">24 miles</td>\n<td style=\"width: 14.077%; height: 16px;\">32 miles</td>\n</tr>\n<tr style=\"height: 16px;\">\n<td style=\"width: 37.7158%; height: 16px;\">Hustle</td>\n<td style=\"width: 19.1235%; height: 16px;\">&mdash;</td>\n<td style=\"width: 13.9442%; height: 16px;\">&mdash;</td>\n<td style=\"width: 14.077%; height: 16px;\">&mdash;</td>\n<td style=\"width: 14.077%; height: 16px;\">&mdash;</td>\n</tr>\n<tr style=\"height: 16px;\">\n<td style=\"width: 37.7158%; height: 16px;\">Run</td>\n<td style=\"width: 19.1235%; height: 16px;\">&mdash;</td>\n<td style=\"width: 13.9442%; height: 16px;\">&mdash;</td>\n<td style=\"width: 14.077%; height: 16px;\">&mdash;</td>\n<td style=\"width: 14.077%; height: 16px;\">&mdash;</td>\n</tr>\n</tbody>\n</table>\n<p>* Tactical Movement is often measured in squares on the battle grid (1 square = 5 feet) rather than feet.</p>",
  "pages": [],
  "_key": "!journal!vsp6TyvvUw3KOD0b"
}