{
  "_id": "1EvBiiUnVOT4cUbT",
  "name": "4.2. Breaking and Entering",
  "flags": {
    "cf": {
      "id": "temp_dj5lwec1gu",
      "path": "Rules#/CF_SEP/Exploration#/CF_SEP/02 Breaking and Entering",
      "color": "#000000"
    }
  },
  "content": "<p>@Compendium[pf-content.pf-rules.kAJexDuJ2IAXZODj]{(Index) Exploration}</p>\n<hr />\n<p><strong>Source</strong> <em>PRPG Core Rulebook pg. 173</em></p>\n<p>When attempting to break an object, you have two choices: smash it with a weapon or break it with sheer strength.</p>",
  "pages": [],
  "_key": "!journal!1EvBiiUnVOT4cUbT"
}