{
  "_id": "hQpH8hTrVMRp4nwI",
  "name": "6.0.4.27. Griffon Mane",
  "flags": {
    "cf": {
      "id": "temp_8fct9jdz2vn"
    }
  },
  "content": "<p>@Compendium[pf-content.pf-rules.4TX2Q1MaWt1B8298]{(Index) Items}</p>\n<p>@Compendium[pf-content.pf-rules.j1KZwBRf9pU1Dg2C]{6.0. Equipment}</p>\n<ul>\n<li>@Compendium[pf-content.pf-rules.TROqcNjEw3b2q2Dk]{6.0.4. Special Materials}</li>\n</ul>\n<hr />\n<p><strong>PFS Legal</strong></p>\n<p><strong>Source</strong> <em>Ultimate Equipment pg. 51</em></p>\n<p>&nbsp;</p>\n<p>This rough-spun cloth, ranging in color from golden-brown to brown-black, is woven from the mane of leonine magical beasts, primarily griffons but also chimeras and manticores, and is exceptionally strong and light. Wearing a cloak, robe, clothing outfit, or padded or quilted armor made from griffon mane grants a +2 competence bonus on Fly checks. If an item made of griffon mane is magically given the ability to fly, the cost to add that specific magical property is reduced by 10%, though this does not reduce the cost of any other abilities the item has.</p>\n<p>&nbsp;</p>\n<p>Griffon mane has twice the number of hit points of normal cloth and hardness 1.</p>\n<p>&nbsp;</p>\n<table style=\"width: 49.0069%;\" border=\"1\">\n<thead>\n<tr>\n<td style=\"width: 56.8713%;\" scope=\"col\">Type of Griffon Mane Item</td>\n<td style=\"width: 42.3977%;\" scope=\"col\">Item Price Modifier</td>\n</tr>\n</thead>\n<tbody>\n<tr>\n<td style=\"width: 56.8713%;\">Light armor</td>\n<td style=\"width: 42.3977%;\">+200 gp</td>\n</tr>\n<tr>\n<td style=\"width: 56.8713%;\">Other items</td>\n<td style=\"width: 42.3977%;\">+50 gp/lb.</td>\n</tr>\n</tbody>\n</table>",
  "pages": [],
  "_key": "!journal!hQpH8hTrVMRp4nwI"
}