{
  "_id": "KkWKt5JCpcIFKQzf",
  "name": "6.0.4.39. Skymetal Alloys",
  "flags": {
    "cf": {
      "id": "temp_8fct9jdz2vn"
    }
  },
  "content": "<p>@Compendium[pf-content.pf-rules.4TX2Q1MaWt1B8298]{(Index) Items}</p>\n<p>@Compendium[pf-content.pf-rules.j1KZwBRf9pU1Dg2C]{6.0. Equipment}</p>\n<ul>\n<li>@Compendium[pf-content.pf-rules.TROqcNjEw3b2q2Dk]{6.0.4. Special Materials}</li>\n</ul>\n<hr />\n<p><strong>Source</strong> <em>Pathfinder #61: Shards of Sin</em></p>\n<p>&nbsp;</p>\n<p>Both ancient and modern metallurgists have devised numerous alloys that mix skymetals with other materials. Many of these are highly specialized, but one deserves special mention: glaucite. This dull gray metal is an alloy of adamantine and iron. Though it has hardness 15 and 30 hit points per inch of thickness, glaucite is half again as heavy as iron and difficult to work with. The material of choice for ship hulls and robot frames, but is generally sought after only by collectors and eccentrics as a material for new items or other projects.</p>",
  "pages": [],
  "_key": "!journal!KkWKt5JCpcIFKQzf"
}