{
  "_id": "NIWIXwlgwZX4ubrL",
  "name": "6.0.4.38. Silversheen",
  "flags": {
    "cf": {
      "id": "temp_8fct9jdz2vn"
    }
  },
  "content": "<p>@Compendium[pf-content.pf-rules.4TX2Q1MaWt1B8298]{(Index) Items}</p>\n<p>@Compendium[pf-content.pf-rules.j1KZwBRf9pU1Dg2C]{6.0. Equipment}</p>\n<ul>\n<li>@Compendium[pf-content.pf-rules.TROqcNjEw3b2q2Dk]{6.0.4. Special Materials}</li>\n</ul>\n<hr />\n<p><strong>PFS Legal</strong></p>\n<p><strong>Source</strong> <em>Qadira, Gateway to the East pg. 25</em></p>\n<p>&nbsp;</p>\n<p>Blades made of this special metal count as alchemical silver weapons and are immune to rust, including that of rust monsters, the rusting grasp spell, and so on. They are always masterwork weapons&mdash;most often scimitars or longswords; the listed price includes the cost of the masterwork bonus.</p>\n<p>&nbsp;</p>\n<p>No aura (nonmagical property); CL &mdash;; Craft (alchemy) 5 ranks, Craft (weaponsmithing) 5 ranks; Price +750 gp.</p>",
  "pages": [],
  "_key": "!journal!NIWIXwlgwZX4ubrL"
}