{
  "_id": "95c8F7Trvs0JaQEX",
  "name": "6.1.17.04. Languages Spoken by Item",
  "flags": {
    "cf": {
      "id": "temp_knjtd555il",
      "path": "Rules#/CF_SEP/Items#/CF_SEP/01 Magic Items",
      "color": "#000000"
    }
  },
  "content": "<p>@Compendium[pf-content.pf-rules.4TX2Q1MaWt1B8298]{(Index) Items}</p>\n<p>@Compendium[pf-content.pf-rules.s3ene84nkQAyhCrW]{6.1. Magic Items}</p>\n<ul>\n<li>@Compendium[pf-content.pf-rules.muHuo2GwcCKyy4tP]{6.1.17. Intelligent Items}\n<ul>\n<li>@Compendium[pf-content.pf-rules.b4LOq9k8VNrE5iyy]{6.1.17.01. Designing an Intelligent Item}</li>\n<li>@Compendium[pf-content.pf-rules.r4MKuAOkkduX0vSB]{6.1.17.02. Intelligent Item Alignment}</li>\n<li>@Compendium[pf-content.pf-rules.NcqR7y2f3W7w3zB3]{6.1.17.03. Intelligent Item Ability Scores}</li>\n<li>@Compendium[pf-content.pf-rules.95c8F7Trvs0JaQEX]{6.1.17.04. Languages Spoken by Item}</li>\n<li>@Compendium[pf-content.pf-rules.tnEvcNd14MiiEpB6]{6.1.17.05. Senses and Communication}</li>\n<li>@Compendium[pf-content.pf-rules.n2JT7kfk2HfZ0uLS]{6.1.17.06. Intelligent Item Powers}</li>\n<li>@Compendium[pf-content.pf-rules.h50LqdBk0F8Hy0fW]{6.1.17.07. Special Purpose Items}</li>\n<li>@Compendium[pf-content.pf-rules.T6zgyR9mqlc3tIH9]{6.1.17.08. Dedicated Powers}</li>\n<li>@Compendium[pf-content.pf-rules.VX4NrZsdHQAZ4EUF]{6.1.17.09. Item Ego}</li>\n<li>@Compendium[pf-content.pf-rules.Bj3cXy4heUoCX53t]{6.1.17.10. Items against Characters}</li>\n</ul>\n</li>\n</ul>\n<hr />\n<p><strong>Source</strong> <em>PRPG Core Rulebook pg. 533</em></p>\n<p>Like a character, an intelligent item understands Common plus one additional language per point of Intelligence bonus. Choose appropriate languages, taking into account the item&rsquo;s origin and purposes. If the item does not possess speech, it can still read and understand the languages it knows.</p>",
  "pages": [],
  "_key": "!journal!95c8F7Trvs0JaQEX"
}