{
  "_id": "87rVetLgCkc8cm5d",
  "name": "6.1.19. Artifacts",
  "flags": {
    "cf": {
      "id": "temp_knjtd555il",
      "path": "Rules#/CF_SEP/Items#/CF_SEP/01 Magic Items",
      "color": "#000000"
    }
  },
  "content": "<p>@Compendium[pf-content.pf-rules.4TX2Q1MaWt1B8298]{(Index) Items}</p>\n<p>@Compendium[pf-content.pf-rules.s3ene84nkQAyhCrW]{6.1. Magic Items}</p>\n<ul>\n<li>@Compendium[pf-content.pf-rules.sP6qrGJREE0X596I]{6.1.01. Magic Items and Detect Magic}</li>\n<li>@Compendium[pf-content.pf-rules.N3qNOnemt2nuACdl]{6.1.02. Using Items}</li>\n<li>@Compendium[pf-content.pf-rules.VOtMqlqVoaZs7zu3]{6.1.03. Magic Items on the Body}</li>\n<li>@Compendium[pf-content.pf-rules.EyKVuz8Ae2Bh5Z32]{6.1.04. Saving Throws Against Magic Item Powers}</li>\n<li>@Compendium[pf-content.pf-rules.oXM5hPY9YSNGCEpU]{6.1.05. Damaging Magic Items}</li>\n<li>@Compendium[pf-content.pf-rules.M3XyBvOcp11YAnAL]{6.1.06. Purchasing Magic Items}</li>\n<li>@Compendium[pf-content.pf-rules.iZ6tZ7PFna0TiXkW]{6.1.07. Magic Item Descriptions}</li>\n<li>@Compendium[pf-content.pf-rules.b91t5OrtW3axrmKd]{6.1.08. Magic Armor}</li>\n<li>@Compendium[pf-content.pf-rules.TT91XHZCetT5yyVc]{6.1.09. Magic Weapons}</li>\n<li>@Compendium[pf-content.pf-rules.itDodwwkCVnIf0jU]{6.1.10. Potions}</li>\n<li>@Compendium[pf-content.pf-rules.LFs1l4pTdQgqrkjx]{6.1.11. Rings}</li>\n<li>@Compendium[pf-content.pf-rules.LxBkrhoOTfPeNQ7Z]{6.1.12. Rods}</li>\n<li>@Compendium[pf-content.pf-rules.2QvAhr3WucxaQNeN]{6.1.13. Scrolls}</li>\n<li>@Compendium[pf-content.pf-rules.3mXUlZodNKkPDj0D]{6.1.14. Staves}</li>\n<li>@Compendium[pf-content.pf-rules.wi435P7HqEEOQwFA]{6.1.15. Wands}</li>\n<li>@Compendium[pf-content.pf-rules.HYNbOvjpMu4OZlfs]{6.1.16. Wondrous Items}</li>\n<li>@Compendium[pf-content.pf-rules.muHuo2GwcCKyy4tP]{6.1.17. Intelligent Items}</li>\n<li>@Compendium[pf-content.pf-rules.LaZ4cSkdCxMwDnXD]{6.1.18. Cursed Items}</li>\n<li>@Compendium[pf-content.pf-rules.87rVetLgCkc8cm5d]{6.1.19. Artifacts}</li>\n<li>@Compendium[pf-content.pf-rules.X6hkpqXjE3T3jRy2]{6.1.20. Magic Item Creation}</li>\n</ul>\n<hr />\n<p><strong>Source</strong> <em>PRPG Core Rulebook pg. 543</em></p>\n<p>Artifacts are extremely powerful. Rather than merely another form of magical equipment, they are the sorts of legendary relics that whole campaigns can be based on. Each could be the center of a whole set of adventures&mdash;a quest to recover it, a fight against an opponent wielding it, a mission to cause its destruction, and so on.</p>\n<p>&nbsp;</p>\n<p>Unlike normal magic items, artifacts are not easily destroyed. Instead of construction information, each artifact includes one possible means by which it might be destroyed.</p>\n<p>&nbsp;</p>\n<p>Artifacts can never be purchased, nor are they found as part of a random treasure hoard. When placing an artifact in your game, be sure to consider its impact and role. Remember that artifacts are fickle objects, and if they become too much of a nuisance, they can easily disappear or become lost once again.</p>\n<p>&nbsp;</p>\n<p><em>See PF-Artifacts compendium for many Artifacts (incomplete).</em></p>\n<p>&nbsp;</p>\n<h2>Minor Artifacts</h2>\n<p><strong>Source</strong> <em>PRPG Core Rulebook pg. 543</em></p>\n<p>Minor artifacts are not necessarily unique items. Even so, they are magic items that no longer can be created, at least by common mortal means.</p>\n<p>&nbsp;</p>\n<h2>Major Artifacts</h2>\n<p><strong>Source</strong> <em>PRPG Core Rulebook pg. 547</em></p>\n<p>Major artifacts are unique items&mdash;only one of each such item exists. These are the most potent of magic items, capable of altering the balance of a campaign. Unlike all other magic items, major artifacts are not easily destroyed. Each should have only a single, specific means of destruction.</p>",
  "pages": [],
  "_key": "!journal!87rVetLgCkc8cm5d"
}