{
  "_id": "r4MKuAOkkduX0vSB",
  "name": "6.1.17.02. Intelligent Item Alignment",
  "flags": {
    "cf": {
      "id": "temp_knjtd555il",
      "path": "Rules#/CF_SEP/Items#/CF_SEP/01 Magic Items",
      "color": "#000000"
    }
  },
  "content": "<p>@Compendium[pf-content.pf-rules.4TX2Q1MaWt1B8298]{(Index) Items}</p>\n<p>@Compendium[pf-content.pf-rules.s3ene84nkQAyhCrW]{6.1. Magic Items}</p>\n<ul>\n<li>@Compendium[pf-content.pf-rules.muHuo2GwcCKyy4tP]{6.1.17. Intelligent Items}\n<ul>\n<li>@Compendium[pf-content.pf-rules.b4LOq9k8VNrE5iyy]{6.1.17.01. Designing an Intelligent Item}</li>\n<li>@Compendium[pf-content.pf-rules.r4MKuAOkkduX0vSB]{6.1.17.02. Intelligent Item Alignment}</li>\n<li>@Compendium[pf-content.pf-rules.NcqR7y2f3W7w3zB3]{6.1.17.03. Intelligent Item Ability Scores}</li>\n<li>@Compendium[pf-content.pf-rules.95c8F7Trvs0JaQEX]{6.1.17.04. Languages Spoken by Item}</li>\n<li>@Compendium[pf-content.pf-rules.tnEvcNd14MiiEpB6]{6.1.17.05. Senses and Communication}</li>\n<li>@Compendium[pf-content.pf-rules.n2JT7kfk2HfZ0uLS]{6.1.17.06. Intelligent Item Powers}</li>\n<li>@Compendium[pf-content.pf-rules.h50LqdBk0F8Hy0fW]{6.1.17.07. Special Purpose Items}</li>\n<li>@Compendium[pf-content.pf-rules.T6zgyR9mqlc3tIH9]{6.1.17.08. Dedicated Powers}</li>\n<li>@Compendium[pf-content.pf-rules.VX4NrZsdHQAZ4EUF]{6.1.17.09. Item Ego}</li>\n<li>@Compendium[pf-content.pf-rules.Bj3cXy4heUoCX53t]{6.1.17.10. Items against Characters}</li>\n</ul>\n</li>\n</ul>\n<hr />\n<p><strong>Source</strong> <em>PRPG Core Rulebook pg. 533</em></p>\n<p>Any item with intelligence has an alignment (see Table 15&ndash; 21). Note that intelligent weapons already have alignments, either stated or by implication. If you&rsquo;re generating a random intelligent weapon, that weapon&rsquo;s alignment must fit with any alignment-oriented special abilities it has.</p>\n<p>&nbsp;</p>\n<p>Any character whose alignment does not correspond to that of the item (except as noted by the asterisks on the table) gains one negative level if he or she so much as picks up the item. Although this negative level never results in actual level loss, it remains as long as the item is in hand and cannot be overcome in any way (including by restoration spells). This negative level is cumulative with any other penalties the item might place on inappropriate wielders. Items with Ego scores (see below) of 20 to 29 bestow two negative levels. Items with Ego scores of 30 or higher bestow three negative levels.</p>\n<p>&nbsp;</p>\n<h2>Table 15&ndash;21: Intelligent Item Alignment</h2>\n<table style=\"height: 162px; width: 37.8655%;\" border=\"1\">\n<thead>\n<tr style=\"height: 16px;\">\n<td style=\"width: 49.1697%; height: 16px; text-align: center;\" scope=\"col\">d%</td>\n<td style=\"width: 50.5123%; height: 16px; text-align: center;\" scope=\"col\">Alignment of Item</td>\n</tr>\n</thead>\n<tbody>\n<tr style=\"height: 16px;\">\n<td style=\"width: 49.1697%; height: 16px; text-align: center;\">01&ndash;10</td>\n<td style=\"width: 50.5123%; height: 16px; text-align: center;\">Chaotic good</td>\n</tr>\n<tr style=\"height: 18px;\">\n<td style=\"width: 49.1697%; height: 18px; text-align: center;\">11&ndash;20</td>\n<td style=\"width: 50.5123%; height: 18px; text-align: center;\">Chaotic neutral*</td>\n</tr>\n<tr style=\"height: 16px;\">\n<td style=\"width: 49.1697%; height: 16px; text-align: center;\">21&ndash;35</td>\n<td style=\"width: 50.5123%; height: 16px; text-align: center;\">Chaotic evil</td>\n</tr>\n<tr style=\"height: 16px;\">\n<td style=\"width: 49.1697%; height: 16px; text-align: center;\">36&ndash;45</td>\n<td style=\"width: 50.5123%; height: 16px; text-align: center;\">Neutral evil*</td>\n</tr>\n<tr style=\"height: 16px;\">\n<td style=\"width: 49.1697%; height: 16px; text-align: center;\">46&ndash;55</td>\n<td style=\"width: 50.5123%; height: 16px; text-align: center;\">Lawful evil</td>\n</tr>\n<tr style=\"height: 16px;\">\n<td style=\"width: 49.1697%; height: 16px; text-align: center;\">56&ndash;70</td>\n<td style=\"width: 50.5123%; height: 16px; text-align: center;\">Lawful good</td>\n</tr>\n<tr style=\"height: 16px;\">\n<td style=\"width: 49.1697%; height: 16px; text-align: center;\">71&ndash;80</td>\n<td style=\"width: 50.5123%; height: 16px; text-align: center;\">Lawful neutral*</td>\n</tr>\n<tr style=\"height: 16px;\">\n<td style=\"width: 49.1697%; height: 16px; text-align: center;\">81&ndash;90</td>\n<td style=\"width: 50.5123%; height: 16px; text-align: center;\">Neutral good*</td>\n</tr>\n<tr style=\"height: 16px;\">\n<td style=\"width: 49.1697%; height: 16px; text-align: center;\">91&ndash;100</td>\n<td style=\"width: 50.5123%; height: 16px; text-align: center;\">Neutral</td>\n</tr>\n</tbody>\n</table>\n<p>* The item can also be used by any character whose alignment corresponds to the non-neutral portion of the item&rsquo;s alignment.</p>",
  "pages": [],
  "_key": "!journal!r4MKuAOkkduX0vSB"
}