{
  "name": "6.1.19.2. Major Artifacts",
  "flags": {
    "cf": {
      "id": "temp_knjtd555il",
      "path": "Rules#/CF_SEP/Items#/CF_SEP/01 Magic Items",
      "color": "#000000"
    }
  },
  "content": "",
  "_id": "nVkSnAzLW4L1jzFm",
  "pages": [],
  "_key": "!journal!nVkSnAzLW4L1jzFm"
}