{
  "_id": "sP6qrGJREE0X596I",
  "name": "6.1.01. Magic Items and Detect Magic",
  "flags": {
    "cf": {
      "id": "temp_knjtd555il",
      "path": "Rules#/CF_SEP/Items#/CF_SEP/01 Magic Items",
      "color": "#000000"
    }
  },
  "content": "<p>@Compendium[pf-content.pf-rules.4TX2Q1MaWt1B8298]{(Index) Items}</p>\n<p>@Compendium[pf-content.pf-rules.s3ene84nkQAyhCrW]{6.1. Magic Items}</p>\n<ul>\n<li>@Compendium[pf-content.pf-rules.sP6qrGJREE0X596I]{6.1.01. Magic Items and Detect Magic}</li>\n<li>@Compendium[pf-content.pf-rules.N3qNOnemt2nuACdl]{6.1.02. Using Items}</li>\n<li>@Compendium[pf-content.pf-rules.VOtMqlqVoaZs7zu3]{6.1.03. Magic Items on the Body}</li>\n<li>@Compendium[pf-content.pf-rules.EyKVuz8Ae2Bh5Z32]{6.1.04. Saving Throws Against Magic Item Powers}</li>\n<li>@Compendium[pf-content.pf-rules.oXM5hPY9YSNGCEpU]{6.1.05. Damaging Magic Items}</li>\n<li>@Compendium[pf-content.pf-rules.M3XyBvOcp11YAnAL]{6.1.06. Purchasing Magic Items}</li>\n<li>@Compendium[pf-content.pf-rules.iZ6tZ7PFna0TiXkW]{6.1.07. Magic Item Descriptions}</li>\n<li>@Compendium[pf-content.pf-rules.b91t5OrtW3axrmKd]{6.1.08. Magic Armor}</li>\n<li>@Compendium[pf-content.pf-rules.TT91XHZCetT5yyVc]{6.1.09. Magic Weapons}</li>\n<li>@Compendium[pf-content.pf-rules.itDodwwkCVnIf0jU]{6.1.10. Potions}</li>\n<li>@Compendium[pf-content.pf-rules.LFs1l4pTdQgqrkjx]{6.1.11. Rings}</li>\n<li>@Compendium[pf-content.pf-rules.LxBkrhoOTfPeNQ7Z]{6.1.12. Rods}</li>\n<li>@Compendium[pf-content.pf-rules.2QvAhr3WucxaQNeN]{6.1.13. Scrolls}</li>\n<li>@Compendium[pf-content.pf-rules.3mXUlZodNKkPDj0D]{6.1.14. Staves}</li>\n<li>@Compendium[pf-content.pf-rules.wi435P7HqEEOQwFA]{6.1.15. Wands}</li>\n<li>@Compendium[pf-content.pf-rules.HYNbOvjpMu4OZlfs]{6.1.16. Wondrous Items}</li>\n<li>@Compendium[pf-content.pf-rules.muHuo2GwcCKyy4tP]{6.1.17. Intelligent Items}</li>\n<li>@Compendium[pf-content.pf-rules.LaZ4cSkdCxMwDnXD]{6.1.18. Cursed Items}</li>\n<li>@Compendium[pf-content.pf-rules.87rVetLgCkc8cm5d]{6.1.19. Artifacts}</li>\n<li>@Compendium[pf-content.pf-rules.X6hkpqXjE3T3jRy2]{6.1.20. Magic Item Creation}</li>\n</ul>\n<hr />\n<p><strong>Source</strong> <em>PRPG Core Rulebook pg. 458</em></p>\n<p>When detect magic identifies a magic item&rsquo;s school of magic, this information refers to the school of the spell placed within the potion, scroll, or wand, or the prerequisite given for the item. The description of each item provides its aura strength and the school to which it belongs.</p>\n<p>See @Compendium[pf1.skills.ki0QvL0K7u4YuK0O]{Knowledge} and @Compendium[pf1.skills.uLZI2uWz0uB8UgBc]{Spellcraft}</p>\n<p>&nbsp;</p>\n<p>If more than one spell is given as a prerequisite, use the highest-level spell. If no spells are included in the prerequisites, use the following default guidelines.</p>\n<table style=\"width: 58.0154%;\" border=\"1\">\n<thead>\n<tr>\n<td style=\"width: 62.3989%;\" scope=\"col\">Item Nature</td>\n<td style=\"width: 36.869%;\" scope=\"col\">School</td>\n</tr>\n</thead>\n<tbody>\n<tr>\n<td style=\"width: 62.3989%;\">Armors and protection items</td>\n<td style=\"width: 36.869%;\">Abjuration</td>\n</tr>\n<tr>\n<td style=\"width: 62.3989%;\">Weapons or offensive items</td>\n<td style=\"width: 36.869%;\">Evocation</td>\n</tr>\n<tr>\n<td style=\"width: 62.3989%;\">Bonus to ability score, skill check, etc.</td>\n<td style=\"width: 36.869%;\">Transmutation</td>\n</tr>\n</tbody>\n</table>",
  "pages": [],
  "_key": "!journal!sP6qrGJREE0X596I"
}