{
  "_id": "tnEvcNd14MiiEpB6",
  "name": "6.1.17.05. Senses and Communication",
  "flags": {
    "cf": {
      "id": "temp_knjtd555il",
      "path": "Rules#/CF_SEP/Items#/CF_SEP/01 Magic Items",
      "color": "#000000"
    }
  },
  "content": "<p>@Compendium[pf-content.pf-rules.4TX2Q1MaWt1B8298]{(Index) Items}</p>\n<p>@Compendium[pf-content.pf-rules.s3ene84nkQAyhCrW]{6.1. Magic Items}</p>\n<ul>\n<li>@Compendium[pf-content.pf-rules.muHuo2GwcCKyy4tP]{6.1.17. Intelligent Items}\n<ul>\n<li>@Compendium[pf-content.pf-rules.b4LOq9k8VNrE5iyy]{6.1.17.01. Designing an Intelligent Item}</li>\n<li>@Compendium[pf-content.pf-rules.r4MKuAOkkduX0vSB]{6.1.17.02. Intelligent Item Alignment}</li>\n<li>@Compendium[pf-content.pf-rules.NcqR7y2f3W7w3zB3]{6.1.17.03. Intelligent Item Ability Scores}</li>\n<li>@Compendium[pf-content.pf-rules.95c8F7Trvs0JaQEX]{6.1.17.04. Languages Spoken by Item}</li>\n<li>@Compendium[pf-content.pf-rules.tnEvcNd14MiiEpB6]{6.1.17.05. Senses and Communication}</li>\n<li>@Compendium[pf-content.pf-rules.n2JT7kfk2HfZ0uLS]{6.1.17.06. Intelligent Item Powers}</li>\n<li>@Compendium[pf-content.pf-rules.h50LqdBk0F8Hy0fW]{6.1.17.07. Special Purpose Items}</li>\n<li>@Compendium[pf-content.pf-rules.T6zgyR9mqlc3tIH9]{6.1.17.08. Dedicated Powers}</li>\n<li>@Compendium[pf-content.pf-rules.VX4NrZsdHQAZ4EUF]{6.1.17.09. Item Ego}</li>\n<li>@Compendium[pf-content.pf-rules.Bj3cXy4heUoCX53t]{6.1.17.10. Items against Characters}</li>\n</ul>\n</li>\n</ul>\n<hr />\n<p><strong>Source</strong> <em>PRPG Core Rulebook pg. 533</em></p>\n<p>Every intelligent magic item begins with the ability to see and hear within 30 feet, as well as the ability to communicate empathically with its owner. Empathy only allows the item to encourage or discourage certain actions through urges and emotions. Additional forms of communication and better senses increase the item&rsquo;s cost and Ego score, as noted on Table 15&ndash;23.</p>\n<p>&nbsp;</p>\n<h2>Empathy (Su)</h2>\n<p>Empathy allows the item to encourage or discourage certain actions by communicating emotions and urges. It does not allow for verbal communication.</p>\n<p>&nbsp;</p>\n<h2>Speech (Su)</h2>\n<p>An intelligent item with the capability for speech can talk using any of the languages it knows.</p>\n<p>&nbsp;</p>\n<h2>Telepathy (Su)</h2>\n<p>Telepathy allows an intelligent item to communicate with its wielder telepathically, regardless of its known languages. The wielder must be touching the item to communicate in this way.</p>\n<p>&nbsp;</p>\n<h2>Senses</h2>\n<p>Senses allow an intelligent magic item to see and hear out to the listed distance. Adding darkvision or blindsense allows the item to use those senses out to the same range as the item&rsquo;s base senses.</p>\n<p>&nbsp;</p>\n<h2>Read Languages (Ex)</h2>\n<p>The item can read script in any language, regardless of its known languages.</p>\n<p>&nbsp;</p>\n<h2>Read Magic (Sp)</h2>\n<p>An intelligent magic item with this ability can read magical writings and scrolls as if through read magic. This ability does not allow the magic item to activate scrolls or other items. An intelligent magic item can suppress and resume this ability as a free action.</p>\n<p>&nbsp;</p>\n<h2>Table 15&ndash;23: Intelligent Item Senses and Communication</h2>\n<table style=\"height: 176px; width: 59.9802%;\" border=\"1\">\n<thead>\n<tr style=\"height: 16px;\">\n<td style=\"width: 36.8839%; height: 16px; text-align: center;\" scope=\"col\">Ability Base</td>\n<td style=\"width: 32.9094%; height: 16px; text-align: center;\" scope=\"col\">Price Modifier</td>\n<td style=\"width: 29.8887%; height: 16px; text-align: center;\" scope=\"col\">Ego Modifier</td>\n</tr>\n</thead>\n<tbody>\n<tr style=\"height: 16px;\">\n<td style=\"width: 36.8839%; height: 16px; text-align: center;\">Empathy</td>\n<td style=\"width: 32.9094%; height: 16px; text-align: center;\">&mdash;</td>\n<td style=\"width: 29.8887%; height: 16px; text-align: center;\">&mdash;</td>\n</tr>\n<tr style=\"height: 16px;\">\n<td style=\"width: 36.8839%; height: 16px; text-align: center;\">Speech</td>\n<td style=\"width: 32.9094%; height: 16px; text-align: center;\">+500 gp</td>\n<td style=\"width: 29.8887%; height: 16px; text-align: center;\">&mdash;</td>\n</tr>\n<tr style=\"height: 16px;\">\n<td style=\"width: 36.8839%; height: 16px; text-align: center;\">Telepathy</td>\n<td style=\"width: 32.9094%; height: 16px; text-align: center;\">+1,000 gp</td>\n<td style=\"width: 29.8887%; height: 16px; text-align: center;\">+1</td>\n</tr>\n<tr style=\"height: 16px;\">\n<td style=\"width: 36.8839%; height: 16px; text-align: center;\">Senses (30 ft.)</td>\n<td style=\"width: 32.9094%; height: 16px; text-align: center;\">&mdash;</td>\n<td style=\"width: 29.8887%; height: 16px; text-align: center;\">&mdash;</td>\n</tr>\n<tr style=\"height: 16px;\">\n<td style=\"width: 36.8839%; height: 16px; text-align: center;\">Senses (60 ft.)</td>\n<td style=\"width: 32.9094%; height: 16px; text-align: center;\">+500 gp</td>\n<td style=\"width: 29.8887%; height: 16px; text-align: center;\">&mdash;</td>\n</tr>\n<tr style=\"height: 16px;\">\n<td style=\"width: 36.8839%; height: 16px; text-align: center;\">Senses (120 ft.)</td>\n<td style=\"width: 32.9094%; height: 16px; text-align: center;\">+1,000 gp</td>\n<td style=\"width: 29.8887%; height: 16px; text-align: center;\">&mdash;</td>\n</tr>\n<tr style=\"height: 16px;\">\n<td style=\"width: 36.8839%; height: 16px; text-align: center;\">Darkvision</td>\n<td style=\"width: 32.9094%; height: 16px; text-align: center;\">+500 gp</td>\n<td style=\"width: 29.8887%; height: 16px; text-align: center;\">&mdash;</td>\n</tr>\n<tr style=\"height: 16px;\">\n<td style=\"width: 36.8839%; height: 16px; text-align: center;\">Blindsense</td>\n<td style=\"width: 32.9094%; height: 16px; text-align: center;\">+5,000 gp</td>\n<td style=\"width: 29.8887%; height: 16px; text-align: center;\">+1</td>\n</tr>\n<tr style=\"height: 16px;\">\n<td style=\"width: 36.8839%; height: 16px; text-align: center;\">Read languages</td>\n<td style=\"width: 32.9094%; height: 16px; text-align: center;\">+1,000 gp</td>\n<td style=\"width: 29.8887%; height: 16px; text-align: center;\">+1</td>\n</tr>\n<tr style=\"height: 16px;\">\n<td style=\"width: 36.8839%; height: 16px; text-align: center;\">Read magic</td>\n<td style=\"width: 32.9094%; height: 16px; text-align: center;\">+2,000 gp</td>\n<td style=\"width: 29.8887%; height: 16px; text-align: center;\">+1</td>\n</tr>\n</tbody>\n</table>\n<p>&nbsp;</p>",
  "pages": [],
  "_key": "!journal!tnEvcNd14MiiEpB6"
}