{
  "_id": "xPL69LmsvZhMQXkI",
  "name": "6.2.2.05. Vehicle Facing and Movement",
  "flags": {
    "cf": {
      "id": "temp_e76lddqktgr",
      "path": "Rules#/CF_SEP/Items#/CF_SEP/02 Vehicles",
      "color": "#000000"
    }
  },
  "content": "<p><span style=\"white-space: pre;\">@Compendium[pf-content.pf-rules.4TX2Q1MaWt1B8298]{(Index) Items}</span></p>\n<p><span style=\"white-space: pre;\">@Compendium[pf-content.pf-rules.F9hzOnUh5c0Ls2p6]{6.2. Vehicles}</span></p>\n<ul>\n<li><span style=\"white-space: pre;\"> </span>@Compendium[pf-content.pf-rules.sjmHLtUHjp10PRNg]{6.2.2. Full Vehicle Rules}\n<ul>\n<li><span style=\"white-space: pre;\"> </span>@Compendium[pf-content.pf-rules.CQgsuMCjnSXQT5tK]{6.2.2.01. Drivers}</li>\n<li><span style=\"white-space: pre;\"> </span>@Compendium[pf-content.pf-rules.n20ux7F2Gua3Henu]{6.2.2.02. Occupants}</li>\n<li><span style=\"white-space: pre;\"> </span>@Compendium[pf-content.pf-rules.WNrj8ktGtzmJ2idV]{6.2.2.03. Propulsion and Driving Checks}</li>\n<li><span style=\"white-space: pre;\"> </span>@Compendium[pf-content.pf-rules.bqobhetOALHmOywu]{6.2.2.04. Vehicle Size and Space}</li>\n<li><span style=\"white-space: pre;\"> </span>@Compendium[pf-content.pf-rules.xPL69LmsvZhMQXkI]{6.2.2.05. Vehicle Facing and Movement}</li>\n<li><span style=\"white-space: pre;\"> </span>@Compendium[pf-content.pf-rules.wYDD2ws3dIeQaHKV]{6.2.2.06. Driving Vehicles}</li>\n<li><span style=\"white-space: pre;\"> </span>@Compendium[pf-content.pf-rules.AoRyhHSyrQd2YNsf]{6.2.2.07. Optional Rule: Wide Turns}</li>\n<li><span style=\"white-space: pre;\"> </span>@Compendium[pf-content.pf-rules.uCzllyIwfv6C8w51]{6.2.2.08. Vehicles in Combat}</li>\n<li><span style=\"white-space: pre;\"> </span>@Compendium[pf-content.pf-rules.RQx3RwhdQds2znsh]{6.2.2.09. Propulsion Devies}</li>\n<li><span style=\"white-space: pre;\"> </span>@Compendium[pf-content.pf-rules.UkducnpdR3NCcjdK]{6.2.2.10. Driving Devices}</li>\n</ul>\n</li>\n</ul>\n<hr />\n<p><strong>Source</strong> <em>Ultimate Combat pg. 172</em></p>\n<p>Vehicles do not move like creatures, even when they use creatures as propulsion. They tend to move in the direction of their forward facing, and do so quickly.</p>\n<p>&nbsp;</p>\n<h2>Facing</h2>\n<p>Unlike creatures, most vehicles have a forward facing. The facing of the vehicle determines its best path of propulsion. Vehicles are very good at moving in the direction of their forward facing, but it takes time and skill to move them in other directions. A horse-pulled wagon moves forward quickly and with ease, but turning a corner requires proper timing and a crack of the whip. A ship propelled by an air current can take a great deal of effort to stop, especially once it has reached top speed. Vehicle facing represents the effect of inertia on vehicles.</p>\n<p>&nbsp;</p>\n<p>When driven correctly, vehicles can move straight ahead, diagonally, or a mix of both within the same movement. Skilled drivers can make a vehicle zigzag in a forward direction with ease.</p>\n<p>&nbsp;</p>\n<h2>Movement</h2>\n<p>Vehicles have a maximum speed and an acceleration listing. The speed is the fastest rate the vehicle can travel. When a creature or creatures pull a vehicle, the vehicle&rsquo;s maximum speed is equal to twice the speed of the creature providing the propulsion, and its acceleration is the creature&rsquo;s speed. (Teams of mixed creature types use the slowest creature&rsquo;s speed.) A vehicle cannot start at its maximum speed, unless it has some form of high-level magic propulsion. Each round, the driver can attempt to accelerate the vehicle or decelerate it by a rate equal to its acceleration (see Driving Vehicles below). The rate at which a vehicle is currently moving is called its current speed.</p>",
  "pages": [],
  "_key": "!journal!xPL69LmsvZhMQXkI"
}