{
  "_id": "CQgsuMCjnSXQT5tK",
  "name": "6.2.2.01. Drivers",
  "flags": {
    "cf": {
      "id": "temp_e76lddqktgr",
      "path": "Rules#/CF_SEP/Items#/CF_SEP/02 Vehicles",
      "color": "#000000"
    }
  },
  "content": "<p><span style=\"white-space: pre;\">@Compendium[pf-content.pf-rules.4TX2Q1MaWt1B8298]{(Index) Items}</span></p>\n<p><span style=\"white-space: pre;\">@Compendium[pf-content.pf-rules.F9hzOnUh5c0Ls2p6]{6.2. Vehicles}</span></p>\n<ul>\n<li><span style=\"white-space: pre;\"> </span>@Compendium[pf-content.pf-rules.sjmHLtUHjp10PRNg]{6.2.2. Full Vehicle Rules}\n<ul>\n<li><span style=\"white-space: pre;\"> </span>@Compendium[pf-content.pf-rules.CQgsuMCjnSXQT5tK]{6.2.2.01. Drivers}</li>\n<li><span style=\"white-space: pre;\"> </span>@Compendium[pf-content.pf-rules.n20ux7F2Gua3Henu]{6.2.2.02. Occupants}</li>\n<li><span style=\"white-space: pre;\"> </span>@Compendium[pf-content.pf-rules.WNrj8ktGtzmJ2idV]{6.2.2.03. Propulsion and Driving Checks}</li>\n<li><span style=\"white-space: pre;\"> </span>@Compendium[pf-content.pf-rules.bqobhetOALHmOywu]{6.2.2.04. Vehicle Size and Space}</li>\n<li><span style=\"white-space: pre;\"> </span>@Compendium[pf-content.pf-rules.xPL69LmsvZhMQXkI]{6.2.2.05. Vehicle Facing and Movement}</li>\n<li><span style=\"white-space: pre;\"> </span>@Compendium[pf-content.pf-rules.wYDD2ws3dIeQaHKV]{6.2.2.06. Driving Vehicles}</li>\n<li><span style=\"white-space: pre;\"> </span>@Compendium[pf-content.pf-rules.AoRyhHSyrQd2YNsf]{6.2.2.07. Optional Rule: Wide Turns}</li>\n<li><span style=\"white-space: pre;\"> </span>@Compendium[pf-content.pf-rules.uCzllyIwfv6C8w51]{6.2.2.08. Vehicles in Combat}</li>\n<li><span style=\"white-space: pre;\"> </span>@Compendium[pf-content.pf-rules.RQx3RwhdQds2znsh]{6.2.2.09. Propulsion Devies}</li>\n<li><span style=\"white-space: pre;\"> </span>@Compendium[pf-content.pf-rules.UkducnpdR3NCcjdK]{6.2.2.10. Driving Devices}</li>\n</ul>\n</li>\n</ul>\n<hr />\n<p><strong>Source</strong> <em>Ultimate Combat pg. 170</em></p>\n<p>A vehicle is a special movable object that requires two things to keep it moving&mdash;a driver and a method of propulsion. A driver is a creature with an Intelligence score of 3 or more who is physically able to use the vehicle&rsquo;s driving mechanism. In other words, the creature needs to be the correct size and have the correct anatomy to use whatever tool is used to drive the vehicle. Sometimes a driving mechanism may have its own requirements for use. The driver uses that mechanism and her skill (or her Wisdom) to control the vehicle. Without a driver, a vehicle will not move or will continue moving in a straight line, depending on the vehicle&rsquo;s state when it becomes driverless.</p>\n<p>&nbsp;</p>\n<p>A creature must be the size of a vehicle or smaller in order to drive it.</p>",
  "pages": [],
  "_key": "!journal!CQgsuMCjnSXQT5tK"
}