{
  "name": "6.3.5. Escaping Contracts",
  "flags": {
    "cf": {
      "id": "temp_wu2fhi0nih",
      "path": "Rules#/CF_SEP/Items#/CF_SEP/03 Infernal Contracts",
      "color": "#000000"
    }
  },
  "content": "",
  "_id": "fOCKFLbHMVcnIapI",
  "pages": [],
  "_key": "!journal!fOCKFLbHMVcnIapI"
}