{
  "_id": "iqCQcMGmm0pmWqUf",
  "name": "7.0.2.11. Spell Resistance",
  "flags": {
    "cf": {
      "id": "temp_3tptzvo6mqt",
      "path": "Rules#/CF_SEP/Magics#/CF_SEP/00 Magic Basics",
      "color": "#000000"
    }
  },
  "content": "<p>@Compendium[pf-content.pf-rules.dS0UkKOINqI2iTDX]{(Index) Magic}</p>\n<p>@Compendium[pf-content.pf-rules.VqmfepmRULVzQGwS]{7.0. Magic Basics}</p>\n<ul>\n<li>@Compendium[pf-content.pf-rules.JrvOGuTDYfoiaCZf]{7.0.2. Spell Descriptions}\n<ul>\n<li>@Compendium[pf-content.pf-rules.pPk4zIniRiNT8bkZ]{7.0.2.01. Name}</li>\n<li>@Compendium[pf-content.pf-rules.elUkRwtMDJnpBUbt]{7.0.2.02. School (Subschool)}</li>\n<li>@Compendium[pf-content.pf-rules.uHFbrzKIeTHMBW89]{7.0.2.03. Descriptor}</li>\n<li>@Compendium[pf-content.pf-rules.BK6acSa2umnwCvYo]{7.0.2.04. Level}</li>\n<li>@Compendium[pf-content.pf-rules.85G4EAPyKRDKdp4F]{7.0.2.05. Components}</li>\n<li>@Compendium[pf-content.pf-rules.kJ9Y6R0EmdWvWAYS]{7.0.2.06. Casting Time}</li>\n<li>@Compendium[pf-content.pf-rules.eoicSkLMiuBmRsJG]{7.0.2.07. Range}</li>\n<li>@Compendium[pf-content.pf-rules.CObmMzf1HCwePOdv]{7.0.2.08. Aiming a Spell}</li>\n<li>@Compendium[pf-content.pf-rules.IoLudXWL9DLU1p9l]{7.0.2.09. Duration}</li>\n<li>@Compendium[pf-content.pf-rules.osoMkDti3clgURz9]{7.0.2.10. Saving Throw}</li>\n<li>@Compendium[pf-content.pf-rules.iqCQcMGmm0pmWqUf]{7.0.2.11. Spell Resistance}</li>\n<li>@Compendium[pf-content.pf-rules.PybdVd7VGR9riGuX]{7.0.2.12. Descriptive Text}</li>\n</ul>\n</li>\n</ul>\n<hr />\n<p><strong>Source</strong> <em>PRPG Core Rulebook pg. 217</em></p>\n<p>Spell resistance is a special defensive ability. If your spell is being resisted by a creature with spell resistance, you must make a caster level check (1d20 + caster level) at least equal to the creature&rsquo;s spell resistance for the spell to affect that creature. The defender&rsquo;s spell resistance is like an Armor Class against magical attacks. Include any adjustments to your caster level to this caster level check.</p>\n<p>&nbsp;</p>\n<p>The Spell Resistance entry and the descriptive text of a spell description tell you whether spell resistance protects creatures from the spell. In many cases, spell resistance applies only when a resistant creature is targeted by the spell, not when a resistant creature encounters a spell that is already in place.</p>\n<p>&nbsp;</p>\n<p>The terms &ldquo;object&rdquo; and &ldquo;harmless&rdquo; mean the same thing for spell resistance as they do for saving throws. A creature with spell resistance must voluntarily lower the resistance (a standard action) in order to be affected by such spells without forcing the caster to make a caster level check.</p>",
  "pages": [],
  "_key": "!journal!iqCQcMGmm0pmWqUf"
}