{
  "_id": "DcA0BhlzGBOmJlBR",
  "name": "7.0.1.2. Concentration",
  "flags": {
    "cf": {
      "id": "temp_3tptzvo6mqt",
      "path": "Rules#/CF_SEP/Magics#/CF_SEP/00 Magic Basics",
      "color": "#000000"
    }
  },
  "content": "<p>@Compendium[pf-content.pf-rules.dS0UkKOINqI2iTDX]{(Index) Magic}</p>\n<p>@Compendium[pf-content.pf-rules.VqmfepmRULVzQGwS]{7.0. Magic Basics}</p>\n<ul>\n<li>@Compendium[pf-content.pf-rules.QsXwV60ztDqlXSwM]{7.0.1. Casting Spells}\n<ul>\n<li>@Compendium[pf-content.pf-rules.GiftUNKJHstqRaRu]{7.0.1.1. Choosing a Spell}</li>\n<li>@Compendium[pf-content.pf-rules.DcA0BhlzGBOmJlBR]{7.0.1.2. Concentration}</li>\n<li>@Compendium[pf-content.pf-rules.jcWzZxyQlFAl4ovj]{7.0.1.3. Counterspells}</li>\n<li>@Compendium[pf-content.pf-rules.zsULaA3W562EQNNZ]{7.0.1.4. Caster Level}</li>\n<li>@Compendium[pf-content.pf-rules.6BXjv5dKzNBoeF6f]{7.0.1.5. Spell Failure}</li>\n<li>@Compendium[pf-content.pf-rules.uHbJduQkQNwTE2jw]{7.0.1.6. The Spell's Results}</li>\n<li>@Compendium[pf-content.pf-rules.uoVKBPwOgPq2F1Ie]{7.0.1.7. Special Spell Effects}</li>\n<li>@Compendium[pf-content.pf-rules.1YlpjJunlELz8Wga]{7.0.1.8. Combining Magic Effects}</li>\n</ul>\n</li>\n</ul>\n<hr />\n<p><strong>Source</strong> <em>PRPG Core Rulebook pg. 206</em></p>\n<p>To cast a spell, you must concentrate. If something interrupts your concentration while you&rsquo;re casting, you must make a concentration check or lose the spell. When you make a concentration check, you roll d20 and add your caster level and the ability score modifier used to determine bonus spells of the same type. Clerics, druids, and rangers add their Wisdom modifier. Bards, paladins, and sorcerers add their Charisma modifier. Finally, wizards add their Intelligence modifier. The more distracting the interruption and the higher the level of the spell you are trying to cast, the higher the DC (see Table 9&ndash;1). If you fail the check, you lose the spell just as if you had cast it to no effect.</p>\n<p>&nbsp;</p>\n<h2>Injury</h2>\n<p>If you take damage while trying to cast a spell, you must make a concentration check with a DC equal to 10 + the damage taken + the level of the spell you&rsquo;re casting. If you fail the check, you lose the spell without effect. The interrupting event strikes during spellcasting if it comes between the time you started and the time you complete a spell (for a spell with a casting time of 1 full round or more) or if it comes in response to your casting the spell (such as an attack of opportunity provoked by the spell or a contingent attack, such as a readied action).</p>\n<p>&nbsp;</p>\n<p>If you are taking continuous damage, such as from an acid arrow or by standing in a lake of lava, half the damage is considered to take place while you are casting a spell. You must make a concentration check with a DC equal to 10 + 1/2 the damage that the continuous source last dealt + the level of the spell you&rsquo;re casting. If the last damage dealt was the last damage that the effect could deal, then the damage is over and does not distract you.</p>\n<p>&nbsp;</p>\n<h2>Spell</h2>\n<p>If you are affected by a spell while attempting to cast a spell of your own, you must make a concentration check or lose the spell you are casting. If the spell affecting you deals damage, the DC is 10 + the damage taken + the level of the spell you&rsquo;re casting.</p>\n<p>&nbsp;</p>\n<p>If the spell interferes with you or distracts you in some other way, the DC is the spell&rsquo;s saving throw DC + the level of the spell you&rsquo;re casting. For a spell with no saving throw, it&rsquo;s the DC that the spell&rsquo;s saving throw would have if a save were allowed (10 + spell level + caster&rsquo;s ability score).</p>\n<p>&nbsp;</p>\n<h2>Grappled or Pinned</h2>\n<p>Casting a spell while you have the grappled or pinned condition is difficult and requires a concentration check (DC 10 + the grappler&rsquo;s CMB + the level of the spell you&rsquo;re casting). Pinned creatures can only cast spells that do not have somatic components.</p>\n<p>&nbsp;</p>\n<h2>Vigorous Motion</h2>\n<p>If you are riding on a moving mount, taking a bouncy ride in a wagon, on a small boat in rough water, belowdecks in a storm-tossed ship, or simply being jostled in a similar fashion, you must make a concentration check (DC 10 + the level of the spell you&rsquo;re casting) or lose the spell.</p>\n<p>&nbsp;</p>\n<h2>Violent Motion</h2>\n<p>If you are on a galloping horse, taking a very rough ride in a wagon, on a small boat in rapids or in a storm, on deck in a storm-tossed ship, or being pitched roughly about in a similar fashion, you must make a concentration check (DC 15 + the level of the spell you&rsquo;re casting) or lose the spell. If the motion is extremely violent, such as that caused by an earthquake, the DC is equal to 20 + the level of the spell you&rsquo;re casting.</p>\n<p>&nbsp;</p>\n<h2>Violent Weather</h2>\n<p>You must make a concentration check if you try to cast a spell in violent weather. If you are in a high wind carrying blinding rain or sleet, the DC is 5 + the level of the spell you&rsquo;re casting. If you are in wind-driven hail, dust, or debris, the DC is 10 + the level of the spell you&rsquo;re casting. In either case, you lose the spell if you fail the concentration check. If the weather is caused by a spell, use the rules as described in the spell&rsquo;s description.</p>\n<p>&nbsp;</p>\n<h2>Casting Defensively</h2>\n<p>If you want to cast a spell without provoking any attacks of opportunity, you must make a concentration check (DC 15 + double the level of the spell you&rsquo;re casting) to succeed. You lose the spell if you fail.</p>\n<p>&nbsp;</p>\n<h2>Entangled</h2>\n<p>If you want to cast a spell while entangled in a net or by a tanglefoot bag or while you&rsquo;re affected by a spell with similar effects, you must make a concentration check to cast the spell (DC 15 + the level of the spell you&rsquo;re casting). You lose the spell if you fail.</p>\n<p>&nbsp;</p>\n<h2>Table 9-1: Concentration Check DCs</h2>\n<table style=\"width: 79.5216%;\" border=\"1\">\n<thead>\n<tr>\n<td style=\"width: 57.1848%;\" scope=\"col\">Situation</td>\n<td style=\"width: 42.0821%;\" scope=\"col\">Concentration Check DC</td>\n</tr>\n</thead>\n<tbody>\n<tr>\n<td style=\"width: 57.1848%;\">Cast defensively</td>\n<td style=\"width: 42.0821%;\">15 + double spell level</td>\n</tr>\n<tr>\n<td style=\"width: 57.1848%;\">Injured while casting</td>\n<td style=\"width: 42.0821%;\">10 + damage dealt + spell level</td>\n</tr>\n<tr>\n<td style=\"width: 57.1848%;\">Continuous damage while casting</td>\n<td style=\"width: 42.0821%;\">10 + 1/2 damage dealt + spell level</td>\n</tr>\n<tr>\n<td style=\"width: 57.1848%;\">Affected by a non-damaging spell while casting</td>\n<td style=\"width: 42.0821%;\">DC of the spell + spell level</td>\n</tr>\n<tr>\n<td style=\"width: 57.1848%;\">Grappled or pinned while casting</td>\n<td style=\"width: 42.0821%;\">10 + grappler's CMB + spell level</td>\n</tr>\n<tr>\n<td style=\"width: 57.1848%;\">Vigorous motion while casting</td>\n<td style=\"width: 42.0821%;\">10 + spell level</td>\n</tr>\n<tr>\n<td style=\"width: 57.1848%;\">Violent motion while casting</td>\n<td style=\"width: 42.0821%;\">15 + spell level</td>\n</tr>\n<tr>\n<td style=\"width: 57.1848%;\">Extremely violent motion while casting</td>\n<td style=\"width: 42.0821%;\">20 + spell level</td>\n</tr>\n<tr>\n<td style=\"width: 57.1848%;\">Wind with rain or sleet while casting</td>\n<td style=\"width: 42.0821%;\">5 + spell level</td>\n</tr>\n<tr>\n<td style=\"width: 57.1848%;\">Wind with hail and debris while casting</td>\n<td style=\"width: 42.0821%;\">10 + spell level</td>\n</tr>\n<tr>\n<td style=\"width: 57.1848%;\">Weather caused by spell</td>\n<td style=\"width: 42.0821%;\">see spell</td>\n</tr>\n<tr>\n<td style=\"width: 57.1848%;\">Entangled while casting</td>\n<td style=\"width: 42.0821%;\">15 + spell level</td>\n</tr>\n</tbody>\n</table>",
  "pages": [],
  "_key": "!journal!DcA0BhlzGBOmJlBR"
}