{
  "_id": "TgfOtwBEW0OmFbJT",
  "name": "7.0.4. Divine Spells",
  "flags": {
    "cf": {
      "id": "temp_3tptzvo6mqt",
      "path": "Rules#/CF_SEP/Magics#/CF_SEP/00 Magic Basics",
      "color": "#000000"
    }
  },
  "content": "<p>@Compendium[pf-content.pf-rules.dS0UkKOINqI2iTDX]{(Index) Magic}</p>\n<p>@Compendium[pf-content.pf-rules.VqmfepmRULVzQGwS]{7.0. Magic Basics}</p>\n<ul>\n<li>@Compendium[pf-content.pf-rules.QsXwV60ztDqlXSwM]{7.0.1. Casting Spells}</li>\n<li>@Compendium[pf-content.pf-rules.JrvOGuTDYfoiaCZf]{7.0.2. Spell Descriptions}</li>\n<li>@Compendium[pf-content.pf-rules.7sbu7PG3Re7FkQos]{7.0.3. Arcane Spells}</li>\n<li>@Compendium[pf-content.pf-rules.TgfOtwBEW0OmFbJT]{7.0.4. Divine Spells}</li>\n<li>@Compendium[pf-content.pf-rules.dk6hyT5yIVDVTlU5]{7.0.5. Psychic Magic}</li>\n<li>@Compendium[pf-content.pf-rules.aZIvW09CvYzzWDmy]{7.0.6. Special Abilities}</li>\n</ul>\n<hr />\n<p><strong>Source</strong> <em>PRPG Core Rulebook pg. 220</em></p>\n<p>Clerics, druids, experienced paladins, and experienced rangers can cast divine spells. Unlike arcane spells, divine spells draw power from a divine source. Clerics gain spell power from deities or from divine forces. The divine force of nature powers druid and ranger spells, and the divine forces of law and good power paladin spells. Divine spells tend to focus on healing and protection and are less f lashy, destructive, and disruptive than arcane spells.</p>\n<p>@Compendium[pf-content.pf-rules.i7TqrtEEGX6SwnaJ]{7.0.4.1. Preparing Divine Spells}</p>\n<p>@Compendium[pf-content.pf-rules.ISmWmvL7xj6jzWuc]{7.0.4.2. Divine Magical Writing}</p>\n<p>@Compendium[pf-content.pf-rules.NUiA6qsVNN3mnSYY]{7.0.4.3. New Divine Spells}</p>",
  "pages": [],
  "_key": "!journal!TgfOtwBEW0OmFbJT"
}