{
  "_id": "jBBYZQsfUvAiEmWV",
  "name": "7.0.3.4. Arcane Spells and Armor",
  "flags": {
    "cf": {
      "id": "temp_3tptzvo6mqt",
      "path": "Rules#/CF_SEP/Magics#/CF_SEP/00 Magic Basics",
      "color": "#000000"
    }
  },
  "content": "<p>@Compendium[pf-content.pf-rules.dS0UkKOINqI2iTDX]{(Index) Magic}</p>\n<p>@Compendium[pf-content.pf-rules.VqmfepmRULVzQGwS]{7.0. Magic Basics}</p>\n<ul>\n<li>@Compendium[pf-content.pf-rules.7sbu7PG3Re7FkQos]{7.0.3. Arcane Spells}\n<ul>\n<li>@Compendium[pf-content.pf-rules.BIHfeYxy4vvZ5mjt]{7.0.3.1. Preparing Wizard Spells}</li>\n<li>@Compendium[pf-content.pf-rules.UBqamMQYN3ZGFyMh]{7.0.3.2. Arcane Magical Writing}</li>\n<li>@Compendium[pf-content.pf-rules.xsjTbJPM05oYhCik]{7.0.3.3. Sorcerers and Bards}</li>\n<li>@Compendium[pf-content.pf-rules.jBBYZQsfUvAiEmWV]{7.0.3.4. Arcane Spells and Armor}</li>\n</ul>\n</li>\n</ul>\n<hr />\n<p><strong>Source</strong> <em>PRPG Core Rulebook pg. 83</em></p>\n<p>Armor restricts the complicated gestures required while casting any spell that has a somatic component. The armor and shield descriptions list the arcane spell failure chance for different armors and shields.</p>\n<p>&nbsp;</p>\n<p>If a spell doesn&rsquo;t have a somatic component, an arcane spellcaster can cast it with no arcane spell failure chance while wearing armor. Such spells can also be cast even if the caster&rsquo;s hands are bound or he is grappling (although concentration checks still apply normally). The metamagic feat Still Spell allows a spellcaster to prepare or cast a spell without the somatic component at one spell level higher than normal. This also provides a way to cast a spell while wearing armor without risking arcane spell failure.</p>",
  "pages": [],
  "_key": "!journal!jBBYZQsfUvAiEmWV"
}