{
  "_id": "gmY5SUa7PRX8Dgbv",
  "name": "7.1.1. Spellblights",
  "flags": {
    "cf": {
      "id": "temp_ooq7490kebf",
      "path": "Rules#/CF_SEP/Magics#/CF_SEP/01 Mastering Magic",
      "color": "#000000"
    }
  },
  "content": "<p>@Compendium[pf-content.pf-rules.dS0UkKOINqI2iTDX]{(Index) Magic}</p>\n<p>@Compendium[pf-content.pf-rules.zCeqoMSKdZ8r4EPd]{7.1. Mastering Magic}</p>\n<ul>\n<li>@Compendium[pf-content.pf-rules.gmY5SUa7PRX8Dgbv]{7.1.1. Spellblights}</li>\n<li>@Compendium[pf-content.pf-rules.fZNU70m81H98CDY1]{7.1.2. Spell Duels}</li>\n<li>@Compendium[pf-content.pf-rules.Sz0GZaZV3zxb9UTY]{7.1.3. Binding Outsiders}</li>\n<li>@Compendium[pf-content.pf-rules.3HmUAVI78JGriOJQ]{7.1.4. Building and Modifying Constructs}</li>\n<li>@Compendium[pf-content.pf-rules.xdyGkidQGN7vYL1E]{7.1.5. Designing Spells}</li>\n</ul>\n<hr />\n<p><strong>Source</strong> <em>Ultimate Magic pg. 94</em></p>\n<p>Spellblights are rare and unusual magical conditions that uniquely affect spellcasters, including creatures that use spell-like abilities. Spellblights are curses, some functioning continuously and others manifesting only when the aff licted creature attempts to cast a spell or use a spell-like ability. A creature that lacks the ability to cast spells or use spell-like abilities cannot usually be afflicted by a spellblight.</p>\n<p>&nbsp;</p>\n<p>Unlike many magical effects, a spellblight usually persists in an antimagic field, though because they often affect spellcasting, their effect is typically lessened in such a field.</p>\n<p>&nbsp;</p>\n<p>@Compendium[pf-content.pf-rules.OPK25NIEHqUYitgi]{7.1.1.1. Gaining Spellblights}</p>\n<p>@Compendium[pf-content.pf-rules.F6b60bGMBy29g2ly]{7.1.1.2. Optional Ways to Acquire Spellblights}</p>\n<p>@Compendium[pf-content.pf-rules.ISsO29CRESajsLh6]{7.1.1.3. Removing Spellblights}</p>\n<p>@Compendium[pf-content.pf-rules.QG2hyxED2QNo2wrB]{7.1.1.4. Description of Spellblights}</p>\n<ul>\n<li>@Compendium[pf-content.pf-rules.34AhdoIJXSL7gMWo]{7.1.1.4.1. Minor Spellblights}</li>\n<li>@Compendium[pf-content.pf-rules.IMAAbwiYpTkr0mmI]{7.1.1.4.2. Major Spellblights}</li>\n<li>@Compendium[pf-content.pf-rules.XcPppkxDeKkslEVe]{7.1.1.4.3. Benefits of Harmful Conditions}</li>\n</ul>",
  "pages": [],
  "_key": "!journal!gmY5SUa7PRX8Dgbv"
}