{
  "_id": "KlR2PDab6uknvopJ",
  "name": "7.1.5.10. Duration",
  "flags": {
    "cf": {
      "id": "temp_ooq7490kebf",
      "path": "Rules#/CF_SEP/Magics#/CF_SEP/01 Mastering Magic",
      "color": "#000000"
    }
  },
  "content": "<p>@Compendium[pf-content.pf-rules.dS0UkKOINqI2iTDX]{(Index) Magic}</p>\n<p>@Compendium[pf-content.pf-rules.zCeqoMSKdZ8r4EPd]{7.1. Mastering Magic}</p>\n<ul>\n<li>@Compendium[pf-content.pf-rules.xdyGkidQGN7vYL1E]{7.1.5. Designing Spells}</li>\n</ul>\n<hr />\n<p><strong>Source</strong> <em>Ultimate Magic pg. 130</em></p>\n<p>There are no hard-and-fast rules for determining how long a spell should last at a particular level; a weak spell may last hours, while a powerful one may only last a few rounds or be spent in one action. Your best bet is to compare your spell&rsquo;s effect and duration to those of similar spells of its intended level and spells one level below and above that. Make sure you are fully aware of the differences between &ldquo;instantaneous&rdquo; spells and &ldquo;permanent&rdquo; spells.</p>",
  "pages": [],
  "_key": "!journal!KlR2PDab6uknvopJ"
}