{
  "_id": "n2C7iRXWaUOlrpOS",
  "name": "7.1.2.4. Duel Results",
  "flags": {
    "cf": {
      "id": "temp_ooq7490kebf",
      "path": "Rules#/CF_SEP/Magics#/CF_SEP/01 Mastering Magic",
      "color": "#000000"
    }
  },
  "content": "<p>@Compendium[pf-content.pf-rules.dS0UkKOINqI2iTDX]{(Index) Magic}</p>\n<p>@Compendium[pf-content.pf-rules.zCeqoMSKdZ8r4EPd]{7.1. Mastering Magic}</p>\n<ul>\n<li>@Compendium[pf-content.pf-rules.fZNU70m81H98CDY1]{7.1.2. Spell Duels}\n<ul>\n<li>@Compendium[pf-content.pf-rules.UToCl4LMgb7JrfSN]{7.1.2.1. Starting a Duel}</li>\n<li>@Compendium[pf-content.pf-rules.C8a2AhDUmCu38ErH]{7.1.2.2. Duel Combat}</li>\n<li>@Compendium[pf-content.pf-rules.7EnHwOYgITPXfoVu]{7.1.2.3. Duel Counter}</li>\n<li>@Compendium[pf-content.pf-rules.n2C7iRXWaUOlrpOS]{7.1.2.4. Duel Results}</li>\n</ul>\n</li>\n</ul>\n<hr />\n<p><strong>Source</strong> <em>Ultimate Magic pg. 100</em></p>\n<p>While duels can be treated as another form of combat, they are usually done to resolve a dispute between colleagues or rivals and are not usually intended to end in death. As a result, duels are usually fought with a specific prize in mind. Arcane academies are known for having duels to assign important faculty positions and as competitions between students for valuable prizes. In some places, magical duels of this kind are so common that special areas are constructed specifically for duels. Such dueling yards are sometimes made with special magic that can be activated for dueling competitions, converting all damage to nonlethal damage and preventing or reversing magic that instantly slays a foe or does permanent harm. That is not to say that accidents don&rsquo;t happen, and more than one student has lost a limb or even her life while on such &ldquo;safe&rdquo; fields.</p>\n<p>&nbsp;</p>\n<p>Regardless of the conditions, most duels are serious affairs, with each side putting pride, honor, treasure, and even their lives on the line to win the day. While villains might try to cheat the rules and exploit every advantage, the more noble duelist sees the competition as a chance to prove her superiority and skill on the field of battle, using only her magic and wits.</p>",
  "pages": [],
  "_key": "!journal!n2C7iRXWaUOlrpOS"
}