{
  "_id": "IX8Xif3UBwvGZoTL",
  "name": "7.1.4.1. Animated Objects",
  "flags": {
    "cf": {
      "id": "temp_ooq7490kebf",
      "path": "Rules#/CF_SEP/Magics#/CF_SEP/01 Mastering Magic",
      "color": "#000000"
    }
  },
  "content": "<p>@Compendium[pf-content.pf-rules.dS0UkKOINqI2iTDX]{(Index) Magic}</p>\n<p>@Compendium[pf-content.pf-rules.zCeqoMSKdZ8r4EPd]{7.1. Mastering Magic}</p>\n<ul>\n<li>@Compendium[pf-content.pf-rules.3HmUAVI78JGriOJQ]{7.1.4. Building and Modifying Constructs}\n<ul>\n<li>@Compendium[pf-content.pf-rules.IX8Xif3UBwvGZoTL]{7.1.4.1. Animated Objects}</li>\n<li>@Compendium[pf-content.pf-rules.1wOUB8cMjiIMP0Ma]{7.1.4.2. New Animated Object Abilities}</li>\n<li>@Compendium[pf-content.pf-rules.a0XTKDAaQ86Axg4S]{7.1.4.3. Building New Constructs}</li>\n<li>@Compendium[pf-content.pf-rules.7MT0MXLxIZ9incU4]{7.1.4.4. Repairing Constructs}</li>\n<li>@Compendium[pf-content.pf-rules.VGwccLk2uCxKaC57]{7.1.4.5. Construct Modifications}</li>\n</ul>\n</li>\n</ul>\n<hr />\n<p><strong>Source</strong> <em>Ultimate Magic pg. 111</em></p>\n<p>Not all constructs are built with the Craft Construct feat. Spells like animate objects allow a caster to temporarily animate an existing object. These constructs are in many ways weaker than manufactured constructs, as they are susceptible to dispelling and antimagic.</p>\n<p>&nbsp;</p>\n<p>A caster can use the animate objects spell to instantly create a temporary construct. A permanency spell cast upon an animated object makes the construct permanent; however, it can still be dispelled or suppressed by antimagic. Craft Construct creates permanent animated objects not susceptible to dispelling and antimagic. The CR of a potential animated object depends on its size and abilities, as explained in the animated object monster entry.</p>",
  "pages": [],
  "_key": "!journal!IX8Xif3UBwvGZoTL"
}