{
  "_id": "a0XTKDAaQ86Axg4S",
  "name": "7.1.4.3. Building New Constructs",
  "flags": {
    "cf": {
      "id": "temp_ooq7490kebf",
      "path": "Rules#/CF_SEP/Magics#/CF_SEP/01 Mastering Magic",
      "color": "#000000"
    }
  },
  "content": "<p>@Compendium[pf-content.pf-rules.dS0UkKOINqI2iTDX]{(Index) Magic}</p>\n<p>@Compendium[pf-content.pf-rules.zCeqoMSKdZ8r4EPd]{7.1. Mastering Magic}</p>\n<ul>\n<li>@Compendium[pf-content.pf-rules.3HmUAVI78JGriOJQ]{7.1.4. Building and Modifying Constructs}\n<ul>\n<li>@Compendium[pf-content.pf-rules.IX8Xif3UBwvGZoTL]{7.1.4.1. Animated Objects}</li>\n<li>@Compendium[pf-content.pf-rules.1wOUB8cMjiIMP0Ma]{7.1.4.2. New Animated Object Abilities}</li>\n<li>@Compendium[pf-content.pf-rules.a0XTKDAaQ86Axg4S]{7.1.4.3. Building New Constructs}</li>\n<li>@Compendium[pf-content.pf-rules.7MT0MXLxIZ9incU4]{7.1.4.4. Repairing Constructs}</li>\n<li>@Compendium[pf-content.pf-rules.VGwccLk2uCxKaC57]{7.1.4.5. Construct Modifications}</li>\n</ul>\n</li>\n</ul>\n<hr />\n<p><strong>Source</strong> <em>Ultimate Magic pg. 111</em></p>\n<p>Constructs typically have no Intelligence score, an average Wisdom score, and a Charisma of 1. Their dexterity is usually poor to average, though exceptionally nimble constructs do exist. Nearly all constructs of size Medium or larger have high Strength scores; constructs never have a Constitution score.</p>\n<p>&nbsp;</p>\n<p>The monster creation rules in the Bestiary serve as your best guide for designing a new construct. New constructs should stick fairly close to the Monster Statistics by CR table found on page 291 of the Bestiary or the expanded table on page 293 of Bestiary 2. As they are usually mindless combat brutes, most use the &ldquo;high attack&rdquo; column, with damage falling in between the High and Low average damage columns. Note that all the construct&rsquo;s saving throws are likely to be poor, and they have no favored saves. Lacking a Constitution score, a construct&rsquo;s hit points also tend to be low in comparison to creatures with similar CRs. Consider giving any construct that doesn&rsquo;t have either damage reduction or hardness a higher AC to compensate.</p>",
  "pages": [],
  "_key": "!journal!a0XTKDAaQ86Axg4S"
}