{
  "_id": "Jc9NeIDhX4EJy4NY",
  "name": "7.1.3.4.06. Daemons",
  "flags": {
    "cf": {
      "id": "temp_ooq7490kebf"
    }
  },
  "content": "<p>@Compendium[pf-content.pf-rules.dS0UkKOINqI2iTDX]{(Index) Magic}</p>\n<p>@Compendium[pf-content.pf-rules.zCeqoMSKdZ8r4EPd]{7.1. Mastering Magic}</p>\n<ul>\n<li>@Compendium[pf-content.pf-rules.Sz0GZaZV3zxb9UTY]{7.1.3. Binding Outsiders}\n<ul>\n<li>@Compendium[pf-content.pf-rules.M5p2I9If5lZHg5iI]{7.1.3.4. Outsider Categories}\n<ul>\n<li>@Compendium[pf-content.pf-rules.7ajO1mDHRnt1zwri]{7.1.3.4.01. Aeon}</li>\n<li>@Compendium[pf-content.pf-rules.CQQmNNUsLaq64ISd]{7.1.3.4.02. Agathion}</li>\n<li>@Compendium[pf-content.pf-rules.doRTEmrFcb3Jpd6H]{7.1.3.4.03. Angels}</li>\n<li>@Compendium[pf-content.pf-rules.vWKMVgMS2JLVFhSW]{7.1.3.4.04. Archons}</li>\n<li>@Compendium[pf-content.pf-rules.ALU8fOwwjVflaV63]{7.1.3.4.05. Azata}</li>\n<li>@Compendium[pf-content.pf-rules.Jc9NeIDhX4EJy4NY]{7.1.3.4.06. Daemons}</li>\n<li>@Compendium[pf-content.pf-rules.rlk3otEreOuYoI8n]{7.1.3.4.07. Demons}</li>\n<li>@Compendium[pf-content.pf-rules.iNa7owekV9rX5NlO]{7.1.3.4.08. Devils}</li>\n<li>@Compendium[pf-content.pf-rules.pJMFHXBSpUdPcgW2]{7.1.3.4.09. Elementals and Genies}</li>\n<li>@Compendium[pf-content.pf-rules.bxArpGfr07tVDIL4]{7.1.3.4.10. Inevitables}</li>\n<li>@Compendium[pf-content.pf-rules.rA6iR7Xbug6TMgZk]{7.1.3.4.11. Proteans}</li>\n<li>@Compendium[pf-content.pf-rules.J4sDwQBfloYeVUD2]{7.1.3.4.12. Qlippoth}</li>\n<li>@Compendium[pf-content.pf-rules.zMmfoLzjryBQtFrg]{7.1.3.4.13. Other Outsiders}</li>\n</ul>\n</li>\n</ul>\n</li>\n</ul>\n<hr />\n<p><strong>Source</strong> <em>Ultimate Magic pg. 105</em></p>\n<p>All daemons have a common goal: bringing death, destruction, and pain to mortals. They eat souls, and stop at nothing to sate their hunger for them. Daemons are not to be trifled with. The greater lords of the daemons&mdash; the deacons and the Four Horsemen themselves&mdash;are almost never summoned. Whether this is because they force others to arrive in their place, or because they have somehow anchored themselves to the plane of Abaddon, none can say with certainty.</p>\n<p>&nbsp;</p>\n<p>Daemons are immune to acid, death effects, disease, and poison, and all are vulnerable to good and/or silver weapons. They have resistance to cold 10, electricity 10, and fire 10.</p>\n<p>&nbsp;</p>\n<h2>Astradaemon (SR 27)</h2>\n<p>Powerful but relatively dim hunters of souls, astradaemons can only be bribed into service by two things&mdash;a feast of souls and the promise to spread death.</p>\n<p>&nbsp;</p>\n<h2>Cacodaemon</h2>\n<p>Savage and hungry, most cacodaemons cannot suppress their savage natures long enough to make deals. At best, the binder can trick a cacodaemon toward actions in concert with her purposes.</p>\n<p>&nbsp;</p>\n<h2>Ceustodaemon</h2>\n<p>The most common daemons summoned to the Material Plane, ceustodaemons are relatively easy to deal with, though none know if this is because of some deliberate action by more powerful daemons. They are often called guardian daemons, as they are frequently bound to that task.</p>\n<p>&nbsp;</p>\n<h2>Derghodaemon (SR 23)</h2>\n<p>No one summons a derghodaemon unless they are stupid, desperate for the services of a savage killer, or both. Less intelligent than cacodaemons and twice as vicious, derghodaemons do not deal with any creature, and relentlessly attempt to escape their binding, usually with brute force.</p>\n<p>&nbsp;</p>\n<h2>Hydrodaemon (SR 19)</h2>\n<p>On their home plane, these vile creatures swim the River Styx; on the Material Plane, they are often called to serve as guardians in swamps and sanctuaries of unscrupulous spellcasters. More pliable than most of their fiendish kin, hydrodaemons take treasure and the promise of souls as gifts for their services.</p>\n<p>&nbsp;</p>\n<h2>Leukodaemon (SR 20)</h2>\n<p>Leukodaemons are the deacons of the Horseman of Pestilence, and on the rare occasions that they are summoned, they make any deal a binder wants, as long as it somehow results in the spreading of disease and devastation.</p>\n<p>&nbsp;</p>\n<h2>Meladaemon (SR 22)</h2>\n<p>As deacons of the Horseman of Famine, meladaemons are rarely summoned by mortal spellcasters, and typically only agree to actions aligned with their own agendas or those of their lord.</p>\n<p>&nbsp;</p>\n<h2>Olethrodaemon (SR 31)</h2>\n<p>The mammoth olethrodaemons often make deals with mortals wishing to evoke devastation on rival lands, sometimes even asking only half the normal offering for the privilege. Even those olethrodaemons serving one of the Four Horsemen as paragons can be summoned, though it is often assumed that such a feat is done only at their master&rsquo;s whim.</p>\n<p>&nbsp;</p>\n<h2>Piscodaemon (SR 21)</h2>\n<p>Lovers of misery, especially that of the strong and powerful, piscodaemons eagerly make deals with mortals who wish to use them as soldiers against the powers of good&mdash;especially armies composed of or led by paladins.</p>\n<p>&nbsp;</p>\n<h2>Purrodaemon (SR 29)</h2>\n<p>Steadfast servants of the Horseman of War, purrodaemons may be the easiest deacon daemons to summon. It seems their master often gives them leave to spread war on the Material Plane, but their service to any binder is often brief and violent, for both daemon and spellcaster.</p>\n<p>&nbsp;</p>\n<h2>Thanadaemon (SR 24)</h2>\n<p>As deacons of the Horseman of Death, thanadaemons are hardly ever summoned by mortal spellcasters, and when they are, the event portends a near-apocalyptic end of mortal life.</p>",
  "pages": [],
  "_key": "!journal!Jc9NeIDhX4EJy4NY"
}