{
  "name": "8.00.2. Armor as DR",
  "flags": {
    "cf": {
      "id": "temp_nqn26w1euq9",
      "path": "Rules#/CF_SEP/Optional Rules#/CF_SEP/00 Armor as Damage Reduction",
      "color": "#000000"
    }
  },
  "content": "",
  "_id": "EGslZmDFJt0qSXvD",
  "pages": [],
  "_key": "!journal!EGslZmDFJt0qSXvD"
}