{
  "name": "8.01.2. Additional Rules",
  "flags": {
    "cf": {
      "id": "temp_ku5df7jazj",
      "path": "Rules#/CF_SEP/Optional Rules#/CF_SEP/01 Called Shots",
      "color": "#000000"
    }
  },
  "content": "",
  "_id": "tzVqtwv0nhCoyp31",
  "pages": [],
  "_key": "!journal!tzVqtwv0nhCoyp31"
}