{
  "name": "8.01.3.04. Eye",
  "flags": {
    "cf": {
      "id": "temp_ku5df7jazj",
      "path": "Rules#/CF_SEP/Optional Rules#/CF_SEP/01 Called Shots",
      "color": "#000000"
    }
  },
  "content": "",
  "_id": "paEiTS7001jfmcCu",
  "pages": [],
  "_key": "!journal!paEiTS7001jfmcCu"
}