{
  "name": "8.01.3.08. Leg",
  "flags": {
    "cf": {
      "id": "temp_ku5df7jazj",
      "path": "Rules#/CF_SEP/Optional Rules#/CF_SEP/01 Called Shots",
      "color": "#000000"
    }
  },
  "content": "",
  "_id": "0QBX40yHIJZNuHuI",
  "pages": [],
  "_key": "!journal!0QBX40yHIJZNuHuI"
}