{
  "name": "8.01.3.09. Neck",
  "flags": {
    "cf": {
      "id": "temp_ku5df7jazj",
      "path": "Rules#/CF_SEP/Optional Rules#/CF_SEP/01 Called Shots",
      "color": "#000000"
    }
  },
  "content": "",
  "_id": "oa3R3ldz672virBr",
  "pages": [],
  "_key": "!journal!oa3R3ldz672virBr"
}