{
  "_id": "Sbix3hiNSoYEfRKn",
  "name": "8.02.4. Antiheroes",
  "flags": {
    "cf": {
      "id": "temp_daoez2waep",
      "path": "Rules#/CF_SEP/Optional Rules#/CF_SEP/02 Hero Points",
      "color": "#000000"
    }
  },
  "content": "<p>@Compendium[pf-content.pf-rules.bjP6ZTlIA7nkIQB5]{(Index) Optional Rules}</p>\n<p>@Compendium[pf-content.pf-rules.B0l1SgQ3dkXScjmM]{8.02. Hero Points}</p>\n<ul>\n<li>@Compendium[pf-content.pf-rules.yVusNZf6NvjJgW1X]{8.02.1. Awarding Hero Points}</li>\n<li>@Compendium[pf-content.pf-rules.dvKPfeI8tjLDEqlT]{8.02.2. Using Hero Points}</li>\n<li>@Compendium[pf-content.pf-rules.geJdCVCM1YHWI6eF]{8.02.3. Hero Points for GMs}</li>\n<li>@Compendium[pf-content.pf-rules.Sbix3hiNSoYEfRKn]{8.02.4. Antiheroes}</li>\n</ul>\n<hr />\n<p>&nbsp;</p>",
  "pages": [],
  "_key": "!journal!Sbix3hiNSoYEfRKn"
}