{
  "_id": "e2IBqPHxu5NnNIgD",
  "name": "8.03.3. Mass Combat",
  "flags": {
    "cf": {
      "id": "temp_qchy4wok2zi",
      "path": "Rules#/CF_SEP/Optional Rules#/CF_SEP/03 Kingdoms and War",
      "color": "#000000"
    }
  },
  "content": "",
  "pages": [],
  "_key": "!journal!e2IBqPHxu5NnNIgD"
}