{
  "_id": "B4RKKOOuwbUFNNT2",
  "name": "8.03.3.10. Army Tactics",
  "flags": {
    "cf": {
      "id": "temp_qchy4wok2zi",
      "path": "Rules#/CF_SEP/Optional Rules#/CF_SEP/03 Kingdoms and War",
      "color": "#000000"
    }
  },
  "content": "",
  "pages": [],
  "_key": "!journal!B4RKKOOuwbUFNNT2"
}