{
  "_id": "mREvxZKuL3IUnPmO",
  "name": "8.03.3.15. Commanders",
  "flags": {
    "cf": {
      "id": "temp_qchy4wok2zi",
      "path": "Rules#/CF_SEP/Optional Rules#/CF_SEP/03 Kingdoms and War",
      "color": "#000000"
    }
  },
  "content": "",
  "pages": [],
  "_key": "!journal!mREvxZKuL3IUnPmO"
}