{
  "name": "8.04.7.2. Mythic Rank",
  "flags": {
    "cf": {
      "id": "temp_t3lx5iw42k",
      "path": "Rules#/CF_SEP/Optional Rules#/CF_SEP/04 Mythic Rules",
      "color": "#000000"
    }
  },
  "content": "",
  "_id": "6DWOy6SXexYuvo54",
  "pages": [],
  "_key": "!journal!6DWOy6SXexYuvo54"
}