{
  "name": "8.04.5.01. Making a Mythic Atmosphere",
  "flags": {
    "cf": {
      "id": "temp_t3lx5iw42k",
      "path": "Rules#/CF_SEP/Optional Rules#/CF_SEP/04 Mythic Rules",
      "color": "#000000"
    }
  },
  "content": "",
  "_id": "deg0PvyDvCVBvnT6",
  "pages": [],
  "_key": "!journal!deg0PvyDvCVBvnT6"
}