{
  "name": "8.04.2.2. Mythic Paths",
  "flags": {
    "cf": {
      "id": "temp_t3lx5iw42k",
      "path": "Rules#/CF_SEP/Optional Rules#/CF_SEP/04 Mythic Rules",
      "color": "#000000"
    }
  },
  "content": "",
  "_id": "O9tfi0YdSnNvi0UA",
  "pages": [],
  "_key": "!journal!O9tfi0YdSnNvi0UA"
}