{
  "name": "8.04.4. Mythic Spells",
  "flags": {
    "cf": {
      "id": "temp_t3lx5iw42k",
      "path": "Rules#/CF_SEP/Optional Rules#/CF_SEP/04 Mythic Rules",
      "color": "#000000"
    }
  },
  "content": "",
  "_id": "KxzQ8AzGFsdkYYEK",
  "pages": [],
  "_key": "!journal!KxzQ8AzGFsdkYYEK"
}