{
  "name": "8.04.1.2. Mythic versus Non-Mythic",
  "flags": {
    "cf": {
      "id": "temp_t3lx5iw42k",
      "path": "Rules#/CF_SEP/Optional Rules#/CF_SEP/04 Mythic Rules",
      "color": "#000000"
    }
  },
  "content": "",
  "_id": "XrxIzxHg97zJsVG2",
  "pages": [],
  "_key": "!journal!XrxIzxHg97zJsVG2"
}