{
  "name": "8.05.14.1. Revised Action Economy Overview",
  "flags": {
    "cf": {
      "id": "temp_l1z4buym3ee",
      "path": "Rules#/CF_SEP/Optional Rules#/CF_SEP/05 Pathfinder Unchained",
      "color": "#000000"
    }
  },
  "content": "",
  "_id": "dNO4XYh4I5mIxWws",
  "pages": [],
  "_key": "!journal!dNO4XYh4I5mIxWws"
}