{
  "name": "8.05.17.1. Simplified Spellcasting Rules",
  "flags": {
    "cf": {
      "id": "temp_l1z4buym3ee",
      "path": "Rules#/CF_SEP/Optional Rules#/CF_SEP/05 Pathfinder Unchained",
      "color": "#000000"
    }
  },
  "content": "",
  "_id": "AuddCk456FK5B3pJ",
  "pages": [],
  "_key": "!journal!AuddCk456FK5B3pJ"
}