{
  "name": "8.05.02.2. Professions",
  "flags": {
    "cf": {
      "id": "temp_l1z4buym3ee",
      "path": "Rules#/CF_SEP/Optional Rules#/CF_SEP/05 Pathfinder Unchained",
      "color": "#000000"
    }
  },
  "content": "",
  "_id": "396evQaF33pcxFDN",
  "pages": [],
  "_key": "!journal!396evQaF33pcxFDN"
}