{
  "name": "8.05.02.1. Crafting",
  "flags": {
    "cf": {
      "id": "temp_l1z4buym3ee",
      "path": "Rules#/CF_SEP/Optional Rules#/CF_SEP/05 Pathfinder Unchained",
      "color": "#000000"
    }
  },
  "content": "",
  "_id": "aFwuYEVuqaXjlw0o",
  "pages": [],
  "_key": "!journal!aFwuYEVuqaXjlw0o"
}