{
  "name": "8.05.07.05. Adjustments",
  "flags": {
    "cf": {
      "id": "temp_l1z4buym3ee",
      "path": "Rules#/CF_SEP/Optional Rules#/CF_SEP/05 Pathfinder Unchained",
      "color": "#000000"
    }
  },
  "content": "",
  "_id": "rOwCh1OgMBFdgnkA",
  "pages": [],
  "_key": "!journal!rOwCh1OgMBFdgnkA"
}