{
  "name": "8.05.05.16. Altering Skill Bonuses",
  "flags": {
    "cf": {
      "id": "temp_l1z4buym3ee",
      "path": "Rules#/CF_SEP/Optional Rules#/CF_SEP/05 Pathfinder Unchained",
      "color": "#000000"
    }
  },
  "content": "",
  "_id": "KoC2xtcMKFe1OvwR",
  "pages": [],
  "_key": "!journal!KoC2xtcMKFe1OvwR"
}