{
  "name": "8.05.05.01. Skill Descriptions",
  "flags": {
    "cf": {
      "id": "temp_l1z4buym3ee",
      "path": "Rules#/CF_SEP/Optional Rules#/CF_SEP/05 Pathfinder Unchained",
      "color": "#000000"
    }
  },
  "content": "",
  "_id": "vTiVqzQXE3ZGvyo7",
  "pages": [],
  "_key": "!journal!vTiVqzQXE3ZGvyo7"
}