{
  "name": "8.05.07.02. Challenges",
  "flags": {
    "cf": {
      "id": "temp_l1z4buym3ee",
      "path": "Rules#/CF_SEP/Optional Rules#/CF_SEP/05 Pathfinder Unchained",
      "color": "#000000"
    }
  },
  "content": "",
  "_id": "WCUq3Laf2YmybfXp",
  "pages": [],
  "_key": "!journal!WCUq3Laf2YmybfXp"
}