{
  "name": "8.05.23.4. Wounds Threshold Feats",
  "flags": {
    "cf": {
      "id": "temp_l1z4buym3ee",
      "path": "Rules#/CF_SEP/Optional Rules#/CF_SEP/05 Pathfinder Unchained",
      "color": "#000000"
    }
  },
  "content": "",
  "_id": "9HkKT8ZVENAq9eNw",
  "pages": [],
  "_key": "!journal!9HkKT8ZVENAq9eNw"
}