{
  "name": "8.05.15.6. Scaling Item Examples",
  "flags": {
    "cf": {
      "id": "temp_l1z4buym3ee",
      "path": "Rules#/CF_SEP/Optional Rules#/CF_SEP/05 Pathfinder Unchained",
      "color": "#000000"
    }
  },
  "content": "",
  "_id": "OL6kTs3lh3d2Z5P5",
  "pages": [],
  "_key": "!journal!OL6kTs3lh3d2Z5P5"
}