{
  "name": "8.05.15.3. Crafting Scaling Items",
  "flags": {
    "cf": {
      "id": "temp_l1z4buym3ee",
      "path": "Rules#/CF_SEP/Optional Rules#/CF_SEP/05 Pathfinder Unchained",
      "color": "#000000"
    }
  },
  "content": "",
  "_id": "gaiLCC5KZK3grw0k",
  "pages": [],
  "_key": "!journal!gaiLCC5KZK3grw0k"
}