{
  "name": "8.05.12.2. Classes",
  "flags": {
    "cf": {
      "id": "temp_l1z4buym3ee",
      "path": "Rules#/CF_SEP/Optional Rules#/CF_SEP/05 Pathfinder Unchained",
      "color": "#000000"
    }
  },
  "content": "",
  "_id": "SA5yhYEItA7jzMC3",
  "pages": [],
  "_key": "!journal!SA5yhYEItA7jzMC3"
}