{
  "name": "8.05.19.3. Active Spellcasting",
  "flags": {
    "cf": {
      "id": "temp_l1z4buym3ee",
      "path": "Rules#/CF_SEP/Optional Rules#/CF_SEP/05 Pathfinder Unchained",
      "color": "#000000"
    }
  },
  "content": "",
  "_id": "ftpSSvB2FhBaoUUp",
  "pages": [],
  "_key": "!journal!ftpSSvB2FhBaoUUp"
}