{
  "name": "8.05.04.5. New Skills",
  "flags": {
    "cf": {
      "id": "temp_l1z4buym3ee",
      "path": "Rules#/CF_SEP/Optional Rules#/CF_SEP/05 Pathfinder Unchained",
      "color": "#000000"
    }
  },
  "content": "",
  "_id": "5LrVMXdMkuck2WPB",
  "pages": [],
  "_key": "!journal!5LrVMXdMkuck2WPB"
}