{
  "name": "8.05.13.2. Two-Weapon Fighting",
  "flags": {
    "cf": {
      "id": "temp_l1z4buym3ee",
      "path": "Rules#/CF_SEP/Optional Rules#/CF_SEP/05 Pathfinder Unchained",
      "color": "#000000"
    }
  },
  "content": "",
  "_id": "0rDCucGduRk6xUrq",
  "pages": [],
  "_key": "!journal!0rDCucGduRk6xUrq"
}