{
  "name": "8.05.14.3. Simple Actions",
  "flags": {
    "cf": {
      "id": "temp_l1z4buym3ee",
      "path": "Rules#/CF_SEP/Optional Rules#/CF_SEP/05 Pathfinder Unchained",
      "color": "#000000"
    }
  },
  "content": "",
  "_id": "Kh13e7zdnwrsvmql",
  "pages": [],
  "_key": "!journal!Kh13e7zdnwrsvmql"
}