{
  "name": "8.05.07.06. Base Challenges",
  "flags": {
    "cf": {
      "id": "temp_l1z4buym3ee",
      "path": "Rules#/CF_SEP/Optional Rules#/CF_SEP/05 Pathfinder Unchained",
      "color": "#000000"
    }
  },
  "content": "",
  "_id": "m9eAUmSCN7tT3RtM",
  "pages": [],
  "_key": "!journal!m9eAUmSCN7tT3RtM"
}