{
  "name": "8.05.08. Esoteric Material Components",
  "flags": {
    "cf": {
      "id": "temp_l1z4buym3ee",
      "path": "Rules#/CF_SEP/Optional Rules#/CF_SEP/05 Pathfinder Unchained",
      "color": "#000000"
    }
  },
  "content": "",
  "_id": "uppT3UmorXYrE5cb",
  "pages": [],
  "_key": "!journal!uppT3UmorXYrE5cb"
}