{
  "name": "8.05.13.1. The Basics",
  "flags": {
    "cf": {
      "id": "temp_l1z4buym3ee",
      "path": "Rules#/CF_SEP/Optional Rules#/CF_SEP/05 Pathfinder Unchained",
      "color": "#000000"
    }
  },
  "content": "",
  "_id": "IbUNyiDJ9sIExE7O",
  "pages": [],
  "_key": "!journal!IbUNyiDJ9sIExE7O"
}