{
  "name": "8.05.19.1.3. Other Considerations",
  "flags": {
    "cf": {
      "id": "temp_l1z4buym3ee",
      "path": "Rules#/CF_SEP/Optional Rules#/CF_SEP/05 Pathfinder Unchained",
      "color": "#000000"
    }
  },
  "content": "",
  "_id": "2b5mWvjvNZmi7kZi",
  "pages": [],
  "_key": "!journal!2b5mWvjvNZmi7kZi"
}