{
  "name": "8.05.06.1. Progression and End States",
  "flags": {
    "cf": {
      "id": "temp_l1z4buym3ee",
      "path": "Rules#/CF_SEP/Optional Rules#/CF_SEP/05 Pathfinder Unchained",
      "color": "#000000"
    }
  },
  "content": "",
  "_id": "d6ui2fFJOO7BPk4q",
  "pages": [],
  "_key": "!journal!d6ui2fFJOO7BPk4q"
}