{
  "name": "8.05.19.1.1. Limited Magic Items",
  "flags": {
    "cf": {
      "id": "temp_l1z4buym3ee",
      "path": "Rules#/CF_SEP/Optional Rules#/CF_SEP/05 Pathfinder Unchained",
      "color": "#000000"
    }
  },
  "content": "",
  "_id": "LGLeahChafCsAfnw",
  "pages": [],
  "_key": "!journal!LGLeahChafCsAfnw"
}