{
  "name": "8.07.2. Relics In Your Own Campaign",
  "flags": {
    "cf": {
      "id": "temp_klz5gu9skg9",
      "path": "Rules#/CF_SEP/Optional Rules#/CF_SEP/07 Relic",
      "color": "#000000"
    }
  },
  "content": "",
  "_id": "ixHSsPZd6xYenm2w",
  "pages": [],
  "_key": "!journal!ixHSsPZd6xYenm2w"
}