{
  "name": "8.09.1. Determining Wound Points and Vigor Points",
  "flags": {
    "cf": {
      "id": "temp_r9y5xx2k5vp",
      "path": "Rules#/CF_SEP/Optional Rules#/CF_SEP/09 Wounds and Vigor",
      "color": "#000000"
    }
  },
  "content": "",
  "_id": "FpDtwbvzGfxkjwZY",
  "pages": [],
  "_key": "!journal!FpDtwbvzGfxkjwZY"
}