{
  "name": "8.09.3. Attacks that Deal Wound Point Damage",
  "flags": {
    "cf": {
      "id": "temp_r9y5xx2k5vp",
      "path": "Rules#/CF_SEP/Optional Rules#/CF_SEP/09 Wounds and Vigor",
      "color": "#000000"
    }
  },
  "content": "",
  "_id": "LmN4lEhqURqFsnIj",
  "pages": [],
  "_key": "!journal!LmN4lEhqURqFsnIj"
}