{
  "_id": "biGV1a41yIiORN2A",
  "name": "9.2.1. Bluff",
  "flags": {
    "cf": {
      "id": "temp_f8h18hcck09",
      "path": "Rules#/CF_SEP/Skills#/CF_SEP/02 Skills in Conflict",
      "color": "#000000"
    }
  },
  "content": "<p>@Compendium[pf-content.pf-rules.zUOuZVJH1nKufQSo]{(Index) Skills}</p>\n<p>@Compendium[pf-content.pf-rules.EJtwDpvYymcGqQZk]{9.2. Skills in Conflict}</p>\n<ul>\n<li style=\"box-sizing: border-box; user-select: text; visibility: visible; color: #191813;\">@Compendium[pf-content.pf-rules.biGV1a41yIiORN2A]{9.2.1. Bluff}</li>\n<li style=\"box-sizing: border-box; user-select: text; visibility: visible; color: #191813;\">@Compendium[pf-content.pf-rules.sNy0QWGaxnccWVTz]{9.2.2. Diplomacy}</li>\n<li style=\"box-sizing: border-box; user-select: text; visibility: visible; color: #191813;\">@Compendium[pf-content.pf-rules.NzqehppEukjnQUfy]{9.2.3. Disguise}</li>\n<li style=\"box-sizing: border-box; user-select: text; visibility: visible; color: #191813;\">@Compendium[pf-content.pf-rules.frhg7KrHN2tYhhkM]{9.2.4. Intimidate}</li>\n<li style=\"box-sizing: border-box; user-select: text; visibility: visible; color: #191813;\">@Compendium[pf-content.pf-rules.NTIduFRh5A0p0hIu]{9.2.5. Perception and Stealth}</li>\n<li style=\"box-sizing: border-box; user-select: text; visibility: visible; color: #191813;\">@Compendium[pf-content.pf-rules.B1ULzO6COuN6ILPA]{9.2.6. Sense Motive}</li>\n<li style=\"box-sizing: border-box; user-select: text; visibility: visible; color: #191813;\">@Compendium[pf-content.pf-rules.92nmC7Usb2puToet]{9.2.7. Replacing Opposed Rolls}</li>\n</ul>\n<hr />\n<p><strong>Source</strong>&nbsp;<em>Ultimate Intrigue pg. 182</em></p>\n<p><em>@Compendium[pf1.skills.pAB2PYkZO3lsmeaC]{Bluff}</em></p>\n<p>The Bluff skill is an extremely versatile, though sometimes misunderstood, social skill. Unlike Diplomacy and Intimidate, which can directly push their target toward a course of action, Bluff feeds the target misinformation. A skilled user of the Bluff skill needs to understand how the target&rsquo;s mind works, in order to deliver just the right misinformation to achieve the desired results. The disadvantage is that such manipulation is less predictable and more difficult to pull off, but the advantage is that the target is not aware that he is being manipulated, whereas even the most successful Diplomacy or Intimidate attempt leaves the target realizing who has convinced him to take action. This section includes clarifications and details on several different ways to use Bluff&mdash;and on several things that don&rsquo;t work.</p>",
  "pages": [],
  "_key": "!journal!biGV1a41yIiORN2A"
}