{
  "name": "#[CF_tempEntity]",
  "flags": {
    "cf": {
      "id": "temp_joxg37s7dij",
      "path": "Rules#/CF_SEP/Basics#/CF_SEP/05 Alignment",
      "color": "#000000",
      "name": "05 Alignment",
      "children": [],
      "folderPath": [
        "temp_5ubz4qdaa8l",
        "temp_ufin7xunddd"
      ],
      "fontColor": "#FFFFFF",
      "icon": null,
      "sorting": "a",
      "contents": [
        "AjFnUP0k5aUzySH8",
        "ojEKZZWsMZOo6US7",
        "eLunMrqifsJQo9d8"
      ],
      "version": "2.5.3"
    }
  },
  "_id": "avtYfd56iIfHeRVy",
  "pages": [],
  "ownership": {
    "default": 0
  },
  "_stats": {
    "systemId": "pf1",
    "systemVersion": "0.82.2",
    "coreVersion": "10.287",
    "createdTime": null,
    "modifiedTime": 1665430559761,
    "lastModifiedBy": "IPeKQhMz2Odi77tR"
  },
  "_key": "!journal!avtYfd56iIfHeRVy"
}