{
  "name": "#[CF_tempEntity]",
  "flags": {
    "cf": {
      "id": "temp_kwrlg0mpo9a",
      "path": "Rules#/CF_SEP/Combat#/CF_SEP/02 Actions in Combat",
      "color": "#000000",
      "name": "02 Actions in Combat",
      "children": [],
      "folderPath": [
        "temp_5ubz4qdaa8l",
        "temp_istgbs6j5"
      ],
      "fontColor": "#FFFFFF",
      "icon": null,
      "sorting": "a",
      "contents": [
        "VZCpOrg3jCyNaYeg",
        "rBQpOuMH0B3O44Da",
        "PsEv51WUo7p8GpBc",
        "r0ymFTNYo4FzlMSq",
        "qm7mqCXwfpA2EM6w",
        "QjHgjK8yLzdgS9C2",
        "YVJsIHmx7LM0vjis",
        "1gHRLA4nwxDAlhkT",
        "fyI5urlBrb7QHHdP",
        "vrUDXGlO1OjHJNG9",
        "m0W4ZfFwuk8VvtqJ",
        "ahHTC0eIvgjCD1q8",
        "f5kr6Bqqyk9xOtIl",
        "ar43eQpnTlVaxpaC",
        "FWu3x1nvAMNuRNPO",
        "To6uGP2YaopKfb40",
        "VmngEZLYaGfe2NoY",
        "Vyyf85DLOOoSamJi",
        "q5bgNObausAXw2UA",
        "8cm2RntAmLLlg7nz",
        "EQdgZgwMQkFK2adC",
        "pHyKz8UQhg8FImjY",
        "adrsWQRvBNEI4q1M",
        "sDdDsMio3YkKR36L",
        "A0PE1jTg1M6hXYax",
        "cxuyKuA6aplz0W8K",
        "bIK8PWXSNXGJJc5Z",
        "SAS9r6uETX9ujcGh",
        "TNqwlI9NHrqLLptU",
        "V2sLViVNHrWvfdid",
        "EwuWKrrT3zgSlesa",
        "9OmYxk2Ir9wOknNg",
        "MXmX8k8motOf98dp",
        "n3ejDpqIKzKy97TU",
        "3GeZw8nK6Zjs2qvC",
        "PHjZollV2EfO7rAa",
        "pIDiwty0LLzlVhru"
      ],
      "version": "2.5.3"
    }
  },
  "_id": "z42McGBdYlFXEpgA",
  "pages": [],
  "ownership": {
    "default": 0
  },
  "_stats": {
    "systemId": "pf1",
    "systemVersion": "0.82.2",
    "coreVersion": "10.287",
    "createdTime": null,
    "modifiedTime": 1665430559763,
    "lastModifiedBy": "IPeKQhMz2Odi77tR"
  },
  "_key": "!journal!z42McGBdYlFXEpgA"
}