{
  "name": "#[CF_tempEntity]",
  "flags": {
    "cf": {
      "id": "temp_10b4h28k1wyl",
      "path": "Rules#/CF_SEP/Exploration#/CF_SEP/00 Movement",
      "color": "#000000",
      "name": "00 Movement",
      "children": [],
      "folderPath": [
        "temp_5ubz4qdaa8l",
        "temp_knwdqsiu2oe"
      ],
      "fontColor": "#FFFFFF",
      "icon": null,
      "sorting": "a",
      "contents": [
        "vsp6TyvvUw3KOD0b",
        "FsWpwLt3Qi737rne",
        "FQLGuC26f6TDZ16u",
        "jLbdG9bbb1MReAgk",
        "fb47U9dPcy4j7rOz"
      ],
      "version": "2.5.3"
    }
  },
  "_id": "LuJZx4d8gVQEBdtc",
  "pages": [],
  "ownership": {
    "default": 0
  },
  "_stats": {
    "systemId": "pf1",
    "systemVersion": "0.82.2",
    "coreVersion": "10.287",
    "createdTime": null,
    "modifiedTime": 1665430559759,
    "lastModifiedBy": "IPeKQhMz2Odi77tR"
  },
  "_key": "!journal!LuJZx4d8gVQEBdtc"
}