{
  "name": "#[CF_tempEntity]",
  "flags": {
    "cf": {
      "id": "temp_nqn26w1euq9",
      "path": "Rules#/CF_SEP/Optional Rules#/CF_SEP/00 Armor as Damage Reduction",
      "color": "#000000",
      "name": "00 Armor as Damage Reduction",
      "children": [],
      "folderPath": [
        "temp_5ubz4qdaa8l",
        "temp_pp2glly5fh"
      ],
      "fontColor": "#FFFFFF",
      "icon": null,
      "sorting": "a",
      "contents": [
        "PY2XFI9gM8Lxrmtj",
        "wQij7ncIH34wXdYJ",
        "EGslZmDFJt0qSXvD",
        "orwDvzneyRemgTYu"
      ],
      "version": "2.5.3"
    }
  },
  "_id": "SNuJ2iQxxQTC39JE",
  "pages": [],
  "ownership": {
    "default": 0
  },
  "_stats": {
    "systemId": "pf1",
    "systemVersion": "0.82.2",
    "coreVersion": "10.287",
    "createdTime": null,
    "modifiedTime": 1665430559759,
    "lastModifiedBy": "IPeKQhMz2Odi77tR"
  },
  "_key": "!journal!SNuJ2iQxxQTC39JE"
}