{
  "name": "#[CF_tempEntity]",
  "flags": {
    "cf": {
      "id": "temp_hfr1kzs5cym",
      "path": "Rules#/CF_SEP/Skills#/CF_SEP/00 Acquiring Skills",
      "color": "#000000",
      "name": "00 Acquiring Skills",
      "children": [],
      "folderPath": [
        "temp_5ubz4qdaa8l",
        "temp_c2oqfsbm0o6"
      ],
      "fontColor": "#FFFFFF",
      "icon": null,
      "sorting": "a",
      "contents": [
        "lWtGhRUjHQa3Wd0W",
        "aUiz43uuVyTowC27",
        "T7UJG1nOgJL3GL2z",
        "oHq025KMLI1X8ufB"
      ],
      "version": "2.5.3"
    }
  },
  "_id": "r95ojwHxhq7H3s0A",
  "pages": [],
  "ownership": {
    "default": 0
  },
  "_stats": {
    "systemId": "pf1",
    "systemVersion": "0.82.2",
    "coreVersion": "10.287",
    "createdTime": null,
    "modifiedTime": 1665430559762,
    "lastModifiedBy": "IPeKQhMz2Odi77tR"
  },
  "_key": "!journal!r95ojwHxhq7H3s0A"
}