{
  "name": "#[CF_tempEntity]",
  "flags": {
    "cf": {
      "id": "temp_e2u03yzpxzl",
      "path": "Rules#/CF_SEP/Basics#/CF_SEP/01 Common Terms",
      "color": "#000000",
      "name": "01 Common Terms",
      "children": [],
      "folderPath": [
        "temp_5ubz4qdaa8l",
        "temp_ufin7xunddd"
      ],
      "fontColor": "#FFFFFF",
      "icon": null,
      "sorting": "a",
      "contents": [
        "yamoxc6efGhmX3cm"
      ],
      "version": "2.5.3"
    }
  },
  "_id": "EqAAym0rUyxYEDNO",
  "pages": [],
  "ownership": {
    "default": 0
  },
  "_stats": {
    "systemId": "pf1",
    "systemVersion": "0.82.2",
    "coreVersion": "10.287",
    "createdTime": null,
    "modifiedTime": 1665430559759,
    "lastModifiedBy": "IPeKQhMz2Odi77tR"
  },
  "_key": "!journal!EqAAym0rUyxYEDNO"
}