{
  "_id": "kAJexDuJ2IAXZODj",
  "name": "(Index) Exploration",
  "content": "<p>@Compendium[pf-content.pf-rules.Ic1tlF3EE1QNW3kE]{(Index)}</p>\n<hr />\n<h2>Movement</h2>\n<p>@Compendium[pf-content.pf-rules.vsp6TyvvUw3KOD0b]{4.0. Movement}</p>\n<ul>\n<li><span style=\"white-space: pre;\"> </span>@Compendium[pf-content.pf-rules.FsWpwLt3Qi737rne]{4.0.1. Tactical Movement}</li>\n<li><span style=\"white-space: pre;\"> </span>@Compendium[pf-content.pf-rules.FQLGuC26f6TDZ16u]{4.0.2. Local Movement}</li>\n<li><span style=\"white-space: pre;\"> </span>@Compendium[pf-content.pf-rules.jLbdG9bbb1MReAgk]{4.0.3. Overland Movement}</li>\n<li><span style=\"white-space: pre;\"> </span>@Compendium[pf-content.pf-rules.fb47U9dPcy4j7rOz]{4.0.4. Evasion and Pursuit}</li>\n</ul>\n<hr />\n<p>&nbsp;</p>\n<h2>Vision and Light</h2>\n<p>@Compendium[pf-content.pf-rules.TrYHWkJ3jiOCYufl]{4.1. Vision and Light}</p>\n<hr />\n<p>&nbsp;</p>\n<h2>Breaking and Entering</h2>\n<p>@Compendium[pf-content.pf-rules.1EvBiiUnVOT4cUbT]{4.2. Breaking and Entering}</p>\n<ul>\n<li><span style=\"white-space: pre;\"> </span>@Compendium[pf-content.pf-rules.rEHXXby37VzctF5p]{4.2.1. Smashing an Object}</li>\n<li><span style=\"white-space: pre;\"> </span>@Compendium[pf-content.pf-rules.e7snRWHn5Dxl7FNp]{4.2.2. Breaking Items}</li>\n</ul>",
  "pages": [],
  "_key": "!journal!kAJexDuJ2IAXZODj"
}