{
  "_id": "jTaeREVBdEeawArA",
  "name": "*Common Conditional Modifiers",
  "type": "attack",
  "img": "systems/pf1/icons/skills/mech_8.jpg",
  "system": {
    "description": {
      "value": "<p>List of pre-made, commonly used Conditional Modifiers.</p>\n<ul>\n<li>Flanking</li>\n<li>Outflank</li>\n<li>Study Target</li>\n<li>Sneak Attack</li>\n<li>Precise Strike</li>\n<li>Bonus to DC&nbsp;</li>\n<li>Charging</li>\n<li>Increased Charge cost</li>\n<li>Crit Confirm Bonus</li>\n</ul>\n<hr />\n<p><strong>Usage: </strong>Drag and drop to other attacks' conditional modifiers and adjust as needed.&nbsp;</p>",
      "unidentified": ""
    },
    "tags": [],
    "actions": [
      {
        "_id": "sfzdsn9xp2o0p6hz",
        "name": "Attack",
        "img": "systems/pf1/icons/skills/mech_8.jpg",
        "description": "",
        "tag": "commonConditionalModifiers",
        "activation": {
          "cost": 1,
          "type": "standard",
          "unchained": {
            "cost": 2,
            "type": "action"
          }
        },
        "duration": {
          "value": "",
          "units": "turn"
        },
        "target": {
          "value": ""
        },
        "range": {
          "units": "",
          "maxIncrements": 1,
          "minValue": null,
          "minUnits": ""
        },
        "uses": {
          "autoDeductChargesCost": "",
          "self": {
            "value": 0,
            "maxFormula": "",
            "per": null
          },
          "per": "charges",
          "value": 0,
          "maxFormula": "",
          "max": 0
        },
        "measureTemplate": {
          "type": "cone",
          "size": "10",
          "overrideColor": false,
          "customColor": "",
          "overrideTexture": false,
          "customTexture": ""
        },
        "attackName": "",
        "actionType": "mwak",
        "attackBonus": "",
        "critConfirmBonus": "",
        "damage": {
          "parts": [
            {
              "formula": "1d1",
              "type": {
                "values": [],
                "custom": ""
              }
            }
          ],
          "critParts": [
            {
              "formula": "",
              "type": {
                "values": [],
                "custom": ""
              }
            }
          ],
          "nonCritParts": [
            {
              "formula": "",
              "type": {
                "values": [],
                "custom": ""
              }
            }
          ]
        },
        "attackParts": [
          [
            "",
            ""
          ]
        ],
        "formulaicAttacks": {
          "count": {
            "formula": ""
          },
          "bonus": {
            "formula": ""
          },
          "label": null
        },
        "formula": "",
        "ability": {
          "attack": "",
          "damage": "str",
          "damageMult": 1,
          "critRange": 20,
          "critMult": 2
        },
        "save": {
          "dc": "10",
          "type": "fort",
          "description": ""
        },
        "effectNotes": [],
        "attackNotes": [],
        "soundEffect": "",
        "powerAttack": {
          "multiplier": "",
          "damageBonus": 2,
          "critMultiplier": 1
        },
        "naturalAttack": {
          "primaryAttack": true,
          "secondary": {
            "attackBonus": "-5",
            "damageMult": 0.5
          }
        },
        "nonlethal": false,
        "touch": false,
        "usesAmmo": false,
        "spellEffect": "",
        "spellArea": "",
        "conditionals": [
          {
            "default": false,
            "name": "Flanking",
            "modifiers": [
              {
                "formula": "2",
                "target": "attack",
                "subTarget": "allAttack",
                "type": "untyped",
                "critical": "normal",
                "_id": "ak4xa7phgj693uas"
              }
            ],
            "_id": "jxal6n985iw36vu9"
          },
          {
            "default": false,
            "name": "Outflank",
            "modifiers": [
              {
                "formula": "4",
                "target": "attack",
                "subTarget": "allAttack",
                "type": "untyped",
                "critical": "normal",
                "_id": "isj7cyk3wfoe6f8x"
              }
            ],
            "_id": "88eiweat07czn65c"
          },
          {
            "default": false,
            "name": "Study target",
            "modifiers": [
              {
                "formula": "1",
                "target": "attack",
                "subTarget": "allAttack",
                "type": "untyped",
                "critical": "normal",
                "_id": "v3uffws5luh85j12"
              },
              {
                "formula": "1",
                "target": "damage",
                "subTarget": "allDamage",
                "type": "",
                "critical": "normal",
                "_id": "3uw2f4o4idptmqkg",
                "damageType": {
                  "values": [],
                  "custom": ""
                }
              }
            ],
            "_id": "fcv3g2cj5y3kqfl5"
          },
          {
            "default": false,
            "name": "Sneak Attack",
            "modifiers": [
              {
                "formula": "1d6",
                "target": "damage",
                "subTarget": "allDamage",
                "type": "",
                "critical": "nonCrit",
                "_id": "4i579lcqh1drwcjb",
                "damageType": {
                  "values": [],
                  "custom": "Precision"
                }
              }
            ],
            "_id": "oxr965uy6xud5hmr"
          },
          {
            "default": false,
            "name": "Precise Strike",
            "modifiers": [
              {
                "formula": "1d6",
                "target": "effect",
                "subTarget": "dc",
                "type": "",
                "critical": "",
                "_id": "4p4tjpmu4r8avzsd"
              }
            ],
            "_id": "52eps820u3plzlol"
          },
          {
            "default": false,
            "name": "Generic Bonus to DC",
            "modifiers": [
              {
                "formula": "1",
                "target": "effect",
                "subTarget": "dc",
                "type": "",
                "critical": "",
                "_id": "lo924s86ycqtc36g"
              }
            ],
            "_id": "6zbc0z8b61hqqcpu"
          },
          {
            "default": false,
            "name": "Charging",
            "modifiers": [
              {
                "formula": "2",
                "target": "attack",
                "subTarget": "allAttack",
                "type": "untyped",
                "critical": "normal",
                "_id": "lzxq0b87k0iu85d8"
              }
            ],
            "_id": "kt5ymbatbk0165y4"
          },
          {
            "default": false,
            "name": "Increased Charge Use",
            "modifiers": [
              {
                "formula": "1",
                "target": "misc",
                "subTarget": "charges",
                "type": "",
                "critical": "",
                "_id": "ave20w1b09g41e6f"
              }
            ],
            "_id": "3ewzc1uacrtrboco"
          },
          {
            "default": false,
            "name": "Crit Confirm Bonus",
            "modifiers": [
              {
                "formula": "1",
                "target": "attack",
                "subTarget": "allAttack",
                "type": "untyped",
                "critical": "crit",
                "_id": "u3m510hd7m2jiz23"
              }
            ],
            "_id": "6558y82m14qmb3kn"
          }
        ],
        "enh": {
          "value": null
        }
      }
    ],
    "uses": {
      "per": "charges",
      "value": 0,
      "maxFormula": "",
      "autoDeductChargesCost": "1",
      "max": 0
    },
    "attackNotes": [],
    "effectNotes": [],
    "links": {
      "children": [],
      "charges": [],
      "ammunition": []
    },
    "tag": "commonConditionalModifiers",
    "useCustomTag": false,
    "flags": {
      "boolean": {},
      "dictionary": {}
    },
    "scriptCalls": [],
    "masterwork": false,
    "enh": null,
    "proficient": true,
    "held": "normal",
    "showInQuickbar": true,
    "broken": false,
    "ammoType": "",
    "subType": "weapon",
    "baseTypes": [],
    "weaponGroups": {
      "value": [],
      "custom": ""
    },
    "size": "med"
  },
  "ownership": {
    "default": 0
  },
  "_stats": {
    "systemId": "pf1",
    "systemVersion": "9.1",
    "coreVersion": "10.291",
    "createdTime": 1665428266091,
    "modifiedTime": 1689797817591,
    "lastModifiedBy": "ppv91YxratjWnkJi"
  },
  "effects": [],
  "folder": null,
  "sort": 0,
  "flags": {},
  "_key": "!items!jTaeREVBdEeawArA"
}