{
  "_id": "t0QGeA0tMQcXx5Hu",
  "name": "Alter Self (Medium)",
  "type": "buff",
  "img": "systems/pf1/icons/feats/exhausting-critical.jpg",
  "system": {
    "description": {
      "value": "<p>When you cast this spell, you can assume the form of any Small or Medium creature of the humanoid type. If the form you assume has any of the following abilities, you gain the listed ability: darkvision 60 feet, low-light vision, scent, and swim 30 feet.</p>\n<p><em>Medium creature</em>: If the form you take is that of a Medium humanoid, you gain a +2 size bonus to your Strength.</p>\n<p><strong>Usage:</strong> Add any relevant abilities notes or changes in the changes tab. Adjust token vision as appropriate.</p>",
      "unidentified": ""
    },
    "tags": [],
    "changes": [
      {
        "_id": "f455f4q0",
        "formula": "2",
        "operator": "add",
        "subTarget": "str",
        "modifier": "size",
        "priority": 0,
        "value": 0,
        "target": "ability"
      }
    ],
    "changeFlags": {
      "loseDexToAC": false,
      "noEncumbrance": false,
      "mediumArmorFullSpeed": false,
      "heavyArmorFullSpeed": false
    },
    "contextNotes": [],
    "links": {
      "children": []
    },
    "tag": "alterSelfMedium",
    "useCustomTag": false,
    "flags": {
      "boolean": {},
      "dictionary": {}
    },
    "scriptCalls": [],
    "subType": "temp",
    "active": false,
    "level": "",
    "hideFromToken": false,
    "uses": {
      "value": 0,
      "max": 0
    }
  },
  "ownership": {
    "default": 0
  },
  "_stats": {
    "systemId": "pf1",
    "systemVersion": "9.1",
    "coreVersion": "10.291",
    "createdTime": 1665428266130,
    "modifiedTime": 1689797817896,
    "lastModifiedBy": "ppv91YxratjWnkJi"
  },
  "effects": [],
  "folder": null,
  "sort": 0,
  "flags": {},
  "_key": "!items!t0QGeA0tMQcXx5Hu"
}