{
  "_id": "rjnMUgUmdMU8pQwa",
  "name": "Animal Focus (Bull)",
  "type": "buff",
  "img": "systems/pf1/icons/feats/greater-bull-rush.jpg",
  "flags": {
    "scene-packer": {
      "sourceId": "Item.P9GWvoOAMvVFZfIJ"
    }
  },
  "system": {
    "description": {
      "value": "<p>The creature gains a +2 enhancement bonus to Constitution. This bonus increases to +4 at 8th level and +6 at 15th level.</p>\n<p><strong style=\"box-sizing: border-box; user-select: text; color: #191813; font-size: 13px;\">Usage</strong><span style=\"color: #191813; font-size: 13px;\">: Set this buff's level equal to the total class level granting the Animal Focus feature</span></p>",
      "unidentified": ""
    },
    "tags": [],
    "changes": [
      {
        "_id": "vtwg8row",
        "formula": "floor(((@item.level)-1)/7)*2+2",
        "operator": "add",
        "subTarget": "str",
        "modifier": "enh",
        "priority": 0,
        "value": 2
      }
    ],
    "changeFlags": {
      "loseDexToAC": false,
      "noEncumbrance": false,
      "mediumArmorFullSpeed": false,
      "heavyArmorFullSpeed": false
    },
    "contextNotes": [],
    "links": {
      "children": []
    },
    "tag": "animalFocusBull",
    "useCustomTag": false,
    "flags": {
      "boolean": {},
      "dictionary": {}
    },
    "scriptCalls": [],
    "subType": "temp",
    "active": false,
    "level": "7",
    "hideFromToken": false,
    "uses": {
      "max": 0,
      "value": 0
    }
  },
  "ownership": {
    "default": 0
  },
  "_stats": {
    "systemId": "pf1",
    "systemVersion": "9.1",
    "coreVersion": "10.291",
    "createdTime": 1665428266123,
    "modifiedTime": 1689797817847,
    "lastModifiedBy": "ppv91YxratjWnkJi"
  },
  "effects": [],
  "folder": null,
  "sort": 0,
  "_key": "!items!rjnMUgUmdMU8pQwa"
}