{
  "_id": "MPLcJJ9ChkKRQFBm",
  "name": "Aspect of the Wolf",
  "type": "buff",
  "img": "systems/pf1/icons/races/creature-types/animal.png",
  "system": {
    "description": {
      "value": "<p>You gain a +4 enhancement bonus to Strength and Dexterity, the scent ability, a +2 enhancement bonus on trip attacks, and can make a trip combat maneuver as a swift action. This trip attack does not provoke attacks of opportunity.</p>",
      "unidentified": ""
    },
    "tags": [],
    "changes": [
      {
        "_id": "oj9babai",
        "formula": "4",
        "operator": "add",
        "subTarget": "str",
        "modifier": "enh",
        "priority": 0,
        "value": 0,
        "target": "ability"
      },
      {
        "_id": "9cgmr8fu",
        "formula": "4",
        "operator": "add",
        "subTarget": "dex",
        "modifier": "enh",
        "priority": 0,
        "value": 0,
        "target": "ability"
      }
    ],
    "changeFlags": {
      "loseDexToAC": false,
      "noEncumbrance": false,
      "mediumArmorFullSpeed": false,
      "heavyArmorFullSpeed": false
    },
    "contextNotes": [
      {
        "text": "Has the Scent ability.",
        "target": "skill",
        "subTarget": "skill.per"
      },
      {
        "text": "+[[2]] Enhancement to Trip. Can Trip as a Swift Action, which does not provoke AoO.",
        "target": "misc",
        "subTarget": "cmb"
      }
    ],
    "links": {
      "children": []
    },
    "tag": "aspectOfTheWolf",
    "useCustomTag": false,
    "flags": {
      "boolean": {},
      "dictionary": {}
    },
    "scriptCalls": [],
    "subType": "temp",
    "active": false,
    "level": "",
    "hideFromToken": false,
    "uses": {
      "value": 0,
      "max": 0
    }
  },
  "ownership": {
    "default": 0
  },
  "_stats": {
    "systemId": "pf1",
    "systemVersion": "9.1",
    "coreVersion": "10.291",
    "createdTime": 1665428265997,
    "modifiedTime": 1689797816734,
    "lastModifiedBy": "ppv91YxratjWnkJi"
  },
  "effects": [],
  "folder": null,
  "sort": 0,
  "flags": {},
  "_key": "!items!MPLcJJ9ChkKRQFBm"
}