{
  "_id": "HJ5RmKgmrKR4ffUZ",
  "name": "Barkskin",
  "type": "buff",
  "img": "systems/pf1/icons/skills/blue_34.jpg",
  "system": {
    "description": {
      "value": "<p>Your skin is toughened, granting you an enhancement bonus to your natural armor as per the barkskin spell.</p>\n<p><strong>Usage</strong>: Set the buff's level to the caster level of Barkskin.</p>",
      "unidentified": ""
    },
    "tags": [],
    "changes": [
      {
        "_id": "zjfo24qt",
        "formula": "min(5, 2 + max(0, floor((@item.level - 3) / 3)))",
        "operator": "add",
        "subTarget": "nac",
        "modifier": "enh",
        "priority": 0,
        "value": 0,
        "target": "ac"
      }
    ],
    "changeFlags": {
      "loseDexToAC": false,
      "noEncumbrance": false,
      "mediumArmorFullSpeed": false,
      "heavyArmorFullSpeed": false
    },
    "contextNotes": [],
    "links": {
      "children": []
    },
    "tag": "",
    "useCustomTag": false,
    "flags": {
      "boolean": {},
      "dictionary": {}
    },
    "scriptCalls": [],
    "subType": "temp",
    "active": false,
    "level": "3",
    "hideFromToken": false,
    "uses": {
      "value": 0,
      "max": 0
    }
  },
  "ownership": {
    "default": 0
  },
  "_stats": {
    "systemId": "pf1",
    "systemVersion": "9.1",
    "coreVersion": "10.291",
    "createdTime": 1665428265984,
    "modifiedTime": 1689797816616,
    "lastModifiedBy": "ppv91YxratjWnkJi"
  },
  "effects": [],
  "folder": null,
  "sort": 0,
  "flags": {},
  "_key": "!items!HJ5RmKgmrKR4ffUZ"
}