{
  "_id": "vEiyNVpTlFugHOyM",
  "name": "Bestow Curse (50% Action)",
  "type": "buff",
  "img": "systems/pf1/icons/skills/affliction_03.jpg",
  "system": {
    "description": {
      "value": "<p>You place a curse on the subject. Choose one of the following.</p>\n<ul>\n<li>-6 decrease to an ability score (minimum 1).</li>\n<li>-4 penalty on attack rolls, saves, ability checks, and skill checks.</li>\n<li>Each turn, the target has a 50% chance to act normally; otherwise, it takes no action.</li>\n</ul>\n<p>You may also invent your own curse, but it should be no more powerful than those described above.</p>\n<p>The curse bestowed by this spell cannot be dispelled, but it can be removed with a break enchantment, limited wish, miracle, remove curse, or wish spell.</p>\n<p><em>Bestow curse</em> counters <em>remove curse</em>.</p>\n<p><strong>Usage:</strong> Set the cursed ability score in the changes tab.</p>",
      "unidentified": ""
    },
    "tags": [],
    "changes": [],
    "changeFlags": {
      "loseDexToAC": false,
      "noEncumbrance": false,
      "mediumArmorFullSpeed": false,
      "heavyArmorFullSpeed": false
    },
    "contextNotes": [
      {
        "text": "50% chance of taking no action.",
        "target": "attacks",
        "subTarget": "attack"
      },
      {
        "text": "50% chance of taking no action.",
        "target": "spell",
        "subTarget": "spellEffect"
      },
      {
        "text": "50% chance of taking no action.",
        "target": "skills",
        "subTarget": "skills"
      }
    ],
    "links": {
      "children": []
    },
    "tag": "bestowCurse50Action",
    "useCustomTag": false,
    "flags": {
      "boolean": {},
      "dictionary": {}
    },
    "scriptCalls": [],
    "subType": "temp",
    "active": false,
    "level": "",
    "hideFromToken": false,
    "uses": {
      "value": 0,
      "max": 0
    }
  },
  "ownership": {
    "default": 0
  },
  "_stats": {
    "systemId": "pf1",
    "systemVersion": "9.1",
    "coreVersion": "10.291",
    "createdTime": 1665428266142,
    "modifiedTime": 1689797817978,
    "lastModifiedBy": "ppv91YxratjWnkJi"
  },
  "effects": [],
  "folder": null,
  "sort": 0,
  "flags": {},
  "_key": "!items!vEiyNVpTlFugHOyM"
}