{
  "_id": "3hYnEReu8DgBxs6q",
  "name": "Blessing of Fervor (Speed)",
  "type": "buff",
  "img": "systems/pf1/icons/feats/improved-great-fortitude.jpg",
  "system": {
    "description": {
      "value": "<p>With this blessing, you call your allies to move forth and empower them to conquer and become victorious. Each round for the duration of this spell, each of your allies can choose one of the following bonuses for that round at the beginning of its turn (their choice).</p>\n<ul>\n<li>Increase its speed by 30 feet.</li>\n<li>Stand up as a swift action without provoking an attack of opportunity.</li>\n<li>Make one extra attack as part of a full attack action, using its highest base attack bonus.</li>\n<li>Gain a +2 bonus on attack rolls and a +2 dodge bonus to AC and Reflex saves.</li>\n<li>Cast a single spell of 2nd level or lower as if it were an enlarged, extended, silent, or still spell.</li>\n</ul>\n<p><strong>Usage:</strong>&nbsp;Deactivate active buff and activate the desired variant upon choice.</p>",
      "unidentified": ""
    },
    "tags": [],
    "changes": [
      {
        "_id": "q7wls7pc",
        "formula": "30",
        "operator": "add",
        "subTarget": "landSpeed",
        "modifier": "untyped",
        "priority": 0,
        "value": 0,
        "target": "speed"
      }
    ],
    "changeFlags": {
      "loseDexToAC": false,
      "noEncumbrance": false,
      "mediumArmorFullSpeed": false,
      "heavyArmorFullSpeed": false
    },
    "contextNotes": [],
    "links": {
      "children": []
    },
    "tag": "blessingOfFervorSpeed",
    "useCustomTag": false,
    "flags": {
      "boolean": {},
      "dictionary": {}
    },
    "scriptCalls": [],
    "subType": "temp",
    "active": false,
    "level": "",
    "hideFromToken": false,
    "uses": {
      "value": 0,
      "max": 0
    }
  },
  "ownership": {
    "default": 0
  },
  "_stats": {
    "systemId": "pf1",
    "systemVersion": "9.1",
    "coreVersion": "10.291",
    "createdTime": 1665428265932,
    "modifiedTime": 1689797816153,
    "lastModifiedBy": "ppv91YxratjWnkJi"
  },
  "effects": [],
  "folder": null,
  "sort": 0,
  "flags": {},
  "_key": "!items!3hYnEReu8DgBxs6q"
}