{
  "_id": "iYm4uOJ9j9kv5IiM",
  "name": "Certain Grip",
  "type": "buff",
  "img": "icons/equipment/hand/gauntlet-simple-leather-brown-gold.webp",
  "system": {
    "description": {
      "value": "<p>You gain a +4 competence bonus on Climb checks, on Acrobatics checks to balance, and to CMD against bull rush, drag, reposition, and trip attempts. While affected by this spell, the target is also immune to the disarm combat maneuver.</p>",
      "unidentified": ""
    },
    "tags": [],
    "changes": [
      {
        "_id": "rqnwzaal",
        "formula": "4",
        "operator": "add",
        "subTarget": "skill.clm",
        "modifier": "competence",
        "priority": 0,
        "value": 0,
        "target": "skill"
      }
    ],
    "changeFlags": {
      "loseDexToAC": false,
      "noEncumbrance": false,
      "mediumArmorFullSpeed": false,
      "heavyArmorFullSpeed": false
    },
    "contextNotes": [
      {
        "text": "+[[4]] Competence to Balance.",
        "target": "skill",
        "subTarget": "skill.acr"
      },
      {
        "text": "+[[4]] Competence vs Bull Rush, Drag, Reposition, and Trip. Immune to Disarm.",
        "target": "misc",
        "subTarget": "cmd"
      }
    ],
    "links": {
      "children": []
    },
    "tag": "certainGrip",
    "useCustomTag": false,
    "flags": {
      "boolean": {},
      "dictionary": {}
    },
    "scriptCalls": [],
    "subType": "temp",
    "active": false,
    "level": "",
    "hideFromToken": false,
    "uses": {
      "value": 0,
      "max": 0
    }
  },
  "ownership": {
    "default": 0
  },
  "_stats": {
    "systemId": "pf1",
    "systemVersion": "9.1",
    "coreVersion": "10.291",
    "createdTime": 1665428266088,
    "modifiedTime": 1689797817555,
    "lastModifiedBy": "ppv91YxratjWnkJi"
  },
  "effects": [],
  "folder": null,
  "sort": 0,
  "flags": {},
  "_key": "!items!iYm4uOJ9j9kv5IiM"
}