{
  "_id": "uzsXFLZ9vwB9urWd",
  "name": "Cover (Improved)",
  "type": "buff",
  "img": "systems/pf1/icons/skills/blue_18.jpg",
  "system": {
    "description": {
      "value": "<p>In some cases, such as attacking a target hiding behind an arrowslit, cover may provide a greater bonus to AC and Reflex saves. In such situations, the normal cover bonuses to AC and Reflex saves can be doubled (to +8 and +4, respectively). A creature with this improved cover effectively gains improved evasion against any attack to which the Reflex save bonus applies. Furthermore, improved cover provides a +10 bonus on Stealth checks.</p>\n<p>&nbsp;</p>\n<p><strong>Improved Cover and Attacks of Opportunity</strong></p>\n<p>You can&rsquo;t execute an attack of opportunity against an opponent with improved cover relative to you.</p>\n<p>&nbsp;</p>\n<p><strong>Improved Cover and Stealth Checks</strong></p>\n<p>You can use improved cover to make a Stealth check. Without cover, you usually need concealment (see below) to make a Stealth check.</p>\n<p>&nbsp;</p>\n<p><strong>Big Creatures and Cover</strong></p>\n<p>Any creature with a space larger than 5 feet (1 square) determines cover against melee attacks slightly differently than smaller creatures do. Such a creature can choose any square that it occupies to determine if an opponent has cover against its melee attacks. Similarly, when making a melee attack against such a creature, you can pick any of the squares it occupies to determine if it has cover against you.</p>\n<p>&nbsp;</p>",
      "unidentified": ""
    },
    "tags": [],
    "changes": [
      {
        "_id": "vpv0rczm",
        "formula": "10",
        "operator": "add",
        "subTarget": "skill.ste",
        "modifier": "untyped",
        "priority": 0,
        "value": 0,
        "target": "skill"
      },
      {
        "_id": "iosiv0rg",
        "formula": "8",
        "operator": "add",
        "subTarget": "ac",
        "modifier": "untyped",
        "priority": 0,
        "value": 0,
        "target": "ac"
      },
      {
        "_id": "wfj8tu8w",
        "formula": "4",
        "operator": "add",
        "subTarget": "ref",
        "modifier": "untyped",
        "priority": 0,
        "value": 0,
        "target": "savingThrows"
      }
    ],
    "changeFlags": {
      "loseDexToAC": false,
      "noEncumbrance": false,
      "mediumArmorFullSpeed": false,
      "heavyArmorFullSpeed": false
    },
    "contextNotes": [
      {
        "text": "No damage on success, and half damage on failed.",
        "target": "savingThrows",
        "subTarget": "ref"
      },
      {
        "text": "Can enter stealth due to Improved Cover.",
        "target": "skill",
        "subTarget": "skill.ste"
      },
      {
        "text": "AoO can't be made against you.",
        "target": "misc",
        "subTarget": "ac"
      }
    ],
    "links": {
      "children": []
    },
    "tag": "coverImproved",
    "useCustomTag": false,
    "flags": {
      "boolean": {},
      "dictionary": {}
    },
    "scriptCalls": [],
    "subType": "temp",
    "active": false,
    "level": "",
    "hideFromToken": false,
    "uses": {
      "value": 0,
      "max": 0
    }
  },
  "ownership": {
    "default": 0
  },
  "_stats": {
    "systemId": "pf1",
    "systemVersion": "9.1",
    "coreVersion": "10.291",
    "createdTime": 1665428266139,
    "modifiedTime": 1689797817962,
    "lastModifiedBy": "ppv91YxratjWnkJi"
  },
  "effects": [],
  "folder": null,
  "sort": 0,
  "flags": {},
  "_key": "!items!uzsXFLZ9vwB9urWd"
}