{
  "_id": "22YGmHNUQyKksT4d",
  "name": "Crafter's Fortune",
  "type": "buff",
  "img": "icons/commodities/treasure/egg-ornate-green-gold.webp",
  "system": {
    "description": {
      "value": "<p><span style=\"color: #191813; font-size: 13px;\">@Compendium[pf1.spells.4k32l03rzxgyifkx]{Crafter's Fortune}</span></p>\n<p><span style=\"color: #191813; font-size: 13px;\">The target is struck by inspiration and gains a +5 luck bonus on its next Craft skill check.</span></p>",
      "unidentified": ""
    },
    "tags": [],
    "changes": [
      {
        "_id": "q4cleydb",
        "formula": "5",
        "operator": "add",
        "subTarget": "skill.crf",
        "modifier": "luck",
        "priority": 0,
        "value": 0,
        "target": "skill"
      }
    ],
    "changeFlags": {
      "loseDexToAC": false,
      "noEncumbrance": false,
      "mediumArmorFullSpeed": false,
      "heavyArmorFullSpeed": false
    },
    "contextNotes": [
      {
        "text": "<b>Crafter's Fortune:</b> The target is struck by inspiration and gains a +5 luck bonus on its next Craft skill check.",
        "target": "skill",
        "subTarget": "skill.crf"
      }
    ],
    "links": {
      "children": []
    },
    "tag": "",
    "useCustomTag": false,
    "flags": {
      "boolean": {},
      "dictionary": {}
    },
    "scriptCalls": [],
    "subType": "temp",
    "active": false,
    "level": "",
    "hideFromToken": false,
    "uses": {
      "value": 0,
      "max": 0
    }
  },
  "ownership": {
    "default": 0
  },
  "_stats": {
    "systemId": "pf1",
    "systemVersion": "9.1",
    "coreVersion": "10.291",
    "createdTime": 1665428265921,
    "modifiedTime": 1689797816089,
    "lastModifiedBy": "ppv91YxratjWnkJi"
  },
  "effects": [],
  "folder": null,
  "sort": 0,
  "flags": {},
  "_key": "!items!22YGmHNUQyKksT4d"
}