{
  "_id": "Z3d1KvIHhdd2Mx1m",
  "name": "Fox's Cunning",
  "type": "buff",
  "img": "icons/commodities/treasure/figurine-dog.webp",
  "system": {
    "description": {
      "value": "<p>The subject has a +4 enhancement bonus to Intelligence.</p>",
      "unidentified": ""
    },
    "tags": [],
    "changes": [
      {
        "_id": "11mnkusb",
        "formula": "4",
        "operator": "add",
        "subTarget": "int",
        "modifier": "enh",
        "priority": 0,
        "value": 0,
        "target": "ability"
      }
    ],
    "changeFlags": {
      "loseDexToAC": false,
      "noEncumbrance": false,
      "mediumArmorFullSpeed": false,
      "heavyArmorFullSpeed": false
    },
    "contextNotes": [],
    "links": {
      "children": []
    },
    "tag": "foxsCunning",
    "useCustomTag": false,
    "flags": {
      "boolean": {},
      "dictionary": {}
    },
    "scriptCalls": [],
    "subType": "temp",
    "active": false,
    "level": "",
    "hideFromToken": false,
    "uses": {
      "value": 0,
      "max": 0
    }
  },
  "ownership": {
    "default": 0
  },
  "_stats": {
    "systemId": "pf1",
    "systemVersion": "9.1",
    "coreVersion": "10.291",
    "createdTime": 1665428266039,
    "modifiedTime": 1689797817138,
    "lastModifiedBy": "ppv91YxratjWnkJi"
  },
  "effects": [],
  "folder": null,
  "sort": 0,
  "flags": {},
  "_key": "!items!Z3d1KvIHhdd2Mx1m"
}