{
  "_id": "KyHDVDUcLeU6zftx",
  "name": "Great Cleave",
  "type": "buff",
  "img": "systems/pf1/icons/feats/great-cleave.jpg",
  "system": {
    "description": {
      "value": "<p>When you use this feat, you take a -2 penalty to your Armor Class until your next turn.</p>",
      "unidentified": ""
    },
    "tags": [],
    "changes": [
      {
        "_id": "slm7vetz",
        "formula": "-2",
        "operator": "add",
        "subTarget": "ac",
        "modifier": "untyped",
        "priority": 0,
        "value": 0
      }
    ],
    "changeFlags": {
      "loseDexToAC": false,
      "noEncumbrance": false,
      "mediumArmorFullSpeed": false,
      "heavyArmorFullSpeed": false
    },
    "contextNotes": [],
    "links": {
      "children": []
    },
    "tag": "greatCleave",
    "useCustomTag": false,
    "flags": {
      "boolean": {},
      "dictionary": {}
    },
    "scriptCalls": [],
    "subType": "temp",
    "active": false,
    "level": "",
    "hideFromToken": false,
    "uses": {
      "max": 0,
      "value": 0
    }
  },
  "ownership": {
    "default": 0
  },
  "_stats": {
    "systemId": "pf1",
    "systemVersion": "9.1",
    "coreVersion": "10.291",
    "createdTime": 1665428265992,
    "modifiedTime": 1689797816679,
    "lastModifiedBy": "ppv91YxratjWnkJi"
  },
  "effects": [],
  "folder": null,
  "sort": 0,
  "flags": {},
  "_key": "!items!KyHDVDUcLeU6zftx"
}