{
  "_id": "ql7MF8XFOQEIivW7",
  "name": "Innocence",
  "type": "buff",
  "img": "icons/sundries/misc/piggybank.webp",
  "system": {
    "description": {
      "value": "<p>You gain a +10 competence bonus on Bluff skill checks to convince others of your innocence.</p>",
      "unidentified": ""
    },
    "tags": [],
    "changes": [],
    "changeFlags": {
      "loseDexToAC": false,
      "noEncumbrance": false,
      "mediumArmorFullSpeed": false,
      "heavyArmorFullSpeed": false
    },
    "contextNotes": [
      {
        "text": "+[[10]] Competence to convince others of your innocence.",
        "target": "skill",
        "subTarget": "skill.blf"
      }
    ],
    "links": {
      "children": []
    },
    "tag": "innocence",
    "useCustomTag": false,
    "flags": {
      "boolean": {},
      "dictionary": {}
    },
    "scriptCalls": [],
    "subType": "temp",
    "active": false,
    "level": "",
    "hideFromToken": false,
    "uses": {
      "value": 0,
      "max": 0
    }
  },
  "ownership": {
    "default": 0
  },
  "_stats": {
    "systemId": "pf1",
    "systemVersion": "9.1",
    "coreVersion": "10.291",
    "createdTime": 1665428266120,
    "modifiedTime": 1689797817820,
    "lastModifiedBy": "ppv91YxratjWnkJi"
  },
  "effects": [],
  "folder": null,
  "sort": 0,
  "flags": {},
  "_key": "!items!ql7MF8XFOQEIivW7"
}