{
  "_id": "qmHamauveVs3q6F0",
  "name": "Longstrider",
  "type": "buff",
  "img": "systems/pf1/icons/feats/dodge.jpg",
  "system": {
    "description": {
      "value": "<p>You gain a +10 foot enhancement bonus to your base speed. It has no effect on other modes of movement, such as burrow, climb, fly, or swim.</p>",
      "unidentified": ""
    },
    "tags": [],
    "changes": [
      {
        "_id": "jy6dc40n",
        "formula": "10",
        "operator": "add",
        "subTarget": "landSpeed",
        "modifier": "enh",
        "priority": 0,
        "value": 0,
        "target": "speed"
      }
    ],
    "changeFlags": {
      "loseDexToAC": false,
      "noEncumbrance": false,
      "mediumArmorFullSpeed": false,
      "heavyArmorFullSpeed": false
    },
    "contextNotes": [],
    "links": {
      "children": []
    },
    "tag": "longstrider",
    "useCustomTag": false,
    "flags": {
      "boolean": {},
      "dictionary": {}
    },
    "scriptCalls": [],
    "subType": "temp",
    "active": false,
    "level": "",
    "hideFromToken": false,
    "uses": {
      "value": 0,
      "max": 0
    }
  },
  "ownership": {
    "default": 0
  },
  "_stats": {
    "systemId": "pf1",
    "systemVersion": "9.1",
    "coreVersion": "10.291",
    "createdTime": 1665428266121,
    "modifiedTime": 1689797817831,
    "lastModifiedBy": "ppv91YxratjWnkJi"
  },
  "effects": [],
  "folder": null,
  "sort": 0,
  "flags": {},
  "_key": "!items!qmHamauveVs3q6F0"
}