{
  "_id": "Qqo3DLdlbnXhXe7G",
  "name": "Magic Vestment",
  "type": "buff",
  "img": "icons/equipment/chest/robe-collared-blue.webp",
  "system": {
    "description": {
      "value": "<p>You imbue a suit of armor or a shield with an enhancement bonus of +1 per four caster levels (maximum +5 at 20th level).</p>\n<p><strong>Usage:</strong> Set the level of this buff to the caster level of Magic Vestment. Disable this buff if the affected armor or shield is removed.</p>",
      "unidentified": ""
    },
    "tags": [],
    "changes": [
      {
        "_id": "hbfeerzt",
        "formula": "(min(5,(floor(@item.level / 4))))",
        "operator": "add",
        "subTarget": "ac",
        "modifier": "enh",
        "priority": 0,
        "value": 0,
        "target": "ac"
      }
    ],
    "changeFlags": {
      "loseDexToAC": false,
      "noEncumbrance": false,
      "mediumArmorFullSpeed": false,
      "heavyArmorFullSpeed": false
    },
    "contextNotes": [],
    "links": {
      "children": []
    },
    "tag": "magicVestment",
    "useCustomTag": false,
    "flags": {
      "boolean": {},
      "dictionary": {}
    },
    "scriptCalls": [],
    "subType": "temp",
    "active": false,
    "level": "1",
    "hideFromToken": false,
    "uses": {
      "value": 0,
      "max": 0
    }
  },
  "ownership": {
    "default": 0
  },
  "_stats": {
    "systemId": "pf1",
    "systemVersion": "9.1",
    "coreVersion": "10.291",
    "createdTime": 1665428266015,
    "modifiedTime": 1689797816930,
    "lastModifiedBy": "ppv91YxratjWnkJi"
  },
  "effects": [],
  "folder": null,
  "sort": 0,
  "flags": {},
  "_key": "!items!Qqo3DLdlbnXhXe7G"
}