{
  "_id": "uJbgRkMbcndVoaFr",
  "name": "Mighty Strength",
  "type": "buff",
  "img": "systems/pf1/icons/feats/athletic.jpg",
  "system": {
    "description": {
      "value": "<p>As bull&rsquo;s strength, except it grants a +8 enhancement bonus to Strength.</p>",
      "unidentified": ""
    },
    "tags": [],
    "changes": [
      {
        "_id": "ygg3f0qt",
        "formula": "8",
        "operator": "add",
        "subTarget": "str",
        "modifier": "enh",
        "priority": 0,
        "value": 0,
        "target": "ability"
      }
    ],
    "changeFlags": {
      "loseDexToAC": false,
      "noEncumbrance": false,
      "mediumArmorFullSpeed": false,
      "heavyArmorFullSpeed": false
    },
    "contextNotes": [],
    "links": {
      "children": []
    },
    "tag": "mightyStrength",
    "useCustomTag": false,
    "flags": {
      "boolean": {},
      "dictionary": {}
    },
    "scriptCalls": [],
    "subType": "temp",
    "active": false,
    "level": "",
    "hideFromToken": false,
    "uses": {
      "value": 0,
      "max": 0
    }
  },
  "ownership": {
    "default": 0
  },
  "_stats": {
    "systemId": "pf1",
    "systemVersion": "9.1",
    "coreVersion": "10.291",
    "createdTime": 1665428266135,
    "modifiedTime": 1689797817930,
    "lastModifiedBy": "ppv91YxratjWnkJi"
  },
  "effects": [],
  "folder": null,
  "sort": 0,
  "flags": {},
  "_key": "!items!uJbgRkMbcndVoaFr"
}