{
  "_id": "SDxsAnT9LiFGbk78",
  "name": "Mind Fog",
  "type": "buff",
  "img": "systems/pf1/icons/spells/fog-sky-2.jpg",
  "system": {
    "description": {
      "value": "<p>You take a -10 penalty on Wisdom checks and Will saves.</p>",
      "unidentified": ""
    },
    "tags": [],
    "changes": [
      {
        "_id": "on725jby",
        "formula": "-10",
        "operator": "add",
        "subTarget": "wisChecks",
        "modifier": "penalty",
        "priority": 0,
        "value": 0,
        "target": "abilityChecks"
      },
      {
        "_id": "zhav58qb",
        "formula": "-10",
        "operator": "add",
        "subTarget": "will",
        "modifier": "penalty",
        "priority": 0,
        "value": 0,
        "target": "savingThrows"
      }
    ],
    "changeFlags": {
      "loseDexToAC": false,
      "noEncumbrance": false,
      "mediumArmorFullSpeed": false,
      "heavyArmorFullSpeed": false
    },
    "contextNotes": [],
    "links": {
      "children": []
    },
    "tag": "mindFog",
    "useCustomTag": false,
    "flags": {
      "boolean": {},
      "dictionary": {}
    },
    "scriptCalls": [],
    "subType": "temp",
    "active": false,
    "level": "",
    "hideFromToken": false,
    "uses": {
      "value": 0,
      "max": 0
    }
  },
  "ownership": {
    "default": 0
  },
  "_stats": {
    "systemId": "pf1",
    "systemVersion": "9.1",
    "coreVersion": "10.291",
    "createdTime": 1665428266017,
    "modifiedTime": 1689797816948,
    "lastModifiedBy": "ppv91YxratjWnkJi"
  },
  "effects": [],
  "folder": null,
  "sort": 0,
  "flags": {},
  "_key": "!items!SDxsAnT9LiFGbk78"
}