{
  "_id": "yPFVyeCFAI61wfea",
  "name": "Paragon Surge",
  "type": "buff",
  "img": "systems/pf1/icons/spells/haste-sky-3.jpg",
  "system": {
    "description": {
      "value": "<p>For the duration of the spell, you receive a +2 enhancement bonus to Dexterity and Intelligence and are treated as if you possessed any one feat for which you meet the prerequisites, chosen when you cast this spell.</p>",
      "unidentified": ""
    },
    "tags": [],
    "changes": [
      {
        "_id": "xtsfii9m",
        "formula": "2",
        "operator": "add",
        "subTarget": "dex",
        "modifier": "enh",
        "priority": 0,
        "value": 0,
        "target": "ability"
      },
      {
        "_id": "wg3wf77k",
        "formula": "2",
        "operator": "add",
        "subTarget": "int",
        "modifier": "enh",
        "priority": 0,
        "value": 0,
        "target": "ability"
      }
    ],
    "changeFlags": {
      "loseDexToAC": false,
      "noEncumbrance": false,
      "mediumArmorFullSpeed": false,
      "heavyArmorFullSpeed": false
    },
    "contextNotes": [],
    "links": {
      "children": []
    },
    "tag": "paragonSurge",
    "useCustomTag": false,
    "flags": {
      "boolean": {},
      "dictionary": {}
    },
    "scriptCalls": [],
    "subType": "temp",
    "active": false,
    "level": "",
    "hideFromToken": false,
    "uses": {
      "value": 0,
      "max": 0
    }
  },
  "ownership": {
    "default": 0
  },
  "_stats": {
    "systemId": "pf1",
    "systemVersion": "9.1",
    "coreVersion": "10.291",
    "createdTime": 1665428266162,
    "modifiedTime": 1689797818120,
    "lastModifiedBy": "ppv91YxratjWnkJi"
  },
  "effects": [],
  "folder": null,
  "sort": 0,
  "flags": {},
  "_key": "!items!yPFVyeCFAI61wfea"
}