{
  "_id": "JANtDnS2x7f440hi",
  "name": "Perfect Placement",
  "type": "buff",
  "img": "icons/sundries/gaming/chess-knight-white.webp",
  "system": {
    "description": {
      "value": "<p>You gain a +1 insight bonus to AC and Reflex saves. Against attacks of opportunity, the insight bonus to AC increases to +3.</p>",
      "unidentified": ""
    },
    "tags": [],
    "changes": [
      {
        "_id": "5z2ce2yv",
        "formula": "1",
        "operator": "add",
        "subTarget": "ac",
        "modifier": "insight",
        "priority": 0,
        "value": 0,
        "target": "ac"
      },
      {
        "_id": "hamwg9ew",
        "formula": "1",
        "operator": "add",
        "subTarget": "ref",
        "modifier": "insight",
        "priority": 0,
        "value": 0,
        "target": "savingThrows"
      }
    ],
    "changeFlags": {
      "loseDexToAC": false,
      "noEncumbrance": false,
      "mediumArmorFullSpeed": false,
      "heavyArmorFullSpeed": false
    },
    "contextNotes": [
      {
        "text": "<b>Perfect Placement:</b> +[[2]] Insight vs AoO.",
        "target": "misc",
        "subTarget": "ac"
      }
    ],
    "links": {
      "children": []
    },
    "tag": "perfectPlacement",
    "useCustomTag": false,
    "flags": {
      "boolean": {},
      "dictionary": {}
    },
    "scriptCalls": [],
    "subType": "temp",
    "active": false,
    "level": "",
    "hideFromToken": false,
    "uses": {
      "value": 0,
      "max": 0
    }
  },
  "ownership": {
    "default": 0
  },
  "_stats": {
    "systemId": "pf1",
    "systemVersion": "9.1",
    "coreVersion": "10.291",
    "createdTime": 1665428265987,
    "modifiedTime": 1689797816639,
    "lastModifiedBy": "ppv91YxratjWnkJi"
  },
  "effects": [],
  "folder": null,
  "sort": 0,
  "flags": {},
  "_key": "!items!JANtDnS2x7f440hi"
}