{
  "_id": "DWjFakWpdyYOU32O",
  "name": "Reduce Person",
  "type": "buff",
  "img": "systems/pf1/icons/races/ratfolk.png",
  "system": {
    "description": {
      "value": "<p>Gains a +2 size bonus to Dexterity, -2 size penalty to Strength (to a minimum of 1), and a +1 bonus on attack rolls and AC due to its decreased size.</p>\n<p><strong>Usage:</strong>&nbsp;Set target's size to previous increment to affect attack roll and AC bonus.</p>",
      "unidentified": ""
    },
    "tags": [],
    "changes": [
      {
        "_id": "3ibc5dpe",
        "formula": "2",
        "operator": "add",
        "subTarget": "dex",
        "modifier": "size",
        "priority": 0,
        "value": 0,
        "target": "ability"
      },
      {
        "_id": "w0dpa05f",
        "formula": "-2",
        "operator": "add",
        "subTarget": "str",
        "modifier": "size",
        "priority": 0,
        "value": 0,
        "target": "ability"
      }
    ],
    "changeFlags": {
      "loseDexToAC": false,
      "noEncumbrance": false,
      "mediumArmorFullSpeed": false,
      "heavyArmorFullSpeed": false
    },
    "contextNotes": [],
    "links": {
      "children": []
    },
    "tag": "reducePerson",
    "useCustomTag": false,
    "flags": {
      "boolean": {},
      "dictionary": {}
    },
    "scriptCalls": [],
    "subType": "temp",
    "active": false,
    "level": "",
    "hideFromToken": false,
    "uses": {
      "value": 0,
      "max": 0
    }
  },
  "ownership": {
    "default": 0
  },
  "_stats": {
    "systemId": "pf1",
    "systemVersion": "9.1",
    "coreVersion": "10.291",
    "createdTime": 1665428265960,
    "modifiedTime": 1689797816433,
    "lastModifiedBy": "ppv91YxratjWnkJi"
  },
  "effects": [],
  "folder": null,
  "sort": 0,
  "flags": {},
  "_key": "!items!DWjFakWpdyYOU32O"
}