{
  "_id": "K8fLIVFxynjNjWVv",
  "name": "Sanctify Armor",
  "type": "buff",
  "img": "systems/pf1/icons/items/armor/kusari-gusoku.png",
  "system": {
    "description": {
      "value": "<p>Your armor gains +1 enhancement bonus per four caster levels (maximum +5 at 20th level). When using your judgment or smite ability, you gain DR 5/evil.</p>\n<p><strong>Usage:</strong> Set the level of this buff to the caster level of Sanctify Armor. Disable this buff if the affected armor is removed.</p>",
      "unidentified": ""
    },
    "tags": [],
    "changes": [
      {
        "_id": "opieav8t",
        "formula": "(min(5,(floor(item.level / 4))))",
        "operator": "add",
        "subTarget": "ac",
        "modifier": "enh",
        "priority": 0,
        "value": 0,
        "target": "ac"
      }
    ],
    "changeFlags": {
      "loseDexToAC": false,
      "noEncumbrance": false,
      "mediumArmorFullSpeed": false,
      "heavyArmorFullSpeed": false
    },
    "contextNotes": [
      {
        "text": "DR 5/evil while using Judgment or Smite.",
        "target": "misc",
        "subTarget": "ac"
      }
    ],
    "links": {
      "children": []
    },
    "tag": "sanctifyArmor",
    "useCustomTag": false,
    "flags": {
      "boolean": {},
      "dictionary": {}
    },
    "scriptCalls": [],
    "subType": "temp",
    "active": false,
    "level": "1",
    "hideFromToken": false,
    "uses": {
      "value": 0,
      "max": 0
    }
  },
  "ownership": {
    "default": 0
  },
  "_stats": {
    "systemId": "pf1",
    "systemVersion": "9.1",
    "coreVersion": "10.291",
    "createdTime": 1665428265988,
    "modifiedTime": 1689797816649,
    "lastModifiedBy": "ppv91YxratjWnkJi"
  },
  "effects": [],
  "folder": null,
  "sort": 0,
  "flags": {},
  "_key": "!items!K8fLIVFxynjNjWVv"
}