{
  "_id": "dRrrgSjLmGmNs1Mv",
  "name": "Shield",
  "type": "buff",
  "img": "systems/pf1/icons/spells/protect-blue-1.jpg",
  "system": {
    "description": {
      "value": "<p>An invisible shield of force hovers in front of you, with the following effects:</p>\n<ul>\n<li>+4 Shield Bonus to AC</li>\n<li>Negates Magic Missile attacks direct at you</li>\n</ul>\n<p>These bonuses apply to incorporeal touch attacks.</p>",
      "unidentified": ""
    },
    "tags": [],
    "changes": [
      {
        "_id": "gq5kc0g2",
        "formula": "4",
        "operator": "+",
        "subTarget": "sac",
        "modifier": "base",
        "priority": 0,
        "value": 0,
        "target": "ac"
      }
    ],
    "changeFlags": {
      "loseDexToAC": false,
      "noEncumbrance": false,
      "mediumArmorFullSpeed": false,
      "heavyArmorFullSpeed": false
    },
    "contextNotes": [],
    "links": {
      "children": []
    },
    "tag": "",
    "useCustomTag": false,
    "flags": {
      "boolean": {},
      "dictionary": {}
    },
    "scriptCalls": [],
    "subType": "temp",
    "active": false,
    "level": "",
    "hideFromToken": false
  },
  "ownership": {
    "default": 0
  },
  "_stats": {
    "systemId": "pf1",
    "systemVersion": "9.1",
    "coreVersion": "10.291",
    "createdTime": 1665428266065,
    "modifiedTime": 1689797817297,
    "lastModifiedBy": "ppv91YxratjWnkJi"
  },
  "effects": [],
  "folder": null,
  "sort": 0,
  "flags": {},
  "_key": "!items!dRrrgSjLmGmNs1Mv"
}