{
  "_id": "GTSxlSYtfXk5a0Oj",
  "name": "Spell Resistance",
  "type": "buff",
  "img": "systems/pf1/icons/feats/spell-mastery.jpg",
  "system": {
    "description": {
      "value": "<p>You gain spell resistance equal to 12 + of the spell's caster level.</p>\n<p><strong>Usage:</strong>&nbsp;Set this buff's level equal to the caster level of Spell Resistance.</p>",
      "unidentified": ""
    },
    "tags": [],
    "changes": [
      {
        "_id": "ie8kit4q",
        "formula": "(12 + @item.level)",
        "operator": "add",
        "subTarget": "spellResist",
        "modifier": "untyped",
        "priority": 0,
        "value": 0,
        "target": "misc"
      }
    ],
    "changeFlags": {
      "loseDexToAC": false,
      "noEncumbrance": false,
      "mediumArmorFullSpeed": false,
      "heavyArmorFullSpeed": false
    },
    "contextNotes": [],
    "links": {
      "children": []
    },
    "tag": "spellResistance",
    "useCustomTag": false,
    "flags": {
      "boolean": {},
      "dictionary": {}
    },
    "scriptCalls": [],
    "subType": "temp",
    "active": false,
    "level": "1",
    "hideFromToken": false,
    "uses": {
      "value": 0,
      "max": 0
    }
  },
  "ownership": {
    "default": 0
  },
  "_stats": {
    "systemId": "pf1",
    "systemVersion": "9.1",
    "coreVersion": "10.291",
    "createdTime": 1665428265977,
    "modifiedTime": 1689797816557,
    "lastModifiedBy": "ppv91YxratjWnkJi"
  },
  "effects": [],
  "folder": null,
  "sort": 0,
  "flags": {},
  "_key": "!items!GTSxlSYtfXk5a0Oj"
}