{
  "_id": "iseQUmcsHjLuOyHJ",
  "name": "Unholy Aura",
  "type": "buff",
  "img": "systems/pf1/icons/spells/light-magenta-3.jpg",
  "system": {
    "description": {
      "value": "<p>A malevolent darkness surrounds the subjects, protecting them from attacks, granting them resistance to spells cast by good creatures, and weakening good creatures when they strike the subjects. This abjuration has four effects.</p>\n<ul>\n<li>Each warded creature gains a +4 deflection bonus to AC and a +4 resistance bonus on saves. Unlike the effect of <em>protection from good</em>, this benefit applies against all attacks, not just against attacks by good creatures.</li>\n<li>A warded creature gains spell resistance 25 against good spells and spells cast by good creatures.</li>\n<li>The abjuration protects the subjects from possession and mental influence, just as <em>protection from good</em> does.</li>\n<li>If a good creature succeeds on a melee attack against a warded creature, the offending attacker takes 1d6 points of Strength damage (Fortitude negates).</li>\n</ul>\n<div id=\"comments\" class=\"comments\"></div>\n<p>&nbsp;</p>",
      "unidentified": ""
    },
    "tags": [],
    "changes": [
      {
        "_id": "d73b0it5",
        "formula": "4",
        "operator": "add",
        "subTarget": "allSavingThrows",
        "modifier": "resist",
        "priority": 0,
        "value": 0,
        "target": "savingThrows"
      },
      {
        "_id": "3sg9jhth",
        "formula": "4",
        "operator": "add",
        "subTarget": "ac",
        "modifier": "deflection",
        "priority": 0,
        "value": 0,
        "target": "ac"
      }
    ],
    "changeFlags": {
      "loseDexToAC": false,
      "noEncumbrance": false,
      "mediumArmorFullSpeed": false,
      "heavyArmorFullSpeed": false
    },
    "contextNotes": [
      {
        "text": "[[25]] SR vs Good spells and spells cast by Good creatures.",
        "target": "misc",
        "subTarget": "sr"
      },
      {
        "text": "+[[2]] Morale vs existing Enchantment [charm] and [compulsion] effects.",
        "target": "savingThrows",
        "subTarget": "will"
      },
      {
        "text": "Good creatures who succeed a melee attack vs you take 1d6 STR damage (Fort save negates).",
        "target": "misc",
        "subTarget": "ac"
      }
    ],
    "links": {
      "children": []
    },
    "tag": "unholyAura",
    "useCustomTag": false,
    "flags": {
      "boolean": {},
      "dictionary": {}
    },
    "scriptCalls": [],
    "subType": "temp",
    "active": false,
    "level": "",
    "hideFromToken": false,
    "uses": {
      "value": 0,
      "max": 0
    }
  },
  "ownership": {
    "default": 0
  },
  "_stats": {
    "systemId": "pf1",
    "systemVersion": "9.1",
    "coreVersion": "10.291",
    "createdTime": 1665428266089,
    "modifiedTime": 1689797817568,
    "lastModifiedBy": "ppv91YxratjWnkJi"
  },
  "effects": [],
  "folder": null,
  "sort": 0,
  "flags": {},
  "_key": "!items!iseQUmcsHjLuOyHJ"
}