{
  "_id": "smRkFRuvOfe3XtXI",
  "name": "Virtue",
  "type": "buff",
  "img": "systems/pf1/icons/skills/red_15.jpg",
  "system": {
    "description": {
      "value": "<p>@Compendium[pf1.spells.22x4iooz3c3vqof9]{Virtue}</p>\n<p><span style=\"color: #191813; font-size: 13px;\">With a touch, you infuse a creature with a tiny surge of life, granting the subject <span class=\"notImp needSteps\" title=\"Steps Required\">1 temporary hit point</span>.</span></p>\n<hr />\n<p><strong>Not fully implemented</strong></p>\n<p>&nbsp;</p>",
      "unidentified": ""
    },
    "tags": [],
    "changes": [],
    "changeFlags": {
      "loseDexToAC": false,
      "noEncumbrance": false,
      "mediumArmorFullSpeed": false,
      "heavyArmorFullSpeed": false
    },
    "contextNotes": [],
    "links": {
      "children": []
    },
    "tag": "",
    "useCustomTag": false,
    "flags": {
      "boolean": {},
      "dictionary": {}
    },
    "scriptCalls": [],
    "subType": "temp",
    "active": false,
    "level": "",
    "hideFromToken": false,
    "uses": {
      "value": 0,
      "max": 0
    }
  },
  "ownership": {
    "default": 0
  },
  "_stats": {
    "systemId": "pf1",
    "systemVersion": "9.1",
    "coreVersion": "10.291",
    "createdTime": 1665428266127,
    "modifiedTime": 1689797817870,
    "lastModifiedBy": "ppv91YxratjWnkJi"
  },
  "effects": [],
  "folder": null,
  "sort": 0,
  "flags": {},
  "_key": "!items!smRkFRuvOfe3XtXI"
}