{
  "_id": "z7y6rAcnrO7TWKJm",
  "name": "Ability Increase (2 EP)",
  "type": "feat",
  "img": "systems/pf1/icons/feats/athletic.jpg",
  "flags": {
    "scene-packer": {
      "sourceId": "Item.bHmXZNcNrUcXihZi"
    }
  },
  "system": {
    "description": {
      "value": "<p>An eidolon grows larger muscles, gains faster reflexes, achieves greater intelligence, or acquires another increase to one of its abilities. Increase one of the eidolon's ability scores by +2.</p>\n<p>This evolution can be selected more than once. It can only be applied once to an individual ability score, plus 1 additional time for every 6 levels the summoner possesses.</p>\n<p><strong>Usage:</strong></p>\n<p>Replace the +2 bonus to Str with the ability of choice.</p>",
      "unidentified": ""
    },
    "tags": [
      "Eidolon Evolution"
    ],
    "actions": [],
    "uses": {
      "per": null,
      "value": 0,
      "maxFormula": "",
      "autoDeductChargesCost": "1"
    },
    "attackNotes": [],
    "effectNotes": [],
    "changes": [
      {
        "_id": "98zgr7b9",
        "formula": "2",
        "operator": "add",
        "subTarget": "str",
        "modifier": "untyped",
        "priority": 0,
        "value": 0
      }
    ],
    "changeFlags": {
      "loseDexToAC": false,
      "noEncumbrance": false,
      "mediumArmorFullSpeed": false,
      "heavyArmorFullSpeed": false
    },
    "contextNotes": [],
    "links": {
      "children": [],
      "charges": []
    },
    "tag": "abilityIncrease2Ep",
    "useCustomTag": false,
    "armorProf": {
      "value": [],
      "custom": ""
    },
    "weaponProf": {
      "value": [],
      "custom": ""
    },
    "languages": {
      "value": [],
      "custom": ""
    },
    "flags": {
      "boolean": {},
      "dictionary": {}
    },
    "scriptCalls": [],
    "subType": "misc",
    "associations": {
      "classes": []
    },
    "showInQuickbar": false,
    "abilityType": "ex",
    "crOffset": "",
    "disabled": false,
    "classSkills": {}
  },
  "ownership": {
    "default": 0
  },
  "_stats": {
    "systemId": "pf1",
    "systemVersion": "9.1",
    "coreVersion": "10.291",
    "createdTime": 1665428321389,
    "modifiedTime": 1689797870510,
    "lastModifiedBy": "ppv91YxratjWnkJi"
  },
  "effects": [],
  "folder": null,
  "sort": 0,
  "_key": "!items!z7y6rAcnrO7TWKJm"
}