{
  "_id": "GABG4eRyv5Rsovt5",
  "name": "Breath Weapon (4 EP)",
  "type": "feat",
  "img": "systems/pf1/icons/skills/ice_11.jpg",
  "flags": {
    "scene-packer": {
      "sourceId": "Item.oE88ScZFNsJtx9ZG"
    }
  },
  "system": {
    "description": {
      "value": "<p>An eidolon learns to exhale a cone or line of magical energy, gaining a breath weapon. Select either acid, cold, electricity, or fire. The eidolon can breathe a 30-foot cone (or 60-foot line) that deals 1d6 points of damage of the selected type per HD it possesses. Those caught in the breath weapon can attempt a Reflex save for half damage.</p>\n<p>The DC is equal to 10 + 1/2 the eidolon's HD + the eidolon's Constitution modifier. The eidolon can use this ability once per day. The eidolon can use this ability 1 additional time per day by spending an additional 1 evolution point (maximum 3/day).</p>\n<p><strong>Requirements</strong></p>\n<p>The summoner must be at least 9th level before selecting this evolution.</p>\n<p><strong>Usage</strong></p>\n<p>Replace damage type.</p>",
      "unidentified": ""
    },
    "tags": [
      "Eidolon Evolution"
    ],
    "actions": [
      {
        "_id": "q6heym7umjard8ev",
        "name": "Use",
        "img": "systems/pf1/icons/skills/ice_11.jpg",
        "description": "",
        "tag": "breathWeapon4Ep",
        "activation": {
          "cost": 1,
          "type": "standard",
          "unchained": {
            "cost": 2,
            "type": "action"
          }
        },
        "duration": {
          "value": null,
          "units": ""
        },
        "target": {
          "value": ""
        },
        "range": {
          "units": "",
          "maxIncrements": 1,
          "minValue": null,
          "minUnits": ""
        },
        "uses": {
          "autoDeductChargesCost": "",
          "self": {
            "value": 0,
            "maxFormula": "",
            "per": null
          },
          "per": "day",
          "value": 1,
          "maxFormula": "",
          "max": 1
        },
        "measureTemplate": {
          "type": "cone",
          "size": "30",
          "overrideColor": false,
          "customColor": "",
          "overrideTexture": false,
          "customTexture": ""
        },
        "attackName": "",
        "actionType": "save",
        "attackBonus": "",
        "critConfirmBonus": "",
        "damage": {
          "parts": [
            {
              "formula": "(@attributes.hd.total)d6",
              "type": {
                "values": [],
                "custom": "Replace"
              }
            }
          ],
          "critParts": [],
          "nonCritParts": []
        },
        "attackParts": [],
        "formulaicAttacks": {
          "count": {
            "formula": ""
          },
          "bonus": {
            "formula": ""
          },
          "label": null
        },
        "formula": "",
        "ability": {
          "attack": null,
          "damage": "",
          "damageMult": 1,
          "critRange": 20,
          "critMult": 2
        },
        "save": {
          "dc": "(10 + (@attributes.hd.total / 2) + @ability.con.basemod)",
          "type": "ref",
          "description": "Save for half"
        },
        "effectNotes": [
          "30-foot cone or 60-foot line."
        ],
        "attackNotes": [],
        "soundEffect": "",
        "powerAttack": {
          "multiplier": "",
          "damageBonus": 2,
          "critMultiplier": 1
        },
        "naturalAttack": {
          "primaryAttack": true,
          "secondary": {
            "attackBonus": "-5",
            "damageMult": 0.5
          }
        },
        "nonlethal": false,
        "touch": false,
        "usesAmmo": false,
        "spellEffect": "",
        "spellArea": "",
        "conditionals": [],
        "enh": {
          "value": null
        }
      }
    ],
    "uses": {
      "per": "day",
      "value": 1,
      "maxFormula": "",
      "autoDeductChargesCost": "1",
      "max": 1
    },
    "attackNotes": [],
    "effectNotes": [],
    "changes": [],
    "changeFlags": {
      "loseDexToAC": false,
      "noEncumbrance": false,
      "mediumArmorFullSpeed": false,
      "heavyArmorFullSpeed": false
    },
    "contextNotes": [],
    "links": {
      "children": [],
      "charges": []
    },
    "tag": "breathWeapon4Ep",
    "useCustomTag": false,
    "armorProf": {
      "value": [],
      "custom": ""
    },
    "weaponProf": {
      "value": [],
      "custom": ""
    },
    "languages": {
      "value": [],
      "custom": ""
    },
    "flags": {
      "boolean": {},
      "dictionary": {}
    },
    "scriptCalls": [],
    "subType": "misc",
    "associations": {
      "classes": []
    },
    "showInQuickbar": false,
    "abilityType": "su",
    "crOffset": "",
    "disabled": false,
    "classSkills": {}
  },
  "ownership": {
    "default": 0
  },
  "_stats": {
    "systemId": "pf1",
    "systemVersion": "9.1",
    "coreVersion": "10.291",
    "createdTime": 1665428321276,
    "modifiedTime": 1689797869771,
    "lastModifiedBy": "ppv91YxratjWnkJi"
  },
  "effects": [],
  "folder": null,
  "sort": 0,
  "_key": "!items!GABG4eRyv5Rsovt5"
}