{
  "_id": "Fuyn8YNSkJgNJYO3",
  "name": "Celestial Appearance (3 EP)",
  "type": "feat",
  "img": "systems/pf1/icons/skills/yellow_13.jpg",
  "flags": {
    "scene-packer": {
      "sourceId": "Item.JoAIBmnsD9GkSD9s"
    }
  },
  "system": {
    "description": {
      "value": "<p>The eidolon appears as a celestial creature and manifests some of the abilities of a celestial. Spells and effects that target creatures with the good subtype or have specific effects against such creatures affect the eidolon as if it were a celestial. The eidolon gains a +2 bonus on saves against disease, petrification, poison, and electricity spells and effects. It also gains spell resistance equal to 5 + its HD against spells with the evil descriptor.<br /><br />At 7th level, by spending 2 additional evolution points, this bonus on saves is increased to +4 and the spell resistance is extended to affect any spells and effects from evil creatures.<br /><br />At 12th level, by spending 2 additional evolution points, this protection is increased to immunity against these attacks and the spell resistance is increased to 11 + its HD (the summoner must pay for the 7th-level upgrade before paying for this 12th-level upgrade).</p>\n<p><strong>Requirements</strong></p>\n<p>The summoner must be good-aligned to select this evolution.</p>",
      "unidentified": ""
    },
    "tags": [
      "Eidolon Evolution"
    ],
    "actions": [],
    "uses": {
      "per": null,
      "value": 0,
      "maxFormula": "",
      "autoDeductChargesCost": "1"
    },
    "attackNotes": [],
    "effectNotes": [],
    "changes": [],
    "changeFlags": {
      "loseDexToAC": false,
      "noEncumbrance": false,
      "mediumArmorFullSpeed": false,
      "heavyArmorFullSpeed": false
    },
    "contextNotes": [
      {
        "text": "<strong>Celestial Appearance</strong>: +2 bonus on saves against disease, petrification, poison, and electricity spells and effects. <br> Spell resistance equal to [[5 + @attributes.hd.total]] against spells with the evil descriptor.",
        "subTarget": "allSavingThrows"
      }
    ],
    "links": {
      "children": [],
      "charges": []
    },
    "tag": "celestialAppearance3Ep",
    "useCustomTag": false,
    "armorProf": {
      "value": [],
      "custom": ""
    },
    "weaponProf": {
      "value": [],
      "custom": ""
    },
    "languages": {
      "value": [],
      "custom": ""
    },
    "flags": {
      "boolean": {},
      "dictionary": {}
    },
    "scriptCalls": [],
    "subType": "misc",
    "associations": {
      "classes": []
    },
    "showInQuickbar": false,
    "abilityType": "ex",
    "crOffset": "",
    "disabled": false,
    "classSkills": {}
  },
  "ownership": {
    "default": 0
  },
  "_stats": {
    "systemId": "pf1",
    "systemVersion": "9.1",
    "coreVersion": "10.291",
    "createdTime": 1665428321275,
    "modifiedTime": 1689797869761,
    "lastModifiedBy": "ppv91YxratjWnkJi"
  },
  "effects": [],
  "folder": null,
  "sort": 0,
  "_key": "!items!Fuyn8YNSkJgNJYO3"
}