{
  "_id": "NCNrcc7wF0eUIQYM",
  "name": "Channel Resistance (2 EP)",
  "type": "feat",
  "img": "systems/pf1/icons/skills/blue_18.jpg",
  "flags": {
    "scene-packer": {
      "sourceId": "Item.S7pzTFWgdjDO6AhO"
    }
  },
  "system": {
    "description": {
      "value": "<p>An eidolon becomes less easily affected by the channel energy ability of clerics or paladins. The eidolon gains a +2 bonus on any saves that are made to resist the effects of channel energy, including effects that rely on the use of channel energy (such as the Command Undead feat).</p>\n<p>At 7th level, this bonus can be increased to +4 by spending 2 additional evolution points.</p>\n<p><strong>Requirements</strong></p>\n<p>The eidolon must possess the undead appearance evolution to take this evolution.</p>",
      "unidentified": ""
    },
    "tags": [
      "Eidolon Evolution"
    ],
    "actions": [],
    "uses": {
      "per": null,
      "value": 0,
      "maxFormula": "",
      "autoDeductChargesCost": "1"
    },
    "attackNotes": [],
    "effectNotes": [],
    "changes": [],
    "changeFlags": {
      "loseDexToAC": false,
      "noEncumbrance": false,
      "mediumArmorFullSpeed": false,
      "heavyArmorFullSpeed": false
    },
    "contextNotes": [
      {
        "text": "<strong>Channel Resistance</strong>: +2 bonus on any saves that are made to resist the effects of channel energy, including effects that rely on the use of channel energy (such as the Command Undead feat).",
        "subTarget": "allSavingThrows"
      }
    ],
    "links": {
      "children": [],
      "charges": []
    },
    "tag": "channelResistance2Ep",
    "useCustomTag": false,
    "armorProf": {
      "value": [],
      "custom": ""
    },
    "weaponProf": {
      "value": [],
      "custom": ""
    },
    "languages": {
      "value": [],
      "custom": ""
    },
    "flags": {
      "boolean": {},
      "dictionary": {}
    },
    "scriptCalls": [],
    "subType": "misc",
    "associations": {
      "classes": []
    },
    "showInQuickbar": false,
    "abilityType": "ex",
    "crOffset": "",
    "disabled": false,
    "classSkills": {}
  },
  "ownership": {
    "default": 0
  },
  "_stats": {
    "systemId": "pf1",
    "systemVersion": "9.1",
    "coreVersion": "10.291",
    "createdTime": 1665428321304,
    "modifiedTime": 1689797870088,
    "lastModifiedBy": "ppv91YxratjWnkJi"
  },
  "effects": [],
  "folder": null,
  "sort": 0,
  "_key": "!items!NCNrcc7wF0eUIQYM"
}