{
  "_id": "EDoSy9O3XWva5SjL",
  "name": "Frightful Presence (3 EP)",
  "type": "feat",
  "img": "systems/pf1/icons/skills/affliction_03.jpg",
  "flags": {
    "scene-packer": {
      "sourceId": "Item.vUZvKFiElrGzQQ26"
    }
  },
  "system": {
    "description": {
      "value": "<p>An eidolon becomes unsettling to its foes, gaining the @Compendium[pf-content.pf-universal-monster-rules.tbYOVRDBl2uywz2o]{Frightful Presence (Ex)} ability. The eidolon can activate this ability as part of an offensive action, such as a charge or attack.</p>\n<p>Opponents within 30 feet of the eidolon must make a Will save or become shaken for 3d6 rounds. The DC of this save is equal to 10 + 1/2 the eidolon's HD + the eidolon's Charisma modifier. If the eidolon has at least 4 more Hit Dice than an opponent, that opponent becomes frightened instead.</p>\n<p>Foes with more HD than the eidolon are immune to this effect.</p>\n<p><strong>Requirements</strong></p>\n<p>The summoner must be at least 11th level before selecting this evolution.</p>",
      "unidentified": ""
    },
    "tags": [
      "Eidolon Evolution"
    ],
    "actions": [
      {
        "_id": "w7tqxtzcfifwp149",
        "name": "Use",
        "img": "systems/pf1/icons/skills/affliction_03.jpg",
        "description": "",
        "tag": "frightfulPresence3Ep",
        "activation": {
          "cost": 1,
          "type": "",
          "unchained": {
            "cost": 1,
            "type": ""
          }
        },
        "duration": {
          "value": null,
          "units": ""
        },
        "target": {
          "value": ""
        },
        "range": {
          "units": "",
          "maxIncrements": 1,
          "minValue": null,
          "minUnits": ""
        },
        "uses": {
          "autoDeductChargesCost": "",
          "self": {
            "value": 0,
            "maxFormula": "",
            "per": null
          },
          "per": null,
          "value": 0,
          "maxFormula": ""
        },
        "measureTemplate": {
          "type": "circle",
          "size": "30",
          "overrideColor": false,
          "customColor": "",
          "overrideTexture": false,
          "customTexture": ""
        },
        "attackName": "",
        "actionType": "save",
        "attackBonus": "",
        "critConfirmBonus": "",
        "damage": {
          "parts": [],
          "critParts": [],
          "nonCritParts": []
        },
        "attackParts": [],
        "formulaicAttacks": {
          "count": {
            "formula": ""
          },
          "bonus": {
            "formula": ""
          },
          "label": null
        },
        "formula": "",
        "ability": {
          "attack": null,
          "damage": "",
          "damageMult": 1,
          "critRange": 20,
          "critMult": 2
        },
        "save": {
          "dc": "(10 + ( @attributes.hd.total / 2) + @abilities.cha.basemod)",
          "type": "will",
          "description": ""
        },
        "effectNotes": [
          "Shaken for [[3d6]] rounds. If the eidolon has at least 4 more Hit Dice than an opponent, that opponent becomes frightened instead."
        ],
        "attackNotes": [],
        "soundEffect": "",
        "powerAttack": {
          "multiplier": "",
          "damageBonus": 2,
          "critMultiplier": 1
        },
        "naturalAttack": {
          "primaryAttack": true,
          "secondary": {
            "attackBonus": "-5",
            "damageMult": 0.5
          }
        },
        "nonlethal": false,
        "touch": false,
        "usesAmmo": false,
        "spellEffect": "",
        "spellArea": "",
        "conditionals": [],
        "enh": {
          "value": null
        }
      }
    ],
    "uses": {
      "per": null,
      "value": 0,
      "maxFormula": "",
      "autoDeductChargesCost": "1"
    },
    "attackNotes": [],
    "effectNotes": [],
    "changes": [],
    "changeFlags": {
      "loseDexToAC": false,
      "noEncumbrance": false,
      "mediumArmorFullSpeed": false,
      "heavyArmorFullSpeed": false
    },
    "contextNotes": [],
    "links": {
      "children": [],
      "charges": []
    },
    "tag": "frightfulPresence3Ep",
    "useCustomTag": false,
    "armorProf": {
      "value": [],
      "custom": ""
    },
    "weaponProf": {
      "value": [],
      "custom": ""
    },
    "languages": {
      "value": [],
      "custom": ""
    },
    "flags": {
      "boolean": {},
      "dictionary": {}
    },
    "scriptCalls": [],
    "subType": "misc",
    "associations": {
      "classes": []
    },
    "showInQuickbar": false,
    "abilityType": "ex",
    "crOffset": "",
    "disabled": false,
    "classSkills": {}
  },
  "ownership": {
    "default": 0
  },
  "_stats": {
    "systemId": "pf1",
    "systemVersion": "9.1",
    "coreVersion": "10.291",
    "createdTime": 1665428321272,
    "modifiedTime": 1689797869738,
    "lastModifiedBy": "ppv91YxratjWnkJi"
  },
  "effects": [],
  "folder": null,
  "sort": 0,
  "_key": "!items!EDoSy9O3XWva5SjL"
}