{
  "_id": "I17FqNZeOTdDiGED",
  "name": "Immunity (2 EP)",
  "type": "feat",
  "img": "systems/pf1/icons/skills/nature_07.jpg",
  "flags": {
    "scene-packer": {
      "sourceId": "Item.vsPJlXYnc2XxxVZR"
    }
  },
  "system": {
    "description": {
      "value": "<p>An eidolon's body becomes extremely resilient to one energy type, gaining immunity to that type.</p>\n<p>Pick one energy type: acid, cold, electricity, fire, or sonic. The eidolon gains immunity to that energy type. This evolution can be selected more than once. Its effects do not stack. Each time it applies to a different energy type.</p>\n<p><strong>Requirements</strong></p>\n<p>The summoner must be at least 7th level before selecting this evolution.</p>\n<p><strong>Usage</strong></p>\n<p>Add selected Immunity to the eidolon sheet.</p>",
      "unidentified": ""
    },
    "tags": [
      "Eidolon Evolution"
    ],
    "actions": [],
    "uses": {
      "per": null,
      "value": 0,
      "maxFormula": "",
      "autoDeductChargesCost": "1"
    },
    "attackNotes": [],
    "effectNotes": [],
    "changes": [],
    "changeFlags": {
      "loseDexToAC": false,
      "noEncumbrance": false,
      "mediumArmorFullSpeed": false,
      "heavyArmorFullSpeed": false
    },
    "contextNotes": [],
    "links": {
      "children": [],
      "charges": []
    },
    "tag": "immunity2Ep",
    "useCustomTag": false,
    "armorProf": {
      "value": [],
      "custom": ""
    },
    "weaponProf": {
      "value": [],
      "custom": ""
    },
    "languages": {
      "value": [],
      "custom": ""
    },
    "flags": {
      "boolean": {},
      "dictionary": {}
    },
    "scriptCalls": [],
    "subType": "misc",
    "associations": {
      "classes": []
    },
    "showInQuickbar": false,
    "abilityType": "su",
    "crOffset": "",
    "disabled": false,
    "classSkills": {}
  },
  "ownership": {
    "default": 0
  },
  "_stats": {
    "systemId": "pf1",
    "systemVersion": "9.1",
    "coreVersion": "10.291",
    "createdTime": 1665428321283,
    "modifiedTime": 1689797869846,
    "lastModifiedBy": "ppv91YxratjWnkJi"
  },
  "effects": [],
  "folder": null,
  "sort": 0,
  "_key": "!items!I17FqNZeOTdDiGED"
}