{
  "_id": "fOdnbr2RWJL6ZzJc",
  "name": "Major Magic (3 EP)",
  "type": "feat",
  "img": "systems/pf1/icons/spells/beam-red-3.jpg",
  "flags": {
    "scene-packer": {
      "sourceId": "Item.7vVQvlrixzp5wHMc"
    }
  },
  "system": {
    "description": {
      "value": "<p>An eidolon learns to cast a major spell as a spell-like ability. Select one spell from the following list: <em>acid arrow</em>, <em>cure moderate wounds</em>, <em>darkness</em>, <em>daze monster</em>, <em>glide</em>, <em>invisibility </em>(self only), <em>lesser restoration</em>, <em>levitate</em>, <em>minor image</em>, <em>scorching ray</em>, <em>see invisibility</em>, or <em>spider climb</em>. This spell can be cast once per day as a spell-like ability. <br /><br />At 10th level, this spell can be cast three times per day by spending 2 additional evolution points. The caster level for this evolution is equal to the eidolon's Hit Dice - 2. The save DC for this spell is 10 + 1/2 the eidolon's HD + the eidolon's Charisma modifier. The eidolon must have a Charisma score of at least 12 and must possess the minor magic evolution to take this evolution.</p>\n<p><strong>Requirements</strong></p>\n<p>The summoner must be at least 7th level before selecting this evolution. This evolution can be selected more than once. Each time an eidolon selects this evolution, it applies to a new spell from the above list.</p>\n<p><strong>Usage</strong></p>\n<p>Add the selected spell to the eidolon as a spell-like.</p>",
      "unidentified": ""
    },
    "tags": [
      "Eidolon Evolution"
    ],
    "actions": [],
    "uses": {
      "per": null,
      "value": 0,
      "maxFormula": "",
      "autoDeductChargesCost": "1"
    },
    "attackNotes": [],
    "effectNotes": [],
    "changes": [],
    "changeFlags": {
      "loseDexToAC": false,
      "noEncumbrance": false,
      "mediumArmorFullSpeed": false,
      "heavyArmorFullSpeed": false
    },
    "contextNotes": [],
    "links": {
      "children": [],
      "charges": []
    },
    "tag": "majorMagic3Ep",
    "useCustomTag": false,
    "armorProf": {
      "value": [],
      "custom": ""
    },
    "weaponProf": {
      "value": [],
      "custom": ""
    },
    "languages": {
      "value": [],
      "custom": ""
    },
    "flags": {
      "boolean": {},
      "dictionary": {}
    },
    "scriptCalls": [],
    "subType": "misc",
    "associations": {
      "classes": []
    },
    "showInQuickbar": false,
    "abilityType": "sp",
    "crOffset": "",
    "disabled": false,
    "classSkills": {}
  },
  "ownership": {
    "default": 0
  },
  "_stats": {
    "systemId": "pf1",
    "systemVersion": "9.1",
    "coreVersion": "10.291",
    "createdTime": 1665428321350,
    "modifiedTime": 1689797870302,
    "lastModifiedBy": "ppv91YxratjWnkJi"
  },
  "effects": [],
  "folder": null,
  "sort": 0,
  "_key": "!items!fOdnbr2RWJL6ZzJc"
}