{
  "_id": "Z4wx2mRpp3dWPOIh",
  "name": "Share Spells",
  "type": "feat",
  "img": "systems/pf1/icons/feats/improved-counterspell.jpg",
  "flags": {
    "scene-packer": {
      "sourceId": "Item.yYF0azvMLNSRc2QJ"
    }
  },
  "system": {
    "description": {
      "value": "<p><span id=\"ctl00_MainContent_DataListTypes_ctl00_LabelName\">The summoner may cast a spell with a target of &ldquo;you&rdquo; on his eidolon (as a spell with a range of touch) instead of on himself. A summoner may cast spells on his eidolon even if the spells normally do not affect creatures of the eidolon's type (outsider). </span></p>\n<p><span id=\"ctl00_MainContent_DataListTypes_ctl00_LabelName\">Spells cast in this way must come from the summoner spell list. </span></p>\n<p><span id=\"ctl00_MainContent_DataListTypes_ctl00_LabelName\">This ability does not allow the eidolon to share abilities that are not spells, even if they function like spells.</span></p>",
      "unidentified": ""
    },
    "tags": [
      "Eidolon"
    ],
    "actions": [],
    "uses": {
      "per": null,
      "value": 0,
      "maxFormula": "",
      "autoDeductChargesCost": "1"
    },
    "attackNotes": [],
    "effectNotes": [],
    "changes": [],
    "changeFlags": {
      "loseDexToAC": false,
      "noEncumbrance": false,
      "mediumArmorFullSpeed": false,
      "heavyArmorFullSpeed": false
    },
    "contextNotes": [],
    "links": {
      "children": [],
      "charges": []
    },
    "tag": "shareSpells",
    "useCustomTag": false,
    "armorProf": {
      "value": [],
      "custom": ""
    },
    "weaponProf": {
      "value": [],
      "custom": ""
    },
    "languages": {
      "value": [],
      "custom": ""
    },
    "flags": {
      "boolean": {},
      "dictionary": {}
    },
    "scriptCalls": [],
    "subType": "classFeat",
    "associations": {
      "classes": [
        "Eidolon"
      ]
    },
    "showInQuickbar": false,
    "abilityType": "ex",
    "crOffset": "",
    "disabled": false,
    "classSkills": {}
  },
  "ownership": {
    "default": 0
  },
  "_stats": {
    "systemId": "pf1",
    "systemVersion": "9.1",
    "coreVersion": "10.291",
    "createdTime": 1665428321334,
    "modifiedTime": 1689797870239,
    "lastModifiedBy": "ppv91YxratjWnkJi"
  },
  "effects": [],
  "folder": null,
  "sort": 0,
  "_key": "!items!Z4wx2mRpp3dWPOIh"
}