{
  "_id": "ODuNyMIfBGGg5pge",
  "name": "Shared Slot (2 EP)",
  "type": "feat",
  "img": "systems/pf1/icons/skills/violet_05.jpg",
  "flags": {
    "scene-packer": {
      "sourceId": "Item.NC8RUv0tALGqJV09"
    }
  },
  "system": {
    "description": {
      "value": "<p>Select a magic item slot.</p>\n<p>A magic item worn by the eidolon in that slot remains active even if the summoner is also wearing a magic item in that slot.</p>\n<p>This evolution can be selected more than once. Each time an eidolon selects this evolution, it applies to a new slot.<em> </em></p>\n<p><strong>Requirements</strong></p>\n<p>Twinned eidolon.</p>\n<p><strong>Usage</strong></p>\n<p>Add magic item to eidolon sheet.</p>",
      "unidentified": ""
    },
    "tags": [
      "Eidolon Evolution"
    ],
    "actions": [],
    "uses": {
      "per": null,
      "value": 0,
      "maxFormula": "",
      "autoDeductChargesCost": "1"
    },
    "attackNotes": [],
    "effectNotes": [],
    "changes": [],
    "changeFlags": {
      "loseDexToAC": false,
      "noEncumbrance": false,
      "mediumArmorFullSpeed": false,
      "heavyArmorFullSpeed": false
    },
    "contextNotes": [],
    "links": {
      "children": [],
      "charges": []
    },
    "tag": "sharedSlot2Ep",
    "useCustomTag": false,
    "armorProf": {
      "value": [],
      "custom": ""
    },
    "weaponProf": {
      "value": [],
      "custom": ""
    },
    "languages": {
      "value": [],
      "custom": ""
    },
    "flags": {
      "boolean": {},
      "dictionary": {}
    },
    "scriptCalls": [],
    "subType": "misc",
    "associations": {
      "classes": []
    },
    "showInQuickbar": false,
    "abilityType": "su",
    "crOffset": "",
    "disabled": false,
    "classSkills": {}
  },
  "ownership": {
    "default": 0
  },
  "_stats": {
    "systemId": "pf1",
    "systemVersion": "9.1",
    "coreVersion": "10.291",
    "createdTime": 1665428321307,
    "modifiedTime": 1689797870108,
    "lastModifiedBy": "ppv91YxratjWnkJi"
  },
  "effects": [],
  "folder": null,
  "sort": 0,
  "_key": "!items!ODuNyMIfBGGg5pge"
}