{
  "_id": "edb8C0GSfdQyfm1q",
  "name": "Spell Resistance (4 EP)",
  "type": "feat",
  "img": "systems/pf1/icons/spells/haste-fire-3.jpg",
  "flags": {
    "scene-packer": {
      "sourceId": "Item.whwUijWS218w3t3Z"
    }
  },
  "system": {
    "description": {
      "value": "<p>An eidolon is protected against magic, gaining spell resistance. The eidolon's spell resistance is equal to 11 + the summoner's level. This spell resistance does not apply to spells cast by the summoner.</p>\n<p><strong>Requirements</strong></p>\n<p>The summoner must be at least 9th level before selecting this evolution.</p>\n<p><strong>Usage</strong></p>\n<p>Change 0 value in Changes to be that of summoner's level.</p>",
      "unidentified": ""
    },
    "tags": [
      "Eidolon Evolution"
    ],
    "actions": [],
    "uses": {
      "per": null,
      "value": 0,
      "maxFormula": "",
      "autoDeductChargesCost": "1"
    },
    "attackNotes": [],
    "effectNotes": [],
    "changes": [
      {
        "_id": "x02fnasq",
        "formula": "(11 + 0)",
        "operator": "add",
        "subTarget": "spellResist",
        "modifier": "untyped",
        "priority": 0,
        "value": 0
      }
    ],
    "changeFlags": {
      "loseDexToAC": false,
      "noEncumbrance": false,
      "mediumArmorFullSpeed": false,
      "heavyArmorFullSpeed": false
    },
    "contextNotes": [],
    "links": {
      "children": [],
      "charges": []
    },
    "tag": "spellResistance4Ep",
    "useCustomTag": false,
    "armorProf": {
      "value": [],
      "custom": ""
    },
    "weaponProf": {
      "value": [],
      "custom": ""
    },
    "languages": {
      "value": [],
      "custom": ""
    },
    "flags": {
      "boolean": {},
      "dictionary": {}
    },
    "scriptCalls": [],
    "subType": "misc",
    "associations": {
      "classes": []
    },
    "showInQuickbar": false,
    "abilityType": "ex",
    "crOffset": "",
    "disabled": false,
    "classSkills": {}
  },
  "ownership": {
    "default": 0
  },
  "_stats": {
    "systemId": "pf1",
    "systemVersion": "9.1",
    "coreVersion": "10.291",
    "createdTime": 1665428321346,
    "modifiedTime": 1689797870290,
    "lastModifiedBy": "ppv91YxratjWnkJi"
  },
  "effects": [],
  "folder": null,
  "sort": 0,
  "_key": "!items!edb8C0GSfdQyfm1q"
}