{
  "_id": "YteqPhDg0Iiwu0Ng",
  "name": "Sting (1 EP)",
  "type": "feat",
  "img": "icons/commodities/biological/stinger-insect-grey.webp",
  "flags": {
    "scene-packer": {
      "sourceId": "Item.MMiC5rYPbjr9j9KH"
    }
  },
  "system": {
    "description": {
      "value": "<p>An eidolon possesses a long, barbed stinger at the end of its tail, granting it a sting attack.</p>\n<p>This attack is a primary attack. The sting deals 1d4 points of damage (1d6 if Large, 1d8 if Huge).</p>\n<p><strong>Requirements</strong></p>\n<p>The eidolon must possess the tail evolution to take this evolution.</p>\n<p>This evolution can be selected more than once, but the eidolon must possess an equal number of the tail evolution.</p>\n<p><strong>Usage</strong></p>\n<p>Add @Compendium[pf-content.pf-eidolon-evolutions.UudCMEqM0y5fSZxg]{Sting (Attack)} to eidolon sheet.&nbsp;</p>",
      "unidentified": ""
    },
    "tags": [
      "Eidolon Evolution"
    ],
    "actions": [],
    "uses": {
      "per": null,
      "value": 0,
      "maxFormula": "",
      "autoDeductChargesCost": "1"
    },
    "attackNotes": [],
    "effectNotes": [],
    "changes": [],
    "changeFlags": {
      "loseDexToAC": false,
      "noEncumbrance": false,
      "mediumArmorFullSpeed": false,
      "heavyArmorFullSpeed": false
    },
    "contextNotes": [],
    "links": {
      "children": [],
      "charges": []
    },
    "tag": "sting1Ep",
    "useCustomTag": false,
    "armorProf": {
      "value": [],
      "custom": ""
    },
    "weaponProf": {
      "value": [],
      "custom": ""
    },
    "languages": {
      "value": [],
      "custom": ""
    },
    "flags": {
      "boolean": {},
      "dictionary": {}
    },
    "scriptCalls": [],
    "subType": "misc",
    "associations": {
      "classes": []
    },
    "showInQuickbar": false,
    "abilityType": "ex",
    "crOffset": "",
    "disabled": false,
    "classSkills": {}
  },
  "ownership": {
    "default": 0
  },
  "_stats": {
    "systemId": "pf1",
    "systemVersion": "9.1",
    "coreVersion": "10.291",
    "createdTime": 1665428321332,
    "modifiedTime": 1689797870229,
    "lastModifiedBy": "ppv91YxratjWnkJi"
  },
  "effects": [],
  "folder": null,
  "sort": 0,
  "_key": "!items!YteqPhDg0Iiwu0Ng"
}