{
  "_id": "ix7slSWwuDOlSPzu",
  "name": "Tail Slap (1 EP)",
  "type": "feat",
  "img": "systems/pf1/icons/items/inventory/monster-tail.jpg",
  "flags": {
    "scene-packer": {
      "sourceId": "Item.yMc6o8TMZYxuFPpC"
    }
  },
  "system": {
    "description": {
      "value": "<p>An eidolon can use its tail to bash nearby foes, granting it a tail slap attack. This attack is a secondary attack. The tail slap deals 1d6 points of damage (1d8 if Large, 2d6 if Huge).</p>\n<p><strong>Requirements</strong></p>\n<p>The eidolon must possess the tail evolution to take this evolution. This evolution can be selected more than once, but the eidolon must possess an equal number of the tail evolution.</p>\n<p><strong>Usage</strong></p>\n<p>Add the @Compendium[pf-content.pf-eidolon-evolutions.zfeKCQsoGM530tTV]{Tail (Attack)} to the eidolon sheet</p>",
      "unidentified": ""
    },
    "tags": [
      "Eidolon Evolution"
    ],
    "actions": [],
    "uses": {
      "per": null,
      "value": 0,
      "maxFormula": "",
      "autoDeductChargesCost": "1"
    },
    "attackNotes": [],
    "effectNotes": [],
    "changes": [],
    "changeFlags": {
      "loseDexToAC": false,
      "noEncumbrance": false,
      "mediumArmorFullSpeed": false,
      "heavyArmorFullSpeed": false
    },
    "contextNotes": [],
    "links": {
      "children": [],
      "charges": []
    },
    "tag": "tailSlap1Ep",
    "useCustomTag": false,
    "armorProf": {
      "value": [],
      "custom": ""
    },
    "weaponProf": {
      "value": [],
      "custom": ""
    },
    "languages": {
      "value": [],
      "custom": ""
    },
    "flags": {
      "boolean": {},
      "dictionary": {}
    },
    "scriptCalls": [],
    "subType": "misc",
    "associations": {
      "classes": []
    },
    "showInQuickbar": false,
    "abilityType": "ex",
    "crOffset": "",
    "disabled": false,
    "classSkills": {}
  },
  "ownership": {
    "default": 0
  },
  "_stats": {
    "systemId": "pf1",
    "systemVersion": "9.1",
    "coreVersion": "10.291",
    "createdTime": 1665428321357,
    "modifiedTime": 1689797870341,
    "lastModifiedBy": "ppv91YxratjWnkJi"
  },
  "effects": [],
  "folder": null,
  "sort": 0,
  "_key": "!items!ix7slSWwuDOlSPzu"
}