{
  "_id": "tPfmh0SmlVjZwNNF",
  "name": "Weapon Training (2 EP)",
  "type": "feat",
  "img": "systems/pf1/icons/skills/weapon_01.jpg",
  "flags": {
    "scene-packer": {
      "sourceId": "Item.Gle8DT74ZgJkCJRU"
    }
  },
  "system": {
    "description": {
      "value": "<p>An eidolon learns to use a weapon, gaining Simple Weapon Proficiency as a bonus feat.</p>\n<p>If 2 additional evolution points are spent, it gains proficiency with all martial weapons as well.</p>",
      "unidentified": ""
    },
    "tags": [
      "Eidolon Evolution"
    ],
    "actions": [],
    "uses": {
      "per": null,
      "value": 0,
      "maxFormula": "",
      "autoDeductChargesCost": "1"
    },
    "attackNotes": [],
    "effectNotes": [],
    "changes": [],
    "changeFlags": {
      "loseDexToAC": false,
      "noEncumbrance": false,
      "mediumArmorFullSpeed": false,
      "heavyArmorFullSpeed": false
    },
    "contextNotes": [],
    "links": {
      "children": [],
      "charges": []
    },
    "tag": "weaponTraining2Ep",
    "useCustomTag": false,
    "armorProf": {
      "value": [],
      "custom": ""
    },
    "weaponProf": {
      "value": [
        "sim"
      ],
      "custom": ""
    },
    "languages": {
      "value": [],
      "custom": ""
    },
    "flags": {
      "boolean": {},
      "dictionary": {}
    },
    "scriptCalls": [],
    "subType": "misc",
    "associations": {
      "classes": []
    },
    "showInQuickbar": false,
    "abilityType": "ex",
    "crOffset": "",
    "disabled": false,
    "classSkills": {}
  },
  "ownership": {
    "default": 0
  },
  "_stats": {
    "systemId": "pf1",
    "systemVersion": "9.1",
    "coreVersion": "10.291",
    "createdTime": 1665428321376,
    "modifiedTime": 1689797870422,
    "lastModifiedBy": "ppv91YxratjWnkJi"
  },
  "effects": [],
  "folder": null,
  "sort": 0,
  "_key": "!items!tPfmh0SmlVjZwNNF"
}