{
  "_id": "ixmAOY2qsL1HJYuK",
  "name": "Air tank",
  "type": "loot",
  "img": "systems/pf1/icons/items/inventory/feather-white.jpg",
  "system": {
    "description": {
      "value": "<p><strong>Source</strong> <em>Aquatic Adventures pg. 56</em><br/><strong>Price</strong> 5 sp/ gallon; <strong>Weight</strong> 1/2 lb./gallon<br/><strong>Category</strong> Adventuring Gear</p><h2 class=\"framing\">Description</h2><p>Tanks full of normal air don't last long as breathing devices, but a large air tank is excellent for ensuring a character has a swiftly rising buoyancy, and a savvy diver can adjust her air tank just enough to give her a neutral buoyancy, making it much easier to explore underwater. Every 6 gallons of air is enough to breathe for roughly 1 minute underwater; it takes far less air for a Medium creature to achieve neutral buoyancy unless it's carrying a significant amount of metal and other dense material.</p>",
      "unidentified": ""
    },
    "tags": [],
    "quantity": 1,
    "weight": {
      "value": 0.5
    },
    "price": 0.5,
    "size": "med",
    "equipped": false,
    "resizing": false,
    "identified": true,
    "hp": {
      "max": 10,
      "value": 10
    },
    "broken": false,
    "hardness": 0,
    "carried": true,
    "unidentified": {
      "price": 0,
      "name": ""
    },
    "cl": 0,
    "aura": {
      "custom": false,
      "school": ""
    },
    "changes": [],
    "changeFlags": {
      "loseDexToAC": false,
      "noEncumbrance": false,
      "mediumArmorFullSpeed": false,
      "heavyArmorFullSpeed": false
    },
    "contextNotes": [],
    "links": {
      "children": []
    },
    "tag": "airTank",
    "useCustomTag": false,
    "flags": {
      "boolean": {},
      "dictionary": {
        "Category": "Adventuring Gear"
      }
    },
    "scriptCalls": [],
    "subType": "gear",
    "extraType": "",
    "uses": {
      "value": 0,
      "max": 0
    }
  },
  "ownership": {
    "default": 0
  },
  "_stats": {
    "systemId": "pf1",
    "systemVersion": "9.1",
    "coreVersion": "10.291",
    "createdTime": 1665428367645,
    "modifiedTime": 1689793675772,
    "lastModifiedBy": "ppv91YxratjWnkJi"
  },
  "effects": [],
  "folder": null,
  "sort": 0,
  "flags": {},
  "_key": "!items!ixmAOY2qsL1HJYuK"
}