{
  "_id": "ewN4EZrIICKTPTYZ",
  "name": "Alchemist's fire",
  "type": "consumable",
  "img": "systems/pf1/icons/items/potions/magic-red.jpg",
  "system": {
    "description": {
      "value": "<h1 class=\"title\"><img src=\"modules/pf-content/assets/PathfinderSocietySymbol.gif\" style=\"margin:3px 3px 0px 3px;\" title=\"PFS Legal\"/> Alchemist's fire</h1><b>Source</b> <a class=\"external-link\" href=\"http://paizo.com/products/btpy959n?Pathfinder-Player-Companion-Alchemy-Manual\" target=\"_blank\"><i>Alchemy Manual pg. 30</i></a>, <a href=\"http://paizo.com/products/btpy8tmc?Pathfinder-Roleplaying-Game-Ultimate-Equipment\" target=\"_blank\"><i>Ultimate Equipment pg. 107</i></a>, <a href=\"http://paizo.com/pathfinderRPG/v5748btpy88yj\" target=\"_blank\"><i>PRPG Core Rulebook pg. 158</i></a><br/><b>Price</b> 20 gp; <b>Weight</b> 1 lb.<br/><b>Category</b> Alchemical Weapons<h2 class=\"framing\">Description</h2><p>Alchemist's fire is a mix of several volatile liquids that ignite when exposed to air. You can throw a flask of alchemist's fire as a splash weapon. Treat this attack as a ranged touch attack with a range increment of 10 feet.<br/><br/> A direct hit deals 1d6 points of fire damage. Every creature within 5 feet of the point where the flask hits takes 1 point of fire damage from the splash. On the round following a direct hit, the target takes an additional 1d6 points of damage. If desired, the target can use a full-round action to attempt to extinguish the flames before taking this additional damage. Extinguishing the flames requires a DC 15 Reflex save. Rolling on the ground provides the target a +2 bonus on the save. Leaping into a large body of water or magically extinguishing the flames automatically smothers the fire. Crafting this item is a DC 20 Craft (alchemy) check.</p><h2 class=\"framing\">Alchemical Recipe</h2><p><b>Recipe</b> (12 magnesium + 22 spirit of wine)/congelation; <b>Craft</b> 20<br/><b>Time</b> 10 minutes; <b>Tools</b> alchemist's lab; <b>Type</b> alchemical weapon</p>",
      "unidentified": ""
    },
    "tags": [],
    "quantity": 1,
    "weight": {
      "value": 1
    },
    "price": 20,
    "size": "med",
    "equipped": true,
    "resizing": false,
    "identified": true,
    "hp": {
      "max": 10,
      "value": 10
    },
    "broken": false,
    "hardness": 0,
    "carried": true,
    "unidentified": {
      "price": 0,
      "name": ""
    },
    "cl": 0,
    "aura": {
      "custom": false,
      "school": ""
    },
    "actions": [
      {
        "_id": "l3qibu8l9692us23",
        "name": "Use",
        "img": "systems/pf1/icons/items/potions/magic-red.jpg",
        "description": "",
        "tag": "alchemistsFire",
        "activation": {
          "cost": 1,
          "type": "standard",
          "unchained": {
            "cost": 2,
            "type": "action"
          }
        },
        "duration": {
          "value": null,
          "units": ""
        },
        "target": {
          "value": ""
        },
        "range": {
          "value": "10",
          "units": "ft",
          "maxIncrements": 1,
          "minValue": null,
          "minUnits": ""
        },
        "uses": {
          "autoDeductChargesCost": "",
          "self": {
            "value": 0,
            "maxFormula": "",
            "per": null
          },
          "per": "single",
          "value": 0,
          "maxFormula": "",
          "pricePerUse": 0,
          "max": 0
        },
        "measureTemplate": {
          "type": "",
          "size": "0",
          "overrideColor": false,
          "customColor": "",
          "overrideTexture": false,
          "customTexture": ""
        },
        "attackName": "",
        "actionType": "rwak",
        "attackBonus": "",
        "critConfirmBonus": "",
        "damage": {
          "parts": [
            {
              "formula": "1d6",
              "type": {
                "values": [
                  "fire"
                ],
                "custom": ""
              }
            },
            {
              "formula": "",
              "type": {
                "values": [],
                "custom": ""
              }
            }
          ],
          "critParts": [],
          "nonCritParts": []
        },
        "attackParts": [],
        "formulaicAttacks": {
          "count": {
            "formula": ""
          },
          "bonus": {
            "formula": ""
          },
          "label": null
        },
        "formula": "",
        "ability": {
          "attack": "dex",
          "damage": "",
          "damageMult": 1,
          "critRange": 20,
          "critMult": 1
        },
        "save": {
          "dc": "0",
          "type": "",
          "description": ""
        },
        "effectNotes": [],
        "attackNotes": [],
        "soundEffect": "",
        "powerAttack": {
          "multiplier": "",
          "damageBonus": 2,
          "critMultiplier": 1
        },
        "naturalAttack": {
          "primaryAttack": true,
          "secondary": {
            "attackBonus": "-5",
            "damageMult": 0.5
          }
        },
        "nonlethal": false,
        "touch": false,
        "usesAmmo": false,
        "spellEffect": "",
        "spellArea": "",
        "conditionals": [],
        "enh": {
          "value": null
        }
      }
    ],
    "uses": {
      "per": "single",
      "value": 0,
      "maxFormula": "",
      "pricePerUse": 0,
      "autoDeductChargesCost": "1",
      "max": 0
    },
    "attackNotes": [],
    "effectNotes": [],
    "links": {
      "children": [],
      "charges": []
    },
    "tag": "alchemistsFire",
    "useCustomTag": false,
    "flags": {
      "boolean": {},
      "dictionary": {
        "Category": "Alchemical Weapons"
      }
    },
    "scriptCalls": [],
    "subType": "misc",
    "showInQuickbar": false,
    "spellArea": ""
  },
  "ownership": {
    "default": 0
  },
  "_stats": {
    "systemId": "pf1",
    "systemVersion": "9.1",
    "coreVersion": "10.291",
    "createdTime": 1665428367376,
    "modifiedTime": 1689797918320,
    "lastModifiedBy": "ppv91YxratjWnkJi"
  },
  "effects": [],
  "folder": null,
  "sort": 0,
  "flags": {},
  "_key": "!items!ewN4EZrIICKTPTYZ"
}