{
  "_id": "jdTZqdopNqgLcLsb",
  "name": "Alchemical Cleaner",
  "type": "consumable",
  "img": "icons/commodities/materials/liquid-droplet-blue.webp",
  "system": {
    "description": {
      "value": "<p><strong>Source</strong> <em>Villain Codex pg. 44</em><br/><strong>Price</strong> 300 gp; <strong>Weight</strong> 1 lb.<br/><strong>Category</strong> Alchemical Tools</p><h2 class=\"framing\"><img src=\"modules/pf-content/assets/PathfinderSocietySymbol.gif\" style=\"margin:3px 3px 0px 3px;\" title=\"PFS Legal\"/>Description</h2><p>This caustic alchemical solution dissolves blood, hair, and small pieces of flesh. Distributing it over a 5-foot square takes one full-round action and increases the DC of Perception checks to find such materials by 20. (A creature that fails the Perception check to find such materials by 5 or less realizes the area has been unnaturally cleared of them.) This applies only to the original Perception DC, not a substituted skill check like those from the cleaner<sup>ACG</sup> or traceless<sup>UI</sup> archetypes. One pot of alchemical cleaner contains enough liquid to cover nine 5-foot squares. A pot of alchemical cleaner can be thrown as a splash weapon and functions as an alkali flask (<em>Advanced Player's Guide</em> 184) when thrown. Crafting alchemical cleaner requires a successful DC 25 Craft (alchemy) check.</p><h2 class=\"framing\">Construction</h2><p><strong>Craft (Alchemy)</strong> DC 25</p>",
      "unidentified": ""
    },
    "tags": [],
    "quantity": 1,
    "weight": {
      "value": 1
    },
    "price": 300,
    "size": "med",
    "equipped": true,
    "resizing": false,
    "identified": true,
    "hp": {
      "max": 10,
      "value": 10
    },
    "broken": false,
    "hardness": 0,
    "carried": true,
    "unidentified": {
      "price": 0,
      "name": ""
    },
    "cl": 0,
    "aura": {
      "custom": false,
      "school": ""
    },
    "actions": [],
    "uses": {
      "per": null,
      "value": 0,
      "maxFormula": "",
      "pricePerUse": 0,
      "autoDeductChargesCost": "1"
    },
    "attackNotes": [],
    "effectNotes": [],
    "links": {
      "children": [],
      "charges": []
    },
    "tag": "alchemicalCleaner",
    "useCustomTag": false,
    "flags": {
      "boolean": {},
      "dictionary": {
        "Category": "Alchemical Tools"
      }
    },
    "scriptCalls": [],
    "subType": "misc",
    "showInQuickbar": false
  },
  "ownership": {
    "default": 0
  },
  "_stats": {
    "systemId": "pf1",
    "systemVersion": "9.1",
    "coreVersion": "10.291",
    "createdTime": 1665428367663,
    "modifiedTime": 1689797918981,
    "lastModifiedBy": "ppv91YxratjWnkJi"
  },
  "effects": [],
  "folder": null,
  "sort": 0,
  "flags": {},
  "_key": "!items!jdTZqdopNqgLcLsb"
}