{
  "_id": "GM3PI5IA7gtvZ2iq",
  "name": "Angelstep",
  "type": "consumable",
  "img": "icons/commodities/flowers/daisies-pink.webp",
  "system": {
    "description": {
      "value": "<p><strong>Source</strong> <em>Ultimate Wilderness pg. 152</em><br/><strong>Price</strong> 25 gp; <strong>Weight</strong> -<br/><strong>Category</strong> Herbs<br/><strong>Gather</strong> DC 18; <strong>Yield</strong> 1 dose<br/><strong>Terrain</strong> temperate or warm deserts<br/><strong>Preparation</strong> A dose of angelstep can be used raw or processed into a pigment that can be worn on the skin. Processing a dose of the pigment takes 4 hours and requires a successful DC 15 Craft (alchemy) check. Angelstep pigment costs twice as much as the raw fungus.<br/><strong>Use</strong> As part of an attempt to stabilize a dying creature, a dose of raw angelstep can be rubbed on the creature to grant a +4 bonus on the Heal check to stabilize the creature. A dose of angelstep pigment applied to the skin of a Medium or smaller creature helps to protect that creature against death for 2d4 hours. The next time the wearer of angelstep pigment drops to negative hit points, it gains a +4 alchemical bonus on its next 1d6 Constitution checks to stabilize. The pigment loses its effect once all these checks are attempted or once the victim is stabilized.</p><h2 class=\"framing\"><img src=\"modules/pf-content/assets/PathfinderSocietySymbolN.gif\" style=\"margin:3px 3px 0px 3px;\" title=\"The herbalism subsystem is not legal for play; instead a PC with at least one rank in Craft (alchemy) and 1 rank in either Knowledge (nature) or Profession (herbalist) can purchase the herbs in this book at a 10% discount that does not stack with other discounts; if a PC's ranks in these skills are 5 or higher, the discount increases to 15%, and if a PC's ranks in these skills are 10 or higher, the discount increases to 20%\"/>Description</h2><p>This iridescent white shelf fungus is said to have first grown from the footsteps of an angel, though some claim it instead comes from the footsteps of a djinni.</p>",
      "unidentified": ""
    },
    "tags": [],
    "quantity": 1,
    "weight": {
      "value": 0
    },
    "price": 25,
    "size": "med",
    "equipped": true,
    "resizing": false,
    "identified": true,
    "hp": {
      "max": 10,
      "value": 10
    },
    "broken": false,
    "hardness": 0,
    "carried": true,
    "unidentified": {
      "price": 0,
      "name": ""
    },
    "cl": 0,
    "aura": {
      "custom": false,
      "school": ""
    },
    "actions": [],
    "uses": {
      "per": null,
      "value": 0,
      "maxFormula": "",
      "pricePerUse": 0,
      "autoDeductChargesCost": "1"
    },
    "attackNotes": [],
    "effectNotes": [],
    "links": {
      "children": [],
      "charges": []
    },
    "tag": "angelstep",
    "useCustomTag": false,
    "flags": {
      "boolean": {},
      "dictionary": {
        "Category": "Herbs"
      }
    },
    "scriptCalls": [],
    "subType": "misc",
    "showInQuickbar": false
  },
  "ownership": {
    "default": 0
  },
  "_stats": {
    "systemId": "pf1",
    "systemVersion": "9.1",
    "coreVersion": "10.291",
    "createdTime": 1665428366357,
    "modifiedTime": 1689797914526,
    "lastModifiedBy": "ppv91YxratjWnkJi"
  },
  "effects": [],
  "folder": null,
  "sort": 0,
  "flags": {},
  "_key": "!items!GM3PI5IA7gtvZ2iq"
}