{
  "_id": "OmEqnVWG4798bTUj",
  "name": "Animal Glue",
  "type": "consumable",
  "img": "icons/commodities/materials/slime-white.webp",
  "system": {
    "description": {
      "value": "<p><strong>Source</strong> <em>Ultimate Equipment pg. 56</em><br/><strong>Price</strong> 5 sp; <strong>Weight</strong> 1/2 lb.<br/><strong>Category</strong> Adventuring Gear</p><h2 class=\"framing\"><img src=\"modules/pf-content/assets/PathfinderSocietySymbol.gif\" style=\"margin:3px 3px 0px 3px;\" title=\"PFS Legal\"/>Description</h2><p>This simple glue is created by extensively boiling animal skin, bones, hooves, horn, and tendons until they turn into a ochre syrup that cools when it hardens. Before you use animal glue, you must heat it until it liquefies. You normally apply it with a brush and hold the pieces together for a minute, at which point it is cooled and hardened. The glue is sufficient to coat 1 square foot of surface, or (because of waste and spills) up to 40 smaller applications of approximately 2 square inches each. Pulling apart a large glued surface (at least 1 square foot) requires a DC 15 Strength check. Pulling apart a small glued surface (anything less than 1 square foot) requires a DC 10 Strength check. Animal glue slowly dissolves in water, reducing the Strength DC needed to break it by 1 per 10 minutes. It softens if heated, even with steam, reducing the Strength DC needed to break it by 1 per minute.</p>",
      "unidentified": ""
    },
    "tags": [],
    "quantity": 1,
    "weight": {
      "value": 0.5
    },
    "price": 0.5,
    "size": "med",
    "equipped": true,
    "resizing": false,
    "identified": true,
    "hp": {
      "max": 10,
      "value": 10
    },
    "broken": false,
    "hardness": 0,
    "carried": true,
    "unidentified": {
      "price": 0,
      "name": ""
    },
    "cl": 0,
    "aura": {
      "custom": false,
      "school": ""
    },
    "actions": [],
    "uses": {
      "per": null,
      "value": 0,
      "maxFormula": "",
      "pricePerUse": 0,
      "autoDeductChargesCost": "1"
    },
    "attackNotes": [],
    "effectNotes": [],
    "links": {
      "children": [],
      "charges": []
    },
    "tag": "animalGlue",
    "useCustomTag": false,
    "flags": {
      "boolean": {},
      "dictionary": {
        "Category": "Adventuring Gear"
      }
    },
    "scriptCalls": [],
    "subType": "misc",
    "showInQuickbar": false
  },
  "ownership": {
    "default": 0
  },
  "_stats": {
    "systemId": "pf1",
    "systemVersion": "9.1",
    "coreVersion": "10.291",
    "createdTime": 1665428366765,
    "modifiedTime": 1689797916074,
    "lastModifiedBy": "ppv91YxratjWnkJi"
  },
  "effects": [],
  "folder": null,
  "sort": 0,
  "flags": {},
  "_key": "!items!OmEqnVWG4798bTUj"
}