{
  "_id": "SG8rBuQccyovN0uF",
  "name": "Artifical gills",
  "type": "loot",
  "img": "systems/pf1/icons/items/inventory/monster-lung.jpg",
  "system": {
    "description": {
      "value": "<p><strong>Source</strong> <em>Blood of the Sea pg. 18</em><br/><strong>Price</strong> 50 gp; <strong>Weight</strong> 15 lbs.<br/><strong>Category</strong> Adventuring Gear</p><h2 class=\"framing\"><img src=\"modules/pf-content/assets/PathfinderSocietySymbol.gif\" style=\"margin:3px 3px 0px 3px;\" title=\"PFS Legal\"/>Description</h2><p>Flexible tubes connect a hand pump and a breathing mask to this reinforced leather backpack. When the hand pump is pressed, the artificial gills draw in oxygen from the surrounding water and feed it through the mask, allowing the wearer to breathe underwater for extended periods of time.<br/><br/> The hand pump must be regularly depressed, requiring you to have a free hand and use a move action each round. If you do not squeeze the hand pump in a round, you must hold your breath or begin to suffocate. Artificial gills eventually become clogged with particulates and must be disassembled and cleaned after 1 hour of being submerged, although this time can be dramatically shortened by murky or polluted water.<br/><br/> Artificial gills provide no protection against temperature dangers or pressure damage in the open seas. If artificial gills are submerged more than 100 feet below the surface, they take 1d6 points of damage per round until they are either brought into shallower water or they rupture from the pressure. Artificial gills have a hardness of 0, 10 hit points, and a break DC of 30.</p>",
      "unidentified": ""
    },
    "tags": [],
    "quantity": 1,
    "weight": {
      "value": 15
    },
    "price": 50,
    "size": "med",
    "equipped": false,
    "resizing": false,
    "identified": true,
    "hp": {
      "max": 10,
      "value": 10
    },
    "broken": false,
    "hardness": 0,
    "carried": true,
    "unidentified": {
      "price": 0,
      "name": ""
    },
    "cl": 0,
    "aura": {
      "custom": false,
      "school": ""
    },
    "changes": [],
    "changeFlags": {
      "loseDexToAC": false,
      "noEncumbrance": false,
      "mediumArmorFullSpeed": false,
      "heavyArmorFullSpeed": false
    },
    "contextNotes": [],
    "links": {
      "children": []
    },
    "tag": "artificalGills",
    "useCustomTag": false,
    "flags": {
      "boolean": {},
      "dictionary": {
        "Category": "Adventuring Gear"
      }
    },
    "scriptCalls": [],
    "subType": "gear",
    "extraType": "",
    "uses": {
      "value": 0,
      "max": 0
    }
  },
  "ownership": {
    "default": 0
  },
  "_stats": {
    "systemId": "pf1",
    "systemVersion": "9.1",
    "coreVersion": "10.291",
    "createdTime": 1665428366859,
    "modifiedTime": 1689793674022,
    "lastModifiedBy": "ppv91YxratjWnkJi"
  },
  "effects": [],
  "folder": null,
  "sort": 0,
  "flags": {},
  "_key": "!items!SG8rBuQccyovN0uF"
}