{
  "_id": "tQgl42v4RLbTyTqo",
  "name": "Barbarian Chew",
  "type": "consumable",
  "img": "icons/commodities/flowers/buds-red.webp",
  "system": {
    "description": {
      "value": "<p><strong>Source</strong> <em>Varisia, Birthplace of Legends pg. 15</em>, <em>Curse of the Crimson Throne Player's Guide pg. 12</em>, <em>Rise of the Runelords Player's Guide pg. 11</em>, <em>Adventurer's Armory pg. 19</em><br/><strong>Price</strong> 25 gp; <strong>Weight</strong> 1 lb.<br/><strong>Category</strong> Alchemical Tools</p><h2 class=\"framing\"><img src=\"modules/pf-content/assets/PathfinderSocietySymbol.gif\" style=\"margin:3px 3px 0px 3px;\" title=\"PFS Legal\"/>Description</h2><p>The Shoanti of the Cinderlands combine lime, crimson galtroot leaves, and some say horse blood to create this invigorating chew. Aside from staining the teeth a bloody shade, barbarian chew causes the user to feel stronger, but also angrier. One use of barbarian chew grants a barbarian +1 additional round of rage. This additional round is used first when a barbarian begins raging. If a barbarian does not rage within 1 hour of using the chew, this additional round of rage is lost. This benefit can be gained only once per day; consuming multiple doses in a 24-hour period has no additional effects. Barbarian chew can be created with a successful DC 20 Craft (alchemy) check.</p><h2 class=\"framing\">Construction</h2><p><strong>Craft (Alchemy)</strong> DC 20</p>",
      "unidentified": ""
    },
    "tags": [],
    "quantity": 1,
    "weight": {
      "value": 1
    },
    "price": 25,
    "size": "med",
    "equipped": true,
    "resizing": false,
    "identified": true,
    "hp": {
      "max": 10,
      "value": 10
    },
    "broken": false,
    "hardness": 0,
    "carried": true,
    "unidentified": {
      "price": 0,
      "name": ""
    },
    "cl": 0,
    "aura": {
      "custom": false,
      "school": ""
    },
    "actions": [],
    "uses": {
      "per": null,
      "value": 0,
      "maxFormula": "",
      "pricePerUse": 0,
      "autoDeductChargesCost": "1"
    },
    "attackNotes": [],
    "effectNotes": [],
    "links": {
      "children": [],
      "charges": []
    },
    "tag": "barbarianChew",
    "useCustomTag": false,
    "flags": {
      "boolean": {},
      "dictionary": {
        "Category": "Alchemical Tools"
      }
    },
    "scriptCalls": [],
    "subType": "misc",
    "showInQuickbar": false
  },
  "ownership": {
    "default": 0
  },
  "_stats": {
    "systemId": "pf1",
    "systemVersion": "9.1",
    "coreVersion": "10.291",
    "createdTime": 1665428368096,
    "modifiedTime": 1689797920218,
    "lastModifiedBy": "ppv91YxratjWnkJi"
  },
  "effects": [],
  "folder": null,
  "sort": 0,
  "flags": {},
  "_key": "!items!tQgl42v4RLbTyTqo"
}