{
  "_id": "B5vPRT9U19xrHrRR",
  "name": "Beast-Scent",
  "type": "consumable",
  "img": "icons/tools/laboratory/mortar-powder-green.webp",
  "system": {
    "description": {
      "value": "<p><strong>Source</strong> <em>Adventurer's Armory 2 pg. 24</em>, <em>Seekers of Secrets pg. 42</em><br/><strong>Price</strong> 75 gp; <strong>Weight</strong> 1/2 lb.<br/><strong>Category</strong> Alchemical Tools</p><h2 class=\"framing\"><img src=\"modules/pf-content/assets/PathfinderSocietySymbol.gif\" style=\"margin:3px 3px 0px 3px;\" title=\"PFS Legal\"/>Description</h2><p>This mixture of scent-gland extracts and aromatic herbs serves as both attractor and olfactory camouflage. It masks the natural scent of a creature with a pungent musk that is alluring to animals. Beast-scent provides a +2 circumstance bonus on Handle Animal and wild empathy checks and a -5 penalty on attempts to track the wearer by his original scent. If the tracking creature is following the smell of beast-scent itself, Survival checks to track gain a +10 circumstance bonus instead.<br/><br/> A single vial of beast-scent masks the scent of one Medium creature or two smaller creatures; larger creatures require proportionally more to gain the benefits. Beast-scent becomes inert after 1 hour of exposure to air. Applying a vial is a full-round action that provokes attacks of opportunity.</p><h2 class=\"framing\">Construction</h2><p><strong>Craft (Alchemy)</strong> DC 25</p>",
      "unidentified": ""
    },
    "tags": [],
    "quantity": 1,
    "weight": {
      "value": 0.5
    },
    "price": 75,
    "size": "med",
    "equipped": true,
    "resizing": false,
    "identified": true,
    "hp": {
      "max": 10,
      "value": 10
    },
    "broken": false,
    "hardness": 0,
    "carried": true,
    "unidentified": {
      "price": 0,
      "name": ""
    },
    "cl": 0,
    "aura": {
      "custom": false,
      "school": ""
    },
    "actions": [],
    "uses": {
      "per": null,
      "value": 0,
      "maxFormula": "",
      "pricePerUse": 0,
      "autoDeductChargesCost": "1"
    },
    "attackNotes": [],
    "effectNotes": [],
    "links": {
      "children": [],
      "charges": []
    },
    "tag": "beastscent",
    "useCustomTag": false,
    "flags": {
      "boolean": {},
      "dictionary": {
        "Category": "Alchemical Tools"
      }
    },
    "scriptCalls": [],
    "subType": "misc",
    "showInQuickbar": false
  },
  "ownership": {
    "default": 0
  },
  "_stats": {
    "systemId": "pf1",
    "systemVersion": "9.1",
    "coreVersion": "10.291",
    "createdTime": 1665428366215,
    "modifiedTime": 1689797913638,
    "lastModifiedBy": "ppv91YxratjWnkJi"
  },
  "effects": [],
  "folder": null,
  "sort": 0,
  "flags": {},
  "_key": "!items!B5vPRT9U19xrHrRR"
}