{
  "_id": "WOiMOjQc8wwv0UOf",
  "name": "Bellows",
  "type": "loot",
  "img": "icons/tools/smithing/crucible.webp",
  "system": {
    "description": {
      "value": "<p><strong>Source</strong> <em>Ultimate Equipment pg. 77</em>, <em>Advanced Player's Guide pg. 184</em>, <em>Adventurer's Armory pg. 19</em><br/><strong>Price</strong> 1 gp; <strong>Weight</strong> 3 lbs.<br/><strong>Category</strong> Tools</p><h2 class=\"framing\"><img src=\"modules/pf-content/assets/PathfinderSocietySymbol.gif\" style=\"margin:3px 3px 0px 3px;\" title=\"PFS Legal\"/>Description</h2><p>Bellows are useful for starting fires, providing a +1 circumstance bonus on Survival checks to start or maintain fires.</p>",
      "unidentified": ""
    },
    "tags": [],
    "quantity": 1,
    "weight": {
      "value": 3
    },
    "price": 1,
    "size": "med",
    "equipped": false,
    "resizing": false,
    "identified": true,
    "hp": {
      "max": 10,
      "value": 10
    },
    "broken": false,
    "hardness": 0,
    "carried": true,
    "unidentified": {
      "price": 0,
      "name": ""
    },
    "cl": 0,
    "aura": {
      "custom": false,
      "school": ""
    },
    "changes": [],
    "changeFlags": {
      "loseDexToAC": false,
      "noEncumbrance": false,
      "mediumArmorFullSpeed": false,
      "heavyArmorFullSpeed": false
    },
    "contextNotes": [],
    "links": {
      "children": []
    },
    "tag": "bellows",
    "useCustomTag": false,
    "flags": {
      "boolean": {},
      "dictionary": {
        "Category": "Tools"
      }
    },
    "scriptCalls": [],
    "subType": "gear",
    "extraType": "",
    "uses": {
      "value": 0,
      "max": 0
    }
  },
  "ownership": {
    "default": 0
  },
  "_stats": {
    "systemId": "pf1",
    "systemVersion": "9.1",
    "coreVersion": "10.291",
    "createdTime": 1665428367143,
    "modifiedTime": 1689793674586,
    "lastModifiedBy": "ppv91YxratjWnkJi"
  },
  "effects": [],
  "folder": null,
  "sort": 0,
  "flags": {},
  "_key": "!items!WOiMOjQc8wwv0UOf"
}