{
  "_id": "gpe9GcpHBTxGpRTk",
  "name": "Bladeguard",
  "type": "consumable",
  "img": "systems/pf1/icons/items/potions/minor-blue.jpg",
  "system": {
    "description": {
      "value": "<p><strong>Source</strong> <em>Ultimate Equipment pg. 101</em>, <em>Advanced Player's Guide pg. 184</em>, <em>Adventurer's Armory pg. 19</em><br/><strong>Price</strong> 40 gp; <strong>Weight</strong> -<br/><strong>Category</strong> Alchemical Remedies</p><h2 class=\"framing\"><img src=\"modules/pf-content/assets/PathfinderSocietySymbol.gif\" style=\"margin:3px 3px 0px 3px;\" title=\"PFS Legal\"/>Description</h2><p>This clear resin protects a weapon from harmful attacks made by oozes and rust monsters, as well as from similar effects that corrode or melt weapons, rendering the weapon immune for 24 hours. One pot can coat one two-handed weapon, two one-handed or light weapons, or 50 ammunition items. Applying it takes 1 full round per pot. Immersing the weapon in water or similar liquid washes it off.</p><h2 class=\"framing\">Construction</h2><p><strong>Craft (Alchemy)</strong> DC 15</p>",
      "unidentified": ""
    },
    "tags": [],
    "quantity": 1,
    "weight": {
      "value": 0
    },
    "price": 40,
    "size": "med",
    "equipped": true,
    "resizing": false,
    "identified": true,
    "hp": {
      "max": 10,
      "value": 10
    },
    "broken": false,
    "hardness": 0,
    "carried": true,
    "unidentified": {
      "price": 0,
      "name": ""
    },
    "cl": 0,
    "aura": {
      "custom": false,
      "school": ""
    },
    "actions": [],
    "uses": {
      "per": null,
      "value": 0,
      "maxFormula": "",
      "pricePerUse": 0,
      "autoDeductChargesCost": "1"
    },
    "attackNotes": [],
    "effectNotes": [],
    "links": {
      "children": [],
      "charges": []
    },
    "tag": "bladeguard",
    "useCustomTag": false,
    "flags": {
      "boolean": {},
      "dictionary": {
        "Category": "Alchemical Remedies"
      }
    },
    "scriptCalls": [],
    "subType": "misc",
    "showInQuickbar": false
  },
  "ownership": {
    "default": 0
  },
  "_stats": {
    "systemId": "pf1",
    "systemVersion": "9.1",
    "coreVersion": "10.291",
    "createdTime": 1665428367595,
    "modifiedTime": 1689797918572,
    "lastModifiedBy": "ppv91YxratjWnkJi"
  },
  "effects": [],
  "folder": null,
  "sort": 0,
  "flags": {},
  "_key": "!items!gpe9GcpHBTxGpRTk"
}