{
  "_id": "YkvCLjP9iyva126O",
  "name": "Bloody Mandrake",
  "type": "consumable",
  "img": "icons/commodities/flowers/flower-grey-orange.webp",
  "system": {
    "description": {
      "value": "<p><strong>Source</strong> <em>Ultimate Wilderness pg. 153</em><br/><strong>Price</strong> 15 gp; <strong>Weight</strong> -<br/><strong>Category</strong> Herbs<br/><strong>Gather</strong> DC 20; <strong>Yield</strong> 1d4 doses<br/><strong>Terrain</strong> any plains or swamps<br/><strong>Preparation</strong> A bloody mandrake must be pulped so that its sticky red sap can be gathered, skimmed, and then refined into an even stickier paste; this process requires a successful DC 15 Craft (alchemy) check and 1d4 hours of work per yield.<br/><strong>Use</strong> One dose of bloody mandrake paste smeared on the lips (this is a free action) during spellcasting can be used as an additional material component when casting spells that remove afflictions and conditions or that provide a morale bonus. Doing so grants a +1 bonus to the spell's effective caster level.</p><h2 class=\"framing\"><img src=\"modules/pf-content/assets/PathfinderSocietySymbolN.gif\" style=\"margin:3px 3px 0px 3px;\" title=\"The herbalism subsystem is not legal for play; instead a PC with at least one rank in Craft (alchemy) and 1 rank in either Knowledge (nature) or Profession (herbalist) can purchase the herbs in this book at a 10% discount that does not stack with other discounts; if a PC's ranks in these skills are 5 or higher, the discount increases to 15%, and if a PC's ranks in these skills are 10 or higher, the discount increases to 20%\"/>Description</h2><p>Bloody mandrakes grow from the corpses of intelligent creatures who had supernatural powers in life. This plant's unsettlingly humanoid-shaped tuber-like roots increase fertility and vitality.</p>",
      "unidentified": ""
    },
    "tags": [],
    "quantity": 1,
    "weight": {
      "value": 0
    },
    "price": 15,
    "size": "med",
    "equipped": true,
    "resizing": false,
    "identified": true,
    "hp": {
      "max": 10,
      "value": 10
    },
    "broken": false,
    "hardness": 0,
    "carried": true,
    "unidentified": {
      "price": 0,
      "name": ""
    },
    "cl": 0,
    "aura": {
      "custom": false,
      "school": ""
    },
    "actions": [],
    "uses": {
      "per": null,
      "value": 0,
      "maxFormula": "",
      "pricePerUse": 0,
      "autoDeductChargesCost": "1"
    },
    "attackNotes": [],
    "effectNotes": [],
    "links": {
      "children": [],
      "charges": []
    },
    "tag": "bloodyMandrake",
    "useCustomTag": false,
    "flags": {
      "boolean": {},
      "dictionary": {
        "Category": "Herbs"
      }
    },
    "scriptCalls": [],
    "subType": "misc",
    "showInQuickbar": false
  },
  "ownership": {
    "default": 0
  },
  "_stats": {
    "systemId": "pf1",
    "systemVersion": "9.1",
    "coreVersion": "10.291",
    "createdTime": 1665428367220,
    "modifiedTime": 1689797917380,
    "lastModifiedBy": "ppv91YxratjWnkJi"
  },
  "effects": [],
  "folder": null,
  "sort": 0,
  "flags": {},
  "_key": "!items!YkvCLjP9iyva126O"
}