{
  "_id": "h7eUgbtLPrqXBthj",
  "name": "Bone Reed",
  "type": "consumable",
  "img": "icons/commodities/flowers/rosaecia-red.webp",
  "system": {
    "description": {
      "value": "<p><strong>Source</strong> <em>Ultimate Wilderness pg. 153</em><br/><strong>Price</strong> 75 gp; <strong>Weight</strong> -<br/><strong>Category</strong> Herbs<br/><strong>Gather</strong> DC 24; <strong>Yield</strong> 1 dose<br/><strong>Terrain</strong> any swamps<br/><strong>Preparation</strong> A bone reed must be pressed and dried. This process requires a successful DC 10 Craft (alchemy) check and takes 8 hours to complete.<br/><strong>Use</strong> A creature that sleeps for at least 8 hours in 1 day with a bone reed bound to one of its arms or legs heals double the normal ability damage and hit point damage (or triple with full bed rest). A bone reed loses its effectiveness after use. Binding a bone reed to a limb requires 1 minute of work.</p><h2 class=\"framing\"><img src=\"modules/pf-content/assets/PathfinderSocietySymbolN.gif\" style=\"margin:3px 3px 0px 3px;\" title=\"The herbalism subsystem is not legal for play; instead a PC with at least one rank in Craft (alchemy) and 1 rank in either Knowledge (nature) or Profession (herbalist) can purchase the herbs in this book at a 10% discount that does not stack with other discounts; if a PC's ranks in these skills are 5 or higher, the discount increases to 15%, and if a PC's ranks in these skills are 10 or higher, the discount increases to 20%\"/>Description</h2><p>This aquatic grass resembles translucent white horsetail.</p>",
      "unidentified": ""
    },
    "tags": [],
    "quantity": 1,
    "weight": {
      "value": 0
    },
    "price": 75,
    "size": "med",
    "equipped": true,
    "resizing": false,
    "identified": true,
    "hp": {
      "max": 10,
      "value": 10
    },
    "broken": false,
    "hardness": 0,
    "carried": true,
    "unidentified": {
      "price": 0,
      "name": ""
    },
    "cl": 0,
    "aura": {
      "custom": false,
      "school": ""
    },
    "actions": [],
    "uses": {
      "per": null,
      "value": 0,
      "maxFormula": "",
      "pricePerUse": 0,
      "autoDeductChargesCost": "1"
    },
    "attackNotes": [],
    "effectNotes": [],
    "links": {
      "children": [],
      "charges": []
    },
    "tag": "boneReed",
    "useCustomTag": false,
    "flags": {
      "boolean": {},
      "dictionary": {
        "Category": "Herbs"
      }
    },
    "scriptCalls": [],
    "subType": "misc",
    "showInQuickbar": false
  },
  "ownership": {
    "default": 0
  },
  "_stats": {
    "systemId": "pf1",
    "systemVersion": "9.1",
    "coreVersion": "10.291",
    "createdTime": 1665428367603,
    "modifiedTime": 1689797918633,
    "lastModifiedBy": "ppv91YxratjWnkJi"
  },
  "effects": [],
  "folder": null,
  "sort": 0,
  "flags": {},
  "_key": "!items!h7eUgbtLPrqXBthj"
}