{
  "_id": "bwcaBw0OPBcOJHUU",
  "name": "Bottled Musk",
  "type": "consumable",
  "img": "systems/pf1/icons/items/potions/unique-8.jpg",
  "system": {
    "description": {
      "value": "<p><strong>Source</strong> <em>Monster Hunter's Handbook pg. 26</em><br/><strong>Price</strong> 25 gp; <strong>Weight</strong> 1/2 lb.<br/><strong>Category</strong> Alchemical Tools</p><h2 class=\"framing\"><img src=\"modules/pf-content/assets/PathfinderSocietySymbolN.gif\" style=\"margin:3px 3px 0px 3px;\" title=\"A character cannot select from the humanoid type, subtypes, or varieties.\"/>Description</h2><p>This glass vial contains alchemically preserved musk from a single variety of creature. Sniffing bottled musk provides a +4 circumstance bonus on Survival checks to track creatures of the same variety by scent. Additionally, bottled musk can be used as an additional spell component for the following spells to modify the spell's effects. <br/><br/><em>Detect undead</em>: Functions as written, but detects creatures of the musk's associated creature type.<br/><br/> <em>Locate creature</em>: Detects the same variety of creature as the musk (for example, using bison musk detects only bison, not all herd animals or animals), and provides a +2 bonus on caster level checks to overcome <em>nondetection</em>.</p>",
      "unidentified": ""
    },
    "tags": [],
    "quantity": 1,
    "weight": {
      "value": 0.5
    },
    "price": 25,
    "size": "med",
    "equipped": true,
    "resizing": false,
    "identified": true,
    "hp": {
      "max": 10,
      "value": 10
    },
    "broken": false,
    "hardness": 0,
    "carried": true,
    "unidentified": {
      "price": 0,
      "name": ""
    },
    "cl": 0,
    "aura": {
      "custom": false,
      "school": ""
    },
    "actions": [],
    "uses": {
      "per": null,
      "value": 0,
      "maxFormula": "",
      "pricePerUse": 0,
      "autoDeductChargesCost": "1"
    },
    "attackNotes": [],
    "effectNotes": [],
    "links": {
      "children": [],
      "charges": []
    },
    "tag": "bottledMusk",
    "useCustomTag": false,
    "flags": {
      "boolean": {},
      "dictionary": {
        "Category": "Alchemical Tools"
      }
    },
    "scriptCalls": [],
    "subType": "misc",
    "showInQuickbar": false
  },
  "ownership": {
    "default": 0
  },
  "_stats": {
    "systemId": "pf1",
    "systemVersion": "9.1",
    "coreVersion": "10.291",
    "createdTime": 1665428367305,
    "modifiedTime": 1689797917740,
    "lastModifiedBy": "ppv91YxratjWnkJi"
  },
  "effects": [],
  "folder": null,
  "sort": 0,
  "flags": {},
  "_key": "!items!bwcaBw0OPBcOJHUU"
}