{
  "_id": "PE6Mjo0dnf7gEHfK",
  "name": "Bottled Sunlight",
  "type": "consumable",
  "img": "systems/pf1/icons/items/potions/magic-yellow.jpg",
  "system": {
    "description": {
      "value": "<p><strong>Source</strong> <em>Undead Slayer's Handbook pg. 13</em><br/><strong>Price</strong> 200 gp; <strong>Weight</strong> 2 lbs.<br/><strong>Category</strong> Alchemical Tools</p><h2 class=\"framing\"><img src=\"modules/pf-content/assets/PathfinderSocietySymbol.gif\" style=\"margin:3px 3px 0px 3px;\" title=\"PFS Legal\"/>Description</h2><p>As a standard action, this ornate rectangular jar can be vigorously shaken to cause its contents to mix and activate. Once shaken, the contents of the jar shed light as a sunrod for 6 hours. A jar of activated bottled sunlight can be thrown as a splash weapon with a range increment of 10 feet. Upon striking a solid object, the bottled sunlight creates a 30-foot-radius burst of natural sunlight that persists for 1 round, after which all light from the jar fades. Throwing an inactive jar of bottled sunlight destroys the item, leaving only a smoldering pile of ashes where it struck. Crafting this item requires a successful DC 30 Craft (alchemy) check.</p><h2 class=\"framing\">Construction</h2><p><strong>Craft (Alchemy)</strong> DC 30</p>",
      "unidentified": ""
    },
    "tags": [],
    "quantity": 1,
    "weight": {
      "value": 2
    },
    "price": 200,
    "size": "med",
    "equipped": true,
    "resizing": false,
    "identified": true,
    "hp": {
      "max": 10,
      "value": 10
    },
    "broken": false,
    "hardness": 0,
    "carried": true,
    "unidentified": {
      "price": 0,
      "name": ""
    },
    "cl": 0,
    "aura": {
      "custom": false,
      "school": ""
    },
    "actions": [],
    "uses": {
      "per": null,
      "value": 0,
      "maxFormula": "",
      "pricePerUse": 0,
      "autoDeductChargesCost": "1"
    },
    "attackNotes": [],
    "effectNotes": [],
    "links": {
      "children": [],
      "charges": []
    },
    "tag": "bottledSunlight",
    "useCustomTag": false,
    "flags": {
      "boolean": {},
      "dictionary": {
        "Category": "Alchemical Tools"
      }
    },
    "scriptCalls": [],
    "subType": "weapon",
    "showInQuickbar": false
  },
  "ownership": {
    "default": 0
  },
  "_stats": {
    "systemId": "pf1",
    "systemVersion": "9.1",
    "coreVersion": "10.291",
    "createdTime": 1665428366782,
    "modifiedTime": 1689797916163,
    "lastModifiedBy": "ppv91YxratjWnkJi"
  },
  "effects": [],
  "folder": null,
  "sort": 0,
  "flags": {},
  "_key": "!items!PE6Mjo0dnf7gEHfK"
}