{
  "_id": "UWCbjcqslAZaorG4",
  "name": "Branding iron (custom shape)",
  "type": "loot",
  "img": "icons/tools/smithing/crucible.webp",
  "system": {
    "description": {
      "value": "<p><strong>Source</strong> <em>Adventurer's Guide pg. 96</em>, <em>Path of the Hellknight pg. 63</em><br/><strong>Price</strong> 2 gp (common), 10 gp (custom shape); <strong>Weight</strong> 5 lbs. (common), 5 lbs. (custom shape)</p><h2 class=\"framing\">Description</h2><p>This length of bare metal is 2 to 4 feet long. One end serves as a handle, while the other forms a simple shape, such as a square or circle. Branding irons with ends that form complex symbols, such as the symbol of a Hellknight order, are much more expensive.<br/><br/> If the branding iron is heated in an open fire for 10 minutes or more, it becomes red hot. If it is pressed against wood, leather, skin, or another surface capable of being scorched, it deals 1 point of fire damage, leaving behind a burn mark that becomes a mundane scar of the branding iron's symbol. A willing or helpless creature can be marked with a hot branding iron. If employed as an improvised weapon in combat, a hot branding iron deals damage and leaves behind its symbol on any creature struck. If the wielder is trying to mark a particular spot on a target creature, she takes a -4 penalty on her attack roll (in addition to any penalties from using improvised weapons). Creatures immune or resistant to fire damage cannot be marked by a branding iron. A hot branding iron loses its heat quickly. It can mark only one creature within 5 minutes of being removed from a fire before it needs to be reheated.</p>",
      "unidentified": ""
    },
    "tags": [],
    "quantity": 1,
    "weight": {
      "value": 5
    },
    "price": 10,
    "size": "med",
    "equipped": false,
    "resizing": false,
    "identified": true,
    "hp": {
      "max": 10,
      "value": 10
    },
    "broken": false,
    "hardness": 0,
    "carried": true,
    "unidentified": {
      "price": 0,
      "name": ""
    },
    "cl": 0,
    "aura": {
      "custom": false,
      "school": ""
    },
    "changes": [],
    "changeFlags": {
      "loseDexToAC": false,
      "noEncumbrance": false,
      "mediumArmorFullSpeed": false,
      "heavyArmorFullSpeed": false
    },
    "contextNotes": [],
    "links": {
      "children": []
    },
    "tag": "brandingIronCustomShape",
    "useCustomTag": false,
    "flags": {
      "boolean": {},
      "dictionary": {
        "Category": "Torture Implements"
      }
    },
    "scriptCalls": [],
    "subType": "gear",
    "extraType": "",
    "uses": {
      "value": 0,
      "max": 0
    }
  },
  "ownership": {
    "default": 0
  },
  "_stats": {
    "systemId": "pf1",
    "systemVersion": "9.1",
    "coreVersion": "10.291",
    "createdTime": 1665428366928,
    "modifiedTime": 1689793674187,
    "lastModifiedBy": "ppv91YxratjWnkJi"
  },
  "effects": [],
  "folder": null,
  "sort": 0,
  "flags": {},
  "_key": "!items!UWCbjcqslAZaorG4"
}