{
  "_id": "mu63AoSwZD3dRgnB",
  "name": "Broadsheet",
  "type": "loot",
  "img": "icons/sundries/documents/document-official-capital.webp",
  "system": {
    "description": {
      "value": "<p><strong>Source</strong> <em>Inner Sea Intrigue pg. 50</em><br/><strong>Price</strong> 6 sp; <strong>Weight</strong> -<br/><strong>Category</strong> Adventuring Gear</p><h2 class=\"framing\"><img src=\"modules/pf-content/assets/PathfinderSocietySymbol.gif\" style=\"margin:3px 3px 0px 3px;\" title=\"PFS Legal\"/>Description</h2><p>Most broadsheets circulate the latest news in the city where they were printed. Most cities in technologically developed nations with printing presses have multiple wealthy or government-backed publishers that put out broadsheets. A broadsheet typically provides information as if the reader had attempted a Diplomacy check to gather information about the topic of the broadsheet (usually news of current politics, scandals, or business) and the result of the check were 10. Rather than 1d4 hours, gathering information in this way takes only as long as is required to read the broadsheet. Broadsheets printed with engraved-plate printing presses are at least a few weeks out of date, but those printed with movable-type presses can contain news from as recently as yesterday.</p>",
      "unidentified": ""
    },
    "tags": [],
    "quantity": 1,
    "weight": {
      "value": 0
    },
    "price": 0.6,
    "size": "med",
    "equipped": false,
    "resizing": false,
    "identified": true,
    "hp": {
      "max": 10,
      "value": 10
    },
    "broken": false,
    "hardness": 0,
    "carried": true,
    "unidentified": {
      "price": 0,
      "name": ""
    },
    "cl": 0,
    "aura": {
      "custom": false,
      "school": ""
    },
    "changes": [],
    "changeFlags": {
      "loseDexToAC": false,
      "noEncumbrance": false,
      "mediumArmorFullSpeed": false,
      "heavyArmorFullSpeed": false
    },
    "contextNotes": [],
    "links": {
      "children": []
    },
    "tag": "broadsheet",
    "useCustomTag": false,
    "flags": {
      "boolean": {},
      "dictionary": {
        "Category": "Adventuring Gear"
      }
    },
    "scriptCalls": [],
    "subType": "gear",
    "extraType": "",
    "uses": {
      "value": 0,
      "max": 0
    }
  },
  "ownership": {
    "default": 0
  },
  "_stats": {
    "systemId": "pf1",
    "systemVersion": "9.1",
    "coreVersion": "10.291",
    "createdTime": 1665428367756,
    "modifiedTime": 1689793676171,
    "lastModifiedBy": "ppv91YxratjWnkJi"
  },
  "effects": [],
  "folder": null,
  "sort": 0,
  "flags": {},
  "_key": "!items!mu63AoSwZD3dRgnB"
}