{
  "_id": "SjyF4fuesq59EkMO",
  "name": "Bunk",
  "type": "consumable",
  "img": "systems/pf1/icons/items/potions/unique-8.jpg",
  "system": {
    "description": {
      "value": "<p><strong>Source</strong> <em>Alchemy Manual pg. 19</em><br/><strong>Price</strong> 5 cp; <strong>Weight</strong> -<br/><strong>Category</strong> Alchemical Tools</p><h2 class=\"framing\"><img src=\"modules/pf-content/assets/PathfinderSocietySymbol.gif\" style=\"margin:3px 3px 0px 3px;\" title=\"PFS Legal\"/>Description</h2><p>Bunk is a slang term for fillers used to dilute drugs that are proffered as pure-grade narcotics. A drug mixed with bunk is less potent; its effects last 1d6 x 10 minutes for each hour they would normally last. The presence of bunk can be detected with a successful Craft (alchemy) check (DC equal to the drug manufacturer's Craft [alchemy] check - 10).<br/><br/> The duration and intensity of the drug's harmful aftereffects and ability damage are not reduced, as the additives in bunk are often toxic or dangerous in their own right. When a creature takes a dose of a drug containing bunk, the creature must attempt a Fortitude save (DC 10 + 1d10). Failure causes the creature to become sickened for 1d4 hours and take 1d2 points of ability damage to a random ability score.</p><h2 class=\"framing\">Alchemical Recipe</h2><p><strong>Recipe</strong> (1 salt + 1 urea)/filtration; <strong>Craft</strong> 15<br/><strong>Time</strong> 10 minutes; <strong>Tools</strong> filter; <strong>Type</strong> alchemical tool</p>",
      "unidentified": ""
    },
    "tags": [],
    "quantity": 1,
    "weight": {
      "value": 0
    },
    "price": 0.05,
    "size": "med",
    "equipped": true,
    "resizing": false,
    "identified": true,
    "hp": {
      "max": 10,
      "value": 10
    },
    "broken": false,
    "hardness": 0,
    "carried": true,
    "unidentified": {
      "price": 0,
      "name": ""
    },
    "cl": 0,
    "aura": {
      "custom": false,
      "school": ""
    },
    "actions": [],
    "uses": {
      "per": null,
      "value": 0,
      "maxFormula": "",
      "pricePerUse": 0,
      "autoDeductChargesCost": "1"
    },
    "attackNotes": [],
    "effectNotes": [],
    "links": {
      "children": [],
      "charges": []
    },
    "tag": "bunk",
    "useCustomTag": false,
    "flags": {
      "boolean": {},
      "dictionary": {
        "Category": "Alchemical Tools"
      }
    },
    "scriptCalls": [],
    "subType": "drug",
    "showInQuickbar": false
  },
  "ownership": {
    "default": 0
  },
  "_stats": {
    "systemId": "pf1",
    "systemVersion": "9.1",
    "coreVersion": "10.291",
    "createdTime": 1665428366876,
    "modifiedTime": 1689797916535,
    "lastModifiedBy": "ppv91YxratjWnkJi"
  },
  "effects": [],
  "folder": null,
  "sort": 0,
  "flags": {},
  "_key": "!items!SjyF4fuesq59EkMO"
}