{
  "_id": "CfOvJWlXazhibmRS",
  "name": "Buoy (superior)",
  "type": "loot",
  "img": "icons/commodities/materials/orb-tassle-blue-yellow.webp",
  "system": {
    "description": {
      "value": "<p><strong>Source</strong> <em>Ultimate Equipment pg. 56</em>, <em>Advanced Player's Guide pg. 181</em><br/><strong>Price</strong> <img src=\"modules/pf-content/assets/PathfinderSocietySymbol.gif\" style=\"margin:3px 3px 0px 3px;\" title=\"PFS Legal\"/> 5 sp (common), <img src=\"modules/pf-content/assets/PathfinderSocietySymbol.gif\" style=\"margin:3px 3px 0px 3px;\" title=\"PFS Legal\"/> 10 gp (superior); <strong>Weight</strong> 16 lbs. (common), 30 lbs. (superior)</p><h2 class=\"framing\">Description</h2><p>A buoy is used to mark a specific spot in a lake, river, or similar body of water, making it possible for you to return to that location at a later date. A common buoy includes a float (typically an air-filled bladder or sealed gourd), a 200-foot length of twine, and a 15-pound stone used as an anchor. The float is usually painted a vivid color, and may have a small flag to attract attention. Though anchor buoys prove quite resilient to normal weather and tides, they offer little challenge to intelligent creatures determined to sabotage them. A superior buoy has a spherical or ovoid hollow metal float (typically copper), a length of chain rather than twine, and a metal anchor rather than a weight.</p>",
      "unidentified": ""
    },
    "tags": [],
    "quantity": 1,
    "weight": {
      "value": 30
    },
    "price": 10,
    "size": "med",
    "equipped": false,
    "resizing": false,
    "identified": true,
    "hp": {
      "max": 10,
      "value": 10
    },
    "broken": false,
    "hardness": 0,
    "carried": true,
    "unidentified": {
      "price": 0,
      "name": ""
    },
    "cl": 0,
    "aura": {
      "custom": false,
      "school": ""
    },
    "changes": [],
    "changeFlags": {
      "loseDexToAC": false,
      "noEncumbrance": false,
      "mediumArmorFullSpeed": false,
      "heavyArmorFullSpeed": false
    },
    "contextNotes": [],
    "links": {
      "children": []
    },
    "tag": "buoySuperior",
    "useCustomTag": false,
    "flags": {
      "boolean": {},
      "dictionary": {
        "Category": "Adventuring Gear"
      }
    },
    "scriptCalls": [],
    "subType": "gear",
    "extraType": "",
    "uses": {
      "value": 0,
      "max": 0
    }
  },
  "ownership": {
    "default": 0
  },
  "_stats": {
    "systemId": "pf1",
    "systemVersion": "9.1",
    "coreVersion": "10.291",
    "createdTime": 1665428366260,
    "modifiedTime": 1689793672639,
    "lastModifiedBy": "ppv91YxratjWnkJi"
  },
  "effects": [],
  "folder": null,
  "sort": 0,
  "flags": {},
  "_key": "!items!CfOvJWlXazhibmRS"
}