{
  "_id": "YaOlH4LFpIwq3UFG",
  "name": "Burner",
  "type": "consumable",
  "img": "icons/tools/laboratory/burner-steel-grey.webp",
  "system": {
    "description": {
      "value": "<p><strong>Source</strong> <em>People of the Sands pg. 28</em><br/><strong>Price</strong> 3 gp; <strong>Weight</strong> 1 lb.<br/><strong>Category</strong> Alchemical Tools</p><h2 class=\"framing\"><img src=\"modules/pf-content/assets/PathfinderSocietySymbol.gif\" style=\"margin:3px 3px 0px 3px;\" title=\"PFS Legal\"/>Description</h2><p>A burner is a metal or ceramic cylinder, open at the top and perforated with air holes along the sides, often with sliding vents to open or close these apertures as the fire inside requires. A burner is used to burn fuel pellets at night without giving off light that would reveal the user's position to unfriendly eyes in the wide, empty desert lands. In places where charcoal is a popular fuel, burners are made of heavier-gauge metal. Lit coals can be banked with ashes and kept hot, either for later ignition or simply so the burner can serve as an improvised radiant heater.</p>",
      "unidentified": ""
    },
    "tags": [],
    "quantity": 1,
    "weight": {
      "value": 1
    },
    "price": 3,
    "size": "med",
    "equipped": true,
    "resizing": false,
    "identified": true,
    "hp": {
      "max": 10,
      "value": 10
    },
    "broken": false,
    "hardness": 0,
    "carried": true,
    "unidentified": {
      "price": 0,
      "name": ""
    },
    "cl": 0,
    "aura": {
      "custom": false,
      "school": ""
    },
    "actions": [],
    "uses": {
      "per": null,
      "value": 0,
      "maxFormula": "",
      "pricePerUse": 0,
      "autoDeductChargesCost": "1"
    },
    "attackNotes": [],
    "effectNotes": [],
    "links": {
      "children": [],
      "charges": []
    },
    "tag": "burner",
    "useCustomTag": false,
    "flags": {
      "boolean": {},
      "dictionary": {
        "Category": "Alchemical Tools"
      }
    },
    "scriptCalls": [],
    "subType": "misc",
    "showInQuickbar": false
  },
  "ownership": {
    "default": 0
  },
  "_stats": {
    "systemId": "pf1",
    "systemVersion": "9.1",
    "coreVersion": "10.291",
    "createdTime": 1665428367210,
    "modifiedTime": 1689797917351,
    "lastModifiedBy": "ppv91YxratjWnkJi"
  },
  "effects": [],
  "folder": null,
  "sort": 0,
  "flags": {},
  "_key": "!items!YaOlH4LFpIwq3UFG"
}