{
  "_id": "EiaN2ibFbT1S3SsM",
  "name": "Chair, Folding",
  "type": "loot",
  "img": "icons/commodities/wood/furniture-stool-brown.webp",
  "system": {
    "description": {
      "value": "<p><strong>Source</strong> <em>Ultimate Equipment pg. 56</em>, <em>Adventurer's Armory pg. 19</em><br/><strong>Price</strong> 2 gp; <strong>Weight</strong> 10 lbs.<br/><strong>Category</strong> Adventuring Gear</p><h2 class=\"framing\"><img src=\"modules/pf-content/assets/PathfinderSocietySymbol.gif\" style=\"margin:3px 3px 0px 3px;\" title=\"PFS Legal\"/>Description</h2><p>This simple folding chair has a wooden frame and canvas seat and back, making it easy to transport and set up wherever you wish. It folds up easily and fits in a handy carrying bag. The chair can support up to 250 pounds with ease.</p>",
      "unidentified": ""
    },
    "tags": [],
    "quantity": 1,
    "weight": {
      "value": 10
    },
    "price": 2,
    "size": "med",
    "equipped": false,
    "resizing": false,
    "identified": true,
    "hp": {
      "max": 10,
      "value": 10
    },
    "broken": false,
    "hardness": 0,
    "carried": true,
    "unidentified": {
      "price": 0,
      "name": ""
    },
    "cl": 0,
    "aura": {
      "custom": false,
      "school": ""
    },
    "changes": [],
    "changeFlags": {
      "loseDexToAC": false,
      "noEncumbrance": false,
      "mediumArmorFullSpeed": false,
      "heavyArmorFullSpeed": false
    },
    "contextNotes": [],
    "links": {
      "children": []
    },
    "tag": "chairFolding",
    "useCustomTag": false,
    "flags": {
      "boolean": {},
      "dictionary": {
        "Category": "Adventuring Gear"
      }
    },
    "scriptCalls": [],
    "subType": "gear",
    "extraType": "",
    "uses": {
      "value": 0,
      "max": 0
    }
  },
  "ownership": {
    "default": 0
  },
  "_stats": {
    "systemId": "pf1",
    "systemVersion": "9.1",
    "coreVersion": "10.291",
    "createdTime": 1665428366308,
    "modifiedTime": 1689793672775,
    "lastModifiedBy": "ppv91YxratjWnkJi"
  },
  "effects": [],
  "folder": null,
  "sort": 0,
  "flags": {},
  "_key": "!items!EiaN2ibFbT1S3SsM"
}