{
  "_id": "uq0f28mplO8QcYv4",
  "name": "Cipher rings",
  "type": "loot",
  "img": "systems/pf1/icons/items/inventory/carving-knot.jpg",
  "system": {
    "description": {
      "value": "<p><strong>Source</strong> <em>Advanced Class Guide pg. 203</em><br/><strong>Price</strong> 10 gp; <strong>Weight</strong> -<br/><strong>Category</strong> Adventuring Gear</p><h2 class=\"framing\"><img src=\"modules/pf-content/assets/PathfinderSocietySymbol.gif\" style=\"margin:3px 3px 0px 3px;\" title=\"PFS Legal\"/>Description</h2><p>This set of bulky wooden rings is the key to a substitution code set at the rings' creation. A base set comes with two identical rings. Additional rings can be made for 4 gp apiece. Using the cipher rings' code enables you to create or decode a written message (no check required). Deciphering the message without the correct ring requires a DC 25 Linguistics check.</p>",
      "unidentified": ""
    },
    "tags": [],
    "quantity": 1,
    "weight": {
      "value": 0
    },
    "price": 10,
    "size": "med",
    "equipped": false,
    "resizing": false,
    "identified": true,
    "hp": {
      "max": 10,
      "value": 10
    },
    "broken": false,
    "hardness": 0,
    "carried": true,
    "unidentified": {
      "price": 0,
      "name": ""
    },
    "cl": 0,
    "aura": {
      "custom": false,
      "school": ""
    },
    "changes": [],
    "changeFlags": {
      "loseDexToAC": false,
      "noEncumbrance": false,
      "mediumArmorFullSpeed": false,
      "heavyArmorFullSpeed": false
    },
    "contextNotes": [],
    "links": {
      "children": []
    },
    "tag": "cipherRings",
    "useCustomTag": false,
    "flags": {
      "boolean": {},
      "dictionary": {
        "Category": "Adventuring Gear"
      }
    },
    "scriptCalls": [],
    "subType": "gear",
    "extraType": "",
    "uses": {
      "value": 0,
      "max": 0
    }
  },
  "ownership": {
    "default": 0
  },
  "_stats": {
    "systemId": "pf1",
    "systemVersion": "9.1",
    "coreVersion": "10.291",
    "createdTime": 1665428368137,
    "modifiedTime": 1689793677015,
    "lastModifiedBy": "ppv91YxratjWnkJi"
  },
  "effects": [],
  "folder": null,
  "sort": 0,
  "flags": {},
  "_key": "!items!uq0f28mplO8QcYv4"
}