{
  "_id": "GPK8ALMNbcYCZNwZ",
  "name": "Concealable thieves' tools",
  "type": "loot",
  "img": "systems/pf1/icons/items/inventory/lockpick.jpg",
  "system": {
    "description": {
      "value": "<p><strong>Source</strong> <em>Ultimate Intrigue pg. 233</em><br/><strong>Price</strong> 190 gp; <strong>Weight</strong> 1/2 lb.<br/><strong>Category</strong> Adventuring Gear</p><h2 class=\"framing\"><img src=\"modules/pf-content/assets/PathfinderSocietySymbol.gif\" style=\"margin:3px 3px 0px 3px;\" title=\"PFS Legal\"/>Description</h2><p>Smaller and made of stronger materials than most thieves' tools, the items in this kit are much easier to conceal. You gain a +4 bonus on Sleight of Hand skill checks to conceal these tools on your body. They otherwise function as masterwork thieves tools (granting a +2 circumstance bonus on Disable Device checks).</p>",
      "unidentified": ""
    },
    "tags": [],
    "quantity": 1,
    "weight": {
      "value": 0.5
    },
    "price": 190,
    "size": "med",
    "equipped": false,
    "resizing": false,
    "identified": true,
    "hp": {
      "max": 10,
      "value": 10
    },
    "broken": false,
    "hardness": 0,
    "carried": true,
    "unidentified": {
      "price": 0,
      "name": ""
    },
    "cl": 0,
    "aura": {
      "custom": false,
      "school": ""
    },
    "changes": [],
    "changeFlags": {
      "loseDexToAC": false,
      "noEncumbrance": false,
      "mediumArmorFullSpeed": false,
      "heavyArmorFullSpeed": false
    },
    "contextNotes": [],
    "links": {
      "children": []
    },
    "tag": "concealableThievesTools",
    "useCustomTag": false,
    "flags": {
      "boolean": {},
      "dictionary": {
        "Category": "Adventuring Gear"
      }
    },
    "scriptCalls": [],
    "subType": "gear",
    "extraType": "",
    "uses": {
      "value": 0,
      "max": 0
    }
  },
  "ownership": {
    "default": 0
  },
  "_stats": {
    "systemId": "pf1",
    "systemVersion": "9.1",
    "coreVersion": "10.291",
    "createdTime": 1665428366360,
    "modifiedTime": 1689793672894,
    "lastModifiedBy": "ppv91YxratjWnkJi"
  },
  "effects": [],
  "folder": null,
  "sort": 0,
  "flags": {},
  "_key": "!items!GPK8ALMNbcYCZNwZ"
}