{
  "_id": "UUVzzQ9CZjqK30jm",
  "name": "Coral Boulder",
  "type": "consumable",
  "img": "icons/commodities/stone/ore-chunk-orange-red.webp",
  "system": {
    "description": {
      "value": "<p><strong>Source</strong> <em>Dungeoneer's Handbook pg. 26</em><br/><strong>Price</strong> 50 gp; <strong>Weight</strong> -<br/><strong>Category</strong> Alchemical Tools</p><h2 class=\"framing\"><img src=\"modules/pf-content/assets/PathfinderSocietySymbol.gif\" style=\"margin:3px 3px 0px 3px;\" title=\"PFS Legal\"/>Description</h2><p>This sponge-sized brick is actually a desiccated chunk of living coral. When exposed to at least 1 gallon of water, it expands into a full-sized boulder within 1 minute. A fully expanded coral boulder is an irregular sphere 3 feet in diameter. An expanded boulder has a hardness of 7, has 55 hit points, and weighs 8 pounds. The water in a coral boulder slowly evaporates if it's left in a dry environment, and the boulder shrinks back to its original size in about a week. If dropped in water, a coral boulder sinks straight down, and is not moved by tides or flowing water.</p><h2 class=\"framing\">Construction</h2><p><strong>Craft (Alchemy)</strong> DC 20</p>",
      "unidentified": ""
    },
    "tags": [],
    "quantity": 1,
    "weight": {
      "value": 0
    },
    "price": 50,
    "size": "med",
    "equipped": true,
    "resizing": false,
    "identified": true,
    "hp": {
      "max": 10,
      "value": 10
    },
    "broken": false,
    "hardness": 0,
    "carried": true,
    "unidentified": {
      "price": 0,
      "name": ""
    },
    "cl": 0,
    "aura": {
      "custom": false,
      "school": ""
    },
    "actions": [],
    "uses": {
      "per": null,
      "value": 0,
      "maxFormula": "",
      "pricePerUse": 0,
      "autoDeductChargesCost": "1"
    },
    "attackNotes": [],
    "effectNotes": [],
    "links": {
      "children": [],
      "charges": []
    },
    "tag": "coralBoulder",
    "useCustomTag": false,
    "flags": {
      "boolean": {},
      "dictionary": {
        "Category": "Alchemical Tools"
      }
    },
    "scriptCalls": [],
    "subType": "misc",
    "showInQuickbar": false
  },
  "ownership": {
    "default": 0
  },
  "_stats": {
    "systemId": "pf1",
    "systemVersion": "9.1",
    "coreVersion": "10.291",
    "createdTime": 1665428366925,
    "modifiedTime": 1689797916768,
    "lastModifiedBy": "ppv91YxratjWnkJi"
  },
  "effects": [],
  "folder": null,
  "sort": 0,
  "flags": {},
  "_key": "!items!UUVzzQ9CZjqK30jm"
}