{
  "_id": "wNo8FcTTx9yyQGZa",
  "name": "Crystal-Sweet Concoction",
  "type": "consumable",
  "img": "systems/pf1/icons/items/potions/magic-yellow.jpg",
  "system": {
    "description": {
      "value": "<p><strong>Source</strong> <em>Adventurer's Armory 2 pg. 25</em><br/><strong>Price</strong> 50 gp; <strong>Weight</strong> -<br/><strong>Category</strong> Concoctions</p><h2 class=\"framing\"><img src=\"modules/pf-content/assets/PathfinderSocietySymbol.gif\" style=\"margin:3px 3px 0px 3px;\" title=\"PFS Legal\"/>Description</h2><p>This sugary blue drink, often cut with mint to reduce the cloying sweetness, brightens your demeanor and sweetens your voice, granting a +2 alchemical bonus on Diplomacy checks. It renders you naive and perilously trusting, however, imparting a -4 penalty on your Sense Motive checks.</p>",
      "unidentified": ""
    },
    "tags": [],
    "quantity": 1,
    "weight": {
      "value": 0
    },
    "price": 50,
    "size": "med",
    "equipped": true,
    "resizing": false,
    "identified": true,
    "hp": {
      "max": 10,
      "value": 10
    },
    "broken": false,
    "hardness": 0,
    "carried": true,
    "unidentified": {
      "price": 0,
      "name": ""
    },
    "cl": 0,
    "aura": {
      "custom": false,
      "school": ""
    },
    "actions": [],
    "uses": {
      "per": null,
      "value": 0,
      "maxFormula": "",
      "pricePerUse": 0,
      "autoDeductChargesCost": "1"
    },
    "attackNotes": [],
    "effectNotes": [],
    "links": {
      "children": [],
      "charges": []
    },
    "tag": "crystalsweetConcoction",
    "useCustomTag": false,
    "flags": {
      "boolean": {},
      "dictionary": {
        "Category": "Concoctions"
      }
    },
    "scriptCalls": [],
    "subType": "potion",
    "showInQuickbar": false
  },
  "ownership": {
    "default": 0
  },
  "_stats": {
    "systemId": "pf1",
    "systemVersion": "9.1",
    "coreVersion": "10.291",
    "createdTime": 1665428368180,
    "modifiedTime": 1689797920534,
    "lastModifiedBy": "ppv91YxratjWnkJi"
  },
  "effects": [],
  "folder": null,
  "sort": 0,
  "flags": {},
  "_key": "!items!wNo8FcTTx9yyQGZa"
}