{
  "_id": "etzP4D6JEXJICNHh",
  "name": "Cypher books",
  "type": "loot",
  "img": "systems/pf1/icons/items/inventory/book-purple.jpg",
  "system": {
    "description": {
      "value": "<p><strong>Source</strong> <em>Ultimate Equipment pg. 56</em><br/><strong>Price</strong> 150 gp; <strong>Weight</strong> 2 lbs.<br/><strong>Category</strong> Adventuring Gear</p><h2 class=\"framing\"><img src=\"modules/pf-content/assets/PathfinderSocietySymbol.gif\" style=\"margin:3px 3px 0px 3px;\" title=\"PFS Legal\"/>Description</h2><p>These books, always sold in identical pairs, contain numbered grids on each page which simply and easily catalog random lists of words. This allows a user to write messages which substitute letters and numbers that reference the page, row, and column of a particular word found within the cypher book. A creature without access to the appropriate cypher book takes a -10 penalty on Linguistic checks made to decipher each page of a coded message. Writing a message using the cipher takes 10 times as long as writing an uncoded message, and decoding it with the cipher book takes as much time as writing the original coded message.</p>",
      "unidentified": ""
    },
    "tags": [],
    "quantity": 1,
    "weight": {
      "value": 2
    },
    "price": 150,
    "size": "med",
    "equipped": false,
    "resizing": false,
    "identified": true,
    "hp": {
      "max": 10,
      "value": 10
    },
    "broken": false,
    "hardness": 0,
    "carried": true,
    "unidentified": {
      "price": 0,
      "name": ""
    },
    "cl": 0,
    "aura": {
      "custom": false,
      "school": ""
    },
    "changes": [],
    "changeFlags": {
      "loseDexToAC": false,
      "noEncumbrance": false,
      "mediumArmorFullSpeed": false,
      "heavyArmorFullSpeed": false
    },
    "contextNotes": [],
    "links": {
      "children": []
    },
    "tag": "cypherBooks",
    "useCustomTag": false,
    "flags": {
      "boolean": {},
      "dictionary": {
        "Category": "Adventuring Gear"
      }
    },
    "scriptCalls": [],
    "subType": "gear",
    "extraType": "",
    "uses": {
      "value": 0,
      "max": 0
    }
  },
  "ownership": {
    "default": 0
  },
  "_stats": {
    "systemId": "pf1",
    "systemVersion": "9.1",
    "coreVersion": "10.291",
    "createdTime": 1665428367374,
    "modifiedTime": 1689793675194,
    "lastModifiedBy": "ppv91YxratjWnkJi"
  },
  "effects": [],
  "folder": null,
  "sort": 0,
  "flags": {},
  "_key": "!items!etzP4D6JEXJICNHh"
}