{
  "_id": "2y7upRtKpmhNE2Vf",
  "name": "Cytillesh extract",
  "type": "consumable",
  "img": "systems/pf1/icons/items/potions/unique-9.jpg",
  "system": {
    "description": {
      "value": "<h3>Cytillesh extract</h3><p><strong>Source</strong> <em>Alchemy Manual pg. 11</em>, <em>Classic Horrors Revisited pg. 8</em>, <em>Pathfinder #61: Shards of Sin pg. 64</em>, <em>No Response from Deepmar pg. 21</em></p><p><strong>Price</strong> 800 gp; <strong>Weight</strong> 0</p><p><strong>Type</strong> ingested; <strong>Save</strong> Fortitude DC 18</p><p><strong>Frequency</strong> 1/hour for 8 hours</p><p><strong>Effect</strong> The victim loses all memory of events that took place in the previous hour and can’t form new memories for 8 hours. These lost and prevented memories might return later in the form of dreams, and can be returned with a <em>restoration </em>or <em>heal </em>spell</p><p><strong>Cure</strong> 2 saves</p><h3 class=\"framing\">Alchemical Recipe<h3><p><strong>Recipe</strong> (115 realgar + 115 cytillesh spores)/calcination; <strong>Craft</strong> DC 18</p><p><strong>Time</strong> 1 hour; <strong>Tools</strong> crucible; <strong>Type</strong> poison</p>",
      "unidentified": ""
    },
    "tags": [],
    "quantity": 1,
    "weight": {
      "value": 0
    },
    "price": 800,
    "size": "med",
    "equipped": true,
    "resizing": false,
    "identified": true,
    "hp": {
      "max": 10,
      "value": 10
    },
    "broken": false,
    "hardness": 0,
    "carried": true,
    "unidentified": {
      "price": 0,
      "name": ""
    },
    "cl": 0,
    "aura": {
      "custom": false,
      "school": ""
    },
    "actions": [
      {
        "_id": "jkd1dijee2cl64pt",
        "name": "Use",
        "img": "systems/pf1/icons/items/potions/unique-9.jpg",
        "description": "",
        "tag": "cytilleshExtract",
        "activation": {
          "cost": 1,
          "type": "standard",
          "unchained": {
            "cost": 2,
            "type": "action"
          }
        },
        "duration": {
          "value": null,
          "units": ""
        },
        "target": {
          "value": ""
        },
        "range": {
          "units": "",
          "maxIncrements": 1,
          "minValue": null,
          "minUnits": ""
        },
        "uses": {
          "autoDeductChargesCost": "",
          "self": {
            "value": 0,
            "maxFormula": "",
            "per": null
          },
          "per": "single",
          "value": 0,
          "maxFormula": "",
          "pricePerUse": 0,
          "max": 0
        },
        "measureTemplate": {
          "type": "",
          "size": "",
          "overrideColor": false,
          "customColor": "",
          "overrideTexture": false,
          "customTexture": ""
        },
        "attackName": "",
        "actionType": "save",
        "attackBonus": "",
        "critConfirmBonus": "",
        "damage": {
          "parts": [],
          "critParts": [],
          "nonCritParts": []
        },
        "attackParts": [],
        "formulaicAttacks": {
          "count": {
            "formula": ""
          },
          "bonus": {
            "formula": ""
          },
          "label": null
        },
        "formula": "",
        "ability": {
          "attack": null,
          "damage": "",
          "damageMult": 1,
          "critRange": 20,
          "critMult": 2
        },
        "save": {
          "dc": "18",
          "type": "fort",
          "description": ""
        },
        "effectNotes": [
          "<b>Primary Effect:</b>  The victim loses all memory of events that took place in the previous hour and can’t form new memories for [[8]] hours. These lost and prevented memories might return later in the form of dreams, and can be returned with a restoration or heal spell"
        ],
        "attackNotes": [],
        "soundEffect": "",
        "powerAttack": {
          "multiplier": "",
          "damageBonus": 2,
          "critMultiplier": 1
        },
        "naturalAttack": {
          "primaryAttack": true,
          "secondary": {
            "attackBonus": "-5",
            "damageMult": 0.5
          }
        },
        "nonlethal": false,
        "touch": false,
        "usesAmmo": false,
        "spellEffect": "",
        "spellArea": "",
        "conditionals": [],
        "enh": {
          "value": null
        }
      }
    ],
    "uses": {
      "per": "single",
      "value": 0,
      "maxFormula": "",
      "pricePerUse": 0,
      "autoDeductChargesCost": "1",
      "max": 0
    },
    "attackNotes": [],
    "effectNotes": [],
    "links": {
      "children": [],
      "charges": []
    },
    "tag": "cytilleshExtract",
    "useCustomTag": false,
    "flags": {
      "boolean": {},
      "dictionary": {}
    },
    "scriptCalls": [],
    "subType": "poison",
    "showInQuickbar": false
  },
  "ownership": {
    "default": 0
  },
  "_stats": {
    "systemId": "pf1",
    "systemVersion": "9.1",
    "coreVersion": "10.291",
    "createdTime": 1665428365761,
    "modifiedTime": 1689797912014,
    "lastModifiedBy": "ppv91YxratjWnkJi"
  },
  "effects": [],
  "folder": null,
  "sort": 0,
  "flags": {},
  "_key": "!items!2y7upRtKpmhNE2Vf"
}