{
  "_id": "CJiwVGYOnLCcdfu1",
  "name": "Desna's Star",
  "type": "consumable",
  "img": "icons/commodities/flowers/daisy-white.webp",
  "system": {
    "description": {
      "value": "<p><strong>Source</strong> <em>Heroes of the Wild pg. 10</em><br/><strong>Price</strong> 5 gp; <strong>Weight</strong> -<br/><strong>Category</strong> Herbs<br/><strong>Gather</strong> DC 13<br/><strong>Terrain</strong> forests or plains</p><h2 class=\"framing\">Description</h2><p>Clerics of Desna claim that the Great Dreamer planted the first seed of this flower with her own hand. When the orange petals are cured and left to steep in hot water, the leaves of Desna's star make a mild, aromatic tea that facilitates restful sleep. When taken before sleeping, this tea grants the drinker the benefits of a full 8 hours of uninterrupted sleep in only 6 hours. One dose of Desna's star makes enough tea to serve six.</p>",
      "unidentified": ""
    },
    "tags": [],
    "quantity": 1,
    "weight": {
      "value": 0
    },
    "price": 5,
    "size": "med",
    "equipped": true,
    "resizing": false,
    "identified": true,
    "hp": {
      "max": 10,
      "value": 10
    },
    "broken": false,
    "hardness": 0,
    "carried": true,
    "unidentified": {
      "price": 0,
      "name": ""
    },
    "cl": 0,
    "aura": {
      "custom": false,
      "school": ""
    },
    "actions": [],
    "uses": {
      "per": null,
      "value": 0,
      "maxFormula": "",
      "pricePerUse": 0,
      "autoDeductChargesCost": "1"
    },
    "attackNotes": [],
    "effectNotes": [],
    "links": {
      "children": [],
      "charges": []
    },
    "tag": "desnasStar",
    "useCustomTag": false,
    "flags": {
      "boolean": {},
      "dictionary": {
        "Category": "Herbs"
      }
    },
    "scriptCalls": [],
    "subType": "misc",
    "showInQuickbar": false
  },
  "ownership": {
    "default": 0
  },
  "_stats": {
    "systemId": "pf1",
    "systemVersion": "9.1",
    "coreVersion": "10.291",
    "createdTime": 1665428366250,
    "modifiedTime": 1689797913865,
    "lastModifiedBy": "ppv91YxratjWnkJi"
  },
  "effects": [],
  "folder": null,
  "sort": 0,
  "flags": {},
  "_key": "!items!CJiwVGYOnLCcdfu1"
}