{
  "_id": "ENADYcVp8S8bT4Ac",
  "name": "Display stand",
  "type": "loot",
  "img": "systems/pf1/icons/items/inventory/stakes.jpg",
  "system": {
    "description": {
      "value": "<p><strong>Source</strong> <em>Monster Hunter's Handbook pg. 26</em><br/><strong>Price</strong> 40 gp; <strong>Weight</strong> 16 lbs.<br/><strong>Category</strong> Adventuring Gear</p><h2 class=\"framing\">Description</h2><p>This is a freestanding rack with several hooks for holding decoratively arranged hunting trophies. A creature with the Grisly Ornament feat (see page 24) can hang one ornament from a display stand, causing it to emanate a fear effect that affects all creatures of that creature's specific variety within 30 feet (DC 15 Will negates). This imposes a -1 penalty (-2 if the trophy creature's CR was 8 or higher) to the same statistic the ornament would otherwise enhance, but the ornament lasts for only 24 hours before decaying. Setting up a stand is a full-round action, while hanging an ornament from one is a move action.</p>",
      "unidentified": ""
    },
    "tags": [],
    "quantity": 1,
    "weight": {
      "value": 16
    },
    "price": 40,
    "size": "med",
    "equipped": false,
    "resizing": false,
    "identified": true,
    "hp": {
      "max": 10,
      "value": 10
    },
    "broken": false,
    "hardness": 0,
    "carried": true,
    "unidentified": {
      "price": 0,
      "name": ""
    },
    "cl": 0,
    "aura": {
      "custom": false,
      "school": ""
    },
    "changes": [],
    "changeFlags": {
      "loseDexToAC": false,
      "noEncumbrance": false,
      "mediumArmorFullSpeed": false,
      "heavyArmorFullSpeed": false
    },
    "contextNotes": [],
    "links": {
      "children": []
    },
    "tag": "displayStand",
    "useCustomTag": false,
    "flags": {
      "boolean": {},
      "dictionary": {
        "Category": "Adventuring Gear"
      }
    },
    "scriptCalls": [],
    "subType": "gear",
    "extraType": "",
    "uses": {
      "value": 0,
      "max": 0
    }
  },
  "ownership": {
    "default": 0
  },
  "_stats": {
    "systemId": "pf1",
    "systemVersion": "9.1",
    "coreVersion": "10.291",
    "createdTime": 1665428366299,
    "modifiedTime": 1689793672754,
    "lastModifiedBy": "ppv91YxratjWnkJi"
  },
  "effects": [],
  "folder": null,
  "sort": 0,
  "flags": {},
  "_key": "!items!ENADYcVp8S8bT4Ac"
}