{
  "_id": "zEh2sMivo4s91iol",
  "name": "False Ectoplasm",
  "type": "consumable",
  "img": "icons/commodities/materials/bowl-powder-blue.webp",
  "system": {
    "description": {
      "value": "<p><strong>Source</strong> <em>Haunted Heroes Handbook pg. 11</em><br/><strong>Price</strong> 2 gp; <strong>Weight</strong> 2 lbs.<br/><strong>Category</strong> Black Market</p><h2 class=\"framing\"><img src=\"modules/pf-content/assets/PathfinderSocietySymbol.gif\" style=\"margin:3px 3px 0px 3px;\" title=\"PFS Legal\"/>Description</h2><p>Once exposed to air, this greenish alchemical sludge quickly takes on a faint glow. This glow provides dim illumination in the area immediately surrounding the fist-sized lump of false ectoplasm. This glow-in-the-dark effect lasts for 1 hour before the substance begins to decompose into a brownish goo. A successful DC 20 Sleight of Hand check allows a user to open a vial of false ectoplasm and deposit it on an adjacent surface as a move action; a successful opposed Perception check is enough to notice this trickery.</p>",
      "unidentified": ""
    },
    "tags": [],
    "quantity": 1,
    "weight": {
      "value": 2
    },
    "price": 2,
    "size": "med",
    "equipped": true,
    "resizing": false,
    "identified": true,
    "hp": {
      "max": 10,
      "value": 10
    },
    "broken": false,
    "hardness": 0,
    "carried": true,
    "unidentified": {
      "price": 0,
      "name": ""
    },
    "cl": 0,
    "aura": {
      "custom": false,
      "school": ""
    },
    "actions": [],
    "uses": {
      "per": null,
      "value": 0,
      "maxFormula": "",
      "pricePerUse": 0,
      "autoDeductChargesCost": "1"
    },
    "attackNotes": [],
    "effectNotes": [],
    "links": {
      "children": [],
      "charges": []
    },
    "tag": "falseEctoplasm",
    "useCustomTag": false,
    "flags": {
      "boolean": {},
      "dictionary": {
        "Category": "Black Market"
      }
    },
    "scriptCalls": [],
    "subType": "misc",
    "showInQuickbar": false
  },
  "ownership": {
    "default": 0
  },
  "_stats": {
    "systemId": "pf1",
    "systemVersion": "9.1",
    "coreVersion": "10.291",
    "createdTime": 1665428368247,
    "modifiedTime": 1689797920831,
    "lastModifiedBy": "ppv91YxratjWnkJi"
  },
  "effects": [],
  "folder": null,
  "sort": 0,
  "flags": {},
  "_key": "!items!zEh2sMivo4s91iol"
}