{
  "_id": "mglz2TdcW78BX1YK",
  "name": "Fangfile",
  "type": "loot",
  "img": "icons/tools/hand/chisel-steel-brown.webp",
  "system": {
    "description": {
      "value": "<p><strong>Source</strong> <em>Goblins of Golarion pg. 12</em><br/><strong>Price</strong> 3 gp; <strong>Weight</strong> 2 lbs.<br/><strong>Category</strong> Adventuring Gear</p><h2 class=\"framing\"><img src=\"modules/pf-content/assets/PathfinderSocietySymbolN.gif\" style=\"margin:3px 3px 0px 3px;\" title=\"Only legal goblin PCs are allowed to choose anything from this book\"/>Description</h2><p>This narrow metal file is used by goblins to sharpen their teeth. The file ends in a pointed spike in case tooth-sharpening is interrupted by combat-a fangfile can function as a punching dagger when used in combat. </p>",
      "unidentified": ""
    },
    "tags": [],
    "quantity": 1,
    "weight": {
      "value": 2
    },
    "price": 3,
    "size": "med",
    "equipped": false,
    "resizing": false,
    "identified": true,
    "hp": {
      "max": 10,
      "value": 10
    },
    "broken": false,
    "hardness": 0,
    "carried": true,
    "unidentified": {
      "price": 0,
      "name": ""
    },
    "cl": 0,
    "aura": {
      "custom": false,
      "school": ""
    },
    "changes": [],
    "changeFlags": {
      "loseDexToAC": false,
      "noEncumbrance": false,
      "mediumArmorFullSpeed": false,
      "heavyArmorFullSpeed": false
    },
    "contextNotes": [],
    "links": {
      "children": []
    },
    "tag": "fangfile",
    "useCustomTag": false,
    "flags": {
      "boolean": {},
      "dictionary": {
        "Category": "Adventuring Gear"
      }
    },
    "scriptCalls": [],
    "subType": "gear",
    "extraType": "",
    "uses": {
      "value": 0,
      "max": 0
    }
  },
  "ownership": {
    "default": 0
  },
  "_stats": {
    "systemId": "pf1",
    "systemVersion": "9.1",
    "coreVersion": "10.291",
    "createdTime": 1665428367745,
    "modifiedTime": 1689793676131,
    "lastModifiedBy": "ppv91YxratjWnkJi"
  },
  "effects": [],
  "folder": null,
  "sort": 0,
  "flags": {},
  "_key": "!items!mglz2TdcW78BX1YK"
}