{
  "_id": "EzqKIeYshjKIqpDy",
  "name": "Fire carrier",
  "type": "loot",
  "img": "icons/tools/laboratory/bowl-liquid-orange.webp",
  "system": {
    "description": {
      "value": "<p><strong>Source</strong> <em>Goblins of Golarion pg. 12</em><br/><strong>Price</strong> 1 sp; <strong>Weight</strong> 1 lb.<br/><strong>Category</strong> Tools</p><h2 class=\"framing\"><img src=\"modules/pf-content/assets/PathfinderSocietySymbolN.gif\" style=\"margin:3px 3px 0px 3px;\" title=\"Only legal goblin PCs are allowed to choose anything from this book\"/>Description</h2><p>A fire carrier is a conical device made of thickly insulated leather and wood designed to carry a live coal under a layer of ash. A fire carrier can keep a coal red hot for 24 hours and allows anyone to light a fire in normal conditions without having to resort to Survival checks, alchemical devices, or magic. </p>",
      "unidentified": ""
    },
    "tags": [],
    "quantity": 1,
    "weight": {
      "value": 1
    },
    "price": 0.1,
    "size": "med",
    "equipped": false,
    "resizing": false,
    "identified": true,
    "hp": {
      "max": 10,
      "value": 10
    },
    "broken": false,
    "hardness": 0,
    "carried": true,
    "unidentified": {
      "price": 0,
      "name": ""
    },
    "cl": 0,
    "aura": {
      "custom": false,
      "school": ""
    },
    "changes": [],
    "changeFlags": {
      "loseDexToAC": false,
      "noEncumbrance": false,
      "mediumArmorFullSpeed": false,
      "heavyArmorFullSpeed": false
    },
    "contextNotes": [],
    "links": {
      "children": []
    },
    "tag": "fireCarrier",
    "useCustomTag": false,
    "flags": {
      "boolean": {},
      "dictionary": {
        "Category": "Tools"
      }
    },
    "scriptCalls": [],
    "subType": "gear",
    "extraType": "",
    "uses": {
      "value": 0,
      "max": 0
    }
  },
  "ownership": {
    "default": 0
  },
  "_stats": {
    "systemId": "pf1",
    "systemVersion": "9.1",
    "coreVersion": "10.291",
    "createdTime": 1665428366317,
    "modifiedTime": 1689793672793,
    "lastModifiedBy": "ppv91YxratjWnkJi"
  },
  "effects": [],
  "folder": null,
  "sort": 0,
  "flags": {},
  "_key": "!items!EzqKIeYshjKIqpDy"
}