{
  "_id": "c9S3Ii6VnL8Tr7c9",
  "name": "Firework (firecracker)",
  "type": "consumable",
  "img": "systems/pf1/icons/spells/explosion-red-2.jpg",
  "system": {
    "description": {
      "value": "<h1 class=\"title\"><img src=\"modules/pf-content/assets/PathfinderSocietySymbol.gif\" style=\"margin:3px 3px 0px 3px;\" title=\"PFS Legal\"/> Firework (firecracker)</h1><b>Source</b> <i>Alchemy Manual pg. 29</i><br/><b>Price</b> 10 gp; <b>Weight</b> -<br/><b>Category</b> Alchemical Weapons<h2 class=\"framing\">Description</h2><p>These small paper or cloth cylinders or spheres are filled with a tiny charge of black powder. One round after lighting a firecracker in an adjacent square, the firework detonates with a loud bang, dealing 1d2+1 points of nonlethal damage to any creatures in the square and deafening them for 1d4 rounds (Fortitude DC 11 halves damage and duration of deafness). The bang also causes unintelligent animals within 20 feet of it to become frightened for 1d3 rounds; an animal can overcome this effect with a successful DC 11 Will save or if an adjacent ally calms the animal with a successful DC 11 Handle Animal check (an immediate action).</p><h2 class=\"framing\">Alchemical Recipe</h2><p><b>Recipe</b> (1 black powder + 1 saltpeter)/calcination; <b>Craft</b> 20<br/><b>Time</b> 10 minutes; <b>Tools</b> crucible; <b>Type</b> alchemical weapon</p>",
      "unidentified": ""
    },
    "tags": [],
    "quantity": 1,
    "weight": {
      "value": 0
    },
    "price": 10,
    "size": "med",
    "equipped": true,
    "resizing": false,
    "identified": true,
    "hp": {
      "max": 10,
      "value": 10
    },
    "broken": false,
    "hardness": 0,
    "carried": true,
    "unidentified": {
      "price": 0,
      "name": ""
    },
    "cl": 0,
    "aura": {
      "custom": false,
      "school": ""
    },
    "actions": [
      {
        "_id": "0vp3wuscbvp93txr",
        "name": "Use",
        "img": "systems/pf1/icons/spells/explosion-red-2.jpg",
        "description": "",
        "tag": "fireworkFirecracker",
        "activation": {
          "cost": 1,
          "type": "standard",
          "unchained": {
            "cost": 2,
            "type": "action"
          }
        },
        "duration": {
          "value": null,
          "units": ""
        },
        "target": {
          "value": ""
        },
        "range": {
          "value": "0",
          "units": "ft",
          "maxIncrements": "1",
          "minValue": null,
          "minUnits": ""
        },
        "uses": {
          "autoDeductChargesCost": "",
          "self": {
            "value": 0,
            "maxFormula": "",
            "per": null
          },
          "per": null,
          "value": 0,
          "maxFormula": "",
          "pricePerUse": 0
        },
        "measureTemplate": {
          "type": "",
          "size": "0",
          "overrideColor": false,
          "customColor": "",
          "overrideTexture": false,
          "customTexture": ""
        },
        "attackName": "",
        "actionType": "rsak",
        "attackBonus": "",
        "critConfirmBonus": "",
        "damage": {
          "parts": [
            {
              "formula": "",
              "type": {
                "values": [],
                "custom": ""
              }
            },
            {
              "formula": "",
              "type": {
                "values": [],
                "custom": ""
              }
            }
          ],
          "critParts": [],
          "nonCritParts": []
        },
        "attackParts": [],
        "formulaicAttacks": {
          "count": {
            "formula": ""
          },
          "bonus": {
            "formula": ""
          },
          "label": null
        },
        "formula": "",
        "ability": {
          "attack": "",
          "damage": "",
          "damageMult": 1,
          "critRange": 20,
          "critMult": 1
        },
        "save": {
          "dc": "11",
          "type": "fort",
          "description": ""
        },
        "effectNotes": [
          "see text"
        ],
        "attackNotes": [],
        "soundEffect": "",
        "powerAttack": {
          "multiplier": "",
          "damageBonus": 2,
          "critMultiplier": 1
        },
        "naturalAttack": {
          "primaryAttack": true,
          "secondary": {
            "attackBonus": "-5",
            "damageMult": 0.5
          }
        },
        "nonlethal": false,
        "touch": false,
        "usesAmmo": false,
        "spellEffect": "",
        "spellArea": "",
        "conditionals": [],
        "enh": {
          "value": null
        }
      }
    ],
    "uses": {
      "per": null,
      "value": 0,
      "maxFormula": "",
      "pricePerUse": 0,
      "autoDeductChargesCost": "1"
    },
    "attackNotes": [],
    "effectNotes": [],
    "links": {
      "children": [],
      "charges": []
    },
    "tag": "fireworkFirecracker",
    "useCustomTag": false,
    "flags": {
      "boolean": {},
      "dictionary": {
        "Category": "Alchemical Weapons"
      }
    },
    "scriptCalls": [],
    "subType": "misc",
    "showInQuickbar": false
  },
  "ownership": {
    "default": 0
  },
  "_stats": {
    "systemId": "pf1",
    "systemVersion": "9.1",
    "coreVersion": "10.291",
    "createdTime": 1665428367309,
    "modifiedTime": 1689797917762,
    "lastModifiedBy": "ppv91YxratjWnkJi"
  },
  "effects": [],
  "folder": null,
  "sort": 0,
  "flags": {},
  "_key": "!items!c9S3Ii6VnL8Tr7c9"
}