{
  "_id": "X27yWHal4dHwaTaf",
  "name": "Fortune-teller's deck",
  "type": "loot",
  "img": "icons/sundries/gaming/playing-cards-black.webp",
  "system": {
    "description": {
      "value": "<p><strong>Source</strong> <em>Ultimate Equipment pg. 77</em>, <em>Advanced Player's Guide pg. 184</em><br/><strong>Price</strong> <img src=\"modules/pf-content/assets/PathfinderSocietySymbol.gif\" style=\"margin:3px 3px 0px 3px;\" title=\"PFS Legal\"/> 1 gp (common), <img src=\"modules/pf-content/assets/PathfinderSocietySymbol.gif\" style=\"margin:3px 3px 0px 3px;\" title=\"PFS Legal\"/> 50 gp (masterwork), <img src=\"modules/pf-content/assets/PathfinderSocietySymbol.gif\" style=\"margin:3px 3px 0px 3px;\" title=\"PFS Legal\"/> 25 gp (quality); <strong>Weight</strong> 1/2 lb. (common), 1 lb. (masterwork), 1 lb. (quality)</p><h2 class=\"framing\">Description</h2><p>This deck of illustrated cards is used by those in tune with the spirit world to predict the future-and by charlatans to take money from the gullible. A common deck only has simple drawings on simple wooden plaques. A quality fortune-teller's deck usually consists of wooden plaques with painted color images; it is suitable as a focus for the <em>augury </em>spell, and provides a +1 circumstance bonus on Profession (fortune-teller), Profession (medium), and similar Profession checks. A masterwork fortuneteller's deck may be wood, ivory, or even metal, with painted or carved images, and is often highlighted with gold inlays or tiny gems; it has all the benefits of a quality deck, except it provides a +2 circumstance bonus on the listed skill checks.</p>",
      "unidentified": ""
    },
    "tags": [],
    "quantity": 1,
    "weight": {
      "value": 0.5
    },
    "price": 50,
    "size": "med",
    "equipped": false,
    "resizing": false,
    "identified": true,
    "hp": {
      "max": 10,
      "value": 10
    },
    "broken": false,
    "hardness": 0,
    "carried": true,
    "unidentified": {
      "price": 0,
      "name": ""
    },
    "cl": 0,
    "aura": {
      "custom": false,
      "school": ""
    },
    "changes": [],
    "changeFlags": {
      "loseDexToAC": false,
      "noEncumbrance": false,
      "mediumArmorFullSpeed": false,
      "heavyArmorFullSpeed": false
    },
    "contextNotes": [],
    "links": {
      "children": []
    },
    "tag": "fortunetellersDeck",
    "useCustomTag": false,
    "flags": {
      "boolean": {},
      "dictionary": {
        "Category": "Tools"
      }
    },
    "scriptCalls": [],
    "subType": "gear",
    "extraType": "",
    "uses": {
      "value": 0,
      "max": 0
    }
  },
  "ownership": {
    "default": 0
  },
  "_stats": {
    "systemId": "pf1",
    "systemVersion": "9.1",
    "coreVersion": "10.291",
    "createdTime": 1665428367162,
    "modifiedTime": 1689793674638,
    "lastModifiedBy": "ppv91YxratjWnkJi"
  },
  "effects": [],
  "folder": null,
  "sort": 0,
  "flags": {},
  "_key": "!items!X27yWHal4dHwaTaf"
}