{
  "_id": "Un3AOqNO1YhKwt0Y",
  "name": "Fungal Graft, Fungal Eyes",
  "type": "loot",
  "img": "icons/commodities/biological/pustules-red.webp",
  "system": {
    "description": {
      "value": "<p><strong>Source</strong> <em>Alchemy Manual pg. 10</em><br><strong>Price</strong> 18,000 gp; <strong>Slot</strong> eyes<br>These small, glowing blue fungi form a protective film over the subjects eyes, preventing her from seeing with normal vision but granting her blindsight to a range of 30 feet.</p><h2 class=\"framing\">Cultivation Requirements</h2><p>Craft (alchemy) 12 ranks; <strong>Skill</strong> Craft (alchemy) DC 25, Heal DC 25; <strong>Cultivation Cost</strong> 9,000 gp<br><br></p>",
      "unidentified": ""
    },
    "tags": [],
    "quantity": 1,
    "weight": {
      "value": 0
    },
    "price": 18000,
    "size": "med",
    "equipped": false,
    "resizing": false,
    "identified": true,
    "hp": {
      "max": 10,
      "value": 10
    },
    "broken": false,
    "hardness": 0,
    "carried": true,
    "unidentified": {
      "price": 0,
      "name": ""
    },
    "cl": 0,
    "aura": {
      "custom": false,
      "school": ""
    },
    "changes": [],
    "changeFlags": {
      "loseDexToAC": false,
      "noEncumbrance": false,
      "mediumArmorFullSpeed": false,
      "heavyArmorFullSpeed": false
    },
    "contextNotes": [],
    "links": {
      "children": []
    },
    "tag": "fungalGraftFungalEyes",
    "useCustomTag": false,
    "flags": {
      "boolean": {},
      "dictionary": {
        "Category": "Fungal Graft"
      }
    },
    "scriptCalls": [],
    "subType": "misc",
    "extraType": "",
    "uses": {
      "value": 0,
      "max": 0
    }
  },
  "ownership": {
    "default": 0
  },
  "_stats": {
    "systemId": "pf1",
    "systemVersion": "9.1",
    "coreVersion": "10.291",
    "createdTime": 1665428366932,
    "modifiedTime": 1689793674199,
    "lastModifiedBy": "ppv91YxratjWnkJi"
  },
  "effects": [],
  "folder": null,
  "sort": 0,
  "flags": {},
  "_key": "!items!Un3AOqNO1YhKwt0Y"
}