{
  "_id": "yMD7MRg9jXQyLx4e",
  "name": "Fungal Graft, Reaching Vines",
  "type": "loot",
  "img": "icons/commodities/biological/pustules-red.webp",
  "system": {
    "description": {
      "value": "<p><strong>Source</strong> <em>Alchemy Manual pg. 10</em><br><strong>Price</strong> 4,000 gp; <strong>Slot</strong> wrists<br>Cytillesh spores seeded beneath the subjects skin enable the subject to extend and contract fungal vines from its wrists and forearms at will. The subject gains two vine attacks per round, which count as secondary natural attacks with a reach of 10 feet. These vines deal no damage, but the fungal-grafted creature can attempt to pull a struck target up to 5 feet toward itself, as the pull universal monster ability (<em>Pathfinder RPG Bestiary </em>303).</p><h2 class=\"framing\">Cultivation Requirements</h2><p>Craft (alchemy) 9 ranks; <strong>Skill</strong> Craft (alchemy) DC 21, Heal DC 21; <strong>Cultivation Cost</strong> 2,000 gp</p>",
      "unidentified": ""
    },
    "tags": [],
    "quantity": 1,
    "weight": {
      "value": 0
    },
    "price": 4000,
    "size": "med",
    "equipped": false,
    "resizing": false,
    "identified": true,
    "hp": {
      "max": 10,
      "value": 10
    },
    "broken": false,
    "hardness": 0,
    "carried": true,
    "unidentified": {
      "price": 0,
      "name": ""
    },
    "cl": 0,
    "aura": {
      "custom": false,
      "school": ""
    },
    "changes": [],
    "changeFlags": {
      "loseDexToAC": false,
      "noEncumbrance": false,
      "mediumArmorFullSpeed": false,
      "heavyArmorFullSpeed": false
    },
    "contextNotes": [],
    "links": {
      "children": []
    },
    "tag": "fungalGraftReachingVines",
    "useCustomTag": false,
    "flags": {
      "boolean": {},
      "dictionary": {
        "Category": "Fungal Graft"
      }
    },
    "scriptCalls": [],
    "subType": "misc",
    "extraType": "",
    "uses": {
      "value": 0,
      "max": 0
    }
  },
  "ownership": {
    "default": 0
  },
  "_stats": {
    "systemId": "pf1",
    "systemVersion": "9.1",
    "coreVersion": "10.291",
    "createdTime": 1665428368226,
    "modifiedTime": 1689793677191,
    "lastModifiedBy": "ppv91YxratjWnkJi"
  },
  "effects": [],
  "folder": null,
  "sort": 0,
  "flags": {},
  "_key": "!items!yMD7MRg9jXQyLx4e"
}