{
  "_id": "7ZZ1Hext3wdTKIMf",
  "name": "Gelidburn oil",
  "type": "consumable",
  "img": "systems/pf1/icons/items/potions/unique-9.jpg",
  "system": {
    "description": {
      "value": "<h3><img src=\"modules/pf-content/assets/PathfinderSocietySymbol.gif\" title=\"PFS Legal\" style=\"margin:3px 3px 0px 3px;\"> Gelidburn oil</h3><p><strong>Source</strong> <em>Potions and Poisons pg. 24</em></p><p><strong>Price</strong> 75 gp; <strong>Weight</strong> 0</p><p><strong>Type</strong> injury; <strong>Save</strong> Fortitude DC 12</p><p><strong>Frequency</strong> 1 round for 4 rounds</p><p><strong>Effect</strong> 1d3 fire, 1d3 cold, and staggered 1 round</p><p><strong>Cure</strong> 1 save</p><h4 class=\"framing\"><strong>Description</strong><h4><p>This greasy pale-blue liquid delivers a shocking sensation that is both freezing cold and searing hot. Gelidburn oil is popular among pickpockets looking to stab, snatch, and run.</p>",
      "unidentified": ""
    },
    "tags": [],
    "quantity": 1,
    "weight": {
      "value": 0
    },
    "price": 75,
    "size": "med",
    "equipped": true,
    "resizing": false,
    "identified": true,
    "hp": {
      "max": 10,
      "value": 10
    },
    "broken": false,
    "hardness": 0,
    "carried": true,
    "unidentified": {
      "price": 0,
      "name": ""
    },
    "cl": 0,
    "aura": {
      "custom": false,
      "school": ""
    },
    "actions": [
      {
        "_id": "t6s7n0nm0aheltyk",
        "name": "Use",
        "img": "systems/pf1/icons/items/potions/unique-9.jpg",
        "description": "",
        "tag": "gelidburnOil",
        "activation": {
          "cost": 1,
          "type": "standard",
          "unchained": {
            "cost": 2,
            "type": "action"
          }
        },
        "duration": {
          "value": null,
          "units": ""
        },
        "target": {
          "value": ""
        },
        "range": {
          "units": "",
          "maxIncrements": 1,
          "minValue": null,
          "minUnits": ""
        },
        "uses": {
          "autoDeductChargesCost": "",
          "self": {
            "value": 0,
            "maxFormula": "",
            "per": null
          },
          "per": "single",
          "value": 0,
          "maxFormula": "",
          "pricePerUse": 0,
          "max": 0
        },
        "measureTemplate": {
          "type": "",
          "size": "",
          "overrideColor": false,
          "customColor": "",
          "overrideTexture": false,
          "customTexture": ""
        },
        "attackName": "",
        "actionType": "save",
        "attackBonus": "",
        "critConfirmBonus": "",
        "damage": {
          "parts": [
            {
              "formula": "1d3+1d3",
              "type": {
                "values": [
                  "fire",
                  "cold"
                ],
                "custom": ""
              }
            }
          ],
          "critParts": [],
          "nonCritParts": []
        },
        "attackParts": [],
        "formulaicAttacks": {
          "count": {
            "formula": ""
          },
          "bonus": {
            "formula": ""
          },
          "label": null
        },
        "formula": "",
        "ability": {
          "attack": null,
          "damage": "",
          "damageMult": 1,
          "critRange": 20,
          "critMult": 2
        },
        "save": {
          "dc": "12",
          "type": "fort",
          "description": ""
        },
        "effectNotes": [
          "<b>Primary Effect:</b>  [[1d3]] fire, [[1d3]] cold, and staggered [[1]] round"
        ],
        "attackNotes": [],
        "soundEffect": "",
        "powerAttack": {
          "multiplier": "",
          "damageBonus": 2,
          "critMultiplier": 1
        },
        "naturalAttack": {
          "primaryAttack": true,
          "secondary": {
            "attackBonus": "-5",
            "damageMult": 0.5
          }
        },
        "nonlethal": false,
        "touch": false,
        "usesAmmo": false,
        "spellEffect": "",
        "spellArea": "",
        "conditionals": [],
        "enh": {
          "value": null
        }
      }
    ],
    "uses": {
      "per": "single",
      "value": 0,
      "maxFormula": "",
      "pricePerUse": 0,
      "autoDeductChargesCost": "1",
      "max": 0
    },
    "attackNotes": [],
    "effectNotes": [],
    "links": {
      "children": [],
      "charges": []
    },
    "tag": "gelidburnOil",
    "useCustomTag": false,
    "flags": {
      "boolean": {},
      "dictionary": {}
    },
    "scriptCalls": [],
    "subType": "poison",
    "showInQuickbar": false
  },
  "ownership": {
    "default": 0
  },
  "_stats": {
    "systemId": "pf1",
    "systemVersion": "9.1",
    "coreVersion": "10.291",
    "createdTime": 1665428365876,
    "modifiedTime": 1689797912906,
    "lastModifiedBy": "ppv91YxratjWnkJi"
  },
  "effects": [],
  "folder": null,
  "sort": 0,
  "flags": {},
  "_key": "!items!7ZZ1Hext3wdTKIMf"
}