{
  "_id": "oGVtVuVbAmz8aamJ",
  "name": "Glowing Ink",
  "type": "consumable",
  "img": "icons/commodities/materials/bowl-powder-blue.webp",
  "system": {
    "description": {
      "value": "<p><strong>Source</strong> <em>Ultimate Equipment pg. 103</em>, <em>Adventurer's Armory pg. 19</em><br/><strong>Price</strong> 5 gp; <strong>Weight</strong> -<br/><strong>Category</strong> Alchemical Tools</p><h2 class=\"framing\"><img src=\"modules/pf-content/assets/PathfinderSocietySymbol.gif\" style=\"margin:3px 3px 0px 3px;\" title=\"PFS Legal\"/>Description</h2><p>Often extracted from phosphorescent insects, tiny marine plants, or subterranean fungi, glowing ink emits a faint but steady light (typically red or green) that allows you to read it in normal darkness-this includes darkness created by spells like <em>darkness</em>, but not the supernatural darkness created by <em>deeper darkness</em>. If there is glowing ink on an object, you have a +2 bonus on Perception checks to locate it. Mixing glowing ink with marker dye makes the dye glow in the dark until it fades.</p><h2 class=\"framing\">Construction</h2><p><strong>Craft (Alchemy)</strong> DC 15</p>",
      "unidentified": ""
    },
    "tags": [],
    "quantity": 1,
    "weight": {
      "value": 0
    },
    "price": 5,
    "size": "med",
    "equipped": true,
    "resizing": false,
    "identified": true,
    "hp": {
      "max": 10,
      "value": 10
    },
    "broken": false,
    "hardness": 0,
    "carried": true,
    "unidentified": {
      "price": 0,
      "name": ""
    },
    "cl": 0,
    "aura": {
      "custom": false,
      "school": ""
    },
    "actions": [],
    "uses": {
      "per": null,
      "value": 0,
      "maxFormula": "",
      "pricePerUse": 0,
      "autoDeductChargesCost": "1"
    },
    "attackNotes": [],
    "effectNotes": [],
    "links": {
      "children": [],
      "charges": []
    },
    "tag": "glowingInk",
    "useCustomTag": false,
    "flags": {
      "boolean": {},
      "dictionary": {
        "Category": "Alchemical Tools"
      }
    },
    "scriptCalls": [],
    "subType": "misc",
    "showInQuickbar": false
  },
  "ownership": {
    "default": 0
  },
  "_stats": {
    "systemId": "pf1",
    "systemVersion": "9.1",
    "coreVersion": "10.291",
    "createdTime": 1665428367787,
    "modifiedTime": 1689797919595,
    "lastModifiedBy": "ppv91YxratjWnkJi"
  },
  "effects": [],
  "folder": null,
  "sort": 0,
  "flags": {},
  "_key": "!items!oGVtVuVbAmz8aamJ"
}