{
  "_id": "Qhzqk832OfS5krme",
  "name": "Gossamer Veil",
  "type": "consumable",
  "img": "systems/pf1/icons/items/potions/unique-8.jpg",
  "flags": {
    "scene-packer": {
      "sourceId": "Item.uUGHQnlJGmwoMWHc"
    }
  },
  "system": {
    "description": {
      "value": "<p><strong>Source&nbsp;</strong><em>Potions and Poisons pg. 26</em></p>\n<p><strong>Type</strong> ingested;<strong> Addiction </strong>minor, Fortitude DC 18</p>\n<p><strong>Price </strong>20 gp; <strong>Weight </strong>0 lbs</p>\n<p><strong>Effect </strong>1 day;<strong> </strong>+10 +4 alchemical bonus on saving throws against disease effects</p>\n<p><strong>Effect</strong> after 1 day; &nbsp;&ndash;4 penalty on saving throws against disease effects for 7 days</p>\n<p><strong>Damage </strong>1d4 Wis damage</p>\n<p><span id=\"ctl00_MainContent_DataListDrugs_ctl00_LabelName\" style=\"margin-top: 0px;\">Cultists of Ghlaunder and similar manipulators wander the streets of impoverished neighborhoods, administering this &ldquo;vaccine&rdquo; to prevent diseases common in squalid conditions, often with an admonition that it remains effective only as long as the recipient maintains faith in the priest's deity.</span></p>\n<p>&nbsp;</p>",
      "unidentified": ""
    },
    "tags": [],
    "quantity": 1,
    "weight": {
      "value": 0
    },
    "price": 20,
    "size": "med",
    "equipped": true,
    "resizing": false,
    "identified": true,
    "hp": {
      "max": 10,
      "value": 10
    },
    "broken": false,
    "hardness": 0,
    "carried": true,
    "unidentified": {
      "price": 0,
      "name": ""
    },
    "cl": 0,
    "aura": {
      "custom": false,
      "school": ""
    },
    "actions": [
      {
        "_id": "a48hewwcyu6i1vsw",
        "name": "Use",
        "img": "systems/pf1/icons/items/potions/unique-8.jpg",
        "description": "",
        "tag": "gossamerVeil",
        "activation": {
          "cost": 1,
          "type": "standard",
          "unchained": {
            "cost": 2,
            "type": "action"
          }
        },
        "duration": {
          "value": null,
          "units": ""
        },
        "target": {
          "value": ""
        },
        "range": {
          "units": "",
          "maxIncrements": 1,
          "minValue": null,
          "minUnits": ""
        },
        "uses": {
          "autoDeductChargesCost": "",
          "self": {
            "value": 0,
            "maxFormula": "",
            "per": null
          },
          "per": "single",
          "value": 0,
          "maxFormula": "",
          "pricePerUse": 0,
          "max": 0
        },
        "measureTemplate": {
          "type": "",
          "size": "",
          "overrideColor": false,
          "customColor": "",
          "overrideTexture": false,
          "customTexture": ""
        },
        "attackName": "",
        "actionType": "save",
        "attackBonus": "",
        "critConfirmBonus": "",
        "damage": {
          "parts": [],
          "critParts": [],
          "nonCritParts": []
        },
        "attackParts": [],
        "formulaicAttacks": {
          "count": {
            "formula": ""
          },
          "bonus": {
            "formula": ""
          },
          "label": null
        },
        "formula": "",
        "ability": {
          "attack": null,
          "damage": "",
          "damageMult": 1,
          "critRange": 20,
          "critMult": 2
        },
        "save": {
          "dc": "18",
          "type": "fort",
          "description": ""
        },
        "effectNotes": [
          "<b>Effect</b> 1 day; +10 +4 alchemical bonus on saving throws against disease effects",
          "<b>Effect</b> after 1 day; –4 penalty on saving throws against disease effects for 7 days",
          "<b>Damage</b> 1d4 Wis damage"
        ],
        "attackNotes": [],
        "soundEffect": "",
        "powerAttack": {
          "multiplier": "",
          "damageBonus": 2,
          "critMultiplier": 1
        },
        "naturalAttack": {
          "primaryAttack": true,
          "secondary": {
            "attackBonus": "-5",
            "damageMult": 0.5
          }
        },
        "nonlethal": false,
        "touch": false,
        "usesAmmo": false,
        "spellEffect": "",
        "spellArea": "",
        "conditionals": [],
        "enh": {
          "value": null
        }
      }
    ],
    "uses": {
      "per": "single",
      "value": 0,
      "maxFormula": "",
      "pricePerUse": 0,
      "autoDeductChargesCost": "1",
      "max": 0
    },
    "attackNotes": [],
    "effectNotes": [],
    "links": {
      "children": [],
      "charges": []
    },
    "tag": "gossamerVeil",
    "useCustomTag": false,
    "flags": {
      "boolean": {},
      "dictionary": {}
    },
    "scriptCalls": [],
    "subType": "drug",
    "showInQuickbar": false
  },
  "ownership": {
    "default": 0
  },
  "_stats": {
    "systemId": "pf1",
    "systemVersion": "9.1",
    "coreVersion": "10.291",
    "createdTime": 1665428366820,
    "modifiedTime": 1689797916309,
    "lastModifiedBy": "ppv91YxratjWnkJi"
  },
  "effects": [],
  "folder": null,
  "sort": 0,
  "_key": "!items!Qhzqk832OfS5krme"
}