{
  "_id": "1zIxy15TISnCetBL",
  "name": "Icecap Ale",
  "type": "consumable",
  "img": "systems/pf1/icons/items/inventory/tankard-full.jpg",
  "system": {
    "description": {
      "value": "<p><strong>Source</strong> <em>Alchemy Manual pg. 13</em><br/><strong>Price</strong> 40 gp; <strong>Weight</strong> 1/2 lb.<br/><strong>Category</strong> Alchemical Remedies</p><h2 class=\"framing\"><img src=\"modules/pf-content/assets/PathfinderSocietySymbol.gif\" style=\"margin:3px 3px 0px 3px;\" title=\"PFS Legal\"/>Description</h2><p>This rare and unusual brew is fortified by a process of repeated partial freezing, during which the ice is continually skimmed off, resulting in a draught with more than 10 times the alcohol content of ordinary ale. Icecap ale grants a +2 alchemical bonus to the drinker's Strength and Constitution for 1 minute, as well as a +4 alchemical bonus on saving throws against compulsions and fear. However, after this initial surge of energy, the drinker becomes fatigued and takes a -4 penalty on Dexterity- and Strength-based skill checks for 1 hour. In addition, the drinker loses all memory of events that transpired during the 1d4 minutes directly following consumption of a draught of icecap ale; a successful DC 20 Fortitude save negates this memory loss. Additional doses of icecap ale imbibed during the hour following an initial dose cause the drinker to become sickened for 1 minute (instead of gaining a bonus to Strength and Constitution) and to suffer all the negative effects of icecap ale.</p><h2 class=\"framing\">Alchemical Recipe</h2><p><strong>Recipe</strong> (50 spirit of wine + 40 urea)/distillation; <strong>Craft</strong> 20<br/><strong>Time</strong> 1 week; <strong>Tools</strong> brewer's kit; <strong>Type</strong> alcohol</p>",
      "unidentified": ""
    },
    "tags": [],
    "quantity": 1,
    "weight": {
      "value": 0.5
    },
    "price": 40,
    "size": "med",
    "equipped": true,
    "resizing": false,
    "identified": true,
    "hp": {
      "max": 10,
      "value": 10
    },
    "broken": false,
    "hardness": 0,
    "carried": true,
    "unidentified": {
      "price": 0,
      "name": ""
    },
    "cl": 0,
    "aura": {
      "custom": false,
      "school": ""
    },
    "actions": [],
    "uses": {
      "per": null,
      "value": 0,
      "maxFormula": "",
      "pricePerUse": 0,
      "autoDeductChargesCost": "1"
    },
    "attackNotes": [],
    "effectNotes": [],
    "links": {
      "children": [],
      "charges": []
    },
    "tag": "icecapAle",
    "useCustomTag": false,
    "flags": {
      "boolean": {},
      "dictionary": {
        "Category": "Alchemical Remedies"
      }
    },
    "scriptCalls": [],
    "subType": "potion",
    "showInQuickbar": false
  },
  "ownership": {
    "default": 0
  },
  "_stats": {
    "systemId": "pf1",
    "systemVersion": "9.1",
    "coreVersion": "10.291",
    "createdTime": 1665428365735,
    "modifiedTime": 1689797911858,
    "lastModifiedBy": "ppv91YxratjWnkJi"
  },
  "effects": [],
  "folder": null,
  "sort": 0,
  "flags": {},
  "_key": "!items!1zIxy15TISnCetBL"
}