{
  "_id": "jgVtGIEMmZLmXeYG",
  "name": "Instant Fertilizer",
  "type": "consumable",
  "img": "icons/commodities/materials/plant-sprout-seed-brown-green.webp",
  "system": {
    "description": {
      "value": "<p><strong>Source</strong> <em>Alchemy Manual pg. 11</em><br/><strong>Price</strong> 20 gp; <strong>Weight</strong> 4 lbs.<br/><strong>Category</strong> Alchemical Tools</p><h2 class=\"framing\"><img src=\"modules/pf-content/assets/PathfinderSocietySymbol.gif\" style=\"margin:3px 3px 0px 3px;\" title=\"PFS Legal\"/>Description</h2><p>This ruby-red earth can be sprinkled over a 5-foot patch of ground as a standard action that provokes attacks of opportunity. Noncreature plants and fungi in the area grow with alarming speed, and the ground becomes weedy, difficult terrain for non-plant creatures. Any non-plant creature in the square must succeed at a DC 15 Reflex save or it becomes entangled by the surging plants. Any plant creature in the affected square is healed of 1d6 points of damage.</p><h2 class=\"framing\">Alchemical Recipe</h2><p><strong>Recipe</strong> (15 magnesium + 20 phosphorus + 10 salt)/calcination; <strong>Craft</strong> 20<br/><strong>Time</strong> 1 hour; <strong>Tools</strong> crucible; <strong>Type</strong> alchemical tool</p>",
      "unidentified": ""
    },
    "tags": [],
    "quantity": 1,
    "weight": {
      "value": 4
    },
    "price": 20,
    "size": "med",
    "equipped": true,
    "resizing": false,
    "identified": true,
    "hp": {
      "max": 10,
      "value": 10
    },
    "broken": false,
    "hardness": 0,
    "carried": true,
    "unidentified": {
      "price": 0,
      "name": ""
    },
    "cl": 0,
    "aura": {
      "custom": false,
      "school": ""
    },
    "actions": [],
    "uses": {
      "per": null,
      "value": 0,
      "maxFormula": "",
      "pricePerUse": 0,
      "autoDeductChargesCost": "1"
    },
    "attackNotes": [],
    "effectNotes": [],
    "links": {
      "children": [],
      "charges": []
    },
    "tag": "instantFertilizer",
    "useCustomTag": false,
    "flags": {
      "boolean": {},
      "dictionary": {
        "Category": "Alchemical Tools"
      }
    },
    "scriptCalls": [],
    "subType": "misc",
    "showInQuickbar": false
  },
  "ownership": {
    "default": 0
  },
  "_stats": {
    "systemId": "pf1",
    "systemVersion": "9.1",
    "coreVersion": "10.291",
    "createdTime": 1665428367669,
    "modifiedTime": 1689797919010,
    "lastModifiedBy": "ppv91YxratjWnkJi"
  },
  "effects": [],
  "folder": null,
  "sort": 0,
  "flags": {},
  "_key": "!items!jgVtGIEMmZLmXeYG"
}