{
  "_id": "4VFPOjAkSXSfZlWb",
  "name": "Iron eye",
  "type": "loot",
  "img": "icons/equipment/neck/amulet-carved-stone-hammer.webp",
  "system": {
    "description": {
      "value": "<p><strong>Source</strong> <em>Faiths of Balance pg. 25</em><br/><strong>Price</strong> 50 gp; <strong>Weight</strong> 1 lb.<br/><strong>Category</strong> Channel Foci<br/><strong>Deity</strong> Gorum</p><h2 class=\"framing\"><img src=\"modules/pf-content/assets/PathfinderSocietySymbol.gif\" style=\"margin:3px 3px 0px 3px;\" title=\"PFS Legal\"/>Description</h2><p>This simple iron amulet is in the shape of an eye within a helm. It must be worn in plain sight to have any effect. When activated, an iron eye allows its wielder to expend its power to gain a sacred (if activated with positive energy) or profane (if activated with negative energy) bonus on her next Intimidate check. This bonus is equal to the number of dice of the activating cleric's channel energy ability. The amulet remains charged until its magic is used or 1 hour passes.</p>",
      "unidentified": ""
    },
    "tags": [],
    "quantity": 1,
    "weight": {
      "value": 1
    },
    "price": 50,
    "size": "med",
    "equipped": false,
    "resizing": false,
    "identified": true,
    "hp": {
      "max": 10,
      "value": 10
    },
    "broken": false,
    "hardness": 0,
    "carried": true,
    "unidentified": {
      "price": 0,
      "name": ""
    },
    "cl": 0,
    "aura": {
      "custom": false,
      "school": ""
    },
    "changes": [],
    "changeFlags": {
      "loseDexToAC": false,
      "noEncumbrance": false,
      "mediumArmorFullSpeed": false,
      "heavyArmorFullSpeed": false
    },
    "contextNotes": [],
    "links": {
      "children": []
    },
    "tag": "ironEye",
    "useCustomTag": false,
    "flags": {
      "boolean": {},
      "dictionary": {
        "Category": "Channel Foci"
      }
    },
    "scriptCalls": [],
    "subType": "gear",
    "extraType": "",
    "uses": {
      "value": 0,
      "max": 0
    }
  },
  "ownership": {
    "default": 0
  },
  "_stats": {
    "systemId": "pf1",
    "systemVersion": "9.1",
    "coreVersion": "10.291",
    "createdTime": 1665428365797,
    "modifiedTime": 1689793671492,
    "lastModifiedBy": "ppv91YxratjWnkJi"
  },
  "effects": [],
  "folder": null,
  "sort": 0,
  "flags": {},
  "_key": "!items!4VFPOjAkSXSfZlWb"
}