{
  "_id": "p1pBkwtU825SkX0f",
  "name": "Kaava Musk",
  "type": "consumable",
  "img": "icons/commodities/materials/liquid-green.webp",
  "system": {
    "description": {
      "value": "<p><strong>Source</strong> <em>Sargava, the Lost Colony pg. 24</em>, <em>Adventurer's Armory pg. 19</em><br/><strong>Price</strong> 40 gp; <strong>Weight</strong> 1/2 lb.<br/><strong>Category</strong> Alchemical Tools</p><h2 class=\"framing\"><img src=\"modules/pf-content/assets/PathfinderSocietySymbol.gif\" style=\"margin:3px 3px 0px 3px;\" title=\"PFS Legal\"/>Description</h2><p>This emerald-colored adhesive is made from animal glands, urine, and other powerful scents that are difficult to wash off. A target splashed with it smells like weak prey to predators. Creatures with the scent ability can detect a marked creature at five times the normal range, note its direction as a free action, pinpoint it when it is within 25 feet, and track it by scent with a +5 bonus on their Survival checks. Immersion in water within 1 round of exposure washes the musk off; otherwise the effect decreases by 1 range increment per day (four times normal range after 1 day, three times normal range after 2 days, and so on) until the creature is again at normal scent levels. One dose of Kaava musk costs 40 gp and weighs 1/2 lb.; the Craft (alchemy) DC to create Kaava musk is 20. For more information on Kaava musk, see page 31.</p><h2 class=\"framing\">Construction</h2><p><strong>Craft (Alchemy)</strong> DC 20</p>",
      "unidentified": ""
    },
    "tags": [],
    "quantity": 1,
    "weight": {
      "value": 0.5
    },
    "price": 40,
    "size": "med",
    "equipped": true,
    "resizing": false,
    "identified": true,
    "hp": {
      "max": 10,
      "value": 10
    },
    "broken": false,
    "hardness": 0,
    "carried": true,
    "unidentified": {
      "price": 0,
      "name": ""
    },
    "cl": 0,
    "aura": {
      "custom": false,
      "school": ""
    },
    "actions": [],
    "uses": {
      "per": null,
      "value": 0,
      "maxFormula": "",
      "pricePerUse": 0,
      "autoDeductChargesCost": "1"
    },
    "attackNotes": [],
    "effectNotes": [],
    "links": {
      "children": [],
      "charges": []
    },
    "tag": "kaavaMusk",
    "useCustomTag": false,
    "flags": {
      "boolean": {},
      "dictionary": {
        "Category": "Alchemical Tools"
      }
    },
    "scriptCalls": [],
    "subType": "misc",
    "showInQuickbar": false
  },
  "ownership": {
    "default": 0
  },
  "_stats": {
    "systemId": "pf1",
    "systemVersion": "9.1",
    "coreVersion": "10.291",
    "createdTime": 1665428367816,
    "modifiedTime": 1689797919809,
    "lastModifiedBy": "ppv91YxratjWnkJi"
  },
  "effects": [],
  "folder": null,
  "sort": 0,
  "flags": {},
  "_key": "!items!p1pBkwtU825SkX0f"
}