{
  "_id": "mmWMOcvP5w9UrcTc",
  "name": "Kit, Alchemical Dye",
  "type": "consumable",
  "img": "icons/tools/laboratory/bowl-liquid-pink-yellow-green.webp",
  "flags": {
    "autoanimations": {
      "killAnim": false,
      "override": false,
      "animType": "t1",
      "animName": "",
      "bards": {
        "bardAnim": "a1",
        "bardTarget": true,
        "bardTargetAnim": "a1",
        "bardTargetColor": "a1",
        "bardSelf": true,
        "marker": true,
        "markerColor": "a1",
        "markerColorTarget": "a1"
      },
      "spellVar": "a1",
      "hmAnim": "a1",
      "color": "n1",
      "spellOptions": {
        "spellLoops": 1
      },
      "uaStrikeType": "physical",
      "dtvar": "dt1",
      "divineSmite": {
        "dsEnable": false,
        "dsSelf": true,
        "dsSelfDelay": 0,
        "dsSelfColor": "a1",
        "dsTarget": true,
        "dsTargetDelay": 1250,
        "dsTargetColor": "a1"
      },
      "explosion": false,
      "explodeVariant": "ev1",
      "explodeColor": "",
      "explodeRadius": "0",
      "explodeLoop": "1",
      "allSounds": {
        "explosion": {
          "audioExplodeEnabled": false,
          "file": "",
          "delay": 100,
          "volume": 0.25
        },
        "item": {
          "enableAudio": false,
          "file": "",
          "delay": 100,
          "volume": 0.25
        }
      },
      "selfRadius": "5",
      "animTint": "#ffffff",
      "auraOpacity": 0.75,
      "ctaOption": false,
      "teleDist": 30,
      "templates": {
        "tempType": "a1",
        "tempAnim": "",
        "tempColor": "",
        "tempLoop": 1,
        "customAnim": false,
        "customPath": ""
      }
    }
  },
  "system": {
    "description": {
      "value": "<p><strong>Source</strong> <em>Ultimate Intrigue pg. 236</em><br/><strong>Price</strong> 160 gp; <strong>Weight</strong> 6 lbs.<br/><strong>Category</strong> Alchemical Tools</p><h2 class=\"framing\"><img src=\"modules/pf-content/assets/PathfinderSocietySymbol.gif\" style=\"margin:3px 3px 0px 3px;\" title=\"PFS Legal\"/>Description</h2><p>This kit provides a variety of creamy liquids in glass jars, and allows you to temporarily change the color of your hair or skin to match that of a creature of any humanoid race. This includes exotic and unusual hues, such as gnome hair colors. If used as part of a Disguise check, this kit reduces the time required to create the disguise by 1d6 minutes (to a minimum of a full-round action), and halves the penalty to disguise yourself as a different race whenever such recoloration is necessary. Each use of the kit changes either hair or skin color. If you need to change both your hair color and your skin color, you must spend two uses of the kit to gain the benefit. Each dye takes 1 minute to apply (thus requiring 2 minutes to change both hair and skin color). Once applied, the colors are waterproof, and can't be rubbed or burned away. An application of dye fades after 1d4+1 days unless removed earlier by magical means. Applying a new application of alchemical dye immediately covers and replaces a previous application. An alchemical dye kit is exhausted after 10 uses.</p><h2 class=\"framing\">Construction</h2><p><strong>Craft (Alchemy)</strong> DC 20</p>",
      "unidentified": ""
    },
    "tags": [],
    "quantity": 1,
    "weight": {
      "value": 6
    },
    "price": 160,
    "size": "med",
    "equipped": true,
    "resizing": false,
    "identified": true,
    "hp": {
      "max": 10,
      "value": 10
    },
    "broken": false,
    "hardness": 0,
    "carried": true,
    "unidentified": {
      "price": 0,
      "name": ""
    },
    "cl": 0,
    "aura": {
      "custom": false,
      "school": ""
    },
    "actions": [],
    "uses": {
      "per": null,
      "value": 0,
      "maxFormula": "",
      "pricePerUse": 0,
      "autoDeductChargesCost": "1"
    },
    "attackNotes": [],
    "effectNotes": [],
    "links": {
      "children": [],
      "charges": []
    },
    "tag": "alchemicalDyeKit",
    "useCustomTag": false,
    "flags": {
      "boolean": {},
      "dictionary": {
        "Category": "Alchemical Tools"
      }
    },
    "scriptCalls": [],
    "subType": "misc",
    "showInQuickbar": false
  },
  "ownership": {
    "default": 0
  },
  "_stats": {
    "systemId": "pf1",
    "systemVersion": "9.1",
    "coreVersion": "10.291",
    "createdTime": 1665428367750,
    "modifiedTime": 1689797919398,
    "lastModifiedBy": "ppv91YxratjWnkJi"
  },
  "effects": [],
  "folder": null,
  "sort": 0,
  "_key": "!items!mmWMOcvP5w9UrcTc"
}