{
  "_id": "bLdN8HYb0mvE5ssz",
  "name": "Kit, Fire pump",
  "type": "container",
  "img": "icons/containers/chest/chest-simple-box-red.webp",
  "system": {
    "description": {
      "value": "<h1 class=\"title\"><img src=\"modules/pf-content/assets/PathfinderSocietySymbol.gif\" style=\"margin:3px 3px 0px 3px;\" title=\"PFS Legal\"/> Fire pump</h1><b>Source</b> <em>Advanced Class Guide pg. 204</em><br/><b>Price</b> 200 gp; <b>Weight</b> 500 lbs.<br/><b>Category</b> Kits<h3 class=\"framing\">Description</h3><p>This kit for a heavy wagon provides a water tank, platform pump, and a rotating nozzle. If the operator succeeds at a DC 20 Strength check, the fire pump releases a stream of water that reaches up to 30 feet away. Each person assisting with the pump lowers the DC by 5. Operating or assisting is a full-round action. The pump extinguishes 5 square feet of nonmagical fire per round. The water tank holds enough water for 10 rounds of pumping and takes 10 minutes to refill from a stream, pond, lake, or other body of water.</p>",
      "unidentified": ""
    },
    "tags": [],
    "quantity": 1,
    "weight": {
      "value": 500
    },
    "price": 0,
    "size": "med",
    "equipped": true,
    "resizing": false,
    "identified": true,
    "hp": {
      "max": 10,
      "value": 10
    },
    "broken": false,
    "hardness": 0,
    "carried": true,
    "unidentified": {
      "price": 0,
      "name": ""
    },
    "cl": 0,
    "aura": {
      "custom": false,
      "school": ""
    },
    "inventoryItems": [],
    "maxWeight": null,
    "weightReduction": 0,
    "sellMultiplier": 0.5,
    "currency": {
      "pp": 0,
      "gp": 0,
      "sp": 0,
      "cp": 0
    },
    "flags": {
      "boolean": {},
      "dictionary": {
        "Category": "Kits"
      }
    },
    "uses": {
      "value": 0,
      "max": 0
    }
  },
  "ownership": {
    "default": 0
  },
  "_stats": {
    "systemId": "pf1",
    "systemVersion": "9.1",
    "coreVersion": "10.291",
    "createdTime": 1665428367294,
    "modifiedTime": 1689793674982,
    "lastModifiedBy": "ppv91YxratjWnkJi"
  },
  "effects": [],
  "folder": null,
  "sort": 0,
  "flags": {},
  "_key": "!items!bLdN8HYb0mvE5ssz"
}