{
  "_id": "2q4Z6xZerXanciwM",
  "name": "Kit, Phrenologist's",
  "type": "container",
  "img": "icons/containers/chest/chest-reinforced-stone.webp",
  "system": {
    "description": {
      "value": "<h1 class=\"title\"><img src=\"modules/pf-content/assets/PathfinderSocietySymbol.gif\" style=\"margin:3px 3px 0px 3px;\" title=\"PFS Legal\"/> Phrenologist's kit</h1><b>Source</b> <em>Occult Adventures pg. 249</em><br/><b>Price</b> 50 gp; <b>Weight</b> 5 lbs.<br/><b>Category</b> Kits<h3 class=\"framing\">Description</h3><p>This leather doctor's bag contains all the accoutrements a phrenologist needs to measure skulls. This kit contains several metal skull calipers of various sizes, a labeled chalkware bust of a humanoid head, and numbered charts of skulls of various species. The kit provides a +2 circumstance bonus on Knowledge (arcana) checks for the phrenology occult skill unlock.</p>",
      "unidentified": ""
    },
    "tags": [],
    "quantity": 1,
    "weight": {
      "value": 5
    },
    "price": 0,
    "size": "med",
    "equipped": true,
    "resizing": false,
    "identified": true,
    "hp": {
      "max": 10,
      "value": 10
    },
    "broken": false,
    "hardness": 0,
    "carried": true,
    "unidentified": {
      "price": 0,
      "name": ""
    },
    "cl": 0,
    "aura": {
      "custom": false,
      "school": ""
    },
    "inventoryItems": [],
    "maxWeight": null,
    "weightReduction": 0,
    "sellMultiplier": 0.5,
    "currency": {
      "pp": 0,
      "gp": 0,
      "sp": 0,
      "cp": 0
    },
    "flags": {
      "boolean": {},
      "dictionary": {
        "Category": "Kits"
      }
    },
    "uses": {
      "value": 0,
      "max": 0
    }
  },
  "ownership": {
    "default": 0
  },
  "_stats": {
    "systemId": "pf1",
    "systemVersion": "9.1",
    "coreVersion": "10.291",
    "createdTime": 1665428365754,
    "modifiedTime": 1689793671341,
    "lastModifiedBy": "ppv91YxratjWnkJi"
  },
  "effects": [],
  "folder": null,
  "sort": 0,
  "flags": {},
  "_key": "!items!2q4Z6xZerXanciwM"
}