{
  "_id": "yY0xXxmiZsGhMHbC",
  "name": "Kit, Invisible enemies",
  "type": "container",
  "img": "icons/containers/chest/chest-reinforced-stone.webp",
  "system": {
    "description": {
      "value": "<h1 class=\"title\">Invisible enemies kit</h1><b>Source</b> <em>Adventurer's Armory 2 pg. 17</em><br/><b>Price</b> 900 gp; <b>Weight</b> 4 lbs.<br/><b>Category</b> Kits<h3 class=\"framing\">Description</h3><p>This kit is designed to help adventurers deal with surprise encounters against magically concealed enemies, and comes in a small, waterproof satchel. The kit contains 2 <i>scrolls of glitterdust</i>, 6 1/2-pound packages of powder<sup>UE</sup> such as flour, and one packet of <i>dust of appearance</i>.</p>",
      "unidentified": ""
    },
    "tags": [],
    "quantity": 1,
    "weight": {
      "value": 4
    },
    "price": 0,
    "size": "med",
    "equipped": true,
    "resizing": false,
    "identified": true,
    "hp": {
      "max": 10,
      "value": 10
    },
    "broken": false,
    "hardness": 0,
    "carried": true,
    "unidentified": {
      "price": 0,
      "name": ""
    },
    "cl": 0,
    "aura": {
      "custom": false,
      "school": ""
    },
    "inventoryItems": [],
    "maxWeight": null,
    "weightReduction": 0,
    "sellMultiplier": 0.5,
    "currency": {
      "pp": 0,
      "gp": 0,
      "sp": 0,
      "cp": 0
    },
    "flags": {
      "boolean": {},
      "dictionary": {
        "Category": "Kits"
      }
    },
    "uses": {
      "value": 0,
      "max": 0
    }
  },
  "ownership": {
    "default": 0
  },
  "_stats": {
    "systemId": "pf1",
    "systemVersion": "9.1",
    "coreVersion": "10.291",
    "createdTime": 1665428368233,
    "modifiedTime": 1689793677199,
    "lastModifiedBy": "ppv91YxratjWnkJi"
  },
  "effects": [],
  "folder": null,
  "sort": 0,
  "flags": {},
  "_key": "!items!yY0xXxmiZsGhMHbC"
}