{
  "_id": "ZyUFtul185L6XFIe",
  "name": "Kit, Spy's",
  "type": "container",
  "img": "icons/containers/chest/chest-reinforced-stone.webp",
  "system": {
    "description": {
      "value": "<h1 class=\"title\"><img src=\"modules/pf-content/assets/PathfinderSocietySymbol.gif\" style=\"margin:3px 3px 0px 3px;\" title=\"PFS Legal\"/> Spy's kit</h1><b>Source</b> <em>Heroes of the Streets pg. 13</em><br/><b>Price</b> 140 gp; <b>Weight</b> 12-1/2 lbs.<br/><b>Category</b> Kits<h3 class=\"framing\">Description</h3><p>This kit includes a book of letters<sup>UE</sup>, a disguise kit, a hollow-heeled boot (see above), ink (1 vial), an inkpen, paper (10 sheets), a poison pill ring<sup>UE</sup> (signet ring), sealing wax, simple invisible ink<sup>UE</sup> (3 vials), and a wrist sheath<sup>UE</sup>.</p>",
      "unidentified": ""
    },
    "tags": [],
    "quantity": 1,
    "weight": {
      "value": 12.5
    },
    "price": 0,
    "size": "med",
    "equipped": true,
    "resizing": false,
    "identified": true,
    "hp": {
      "max": 10,
      "value": 10
    },
    "broken": false,
    "hardness": 0,
    "carried": true,
    "unidentified": {
      "price": 0,
      "name": ""
    },
    "cl": 0,
    "aura": {
      "custom": false,
      "school": ""
    },
    "inventoryItems": [],
    "maxWeight": null,
    "weightReduction": 0,
    "sellMultiplier": 0.5,
    "currency": {
      "pp": 0,
      "gp": 0,
      "sp": 0,
      "cp": 0
    },
    "flags": {
      "boolean": {},
      "dictionary": {
        "Category": "Kits"
      }
    },
    "uses": {
      "value": 0,
      "max": 0
    }
  },
  "ownership": {
    "default": 0
  },
  "_stats": {
    "systemId": "pf1",
    "systemVersion": "9.1",
    "coreVersion": "10.291",
    "createdTime": 1665428367256,
    "modifiedTime": 1689793674863,
    "lastModifiedBy": "ppv91YxratjWnkJi"
  },
  "effects": [],
  "folder": null,
  "sort": 0,
  "flags": {},
  "_key": "!items!ZyUFtul185L6XFIe"
}