{
  "_id": "rpyKZKJP531WNQpk",
  "name": "Kit, Mystic guide package",
  "type": "container",
  "img": "icons/containers/chest/chest-reinforced-stone.webp",
  "system": {
    "description": {
      "value": "<h1 class=\"title\"><img src=\"modules/pf-content/assets/PathfinderSocietySymbol.gif\" style=\"margin:3px 3px 0px 3px;\" title=\"PFS Legal\"/> Mystic guide package</h1><b>Source</b> <em>Adventurer's Armory 2 pg. 5</em><br/><b>Price</b> 1000 gp; <b>Weight</b> 67 lbs.<br/><b>Category</b> Kits<h3 class=\"framing\">Description</h3><p>This equipment package is designed to provide the most aid to divine casters, such as clerics, druids, oracles<sup>APG</sup>, and inquisitors<sup>APG</sup>, who prefer to help their companions from behind the front lines of a fight. <br/><b>Armor</b>: Leather armor, light wooden shield. <br/><b>Weapons</b>: Shortspear, sling with 10 bullets. <br/><b>Combat Gear</b>: Antitoxin, bead of blessing (as a <i>lesser strand of prayer beads</i> without the bead of healing), holy water (2), <i>scrolls of cure light wounds</i> (2), <i>scroll of endure elements</i>. <br/><b>Other Gear</b>: Backpack, bedroll, belt pouch, candles (5), chalk (5 pieces), flint and steel, healer's kit, holy symbol (silver), ioun torch<sup>UE</sup>, mess kit<sup>UE</sup>, mirror, sack, shovel, silk rope (50 ft.), smelling salts<sup>UE</sup>, soap, spell component pouch, trail rations (5 days), waterskin, 4 sp. <br/><b>Total Weight</b>: 67 lbs. (39-1/4 lbs. for a Small character).</p>",
      "unidentified": ""
    },
    "tags": [],
    "quantity": 1,
    "weight": {
      "value": 67
    },
    "price": 0,
    "size": "med",
    "equipped": true,
    "resizing": false,
    "identified": true,
    "hp": {
      "max": 10,
      "value": 10
    },
    "broken": false,
    "hardness": 0,
    "carried": true,
    "unidentified": {
      "price": 0,
      "name": ""
    },
    "cl": 0,
    "aura": {
      "custom": false,
      "school": ""
    },
    "inventoryItems": [],
    "maxWeight": null,
    "weightReduction": 0,
    "sellMultiplier": 0.5,
    "currency": {
      "pp": 0,
      "gp": 0,
      "sp": 0,
      "cp": 0
    },
    "flags": {
      "boolean": {},
      "dictionary": {
        "Category": "Kits"
      }
    },
    "uses": {
      "value": 0,
      "max": 0
    }
  },
  "ownership": {
    "default": 0
  },
  "_stats": {
    "systemId": "pf1",
    "systemVersion": "9.1",
    "coreVersion": "10.291",
    "createdTime": 1665428368056,
    "modifiedTime": 1689793676856,
    "lastModifiedBy": "ppv91YxratjWnkJi"
  },
  "effects": [],
  "folder": null,
  "sort": 0,
  "flags": {},
  "_key": "!items!rpyKZKJP531WNQpk"
}