{
  "_id": "ypMob0yIWm0AIgqN",
  "name": "Kit, Trapper's",
  "type": "container",
  "img": "icons/containers/chest/chest-simple-box-red.webp",
  "system": {
    "description": {
      "value": "<h1 class=\"title\"><img src=\"modules/pf-content/assets/PathfinderSocietySymbol.gif\" style=\"margin:3px 3px 0px 3px;\" title=\"PFS Legal\"/> Trapper's kit</h1><b>Source</b> <em>Dungeoneer's Handbook pg. 7</em><br/><b>Price</b> 263 gp; <b>Weight</b> 90 lbs.<br/><b>Category</b> Kits<h3 class=\"framing\">Description</h3><p>This kit is particularly useful for dungeon explorers who specialize in trapping or taming whatever vile quarry they find. A trapper's kit contains an average lock, a bear trap<sup>APG</sup>, a container of bone paste (see page 26), a Small cage<sup>APG</sup>, a set of manacles, a bag of marbles<sup>APG</sup>, 50 feet of silk rope, two tanglefoot bags, 50 feet of twine<sup>APG</sup>, and a wire<sup>UE</sup>.</p>",
      "unidentified": ""
    },
    "tags": [],
    "quantity": 1,
    "weight": {
      "value": 90
    },
    "price": 0,
    "size": "med",
    "equipped": true,
    "resizing": false,
    "identified": true,
    "hp": {
      "max": 10,
      "value": 10
    },
    "broken": false,
    "hardness": 0,
    "carried": true,
    "unidentified": {
      "price": 0,
      "name": ""
    },
    "cl": 0,
    "aura": {
      "custom": false,
      "school": ""
    },
    "inventoryItems": [],
    "maxWeight": null,
    "weightReduction": 0,
    "sellMultiplier": 0.5,
    "currency": {
      "pp": 0,
      "gp": 0,
      "sp": 0,
      "cp": 0
    },
    "flags": {
      "boolean": {},
      "dictionary": {
        "Category": "Kits"
      }
    },
    "uses": {
      "value": 0,
      "max": 0
    }
  },
  "ownership": {
    "default": 0
  },
  "_stats": {
    "systemId": "pf1",
    "systemVersion": "9.1",
    "coreVersion": "10.291",
    "createdTime": 1665428368241,
    "modifiedTime": 1689793677222,
    "lastModifiedBy": "ppv91YxratjWnkJi"
  },
  "effects": [],
  "folder": null,
  "sort": 0,
  "flags": {},
  "_key": "!items!ypMob0yIWm0AIgqN"
}