{
  "_id": "U6cI0ak8e4eW0QJt",
  "name": "Kit, Slayer's",
  "type": "container",
  "img": "icons/containers/chest/chest-reinforced-steel-red.webp",
  "system": {
    "description": {
      "value": "<h1 class=\"title\"><img src=\"modules/pf-content/assets/PathfinderSocietySymbol.gif\" style=\"margin:3px 3px 0px 3px;\" title=\"PFS Legal\"/> Slayer's kit</h1><b>Source</b> <em>Advanced Class Guide pg. 205</em><br/><b>Price</b> 22 gp; <b>Weight</b> 43-1/2 lbs.<br/><b>Category</b> Kits<h3 class=\"framing\">Description</h3><p>This kit includes a backpack, a bedroll, a belt pouch, a flint and steel, an iron pot, manacles, a mess kit<sup>UE</sup>, rope, torches (10), trail rations (5 days), and a waterskin.</p>",
      "unidentified": ""
    },
    "tags": [],
    "quantity": 1,
    "weight": {
      "value": 43.5
    },
    "price": 0,
    "size": "med",
    "equipped": true,
    "resizing": false,
    "identified": true,
    "hp": {
      "max": 10,
      "value": 10
    },
    "broken": false,
    "hardness": 0,
    "carried": true,
    "unidentified": {
      "price": 0,
      "name": ""
    },
    "cl": 0,
    "aura": {
      "custom": false,
      "school": ""
    },
    "inventoryItems": [],
    "maxWeight": null,
    "weightReduction": 0,
    "sellMultiplier": 0.5,
    "currency": {
      "pp": 0,
      "gp": 0,
      "sp": 0,
      "cp": 0
    },
    "flags": {
      "boolean": {},
      "dictionary": {
        "Category": "Kits"
      }
    },
    "uses": {
      "value": 0,
      "max": 0
    }
  },
  "ownership": {
    "default": 0
  },
  "_stats": {
    "systemId": "pf1",
    "systemVersion": "9.1",
    "coreVersion": "10.291",
    "createdTime": 1665428366916,
    "modifiedTime": 1689793674155,
    "lastModifiedBy": "ppv91YxratjWnkJi"
  },
  "effects": [],
  "folder": null,
  "sort": 0,
  "flags": {},
  "_key": "!items!U6cI0ak8e4eW0QJt"
}