{
  "_id": "AB9EymnKuxPCqRF0",
  "name": "Kit, Tropical",
  "type": "container",
  "img": "icons/containers/chest/chest-simple-box-red.webp",
  "system": {
    "description": {
      "value": "<h1 class=\"title\"><img src=\"modules/pf-content/assets/PathfinderSocietySymbol.gif\" style=\"margin:3px 3px 0px 3px;\" title=\"PFS Legal\"/> Tropical kit</h1><b>Source</b> <em>Heroes of the Wild pg. 9</em><br/><b>Price</b> 120 gp; <b>Weight</b> 6 lbs.<br/><b>Category</b> Kits<h3 class=\"framing\">Description</h3><p>This kit is intended for hot and moist environments such as jungles and warm marshes. It includes 1 dose each of antiplague<sup>UE</sup> and antitoxin, five fishhooks, a hammock<sup>UE</sup>, a kukri, 1 dose of vermin repellent<sup>UE</sup>, and a water purification sponge<sup>UE</sup>.</p>",
      "unidentified": ""
    },
    "tags": [],
    "quantity": 1,
    "weight": {
      "value": 6
    },
    "price": 0,
    "size": "med",
    "equipped": true,
    "resizing": false,
    "identified": true,
    "hp": {
      "max": 10,
      "value": 10
    },
    "broken": false,
    "hardness": 0,
    "carried": true,
    "unidentified": {
      "price": 0,
      "name": ""
    },
    "cl": 0,
    "aura": {
      "custom": false,
      "school": ""
    },
    "inventoryItems": [],
    "maxWeight": null,
    "weightReduction": 0,
    "sellMultiplier": 0.5,
    "currency": {
      "pp": 0,
      "gp": 0,
      "sp": 0,
      "cp": 0
    },
    "flags": {
      "boolean": {},
      "dictionary": {
        "Category": "Kits"
      }
    },
    "uses": {
      "value": 0,
      "max": 0
    }
  },
  "ownership": {
    "default": 0
  },
  "_stats": {
    "systemId": "pf1",
    "systemVersion": "9.1",
    "coreVersion": "10.291",
    "createdTime": 1665428365988,
    "modifiedTime": 1689793672067,
    "lastModifiedBy": "ppv91YxratjWnkJi"
  },
  "effects": [],
  "folder": null,
  "sort": 0,
  "flags": {},
  "_key": "!items!AB9EymnKuxPCqRF0"
}