{
  "_id": "arFCbwq3axLi9bEp",
  "name": "Kit, Grooming",
  "type": "container",
  "img": "icons/containers/chest/chest-simple-box-red.webp",
  "system": {
    "description": {
      "value": "<p><strong>Source</strong>&nbsp;<em>Ultimate Equipment pg. 57</em><br /><strong>Price</strong>&nbsp;1 gp;&nbsp;<strong>Weight</strong>&nbsp;2 lbs.<br /><strong>Category</strong>&nbsp;Adventuring Gear</p>\n<h2 class=\"framing\"><img style=\"margin: 3px 3px 0px 3px;\" title=\"PFS Legal\" src=\"modules/pf-content/assets/PathfinderSocietySymbol.gif\" />Description</h2>\n<p>This pouch of toiletries includes a comb, scissors, a nail file, a sponge, a hairbrush, a miniature mirror, soap, a chewing stick, and tooth powder.</p>",
      "unidentified": ""
    },
    "tags": [],
    "quantity": 1,
    "weight": {
      "value": 2
    },
    "price": 1,
    "size": "med",
    "equipped": true,
    "resizing": false,
    "identified": true,
    "hp": {
      "max": 10,
      "value": 10
    },
    "broken": false,
    "hardness": 0,
    "carried": true,
    "unidentified": {
      "price": 0,
      "name": ""
    },
    "cl": 0,
    "aura": {
      "custom": false,
      "school": ""
    },
    "inventoryItems": [],
    "maxWeight": null,
    "weightReduction": 0,
    "sellMultiplier": 0.5,
    "currency": {
      "pp": 0,
      "gp": 0,
      "sp": 0,
      "cp": 0
    },
    "flags": {
      "boolean": {},
      "dictionary": {}
    },
    "tag": "kitGrooming",
    "subType": "gear",
    "uses": {
      "value": 0,
      "max": 0
    }
  },
  "ownership": {
    "default": 0
  },
  "_stats": {
    "systemId": "pf1",
    "systemVersion": "9.1",
    "coreVersion": "10.291",
    "createdTime": 1665428367279,
    "modifiedTime": 1689793674943,
    "lastModifiedBy": "ppv91YxratjWnkJi"
  },
  "effects": [],
  "folder": null,
  "sort": 0,
  "flags": {},
  "_key": "!items!arFCbwq3axLi9bEp"
}