{
  "_id": "DUf9th922i93yVVc",
  "name": "Kit, Campsite",
  "type": "container",
  "img": "icons/containers/chest/chest-simple-box-red.webp",
  "system": {
    "description": {
      "value": "<h1 class=\"title\"><img src=\"modules/pf-content/assets/PathfinderSocietySymbol.gif\" style=\"margin:3px 3px 0px 3px;\" title=\"PFS Legal\"/> Campsite kit</h1><b>Source</b> <em>Ultimate Equipment pg. 56</em><br/><b>Price</b>  12 gp; <b>Weight</b>  80 lbs.<br/><b>Category</b> Kits<h3 class=\"framing\">Description</h3><p>This kit is actually four bundles of gear, designed so four individuals can share the load. It consists of four bedrolls, four blankets, a day's worth of firewood, a flint and steel, a tindertwig, four mess kits, a cooking kit, and 8 days of trail rations (with the expectation that adventurers will supplement the rations with a little hunting as they travel). Adventurers expecting inclement weather should also purchase one or more tents.</p>",
      "unidentified": ""
    },
    "tags": [],
    "quantity": 1,
    "weight": {
      "value": 80
    },
    "price": 0,
    "size": "med",
    "equipped": true,
    "resizing": false,
    "identified": true,
    "hp": {
      "max": 10,
      "value": 10
    },
    "broken": false,
    "hardness": 0,
    "carried": true,
    "unidentified": {
      "price": 0,
      "name": ""
    },
    "cl": 0,
    "aura": {
      "custom": false,
      "school": ""
    },
    "inventoryItems": [],
    "maxWeight": null,
    "weightReduction": 0,
    "sellMultiplier": 0.5,
    "currency": {
      "pp": 0,
      "gp": 0,
      "sp": 0,
      "cp": 0
    },
    "flags": {
      "boolean": {},
      "dictionary": {
        "Category": "Kits"
      }
    },
    "uses": {
      "value": 0,
      "max": 0
    }
  },
  "ownership": {
    "default": 0
  },
  "_stats": {
    "systemId": "pf1",
    "systemVersion": "9.1",
    "coreVersion": "10.291",
    "createdTime": 1665428366278,
    "modifiedTime": 1689793672690,
    "lastModifiedBy": "ppv91YxratjWnkJi"
  },
  "effects": [],
  "folder": null,
  "sort": 0,
  "flags": {},
  "_key": "!items!DUf9th922i93yVVc"
}