{
  "_id": "5qmSNEhMEhhl6uNN",
  "name": "Kit, Questing knight package",
  "type": "container",
  "img": "icons/containers/chest/chest-reinforced-stone.webp",
  "system": {
    "description": {
      "value": "<h1 class=\"title\"><img src=\"modules/pf-content/assets/PathfinderSocietySymbol.gif\" style=\"margin:3px 3px 0px 3px;\" title=\"PFS Legal\"/> Questing knight package</h1><b>Source</b> <em>Adventurer's Armory 2 pg. 5</em><br/><b>Price</b> 1000 gp; <b>Weight</b> 127 1/2 lbs.<br/><b>Category</b> Kits<h3 class=\"framing\">Description</h3><p>If not descended from nobility, the questing knight certainly looks like he fits the part. This equipment package is useful for cavaliers<sup>APG</sup>, fighters, and paladins. If the PC can cast spells, add a spell component pouch and a holy symbol (if required). If the PC gains a mount from a class feature, remove the horse from the list below and replace the lance with a masterwork lance. <br/><b>Armor</b>: Half-plate, heavy wooden shield. <br/><b>Weapons</b>: Javelins (4), lance, longsword. <br/><b>Combat Gear</b>: Sunrods (2). <br/><b>Other Gear</b>: Backpack, banner, bedroll, belt pouch, flask, flint and steel, mess kit<sup>UE</sup>, pole (10 ft.), sack, shovel, signet ring, silk rope (50 ft.), trail rations (5 days), waterskin, whetstone, 8 gp. Mount: Heavy horse (combat trained) with bit and bridle, military saddle, and saddlebags. <br/><b>Total Weight</b>: 127-1/2 lbs. (73-3/4 lbs. for a Small character).</p>",
      "unidentified": ""
    },
    "tags": [],
    "quantity": 1,
    "weight": {
      "value": 127.5
    },
    "price": 0,
    "size": "med",
    "equipped": true,
    "resizing": false,
    "identified": true,
    "hp": {
      "max": 10,
      "value": 10
    },
    "broken": false,
    "hardness": 0,
    "carried": true,
    "unidentified": {
      "price": 0,
      "name": ""
    },
    "cl": 0,
    "aura": {
      "custom": false,
      "school": ""
    },
    "inventoryItems": [],
    "maxWeight": null,
    "weightReduction": 0,
    "sellMultiplier": 0.5,
    "currency": {
      "pp": 0,
      "gp": 0,
      "sp": 0,
      "cp": 0
    },
    "flags": {
      "boolean": {},
      "dictionary": {
        "Category": "Kits"
      }
    },
    "uses": {
      "value": 0,
      "max": 0
    }
  },
  "ownership": {
    "default": 0
  },
  "_stats": {
    "systemId": "pf1",
    "systemVersion": "9.1",
    "coreVersion": "10.291",
    "createdTime": 1665428365838,
    "modifiedTime": 1689793671620,
    "lastModifiedBy": "ppv91YxratjWnkJi"
  },
  "effects": [],
  "folder": null,
  "sort": 0,
  "flags": {},
  "_key": "!items!5qmSNEhMEhhl6uNN"
}