{
  "_id": "lN9DqgCswrkdNFZB",
  "name": "Kit, Gambler's",
  "type": "container",
  "img": "icons/containers/chest/chest-simple-box-red.webp",
  "system": {
    "description": {
      "value": "<h1 class=\"title\">Gambler's kit</h1><b>Source</b> <em>Ultimate Equipment pg. 56</em><br/><b>Price</b> <img src=\"modules/pf-content/assets/PathfinderSocietySymbol.gif\" style=\"margin:3px 3px 0px 3px;\" title=\"PFS Legal\"/>   300 gp (cheating), <img src=\"modules/pf-content/assets/PathfinderSocietySymbol.gif\" style=\"margin:3px 3px 0px 3px;\" title=\"PFS Legal\"/>   75 gp (common); <b>Weight</b>  5 lbs. (cheating),  5 lbs. (common)<h3 class=\"framing\">Description</h3><p>Particularly useful for travelers moving through areas too small or remote to support a full-time place for gambling, this small, tightly packed suitcase holds decks of cards, a betting wheel, numbered cloths, colored wooden chips, and a wide variety of other sorts of specialized equipment necessary for many different games of chance. A cheating gambler's kit is very similar, except its cards are marked and its games are rigged, giving a knowledgeable user a +4 circumstance bonus on Profession (gambler) checks when using these materials. A DC 25 Perception or DC 20 Profession (gambler) check exposes the ruse.</p>",
      "unidentified": ""
    },
    "tags": [],
    "quantity": 1,
    "weight": {
      "value": 5
    },
    "price": 0,
    "size": "med",
    "equipped": true,
    "resizing": false,
    "identified": true,
    "hp": {
      "max": 10,
      "value": 10
    },
    "broken": false,
    "hardness": 0,
    "carried": true,
    "unidentified": {
      "price": 0,
      "name": ""
    },
    "cl": 0,
    "aura": {
      "custom": false,
      "school": ""
    },
    "inventoryItems": [],
    "maxWeight": null,
    "weightReduction": 0,
    "sellMultiplier": 0.5,
    "currency": {
      "pp": 0,
      "gp": 0,
      "sp": 0,
      "cp": 0
    },
    "flags": {
      "boolean": {},
      "dictionary": {
        "Category": "Kits"
      }
    },
    "uses": {
      "value": 0,
      "max": 0
    }
  },
  "ownership": {
    "default": 0
  },
  "_stats": {
    "systemId": "pf1",
    "systemVersion": "9.1",
    "coreVersion": "10.291",
    "createdTime": 1665428367712,
    "modifiedTime": 1689793675955,
    "lastModifiedBy": "ppv91YxratjWnkJi"
  },
  "effects": [],
  "folder": null,
  "sort": 0,
  "flags": {},
  "_key": "!items!lN9DqgCswrkdNFZB"
}