{
  "_id": "vujximJGctTIX08V",
  "name": "Kit, Taxidermy tools",
  "type": "container",
  "img": "icons/containers/chest/chest-simple-box-red.webp",
  "system": {
    "description": {
      "value": "<h1 class=\"title\"><img src=\"modules/pf-content/assets/PathfinderSocietySymbol.gif\" style=\"margin:3px 3px 0px 3px;\" title=\"PFS Legal\"/> Taxidermy tools</h1><b>Source</b> <em>Monster Hunter's Handbook pg. 27</em><br/><b>Price</b> 80 gp; <b>Weight</b> 10 lbs.<br/><b>Category</b> Kits<h3 class=\"framing\">Description</h3><p>This kit consists of hooks, knives, tweezers, and other metal tools, plus various vials of alchemical preservatives, all organized within a sturdy satchel. The tools provide a +2 circumstance bonus on skill checks made to harvest parts or craft trophies and to craft magic items that incorporate such things. Crafted ornaments and parts harvested using taxidermy tools remain potent for twice their usual duration.</p>",
      "unidentified": ""
    },
    "tags": [],
    "quantity": 1,
    "weight": {
      "value": 10
    },
    "price": 0,
    "size": "med",
    "equipped": true,
    "resizing": false,
    "identified": true,
    "hp": {
      "max": 10,
      "value": 10
    },
    "broken": false,
    "hardness": 0,
    "carried": true,
    "unidentified": {
      "price": 0,
      "name": ""
    },
    "cl": 0,
    "aura": {
      "custom": false,
      "school": ""
    },
    "inventoryItems": [],
    "maxWeight": null,
    "weightReduction": 0,
    "sellMultiplier": 0.5,
    "currency": {
      "pp": 0,
      "gp": 0,
      "sp": 0,
      "cp": 0
    },
    "flags": {
      "boolean": {},
      "dictionary": {
        "Category": "Kits"
      }
    },
    "uses": {
      "value": 0,
      "max": 0
    }
  },
  "ownership": {
    "default": 0
  },
  "_stats": {
    "systemId": "pf1",
    "systemVersion": "9.1",
    "coreVersion": "10.291",
    "createdTime": 1665428368168,
    "modifiedTime": 1689793677069,
    "lastModifiedBy": "ppv91YxratjWnkJi"
  },
  "effects": [],
  "folder": null,
  "sort": 0,
  "flags": {},
  "_key": "!items!vujximJGctTIX08V"
}