{
  "_id": "nwffOKX6zfggkfKt",
  "name": "Kit, Arcane adept package",
  "type": "container",
  "img": "icons/containers/chest/chest-reinforced-stone.webp",
  "system": {
    "description": {
      "value": "<h1 class=\"title\"><img src=\"modules/pf-content/assets/PathfinderSocietySymbol.gif\" style=\"margin:3px 3px 0px 3px;\" title=\"PFS Legal\"/> Arcane adept package</h1><b>Source</b> <em>Adventurer's Armory 2 pg. 4</em><br/><b>Price</b> 1000 gp; <b>Weight</b> 45 lbs.<br/><b>Category</b> Kits<h3 class=\"framing\">Description</h3><p>The arcane adept has collected useful magical gear to ensure her success on her adventures, and she prides herself on having just the right tool for the job. This equipment package is appropriate for an arcanist<sup>ACG</sup>, sorcerer, witch<sup>APG</sup>, or wizard. Some bards and summoners<sup>APG</sup> might also find it attractive. This equipment package can also work for a magus<sup>UM</sup> if the 1st-level scrolls and wand are replaced with a masterwork melee weapon. <br/><b>Weapons</b>: Light crossbow with 10 bolts, quarterstaff. <br/><b>Combat Gear</b>: Acid (2), <i>scrolls of comprehend languages</i> (2), <i>scroll of detect secret doors</i>, <i>scroll of glitterdust</i>, <i>scrolls of identify</i> (2), <i>scroll of mount</i>, <i>scroll of rope trick</i>, thunderstone, <i>wand of mage armor</i> (16 charges). <br/><b>Other Gear</b>: Backpack, bedroll, belt pouch, candles (5), chalk (5 pieces), flint and steel, ink, inkpen, ioun torch<sup>UE</sup>, journal<sup>UE</sup>, magnifying glass, mess kit<sup>UE</sup>, scroll box<sup>UE</sup>, silk rope (50 ft.), spell component pouch, trail rations (5 days), waterskin, 3 gp. <br/><b>Total Weight</b>: 45 lbs. (28-3/4 lbs. for a Small character).</p>",
      "unidentified": ""
    },
    "tags": [],
    "quantity": 1,
    "weight": {
      "value": 45
    },
    "price": 0,
    "size": "med",
    "equipped": true,
    "resizing": false,
    "identified": true,
    "hp": {
      "max": 10,
      "value": 10
    },
    "broken": false,
    "hardness": 0,
    "carried": true,
    "unidentified": {
      "price": 0,
      "name": ""
    },
    "cl": 0,
    "aura": {
      "custom": false,
      "school": ""
    },
    "inventoryItems": [],
    "maxWeight": null,
    "weightReduction": 0,
    "sellMultiplier": 0.5,
    "currency": {
      "pp": 0,
      "gp": 0,
      "sp": 0,
      "cp": 0
    },
    "flags": {
      "boolean": {},
      "dictionary": {
        "Category": "Kits"
      }
    },
    "uses": {
      "value": 0,
      "max": 0
    }
  },
  "ownership": {
    "default": 0
  },
  "_stats": {
    "systemId": "pf1",
    "systemVersion": "9.1",
    "coreVersion": "10.291",
    "createdTime": 1665428367777,
    "modifiedTime": 1689793676247,
    "lastModifiedBy": "ppv91YxratjWnkJi"
  },
  "effects": [],
  "folder": null,
  "sort": 0,
  "flags": {},
  "_key": "!items!nwffOKX6zfggkfKt"
}