{
  "_id": "fk2KnO1rGXgSXtwP",
  "name": "Kit, Cooking",
  "type": "container",
  "img": "icons/containers/chest/chest-simple-box-red.webp",
  "system": {
    "description": {
      "value": "<h1 class=\"title\"><img src=\"modules/pf-content/assets/PathfinderSocietySymbol.gif\" style=\"margin:3px 3px 0px 3px;\" title=\"PFS Legal\"/> Cooking kit</h1><b>Source</b> <em>Ultimate Equipment pg. 56</em>, <em>Adventurer's Armory pg. 19</em><br/><b>Price</b>  3 gp; <b>Weight</b>  16 lbs.<br/><b>Category</b> Kits<h3 class=\"framing\">Description</h3><p>This kit contains an iron pot, an iron skillet, a ladle, a skewer, a wooden cutting board, a cutting knife, an iron tripod for the pot, a packet of tinder, and a small selection of local or otherwise easy to find seasonings. You can attach the skewer to the tripod for roasting small game animals. All the component pieces (except the skillet) fit within the pot for easy storage and transport.</p>",
      "unidentified": ""
    },
    "tags": [],
    "quantity": 1,
    "weight": {
      "value": 16
    },
    "price": 0,
    "size": "med",
    "equipped": true,
    "resizing": false,
    "identified": true,
    "hp": {
      "max": 10,
      "value": 10
    },
    "broken": false,
    "hardness": 0,
    "carried": true,
    "unidentified": {
      "price": 0,
      "name": ""
    },
    "cl": 0,
    "aura": {
      "custom": false,
      "school": ""
    },
    "inventoryItems": [],
    "maxWeight": null,
    "weightReduction": 0,
    "sellMultiplier": 0.5,
    "currency": {
      "pp": 0,
      "gp": 0,
      "sp": 0,
      "cp": 0
    },
    "flags": {
      "boolean": {},
      "dictionary": {
        "Category": "Kits"
      }
    },
    "uses": {
      "value": 0,
      "max": 0
    }
  },
  "ownership": {
    "default": 0
  },
  "_stats": {
    "systemId": "pf1",
    "systemVersion": "9.1",
    "coreVersion": "10.291",
    "createdTime": 1665428367565,
    "modifiedTime": 1689793675535,
    "lastModifiedBy": "ppv91YxratjWnkJi"
  },
  "effects": [],
  "folder": null,
  "sort": 0,
  "flags": {},
  "_key": "!items!fk2KnO1rGXgSXtwP"
}