{
  "_id": "ustBsViPZozoiiKY",
  "name": "Kit, Seance",
  "type": "container",
  "img": "icons/containers/chest/chest-simple-box-red.webp",
  "system": {
    "description": {
      "value": "<h1 class=\"title\"><img src=\"modules/pf-content/assets/PathfinderSocietySymbol.gif\" style=\"margin:3px 3px 0px 3px;\" title=\"PFS Legal\"/> Seance kit</h1><b>Source</b> <em>Undead Slayer's Handbook pg. 13</em><br/><b>Price</b> 290 gp; <b>Weight</b> 12 lbs.<br/><b>Category</b> Kits<h3 class=\"framing\">Description</h3><p>This stained mahogany box contains tools that aid in contacting supernatural beings either as part of an act or a genuine ritual. This kit includes a nonmagical spirit planchette set (see <i>Pathfinder Adventure Path #43: The Haunting of Harrowstone </i>19, or treat as a board game<sup>UE</sup> worth 25 gp), 10 candles, 10 candlesticks<sup>UE</sup>, one entertainer's outfit, one harrow deck<sup>UE</sup>, one magnet<sup>UE</sup>, 10 sticks of incense<sup>ARG</sup>, one <i>scroll of augury</i>, and two <i>scrolls of prestidigitation</i>.</p>",
      "unidentified": ""
    },
    "tags": [],
    "quantity": 1,
    "weight": {
      "value": 12
    },
    "price": 0,
    "size": "med",
    "equipped": true,
    "resizing": false,
    "identified": true,
    "hp": {
      "max": 10,
      "value": 10
    },
    "broken": false,
    "hardness": 0,
    "carried": true,
    "unidentified": {
      "price": 0,
      "name": ""
    },
    "cl": 0,
    "aura": {
      "custom": false,
      "school": ""
    },
    "inventoryItems": [],
    "maxWeight": null,
    "weightReduction": 0,
    "sellMultiplier": 0.5,
    "currency": {
      "pp": 0,
      "gp": 0,
      "sp": 0,
      "cp": 0
    },
    "flags": {
      "boolean": {},
      "dictionary": {
        "Category": "Kits"
      }
    },
    "uses": {
      "value": 0,
      "max": 0
    }
  },
  "ownership": {
    "default": 0
  },
  "_stats": {
    "systemId": "pf1",
    "systemVersion": "9.1",
    "coreVersion": "10.291",
    "createdTime": 1665428368139,
    "modifiedTime": 1689793677017,
    "lastModifiedBy": "ppv91YxratjWnkJi"
  },
  "effects": [],
  "folder": null,
  "sort": 0,
  "flags": {},
  "_key": "!items!ustBsViPZozoiiKY"
}