{
  "_id": "n3dYy51M7kfQJldW",
  "name": "Kit, Midwife's",
  "type": "loot",
  "img": "icons/containers/chest/chest-simple-box-red.webp",
  "system": {
    "description": {
      "value": "<p><strong>Source</strong> <em>Ultimate Equipment pg. 77</em><br/><strong>Price</strong> 10 gp; <strong>Weight</strong> 2 lbs.<br/><strong>Category</strong> Tools</p><h2 class=\"framing\"><img src=\"modules/pf-content/assets/PathfinderSocietySymbol.gif\" style=\"margin:3px 3px 0px 3px;\" title=\"PFS Legal\"/>Description</h2><p>This kit is used by midwives to care for pregnant women and to deliver babies. Each kit contains herbs to treat common conditions during pregnancy, salves for aches and distended skin, swaddling cloths, a small but sharp knife for cutting an umbilical cord, powder for cleaning the newborn, bandages, a needle, and thread. Using the kit gives you a +4 circumstance bonus on Heal checks when dealing with humanoid pregnancy or birth. You may use it for other kinds pregnant or birthing creatures (such as animals or monstrous humanoids), but it only gives a +2 bonus on such Heal checks. A midwife's kit is exhausted after 10 uses.</p>",
      "unidentified": ""
    },
    "tags": [],
    "quantity": 1,
    "weight": {
      "value": 2
    },
    "price": 10,
    "size": "med",
    "equipped": false,
    "resizing": false,
    "identified": true,
    "hp": {
      "max": 10,
      "value": 10
    },
    "broken": false,
    "hardness": 0,
    "carried": true,
    "unidentified": {
      "price": 0,
      "name": ""
    },
    "cl": 0,
    "aura": {
      "custom": false,
      "school": ""
    },
    "changes": [],
    "changeFlags": {
      "loseDexToAC": false,
      "noEncumbrance": false,
      "mediumArmorFullSpeed": false,
      "heavyArmorFullSpeed": false
    },
    "contextNotes": [],
    "links": {
      "children": []
    },
    "tag": "kitMidwifes",
    "useCustomTag": false,
    "flags": {
      "boolean": {},
      "dictionary": {
        "Category": "Tools"
      }
    },
    "scriptCalls": [],
    "subType": "gear",
    "extraType": "",
    "uses": {
      "value": 0,
      "max": 0
    }
  },
  "ownership": {
    "default": 0
  },
  "_stats": {
    "systemId": "pf1",
    "systemVersion": "9.1",
    "coreVersion": "10.291",
    "createdTime": 1665428367757,
    "modifiedTime": 1689793676175,
    "lastModifiedBy": "ppv91YxratjWnkJi"
  },
  "effects": [],
  "folder": null,
  "sort": 0,
  "flags": {},
  "_key": "!items!n3dYy51M7kfQJldW"
}