{
  "_id": "qgAKzmQsw6XIqzF1",
  "name": "Kit, Light",
  "type": "container",
  "img": "icons/containers/chest/chest-simple-box-red.webp",
  "system": {
    "description": {
      "value": "<h1 class=\"title\"><img src=\"modules/pf-content/assets/PathfinderSocietySymbol.gif\" style=\"margin:3px 3px 0px 3px;\" title=\"PFS Legal\"/> Light kit</h1><b>Source</b> <em>Undead Slayer's Handbook pg. 11</em><br/><b>Price</b> 170 gp; <b>Weight</b> 6 lbs.<br/><b>Category</b> Kits<h3 class=\"framing\">Description</h3><p>Ideal for use in subterranean environments or in combat against light-averse creatures, this small kit provides ample alchemical and magical sources of illumination. It contains an <i>ioun torch</i><sup>UE</sup>, flash powder<sup>UE</sup>, a pair of sunrods, four torches, and six tindertwigs.</p>",
      "unidentified": ""
    },
    "tags": [],
    "quantity": 1,
    "weight": {
      "value": 6
    },
    "price": 0,
    "size": "med",
    "equipped": true,
    "resizing": false,
    "identified": true,
    "hp": {
      "max": 10,
      "value": 10
    },
    "broken": false,
    "hardness": 0,
    "carried": true,
    "unidentified": {
      "price": 0,
      "name": ""
    },
    "cl": 0,
    "aura": {
      "custom": false,
      "school": ""
    },
    "inventoryItems": [],
    "maxWeight": null,
    "weightReduction": 0,
    "sellMultiplier": 0.5,
    "currency": {
      "pp": 0,
      "gp": 0,
      "sp": 0,
      "cp": 0
    },
    "flags": {
      "boolean": {},
      "dictionary": {
        "Category": "Kits"
      }
    },
    "uses": {
      "value": 0,
      "max": 0
    }
  },
  "ownership": {
    "default": 0
  },
  "_stats": {
    "systemId": "pf1",
    "systemVersion": "9.1",
    "coreVersion": "10.291",
    "createdTime": 1665428368032,
    "modifiedTime": 1689793676791,
    "lastModifiedBy": "ppv91YxratjWnkJi"
  },
  "effects": [],
  "folder": null,
  "sort": 0,
  "flags": {},
  "_key": "!items!qgAKzmQsw6XIqzF1"
}