{
  "_id": "XJREq4gOlraR8cLg",
  "name": "Kit, Trickster's",
  "type": "container",
  "img": "icons/containers/chest/chest-reinforced-stone.webp",
  "system": {
    "description": {
      "value": "<h1 class=\"title\"><img src=\"modules/pf-content/assets/PathfinderSocietySymbol.gif\" style=\"margin:3px 3px 0px 3px;\" title=\"PFS Legal\"/> Trickster's kit</h1><b>Source</b> <em>Dragonslayer's Handbook pg. 7</em><br/><b>Price</b> 474 gp; <b>Weight</b> 23 lbs.<br/><b>Category</b> Kits<h3 class=\"framing\">Description</h3><p>For those brave enough to match wits with draconic intellects,   this kit can help a dragonslayer sneak into or out of a dragon's   lair or trick a dragon should the interloper be discovered.   It includes a pot of alchemical grease<sup>UE</sup>, a board game<sup>UE</sup>, five   candles, a candle lamp<sup>UE</sup>, a common snorkel<sup>UE</sup>, fake footprint   shoes<sup>UE</sup>, a grappling hook, a mirror, a periscope<sup>UE</sup>, a <i>potion of   eagle's splendor</i>, two sacks, a scent cloak<sup>UE</sup>, 50 feet of silk rope,   a smokestick, a dose of sneezing powder<sup>UE</sup>, five tindertwigs, and   50 feet of twine.</p>",
      "unidentified": ""
    },
    "tags": [],
    "quantity": 1,
    "weight": {
      "value": 23
    },
    "price": 0,
    "size": "med",
    "equipped": true,
    "resizing": false,
    "identified": true,
    "hp": {
      "max": 10,
      "value": 10
    },
    "broken": false,
    "hardness": 0,
    "carried": true,
    "unidentified": {
      "price": 0,
      "name": ""
    },
    "cl": 0,
    "aura": {
      "custom": false,
      "school": ""
    },
    "inventoryItems": [],
    "maxWeight": null,
    "weightReduction": 0,
    "sellMultiplier": 0.5,
    "currency": {
      "pp": 0,
      "gp": 0,
      "sp": 0,
      "cp": 0
    },
    "flags": {
      "boolean": {},
      "dictionary": {
        "Category": "Kits"
      }
    },
    "uses": {
      "value": 0,
      "max": 0
    }
  },
  "ownership": {
    "default": 0
  },
  "_stats": {
    "systemId": "pf1",
    "systemVersion": "9.1",
    "coreVersion": "10.291",
    "createdTime": 1665428367175,
    "modifiedTime": 1689793674675,
    "lastModifiedBy": "ppv91YxratjWnkJi"
  },
  "effects": [],
  "folder": null,
  "sort": 0,
  "flags": {},
  "_key": "!items!XJREq4gOlraR8cLg"
}