{
  "_id": "GzemsUbx3RwjG0rM",
  "name": "Lantern Honey",
  "type": "consumable",
  "img": "systems/pf1/icons/items/potions/unique-6.jpg",
  "system": {
    "description": {
      "value": "<p><strong>Source</strong> <em>Adventurer's Guide pg. 114</em><br/><strong>Price</strong> 150 gp; <strong>Weight</strong> -<br/><strong>Category</strong> Alchemical Remedies</p><h2 class=\"framing\"><img src=\"modules/pf-content/assets/PathfinderSocietySymbol.gif\" style=\"margin:3px 3px 0px 3px;\" title=\"PFS Legal\"/>Description</h2><p>This alchemically enhanced honey is typically transported in small, lantern-shaped containers capable of holding up to 3 doses of honey. A single dose of lantern honey functions as normal antitoxin, except that it also provides immunity to drow poison for 1 hour after consumption. </p>",
      "unidentified": ""
    },
    "tags": [],
    "quantity": 1,
    "weight": {
      "value": 0
    },
    "price": 150,
    "size": "med",
    "equipped": true,
    "resizing": false,
    "identified": true,
    "hp": {
      "max": 10,
      "value": 10
    },
    "broken": false,
    "hardness": 0,
    "carried": true,
    "unidentified": {
      "price": 0,
      "name": ""
    },
    "cl": 0,
    "aura": {
      "custom": false,
      "school": ""
    },
    "actions": [],
    "uses": {
      "per": null,
      "value": 0,
      "maxFormula": "",
      "pricePerUse": 0,
      "autoDeductChargesCost": "1"
    },
    "attackNotes": [],
    "effectNotes": [],
    "links": {
      "children": [],
      "charges": []
    },
    "tag": "lanternHoney",
    "useCustomTag": false,
    "flags": {
      "boolean": {},
      "dictionary": {
        "Category": "Alchemical Remedies"
      }
    },
    "scriptCalls": [],
    "subType": "misc",
    "showInQuickbar": false
  },
  "ownership": {
    "default": 0
  },
  "_stats": {
    "systemId": "pf1",
    "systemVersion": "9.1",
    "coreVersion": "10.291",
    "createdTime": 1665428366379,
    "modifiedTime": 1689797914710,
    "lastModifiedBy": "ppv91YxratjWnkJi"
  },
  "effects": [],
  "folder": null,
  "sort": 0,
  "flags": {},
  "_key": "!items!GzemsUbx3RwjG0rM"
}