{
  "_id": "Lxa8scikisxER0pQ",
  "name": "Light Detector",
  "type": "consumable",
  "img": "icons/sundries/lights/lantern-iron-yellow.webp",
  "system": {
    "description": {
      "value": "<p><strong>Source</strong> <em>Ultimate Equipment pg. 103</em>, <em>Advanced Player's Guide pg. 184</em><br/><strong>Price</strong> 1 gp; <strong>Weight</strong> -<br/><strong>Category</strong> Alchemical Tools</p><h2 class=\"framing\"><img src=\"modules/pf-content/assets/PathfinderSocietySymbol.gif\" style=\"margin:3px 3px 0px 3px;\" title=\"PFS Legal\"/>Description</h2><p>This hand-sized metal plate is covered with a thin layer of light-sensitive transparent paste. If exposed to light, the paste darkens and becomes opaque, depending on the amount of light. Bright light causes it to fully darken in 1 round, normal light in 3 rounds, and dim light in 10 rounds. It is mainly used by creatures with darkvision to determine whether creatures carrying light have recently passed through an area. The plate is sold wrapped in a thick black cloth to prevent accidental light exposure from ruining the plate.</p><h2 class=\"framing\">Construction</h2><p><strong>Craft (Alchemy)</strong> DC 10</p>",
      "unidentified": ""
    },
    "tags": [],
    "quantity": 1,
    "weight": {
      "value": 0
    },
    "price": 1,
    "size": "med",
    "equipped": true,
    "resizing": false,
    "identified": true,
    "hp": {
      "max": 10,
      "value": 10
    },
    "broken": false,
    "hardness": 0,
    "carried": true,
    "unidentified": {
      "price": 0,
      "name": ""
    },
    "cl": 0,
    "aura": {
      "custom": false,
      "school": ""
    },
    "actions": [],
    "uses": {
      "per": null,
      "value": 0,
      "maxFormula": "",
      "pricePerUse": 0,
      "autoDeductChargesCost": "1"
    },
    "attackNotes": [],
    "effectNotes": [],
    "links": {
      "children": [],
      "charges": []
    },
    "tag": "lightDetector",
    "useCustomTag": false,
    "flags": {
      "boolean": {},
      "dictionary": {
        "Category": "Alchemical Tools"
      }
    },
    "scriptCalls": [],
    "subType": "misc",
    "showInQuickbar": false
  },
  "ownership": {
    "default": 0
  },
  "_stats": {
    "systemId": "pf1",
    "systemVersion": "9.1",
    "coreVersion": "10.291",
    "createdTime": 1665428366681,
    "modifiedTime": 1689797915700,
    "lastModifiedBy": "ppv91YxratjWnkJi"
  },
  "effects": [],
  "folder": null,
  "sort": 0,
  "flags": {},
  "_key": "!items!Lxa8scikisxER0pQ"
}