{
  "_id": "PJO92M1MFKyUc8C4",
  "name": "Liquid persuasion",
  "type": "consumable",
  "img": "systems/pf1/icons/items/potions/unique-9.jpg",
  "system": {
    "description": {
      "value": "<h3><img src=\"modules/pf-content/assets/PathfinderSocietySymbol.gif\" title=\"PFS Legal\" style=\"margin:3px 3px 0px 3px;\"> Liquid persuasion</h3><p><strong>Source</strong> <em>Alchemy Manual pg. 9</em></p><p><strong>Price</strong> 120 gp; <strong>Weight</strong> 0</p><p><strong>Type</strong> ingested; <strong>Save</strong> Fortitude DC 11</p><p><strong>Onset</strong> 10 minutes; <strong>Frequency</strong> 1/minute for 5 minutes</p><p><strong>Effect</strong> 1 Wis damage, and for the duration of the poison, the next time the victim’s attitude toward another creature would shift one or more steps toward helpful as a result of a successful Diplomacy or Intimidate check or other effect, the victim’s attitude also shifts one additional step. For example, if the victim’s attitude would shift from indifferent to friendly (one step better), it shifts to helpful instead (two steps better)</p><p><strong>Cure</strong> 1 save</p><h3 class=\"framing\">Alchemical Recipe<h3><p><strong>Recipe</strong> (20 dew of lunary + 20 quicksilver + 80 spirit of wine)/distillation; <strong>Craft</strong> DC 11</p><p><strong>Time</strong> 1 day; <strong>Tools</strong> retort; <strong>Type</strong> poison</p>",
      "unidentified": ""
    },
    "tags": [],
    "quantity": 1,
    "weight": {
      "value": 0
    },
    "price": 120,
    "size": "med",
    "equipped": true,
    "resizing": false,
    "identified": true,
    "hp": {
      "max": 10,
      "value": 10
    },
    "broken": false,
    "hardness": 0,
    "carried": true,
    "unidentified": {
      "price": 0,
      "name": ""
    },
    "cl": 0,
    "aura": {
      "custom": false,
      "school": ""
    },
    "actions": [
      {
        "_id": "uc3gva9rpbuguq3r",
        "name": "Use",
        "img": "systems/pf1/icons/items/potions/unique-9.jpg",
        "description": "",
        "tag": "liquidPersuasion",
        "activation": {
          "cost": 1,
          "type": "standard",
          "unchained": {
            "cost": 2,
            "type": "action"
          }
        },
        "duration": {
          "value": null,
          "units": ""
        },
        "target": {
          "value": ""
        },
        "range": {
          "units": "",
          "maxIncrements": 1,
          "minValue": null,
          "minUnits": ""
        },
        "uses": {
          "autoDeductChargesCost": "",
          "self": {
            "value": 0,
            "maxFormula": "",
            "per": null
          },
          "per": "single",
          "value": 0,
          "maxFormula": "",
          "pricePerUse": 0,
          "max": 0
        },
        "measureTemplate": {
          "type": "",
          "size": "",
          "overrideColor": false,
          "customColor": "",
          "overrideTexture": false,
          "customTexture": ""
        },
        "attackName": "",
        "actionType": "save",
        "attackBonus": "",
        "critConfirmBonus": "",
        "damage": {
          "parts": [],
          "critParts": [],
          "nonCritParts": []
        },
        "attackParts": [],
        "formulaicAttacks": {
          "count": {
            "formula": ""
          },
          "bonus": {
            "formula": ""
          },
          "label": null
        },
        "formula": "",
        "ability": {
          "attack": null,
          "damage": "",
          "damageMult": 1,
          "critRange": 20,
          "critMult": 2
        },
        "save": {
          "dc": "11",
          "type": "fort",
          "description": ""
        },
        "effectNotes": [
          "<b>Primary Effect:</b>  [[1]] Wis damage, and for the duration of the poison, the next time the victim’s attitude toward another creature would shift one or more steps toward helpful as a result of a successful Diplomacy or Intimidate check or other effect, the victim’s attitude also shifts one additional step. For example, if the victim’s attitude would shift from indifferent to friendly (one step better), it shifts to helpful instead (two steps better)"
        ],
        "attackNotes": [],
        "soundEffect": "",
        "powerAttack": {
          "multiplier": "",
          "damageBonus": 2,
          "critMultiplier": 1
        },
        "naturalAttack": {
          "primaryAttack": true,
          "secondary": {
            "attackBonus": "-5",
            "damageMult": 0.5
          }
        },
        "nonlethal": false,
        "touch": false,
        "usesAmmo": false,
        "spellEffect": "",
        "spellArea": "",
        "conditionals": [],
        "enh": {
          "value": null
        }
      }
    ],
    "uses": {
      "per": "single",
      "value": 0,
      "maxFormula": "",
      "pricePerUse": 0,
      "autoDeductChargesCost": "1",
      "max": 0
    },
    "attackNotes": [],
    "effectNotes": [],
    "links": {
      "children": [],
      "charges": []
    },
    "tag": "liquidPersuasion",
    "useCustomTag": false,
    "flags": {
      "boolean": {},
      "dictionary": {}
    },
    "scriptCalls": [],
    "subType": "poison",
    "showInQuickbar": false
  },
  "ownership": {
    "default": 0
  },
  "_stats": {
    "systemId": "pf1",
    "systemVersion": "9.1",
    "coreVersion": "10.291",
    "createdTime": 1665428366785,
    "modifiedTime": 1689797916176,
    "lastModifiedBy": "ppv91YxratjWnkJi"
  },
  "effects": [],
  "folder": null,
  "sort": 0,
  "flags": {},
  "_key": "!items!PJO92M1MFKyUc8C4"
}