{
  "_id": "pByaFdX4Ih1Yty0t",
  "name": "Litchina",
  "type": "equipment",
  "img": "icons/equipment/head/mask-carved-wood-white.webp",
  "system": {
    "description": {
      "value": "<p><strong>Source</strong> <em>Distant Shores pg. 63</em><br/><strong>Price</strong> 100 gp; <strong>Weight</strong> 2 lbs.<br/><strong>Category</strong> Clothing</p><h2 class=\"framing\">Description</h2><p>Though Taramai is long dead, and that first Keleshite invasion now little more than scattered stone foundations crumbling amid the grass, his legacy remains a point of great cultural pride among the Kara, with several leaders since having claimed to be his reincarnation. Taramai also pioneered the now-standard Kara practice of wearing the litchina-a metal face mask sculpted to match a given warrior's face, so that the enemy can never read any fear or pain in a Kara's expression. Each warrior must earn his or her litchina in battle, and most Kara would sooner fight naked than go without theirs.<br/><br/> To be worn properly, a litchina must be attached to a helm or headpiece of some sort (usually via small hooks). While worn in this manner, it grants the wearer a +1 competence bonus to Intimidate. A magically enhanced litchina can count as occupying either the head, headband, or eyes slot (determined at the time of item creation). A standard litchina costs 100 gp and weighs 2 pounds.</p>",
      "unidentified": ""
    },
    "tags": [],
    "quantity": 1,
    "weight": {
      "value": 2
    },
    "price": 100,
    "size": "med",
    "equipped": true,
    "resizing": false,
    "identified": true,
    "hp": {
      "max": 10,
      "value": 10
    },
    "broken": false,
    "hardness": 0,
    "carried": true,
    "unidentified": {
      "price": 0,
      "name": ""
    },
    "cl": 0,
    "aura": {
      "custom": false,
      "school": ""
    },
    "changes": [],
    "changeFlags": {
      "loseDexToAC": false,
      "noEncumbrance": false,
      "mediumArmorFullSpeed": false,
      "heavyArmorFullSpeed": false
    },
    "contextNotes": [],
    "actions": [],
    "uses": {
      "per": null,
      "value": 0,
      "maxFormula": "",
      "autoDeductChargesCost": "1"
    },
    "attackNotes": [],
    "effectNotes": [],
    "links": {
      "children": [],
      "charges": []
    },
    "tag": "litchina",
    "useCustomTag": false,
    "flags": {
      "boolean": {},
      "dictionary": {}
    },
    "scriptCalls": [],
    "masterwork": false,
    "enh": null,
    "proficient": true,
    "held": "normal",
    "subType": "clothing",
    "baseTypes": [],
    "equipmentSubtype": "lightArmor",
    "armor": {
      "value": 0,
      "dex": null,
      "acp": 0,
      "enh": 0
    },
    "spellFailure": 0,
    "slot": "clothing",
    "showInQuickbar": false
  },
  "ownership": {
    "default": 0
  },
  "_stats": {
    "systemId": "pf1",
    "systemVersion": "9.1",
    "coreVersion": "10.291",
    "createdTime": 1665428367820,
    "modifiedTime": 1689797919833,
    "lastModifiedBy": "ppv91YxratjWnkJi"
  },
  "effects": [],
  "folder": null,
  "sort": 0,
  "flags": {},
  "_key": "!items!pByaFdX4Ih1Yty0t"
}