{
  "_id": "PAshWK1SNNYcUTUq",
  "name": "Mantra Wheel",
  "type": "loot",
  "img": "icons/commodities/metal/fragments-steel-ring.webp",
  "system": {
    "description": {
      "value": "<p><strong>Source</strong> <em>Merchant's Manifest pg. 23</em><br/><strong>Price</strong> 450 gp; <strong>Weight</strong> 1/2 lb.<br/><strong>Category</strong> Adventuring Gear</p><h2 class=\"framing\">Description</h2><p>This handheld metal cylinder is embossed with traditional symbols tied to protectiveness and has a handle that can be used to spin it. Mantra wheels are often used by divine spellcasters who are blind or have difficulty with fine gestures, or who simply enjoy using this traditional device. As a move action, a scroll of a divine spell can be placed inside the wheel. The handle is then spun, activating the scroll without the use of verbal or somatic components. If the wheel's user would need to attempt a caster level check to activate the scroll successfully, the wheel provides a +3 bonus on that check. Spinning the wheel is part of the normal action required to activate the scroll (usually a standard action or the spell's casting time, whichever is longer). Using the wheel to activate a scroll provokes attacks of opportunity exactly as activating a scroll (or casting the spell) normally would. The wheel can hold only one divine scroll at a time. Removing an expended scroll from a mantra wheel is a swift action.</p>",
      "unidentified": ""
    },
    "tags": [],
    "quantity": 1,
    "weight": {
      "value": 0.5
    },
    "price": 450,
    "size": "med",
    "equipped": false,
    "resizing": false,
    "identified": true,
    "hp": {
      "max": 10,
      "value": 10
    },
    "broken": false,
    "hardness": 0,
    "carried": true,
    "unidentified": {
      "price": 0,
      "name": ""
    },
    "cl": 0,
    "aura": {
      "custom": false,
      "school": ""
    },
    "changes": [],
    "changeFlags": {
      "loseDexToAC": false,
      "noEncumbrance": false,
      "mediumArmorFullSpeed": false,
      "heavyArmorFullSpeed": false
    },
    "contextNotes": [],
    "links": {
      "children": []
    },
    "tag": "mantraWheel",
    "useCustomTag": false,
    "flags": {
      "boolean": {},
      "dictionary": {
        "Category": "Adventuring Gear"
      }
    },
    "scriptCalls": [],
    "subType": "gear",
    "extraType": "",
    "uses": {
      "value": 0,
      "max": 0
    }
  },
  "ownership": {
    "default": 0
  },
  "_stats": {
    "systemId": "pf1",
    "systemVersion": "9.1",
    "coreVersion": "10.291",
    "createdTime": 1665428366779,
    "modifiedTime": 1689793673855,
    "lastModifiedBy": "ppv91YxratjWnkJi"
  },
  "effects": [],
  "folder": null,
  "sort": 0,
  "flags": {},
  "_key": "!items!PAshWK1SNNYcUTUq"
}