{
  "_id": "rviFcMdHVzofCyYh",
  "name": "Masterwork flippers",
  "type": "loot",
  "img": "icons/commodities/biological/tongue-violet.webp",
  "system": {
    "description": {
      "value": "<p><strong>Source</strong> <em>Aquatic Adventures pg. 56</em><br/><strong>Price</strong> 50 gp; <strong>Weight</strong> 1 lb.<br/><strong>Category</strong> Tools</p><h2 class=\"framing\"><img src=\"modules/pf-content/assets/PathfinderSocietySymbol.gif\" style=\"margin:3px 3px 0px 3px;\" title=\"PFS Legal\"/>Description</h2><p>These sleek and aquadynamic flippers grant their wearer a +2 circumstance bonus on Swim checks to perform complex maneuvers underwater or swim through rough waters. This bonus doesn't stack with racial bonuses on Swim checks from having a swim speed.</p>",
      "unidentified": ""
    },
    "tags": [],
    "quantity": 1,
    "weight": {
      "value": 1
    },
    "price": 50,
    "size": "med",
    "equipped": false,
    "resizing": false,
    "identified": true,
    "hp": {
      "max": 10,
      "value": 10
    },
    "broken": false,
    "hardness": 0,
    "carried": true,
    "unidentified": {
      "price": 0,
      "name": ""
    },
    "cl": 0,
    "aura": {
      "custom": false,
      "school": ""
    },
    "changes": [],
    "changeFlags": {
      "loseDexToAC": false,
      "noEncumbrance": false,
      "mediumArmorFullSpeed": false,
      "heavyArmorFullSpeed": false
    },
    "contextNotes": [],
    "links": {
      "children": []
    },
    "tag": "masterworkFlippers",
    "useCustomTag": false,
    "flags": {
      "boolean": {},
      "dictionary": {
        "Category": "Tools"
      }
    },
    "scriptCalls": [],
    "subType": "gear",
    "extraType": "",
    "uses": {
      "value": 0,
      "max": 0
    }
  },
  "ownership": {
    "default": 0
  },
  "_stats": {
    "systemId": "pf1",
    "systemVersion": "9.1",
    "coreVersion": "10.291",
    "createdTime": 1665428368061,
    "modifiedTime": 1689793676863,
    "lastModifiedBy": "ppv91YxratjWnkJi"
  },
  "effects": [],
  "folder": null,
  "sort": 0,
  "flags": {},
  "_key": "!items!rviFcMdHVzofCyYh"
}