{
  "_id": "k0XVqVbN3zYD5ZKu",
  "name": "Mithralbane Sap",
  "type": "consumable",
  "img": "icons/commodities/materials/slime-thick-orange.webp",
  "system": {
    "description": {
      "value": "<p><strong>Source</strong> <em>Dirty Tactics Toolbox pg. 21</em><br/><strong>Price</strong> 50 gp; <strong>Weight</strong> 1 lb.<br/><strong>Category</strong> Alchemical Tools</p><h2 class=\"framing\"><img src=\"modules/pf-content/assets/PathfinderSocietySymbol.gif\" style=\"margin:3px 3px 0px 3px;\" title=\"PFS Legal\"/>Description</h2><p>This black alchemical concoction reacts when it comes into contact with metal, rapidly expanding into a sticky, inflexible substance that temporarily renders armor more difficult to use. When the sap is smeared onto metal armor or thrown at a creature wearing metal armor (as a ranged touch attack with a range increment of 10 feet), that armor is considered one category heavier for the purposes of movement (heavy armor is still treated as heavy). This increase does not apply to proficiency in wearing the armor. Additionally, the arcane spell failure chance of armor affected by mithralbane sap increases by 10%, its maximum Dexterity bonus decreases by 2 (to a minimum of 0), and its armor check penalty increases by 3. These effects last for 1 minute, after which the grease hardens and crumbles away. Armor that's not primarily made of metal and metal items such as weapons and shields are not meaningfully affected by mithralbane sap. Crafting this item requires a successful DC 25 Craft (alchemy) check.</p><h2 class=\"framing\">Construction</h2><p><strong>Craft (Alchemy)</strong> DC 25</p>",
      "unidentified": ""
    },
    "tags": [],
    "quantity": 1,
    "weight": {
      "value": 1
    },
    "price": 50,
    "size": "med",
    "equipped": true,
    "resizing": false,
    "identified": true,
    "hp": {
      "max": 10,
      "value": 10
    },
    "broken": false,
    "hardness": 0,
    "carried": true,
    "unidentified": {
      "price": 0,
      "name": ""
    },
    "cl": 0,
    "aura": {
      "custom": false,
      "school": ""
    },
    "actions": [],
    "uses": {
      "per": null,
      "value": 0,
      "maxFormula": "",
      "pricePerUse": 0,
      "autoDeductChargesCost": "1"
    },
    "attackNotes": [],
    "effectNotes": [],
    "links": {
      "children": [],
      "charges": []
    },
    "tag": "mithralbaneSap",
    "useCustomTag": false,
    "flags": {
      "boolean": {},
      "dictionary": {
        "Category": "Alchemical Tools"
      }
    },
    "scriptCalls": [],
    "subType": "misc",
    "showInQuickbar": false
  },
  "ownership": {
    "default": 0
  },
  "_stats": {
    "systemId": "pf1",
    "systemVersion": "9.1",
    "coreVersion": "10.291",
    "createdTime": 1665428367675,
    "modifiedTime": 1689797919041,
    "lastModifiedBy": "ppv91YxratjWnkJi"
  },
  "effects": [],
  "folder": null,
  "sort": 0,
  "flags": {},
  "_key": "!items!k0XVqVbN3zYD5ZKu"
}