{
  "_id": "2Q8vwXA7Ku6Za5sl",
  "name": "Monkey Statue",
  "type": "loot",
  "img": "icons/commodities/treasure/statuette-gargoyle-green-gold.webp",
  "system": {
    "description": {
      "value": "<p><strong>Source</strong> <em>Merchant's Manifest pg. 23</em><br/><strong>Price</strong> 150 gp; <strong>Weight</strong> 1/2 lb.<br/><strong>Category</strong> Adventuring Gear</p><h2 class=\"framing\"><img src=\"modules/pf-content/assets/PathfinderSocietySymbol.gif\" style=\"margin:3px 3px 0px 3px;\" title=\"PFS Legal\"/>Description</h2><p>For some unknown reason, this finely crafted but mundane monkey statue repulses oni. Any creature with the oni subtype (<em>Pathfinder RPG Bestiary 3</em> 307) that is within 30 feet of a monkey statue takes a -1 penalty on all d20 rolls. The monkey statue can be unattended or presented by its wielder as a swift action to cause this effect; the statue has no effect on oni if it is simply stored on a wielder's person. A wielder must have a free hand available to present the statue and gain its effect. This penalty does not stack with that from other monkey statues.</p>",
      "unidentified": ""
    },
    "tags": [],
    "quantity": 1,
    "weight": {
      "value": 0.5
    },
    "price": 150,
    "size": "med",
    "equipped": false,
    "resizing": false,
    "identified": true,
    "hp": {
      "max": 10,
      "value": 10
    },
    "broken": false,
    "hardness": 0,
    "carried": true,
    "unidentified": {
      "price": 0,
      "name": ""
    },
    "cl": 0,
    "aura": {
      "custom": false,
      "school": ""
    },
    "changes": [],
    "changeFlags": {
      "loseDexToAC": false,
      "noEncumbrance": false,
      "mediumArmorFullSpeed": false,
      "heavyArmorFullSpeed": false
    },
    "contextNotes": [],
    "links": {
      "children": []
    },
    "tag": "monkeyStatue",
    "useCustomTag": false,
    "flags": {
      "boolean": {},
      "dictionary": {
        "Category": "Adventuring Gear"
      }
    },
    "scriptCalls": [],
    "subType": "gear",
    "extraType": "",
    "uses": {
      "value": 0,
      "max": 0
    }
  },
  "ownership": {
    "default": 0
  },
  "_stats": {
    "systemId": "pf1",
    "systemVersion": "9.1",
    "coreVersion": "10.291",
    "createdTime": 1665428365744,
    "modifiedTime": 1689793671319,
    "lastModifiedBy": "ppv91YxratjWnkJi"
  },
  "effects": [],
  "folder": null,
  "sort": 0,
  "flags": {},
  "_key": "!items!2Q8vwXA7Ku6Za5sl"
}