{
  "_id": "Ge0UEEzMxuntvGZF",
  "name": "Nepenthe",
  "type": "consumable",
  "img": "icons/commodities/flowers/flower-green.webp",
  "system": {
    "description": {
      "value": "<p><strong>Source</strong> <em>Ultimate Wilderness pg. 155</em><br/><strong>Price</strong> 400 gp; <strong>Weight</strong> -<br/><strong>Category</strong> Herbs<br/><strong>Gather</strong> DC 20; <strong>Yield</strong> 1 dose<br/><strong>Terrain</strong> warm forests or swamps<br/><strong>Preparation</strong> A dose of pollen must be mixed with alchemical reagents with a successful DC 16 Craft (alchemy) check and then left to sit for 1 hour before it can be used.<br/><strong>Use</strong> A dose of nepenthe pollen must be inhaled as a standard action, whereupon the potent vapors act upon unpleasant or unknown thoughts and memories. This grants the creature a new saving throw to immediately end a single mind-affecting effect currently affecting the creature (effects that allow no saving throw cannot be removed in this way). An unwilling creature can be dosed with the pollen as a touch attack that provokes an attack of opportunity. A creature can be affected by a dose of nepenthe only once in a single 24-hour period. This is a poison effect.</p><h2 class=\"framing\"><img src=\"modules/pf-content/assets/PathfinderSocietySymbolN.gif\" style=\"margin:3px 3px 0px 3px;\" title=\"The herbalism subsystem is not legal for play; instead a PC with at least one rank in Craft (alchemy) and 1 rank in either Knowledge (nature) or Profession (herbalist) can purchase the herbs in this book at a 10% discount that does not stack with other discounts; if a PC's ranks in these skills are 5 or higher, the discount increases to 15%, and if a PC's ranks in these skills are 10 or higher, the discount increases to 20%\"/>Description</h2><p>This foot-tall blue-green pitcher plant produces a pollen that smells faintly of mint and lures insects and even small vertebrates toward its dangerous mouth.</p>",
      "unidentified": ""
    },
    "tags": [],
    "quantity": 1,
    "weight": {
      "value": 0
    },
    "price": 400,
    "size": "med",
    "equipped": true,
    "resizing": false,
    "identified": true,
    "hp": {
      "max": 10,
      "value": 10
    },
    "broken": false,
    "hardness": 0,
    "carried": true,
    "unidentified": {
      "price": 0,
      "name": ""
    },
    "cl": 0,
    "aura": {
      "custom": false,
      "school": ""
    },
    "actions": [],
    "uses": {
      "per": null,
      "value": 0,
      "maxFormula": "",
      "pricePerUse": 0,
      "autoDeductChargesCost": "1"
    },
    "attackNotes": [],
    "effectNotes": [],
    "links": {
      "children": [],
      "charges": []
    },
    "tag": "nepenthe",
    "useCustomTag": false,
    "flags": {
      "boolean": {},
      "dictionary": {
        "Category": "Herbs"
      }
    },
    "scriptCalls": [],
    "subType": "misc",
    "showInQuickbar": false
  },
  "ownership": {
    "default": 0
  },
  "_stats": {
    "systemId": "pf1",
    "systemVersion": "9.1",
    "coreVersion": "10.291",
    "createdTime": 1665428366367,
    "modifiedTime": 1689797914581,
    "lastModifiedBy": "ppv91YxratjWnkJi"
  },
  "effects": [],
  "folder": null,
  "sort": 0,
  "flags": {},
  "_key": "!items!Ge0UEEzMxuntvGZF"
}