{
  "_id": "cv06uS3pdEeyiTKF",
  "name": "Night Stalker's Tonic",
  "type": "consumable",
  "img": "systems/pf1/icons/items/potions/unique-1.jpg",
  "system": {
    "description": {
      "value": "<p><strong>Source</strong> <em>Ultimate Intrigue pg. 236</em><br/><strong>Price</strong> 200 gp; <strong>Weight</strong> -<br/><strong>Category</strong> Alchemical Tools</p><h2 class=\"framing\"><img src=\"modules/pf-content/assets/PathfinderSocietySymbol.gif\" style=\"margin:3px 3px 0px 3px;\" title=\"PFS Legal\"/>Description</h2><p>Once you imbibe this metallic-tasting liquid, its effects last for 1 hour. During this time, you can accept alchemical burn to increase your sneak attack damage by 1d6 points or your hidden strike damage by 1d4 or 1d8 points (as appropriate) for 1 round. If you don't possess the sneak attack or hidden strike abilities, imbibing this tonic has no effect.</p><h2 class=\"framing\">Construction</h2><p><strong>Craft (Alchemy)</strong> DC 20</p>",
      "unidentified": ""
    },
    "tags": [],
    "quantity": 1,
    "weight": {
      "value": 0
    },
    "price": 200,
    "size": "med",
    "equipped": true,
    "resizing": false,
    "identified": true,
    "hp": {
      "max": 10,
      "value": 10
    },
    "broken": false,
    "hardness": 0,
    "carried": true,
    "unidentified": {
      "price": 0,
      "name": ""
    },
    "cl": 0,
    "aura": {
      "custom": false,
      "school": ""
    },
    "actions": [],
    "uses": {
      "per": null,
      "value": 0,
      "maxFormula": "",
      "pricePerUse": 0,
      "autoDeductChargesCost": "1"
    },
    "attackNotes": [],
    "effectNotes": [],
    "links": {
      "children": [],
      "charges": []
    },
    "tag": "nightStalkersTonic",
    "useCustomTag": false,
    "flags": {
      "boolean": {},
      "dictionary": {
        "Category": "Alchemical Tools"
      }
    },
    "scriptCalls": [],
    "subType": "potion",
    "showInQuickbar": false
  },
  "ownership": {
    "default": 0
  },
  "_stats": {
    "systemId": "pf1",
    "systemVersion": "9.1",
    "coreVersion": "10.291",
    "createdTime": 1665428367322,
    "modifiedTime": 1689797917832,
    "lastModifiedBy": "ppv91YxratjWnkJi"
  },
  "effects": [],
  "folder": null,
  "sort": 0,
  "flags": {},
  "_key": "!items!cv06uS3pdEeyiTKF"
}