{
  "_id": "lIYHOWZS4qiRwn9C",
  "name": "Nimble Nectar",
  "type": "consumable",
  "img": "systems/pf1/icons/items/potions/unique-10.jpg",
  "system": {
    "description": {
      "value": "<p><strong>Source</strong> <em>Potions and Poisons pg. 23</em><br/><strong>Price</strong> 200 gp; <strong>Weight</strong> -<br/><strong>Category</strong> Tincture</p><h2 class=\"framing\">Description</h2><p>This runny green liquid increases your heart rate. For 1 hour after drinking this tincture, you gain a +2 alchemical bonus on initiative checks and Reflex saves. This causes trembling, and you take a -2 penalty on Dexterity-based skill checks for the same duration.</p><h2 class=\"framing\">Construction</h2><p><strong>Craft (Alchemy)</strong> DC 25</p>",
      "unidentified": ""
    },
    "tags": [],
    "quantity": 1,
    "weight": {
      "value": 0
    },
    "price": 200,
    "size": "med",
    "equipped": true,
    "resizing": false,
    "identified": true,
    "hp": {
      "max": 10,
      "value": 10
    },
    "broken": false,
    "hardness": 0,
    "carried": true,
    "unidentified": {
      "price": 0,
      "name": ""
    },
    "cl": 0,
    "aura": {
      "custom": false,
      "school": ""
    },
    "actions": [],
    "uses": {
      "per": null,
      "value": 0,
      "maxFormula": "",
      "pricePerUse": 0,
      "autoDeductChargesCost": "1"
    },
    "attackNotes": [],
    "effectNotes": [],
    "links": {
      "children": [],
      "charges": []
    },
    "tag": "nimbleNectar",
    "useCustomTag": false,
    "flags": {
      "boolean": {},
      "dictionary": {
        "Category": "Tincture"
      }
    },
    "scriptCalls": [],
    "subType": "potion",
    "showInQuickbar": false
  },
  "ownership": {
    "default": 0
  },
  "_stats": {
    "systemId": "pf1",
    "systemVersion": "9.1",
    "coreVersion": "10.291",
    "createdTime": 1665428367710,
    "modifiedTime": 1689797919203,
    "lastModifiedBy": "ppv91YxratjWnkJi"
  },
  "effects": [],
  "folder": null,
  "sort": 0,
  "flags": {},
  "_key": "!items!lIYHOWZS4qiRwn9C"
}