{
  "_id": "19fh7YfXtPpZgkbH",
  "name": "Oil, Stalker's",
  "type": "consumable",
  "img": "icons/tools/laboratory/bowl-liquid-black.webp",
  "system": {
    "description": {
      "value": "<p><strong>Source</strong> <em>Potions and Poisons pg. 29</em><br/><strong>Price</strong> 50 gp; <strong>Weight</strong> -<br/><strong>Category</strong> Alchemical Tools</p><h2 class=\"framing\"><img src=\"modules/pf-content/assets/PathfinderSocietySymbol.gif\" style=\"margin:3px 3px 0px 3px;\" title=\"PFS Legal\"/>Description</h2><p>This is a clear, viscous liquid that is typically kept in a frosted glass vial with an unassuming label and cork. The oil is used to reduce the sound armor and weapons make while moving. Applying this oil to a single piece of equipment takes 1 minute and grants the wearer a +2 circumstance bonus on Stealth checks for 30 minutes. A vial of this oil is enough to coat one Medium piece of equipment, while a Large piece of equipment requires 4 vials. Two pieces of Small equipment can be covered with a single vial of oil. Exposure to or submersion in large amounts of water, such as swimming, immediately ends the effect of the oil.</p>",
      "unidentified": ""
    },
    "tags": [],
    "quantity": 1,
    "weight": {
      "value": 0
    },
    "price": 50,
    "size": "med",
    "equipped": true,
    "resizing": false,
    "identified": true,
    "hp": {
      "max": 10,
      "value": 10
    },
    "broken": false,
    "hardness": 0,
    "carried": true,
    "unidentified": {
      "price": 0,
      "name": ""
    },
    "cl": 0,
    "aura": {
      "custom": false,
      "school": ""
    },
    "actions": [],
    "uses": {
      "per": null,
      "value": 0,
      "maxFormula": "",
      "pricePerUse": 0,
      "autoDeductChargesCost": "1"
    },
    "attackNotes": [],
    "effectNotes": [],
    "links": {
      "children": [],
      "charges": []
    },
    "tag": "stalkersOil",
    "useCustomTag": false,
    "flags": {
      "boolean": {},
      "dictionary": {
        "Category": "Alchemical Tools"
      }
    },
    "scriptCalls": [],
    "subType": "misc",
    "showInQuickbar": false
  },
  "ownership": {
    "default": 0
  },
  "_stats": {
    "systemId": "pf1",
    "systemVersion": "9.1",
    "coreVersion": "10.291",
    "createdTime": 1665428365708,
    "modifiedTime": 1689797911695,
    "lastModifiedBy": "ppv91YxratjWnkJi"
  },
  "effects": [],
  "folder": null,
  "sort": 0,
  "flags": {},
  "_key": "!items!19fh7YfXtPpZgkbH"
}