{
  "_id": "ISdm4AJgHg50HmS9",
  "name": "Oozing Vat (Small)",
  "type": "consumable",
  "img": "icons/commodities/materials/slime-thick-blue.webp",
  "system": {
    "description": {
      "value": "<p><strong>Source</strong> <em>Alchemy Manual pg. 23</em><br/><strong>Price</strong> 500 gp (gargantuan), 200 gp (huge), 50 gp (large), 10 gp (medium), 1 gp (small); <strong>Weight</strong> 10,000 lbs. (gargantuan), 2,000 lbs. (huge), 200 lbs. (large), 20 lbs. (medium), 2 lbs. (small)</p><h2 class=\"framing\">Description</h2><p>These earthenware vats are made from a special clay sludge dredged from Oenopion's central lake and infused with ooze distillates. After being fired in a massive kiln, an oozing vat is typically embedded with glass-fiber tubing designed to carry electrical charges to growing oozes. In order to craft an ooze creature using the Craft Ooze feat (see page 22), a creator must have access to an oozing vat large enough to contain the created ooze.</p>",
      "unidentified": ""
    },
    "tags": [],
    "quantity": 1,
    "weight": {
      "value": 2
    },
    "price": 1,
    "size": "med",
    "equipped": true,
    "resizing": false,
    "identified": true,
    "hp": {
      "max": 10,
      "value": 10
    },
    "broken": false,
    "hardness": 0,
    "carried": true,
    "unidentified": {
      "price": 0,
      "name": ""
    },
    "cl": 0,
    "aura": {
      "custom": false,
      "school": ""
    },
    "actions": [],
    "uses": {
      "per": null,
      "value": 0,
      "maxFormula": "",
      "pricePerUse": 0,
      "autoDeductChargesCost": "1"
    },
    "attackNotes": [],
    "effectNotes": [],
    "links": {
      "children": [],
      "charges": []
    },
    "tag": "oozingVatSmall",
    "useCustomTag": false,
    "flags": {
      "boolean": {},
      "dictionary": {
        "Category": "Alchemical Tools"
      }
    },
    "scriptCalls": [],
    "subType": "misc",
    "showInQuickbar": false
  },
  "ownership": {
    "default": 0
  },
  "_stats": {
    "systemId": "pf1",
    "systemVersion": "9.1",
    "coreVersion": "10.291",
    "createdTime": 1665428366423,
    "modifiedTime": 1689797914998,
    "lastModifiedBy": "ppv91YxratjWnkJi"
  },
  "effects": [],
  "folder": null,
  "sort": 0,
  "flags": {},
  "_key": "!items!ISdm4AJgHg50HmS9"
}