{
  "_id": "H1KTBMHSgPzRTqi9",
  "name": "Palm paws",
  "type": "loot",
  "img": "icons/equipment/feet/boots-collared-rounded-brown.webp",
  "system": {
    "description": {
      "value": "<p><strong>Source</strong> <em>Blood of the Moon pg. 30</em><br/><strong>Price</strong> 80 gp; <strong>Weight</strong> 2 lbs.<br/><strong>Category</strong> Tools</p><h2 class=\"framing\"><img src=\"modules/pf-content/assets/PathfinderSocietySymbol.gif\" style=\"margin:3px 3px 0px 3px;\" title=\"PFS Legal\"/>Description</h2><p>These pouchlike boots come in sets of four, and can be placed on an animal's paws and fastened with a drawstring. The soles are sewn with treated leather shaped like human footprints that allow the wearer to leave human tracks. A successful DC 20 Survival or Knowledge (nature) check allows an individual to recognize the tracks as fake but gives no clue as to the identity of the real perpetrator.</p>",
      "unidentified": ""
    },
    "tags": [],
    "quantity": 1,
    "weight": {
      "value": 2
    },
    "price": 80,
    "size": "med",
    "equipped": false,
    "resizing": false,
    "identified": true,
    "hp": {
      "max": 10,
      "value": 10
    },
    "broken": false,
    "hardness": 0,
    "carried": true,
    "unidentified": {
      "price": 0,
      "name": ""
    },
    "cl": 0,
    "aura": {
      "custom": false,
      "school": ""
    },
    "changes": [],
    "changeFlags": {
      "loseDexToAC": false,
      "noEncumbrance": false,
      "mediumArmorFullSpeed": false,
      "heavyArmorFullSpeed": false
    },
    "contextNotes": [],
    "links": {
      "children": []
    },
    "tag": "palmPaws",
    "useCustomTag": false,
    "flags": {
      "boolean": {},
      "dictionary": {
        "Category": "Tools"
      }
    },
    "scriptCalls": [],
    "subType": "gear",
    "extraType": "",
    "uses": {
      "value": 0,
      "max": 0
    }
  },
  "ownership": {
    "default": 0
  },
  "_stats": {
    "systemId": "pf1",
    "systemVersion": "9.1",
    "coreVersion": "10.291",
    "createdTime": 1665428366381,
    "modifiedTime": 1689793672941,
    "lastModifiedBy": "ppv91YxratjWnkJi"
  },
  "effects": [],
  "folder": null,
  "sort": 0,
  "flags": {},
  "_key": "!items!H1KTBMHSgPzRTqi9"
}