{
  "_id": "yUXeVSmQ6gJMil1r",
  "name": "Paper, Underwater (Sheet)",
  "type": "loot",
  "img": "icons/sundries/documents/paper-plain-white.webp",
  "system": {
    "description": {
      "value": "<p><strong>Source</strong> <em>Blood of the Sea pg. 19</em><br/><strong>Price</strong> 6 sp; <strong>Weight</strong> -<br/><strong>Category</strong> Adventuring Gear</p><h2 class=\"framing\"><img src=\"modules/pf-content/assets/PathfinderSocietySymbol.gif\" style=\"margin:3px 3px 0px 3px;\" title=\"PFS Legal\"/>Description</h2><p>Not all underwater creatures use sight as their primary means of reading text, so underwater paper is significantly thicker than surface paper, allowing the writer to carve the letters into the sheet. This lets creatures with blindsight see the textured writing from afar as well as allowing others to read it by touch, or sometimes from a short distance if they have unusually precise tremorsense. For underwater societies where vision is more prominent, the writer can fill the carved grooves with colorful ink (and potentially bioluminescent ink) and then adhere a transparent waterproof sheet on top to prevent the ink from washing away. This transparent sheet costs an additional 4 sp.</p>",
      "unidentified": ""
    },
    "tags": [],
    "quantity": 1,
    "weight": {
      "value": 0
    },
    "price": 0.6,
    "size": "med",
    "equipped": false,
    "resizing": false,
    "identified": true,
    "hp": {
      "max": 10,
      "value": 10
    },
    "broken": false,
    "hardness": 0,
    "carried": true,
    "unidentified": {
      "price": 0,
      "name": ""
    },
    "cl": 0,
    "aura": {
      "custom": false,
      "school": ""
    },
    "changes": [],
    "changeFlags": {
      "loseDexToAC": false,
      "noEncumbrance": false,
      "mediumArmorFullSpeed": false,
      "heavyArmorFullSpeed": false
    },
    "contextNotes": [],
    "links": {
      "children": []
    },
    "tag": "paperUnderwaterSheet",
    "useCustomTag": false,
    "flags": {
      "boolean": {},
      "dictionary": {
        "Category": "Adventuring Gear"
      }
    },
    "scriptCalls": [],
    "subType": "gear",
    "extraType": "",
    "uses": {
      "value": 0,
      "max": 0
    }
  },
  "ownership": {
    "default": 0
  },
  "_stats": {
    "systemId": "pf1",
    "systemVersion": "9.1",
    "coreVersion": "10.291",
    "createdTime": 1665428368231,
    "modifiedTime": 1689793677198,
    "lastModifiedBy": "ppv91YxratjWnkJi"
  },
  "effects": [],
  "folder": null,
  "sort": 0,
  "flags": {},
  "_key": "!items!yUXeVSmQ6gJMil1r"
}