{
  "_id": "d3dEl1XAWzd8iXIf",
  "name": "Pen, Underwater",
  "type": "loot",
  "img": "icons/tools/scribal/pen-steel-grey-brown.webp",
  "system": {
    "description": {
      "value": "<p><strong>Source</strong> <em>Blood of the Sea pg. 19</em><br/><strong>Price</strong> 6 sp; <strong>Weight</strong> -<br/><strong>Category</strong> Adventuring Gear</p><h2 class=\"framing\"><img src=\"modules/pf-content/assets/PathfinderSocietySymbol.gif\" style=\"margin:3px 3px 0px 3px;\" title=\"PFS Legal\"/>Description</h2><p>Underwater pens fill the grooves carved into underwater paper with ink; as such, they work somewhat like a syringe, drawing ink from a waterproof bladder and then gently releasing it into the grooves as the writer traces them with the pen. These pens function equally well at depositing ink into tablets, underwater paper, walls, or anything with carved writing.</p>",
      "unidentified": ""
    },
    "tags": [],
    "quantity": 1,
    "weight": {
      "value": 0
    },
    "price": 0.6,
    "size": "med",
    "equipped": false,
    "resizing": false,
    "identified": true,
    "hp": {
      "max": 10,
      "value": 10
    },
    "broken": false,
    "hardness": 0,
    "carried": true,
    "unidentified": {
      "price": 0,
      "name": ""
    },
    "cl": 0,
    "aura": {
      "custom": false,
      "school": ""
    },
    "changes": [],
    "changeFlags": {
      "loseDexToAC": false,
      "noEncumbrance": false,
      "mediumArmorFullSpeed": false,
      "heavyArmorFullSpeed": false
    },
    "contextNotes": [],
    "links": {
      "children": []
    },
    "tag": "penUnderwater",
    "useCustomTag": false,
    "flags": {
      "boolean": {},
      "dictionary": {
        "Category": "Adventuring Gear"
      }
    },
    "scriptCalls": [],
    "subType": "gear",
    "extraType": "",
    "uses": {
      "value": 0,
      "max": 0
    }
  },
  "ownership": {
    "default": 0
  },
  "_stats": {
    "systemId": "pf1",
    "systemVersion": "9.1",
    "coreVersion": "10.291",
    "createdTime": 1665428367326,
    "modifiedTime": 1689793675071,
    "lastModifiedBy": "ppv91YxratjWnkJi"
  },
  "effects": [],
  "folder": null,
  "sort": 0,
  "flags": {},
  "_key": "!items!d3dEl1XAWzd8iXIf"
}