{
  "_id": "wo67wm6Tgi4nGGdT",
  "name": "Perfume/Cologne (Exotic)",
  "type": "consumable",
  "img": "icons/tools/laboratory/bowl-liquid-pink-yellow-green.webp",
  "system": {
    "description": {
      "value": "<p><strong>Source</strong> <em>Inner Sea World Guide pg. 293</em>, <em>Curse of the Crimson Throne Player's Guide pg. 12</em>, <em>Pathfinder Campaign Setting pg. 213</em><br/><strong>Price</strong> <img src=\"modules/pf-content/assets/PathfinderSocietySymbol.gif\" style=\"margin:3px 3px 0px 3px;\" title=\"PFS Legal\"/> 1 gp/dose Perfume (common), <img src=\"modules/pf-content/assets/PathfinderSocietySymbol.gif\" style=\"margin:3px 3px 0px 3px;\" title=\"PFS Legal\"/> 100 gp/dose Perfume (exotic), 10 gp/dose Perfume (rare); <strong>Weight</strong> - Perfume (common), - Perfume (exotic), - Perfume (rare)</p><h2 class=\"framing\">Description</h2><p>Perfume and cologne are common accessories for those who hope to avoid offending through scent. Exotic scents are sold in vials containing 10 applications, with a single dose lasting for 24 hours during which its wearer gains a +2 circumstance bonus on all Diplomacy checks (save for those against creatures who, at the GM's discretion, would not be swayed by scent).</p>",
      "unidentified": ""
    },
    "tags": [],
    "quantity": 1,
    "weight": {
      "value": 0
    },
    "price": 100,
    "size": "med",
    "equipped": true,
    "resizing": false,
    "identified": true,
    "hp": {
      "max": 10,
      "value": 10
    },
    "broken": false,
    "hardness": 0,
    "carried": true,
    "unidentified": {
      "price": 0,
      "name": ""
    },
    "cl": 0,
    "aura": {
      "custom": false,
      "school": ""
    },
    "actions": [],
    "uses": {
      "per": null,
      "value": 0,
      "maxFormula": "",
      "pricePerUse": 0,
      "autoDeductChargesCost": "1"
    },
    "attackNotes": [],
    "effectNotes": [],
    "links": {
      "children": [],
      "charges": []
    },
    "tag": "perfumecologneExotic",
    "useCustomTag": false,
    "flags": {
      "boolean": {},
      "dictionary": {
        "Category": "Adventuring Gear"
      }
    },
    "scriptCalls": [],
    "subType": "misc",
    "showInQuickbar": false
  },
  "ownership": {
    "default": 0
  },
  "_stats": {
    "systemId": "pf1",
    "systemVersion": "9.1",
    "coreVersion": "10.291",
    "createdTime": 1665428368197,
    "modifiedTime": 1689797920598,
    "lastModifiedBy": "ppv91YxratjWnkJi"
  },
  "effects": [],
  "folder": null,
  "sort": 0,
  "flags": {},
  "_key": "!items!wo67wm6Tgi4nGGdT"
}