{
  "_id": "vEpIe5ajdSh0V7a2",
  "name": "Pirate clothes",
  "type": "equipment",
  "img": "icons/equipment/head/hat-tricorn-pirate-black.webp",
  "system": {
    "description": {
      "value": "<p><strong>Source</strong> <em>Pirates of the Inner Sea pg. 21</em><br/><strong>Price</strong> <img src=\"modules/pf-content/assets/PathfinderSocietySymbol.gif\" style=\"margin:3px 3px 0px 3px;\" title=\"PFS Legal\"/>  1 sp (basic), <img src=\"modules/pf-content/assets/PathfinderSocietySymbol.gif\" style=\"margin:3px 3px 0px 3px;\" title=\"PFS Legal\"/>  30 gp (fancy); <strong>Weight</strong> 2 lbs. (basic), 6 lbs. (fancy)</p><h2 class=\"framing\">Description</h2><p>Pirates can appear in a variety of clothing styles, but most wear a basic outfit consisting of a linen shirt, canvas knee-breeches, cotton stockings, and leather shoes (though some pirates prefer to go barefoot at sea). In addition, well-to-do pirates, particularly pirate captains, often add fancy touches to their outfits, such as colorful jackets of velvet or silk done up with brass buttons, tall leather boots, ruffled collars, and plumed hats. Sailors in warmer climates may instead go shirtless and wear nothing but loose pantaloons.</p>",
      "unidentified": ""
    },
    "tags": [],
    "quantity": 1,
    "weight": {
      "value": 2
    },
    "price": 0.1,
    "size": "med",
    "equipped": true,
    "resizing": false,
    "identified": true,
    "hp": {
      "max": 10,
      "value": 10
    },
    "broken": false,
    "hardness": 0,
    "carried": true,
    "unidentified": {
      "price": 0,
      "name": ""
    },
    "cl": 0,
    "aura": {
      "custom": false,
      "school": ""
    },
    "changes": [],
    "changeFlags": {
      "loseDexToAC": false,
      "noEncumbrance": false,
      "mediumArmorFullSpeed": false,
      "heavyArmorFullSpeed": false
    },
    "contextNotes": [],
    "actions": [],
    "uses": {
      "per": null,
      "value": 0,
      "maxFormula": "",
      "autoDeductChargesCost": "1"
    },
    "attackNotes": [],
    "effectNotes": [],
    "links": {
      "children": [],
      "charges": []
    },
    "tag": "pirateClothes",
    "useCustomTag": false,
    "flags": {
      "boolean": {},
      "dictionary": {}
    },
    "scriptCalls": [],
    "masterwork": false,
    "enh": null,
    "proficient": true,
    "held": "normal",
    "subType": "clothing",
    "baseTypes": [],
    "equipmentSubtype": "lightArmor",
    "armor": {
      "value": 0,
      "dex": null,
      "acp": 0,
      "enh": 0
    },
    "spellFailure": 0,
    "slot": "clothing",
    "showInQuickbar": false
  },
  "ownership": {
    "default": 0
  },
  "_stats": {
    "systemId": "pf1",
    "systemVersion": "9.1",
    "coreVersion": "10.291",
    "createdTime": 1665428368149,
    "modifiedTime": 1689797920402,
    "lastModifiedBy": "ppv91YxratjWnkJi"
  },
  "effects": [],
  "folder": null,
  "sort": 0,
  "flags": {},
  "_key": "!items!vEpIe5ajdSh0V7a2"
}