{
  "_id": "OWREF0TYZU10b6xN",
  "name": "Poison Sealant",
  "type": "consumable",
  "img": "icons/commodities/materials/slime-thick-green.webp",
  "system": {
    "description": {
      "value": "<p><strong>Source</strong> <em>Aquatic Adventures pg. 56</em><br/><strong>Price</strong> 20 gp; <strong>Weight</strong> -<br/><strong>Category</strong> Alchemical Tools</p><h2 class=\"framing\">Description</h2><p>Applied poison generally washes off weapons underwater in 1d10 rounds unless the poison is contained inside the weapon and injected, so undersea alchemists developed poison sealant to circumvent this limitation. Applying poison sealant to a poisoned weapon takes the same amount of effort as applying a poison. Once applied, the sealant protects the poison from the elements, keeping the weapon poisoned underwater. Poison sealant dissolves in blood, allowing the poison's delivery (and also meaning that it doesn't prevent accidental poisoning).</p>",
      "unidentified": ""
    },
    "tags": [],
    "quantity": 1,
    "weight": {
      "value": 0
    },
    "price": 20,
    "size": "med",
    "equipped": true,
    "resizing": false,
    "identified": true,
    "hp": {
      "max": 10,
      "value": 10
    },
    "broken": false,
    "hardness": 0,
    "carried": true,
    "unidentified": {
      "price": 0,
      "name": ""
    },
    "cl": 0,
    "aura": {
      "custom": false,
      "school": ""
    },
    "actions": [],
    "uses": {
      "per": null,
      "value": 0,
      "maxFormula": "",
      "pricePerUse": 0,
      "autoDeductChargesCost": "1"
    },
    "attackNotes": [],
    "effectNotes": [],
    "links": {
      "children": [],
      "charges": []
    },
    "tag": "poisonSealant",
    "useCustomTag": false,
    "flags": {
      "boolean": {},
      "dictionary": {
        "Category": "Alchemical Tools"
      }
    },
    "scriptCalls": [],
    "subType": "misc",
    "showInQuickbar": false
  },
  "ownership": {
    "default": 0
  },
  "_stats": {
    "systemId": "pf1",
    "systemVersion": "9.1",
    "coreVersion": "10.291",
    "createdTime": 1665428366754,
    "modifiedTime": 1689797916026,
    "lastModifiedBy": "ppv91YxratjWnkJi"
  },
  "effects": [],
  "folder": null,
  "sort": 0,
  "flags": {},
  "_key": "!items!OWREF0TYZU10b6xN"
}