{
  "_id": "r9mWJ8ezoCCVYYs6",
  "name": "Poison Diffuser",
  "type": "consumable",
  "img": "icons/tools/scribal/ink-quill-red.webp",
  "system": {
    "description": {
      "value": "<p><strong>Source</strong> <em>Alchemy Manual pg. 9</em><br/><strong>Price</strong> 200 gp; <strong>Weight</strong> -<br/><strong>Category</strong> Alchemical Tools</p><h2 class=\"framing\"><img src=\"modules/pf-content/assets/PathfinderSocietySymbol.gif\" style=\"margin:3px 3px 0px 3px;\" title=\"PFS Legal\"/>Description</h2><p>This compound comes in a tiny eyedropper. When you combine a dose of poison diffuser with a dose of contact or ingested poison, the poison becomes a gas, slowly diffusing into the surrounding air. The poison is treated as an inhaled poison for 3 rounds, after which the poison and the poison diffuser are both expended and become inert. Any creature that passes within 5 feet of a diffused poison while it is active must save against the vaporous toxin.<br/><br/> If you are using spontaneous alchemy, adding urea to the alchemical recipe delays a poison diffuser's activation time. For every 20 doses of urea (worth a total of 10 gp) incorporated into the alchemical creation process, the time from which the diffuser is added to the poison to the time the poison begins spreading into the air increases by 1 round.</p><h2 class=\"framing\">Alchemical Recipe</h2><p><strong>Recipe</strong> (100 brimstone + 180 salt + 180 spirit of wine)/fermentation; <strong>Craft</strong> 25<br/><strong>Time</strong> 1 day; <strong>Tools</strong> heat source; <strong>Type</strong> alchemical tool</p>",
      "unidentified": ""
    },
    "tags": [],
    "quantity": 1,
    "weight": {
      "value": 0
    },
    "price": 200,
    "size": "med",
    "equipped": true,
    "resizing": false,
    "identified": true,
    "hp": {
      "max": 10,
      "value": 10
    },
    "broken": false,
    "hardness": 0,
    "carried": true,
    "unidentified": {
      "price": 0,
      "name": ""
    },
    "cl": 0,
    "aura": {
      "custom": false,
      "school": ""
    },
    "actions": [],
    "uses": {
      "per": null,
      "value": 0,
      "maxFormula": "",
      "pricePerUse": 0,
      "autoDeductChargesCost": "1"
    },
    "attackNotes": [],
    "effectNotes": [],
    "links": {
      "children": [],
      "charges": []
    },
    "tag": "poisonDiffuser",
    "useCustomTag": false,
    "flags": {
      "boolean": {},
      "dictionary": {
        "Category": "Alchemical Tools"
      }
    },
    "scriptCalls": [],
    "subType": "misc",
    "showInQuickbar": false
  },
  "ownership": {
    "default": 0
  },
  "_stats": {
    "systemId": "pf1",
    "systemVersion": "9.1",
    "coreVersion": "10.291",
    "createdTime": 1665428368042,
    "modifiedTime": 1689797919995,
    "lastModifiedBy": "ppv91YxratjWnkJi"
  },
  "effects": [],
  "folder": null,
  "sort": 0,
  "flags": {},
  "_key": "!items!r9mWJ8ezoCCVYYs6"
}