{
  "_id": "MocNvkFgnDDPmicP",
  "name": "Practice straitjacket",
  "type": "loot",
  "img": "icons/equipment/chest/shirt-simple-white.webp",
  "system": {
    "description": {
      "value": "<p><strong>Source</strong> <em>Adventurer's Armory 2 pg. 14</em><br/><strong>Price</strong> 100 gp; <strong>Weight</strong> 2 lbs.<br/><strong>Category</strong> Tools</p><h2 class=\"framing\"><img src=\"modules/pf-content/assets/PathfinderSocietySymbol.gif\" style=\"margin:3px 3px 0px 3px;\" title=\"PFS Legal\"/>Description</h2><p>This straitjacket (<em>Pathfinder RPG Occult Adventures</em> 250) is designed for use by a single person. The leather straps and arm restraints are accessible in such a way as to be tightened by the wearer. Restraining or releasing oneself through these mechanisms requires 1 minute of work. Once restrained, the wearer can attempt to escape from the straitjacket as normal (that is, without using the built-in releases). Using a practice straitjacket to train for escape requires 1 hour of practice and a DC 20 Escape Artist check. If you succeed at the check, you gain a +2 circumstance bonus on Escape Artist checks to escape from bindings, a grapple, a net, rope, or similar restraints. This bonus lasts for 24 hours.</p>",
      "unidentified": ""
    },
    "tags": [],
    "quantity": 1,
    "weight": {
      "value": 2
    },
    "price": 100,
    "size": "med",
    "equipped": false,
    "resizing": false,
    "identified": true,
    "hp": {
      "max": 10,
      "value": 10
    },
    "broken": false,
    "hardness": 0,
    "carried": true,
    "unidentified": {
      "price": 0,
      "name": ""
    },
    "cl": 0,
    "aura": {
      "custom": false,
      "school": ""
    },
    "changes": [],
    "changeFlags": {
      "loseDexToAC": false,
      "noEncumbrance": false,
      "mediumArmorFullSpeed": false,
      "heavyArmorFullSpeed": false
    },
    "contextNotes": [],
    "links": {
      "children": []
    },
    "tag": "practiceStraitjacket",
    "useCustomTag": false,
    "flags": {
      "boolean": {},
      "dictionary": {
        "Category": "Tools"
      }
    },
    "scriptCalls": [],
    "subType": "gear",
    "extraType": "",
    "uses": {
      "value": 0,
      "max": 0
    }
  },
  "ownership": {
    "default": 0
  },
  "_stats": {
    "systemId": "pf1",
    "systemVersion": "9.1",
    "coreVersion": "10.291",
    "createdTime": 1665428366707,
    "modifiedTime": 1689793673656,
    "lastModifiedBy": "ppv91YxratjWnkJi"
  },
  "effects": [],
  "folder": null,
  "sort": 0,
  "flags": {},
  "_key": "!items!MocNvkFgnDDPmicP"
}