{
  "_id": "X2aL05WU5CGyWvmZ",
  "name": "Rhinarium Paste",
  "type": "consumable",
  "img": "icons/tools/laboratory/bowl-powder-purple.webp",
  "system": {
    "description": {
      "value": "<p><strong>Source</strong> <em>Monster Codex pg. 177</em><br/><strong>Price</strong> 75 gp; <strong>Weight</strong> 1/2 lb.<br/><strong>Category</strong> Alchemical Tools</p><h2 class=\"framing\"><img src=\"modules/pf-content/assets/PathfinderSocietySymbolN.gif\" style=\"margin:3px 3px 0px 3px;\" title=\"Legal only for Ratfolk PCs\"/>Description</h2><p>When applied to the nose as a standard action, this alchemical paste traps airborne particles and sharpens your olfactory receptors, heightening your sense of smell. You gain the scent ability, except you can detect creatures and odors at only half the distance. If you already have the scent ability, rhinarium paste increases the range at which you can detect creatures by 50%. Rhinarium paste's effects lasts for 1 hour. Crafting this item requires a successful DC 20 Craft (alchemy) check.</p><h2 class=\"framing\">Construction</h2><p><strong>Craft (Alchemy)</strong> DC 20</p>",
      "unidentified": ""
    },
    "tags": [],
    "quantity": 1,
    "weight": {
      "value": 0.5
    },
    "price": 75,
    "size": "med",
    "equipped": true,
    "resizing": false,
    "identified": true,
    "hp": {
      "max": 10,
      "value": 10
    },
    "broken": false,
    "hardness": 0,
    "carried": true,
    "unidentified": {
      "price": 0,
      "name": ""
    },
    "cl": 0,
    "aura": {
      "custom": false,
      "school": ""
    },
    "actions": [],
    "uses": {
      "per": null,
      "value": 0,
      "maxFormula": "",
      "pricePerUse": 0,
      "autoDeductChargesCost": "1"
    },
    "attackNotes": [],
    "effectNotes": [],
    "links": {
      "children": [],
      "charges": []
    },
    "tag": "rhinariumPaste",
    "useCustomTag": false,
    "flags": {
      "boolean": {},
      "dictionary": {
        "Category": "Alchemical Tools"
      }
    },
    "scriptCalls": [],
    "subType": "misc",
    "showInQuickbar": false
  },
  "ownership": {
    "default": 0
  },
  "_stats": {
    "systemId": "pf1",
    "systemVersion": "9.1",
    "coreVersion": "10.291",
    "createdTime": 1665428367163,
    "modifiedTime": 1689797917161,
    "lastModifiedBy": "ppv91YxratjWnkJi"
  },
  "effects": [],
  "folder": null,
  "sort": 0,
  "flags": {},
  "_key": "!items!X2aL05WU5CGyWvmZ"
}