{
  "_id": "8DKv18wksPeqBYMQ",
  "name": "Roperunner",
  "type": "loot",
  "img": "icons/commodities/tech/wheel-wooden.webp",
  "system": {
    "description": {
      "value": "<p><strong>Source</strong> <em>Advanced Class Guide pg. 205</em><br/><strong>Price</strong> 50 gp; <strong>Weight</strong> 3 lbs.<br/><strong>Category</strong> Tools</p><h2 class=\"framing\"><img src=\"modules/pf-content/assets/PathfinderSocietySymbol.gif\" style=\"margin:3px 3px 0px 3px;\" title=\"PFS Legal\"/>Description</h2><p>You can place this metal contraption onto a taut section of a rope connecting a high point to a lower one, allowing you to slide down the length of the rope with ease. Using a roperunner requires only one hand, leaving the other hand free during the descent. Attaching the roperunner to a rope is a move action. Beginning the descent is a swift action. You slide down the rope at a rate of 60 feet per round. This requires no action on your part, but you must move along the length of the rope in the downward direction. Retrieving the roperunner once you have come to a stop at the end of the rope is a move action. You can let go of the roperunner as a free action.</p>",
      "unidentified": ""
    },
    "tags": [],
    "quantity": 1,
    "weight": {
      "value": 3
    },
    "price": 50,
    "size": "med",
    "equipped": false,
    "resizing": false,
    "identified": true,
    "hp": {
      "max": 10,
      "value": 10
    },
    "broken": false,
    "hardness": 0,
    "carried": true,
    "unidentified": {
      "price": 0,
      "name": ""
    },
    "cl": 0,
    "aura": {
      "custom": false,
      "school": ""
    },
    "changes": [],
    "changeFlags": {
      "loseDexToAC": false,
      "noEncumbrance": false,
      "mediumArmorFullSpeed": false,
      "heavyArmorFullSpeed": false
    },
    "contextNotes": [],
    "links": {
      "children": []
    },
    "tag": "roperunner",
    "useCustomTag": false,
    "flags": {
      "boolean": {},
      "dictionary": {
        "Category": "Tools"
      }
    },
    "scriptCalls": [],
    "subType": "gear",
    "extraType": "",
    "uses": {
      "value": 0,
      "max": 0
    }
  },
  "ownership": {
    "default": 0
  },
  "_stats": {
    "systemId": "pf1",
    "systemVersion": "9.1",
    "coreVersion": "10.291",
    "createdTime": 1665428365902,
    "modifiedTime": 1689793671832,
    "lastModifiedBy": "ppv91YxratjWnkJi"
  },
  "effects": [],
  "folder": null,
  "sort": 0,
  "flags": {},
  "_key": "!items!8DKv18wksPeqBYMQ"
}