{
  "_id": "iKiudxozY7LZuj0A",
  "name": "Rope, Contracting",
  "type": "loot",
  "img": "icons/sundries/survival/rope-wrapped-brown.webp",
  "system": {
    "description": {
      "value": "<p><strong>Source</strong> <em>Ranged Tactics Toolbox pg. 20</em><br/><strong>Price</strong> 50 gp; <strong>Weight</strong> 5 lbs.<br/><strong>Category</strong> Adventuring Gear</p><h2 class=\"framing\"><img src=\"modules/pf-content/assets/PathfinderSocietySymbol.gif\" style=\"margin:3px 3px 0px 3px;\" title=\"PFS Legal\"/>Description</h2><p>This 50-foot length of silk rope is treated with alchemical reagents that give it a distinctly dusty odor. When any part of the rope is touched to an open flame, it suddenly contracts to one-fifth its original length, pulling any creature or object attached to one side to within 10 feet of the other; if multiple creatures are moved into the same square, they fall prone in randomly determined adjacent squares. Because of the sudden jerk, a creature holding a contracting rope must succeed at a DC 10 Climb check to avoid dropping it as it contracts (unless it is knotted around the creature's waist, clamped in a locked gauntlet, or otherwise firmly attached to the creature). The rope fails to contract if it would pull more than 1,000 pounds horizontally or lift more than 250 pounds vertically. Once activated, the rope slowly unravels to its normal length over the course of 24 hours and can't be activated again until such time has passed.</p>",
      "unidentified": ""
    },
    "tags": [],
    "quantity": 1,
    "weight": {
      "value": 5
    },
    "price": 50,
    "size": "med",
    "equipped": false,
    "resizing": false,
    "identified": true,
    "hp": {
      "max": 10,
      "value": 10
    },
    "broken": false,
    "hardness": 0,
    "carried": true,
    "unidentified": {
      "price": 0,
      "name": ""
    },
    "cl": 0,
    "aura": {
      "custom": false,
      "school": ""
    },
    "changes": [],
    "changeFlags": {
      "loseDexToAC": false,
      "noEncumbrance": false,
      "mediumArmorFullSpeed": false,
      "heavyArmorFullSpeed": false
    },
    "contextNotes": [],
    "links": {
      "children": []
    },
    "tag": "ropeContracting",
    "useCustomTag": false,
    "flags": {
      "boolean": {},
      "dictionary": {
        "Category": "Adventuring Gear"
      }
    },
    "scriptCalls": [],
    "subType": "gear",
    "extraType": "",
    "uses": {
      "value": 0,
      "max": 0
    }
  },
  "ownership": {
    "default": 0
  },
  "_stats": {
    "systemId": "pf1",
    "systemVersion": "9.1",
    "coreVersion": "10.291",
    "createdTime": 1665428367627,
    "modifiedTime": 1689793675710,
    "lastModifiedBy": "ppv91YxratjWnkJi"
  },
  "effects": [],
  "folder": null,
  "sort": 0,
  "flags": {},
  "_key": "!items!iKiudxozY7LZuj0A"
}