{
  "_id": "RT6pcDsOUyEEl6mc",
  "name": "Rust repellent",
  "type": "loot",
  "img": "icons/commodities/materials/liquid-orange.webp",
  "system": {
    "description": {
      "value": "<p><strong>Source</strong> <em>Cohorts and Companions pg. 17</em><br/><strong>Price</strong> 25 gp; <strong>Weight</strong> 2 lbs.<br/><strong>Category</strong> Tools</p><h2 class=\"framing\"><img src=\"modules/pf-content/assets/PathfinderSocietySymbol.gif\" style=\"margin:3px 3px 0px 3px;\" title=\"PFS Legal\"/>Description</h2><p>This waxy paste preserves metal objects against rust. One application coats a Medium or smaller metal object or creature and lasts 24 hours, granting it a +2 circumstance bonus on saving throws against rusting effects and reduces amount of damage dealt by rusting attacks by 5. A jar of rust repellent contains 5 applications.</p>",
      "unidentified": ""
    },
    "tags": [],
    "quantity": 1,
    "weight": {
      "value": 2
    },
    "price": 25,
    "size": "med",
    "equipped": false,
    "resizing": false,
    "identified": true,
    "hp": {
      "max": 10,
      "value": 10
    },
    "broken": false,
    "hardness": 0,
    "carried": true,
    "unidentified": {
      "price": 0,
      "name": ""
    },
    "cl": 0,
    "aura": {
      "custom": false,
      "school": ""
    },
    "changes": [],
    "changeFlags": {
      "loseDexToAC": false,
      "noEncumbrance": false,
      "mediumArmorFullSpeed": false,
      "heavyArmorFullSpeed": false
    },
    "contextNotes": [],
    "links": {
      "children": []
    },
    "tag": "rustRepellent",
    "useCustomTag": false,
    "flags": {
      "boolean": {},
      "dictionary": {
        "Category": "Tools"
      }
    },
    "scriptCalls": [],
    "subType": "gear",
    "extraType": "",
    "uses": {
      "value": 0,
      "max": 0
    }
  },
  "ownership": {
    "default": 0
  },
  "_stats": {
    "systemId": "pf1",
    "systemVersion": "9.1",
    "coreVersion": "10.291",
    "createdTime": 1665428366840,
    "modifiedTime": 1689793673983,
    "lastModifiedBy": "ppv91YxratjWnkJi"
  },
  "effects": [],
  "folder": null,
  "sort": 0,
  "flags": {},
  "_key": "!items!RT6pcDsOUyEEl6mc"
}