{
  "_id": "Ez7UfMpj1APaCWfc",
  "name": "Shears (adamantine)",
  "type": "loot",
  "img": "icons/tools/hand/wrench-steel-grey.webp",
  "system": {
    "description": {
      "value": "<p><strong>Source</strong> <em>Adventurer's Armory 2 pg. 17</em><br/><strong>Price</strong> <img src=\"modules/pf-content/assets/PathfinderSocietySymbol.gif\" style=\"margin:3px 3px 0px 3px;\" title=\"PFS Legal\"/> 3,003 gp (adamantine), <img src=\"modules/pf-content/assets/PathfinderSocietySymbol.gif\" style=\"margin:3px 3px 0px 3px;\" title=\"PFS Legal\"/> 3 gp (lopping), <img src=\"modules/pf-content/assets/PathfinderSocietySymbol.gif\" style=\"margin:3px 3px 0px 3px;\" title=\"PFS Legal\"/> 5 sp (small); <strong>Weight</strong> 8 lbs. (adamantine), 8 lbs. (lopping), 1/2 lb. (small)</p><h2 class=\"framing\">Description</h2><p>Shears are used to quickly cut through items by snipping them between two sharp blades fitted with a spring to allow the jaws to open again after closing. Small shears can be used in one hand and are often used to trim hair, cut cloth, or perform other delicate cutting work. Lopping shears are 3 feet long and must be used in two hands; they are commonly used by farmers or gardeners to cut hedges and branches.<br/><br/> Adamantine shears are lopping shears with sharpened adamantine blades that can snip through nearly any material. You can use adamantine shears to cut through bars, chains, grates, or similar items, dealing damage to such objects as though using a scimitar and bypassing hardness less than 20. On any item the adamantine shears can fit around (such as a chain or iron bar, but not an iron door), using adamantine shears provides a +10 bonus on your Strength check to break or burst it.</p>",
      "unidentified": ""
    },
    "tags": [],
    "quantity": 1,
    "weight": {
      "value": 8
    },
    "price": 3003,
    "size": "med",
    "equipped": false,
    "resizing": false,
    "identified": true,
    "hp": {
      "max": 10,
      "value": 10
    },
    "broken": false,
    "hardness": 0,
    "carried": true,
    "unidentified": {
      "price": 0,
      "name": ""
    },
    "cl": 0,
    "aura": {
      "custom": false,
      "school": ""
    },
    "changes": [],
    "changeFlags": {
      "loseDexToAC": false,
      "noEncumbrance": false,
      "mediumArmorFullSpeed": false,
      "heavyArmorFullSpeed": false
    },
    "contextNotes": [],
    "links": {
      "children": []
    },
    "tag": "shearsAdamantine",
    "useCustomTag": false,
    "flags": {
      "boolean": {},
      "dictionary": {
        "Category": "Tools"
      }
    },
    "scriptCalls": [],
    "subType": "gear",
    "extraType": "",
    "uses": {
      "value": 0,
      "max": 0
    }
  },
  "ownership": {
    "default": 0
  },
  "_stats": {
    "systemId": "pf1",
    "systemVersion": "9.1",
    "coreVersion": "10.291",
    "createdTime": 1665428366316,
    "modifiedTime": 1689793672791,
    "lastModifiedBy": "ppv91YxratjWnkJi"
  },
  "effects": [],
  "folder": null,
  "sort": 0,
  "flags": {},
  "_key": "!items!Ez7UfMpj1APaCWfc"
}