{
  "_id": "WeEkC7GZlru1GseA",
  "name": "Shiver",
  "type": "consumable",
  "img": "systems/pf1/icons/items/potions/unique-8.jpg",
  "flags": {
    "scene-packer": {
      "sourceId": "Item.ukyYSaNHGe4lcLIN"
    }
  },
  "system": {
    "description": {
      "value": "<p><strong>Source&nbsp;</strong><em>GameMastery Guide pg. 237</em></p>\n<p><strong>Type</strong> injury or ingested;<strong> Addiction </strong>major, Fortitude DC 18</p>\n<p><strong>Price </strong>500 gp; <strong>Weight </strong>0 lbs</p>\n<p><strong>Effect&nbsp;</strong>variable; 50% chance to sleep for 1d4 hours or gain immunity to fear for 1d4 minutes</p>\n<p><strong>Damage </strong>1d2 Con damage</p>\n<p>&nbsp;</p>\n<p>&nbsp;</p>",
      "unidentified": ""
    },
    "tags": [],
    "quantity": 1,
    "weight": {
      "value": 0
    },
    "price": 500,
    "size": "med",
    "equipped": true,
    "resizing": false,
    "identified": true,
    "hp": {
      "max": 10,
      "value": 10
    },
    "broken": false,
    "hardness": 0,
    "carried": true,
    "unidentified": {
      "price": 0,
      "name": ""
    },
    "cl": 0,
    "aura": {
      "custom": false,
      "school": ""
    },
    "actions": [
      {
        "_id": "1snl7timgvoj39f0",
        "name": "Use",
        "img": "systems/pf1/icons/items/potions/unique-8.jpg",
        "description": "",
        "tag": "shiver",
        "activation": {
          "cost": 1,
          "type": "standard",
          "unchained": {
            "cost": 2,
            "type": "action"
          }
        },
        "duration": {
          "value": null,
          "units": ""
        },
        "target": {
          "value": ""
        },
        "range": {
          "units": "",
          "maxIncrements": 1,
          "minValue": null,
          "minUnits": ""
        },
        "uses": {
          "autoDeductChargesCost": "",
          "self": {
            "value": 0,
            "maxFormula": "",
            "per": null
          },
          "per": "single",
          "value": 0,
          "maxFormula": "",
          "pricePerUse": 0,
          "max": 0
        },
        "measureTemplate": {
          "type": "",
          "size": "",
          "overrideColor": false,
          "customColor": "",
          "overrideTexture": false,
          "customTexture": ""
        },
        "attackName": "",
        "actionType": "save",
        "attackBonus": "",
        "critConfirmBonus": "",
        "damage": {
          "parts": [],
          "critParts": [],
          "nonCritParts": []
        },
        "attackParts": [],
        "formulaicAttacks": {
          "count": {
            "formula": ""
          },
          "bonus": {
            "formula": ""
          },
          "label": null
        },
        "formula": "",
        "ability": {
          "attack": null,
          "damage": "",
          "damageMult": 1,
          "critRange": 20,
          "critMult": 2
        },
        "save": {
          "dc": "18",
          "type": "fort",
          "description": ""
        },
        "effectNotes": [
          "<b>Effect</b> variable; 50% chance to sleep for 1d4 hours or gain immunity to fear for 1d4 minutes",
          "<b>Damage</b> 1d2 Con damage"
        ],
        "attackNotes": [],
        "soundEffect": "",
        "powerAttack": {
          "multiplier": "",
          "damageBonus": 2,
          "critMultiplier": 1
        },
        "naturalAttack": {
          "primaryAttack": true,
          "secondary": {
            "attackBonus": "-5",
            "damageMult": 0.5
          }
        },
        "nonlethal": false,
        "touch": false,
        "usesAmmo": false,
        "spellEffect": "",
        "spellArea": "",
        "conditionals": [],
        "enh": {
          "value": null
        }
      }
    ],
    "uses": {
      "per": "single",
      "value": 0,
      "maxFormula": "",
      "pricePerUse": 0,
      "autoDeductChargesCost": "1",
      "max": 0
    },
    "attackNotes": [],
    "effectNotes": [],
    "links": {
      "children": [],
      "charges": []
    },
    "tag": "shiver",
    "useCustomTag": false,
    "flags": {
      "boolean": {},
      "dictionary": {}
    },
    "scriptCalls": [],
    "subType": "drug",
    "showInQuickbar": false
  },
  "ownership": {
    "default": 0
  },
  "_stats": {
    "systemId": "pf1",
    "systemVersion": "9.1",
    "coreVersion": "10.291",
    "createdTime": 1665428367152,
    "modifiedTime": 1689797917121,
    "lastModifiedBy": "ppv91YxratjWnkJi"
  },
  "effects": [],
  "folder": null,
  "sort": 0,
  "_key": "!items!WeEkC7GZlru1GseA"
}