{
  "_id": "rGZQRZJNf8mdoSP8",
  "name": "Smell of fear",
  "type": "consumable",
  "img": "systems/pf1/icons/items/potions/unique-9.jpg",
  "system": {
    "description": {
      "value": "<h3><img src=\"modules/pf-content/assets/PathfinderSocietySymbol.gif\" title=\"PFS Legal\" style=\"margin:3px 3px 0px 3px;\"> Smell of fear</h3><p><strong>Source</strong> <em>Alchemy Manual pg. 7</em></p><p><strong>Price</strong> 600 gp; <strong>Weight</strong> 1/2 lb.</p><p><strong>Type</strong> inhaled; <strong>Save</strong> Fortitude DC 17</p><p><strong>Frequency</strong> 1/minute for 6 minutes</p><p><strong>Effect</strong> 1d2 Wis damage, and if the victim would become shaken during the next 1 minute, she becomes frightened instead</p><p><strong>Cure</strong> 2 saves</p><h3 class=\"framing\">Alchemical Recipe<h3><p><strong>Recipe</strong> (170 quicksilver + 170 realgar)/fermentation; <strong>Craft</strong> DC 17</p><p><strong>Time</strong> 1 day; <strong>Tools</strong> heat source; <strong>Type</strong> poison</p>",
      "unidentified": ""
    },
    "tags": [],
    "quantity": 1,
    "weight": {
      "value": 0.5
    },
    "price": 600,
    "size": "med",
    "equipped": true,
    "resizing": false,
    "identified": true,
    "hp": {
      "max": 10,
      "value": 10
    },
    "broken": false,
    "hardness": 0,
    "carried": true,
    "unidentified": {
      "price": 0,
      "name": ""
    },
    "cl": 0,
    "aura": {
      "custom": false,
      "school": ""
    },
    "actions": [
      {
        "_id": "86823hessujeuzh6",
        "name": "Use",
        "img": "systems/pf1/icons/items/potions/unique-9.jpg",
        "description": "",
        "tag": "smellOfFear",
        "activation": {
          "cost": 1,
          "type": "standard",
          "unchained": {
            "cost": 2,
            "type": "action"
          }
        },
        "duration": {
          "value": null,
          "units": ""
        },
        "target": {
          "value": ""
        },
        "range": {
          "units": "",
          "maxIncrements": 1,
          "minValue": null,
          "minUnits": ""
        },
        "uses": {
          "autoDeductChargesCost": "",
          "self": {
            "value": 0,
            "maxFormula": "",
            "per": null
          },
          "per": "single",
          "value": 0,
          "maxFormula": "",
          "pricePerUse": 0,
          "max": 0
        },
        "measureTemplate": {
          "type": "",
          "size": "",
          "overrideColor": false,
          "customColor": "",
          "overrideTexture": false,
          "customTexture": ""
        },
        "attackName": "",
        "actionType": "save",
        "attackBonus": "",
        "critConfirmBonus": "",
        "damage": {
          "parts": [],
          "critParts": [],
          "nonCritParts": []
        },
        "attackParts": [],
        "formulaicAttacks": {
          "count": {
            "formula": ""
          },
          "bonus": {
            "formula": ""
          },
          "label": null
        },
        "formula": "",
        "ability": {
          "attack": null,
          "damage": "",
          "damageMult": 1,
          "critRange": 20,
          "critMult": 2
        },
        "save": {
          "dc": "17",
          "type": "fort",
          "description": ""
        },
        "effectNotes": [
          "<b>Primary Effect:</b>  [[1d2]] Wis damage, and if the victim would become shaken during the next [[1]] minute, she becomes frightened instead"
        ],
        "attackNotes": [],
        "soundEffect": "",
        "powerAttack": {
          "multiplier": "",
          "damageBonus": 2,
          "critMultiplier": 1
        },
        "naturalAttack": {
          "primaryAttack": true,
          "secondary": {
            "attackBonus": "-5",
            "damageMult": 0.5
          }
        },
        "nonlethal": false,
        "touch": false,
        "usesAmmo": false,
        "spellEffect": "",
        "spellArea": "",
        "conditionals": [],
        "enh": {
          "value": null
        }
      }
    ],
    "uses": {
      "per": "single",
      "value": 0,
      "maxFormula": "",
      "pricePerUse": 0,
      "autoDeductChargesCost": "1",
      "max": 0
    },
    "attackNotes": [],
    "effectNotes": [],
    "links": {
      "children": [],
      "charges": []
    },
    "tag": "smellOfFear",
    "useCustomTag": false,
    "flags": {
      "boolean": {},
      "dictionary": {}
    },
    "scriptCalls": [],
    "subType": "poison",
    "showInQuickbar": false
  },
  "ownership": {
    "default": 0
  },
  "_stats": {
    "systemId": "pf1",
    "systemVersion": "9.1",
    "coreVersion": "10.291",
    "createdTime": 1665428368045,
    "modifiedTime": 1689797920005,
    "lastModifiedBy": "ppv91YxratjWnkJi"
  },
  "effects": [],
  "folder": null,
  "sort": 0,
  "flags": {},
  "_key": "!items!rGZQRZJNf8mdoSP8"
}