{
  "_id": "7lZfUAtoX58tIDLk",
  "name": "Sneezing powder",
  "type": "consumable",
  "img": "icons/commodities/materials/bowl-liquid-white.webp",
  "system": {
    "description": {
      "value": "<h1 class=\"title\"><img src=\"modules/pf-content/assets/PathfinderSocietySymbol.gif\" style=\"margin:3px 3px 0px 3px;\" title=\"PFS Legal\"/> Sneezing powder</h1><b>Source</b> <a class=\"external-link\" href=\"http://paizo.com/products/btpy8tmc?Pathfinder-Roleplaying-Game-Ultimate-Equipment\" target=\"_blank\"><i>Ultimate Equipment pg. 107</i></a>, <a href=\"http://paizo.com/pathfinderRPG/v5748btpy8fo1\" target=\"_blank\"><i>Advanced Player's Guide pg. 184</i></a>, <a href=\"http://paizo.com/store/downloads/pathfinder/pathfinderCompanion/pathfinderRPG/v5748btpy8dmf\" target=\"_blank\"><i>Adventurer's Armory pg. 19</i></a><br/><b>Price</b> 60 gp; <b>Weight</b> 2 lbs.<br/><b>Category</b> Alchemical Weapons<h2 class=\"framing\">Description</h2><p>This coarse yellowish-red powder is a splash weapon that causes uncontrollable sneezing for 1d4+1 rounds. Anyone standing in the square of impact must succeed at a DC 12 Fortitude save to resist the powder, while those in adjacent squares must make DC 8 Fortitude saves. Creatures affected by sneezing powder must make a DC 10 Fortitude save every round for the duration or be staggered until their next turn. This is a poison effect. Crafting this item is a DC 25 Craft (alchemy) check.</p><h2 class=\"framing\">Construction</h2><p><b>Craft (Alchemy)</b> DC 25</p>",
      "unidentified": ""
    },
    "tags": [],
    "quantity": 1,
    "weight": {
      "value": 2
    },
    "price": 60,
    "size": "med",
    "equipped": true,
    "resizing": false,
    "identified": true,
    "hp": {
      "max": 10,
      "value": 10
    },
    "broken": false,
    "hardness": 0,
    "carried": true,
    "unidentified": {
      "price": 0,
      "name": ""
    },
    "cl": 0,
    "aura": {
      "custom": false,
      "school": ""
    },
    "actions": [
      {
        "_id": "c93bxpiso4n4ufp4",
        "name": "Use",
        "img": "icons/commodities/materials/bowl-liquid-white.webp",
        "description": "",
        "tag": "sneezingPowder",
        "activation": {
          "cost": 1,
          "type": "standard",
          "unchained": {
            "cost": 2,
            "type": "action"
          }
        },
        "duration": {
          "value": null,
          "units": ""
        },
        "target": {
          "value": ""
        },
        "range": {
          "value": "10",
          "units": "ft",
          "maxIncrements": "1",
          "minValue": null,
          "minUnits": ""
        },
        "uses": {
          "autoDeductChargesCost": "",
          "self": {
            "value": 0,
            "maxFormula": "",
            "per": null
          },
          "per": null,
          "value": 0,
          "maxFormula": "",
          "pricePerUse": 0
        },
        "measureTemplate": {
          "type": "",
          "size": "0",
          "overrideColor": false,
          "customColor": "",
          "overrideTexture": false,
          "customTexture": ""
        },
        "attackName": "",
        "actionType": "rsak",
        "attackBonus": "",
        "critConfirmBonus": "",
        "damage": {
          "parts": [
            {
              "formula": "",
              "type": {
                "values": [],
                "custom": ""
              }
            },
            {
              "formula": "",
              "type": {
                "values": [],
                "custom": ""
              }
            }
          ],
          "critParts": [],
          "nonCritParts": []
        },
        "attackParts": [],
        "formulaicAttacks": {
          "count": {
            "formula": ""
          },
          "bonus": {
            "formula": ""
          },
          "label": null
        },
        "formula": "",
        "ability": {
          "attack": "",
          "damage": "",
          "damageMult": 1,
          "critRange": 20,
          "critMult": 1
        },
        "save": {
          "dc": "12",
          "type": "fort",
          "description": ""
        },
        "effectNotes": [
          "see text"
        ],
        "attackNotes": [],
        "soundEffect": "",
        "powerAttack": {
          "multiplier": "",
          "damageBonus": 2,
          "critMultiplier": 1
        },
        "naturalAttack": {
          "primaryAttack": true,
          "secondary": {
            "attackBonus": "-5",
            "damageMult": 0.5
          }
        },
        "nonlethal": false,
        "touch": false,
        "usesAmmo": false,
        "spellEffect": "",
        "spellArea": "",
        "conditionals": [],
        "enh": {
          "value": null
        }
      }
    ],
    "uses": {
      "per": null,
      "value": 0,
      "maxFormula": "",
      "pricePerUse": 0,
      "autoDeductChargesCost": "1"
    },
    "attackNotes": [],
    "effectNotes": [],
    "links": {
      "children": [],
      "charges": []
    },
    "tag": "sneezingPowder",
    "useCustomTag": false,
    "flags": {
      "boolean": {},
      "dictionary": {
        "Category": "Alchemical Weapons"
      }
    },
    "scriptCalls": [],
    "subType": "misc",
    "showInQuickbar": false
  },
  "ownership": {
    "default": 0
  },
  "_stats": {
    "systemId": "pf1",
    "systemVersion": "9.1",
    "coreVersion": "10.291",
    "createdTime": 1665428365884,
    "modifiedTime": 1689797912972,
    "lastModifiedBy": "ppv91YxratjWnkJi"
  },
  "effects": [],
  "folder": null,
  "sort": 0,
  "flags": {},
  "_key": "!items!7lZfUAtoX58tIDLk"
}