{
  "_id": "7sY3uqZj6UfjQ73w",
  "name": "Soap",
  "type": "loot",
  "img": "icons/sundries/survival/soap.webp",
  "system": {
    "description": {
      "value": "<p><strong>Source</strong> <em>Ultimate Equipment pg. 57</em>, <em>Adventurer's Armory pg. 19</em>, <em>PRPG Core Rulebook pg. 158</em><br/><strong>Price</strong> 1 cp; <strong>Weight</strong> 1/2 lb.<br/><strong>Category</strong> Adventuring Gear</p><h2 class=\"framing\"><img src=\"modules/pf-content/assets/PathfinderSocietySymbol.gif\" style=\"margin:3px 3px 0px 3px;\" title=\"PFS Legal\"/>Description</h2><p>Most soap is made from animal fat and lye derived from ashes. You can use this thick block of soap to scrub clothes, pots, linens, adventurers, or anything else that might be dirty. A bar of soap has approximately 50 uses.</p>",
      "unidentified": ""
    },
    "tags": [],
    "quantity": 1,
    "weight": {
      "value": 0.5
    },
    "price": 0.01,
    "size": "med",
    "equipped": false,
    "resizing": false,
    "identified": true,
    "hp": {
      "max": 10,
      "value": 10
    },
    "broken": false,
    "hardness": 0,
    "carried": true,
    "unidentified": {
      "price": 0,
      "name": ""
    },
    "cl": 0,
    "aura": {
      "custom": false,
      "school": ""
    },
    "changes": [],
    "changeFlags": {
      "loseDexToAC": false,
      "noEncumbrance": false,
      "mediumArmorFullSpeed": false,
      "heavyArmorFullSpeed": false
    },
    "contextNotes": [],
    "links": {
      "children": []
    },
    "tag": "soap",
    "useCustomTag": false,
    "flags": {
      "boolean": {},
      "dictionary": {
        "Category": "Adventuring Gear"
      }
    },
    "scriptCalls": [],
    "subType": "gear",
    "extraType": "",
    "uses": {
      "value": 0,
      "max": 0
    }
  },
  "ownership": {
    "default": 0
  },
  "_stats": {
    "systemId": "pf1",
    "systemVersion": "9.1",
    "coreVersion": "10.291",
    "createdTime": 1665428365890,
    "modifiedTime": 1689793671793,
    "lastModifiedBy": "ppv91YxratjWnkJi"
  },
  "effects": [],
  "folder": null,
  "sort": 0,
  "flags": {},
  "_key": "!items!7sY3uqZj6UfjQ73w"
}