{
  "_id": "BKLelGIsPPIv7GYW",
  "name": "Sparkle Smoke",
  "type": "consumable",
  "img": "icons/tools/laboratory/bowl-liquid-orange.webp",
  "system": {
    "description": {
      "value": "<p><strong>Source</strong> <em>Adventurer's Guide pg. 45</em>, <em>Pathfinder #106: For Queen and Empire pg. 75</em><br/><strong>Price</strong> 25 gp; <strong>Weight</strong> 1 lb.<br/><strong>Category</strong> Alchemical Tools</p><h2 class=\"framing\"><img src=\"modules/pf-content/assets/PathfinderSocietySymbol.gif\" style=\"margin:3px 3px 0px 3px;\" title=\"PFS Legal\"/>Description</h2><p>When inhaled, this incense causes creatures to see dazzling auras around light sources, drawing their attention to such illumination as the moon or stars and away from other nearby creatures. Any creature inhaling sparkle smoke that fails a DC 15 Fortitude saving throw takes a -4 penalty on Perception checks to notice creatures smaller than itself in areas of at least dim light for 1 hour. Crafting a dose of sparkle smoke requires a successful DC 15 Craft (alchemy) check.</p><h2 class=\"framing\">Construction</h2><p><strong>Craft (Alchemy)</strong> DC 15</p>",
      "unidentified": ""
    },
    "tags": [],
    "quantity": 1,
    "weight": {
      "value": 1
    },
    "price": 25,
    "size": "med",
    "equipped": true,
    "resizing": false,
    "identified": true,
    "hp": {
      "max": 10,
      "value": 10
    },
    "broken": false,
    "hardness": 0,
    "carried": true,
    "unidentified": {
      "price": 0,
      "name": ""
    },
    "cl": 0,
    "aura": {
      "custom": false,
      "school": ""
    },
    "actions": [],
    "uses": {
      "per": null,
      "value": 0,
      "maxFormula": "",
      "pricePerUse": 0,
      "autoDeductChargesCost": "1"
    },
    "attackNotes": [],
    "effectNotes": [],
    "links": {
      "children": [],
      "charges": []
    },
    "tag": "sparkleSmoke",
    "useCustomTag": false,
    "flags": {
      "boolean": {},
      "dictionary": {
        "Category": "Alchemical Tools"
      }
    },
    "scriptCalls": [],
    "subType": "misc",
    "showInQuickbar": false
  },
  "ownership": {
    "default": 0
  },
  "_stats": {
    "systemId": "pf1",
    "systemVersion": "9.1",
    "coreVersion": "10.291",
    "createdTime": 1665428366221,
    "modifiedTime": 1689797913674,
    "lastModifiedBy": "ppv91YxratjWnkJi"
  },
  "effects": [],
  "folder": null,
  "sort": 0,
  "flags": {},
  "_key": "!items!BKLelGIsPPIv7GYW"
}