{
  "_id": "B8oaRkmPVMhmrmdb",
  "name": "Specialty smoke pellet (Pepper)",
  "type": "consumable",
  "img": "icons/commodities/tech/bearing-steel-green.webp",
  "system": {
    "description": {
      "value": "<h1 class=\"title\">Specialty smoke pellet</h1><b>Source</b> <i>Dungeoneer's Handbook pg. 27</i><br/><b>Price</b> <img src=\"modules/pf-content/assets/PathfinderSocietySymbol.gif\" style=\"margin:3px 3px 0px 3px;\" title=\"PFS Legal\"/>  60 gp (Pepper), <img src=\"modules/pf-content/assets/PathfinderSocietySymbol.gif\" style=\"margin:3px 3px 0px 3px;\" title=\"PFS Legal\"/>  40 gp (Smog); <b>Weight</b> - (Pepper), - (Smog)<h2 class=\"framing\">Description</h2><p>Like standard smoke pellets (<i>Ultimate Equipment </i>105), these specialty pellets fill a single 5-foot square with opaque smoke for 1 round when broken. They can also be thrown as a ranged touch attack with a range increment of 10 feet. However, unlike standard smoke pellets, these pellets produce smoke that confers additional effects.<br/><br/> <i>Pepper Pellet</i>: The smoke from a pepper pellet is an ocular and respiratory irritant, and creatures that are hit by a pepper pellet or pass through the smoke must succeed at a DC 12 Fortitude save or be sickened for 1 round.<br/><br/> <i>Smog Pellet</i>: The smoke from a smog pellet is oily, and creatures that are hit by a smog pellet or pass through the smoke are covered in thick residue. This residue makes invisible creatures visible for 1d4 rounds.</p><h2 class=\"framing\">Construction</h2><p><b>Craft (Alchemy)</b> DC 25</p>",
      "unidentified": ""
    },
    "tags": [],
    "quantity": 1,
    "weight": {
      "value": 0
    },
    "price": 60,
    "size": "med",
    "equipped": true,
    "resizing": false,
    "identified": true,
    "hp": {
      "max": 10,
      "value": 10
    },
    "broken": false,
    "hardness": 0,
    "carried": true,
    "unidentified": {
      "price": 0,
      "name": ""
    },
    "cl": 0,
    "aura": {
      "custom": false,
      "school": ""
    },
    "actions": [
      {
        "_id": "fr044s26hz9nu0v5",
        "name": "Use",
        "img": "icons/commodities/tech/bearing-steel-green.webp",
        "description": "",
        "tag": "specialtySmokePelletPepper",
        "activation": {
          "cost": 1,
          "type": "standard",
          "unchained": {
            "cost": 2,
            "type": "action"
          }
        },
        "duration": {
          "value": null,
          "units": ""
        },
        "target": {
          "value": ""
        },
        "range": {
          "value": "10",
          "units": "ft",
          "maxIncrements": "1",
          "minValue": null,
          "minUnits": ""
        },
        "uses": {
          "autoDeductChargesCost": "",
          "self": {
            "value": 0,
            "maxFormula": "",
            "per": null
          },
          "per": null,
          "value": 0,
          "maxFormula": "",
          "pricePerUse": 0
        },
        "measureTemplate": {
          "type": "",
          "size": "0",
          "overrideColor": false,
          "customColor": "",
          "overrideTexture": false,
          "customTexture": ""
        },
        "attackName": "",
        "actionType": "rsak",
        "attackBonus": "",
        "critConfirmBonus": "",
        "damage": {
          "parts": [
            {
              "formula": "",
              "type": {
                "values": [],
                "custom": ""
              }
            },
            {
              "formula": "",
              "type": {
                "values": [],
                "custom": ""
              }
            }
          ],
          "critParts": [],
          "nonCritParts": []
        },
        "attackParts": [],
        "formulaicAttacks": {
          "count": {
            "formula": ""
          },
          "bonus": {
            "formula": ""
          },
          "label": null
        },
        "formula": "",
        "ability": {
          "attack": "",
          "damage": "",
          "damageMult": 1,
          "critRange": 20,
          "critMult": 1
        },
        "save": {
          "dc": "12",
          "type": "fort",
          "description": ""
        },
        "effectNotes": [
          "see text"
        ],
        "attackNotes": [],
        "soundEffect": "",
        "powerAttack": {
          "multiplier": "",
          "damageBonus": 2,
          "critMultiplier": 1
        },
        "naturalAttack": {
          "primaryAttack": true,
          "secondary": {
            "attackBonus": "-5",
            "damageMult": 0.5
          }
        },
        "nonlethal": false,
        "touch": false,
        "usesAmmo": false,
        "spellEffect": "",
        "spellArea": "",
        "conditionals": [],
        "enh": {
          "value": null
        }
      }
    ],
    "uses": {
      "per": null,
      "value": 0,
      "maxFormula": "",
      "pricePerUse": 0,
      "autoDeductChargesCost": "1"
    },
    "attackNotes": [],
    "effectNotes": [],
    "links": {
      "children": [],
      "charges": []
    },
    "tag": "specialtySmokePelletPepper",
    "useCustomTag": false,
    "flags": {
      "boolean": {},
      "dictionary": {
        "Category": "Alchemical Weapons"
      }
    },
    "scriptCalls": [],
    "subType": "misc",
    "showInQuickbar": false
  },
  "ownership": {
    "default": 0
  },
  "_stats": {
    "systemId": "pf1",
    "systemVersion": "9.1",
    "coreVersion": "10.291",
    "createdTime": 1665428366218,
    "modifiedTime": 1689797913657,
    "lastModifiedBy": "ppv91YxratjWnkJi"
  },
  "effects": [],
  "folder": null,
  "sort": 0,
  "flags": {},
  "_key": "!items!B8oaRkmPVMhmrmdb"
}