{
  "_id": "ZmxscuL098HjRywh",
  "name": "Spider Sac",
  "type": "consumable",
  "img": "icons/commodities/materials/material-webbing.webp",
  "system": {
    "description": {
      "value": "<p><strong>Source</strong> <em>Advanced Race Guide pg. 105</em><br/><strong>Price</strong> 30 gp; <strong>Weight</strong> 1 lb.<br/><strong>Category</strong> Alchemical Tools</p><h2 class=\"framing\">Description</h2><p>Despite their name, spider sacs have nothing to do with spiders but rather are alchemical devices with a unique delivery system. Used for climbing as well as combat, these grayish, gourdlike pouches are made of a specially grown fungus with a tough but rubbery exterior. The fungoid is carefully harvested, pierced at one end, hollowed out, and then injected with a strong alchemical adhesive that hardens to a fibrous material almost instantly when exposed to air. When squeezed, a spider sac's adhesive shoots out to a maximum range of 10 feet and sticks to whatever it strikes, whereupon the strand dries instantly into a durable fibrous rope. For the purposes of climbing, treat a spider sac as a grappling hook except that all surfaces are AC 5. A spider sac can also be used as a lasso except with AC 10, 4 hit points, and a DC 24 Strength check to burst. A spider sac is a single-use item.</p><h2 class=\"framing\">Construction</h2><p><strong>Craft (Alchemy)</strong> DC 20</p>",
      "unidentified": ""
    },
    "tags": [],
    "quantity": 1,
    "weight": {
      "value": 1
    },
    "price": 30,
    "size": "med",
    "equipped": true,
    "resizing": false,
    "identified": true,
    "hp": {
      "max": 10,
      "value": 10
    },
    "broken": false,
    "hardness": 0,
    "carried": true,
    "unidentified": {
      "price": 0,
      "name": ""
    },
    "cl": 0,
    "aura": {
      "custom": false,
      "school": ""
    },
    "actions": [],
    "uses": {
      "per": null,
      "value": 0,
      "maxFormula": "",
      "pricePerUse": 0,
      "autoDeductChargesCost": "1"
    },
    "attackNotes": [],
    "effectNotes": [],
    "links": {
      "children": [],
      "charges": []
    },
    "tag": "spiderSac",
    "useCustomTag": false,
    "flags": {
      "boolean": {},
      "dictionary": {
        "Category": "Alchemical Tools"
      }
    },
    "scriptCalls": [],
    "subType": "misc",
    "showInQuickbar": false
  },
  "ownership": {
    "default": 0
  },
  "_stats": {
    "systemId": "pf1",
    "systemVersion": "9.1",
    "coreVersion": "10.291",
    "createdTime": 1665428367250,
    "modifiedTime": 1689797917491,
    "lastModifiedBy": "ppv91YxratjWnkJi"
  },
  "effects": [],
  "folder": null,
  "sort": 0,
  "flags": {},
  "_key": "!items!ZmxscuL098HjRywh"
}