{
  "_id": "AphciVuknuSOQx78",
  "name": "Spiritbane Spike",
  "type": "consumable",
  "img": "icons/weapons/staves/staff-skull-brown.webp",
  "system": {
    "description": {
      "value": "<p><strong>Source</strong> <em>Undead Slayer's Handbook pg. 13</em><br/><strong>Price</strong> 300 gp; <strong>Weight</strong> 1 lb.<br/><strong>Category</strong> Alchemical Tools</p><h2 class=\"framing\"><img src=\"modules/pf-content/assets/PathfinderSocietySymbol.gif\" style=\"margin:3px 3px 0px 3px;\" title=\"PFS Legal\"/>Description</h2><p>When you slash this alchemically treated iron spike against your flesh-a move action that deals 1d6 points of damage- the spike extends and becomes a short sword with the <em>ghost touch </em>weapon special ability. The spike reverts to its old form after 10 minutes, corroded and useless. Should a spiritbane spike rematerialize within a corporeal body, it is shunted to the nearest empty space without effect. Crafting this item requires a successful DC 25 Craft (alchemy) check.</p><h2 class=\"framing\">Construction</h2><p><strong>Craft (Alchemy)</strong> DC 25</p>",
      "unidentified": ""
    },
    "tags": [],
    "quantity": 1,
    "weight": {
      "value": 1
    },
    "price": 300,
    "size": "med",
    "equipped": true,
    "resizing": false,
    "identified": true,
    "hp": {
      "max": 10,
      "value": 10
    },
    "broken": false,
    "hardness": 0,
    "carried": true,
    "unidentified": {
      "price": 0,
      "name": ""
    },
    "cl": 0,
    "aura": {
      "custom": false,
      "school": ""
    },
    "actions": [],
    "uses": {
      "per": null,
      "value": 0,
      "maxFormula": "",
      "pricePerUse": 0,
      "autoDeductChargesCost": "1"
    },
    "attackNotes": [],
    "effectNotes": [],
    "links": {
      "children": [],
      "charges": []
    },
    "tag": "spiritbaneSpike",
    "useCustomTag": false,
    "flags": {
      "boolean": {},
      "dictionary": {
        "Category": "Alchemical Tools"
      }
    },
    "scriptCalls": [],
    "subType": "misc",
    "showInQuickbar": false
  },
  "ownership": {
    "default": 0
  },
  "_stats": {
    "systemId": "pf1",
    "systemVersion": "9.1",
    "coreVersion": "10.291",
    "createdTime": 1665428366208,
    "modifiedTime": 1689797913596,
    "lastModifiedBy": "ppv91YxratjWnkJi"
  },
  "effects": [],
  "folder": null,
  "sort": 0,
  "flags": {},
  "_key": "!items!AphciVuknuSOQx78"
}