{
  "_id": "O5LXtYlHzv4Sk0P4",
  "name": "Sponge suit",
  "type": "equipment",
  "img": "icons/equipment/chest/breastplate-scale-leather.webp",
  "system": {
    "description": {
      "value": "<p><strong>Source</strong> <em>Blood of the Sea pg. 19</em><br/><strong>Price</strong> 30 gp; <strong>Weight</strong> 2 lbs. (or 10 lbs.)<br/><strong>Category</strong> Clothing</p><h2 class=\"framing\"><img src=\"modules/pf-content/assets/PathfinderSocietySymbol.gif\" style=\"margin:3px 3px 0px 3px;\" title=\"PFS Legal\"/>Description</h2><p>Outwardly, this suit of clothing appears to be an ordinary traveler's outfit, albeit cut from thicker-thannormal cloth. The suit's inner lining is made of dozens of thin, flexible sponges. When soaked with water, these sponges can be worn against the skin to maintain the wearer's moisture while traveling out of the water.<br/><br/> It takes 10 minutes to fully saturate the suit, which increases its weight from 2 pounds to 10 pounds.<br/><br/> When worn, a sponge suit doubles the amount of time a water-dependent creature can spend on dry land before it begins to take damage or suffer other negative effects. When the sponges dry, wearers must submerge themselves in water or resaturate the suit, or else they suffer the consequences of being on dry land.</p>",
      "unidentified": ""
    },
    "tags": [],
    "quantity": 1,
    "weight": {
      "value": 2
    },
    "price": 30,
    "size": "med",
    "equipped": true,
    "resizing": false,
    "identified": true,
    "hp": {
      "max": 10,
      "value": 10
    },
    "broken": false,
    "hardness": 0,
    "carried": true,
    "unidentified": {
      "price": 0,
      "name": ""
    },
    "cl": 0,
    "aura": {
      "custom": false,
      "school": ""
    },
    "changes": [],
    "changeFlags": {
      "loseDexToAC": false,
      "noEncumbrance": false,
      "mediumArmorFullSpeed": false,
      "heavyArmorFullSpeed": false
    },
    "contextNotes": [],
    "actions": [],
    "uses": {
      "per": null,
      "value": 0,
      "maxFormula": "",
      "autoDeductChargesCost": "1"
    },
    "attackNotes": [],
    "effectNotes": [],
    "links": {
      "children": [],
      "charges": []
    },
    "tag": "spongeSuit",
    "useCustomTag": false,
    "flags": {
      "boolean": {},
      "dictionary": {}
    },
    "scriptCalls": [],
    "masterwork": false,
    "enh": null,
    "proficient": true,
    "held": "normal",
    "subType": "clothing",
    "baseTypes": [],
    "equipmentSubtype": "lightArmor",
    "armor": {
      "value": 0,
      "dex": null,
      "acp": 0,
      "enh": 0
    },
    "spellFailure": 0,
    "slot": "clothing",
    "showInQuickbar": false
  },
  "ownership": {
    "default": 0
  },
  "_stats": {
    "systemId": "pf1",
    "systemVersion": "9.1",
    "coreVersion": "10.291",
    "createdTime": 1665428366740,
    "modifiedTime": 1689797915943,
    "lastModifiedBy": "ppv91YxratjWnkJi"
  },
  "effects": [],
  "folder": null,
  "sort": 0,
  "flags": {},
  "_key": "!items!O5LXtYlHzv4Sk0P4"
}