{
  "_id": "8OQDjdZtJxE4oc5q",
  "name": "Stagnant Fog Sack",
  "type": "consumable",
  "img": "icons/containers/bags/sack-simple-leather-brown.webp",
  "system": {
    "description": {
      "value": "<p><strong>Source</strong> <em>Blood of the Elements pg. 19</em><br/><strong>Price</strong> 80 gp; <strong>Weight</strong> 1 lb.<br/><strong>Category</strong> Alchemical Tools</p><h2 class=\"framing\"><img src=\"modules/pf-content/assets/PathfinderSocietySymbol.gif\" style=\"margin:3px 3px 0px 3px;\" title=\"PFS Legal\"/>Description</h2><p>Gathered within this tightly woven, alchemically treated canvas sack is a sample of the pervasive fetid fog that looms near the border of the Plane of Air and the Plane of Water. When opened, the fog billows out in a 30-foot-radius area. Sight is extremely limited in an area of stagnant fog. A creature within 15 feet has concealment (20% miss chance), while creatures farther away have total concealment (50% miss chance, and the attacker can't use sight to locate the target). In addition, creatures that end their turn within the cloud must succeed at a DC 14 Fortitude save or become sickened for 1 round. Stagnant fog dissipates naturally after 1 minute. A moderate wind (11+ mph) disperses the stagnant fog in 1 round. This item can be crafted with a successful DC 20 Craft (alchemy) check.</p><h2 class=\"framing\">Construction</h2><p><strong>Craft (Alchemy)</strong> DC 20</p>",
      "unidentified": ""
    },
    "tags": [],
    "quantity": 1,
    "weight": {
      "value": 1
    },
    "price": 80,
    "size": "med",
    "equipped": true,
    "resizing": false,
    "identified": true,
    "hp": {
      "max": 10,
      "value": 10
    },
    "broken": false,
    "hardness": 0,
    "carried": true,
    "unidentified": {
      "price": 0,
      "name": ""
    },
    "cl": 0,
    "aura": {
      "custom": false,
      "school": ""
    },
    "actions": [],
    "uses": {
      "per": null,
      "value": 0,
      "maxFormula": "",
      "pricePerUse": 0,
      "autoDeductChargesCost": "1"
    },
    "attackNotes": [],
    "effectNotes": [],
    "links": {
      "children": [],
      "charges": []
    },
    "tag": "stagnantFogSack",
    "useCustomTag": false,
    "flags": {
      "boolean": {},
      "dictionary": {
        "Category": "Alchemical Tools"
      }
    },
    "scriptCalls": [],
    "subType": "misc",
    "showInQuickbar": false
  },
  "ownership": {
    "default": 0
  },
  "_stats": {
    "systemId": "pf1",
    "systemVersion": "9.1",
    "coreVersion": "10.291",
    "createdTime": 1665428365909,
    "modifiedTime": 1689797913069,
    "lastModifiedBy": "ppv91YxratjWnkJi"
  },
  "effects": [],
  "folder": null,
  "sort": 0,
  "flags": {},
  "_key": "!items!8OQDjdZtJxE4oc5q"
}