{
  "_id": "e4waRhLRyxkX3MgK",
  "name": "Stretch Cords",
  "type": "loot",
  "img": "icons/sundries/survival/rope-wrapped-grey.webp",
  "system": {
    "description": {
      "value": "<p><strong>Source</strong> <em>Ultimate Wilderness pg. 244</em><br/><strong>Price</strong> 5 sp; <strong>Weight</strong> 1/2 lb.<br/><strong>Category</strong> Adventuring Gear</p><h2 class=\"framing\"><img src=\"modules/pf-content/assets/PathfinderSocietySymbol.gif\" style=\"margin:3px 3px 0px 3px;\" title=\"PFS Legal\"/>Description</h2><p>Sold in pairs, these cords have an elastic quality. Both cords measure 2 feet long but can be extended to 4 feet. Each end of a cord has a small metal hook. Employed together, these cords can be used to tie down all sorts of equipment and prevent damage from wind or other inhospitable weather.</p>",
      "unidentified": ""
    },
    "tags": [],
    "quantity": 1,
    "weight": {
      "value": 0.5
    },
    "price": 0.5,
    "size": "med",
    "equipped": false,
    "resizing": false,
    "identified": true,
    "hp": {
      "max": 10,
      "value": 10
    },
    "broken": false,
    "hardness": 0,
    "carried": true,
    "unidentified": {
      "price": 0,
      "name": ""
    },
    "cl": 0,
    "aura": {
      "custom": false,
      "school": ""
    },
    "changes": [],
    "changeFlags": {
      "loseDexToAC": false,
      "noEncumbrance": false,
      "mediumArmorFullSpeed": false,
      "heavyArmorFullSpeed": false
    },
    "contextNotes": [],
    "links": {
      "children": []
    },
    "tag": "stretchCords",
    "useCustomTag": false,
    "flags": {
      "boolean": {},
      "dictionary": {
        "Category": "Adventuring Gear"
      }
    },
    "scriptCalls": [],
    "subType": "gear",
    "extraType": "",
    "uses": {
      "value": 0,
      "max": 0
    }
  },
  "ownership": {
    "default": 0
  },
  "_stats": {
    "systemId": "pf1",
    "systemVersion": "9.1",
    "coreVersion": "10.291",
    "createdTime": 1665428367357,
    "modifiedTime": 1689793675153,
    "lastModifiedBy": "ppv91YxratjWnkJi"
  },
  "effects": [],
  "folder": null,
  "sort": 0,
  "flags": {},
  "_key": "!items!e4waRhLRyxkX3MgK"
}