{
  "_id": "uWUr5QHMhbMWEVX9",
  "name": "Surgical Jelly",
  "type": "consumable",
  "img": "icons/commodities/materials/slime-red.webp",
  "system": {
    "description": {
      "value": "<p><strong>Source</strong> <em>Adventurer's Armory 2 pg. 24</em><br/><strong>Price</strong> 300 gp; <strong>Weight</strong> 1 lb.<br/><strong>Category</strong> Alchemical Remedies</p><h2 class=\"framing\"><img src=\"modules/pf-content/assets/PathfinderSocietySymbol.gif\" style=\"margin:3px 3px 0px 3px;\" title=\"PFS Legal\"/>Description</h2><p>When ingested, this thick red gelatinous substance seeks out and surgically eliminates invasive threats to the body. Consuming surgical jelly immediately ends any infestations (such as rot grubs; <em>Pathfinder RPG GameMastery Guide</em> 245), implanted eggs (such as those implanted by xills), or other non-disease effects that can be cured by <em>remove disease</em>, so long as such a cure does not require a caster level check. Consuming a pot of surgical jelly is a full-round action.</p><h2 class=\"framing\">Construction</h2><p><strong>Craft (Alchemy)</strong> DC 25</p>",
      "unidentified": ""
    },
    "tags": [],
    "quantity": 1,
    "weight": {
      "value": 1
    },
    "price": 300,
    "size": "med",
    "equipped": true,
    "resizing": false,
    "identified": true,
    "hp": {
      "max": 10,
      "value": 10
    },
    "broken": false,
    "hardness": 0,
    "carried": true,
    "unidentified": {
      "price": 0,
      "name": ""
    },
    "cl": 0,
    "aura": {
      "custom": false,
      "school": ""
    },
    "actions": [],
    "uses": {
      "per": null,
      "value": 0,
      "maxFormula": "",
      "pricePerUse": 0,
      "autoDeductChargesCost": "1"
    },
    "attackNotes": [],
    "effectNotes": [],
    "links": {
      "children": [],
      "charges": []
    },
    "tag": "surgicalJelly",
    "useCustomTag": false,
    "flags": {
      "boolean": {},
      "dictionary": {
        "Category": "Alchemical Remedies"
      }
    },
    "scriptCalls": [],
    "subType": "misc",
    "showInQuickbar": false
  },
  "ownership": {
    "default": 0
  },
  "_stats": {
    "systemId": "pf1",
    "systemVersion": "9.1",
    "coreVersion": "10.291",
    "createdTime": 1665428368124,
    "modifiedTime": 1689797920331,
    "lastModifiedBy": "ppv91YxratjWnkJi"
  },
  "effects": [],
  "folder": null,
  "sort": 0,
  "flags": {},
  "_key": "!items!uWUr5QHMhbMWEVX9"
}