{
  "_id": "Pxs5gtoKJFZKVpu5",
  "name": "Talking Board",
  "type": "loot",
  "img": "icons/sundries/documents/document-symbol-eye.webp",
  "system": {
    "description": {
      "value": "<p><strong>Source</strong> <em>Occult Adventures pg. 251</em><br/><strong>Price</strong> 15 gp; <strong>Weight</strong> 2 lbs.<br/><strong>Category</strong> Adventuring Gear</p><h2 class=\"framing\"><img src=\"modules/pf-content/assets/PathfinderSocietySymbol.gif\" style=\"margin:3px 3px 0px 3px;\" title=\"PFS Legal\"/>Description</h2><p>This thin, rectangular wooden board is printed with an arching array of alphabetical letters, numbers, and short affirmative and negative messages. Paired with a small, heart-shaped pointer on short wooden legs, this device enables communication with spiritual entities or the user's deep subconscious mind. A talking board can be used in place of a pencil and paper or a writing planchette when attempting a Linguistics check with the automatic writing occult skill unlock, and provides a +2 circumstance bonus on such checks. In addition, given the size of the board, the user can work in conjunction with another psychically sensitive creature who can bolster the attempt with a successful aid another check.<br/><br/> A user can also use the board alone to initiate the recall memory use of the hypnotism occult skill unlock. The user attempts the skill check as normal, with herself as the subject, and receives a +2 circumstance bonus on the check.<br/><br/> When used to channel a haunt capable of communication (see page 230), a talking board doubles the rate of communication with the haunt, and grants the user a +4 circumstance bonus on Linguistics checks to decipher the cryptic messages.<br/><br/> Though a talking board can be used for some of the same functions as other gear (such as automatic writing planchettes and hypnotist's lockets), these items can't be used in unison to gain multiple bonuses or increase the rate of communication with a haunt to more than double.</p>",
      "unidentified": ""
    },
    "tags": [],
    "quantity": 1,
    "weight": {
      "value": 2
    },
    "price": 15,
    "size": "med",
    "equipped": false,
    "resizing": false,
    "identified": true,
    "hp": {
      "max": 10,
      "value": 10
    },
    "broken": false,
    "hardness": 0,
    "carried": true,
    "unidentified": {
      "price": 0,
      "name": ""
    },
    "cl": 0,
    "aura": {
      "custom": false,
      "school": ""
    },
    "changes": [],
    "changeFlags": {
      "loseDexToAC": false,
      "noEncumbrance": false,
      "mediumArmorFullSpeed": false,
      "heavyArmorFullSpeed": false
    },
    "contextNotes": [],
    "links": {
      "children": []
    },
    "tag": "talkingBoard",
    "useCustomTag": false,
    "flags": {
      "boolean": {},
      "dictionary": {
        "Category": "Adventuring Gear"
      }
    },
    "scriptCalls": [],
    "subType": "gear",
    "extraType": "",
    "uses": {
      "value": 0,
      "max": 0
    }
  },
  "ownership": {
    "default": 0
  },
  "_stats": {
    "systemId": "pf1",
    "systemVersion": "9.1",
    "coreVersion": "10.291",
    "createdTime": 1665428366801,
    "modifiedTime": 1689793673905,
    "lastModifiedBy": "ppv91YxratjWnkJi"
  },
  "effects": [],
  "folder": null,
  "sort": 0,
  "flags": {},
  "_key": "!items!Pxs5gtoKJFZKVpu5"
}