{
  "_id": "fI3vHJbttMeYIQcj",
  "name": "Tea Of Transference",
  "type": "consumable",
  "img": "icons/containers/kitchenware/goblet-simple-grey.webp",
  "system": {
    "description": {
      "value": "<p><strong>Source</strong> <em>Alchemy Manual pg. 25</em><br/><strong>Price</strong> 40 gp; <strong>Weight</strong> -<br/><strong>Category</strong> Alchemical Remedies</p><h2 class=\"framing\"><img src=\"modules/pf-content/assets/PathfinderSocietySymbol.gif\" style=\"margin:3px 3px 0px 3px;\" title=\"PFS Legal\"/>Description</h2><p>This foul-tasting green tea allows monks to focus their ki on improving abilities they've gained through other training. By drinking a cup of tea of transference, you can expend 1 point from your ki pool to regain 1 point from your arcane pool, 2 rounds of barbarian rage, 2 rounds of bardic performance, one use of channel energy, 1 grit point, one use of smite evil, one expended extract slot at least 1 level lower than the highest-level extract you can create, or one expended spell slot at least 2 levels lower than the highest-level spell you can cast. You must have the ki pool class feature and the class feature you want to regain uses of in order to benefit from tea of transference.</p><h2 class=\"framing\">Alchemical Recipe</h2><p><strong>Recipe</strong> (5 gold + 5 realgar + 15 spirit of wine)/sublimation; <strong>Craft</strong> 20<br/><strong>Time</strong> 1 day; <strong>Tools</strong> retort; <strong>Type</strong> alchemical remedy</p>",
      "unidentified": ""
    },
    "tags": [],
    "quantity": 1,
    "weight": {
      "value": 0
    },
    "price": 40,
    "size": "med",
    "equipped": true,
    "resizing": false,
    "identified": true,
    "hp": {
      "max": 10,
      "value": 10
    },
    "broken": false,
    "hardness": 0,
    "carried": true,
    "unidentified": {
      "price": 0,
      "name": ""
    },
    "cl": 0,
    "aura": {
      "custom": false,
      "school": ""
    },
    "actions": [],
    "uses": {
      "per": null,
      "value": 0,
      "maxFormula": "",
      "pricePerUse": 0,
      "autoDeductChargesCost": "1"
    },
    "attackNotes": [],
    "effectNotes": [],
    "links": {
      "children": [],
      "charges": []
    },
    "tag": "teaOfTransference",
    "useCustomTag": false,
    "flags": {
      "boolean": {},
      "dictionary": {
        "Category": "Alchemical Remedies"
      }
    },
    "scriptCalls": [],
    "subType": "misc",
    "showInQuickbar": false
  },
  "ownership": {
    "default": 0
  },
  "_stats": {
    "systemId": "pf1",
    "systemVersion": "9.1",
    "coreVersion": "10.291",
    "createdTime": 1665428367383,
    "modifiedTime": 1689797918356,
    "lastModifiedBy": "ppv91YxratjWnkJi"
  },
  "effects": [],
  "folder": null,
  "sort": 0,
  "flags": {},
  "_key": "!items!fI3vHJbttMeYIQcj"
}