{
  "_id": "pBQ0aR3Q0WXEbLz9",
  "name": "Telescope (x10)",
  "type": "loot",
  "img": "icons/commodities/treasure/lense-pipe-bronze.webp",
  "system": {
    "description": {
      "value": "<p><strong>Source</strong> <em>People of the Stars pg. 27</em><br/><strong>Price</strong> <img src=\"modules/pf-content/assets/PathfinderSocietySymbol.gif\" style=\"margin:3px 3px 0px 3px;\" title=\"PFS Legal\"/> 2,000 gp (x10), <img src=\"modules/pf-content/assets/PathfinderSocietySymbol.gif\" style=\"margin:3px 3px 0px 3px;\" title=\"PFS Legal\"/> 8,000 gp (x250), <img src=\"modules/pf-content/assets/PathfinderSocietySymbol.gif\" style=\"margin:3px 3px 0px 3px;\" title=\"PFS Legal\"/> 4,000 gp (x50); <strong>Weight</strong> 12 lbs. (x10), 44 lbs. (x250), 23 lbs. (x50)</p><h2 class=\"framing\">Description</h2><p>This basic, semi-portable telescope allows the user to see greater detail on very distant objects. Telescopes can be built to a variety of specifications, but those most often used by adventuring stargazers are listed here. A telescope grants the listed circumstance bonus on Perception checks to discern celestial bodies and on Knowledge (geography) checks to learn about the planets when used at night.<br/><br/> A telescope can be used to look at either terrestrial or celestial objects. Distance penalties on Perception checks for viewing objects through the telescope are divided by the telescope's magnification. Assembling, disassembling, or significantly moving a telescope takes 1 minute.<br/><br/><table class=\"inner\"> <tr><td><strong>Magnification</strong></td><td><strong>Circumstance Bonus</strong></td></tr> <tr><td>x10</td><td>+2</td></tr> <tr><td>x50</td><td>+4</td></tr> <tr><td>x250</td><td>+6</td></tr></table></p>",
      "unidentified": ""
    },
    "tags": [],
    "quantity": 1,
    "weight": {
      "value": 12
    },
    "price": 2000,
    "size": "med",
    "equipped": false,
    "resizing": false,
    "identified": true,
    "hp": {
      "max": 10,
      "value": 10
    },
    "broken": false,
    "hardness": 0,
    "carried": true,
    "unidentified": {
      "price": 0,
      "name": ""
    },
    "cl": 0,
    "aura": {
      "custom": false,
      "school": ""
    },
    "changes": [],
    "changeFlags": {
      "loseDexToAC": false,
      "noEncumbrance": false,
      "mediumArmorFullSpeed": false,
      "heavyArmorFullSpeed": false
    },
    "contextNotes": [],
    "links": {
      "children": []
    },
    "tag": "telescopeX10",
    "useCustomTag": false,
    "flags": {
      "boolean": {},
      "dictionary": {
        "Category": "Tools"
      }
    },
    "scriptCalls": [],
    "subType": "gear",
    "extraType": "",
    "uses": {
      "value": 0,
      "max": 0
    }
  },
  "ownership": {
    "default": 0
  },
  "_stats": {
    "systemId": "pf1",
    "systemVersion": "9.1",
    "coreVersion": "10.291",
    "createdTime": 1665428367819,
    "modifiedTime": 1689793676354,
    "lastModifiedBy": "ppv91YxratjWnkJi"
  },
  "effects": [],
  "folder": null,
  "sort": 0,
  "flags": {},
  "_key": "!items!pBQ0aR3Q0WXEbLz9"
}