{
  "_id": "5vezXTIn7lmdxRD8",
  "name": "Terrarium, Portable",
  "type": "loot",
  "img": "icons/commodities/materials/glass-orb.webp",
  "system": {
    "description": {
      "value": "<p><strong>Source</strong> <em>Adventurer's Armory 2 pg. 16</em><br/><strong>Price</strong> 100 gp; <strong>Weight</strong> 4 lbs.<br/><strong>Category</strong> Tools</p><h2 class=\"framing\"><img src=\"modules/pf-content/assets/PathfinderSocietySymbol.gif\" style=\"margin:3px 3px 0px 3px;\" title=\"PFS Legal\"/>Description</h2><p>This small glass enclosure is 1 foot wide, 1 foot tall, and reinforced with a wooden or metal frame. Tiny air holes in the lid allow living creatures inside the portable terrarium to breathe, and the interior can be outfitted with a variety of substrates and other materials the creatures might require. A portable terrarium is usually fitted with straps so it can be tied to a pack. Diminutive and smaller creatures, such as some familiars, can be safely carried within a portable terrarium and have total cover while inside it. Healers and botanists often store living plants in these containers; a successful DC 12 Knowledge (nature) check is required to transplant a plant into a portable terrarium, and most plants can live in a portable terrarium indefinitely so long as they are properly tended.</p>",
      "unidentified": ""
    },
    "tags": [],
    "quantity": 1,
    "weight": {
      "value": 4
    },
    "price": 100,
    "size": "med",
    "equipped": false,
    "resizing": false,
    "identified": true,
    "hp": {
      "max": 10,
      "value": 10
    },
    "broken": false,
    "hardness": 0,
    "carried": true,
    "unidentified": {
      "price": 0,
      "name": ""
    },
    "cl": 0,
    "aura": {
      "custom": false,
      "school": ""
    },
    "changes": [],
    "changeFlags": {
      "loseDexToAC": false,
      "noEncumbrance": false,
      "mediumArmorFullSpeed": false,
      "heavyArmorFullSpeed": false
    },
    "contextNotes": [],
    "links": {
      "children": []
    },
    "tag": "terrariumPortable",
    "useCustomTag": false,
    "flags": {
      "boolean": {},
      "dictionary": {
        "Category": "Tools"
      }
    },
    "scriptCalls": [],
    "subType": "gear",
    "extraType": "",
    "uses": {
      "value": 0,
      "max": 0
    }
  },
  "ownership": {
    "default": 0
  },
  "_stats": {
    "systemId": "pf1",
    "systemVersion": "9.1",
    "coreVersion": "10.291",
    "createdTime": 1665428365844,
    "modifiedTime": 1689793671633,
    "lastModifiedBy": "ppv91YxratjWnkJi"
  },
  "effects": [],
  "folder": null,
  "sort": 0,
  "flags": {},
  "_key": "!items!5vezXTIn7lmdxRD8"
}