{
  "_id": "wpmLRUnGabimaebs",
  "name": "Thunder Kettle",
  "type": "consumable",
  "img": "icons/tools/laboratory/cauldron-empty-black.webp",
  "system": {
    "description": {
      "value": "<p><strong>Source</strong> <em>Blood of the Elements pg. 19</em><br/><strong>Price</strong> 275 gp; <strong>Weight</strong> 3 lbs.<br/><strong>Category</strong> Alchemical Tools</p><h2 class=\"framing\"><img src=\"modules/pf-content/assets/PathfinderSocietySymbol.gif\" style=\"margin:3px 3px 0px 3px;\" title=\"PFS Legal\"/>Description</h2><p>This intricate glass and metal jug vibrates gently, and contains a light cloud of white vapor and crackling blue electricity. Djinn of the Plane of Air use thunder kettles to capture the essence of air and lightning elementals within planar super storms. When uncorked as a standard action, a thunder kettle releases a rumbling cacophony of thunder in a 10-foot-radius burst. Creatures in the area must succeed at a DC 16 Fortitude save or take 1d6 points of sonic damage and become staggered for 1 round. A successful save halves the damage and negates the staggered condition. This item can be crafted with a successful DC 25 Craft (alchemy) check.</p><h2 class=\"framing\">Construction</h2><p><strong>Craft (Alchemy)</strong> DC 25</p>",
      "unidentified": ""
    },
    "tags": [],
    "quantity": 1,
    "weight": {
      "value": 3
    },
    "price": 275,
    "size": "med",
    "equipped": true,
    "resizing": false,
    "identified": true,
    "hp": {
      "max": 10,
      "value": 10
    },
    "broken": false,
    "hardness": 0,
    "carried": true,
    "unidentified": {
      "price": 0,
      "name": ""
    },
    "cl": 0,
    "aura": {
      "custom": false,
      "school": ""
    },
    "actions": [],
    "uses": {
      "per": null,
      "value": 0,
      "maxFormula": "",
      "pricePerUse": 0,
      "autoDeductChargesCost": "1"
    },
    "attackNotes": [],
    "effectNotes": [],
    "links": {
      "children": [],
      "charges": []
    },
    "tag": "thunderKettle",
    "useCustomTag": false,
    "flags": {
      "boolean": {},
      "dictionary": {
        "Category": "Alchemical Tools"
      }
    },
    "scriptCalls": [],
    "subType": "misc",
    "showInQuickbar": false
  },
  "ownership": {
    "default": 0
  },
  "_stats": {
    "systemId": "pf1",
    "systemVersion": "9.1",
    "coreVersion": "10.291",
    "createdTime": 1665428368199,
    "modifiedTime": 1689797920606,
    "lastModifiedBy": "ppv91YxratjWnkJi"
  },
  "effects": [],
  "folder": null,
  "sort": 0,
  "flags": {},
  "_key": "!items!wpmLRUnGabimaebs"
}