{
  "_id": "u5Xghius98QkZCV4",
  "name": "Tiller's Gum",
  "type": "consumable",
  "img": "icons/commodities/materials/slime-yellow.webp",
  "system": {
    "description": {
      "value": "<p><strong>Source</strong> <em>Adventurer's Guide pg. 45</em>, <em>Pathfinder #106: For Queen and Empire pg. 75</em><br/><strong>Price</strong> 100 gp; <strong>Weight</strong> -<br/><strong>Category</strong> Alchemical Tools</p><h2 class=\"framing\"><img src=\"modules/pf-content/assets/PathfinderSocietySymbol.gif\" style=\"margin:3px 3px 0px 3px;\" title=\"PFS Legal\"/>Description</h2><p>This gum has alchemical properties that allow it to soak up magical energy and release it when the gum is chewed. As a standard action, a stick of tiller's gum can be imbued with a spell of up to 3rd level with a casting time of less than 1 minute and that targets one or more creatures, as if the gum were the target of the spell. The gum holds the spell's charge for 1 hour, during which time a creature capable of casting the stored spell can chew the gum as a standard action to gain the spell's effects, expending the stored spell and destroying the gum. The stored spell uses the original caster's level to determine its effects. If the spell-imbued gum isn't used before an hour passes, it is ruined. Crafting a stick of tiller's gum requires a successful DC 20 Craft (alchemy) check. </p><h2 class=\"framing\">Construction</h2><p><strong>Craft (Alchemy)</strong> DC 20</p>",
      "unidentified": ""
    },
    "tags": [],
    "quantity": 1,
    "weight": {
      "value": 0
    },
    "price": 100,
    "size": "med",
    "equipped": true,
    "resizing": false,
    "identified": true,
    "hp": {
      "max": 10,
      "value": 10
    },
    "broken": false,
    "hardness": 0,
    "carried": true,
    "unidentified": {
      "price": 0,
      "name": ""
    },
    "cl": 0,
    "aura": {
      "custom": false,
      "school": ""
    },
    "actions": [],
    "uses": {
      "per": null,
      "value": 0,
      "maxFormula": "",
      "pricePerUse": 0,
      "autoDeductChargesCost": "1"
    },
    "attackNotes": [],
    "effectNotes": [],
    "links": {
      "children": [],
      "charges": []
    },
    "tag": "tillersGum",
    "useCustomTag": false,
    "flags": {
      "boolean": {},
      "dictionary": {
        "Category": "Alchemical Tools"
      }
    },
    "scriptCalls": [],
    "subType": "misc",
    "showInQuickbar": false
  },
  "ownership": {
    "default": 0
  },
  "_stats": {
    "systemId": "pf1",
    "systemVersion": "9.1",
    "coreVersion": "10.291",
    "createdTime": 1665428368112,
    "modifiedTime": 1689797920278,
    "lastModifiedBy": "ppv91YxratjWnkJi"
  },
  "effects": [],
  "folder": null,
  "sort": 0,
  "flags": {},
  "_key": "!items!u5Xghius98QkZCV4"
}