{
  "_id": "TsfUNPupdTujjC3M",
  "name": "Tobacco",
  "type": "consumable",
  "img": "icons/commodities/materials/bowl-powder-grey.webp",
  "system": {
    "description": {
      "value": "<p><strong>Source</strong> <em>Adventurer's Armory pg. 19</em><br/><strong>Price</strong> 1 gp; <strong>Weight</strong> 2 lbs.<br/><strong>Category</strong> Black Market</p><h2 class=\"framing\"><img src=\"modules/pf-content/assets/PathfinderSocietySymbol.gif\" style=\"margin:3px 3px 0px 3px;\" title=\"PFS Legal\"/>Description</h2><p>These crushed and shredded leaves range in color from peppery red to black; users can either smoke or chew them. Tobacco users experience a certain level of calm and are more easily able to shrug off hunger pangs. Tobacco is addictive (Fort DC 10 to resist), and long-term users suffer Constitution damage.</p>",
      "unidentified": ""
    },
    "tags": [],
    "quantity": 1,
    "weight": {
      "value": 2
    },
    "price": 1,
    "size": "med",
    "equipped": true,
    "resizing": false,
    "identified": true,
    "hp": {
      "max": 10,
      "value": 10
    },
    "broken": false,
    "hardness": 0,
    "carried": true,
    "unidentified": {
      "price": 0,
      "name": ""
    },
    "cl": 0,
    "aura": {
      "custom": false,
      "school": ""
    },
    "actions": [],
    "uses": {
      "per": null,
      "value": 0,
      "maxFormula": "",
      "pricePerUse": 0,
      "autoDeductChargesCost": "1"
    },
    "attackNotes": [],
    "effectNotes": [],
    "links": {
      "children": [],
      "charges": []
    },
    "tag": "tobacco",
    "useCustomTag": false,
    "flags": {
      "boolean": {},
      "dictionary": {
        "Category": "Black Market"
      }
    },
    "scriptCalls": [],
    "subType": "drug",
    "showInQuickbar": false
  },
  "ownership": {
    "default": 0
  },
  "_stats": {
    "systemId": "pf1",
    "systemVersion": "9.1",
    "coreVersion": "10.291",
    "createdTime": 1665428366907,
    "modifiedTime": 1689797916685,
    "lastModifiedBy": "ppv91YxratjWnkJi"
  },
  "effects": [],
  "folder": null,
  "sort": 0,
  "flags": {},
  "_key": "!items!TsfUNPupdTujjC3M"
}