{
  "_id": "nq6J4z2na13e6cwZ",
  "name": "Tossglove",
  "type": "loot",
  "img": "icons/equipment/hand/glove-tooled-leather-green.webp",
  "system": {
    "description": {
      "value": "<p><strong>Source</strong> <em>Goblins of Golarion pg. 12</em><br/><strong>Price</strong> 1 sp; <strong>Weight</strong> 1 lb.<br/><strong>Category</strong> Tools</p><h2 class=\"framing\"><img src=\"modules/pf-content/assets/PathfinderSocietySymbolN.gif\" style=\"margin:3px 3px 0px 3px;\" title=\"Only legal goblin PCs are allowed to choose anything from this book\"/>Description</h2><p>A tossglove is a hefty leather and metal glove made for holding and throwing an insect, snake, or other tiny creature that would otherwise bite the goblin. Those who don't use a tossglove when attempting to sling such creatures provoke an attack of opportunity from the animal they attempt to throw or stash. The glove has overlapping plates that cover the goblin's arm up to the elbow. It's a full-round action to put on or take off a tossglove, and while it's worn, that hand can't be used to perform acts of fine manipulation (such as making a Disable Device check or firing an arrow). The gloved hand can still wield a melee weapon.</p>",
      "unidentified": ""
    },
    "tags": [],
    "quantity": 1,
    "weight": {
      "value": 1
    },
    "price": 0.1,
    "size": "med",
    "equipped": false,
    "resizing": false,
    "identified": true,
    "hp": {
      "max": 10,
      "value": 10
    },
    "broken": false,
    "hardness": 0,
    "carried": true,
    "unidentified": {
      "price": 0,
      "name": ""
    },
    "cl": 0,
    "aura": {
      "custom": false,
      "school": ""
    },
    "changes": [],
    "changeFlags": {
      "loseDexToAC": false,
      "noEncumbrance": false,
      "mediumArmorFullSpeed": false,
      "heavyArmorFullSpeed": false
    },
    "contextNotes": [],
    "links": {
      "children": []
    },
    "tag": "tossglove",
    "useCustomTag": false,
    "flags": {
      "boolean": {},
      "dictionary": {
        "Category": "Tools"
      }
    },
    "scriptCalls": [],
    "subType": "gear",
    "extraType": "",
    "uses": {
      "value": 0,
      "max": 0
    }
  },
  "ownership": {
    "default": 0
  },
  "_stats": {
    "systemId": "pf1",
    "systemVersion": "9.1",
    "coreVersion": "10.291",
    "createdTime": 1665428367776,
    "modifiedTime": 1689793676244,
    "lastModifiedBy": "ppv91YxratjWnkJi"
  },
  "effects": [],
  "folder": null,
  "sort": 0,
  "flags": {},
  "_key": "!items!nq6J4z2na13e6cwZ"
}