{
  "_id": "nU2w6K8qJw95ENey",
  "name": "Trephine",
  "type": "loot",
  "img": "icons/tools/hand/awl-steel-tan.webp",
  "system": {
    "description": {
      "value": "<p><strong>Source</strong> <em>Horror Adventures pg. 212</em><br/><strong>Price</strong> 20 gp; <strong>Weight</strong> 1 lb.<br/><strong>Category</strong> Torture Implements</p><h2 class=\"framing\">Description</h2><p>This surgical instrument has a serrated, circular blade that is used to bore holes into the skulls of patients to relieve cranial swelling from head trauma or, as some chirurgeons believe, release evil spirits. Use of a trephine takes 10 minutes, and deals 5 points of piercing damage to the subject creature. With a successful DC 25 Heal check, the user can heal up to 1d4 points of ability damage to any one mental ability score caused by physical trauma to the head, such as the critical called shot or debilitating blow called shot (Pathfinder RPG Ultimate Combat 196), or it can cure the severe brain trauma inflicted by the debilitating blow called shot. If the user fails the check, the subject still takes 5 points of piercing damage. If the user fails the check by 5 or more, the subject instead takes 10 points of piercing damage and 1 point of damage each to its Intelligence, Wisdom, and Charisma scores.</p>",
      "unidentified": ""
    },
    "tags": [],
    "quantity": 1,
    "weight": {
      "value": 1
    },
    "price": 20,
    "size": "med",
    "equipped": false,
    "resizing": false,
    "identified": true,
    "hp": {
      "max": 10,
      "value": 10
    },
    "broken": false,
    "hardness": 0,
    "carried": true,
    "unidentified": {
      "price": 0,
      "name": ""
    },
    "cl": 0,
    "aura": {
      "custom": false,
      "school": ""
    },
    "changes": [],
    "changeFlags": {
      "loseDexToAC": false,
      "noEncumbrance": false,
      "mediumArmorFullSpeed": false,
      "heavyArmorFullSpeed": false
    },
    "contextNotes": [],
    "links": {
      "children": []
    },
    "tag": "trephine",
    "useCustomTag": false,
    "flags": {
      "boolean": {},
      "dictionary": {
        "Category": "Torture Implements"
      }
    },
    "scriptCalls": [],
    "subType": "gear",
    "extraType": "",
    "uses": {
      "value": 0,
      "max": 0
    }
  },
  "ownership": {
    "default": 0
  },
  "_stats": {
    "systemId": "pf1",
    "systemVersion": "9.1",
    "coreVersion": "10.291",
    "createdTime": 1665428367769,
    "modifiedTime": 1689793676217,
    "lastModifiedBy": "ppv91YxratjWnkJi"
  },
  "effects": [],
  "folder": null,
  "sort": 0,
  "flags": {},
  "_key": "!items!nU2w6K8qJw95ENey"
}