{
  "_id": "AdgVJBbvztEXdFYs",
  "name": "Waffle Iron",
  "type": "loot",
  "img": "icons/tools/cooking/spatula.webp",
  "system": {
    "description": {
      "value": "<p><strong>Source</strong> <em>Ultimate Equipment pg. 58</em><br/><strong>Price</strong> <img src=\"modules/pf-content/assets/PathfinderSocietySymbol.gif\" style=\"margin:3px 3px 0px 3px;\" title=\"PFS Legal\"/> 1 gp (common), <img src=\"modules/pf-content/assets/PathfinderSocietySymbol.gif\" style=\"margin:3px 3px 0px 3px;\" title=\"PFS Legal\"/> 2,501 gp (mithral); <strong>Weight</strong> 5 lbs. (common), 2-1/2 lbs. (mithral)</p><h2 class=\"framing\">Description</h2><p>This pair of hinged metal plates is decorated with studs to add texture to the pastry cakes you cook with it. You pour batter on it, close it, and place it on a fire or stove to cook. Some waffle irons have plates that imprint the waffle with a noble's coat of arms, a religious symbol, or a country's flag. A mithral waffle iron almost always bears a specific insignia rather than the generic waffle pattern. As with other mithral cookware, food rarely sticks to a mithral waffle iron.</p>",
      "unidentified": ""
    },
    "tags": [],
    "quantity": 1,
    "weight": {
      "value": 5
    },
    "price": 1,
    "size": "med",
    "equipped": false,
    "resizing": false,
    "identified": true,
    "hp": {
      "max": 10,
      "value": 10
    },
    "broken": false,
    "hardness": 0,
    "carried": true,
    "unidentified": {
      "price": 0,
      "name": ""
    },
    "cl": 0,
    "aura": {
      "custom": false,
      "school": ""
    },
    "changes": [],
    "changeFlags": {
      "loseDexToAC": false,
      "noEncumbrance": false,
      "mediumArmorFullSpeed": false,
      "heavyArmorFullSpeed": false
    },
    "contextNotes": [],
    "links": {
      "children": []
    },
    "tag": "waffleIron",
    "useCustomTag": false,
    "flags": {
      "boolean": {},
      "dictionary": {
        "Category": "Adventuring Gear"
      }
    },
    "scriptCalls": [],
    "subType": "gear",
    "extraType": "",
    "uses": {
      "value": 0,
      "max": 0
    }
  },
  "ownership": {
    "default": 0
  },
  "_stats": {
    "systemId": "pf1",
    "systemVersion": "9.1",
    "coreVersion": "10.291",
    "createdTime": 1665428366002,
    "modifiedTime": 1689793672121,
    "lastModifiedBy": "ppv91YxratjWnkJi"
  },
  "effects": [],
  "folder": null,
  "sort": 0,
  "flags": {},
  "_key": "!items!AdgVJBbvztEXdFYs"
}