{
  "_id": "CUZBfHYtMC8TvbgK",
  "name": "Wand of misery",
  "type": "loot",
  "img": "icons/commodities/wood/wood-pole.webp",
  "system": {
    "description": {
      "value": "<p><strong>Source</strong> <em>Pathfinder #8: Seven Days to the Grave pg. 61</em><br/><strong>Price</strong> 5 gp; <strong>Weight</strong> 1 lb.<br/><strong>Category</strong> Tools</p><h2 class=\"framing\"><img src=\"modules/pf-content/assets/ThreeFiveSymbol.gif\" style=\"margin: 3px 3px 0px 3px\" title=\"3.5 Material\"/>Description</h2><p>This simply carved but sturdy 3-footlong wooden cane is used to scrutinize plague victims. The wand permits the plague doctor to determine a patient's condition, diagnosing his maladies through his reactions to various pokes and prods, often opening infected sores and wounds for inspection. These tools have the same statistics as clubs.</p>",
      "unidentified": ""
    },
    "tags": [],
    "quantity": 1,
    "weight": {
      "value": 1
    },
    "price": 5,
    "size": "med",
    "equipped": false,
    "resizing": false,
    "identified": true,
    "hp": {
      "max": 10,
      "value": 10
    },
    "broken": false,
    "hardness": 0,
    "carried": true,
    "unidentified": {
      "price": 0,
      "name": ""
    },
    "cl": 0,
    "aura": {
      "custom": false,
      "school": ""
    },
    "changes": [],
    "changeFlags": {
      "loseDexToAC": false,
      "noEncumbrance": false,
      "mediumArmorFullSpeed": false,
      "heavyArmorFullSpeed": false
    },
    "contextNotes": [],
    "links": {
      "children": []
    },
    "tag": "wandOfMisery",
    "useCustomTag": false,
    "flags": {
      "boolean": {},
      "dictionary": {
        "Category": "Tools"
      }
    },
    "scriptCalls": [],
    "subType": "gear",
    "extraType": "",
    "uses": {
      "value": 0,
      "max": 0
    }
  },
  "ownership": {
    "default": 0
  },
  "_stats": {
    "systemId": "pf1",
    "systemVersion": "9.1",
    "coreVersion": "10.291",
    "createdTime": 1665428366252,
    "modifiedTime": 1689793672618,
    "lastModifiedBy": "ppv91YxratjWnkJi"
  },
  "effects": [],
  "folder": null,
  "sort": 0,
  "flags": {},
  "_key": "!items!CUZBfHYtMC8TvbgK"
}