{
  "_id": "s8v0S1XuC6MUbMhY",
  "name": "Weapon Cord",
  "type": "loot",
  "img": "icons/commodities/tech/cable-end.webp",
  "system": {
    "description": {
      "value": "<h1 class=\"title\"><img src=\"modules/pf-content/assets/PathfinderSocietySymbol.gif\" style=\"margin:3px 3px 0px 3px;\" title=\"PFS Legal\"/> Weapon cord</h1><em>Errata</em><strong>Source</strong> <em>Ultimate Equipment pg. 58</em>, <em>Advanced Player's Guide pg. 183</em>, <em>Adventurer's Armory pg. 19</em><br/><strong>Price</strong> 1 sp; <strong>Weight</strong> -<br/><strong>Category</strong> Adventuring Gear<h2 class=\"framing\">Description</h2><p>Weapon cords are 2-foot-long leather straps that attach your weapon to your wrist. If you drop your weapon or are disarmed, you can recover it as a move action, and it never moves any farther away from you than an adjacent square. However, you cannot switch to a different weapon without first untying the cord (a full-round action) or cutting it (a move action or an attack, hardness 0, 1 hit point). Unlike with a locked gauntlet, you can still use a hand with a weapon cord, though a dangling weapon may interfere with finer actions.</p>",
      "unidentified": ""
    },
    "tags": [],
    "quantity": 1,
    "weight": {
      "value": 0
    },
    "price": 0.1,
    "size": "med",
    "equipped": false,
    "resizing": false,
    "identified": true,
    "hp": {
      "max": 10,
      "value": 10
    },
    "broken": false,
    "hardness": 0,
    "carried": true,
    "unidentified": {
      "price": 0,
      "name": ""
    },
    "cl": 0,
    "aura": {
      "custom": false,
      "school": ""
    },
    "changes": [],
    "changeFlags": {
      "loseDexToAC": false,
      "noEncumbrance": false,
      "mediumArmorFullSpeed": false,
      "heavyArmorFullSpeed": false
    },
    "contextNotes": [],
    "links": {
      "children": []
    },
    "tag": "weaponCord",
    "useCustomTag": false,
    "flags": {
      "boolean": {},
      "dictionary": {
        "Category": "Adventuring Gear"
      }
    },
    "scriptCalls": [],
    "subType": "gear",
    "extraType": "",
    "uses": {
      "value": 0,
      "max": 0
    }
  },
  "ownership": {
    "default": 0
  },
  "_stats": {
    "systemId": "pf1",
    "systemVersion": "9.1",
    "coreVersion": "10.291",
    "createdTime": 1665428368071,
    "modifiedTime": 1689793676886,
    "lastModifiedBy": "ppv91YxratjWnkJi"
  },
  "effects": [],
  "folder": null,
  "sort": 0,
  "flags": {},
  "_key": "!items!s8v0S1XuC6MUbMhY"
}