{
  "_id": "OgBefxhop5AEc7MM",
  "name": "Weapon Blanch (Cold Iron)",
  "type": "consumable",
  "img": "icons/tools/laboratory/bowl-liquid-pink-yellow-green.webp",
  "system": {
    "description": {
      "value": "<p><strong>Source</strong> <em>Ultimate Equipment pg. 103</em>, <em>Advanced Player's Guide pg. 184</em><br/><strong>Price</strong> <img src=\"modules/pf-content/assets/PathfinderSocietySymbol.gif\" style=\"margin:3px 3px 0px 3px;\" title=\"PFS Legal\"/> 100 gp (adamantine), <img src=\"modules/pf-content/assets/PathfinderSocietySymbol.gif\" style=\"margin:3px 3px 0px 3px;\" title=\"PFS Legal\"/> 20 gp (cold iron), <img src=\"modules/pf-content/assets/PathfinderSocietySymbol.gif\" style=\"margin:3px 3px 0px 3px;\" title=\"PFS Legal\"/> 5 gp (silver); <strong>Weight</strong> 1/2 lb. (adamantine), 1/2 lb. (cold iron), 1/2 lb. (silver)</p><h2 class=\"framing\">Description</h2><p>These silver, alchemical powders have a gritty consistency, appearing at first glance to be simple metal shavings. When poured on a weapon and placed over a hot flame for a full round, however, they melt and form a temporary coating on the weapon. The blanching gives the weapon the ability to bypass one kind of material-based damage reduction, such as adamantine, cold iron, or silver. The blanching remains effective until you make a successful attack with the weapon. Each dose of blanching can coat one weapon or up to 10 pieces of ammunition. Only one kind of weapon blanch can be on a weapon at one time, though a weapon made of one special material (such as adamantine) can have a different material blanch (such as silver), and counts as both materials for the first successful hit.</p><h2 class=\"framing\">Construction</h2><p><strong>Craft (Alchemy)</strong> DC 20</p>",
      "unidentified": ""
    },
    "tags": [],
    "quantity": 1,
    "weight": {
      "value": 0.5
    },
    "price": 20,
    "size": "med",
    "equipped": true,
    "resizing": false,
    "identified": true,
    "hp": {
      "max": 10,
      "value": 10
    },
    "broken": false,
    "hardness": 0,
    "carried": true,
    "unidentified": {
      "price": 0,
      "name": ""
    },
    "cl": 0,
    "aura": {
      "custom": false,
      "school": ""
    },
    "actions": [],
    "uses": {
      "per": null,
      "value": 0,
      "maxFormula": "",
      "pricePerUse": 0,
      "autoDeductChargesCost": "1"
    },
    "attackNotes": [],
    "effectNotes": [],
    "links": {
      "children": [],
      "charges": []
    },
    "tag": "weaponBlanchColdIron",
    "useCustomTag": false,
    "flags": {
      "boolean": {},
      "dictionary": {
        "Category": "Alchemical Tools"
      }
    },
    "scriptCalls": [],
    "subType": "misc",
    "showInQuickbar": false
  },
  "ownership": {
    "default": 0
  },
  "_stats": {
    "systemId": "pf1",
    "systemVersion": "9.1",
    "coreVersion": "10.291",
    "createdTime": 1665428366759,
    "modifiedTime": 1689797916044,
    "lastModifiedBy": "ppv91YxratjWnkJi"
  },
  "effects": [],
  "folder": null,
  "sort": 0,
  "flags": {},
  "_key": "!items!OgBefxhop5AEc7MM"
}