{
  "_id": "Pn6TlepG5NDxPlC5",
  "name": "Whistle, Silent",
  "type": "loot",
  "img": "icons/tools/instruments/pipe-flute-yellow.webp",
  "system": {
    "description": {
      "value": "<p><strong>Source</strong> <em>Advanced Player's Guide pg. 183</em><br/><strong>Price</strong> <img src=\"modules/pf-content/assets/PathfinderSocietySymbol.gif\" style=\"margin:3px 3px 0px 3px;\" title=\"PFS Legal\"/> 8 sp (signal), <img src=\"modules/pf-content/assets/PathfinderSocietySymbol.gif\" style=\"margin:3px 3px 0px 3px;\" title=\"PFS Legal\"/> 9 sp (silent); <strong>Weight</strong> - (signal), - (silent)</p><h2 class=\"framing\">Description</h2><p>With a DC 5 Perform (wind instruments) check you can use a whistle to signal the same sorts of situations as signal horns. A whistle's piercing report can be clearly heard (Perception DC 0) up to a quarter-mile away. For each quarter-mile beyond, Perception checks to hear a whistle suffer a -2 penalty.<br/><br/>Silent whistles that only animals and other creatures with keen hearing can hear also exist.</p>",
      "unidentified": ""
    },
    "tags": [],
    "quantity": 1,
    "weight": {
      "value": 0
    },
    "price": 0.9,
    "size": "med",
    "equipped": false,
    "resizing": false,
    "identified": true,
    "hp": {
      "max": 10,
      "value": 10
    },
    "broken": false,
    "hardness": 0,
    "carried": true,
    "unidentified": {
      "price": 0,
      "name": ""
    },
    "cl": 0,
    "aura": {
      "custom": false,
      "school": ""
    },
    "changes": [],
    "changeFlags": {
      "loseDexToAC": false,
      "noEncumbrance": false,
      "mediumArmorFullSpeed": false,
      "heavyArmorFullSpeed": false
    },
    "contextNotes": [],
    "links": {
      "children": []
    },
    "tag": "whistleSilent",
    "useCustomTag": false,
    "flags": {
      "boolean": {},
      "dictionary": {
        "Category": "Adventuring Gear"
      }
    },
    "scriptCalls": [],
    "subType": "gear",
    "extraType": "",
    "uses": {
      "value": 0,
      "max": 0
    }
  },
  "ownership": {
    "default": 0
  },
  "_stats": {
    "systemId": "pf1",
    "systemVersion": "9.1",
    "coreVersion": "10.291",
    "createdTime": 1665428366797,
    "modifiedTime": 1689793673896,
    "lastModifiedBy": "ppv91YxratjWnkJi"
  },
  "effects": [],
  "folder": null,
  "sort": 0,
  "flags": {},
  "_key": "!items!Pn6TlepG5NDxPlC5"
}