{
  "_id": "1mn5wbsoLVF4G2sH",
  "name": "Wing Hobble",
  "type": "loot",
  "img": "icons/commodities/metal/clasp-steel-green.webp",
  "system": {
    "description": {
      "value": "<p><strong>Source</strong> <em>Dragonslayer's Handbook pg. 27</em><br/><strong>Price</strong> 75 gp; <strong>Weight</strong> 1-20 lbs.<br/><strong>Category</strong> Adventuring Gear</p><h2 class=\"framing\"><img src=\"modules/pf-content/assets/PathfinderSocietySymbol.gif\" style=\"margin:3px 3px 0px 3px;\" title=\"PFS Legal\"/>Description</h2><p>This large weight is attached to a sharp steel hook which doubles as a carabiner. Once the steel hook is punched through the skin of a flying creature's wing, the carabiner locks shut. The weight then acts as an anchor, unbalancing the creature's wings, which prevents the creature from flying. The application of wing hobbles causes 1d4 points of piercing damage, and does not permanently disable the creature should the hobble be removed. A wing hobble can be attached to a pinned creature's wing with a successful grapple check. Removing a wing hobble from a creature's wing is a full-round action that provokes attacks of opportunity and requires the use of two hands.</p>",
      "unidentified": ""
    },
    "tags": [],
    "quantity": 1,
    "weight": {
      "value": 10
    },
    "price": 75,
    "size": "med",
    "equipped": false,
    "resizing": false,
    "identified": true,
    "hp": {
      "max": 10,
      "value": 10
    },
    "broken": false,
    "hardness": 0,
    "carried": true,
    "unidentified": {
      "price": 0,
      "name": ""
    },
    "cl": 0,
    "aura": {
      "custom": false,
      "school": ""
    },
    "changes": [],
    "changeFlags": {
      "loseDexToAC": false,
      "noEncumbrance": false,
      "mediumArmorFullSpeed": false,
      "heavyArmorFullSpeed": false
    },
    "contextNotes": [],
    "links": {
      "children": []
    },
    "tag": "wingHobble",
    "useCustomTag": false,
    "flags": {
      "boolean": {},
      "dictionary": {
        "Category": "Adventuring Gear"
      }
    },
    "scriptCalls": [],
    "subType": "gear",
    "extraType": "",
    "uses": {
      "value": 0,
      "max": 0
    }
  },
  "ownership": {
    "default": 0
  },
  "_stats": {
    "systemId": "pf1",
    "systemVersion": "9.1",
    "coreVersion": "10.291",
    "createdTime": 1665428365728,
    "modifiedTime": 1689793671267,
    "lastModifiedBy": "ppv91YxratjWnkJi"
  },
  "effects": [],
  "folder": null,
  "sort": 0,
  "flags": {},
  "_key": "!items!1mn5wbsoLVF4G2sH"
}