{
  "_id": "TylHEH5jzgMeoT0B",
  "name": "Wing cloak",
  "type": "equipment",
  "img": "icons/equipment/back/cloak-layered-white.webp",
  "system": {
    "description": {
      "value": "<p><strong>Source</strong> <em>Advanced Race Guide pg. 159</em><br/><strong>Price</strong> 1,200 gp; <strong>Weight</strong> 1 lb.<br/><strong>Category</strong> Clothing</p><h2 class=\"framing\"><img src=\"modules/pf-content/assets/PathfinderSocietySymbol.gif\" style=\"margin:3px 3px 0px 3px;\" title=\"PFS Legal\"/>Description</h2><p>This strange piece of equipment only works for sylphs and similar creatures, whose light, airy bodies can be borne upon the winds. Looking like a fine silk traveler's cloak, a wing cloak is secretly reinforced with a series of wooden struts that, when locked into place, stretch the cloak's fabric into a rudimentary wing. Arranging the struts into a wing or reversing the change is a move action. When the cloak is shaped into a wing, the wearer can make a DC 15 Fly check to fall safely from any height without taking falling damage, as if using <em>feather fall</em>. When falling, the wearer may make an additional DC 15 Fly check to glide, moving 5 feet laterally for every 20 feet she falls. Readying and using a wing cloak requires two hands and provokes an attack of opportunity. A wing cloak has hardness 0 and 5 hit points. If the wing cloak is broken, the Fly DCs to use it increase by +10.</p>",
      "unidentified": ""
    },
    "tags": [],
    "quantity": 1,
    "weight": {
      "value": 1
    },
    "price": 1200,
    "size": "med",
    "equipped": true,
    "resizing": false,
    "identified": true,
    "hp": {
      "max": 10,
      "value": 10
    },
    "broken": false,
    "hardness": 0,
    "carried": true,
    "unidentified": {
      "price": 0,
      "name": ""
    },
    "cl": 0,
    "aura": {
      "custom": false,
      "school": ""
    },
    "changes": [],
    "changeFlags": {
      "loseDexToAC": false,
      "noEncumbrance": false,
      "mediumArmorFullSpeed": false,
      "heavyArmorFullSpeed": false
    },
    "contextNotes": [],
    "actions": [],
    "uses": {
      "per": null,
      "value": 0,
      "maxFormula": "",
      "autoDeductChargesCost": "1"
    },
    "attackNotes": [],
    "effectNotes": [],
    "links": {
      "children": [],
      "charges": []
    },
    "tag": "wingCloak",
    "useCustomTag": false,
    "flags": {
      "boolean": {},
      "dictionary": {}
    },
    "scriptCalls": [],
    "masterwork": false,
    "enh": null,
    "proficient": true,
    "held": "normal",
    "subType": "clothing",
    "baseTypes": [],
    "equipmentSubtype": "lightArmor",
    "armor": {
      "value": 0,
      "dex": null,
      "acp": 0,
      "enh": 0
    },
    "spellFailure": 0,
    "slot": "clothing",
    "showInQuickbar": false
  },
  "ownership": {
    "default": 0
  },
  "_stats": {
    "systemId": "pf1",
    "systemVersion": "9.1",
    "coreVersion": "10.291",
    "createdTime": 1665428366911,
    "modifiedTime": 1689797916709,
    "lastModifiedBy": "ppv91YxratjWnkJi"
  },
  "effects": [],
  "folder": null,
  "sort": 0,
  "flags": {},
  "_key": "!items!TylHEH5jzgMeoT0B"
}