{
  "_id": "tiCzPfYPi9QeMKEP",
  "name": "Wing Sheaths",
  "type": "loot",
  "img": "icons/commodities/cloth/cloth-worn-leaf-green.webp",
  "system": {
    "description": {
      "value": "<p><strong>Source</strong> <em>Adventurer's Armory 2 pg. 13</em><br/><strong>Price</strong> 10 gp; <strong>Weight</strong> 10 lbs.<br/><strong>Category</strong> Adventuring Gear</p><h2 class=\"framing\"><img src=\"modules/pf-content/assets/PathfinderSocietySymbol.gif\" style=\"margin:3px 3px 0px 3px;\" title=\"PFS Legal\"/>Description</h2><p>Wing sheaths are protective coverings created from thick fabric or canvas. The sheaths are designed to tightly cover a pair of wings to keep them hidden beneath a cloak or loose-fitting clothing. Noticing hidden wings bound within wing sheaths requires a successful DC 20 Perception check. Donning or removing wing sheaths requires 1 minute, or a full-round action with assistance. Wing sheaths can be burst with a successful DC 22 Strength check. </p>",
      "unidentified": ""
    },
    "tags": [],
    "quantity": 1,
    "weight": {
      "value": 10
    },
    "price": 10,
    "size": "med",
    "equipped": false,
    "resizing": false,
    "identified": true,
    "hp": {
      "max": 10,
      "value": 10
    },
    "broken": false,
    "hardness": 0,
    "carried": true,
    "unidentified": {
      "price": 0,
      "name": ""
    },
    "cl": 0,
    "aura": {
      "custom": false,
      "school": ""
    },
    "changes": [],
    "changeFlags": {
      "loseDexToAC": false,
      "noEncumbrance": false,
      "mediumArmorFullSpeed": false,
      "heavyArmorFullSpeed": false
    },
    "contextNotes": [],
    "links": {
      "children": []
    },
    "tag": "wingSheaths",
    "useCustomTag": false,
    "flags": {
      "boolean": {},
      "dictionary": {
        "Category": "Adventuring Gear"
      }
    },
    "scriptCalls": [],
    "subType": "gear",
    "extraType": "",
    "uses": {
      "value": 0,
      "max": 0
    }
  },
  "ownership": {
    "default": 0
  },
  "_stats": {
    "systemId": "pf1",
    "systemVersion": "9.1",
    "coreVersion": "10.291",
    "createdTime": 1665428368102,
    "modifiedTime": 1689793676942,
    "lastModifiedBy": "ppv91YxratjWnkJi"
  },
  "effects": [],
  "folder": null,
  "sort": 0,
  "flags": {},
  "_key": "!items!tiCzPfYPi9QeMKEP"
}