{
  "_id": "Z8KVjUQ05uQahWE4",
  "name": "Zip-Line Hook (Masterwork)",
  "type": "loot",
  "img": "icons/sundries/survival/climbing-anchor-steel-grey.webp",
  "system": {
    "description": {
      "value": "<p><strong>Source</strong> <em>Villain Codex pg. 128</em><br/><strong>Price</strong> <img src=\"modules/pf-content/assets/PathfinderSocietySymbol.gif\" style=\"margin:3px 3px 0px 3px;\" title=\"PFS Legal\"/> 55 gp (masterwork), <img src=\"modules/pf-content/assets/PathfinderSocietySymbol.gif\" style=\"margin:3px 3px 0px 3px;\" title=\"PFS Legal\"/> 5 gp (normal); <strong>Weight</strong> 1 lb. (masterwork), 1 lb. (normal)</p><h2 class=\"framing\">Description</h2><p>This blunt iron hook secures to the user's forearm with a sturdy strap. When this item is hooked onto a rope or a similar object that has been fastened at a downward angle, the owner can use it to climb down the rope at a speed of 30 feet as a move action instead of climbing at her normal speed, but the user must take at least one move action doing so each round or she falls. Using a zip-line hook in this way requires a successful DC 5 Climb check for declinations of 90 degrees (straight down), increasing by 5 for every 15 degrees off that baseline in either direction, to a maximum DC of 30 at a 15- or 165-degree declination. It is impossible to utilize a zip-line hook on a rope without a slope, or to ascend an upward-sloping one.<br/><br/> Zip-line hooks are designed for use with two hands. A character can use a zip-line hook one-handed, but if she does so, she takes a -8 penalty on her Climb checks. Moving via a zip line is considered rigorous motion for the purpose of casting spells. If a zip line or its rope becomes broken while in use, the character using the zip line falls.<br/><br/> A zip-line hook can be improvised from cloth, leather, or any flexible hook-shaped object. Each time the character uses a move action to move with an improvised zip-line hook, the hook takes 1d6 points of damage from friction. A masterwork zip-line hook grants a +2 circumstance bonus on Climb checks to descend a rope.</p>",
      "unidentified": ""
    },
    "tags": [],
    "quantity": 1,
    "weight": {
      "value": 1
    },
    "price": 55,
    "size": "med",
    "equipped": false,
    "resizing": false,
    "identified": true,
    "hp": {
      "max": 10,
      "value": 10
    },
    "broken": false,
    "hardness": 0,
    "carried": true,
    "unidentified": {
      "price": 0,
      "name": ""
    },
    "cl": 0,
    "aura": {
      "custom": false,
      "school": ""
    },
    "changes": [],
    "changeFlags": {
      "loseDexToAC": false,
      "noEncumbrance": false,
      "mediumArmorFullSpeed": false,
      "heavyArmorFullSpeed": false
    },
    "contextNotes": [],
    "links": {
      "children": []
    },
    "tag": "ziplineHookMasterwork",
    "useCustomTag": false,
    "flags": {
      "boolean": {},
      "dictionary": {
        "Category": "Adventuring Gear"
      }
    },
    "scriptCalls": [],
    "subType": "gear",
    "extraType": "",
    "uses": {
      "value": 0,
      "max": 0
    }
  },
  "ownership": {
    "default": 0
  },
  "_stats": {
    "systemId": "pf1",
    "systemVersion": "9.1",
    "coreVersion": "10.291",
    "createdTime": 1665428367235,
    "modifiedTime": 1689793674807,
    "lastModifiedBy": "ppv91YxratjWnkJi"
  },
  "effects": [],
  "folder": null,
  "sort": 0,
  "flags": {},
  "_key": "!items!Z8KVjUQ05uQahWE4"
}