{
  "_id": "HpBIIDCEuBanx6OI",
  "name": "Advancing",
  "type": "feat",
  "img": "systems/pf1/icons/skills/violet_04.jpg",
  "folder": "wtSOBwzPhfUhelI4",
  "system": {
    "description": {
      "value": "<p><strong>Source</strong>&nbsp;<em>Ultimate Equipment pg. 134</em></p>\n<p><strong>Aura</strong>&nbsp;faint transmutation&nbsp;<strong>CL</strong>&nbsp;5th</p>\n<p><strong>Slot</strong>&nbsp;weapon quality;&nbsp;<strong>Price</strong>&nbsp;+2 bonus;&nbsp;<strong>Weight</strong>&nbsp;-</p>\n<h3 class=\"framing\"><img style=\"margin: 3px 3px 0px 3px;\" title=\"PFS Legal\" src=\"modules/pf-content/assets/PathfinderSocietySymbol.gif\" /><strong>Description</strong></h3>\n<p>This ability can only be placed on melee weapons. Once per round, when the wielder damages a creature in melee with an&nbsp;<em>advancing&nbsp;</em>weapon, she can take a 5-foot step as a swift action after the attack but before the end of her turn. This movement does not count against her ability to move or take a 5-foot step earlier or later in the round, though using this ability imposes a -2 penalty on all attack rolls until the start of her next turn. This ability may not be used in conjunction with any other ability or effect that allows moving as part of an attack.</p>\n<h3 class=\"framing\"><strong>Construction</strong></h3>\n<p><strong>Requirements</strong>&nbsp;Craft Magic Arms and Armor,&nbsp;<em>feather step&nbsp;</em>(<em>Advanced Player's Guide</em>);&nbsp;<strong>Price</strong>&nbsp;-</p>",
      "unidentified": ""
    },
    "tags": [
      "Melee Qualities"
    ],
    "actions": [],
    "uses": {
      "per": null,
      "value": 0,
      "maxFormula": "",
      "autoDeductChargesCost": "1"
    },
    "attackNotes": [],
    "effectNotes": [],
    "changes": [],
    "changeFlags": {
      "loseDexToAC": false,
      "noEncumbrance": false,
      "mediumArmorFullSpeed": false,
      "heavyArmorFullSpeed": false
    },
    "contextNotes": [],
    "links": {
      "children": [],
      "charges": []
    },
    "tag": "advancing",
    "useCustomTag": false,
    "armorProf": {
      "value": [],
      "custom": ""
    },
    "weaponProf": {
      "value": [],
      "custom": ""
    },
    "languages": {
      "value": [],
      "custom": ""
    },
    "flags": {
      "boolean": {},
      "dictionary": {}
    },
    "scriptCalls": [],
    "subType": "misc",
    "associations": {
      "classes": []
    },
    "showInQuickbar": false,
    "abilityType": "none",
    "crOffset": "",
    "disabled": false,
    "classSkills": {},
    "auraStrength": 0
  },
  "ownership": {
    "default": 0
  },
  "_stats": {
    "systemId": "pf1",
    "systemVersion": "9.1",
    "coreVersion": "10.291",
    "createdTime": 1665428386686,
    "modifiedTime": 1689797950600,
    "lastModifiedBy": "ppv91YxratjWnkJi"
  },
  "effects": [],
  "sort": 0,
  "flags": {},
  "_key": "!items!HpBIIDCEuBanx6OI"
}