{
  "_id": "DaZMtTHcqd5colrz",
  "name": "Advancing (Armor)",
  "type": "feat",
  "img": "icons/equipment/chest/breastplate-cuirass-steel-grey.webp",
  "folder": "wtSOBwzPhfUhelI4",
  "system": {
    "description": {
      "value": "<p><strong>Source</strong>&nbsp;<em>Armor Master's Handbook pg. 28</em></p>\n<p><strong>Aura</strong>&nbsp;faint necromancy&nbsp;<strong>CL</strong> 5th</p>\n<p><strong>Slot</strong>&nbsp;armor quality;&nbsp;<strong>Price</strong>&nbsp;+1 bonus;&nbsp;<strong>Weight</strong>&nbsp;-</p>\n<h3 class=\"framing\"><strong>Description</strong></h3>\n<p>A suit of armor with the&nbsp;<em>advancing</em>&nbsp;special ability allows its wearer to move through fallen enemies to the forefront of any conflict. Once per round when the wearer of a suit of&nbsp;<em>advancing</em>&nbsp;armor reduces an opponent to 0 hit points or fewer with a melee attack, she can immediately move up to 10 feet as a free action. This movement does not provoke attacks of opportunity. If this armor is created as barding, the effect is triggered if either the mount or its rider reduces an opponent to 0 hit points or fewer, and allows the mount to move up to 10 feet. The&nbsp;<em>advancing</em>&nbsp;special ability can be applied only to heavy armor.</p>\n<h3 class=\"framing\"><strong>Construction</strong></h3>\n<p><strong>Requirements</strong>&nbsp;Craft Magic Arms and Armor,&nbsp;<em>deadly juggernaut</em><sup>UC</sup>;&nbsp;<strong>Price</strong>&nbsp;+1 bonus</p>",
      "unidentified": ""
    },
    "tags": [
      "Armor Qualities"
    ],
    "actions": [],
    "uses": {
      "per": null,
      "value": 0,
      "maxFormula": "",
      "autoDeductChargesCost": "1"
    },
    "attackNotes": [],
    "effectNotes": [],
    "changes": [],
    "changeFlags": {
      "loseDexToAC": false,
      "noEncumbrance": false,
      "mediumArmorFullSpeed": false,
      "heavyArmorFullSpeed": false
    },
    "contextNotes": [],
    "links": {
      "children": [],
      "charges": []
    },
    "tag": "advancingArmor",
    "useCustomTag": false,
    "armorProf": {
      "value": [],
      "custom": ""
    },
    "weaponProf": {
      "value": [],
      "custom": ""
    },
    "languages": {
      "value": [],
      "custom": ""
    },
    "flags": {
      "boolean": {},
      "dictionary": {}
    },
    "scriptCalls": [],
    "subType": "misc",
    "associations": {
      "classes": []
    },
    "showInQuickbar": false,
    "abilityType": "none",
    "crOffset": "",
    "disabled": false,
    "classSkills": {},
    "auraStrength": 0
  },
  "ownership": {
    "default": 0
  },
  "_stats": {
    "systemId": "pf1",
    "systemVersion": "9.1",
    "coreVersion": "10.291",
    "createdTime": 1665428386668,
    "modifiedTime": 1689797950479,
    "lastModifiedBy": "ppv91YxratjWnkJi"
  },
  "effects": [],
  "sort": 0,
  "flags": {},
  "_key": "!items!DaZMtTHcqd5colrz"
}