{
  "_id": "kDkIp7o79WAvdDX2",
  "name": "Arrow-collecting",
  "type": "feat",
  "img": "icons/equipment/chest/breastplate-cuirass-steel-grey.webp",
  "system": {
    "description": {
      "value": "<p><strong>Source</strong> <em>Armor Master's Handbook pg. 26</em></p><p><strong>Aura</strong> moderate abjuration and evocation <strong>CL</strong> 11th</p><p><strong>Slot</strong> armor quality; <strong>Price</strong> +3 bonus; <strong>Weight</strong> -</p><p><h3 class=\"framing\"><img src=\"modules/pf-content/assets/PathfinderSocietySymbol.gif\" title=\"PFS Legal\" style=\"margin:3px 3px 0px 3px;\"><strong>Description</strong></h3>Armor with the <em>arrow-collecting</em> special ability grants the wearer a 20% miss chance against ranged projectile attacks (but not thrown weapon attacks, ranged spell effects such as rays, or massive ranged projectiles such as those fired from siege weapons). When a projectile misses the wearer of arrow-collecting armor because of this miss chance, the projectile begins to orbit the wearer. <em>Arrow-collecting</em> armor can hold up to 5 pieces of ammunition in this fashion. Any projectiles that would be collected beyond that limit drop at the wearer's feet. As a standard action, the wearer of <em>arrow-collecting</em> armor can shoot all collected projectiles currently floating around the armor at a single target within 30 feet. Make a separate attack roll for each projectile, using the wearer's ranged attack modifier and any enhancement bonus the projectile might have. If the projectiles are not used in this way within 5 minutes, or if anyone tries to grab or move them, they break and become useless. The arrow-collecting special ability can be applied only to medium armor.</p><p><h3 class=\"framing\"><strong>Construction</strong></h3><strong>Requirements</strong> Craft Magic Arms and Armor, <em>entropic shield, telekinesis</em>; <strong>Price</strong> +3 bonus</p>",
      "unidentified": ""
    },
    "tags": [
      "Armor Qualities"
    ],
    "actions": [],
    "uses": {
      "per": null,
      "value": 0,
      "maxFormula": "",
      "autoDeductChargesCost": "1"
    },
    "attackNotes": [],
    "effectNotes": [],
    "changes": [],
    "changeFlags": {
      "loseDexToAC": false,
      "noEncumbrance": false,
      "mediumArmorFullSpeed": false,
      "heavyArmorFullSpeed": false
    },
    "contextNotes": [],
    "links": {
      "children": [],
      "charges": []
    },
    "tag": "",
    "useCustomTag": false,
    "armorProf": {
      "value": [],
      "custom": ""
    },
    "weaponProf": {
      "value": [],
      "custom": ""
    },
    "languages": {
      "value": [],
      "custom": ""
    },
    "flags": {
      "boolean": {},
      "dictionary": {}
    },
    "scriptCalls": [],
    "subType": "misc",
    "associations": {
      "classes": []
    },
    "showInQuickbar": false,
    "abilityType": "none",
    "crOffset": "",
    "disabled": false,
    "classSkills": {}
  },
  "ownership": {
    "default": 0
  },
  "_stats": {
    "systemId": "pf1",
    "systemVersion": "9.1",
    "coreVersion": "10.291",
    "createdTime": 1665428386859,
    "modifiedTime": 1689797951776,
    "lastModifiedBy": "ppv91YxratjWnkJi"
  },
  "effects": [],
  "folder": null,
  "sort": 0,
  "flags": {},
  "_key": "!items!kDkIp7o79WAvdDX2"
}