{
  "_id": "8VA336eJRW3B8GhW",
  "name": "Bastion",
  "type": "feat",
  "img": "icons/equipment/shield/heater-steel-boss-red.webp",
  "system": {
    "description": {
      "value": "<p><strong>Source</strong> <em>Armor Master's Handbook pg. 30</em></p><p><strong>Aura</strong> strong abjuration <strong>CL</strong> 15th</p><p><strong>Slot</strong> shield quality; <strong>Price</strong> +4 bonus; <strong>Weight</strong> -</p><p><h3 class=\"framing\"><img src=\"modules/pf-content/assets/PathfinderSocietySymbol.gif\" title=\"PFS Legal\" style=\"margin:3px 3px 0px 3px;\"><strong>Description</strong></h3>A <em>bastion</em> shield grants its wielder the ability to shrug off mind-affecting effects for a limited time. Whenever the wielder of a <em>bastion</em> shield fails a Will saving throw against a mind-affecting effect, the shield suppresses this effect for a number of rounds equal to its enhancement bonus. During this time, the <em>bastion</em> shield loses its enhancement bonus. If the wearer of a <em>bastion</em> shield drops or loses it, any suppressed mind-affecting effect immediately takes effect. The <em>bastion</em> special ability can be applied only to heavy shields and tower shields.</p><p><h3 class=\"framing\"><strong>Construction</strong></h3><strong>Requirements</strong> Craft Magic Arms and Armor, <em>mind blank</em>; <strong>Price</strong> +4 bonus</p>",
      "unidentified": ""
    },
    "tags": [
      "Shield Qualities"
    ],
    "actions": [],
    "uses": {
      "per": null,
      "value": 0,
      "maxFormula": "",
      "autoDeductChargesCost": "1"
    },
    "attackNotes": [],
    "effectNotes": [],
    "changes": [],
    "changeFlags": {
      "loseDexToAC": false,
      "noEncumbrance": false,
      "mediumArmorFullSpeed": false,
      "heavyArmorFullSpeed": false
    },
    "contextNotes": [],
    "links": {
      "children": [],
      "charges": []
    },
    "tag": "",
    "useCustomTag": false,
    "armorProf": {
      "value": [],
      "custom": ""
    },
    "weaponProf": {
      "value": [],
      "custom": ""
    },
    "languages": {
      "value": [],
      "custom": ""
    },
    "flags": {
      "boolean": {},
      "dictionary": {}
    },
    "scriptCalls": [],
    "subType": "misc",
    "associations": {
      "classes": []
    },
    "showInQuickbar": false,
    "abilityType": "none",
    "crOffset": "",
    "disabled": false,
    "classSkills": {}
  },
  "ownership": {
    "default": 0
  },
  "_stats": {
    "systemId": "pf1",
    "systemVersion": "9.1",
    "coreVersion": "10.291",
    "createdTime": 1665428386639,
    "modifiedTime": 1689797950216,
    "lastModifiedBy": "ppv91YxratjWnkJi"
  },
  "effects": [],
  "folder": null,
  "sort": 0,
  "flags": {},
  "_key": "!items!8VA336eJRW3B8GhW"
}