{
  "_id": "hEpclwKY6aWF5zUc",
  "name": "Beaming",
  "type": "feat",
  "img": "icons/weapons/ammunition/arrow-head-war-flight.webp",
  "system": {
    "description": {
      "value": "<p><strong>Source</strong> <em>Blood of Shadows pg. 21</em></p><p><strong>Aura</strong> faint evocation <strong>CL</strong> 10th</p><p><strong>Price</strong> +1 bonus; <strong>Weight</strong> -</p><p><h3 class=\"framing\"><strong>Description</strong></h3>Only ranged weapons can have the <em>beaming</em> ability. Once per day, as a swift action, a <em>beaming </em>weapon creates a number of glowing orbs equal to the weapon's enhancement bonus. The orbs float around the wielder's head like a halo and fire rays of light at the wielder's foes. Once per round when the wielder makes an attack or full-attack with the <em>beaming </em>weapon, the wielder can expend one orb as a free action to fire a beam of <em>searing light</em> at any target within range. The orbs remain until expended or until the wielder sleeps.</p><p><h3 class=\"framing\"><strong>Construction</strong></h3><strong>Requirements</strong> Craft Magic Arms and Armor, <em>searing light</em>; <strong>Price</strong> -</p>",
      "unidentified": ""
    },
    "tags": [
      "Ranged Qualities"
    ],
    "actions": [],
    "uses": {
      "per": null,
      "value": 0,
      "maxFormula": "",
      "autoDeductChargesCost": "1"
    },
    "attackNotes": [],
    "effectNotes": [],
    "changes": [],
    "changeFlags": {
      "loseDexToAC": false,
      "noEncumbrance": false,
      "mediumArmorFullSpeed": false,
      "heavyArmorFullSpeed": false
    },
    "contextNotes": [],
    "links": {
      "children": [],
      "charges": []
    },
    "tag": "",
    "useCustomTag": false,
    "armorProf": {
      "value": [],
      "custom": ""
    },
    "weaponProf": {
      "value": [],
      "custom": ""
    },
    "languages": {
      "value": [],
      "custom": ""
    },
    "flags": {
      "boolean": {},
      "dictionary": {}
    },
    "scriptCalls": [],
    "subType": "misc",
    "associations": {
      "classes": []
    },
    "showInQuickbar": false,
    "abilityType": "none",
    "crOffset": "",
    "disabled": false,
    "classSkills": {}
  },
  "ownership": {
    "default": 0
  },
  "_stats": {
    "systemId": "pf1",
    "systemVersion": "9.1",
    "coreVersion": "10.291",
    "createdTime": 1665428386830,
    "modifiedTime": 1689797951557,
    "lastModifiedBy": "ppv91YxratjWnkJi"
  },
  "effects": [],
  "folder": null,
  "sort": 0,
  "flags": {},
  "_key": "!items!hEpclwKY6aWF5zUc"
}