{
  "_id": "6jpkHSPYLaGhgOw6",
  "name": "Blood-Hunting",
  "type": "feat",
  "img": "systems/pf1/icons/skills/violet_04.jpg",
  "system": {
    "description": {
      "value": "<p><strong>Source</strong> <em>Advanced Class Guide pg. 212</em></p><p><strong>Aura</strong> moderate conjuration <strong>CL</strong> 8th</p><p><strong>Slot</strong> none; <strong>Price</strong> +1 bonus; <strong>Weight</strong> -</p><p><h3 class=\"framing\"><img src=\"modules/pf-content/assets/PathfinderSocietySymbol.gif\" title=\"PFS Legal\" style=\"margin:3px 3px 0px 3px;\"><strong>Description</strong></h3>A <em>blood-hunting</em> weapon excels against enemies with the bloodline class feature. Against a designated foe, the weapon's enhancement bonus is 2 better than its actual bonus. It also deals an additional 2d6 points of damage against such foes. When combined with abilities like <em>bane </em>or <em>spirit-hunting</em>, the enhancement bonus increases granted by these abilities don't stack, but an extra 1d6 points of damage are added to the additional damage for each special ability beyond the first. (For example, a <em>bane blood-hunting </em>weapon would deal 3d6 additional points of damage, and a <em>bane blood-hunting spirit-hunting</em> weapon would deal 4d6 additional points of damage.) To randomly determine a weapon's designated foe, roll on the following table. Other designated foes are possible, but most of these weapons are tuned against creatures with the following bloodlines.</p><p>&nbsp;</p><p><table class=\"inner\"><tbody><tr><td><strong>d%</strong></td><td><strong>Designated Foe</strong></td></tr> <tr><td>01-05</td><td>Aberrant</td></tr> <tr><td>06-15</td><td>Abyssal</td></tr> <tr><td>16-30</td><td>Arcane</td></tr> <tr><td>31-35</td><td>Celestial</td></tr> <tr><td>36-40</td><td>Destined</td></tr> <tr><td>41-50</td><td>Draconic</td></tr> <tr><td>51-60</td><td>Elemental</td></tr> <tr><td>61-70</td><td>Fey</td></tr> <tr><td>71-80</td><td>Infernal</td></tr> <tr><td>81-90</td><td>Undead</td></tr> <tr><td>91-100</td><td>Other</td></tr></tbody></table></p><p><h3 class=\"framing\"><strong>Construction</strong></h3><strong>Requirements</strong> Craft Magic Arms and Armor, <em>summon monster I</em>; <strong>Price</strong> -</p>",
      "unidentified": ""
    },
    "tags": [
      "Melee Qualities"
    ],
    "actions": [],
    "uses": {
      "per": null,
      "value": 0,
      "maxFormula": "",
      "autoDeductChargesCost": "1"
    },
    "attackNotes": [],
    "effectNotes": [],
    "changes": [],
    "changeFlags": {
      "loseDexToAC": false,
      "noEncumbrance": false,
      "mediumArmorFullSpeed": false,
      "heavyArmorFullSpeed": false
    },
    "contextNotes": [],
    "links": {
      "children": [],
      "charges": []
    },
    "tag": "",
    "useCustomTag": false,
    "armorProf": {
      "value": [],
      "custom": ""
    },
    "weaponProf": {
      "value": [],
      "custom": ""
    },
    "languages": {
      "value": [],
      "custom": ""
    },
    "flags": {
      "boolean": {},
      "dictionary": {}
    },
    "scriptCalls": [],
    "subType": "misc",
    "associations": {
      "classes": []
    },
    "showInQuickbar": false,
    "abilityType": "none",
    "crOffset": "",
    "disabled": false,
    "classSkills": {}
  },
  "ownership": {
    "default": 0
  },
  "_stats": {
    "systemId": "pf1",
    "systemVersion": "9.1",
    "coreVersion": "10.291",
    "createdTime": 1665428386627,
    "modifiedTime": 1689797950144,
    "lastModifiedBy": "ppv91YxratjWnkJi"
  },
  "effects": [],
  "folder": null,
  "sort": 0,
  "flags": {},
  "_key": "!items!6jpkHSPYLaGhgOw6"
}