{
  "_id": "PA6F9pl4OAS5MhSW",
  "name": "Buoyant (medium/heavy armor)",
  "type": "feat",
  "img": "icons/equipment/chest/breastplate-cuirass-steel-grey.webp",
  "system": {
    "description": {
      "value": "<p><strong>Source</strong> <em>Magical Marketplace pg. 9</em></p><p><strong>Aura</strong> faint transmutation <strong>CL</strong> 5th</p><p><strong>Slot</strong> armor; <strong>Price</strong> light armor (+1,000 gp), shield (+1,000 gp), medium/heavy armor (+2,000 gp); <strong>Weight</strong> -</p><p><h3 class=\"framing\"><strong>Description</strong></h3><em>Buoyant </em>armor and shields bestow no armor check penalty on Swim checks attempted by the wearer. All other armor check penalties apply as normal.</p><p><h3 class=\"framing\"><strong>Construction</strong></h3><strong>Requirements</strong> Craft Magic Arms and Armor, <em>water walk</em>; <strong>Price</strong> 500 gp (light armor or shield), 1,000 gp (medium or heavy armor)</p>",
      "unidentified": ""
    },
    "tags": [
      "Armor Qualities"
    ],
    "actions": [],
    "uses": {
      "per": null,
      "value": 0,
      "maxFormula": "",
      "autoDeductChargesCost": "1"
    },
    "attackNotes": [],
    "effectNotes": [],
    "changes": [],
    "changeFlags": {
      "loseDexToAC": false,
      "noEncumbrance": false,
      "mediumArmorFullSpeed": false,
      "heavyArmorFullSpeed": false
    },
    "contextNotes": [],
    "links": {
      "children": [],
      "charges": []
    },
    "tag": "",
    "useCustomTag": false,
    "armorProf": {
      "value": [],
      "custom": ""
    },
    "weaponProf": {
      "value": [],
      "custom": ""
    },
    "languages": {
      "value": [],
      "custom": ""
    },
    "flags": {
      "boolean": {},
      "dictionary": {}
    },
    "scriptCalls": [],
    "subType": "misc",
    "associations": {
      "classes": []
    },
    "showInQuickbar": false,
    "abilityType": "none",
    "crOffset": "",
    "disabled": false,
    "classSkills": {}
  },
  "ownership": {
    "default": 0
  },
  "_stats": {
    "systemId": "pf1",
    "systemVersion": "9.1",
    "coreVersion": "10.291",
    "createdTime": 1665428386726,
    "modifiedTime": 1689797950864,
    "lastModifiedBy": "ppv91YxratjWnkJi"
  },
  "effects": [],
  "folder": null,
  "sort": 0,
  "flags": {},
  "_key": "!items!PA6F9pl4OAS5MhSW"
}