{
  "_id": "Cnr3KLmajjgLo22f",
  "name": "Burdenless",
  "type": "feat",
  "img": "icons/equipment/chest/breastplate-cuirass-steel-grey.webp",
  "system": {
    "description": {
      "value": "<p><strong>Source</strong> <em>Advanced Class Guide pg. 209</em></p><p><strong>Aura</strong> faint transmutation <strong>CL</strong> 5th</p><p><strong>Slot</strong> none; <strong>Price</strong> +4,000 gp; <strong>Weight</strong> -</p><p><h3 class=\"framing\"><img src=\"modules/pf-content/assets/PathfinderSocietySymbol.gif\" title=\"PFS Legal\" style=\"margin:3px 3px 0px 3px;\"><strong>Description</strong></h3>Burdenless armor distributes the weight of the wearer's load more efficiently, allowing her to carry more without suffering the effects of encumbrance. The wearer's carrying capacity is increased by 50% across each load (light, medium and heavy).</p><p><h3 class=\"framing\"><strong>Construction</strong></h3><strong>Requirements</strong> Craft Magic Arms and Armor, <em>effortless armor</em><sup>UC</sup>; <strong>Price</strong> 2,000 gp</p>",
      "unidentified": ""
    },
    "tags": [
      "Armor Qualities"
    ],
    "actions": [],
    "uses": {
      "per": null,
      "value": 0,
      "maxFormula": "",
      "autoDeductChargesCost": "1"
    },
    "attackNotes": [],
    "effectNotes": [],
    "changes": [],
    "changeFlags": {
      "loseDexToAC": false,
      "noEncumbrance": false,
      "mediumArmorFullSpeed": false,
      "heavyArmorFullSpeed": false
    },
    "contextNotes": [],
    "links": {
      "children": [],
      "charges": []
    },
    "tag": "",
    "useCustomTag": false,
    "armorProf": {
      "value": [],
      "custom": ""
    },
    "weaponProf": {
      "value": [],
      "custom": ""
    },
    "languages": {
      "value": [],
      "custom": ""
    },
    "flags": {
      "boolean": {},
      "dictionary": {}
    },
    "scriptCalls": [],
    "subType": "misc",
    "associations": {
      "classes": []
    },
    "showInQuickbar": false,
    "abilityType": "none",
    "crOffset": "",
    "disabled": false,
    "classSkills": {}
  },
  "ownership": {
    "default": 0
  },
  "_stats": {
    "systemId": "pf1",
    "systemVersion": "9.1",
    "coreVersion": "10.291",
    "createdTime": 1665428386662,
    "modifiedTime": 1689797950450,
    "lastModifiedBy": "ppv91YxratjWnkJi"
  },
  "effects": [],
  "folder": null,
  "sort": 0,
  "flags": {},
  "_key": "!items!Cnr3KLmajjgLo22f"
}