{
  "_id": "QAVMWeH6Edv3ODZY",
  "name": "Cocooning",
  "type": "feat",
  "img": "icons/equipment/chest/breastplate-cuirass-steel-grey.webp",
  "system": {
    "description": {
      "value": "<p><strong>Source</strong> <em>Planar Adventures pg. 46</em></p><p><strong>Aura</strong> moderate transmutation <strong>CL</strong> 9th</p><p><strong>Slot</strong> none; <strong>Price</strong> +1 bonus; <strong>Weight</strong> -</p><p><h3 class=\"framing\"><img src=\"modules/pf-content/assets/PathfinderSocietySymbol.gif\" title=\"PFS Legal\" style=\"margin:3px 3px 0px 3px;\"><strong>Description</strong></h3><em>Cocooning</em> armor protects the wearer against planar hazards when she is defenseless, enveloping her in a thin, protective membrane. If the wearer falls unconscious on a plane other than her native plane, the armor grants her immunity to the harmful environmental effects of that plane, including toxicity, extreme temperatures, negative energy, and lack of air. This immunity lasts for as long as she remains unconscious.</p><p><h3 class=\"framing\"><strong>Construction</strong></h3><strong>Requirements</strong> Craft Magic Arms and Armor, <em>planar adaptation</em>; <strong>Price</strong> +1 bonus</p>",
      "unidentified": ""
    },
    "tags": [
      "Armor Qualities"
    ],
    "actions": [],
    "uses": {
      "per": null,
      "value": 0,
      "maxFormula": "",
      "autoDeductChargesCost": "1"
    },
    "attackNotes": [],
    "effectNotes": [],
    "changes": [],
    "changeFlags": {
      "loseDexToAC": false,
      "noEncumbrance": false,
      "mediumArmorFullSpeed": false,
      "heavyArmorFullSpeed": false
    },
    "contextNotes": [],
    "links": {
      "children": [],
      "charges": []
    },
    "tag": "",
    "useCustomTag": false,
    "armorProf": {
      "value": [],
      "custom": ""
    },
    "weaponProf": {
      "value": [],
      "custom": ""
    },
    "languages": {
      "value": [],
      "custom": ""
    },
    "flags": {
      "boolean": {},
      "dictionary": {}
    },
    "scriptCalls": [],
    "subType": "misc",
    "associations": {
      "classes": []
    },
    "showInQuickbar": false,
    "abilityType": "none",
    "crOffset": "",
    "disabled": false,
    "classSkills": {}
  },
  "ownership": {
    "default": 0
  },
  "_stats": {
    "systemId": "pf1",
    "systemVersion": "9.1",
    "coreVersion": "10.291",
    "createdTime": 1665428386729,
    "modifiedTime": 1689797950891,
    "lastModifiedBy": "ppv91YxratjWnkJi"
  },
  "effects": [],
  "folder": null,
  "sort": 0,
  "flags": {},
  "_key": "!items!QAVMWeH6Edv3ODZY"
}