{
  "_id": "duRwED4gWVyiJD9x",
  "name": "Compassionate",
  "type": "feat",
  "img": "systems/pf1/icons/skills/violet_04.jpg",
  "system": {
    "description": {
      "value": "<p><strong>Source</strong> <em>Champions of Purity pg. 30</em></p><p><strong>Aura</strong> moderate conjuration <strong>CL</strong> 7th</p><p><strong>Slot</strong> weapon quality; <strong>Price</strong> +1 bonus; <strong>Weight</strong> -</p><p><h3 class=\"framing\"><img src=\"modules/pf-content/assets/PathfinderSocietySymbol.gif\" title=\"PFS Legal\" style=\"margin:3px 3px 0px 3px;\"><strong>Description</strong></h3>A <em>compassionate </em>weapon has the power to save a foe from  the brink of death. When a successful hit from a compassionate  weapon would bring a creature to -1 or fewer hit points,  that creature is automatically stabilized. This ability can be  suppressed at will as a free action.</p><p><h3 class=\"framing\"><strong>Construction</strong></h3><strong>Requirements</strong> Craft Magic Arms and Armor, <em>stabilize</em>; <strong>Price</strong> -</p>",
      "unidentified": ""
    },
    "tags": [
      "Melee Qualities"
    ],
    "actions": [],
    "uses": {
      "per": null,
      "value": 0,
      "maxFormula": "",
      "autoDeductChargesCost": "1"
    },
    "attackNotes": [],
    "effectNotes": [],
    "changes": [],
    "changeFlags": {
      "loseDexToAC": false,
      "noEncumbrance": false,
      "mediumArmorFullSpeed": false,
      "heavyArmorFullSpeed": false
    },
    "contextNotes": [],
    "links": {
      "children": [],
      "charges": []
    },
    "tag": "",
    "useCustomTag": false,
    "armorProf": {
      "value": [],
      "custom": ""
    },
    "weaponProf": {
      "value": [],
      "custom": ""
    },
    "languages": {
      "value": [],
      "custom": ""
    },
    "flags": {
      "boolean": {},
      "dictionary": {}
    },
    "scriptCalls": [],
    "subType": "misc",
    "associations": {
      "classes": []
    },
    "showInQuickbar": false,
    "abilityType": "none",
    "crOffset": "",
    "disabled": false,
    "classSkills": {}
  },
  "ownership": {
    "default": 0
  },
  "_stats": {
    "systemId": "pf1",
    "systemVersion": "9.1",
    "coreVersion": "10.291",
    "createdTime": 1665428386816,
    "modifiedTime": 1689797951473,
    "lastModifiedBy": "ppv91YxratjWnkJi"
  },
  "effects": [],
  "folder": null,
  "sort": 0,
  "flags": {},
  "_key": "!items!duRwED4gWVyiJD9x"
}