{
  "_id": "4XqrcCdeUcqQSqKp",
  "name": "Cotraveling",
  "type": "feat",
  "img": "icons/equipment/chest/breastplate-cuirass-steel-grey.webp",
  "system": {
    "description": {
      "value": "<p><strong>Source</strong> <em>Planar Adventures pg. 46</em></p><p><strong>Aura</strong> strong conjuration <strong>CL</strong> 14th</p><p><strong>Slot</strong> none; <strong>Price</strong> +3 bonus; <strong>Weight</strong> -</p><p><h3 class=\"framing\"><img src=\"modules/pf-content/assets/PathfinderSocietySymbol.gif\" title=\"PFS Legal\" style=\"margin:3px 3px 0px 3px;\"><strong>Description</strong></h3><em>Cotraveling</em> armor is decorated with the embroidered image of a five-armed spiral. While the armor is worn, the wearer can touch a willing creature and attune that creature to one of the five arms; once an arm is attuned, it glows faintly with what appears to be starlight. Once per day as a free action (even if it is not the wearer's turn) when the wearer is sent to another plane by a spell or effect, he can activate the armor to allow all creatures attuned to it to accompany him, provided the attuned creature is within 30 feet. If an attuned creature is willing, it travels along with the character, arriving with that character on the destination plane at the same relative distance from the wearer as when the wearer used this ability (or as close to it as possible, given the nature of the new plane). Once used, all five arms of the spiral deactivate, even if not all of the attuned characters were willing or able to accompany the traveler to the new destination, and the wearer must wait 24 hours before attuning new creatures to the spiral.</p><p><h3 class=\"framing\"><strong>Construction</strong></h3><strong>Requirements</strong> Craft Magic Arms and Armor, <em>plane shift</em>; <strong>Price</strong> +3 bonus</p>",
      "unidentified": ""
    },
    "tags": [
      "Armor Qualities"
    ],
    "actions": [],
    "uses": {
      "per": null,
      "value": 0,
      "maxFormula": "",
      "autoDeductChargesCost": "1"
    },
    "attackNotes": [],
    "effectNotes": [],
    "changes": [],
    "changeFlags": {
      "loseDexToAC": false,
      "noEncumbrance": false,
      "mediumArmorFullSpeed": false,
      "heavyArmorFullSpeed": false
    },
    "contextNotes": [],
    "links": {
      "children": [],
      "charges": []
    },
    "tag": "",
    "useCustomTag": false,
    "armorProf": {
      "value": [],
      "custom": ""
    },
    "weaponProf": {
      "value": [],
      "custom": ""
    },
    "languages": {
      "value": [],
      "custom": ""
    },
    "flags": {
      "boolean": {},
      "dictionary": {}
    },
    "scriptCalls": [],
    "subType": "misc",
    "associations": {
      "classes": []
    },
    "showInQuickbar": false,
    "abilityType": "none",
    "crOffset": "",
    "disabled": false,
    "classSkills": {}
  },
  "ownership": {
    "default": 0
  },
  "_stats": {
    "systemId": "pf1",
    "systemVersion": "9.1",
    "coreVersion": "10.291",
    "createdTime": 1665428386621,
    "modifiedTime": 1689797950097,
    "lastModifiedBy": "ppv91YxratjWnkJi"
  },
  "effects": [],
  "folder": null,
  "sort": 0,
  "flags": {},
  "_key": "!items!4XqrcCdeUcqQSqKp"
}