{
  "_id": "akgL4dcInSlpYZ3b",
  "name": "Gory",
  "type": "feat",
  "img": "systems/pf1/icons/skills/violet_04.jpg",
  "system": {
    "description": {
      "value": "<p><strong>Source</strong> <em>Dirty Tactics Toolbox pg. 24</em></p><p><strong>Aura</strong> strong necromancy <strong>CL</strong> 15th</p><p><strong>Price</strong> +3 bonus; <strong>Weight</strong> -</p><p><h3 class=\"framing\"><img src=\"modules/pf-content/assets/PathfinderSocietySymbol.gif\" title=\"PFS Legal\" style=\"margin:3px 3px 0px 3px;\"><strong>Description</strong></h3>A <em>gory</em> weapon functions as a wounding (<em>Pathfinder RPG Ultimate Equipment</em> 149) weapon, except it deals 1d2 points of bleed damage when it strikes. Additionally, when the wielder confirms a critical hit with this weapon, he can attempt an Intimidate check to demoralize the target as an immediate action with a circumstance bonus equal to his character level.</p><p><h3 class=\"framing\"><strong>Construction</strong></h3><strong>Requirements</strong> Craft Magic Arms and Armor, <em>bleed</em>, <em>inflict serious wounds</em>; <strong>Price</strong> -</p>",
      "unidentified": ""
    },
    "tags": [
      "Melee Qualities"
    ],
    "actions": [],
    "uses": {
      "per": null,
      "value": 0,
      "maxFormula": "",
      "autoDeductChargesCost": "1"
    },
    "attackNotes": [],
    "effectNotes": [],
    "changes": [],
    "changeFlags": {
      "loseDexToAC": false,
      "noEncumbrance": false,
      "mediumArmorFullSpeed": false,
      "heavyArmorFullSpeed": false
    },
    "contextNotes": [],
    "links": {
      "children": [],
      "charges": []
    },
    "tag": "",
    "useCustomTag": false,
    "armorProf": {
      "value": [],
      "custom": ""
    },
    "weaponProf": {
      "value": [],
      "custom": ""
    },
    "languages": {
      "value": [],
      "custom": ""
    },
    "flags": {
      "boolean": {},
      "dictionary": {}
    },
    "scriptCalls": [],
    "subType": "misc",
    "associations": {
      "classes": []
    },
    "showInQuickbar": false,
    "abilityType": "none",
    "crOffset": "",
    "disabled": false,
    "classSkills": {}
  },
  "ownership": {
    "default": 0
  },
  "_stats": {
    "systemId": "pf1",
    "systemVersion": "9.1",
    "coreVersion": "10.291",
    "createdTime": 1665428386796,
    "modifiedTime": 1689797951353,
    "lastModifiedBy": "ppv91YxratjWnkJi"
  },
  "effects": [],
  "folder": null,
  "sort": 0,
  "flags": {},
  "_key": "!items!akgL4dcInSlpYZ3b"
}