{
  "_id": "KtbAeXD4lhzEr6fS",
  "name": "Interfering",
  "type": "feat",
  "img": "icons/weapons/ammunition/arrow-head-war-flight.webp",
  "system": {
    "description": {
      "value": "<p><strong>Source</strong> <em>Ranged Tactics Toolbox pg. 26</em></p><p><strong>Aura</strong> strong transmutation <strong>CL</strong> 18th</p><p><strong>Slot</strong> none; <strong>Price</strong> +5 bonus; <strong>Weight</strong> -</p><p><h3 class=\"framing\"><img src=\"modules/pf-content/assets/PathfinderSocietySymbol.gif\" title=\"PFS Legal\" style=\"margin:3px 3px 0px 3px;\"><strong>Description</strong></h3>This special ability can be placed only on ranged weapons. The wielder can make attacks of opportunity with an <em>interfering</em> weapon as if he threatened all spaces within the weapon's first range increment or 30 feet, whichever is closer. However, the wielder cannot make multiple ranged attacks of opportunity with an interfering weapon against a creature that moves out of multiple threatened spaces within range using a single move action, even if the wielder has Combat Reflexes or other effects that allow multiple attacks of opportunity.</p><p><h3 class=\"framing\"><strong>Construction</strong></h3><strong>Requirements</strong> Craft Magic Arms and Armor, <em>litany of warding</em><sup>UC</sup>; <strong>Price</strong> -</p>",
      "unidentified": ""
    },
    "tags": [
      "Ranged Qualities"
    ],
    "actions": [],
    "uses": {
      "per": null,
      "value": 0,
      "maxFormula": "",
      "autoDeductChargesCost": "1"
    },
    "attackNotes": [],
    "effectNotes": [],
    "changes": [],
    "changeFlags": {
      "loseDexToAC": false,
      "noEncumbrance": false,
      "mediumArmorFullSpeed": false,
      "heavyArmorFullSpeed": false
    },
    "contextNotes": [],
    "links": {
      "children": [],
      "charges": []
    },
    "tag": "",
    "useCustomTag": false,
    "armorProf": {
      "value": [],
      "custom": ""
    },
    "weaponProf": {
      "value": [],
      "custom": ""
    },
    "languages": {
      "value": [],
      "custom": ""
    },
    "flags": {
      "boolean": {},
      "dictionary": {}
    },
    "scriptCalls": [],
    "subType": "misc",
    "associations": {
      "classes": []
    },
    "showInQuickbar": false,
    "abilityType": "none",
    "crOffset": "",
    "disabled": false,
    "classSkills": {}
  },
  "ownership": {
    "default": 0
  },
  "_stats": {
    "systemId": "pf1",
    "systemVersion": "9.1",
    "coreVersion": "10.291",
    "createdTime": 1665428386708,
    "modifiedTime": 1689797950728,
    "lastModifiedBy": "ppv91YxratjWnkJi"
  },
  "effects": [],
  "folder": null,
  "sort": 0,
  "flags": {},
  "_key": "!items!KtbAeXD4lhzEr6fS"
}