{
  "_id": "GT0akONArUpmFmPy",
  "name": "Locksmith",
  "type": "feat",
  "img": "icons/equipment/chest/breastplate-cuirass-steel-grey.webp",
  "system": {
    "description": {
      "value": "<p><strong>Source</strong> <em>Armor Master's Handbook pg. 24</em></p><p><strong>Aura</strong> faint transmutation <strong>CL</strong> 3rd</p><p><strong>Slot</strong> armor quality; <strong>Price</strong> +6,500 gp; <strong>Weight</strong> -</p><p><h3 class=\"framing\"><img src=\"modules/pf-content/assets/PathfinderSocietySymbol.gif\" title=\"PFS Legal\" style=\"margin:3px 3px 0px 3px;\"><strong>Description</strong></h3>A suit of <em>locksmith</em> armor does not apply its armor check penalty to its wearer's Disable Device checks. At will, the wearer of <em>locksmith</em> armor can extend from her fingertips small, delicate wires that function as masterwork thieves' tools. There is no evidence of the existence of these tools when they're not in use, and a PC attempting a Spellcraft check to identify the properties of <em>locksmith</em> armor must exceed the normal DC by 15 or this property is not revealed (though the other functions of the armor are identified normally). Additionally, <em>locksmith</em> armor allows the wearer to transfer some or all of the armor's enhancement bonus to the wearer's Disable Device checks as an enhancement bonus. As a free action, the wearer chooses how to allocate the armor's enhancement bonus at the start of his turn, and the reduction to the armor's enhancement bonus and the bonus on Disable Device checks last until his next turn. The <em>locksmith</em> special ability can be applied only to light armor.</p><p><h3 class=\"framing\"><strong>Construction</strong></h3><strong>Requirements</strong> Craft Magic Arms and Armor, <em>knock</em>; <strong>Price</strong> 3,250 gp</p>",
      "unidentified": ""
    },
    "tags": [
      "Armor Qualities"
    ],
    "actions": [],
    "uses": {
      "per": null,
      "value": 0,
      "maxFormula": "",
      "autoDeductChargesCost": "1"
    },
    "attackNotes": [],
    "effectNotes": [],
    "changes": [],
    "changeFlags": {
      "loseDexToAC": false,
      "noEncumbrance": false,
      "mediumArmorFullSpeed": false,
      "heavyArmorFullSpeed": false
    },
    "contextNotes": [],
    "links": {
      "children": [],
      "charges": []
    },
    "tag": "",
    "useCustomTag": false,
    "armorProf": {
      "value": [],
      "custom": ""
    },
    "weaponProf": {
      "value": [],
      "custom": ""
    },
    "languages": {
      "value": [],
      "custom": ""
    },
    "flags": {
      "boolean": {},
      "dictionary": {}
    },
    "scriptCalls": [],
    "subType": "misc",
    "associations": {
      "classes": []
    },
    "showInQuickbar": false,
    "abilityType": "none",
    "crOffset": "",
    "disabled": false,
    "classSkills": {}
  },
  "ownership": {
    "default": 0
  },
  "_stats": {
    "systemId": "pf1",
    "systemVersion": "9.1",
    "coreVersion": "10.291",
    "createdTime": 1665428386679,
    "modifiedTime": 1689797950553,
    "lastModifiedBy": "ppv91YxratjWnkJi"
  },
  "effects": [],
  "folder": null,
  "sort": 0,
  "flags": {},
  "_key": "!items!GT0akONArUpmFmPy"
}