{
  "_id": "Bpy6935X1nKbZ2pS",
  "name": "Mastering",
  "type": "feat",
  "img": "icons/equipment/shield/heater-steel-boss-red.webp",
  "system": {
    "description": {
      "value": "<p><strong>Source</strong> <em>Armor Master's Handbook pg. 30</em></p><p><strong>Aura</strong> strong conjuration and transmutation <strong>CL</strong> 13th</p><p><strong>Slot</strong> shield quality; <strong>Price</strong> +2 bonus; <strong>Weight</strong> -</p><p><h3 class=\"framing\"><img src=\"modules/pf-content/assets/PathfinderSocietySymbol.gif\" title=\"PFS Legal\" style=\"margin:3px 3px 0px 3px;\"><strong>Description</strong></h3>A character with the weapon training class feature who wields a <em>mastering</em> shield applies his highest weapon training bonus on attack rolls and damage rolls for shield bashes made with the shield. If the character already has weapon training with the close weapon group as his highest weapon mastery, he instead applies any of the following feats he has for other weapons to attacks performed with the shield: Greater Weapon Focus, Greater Weapon Specialization, Weapon Focus, and Weapon Specialization. A character with the weapon mastery class feature applies weapon mastery to attacks with a <em>mastering</em> shield. A character without weapon training gains no benefit.</p><p><h3 class=\"framing\"><strong>Construction</strong></h3><strong>Requirements</strong> Craft Magic Arms and Armor, <em>transformation</em><sup>UM</sup>; <strong>Price</strong> +2 bonus</p>",
      "unidentified": ""
    },
    "tags": [
      "Shield Qualities"
    ],
    "actions": [],
    "uses": {
      "per": null,
      "value": 0,
      "maxFormula": "",
      "autoDeductChargesCost": "1"
    },
    "attackNotes": [],
    "effectNotes": [],
    "changes": [],
    "changeFlags": {
      "loseDexToAC": false,
      "noEncumbrance": false,
      "mediumArmorFullSpeed": false,
      "heavyArmorFullSpeed": false
    },
    "contextNotes": [],
    "links": {
      "children": [],
      "charges": []
    },
    "tag": "",
    "useCustomTag": false,
    "armorProf": {
      "value": [],
      "custom": ""
    },
    "weaponProf": {
      "value": [],
      "custom": ""
    },
    "languages": {
      "value": [],
      "custom": ""
    },
    "flags": {
      "boolean": {},
      "dictionary": {}
    },
    "scriptCalls": [],
    "subType": "misc",
    "associations": {
      "classes": []
    },
    "showInQuickbar": false,
    "abilityType": "none",
    "crOffset": "",
    "disabled": false,
    "classSkills": {}
  },
  "ownership": {
    "default": 0
  },
  "_stats": {
    "systemId": "pf1",
    "systemVersion": "9.1",
    "coreVersion": "10.291",
    "createdTime": 1665428386656,
    "modifiedTime": 1689797950406,
    "lastModifiedBy": "ppv91YxratjWnkJi"
  },
  "effects": [],
  "folder": null,
  "sort": 0,
  "flags": {},
  "_key": "!items!Bpy6935X1nKbZ2pS"
}