{
  "_id": "A8j4ZpDkqgl8e2yb",
  "name": "Mind Buttressing",
  "type": "feat",
  "img": "icons/equipment/chest/breastplate-cuirass-steel-grey.webp",
  "system": {
    "description": {
      "value": "<p><strong>Source</strong> <em>Magical Marketplace pg. 7</em></p><p><strong>Aura</strong> faint abjuration <strong>CL</strong> 12th</p><p><strong>Slot</strong> armor; <strong>Price</strong> +2 bonus; <strong>Weight</strong> -</p><p><h3 class=\"framing\"><strong>Description</strong></h3><em>Mind buttressing</em> armor grants the wearer a +2 resistance bonus on Will saves and renders her immune to possession and mental control (including charm and compulsion effects like <em>command</em> and <em>charm person</em>). If it's donned by a creature already under the influence of such an effect, the creature immediately receives another saving throw (if one was allowed to begin with) against the spell or effect. If the check is successful, the effects are suppressed until the creature removes the armor, after which they resume. This ability can be applied only to medium or heavy armor.</p><p><h3 class=\"framing\"><strong>Construction</strong></h3><strong>Requirements</strong> Craft Magic Arms and Armor, <em>protection from chaos</em>, <em>evil</em>, <em>good</em>, or <em>law</em>; <strong>Price</strong> +2 bonus</p>",
      "unidentified": ""
    },
    "tags": [
      "Armor Qualities"
    ],
    "actions": [],
    "uses": {
      "per": null,
      "value": 0,
      "maxFormula": "",
      "autoDeductChargesCost": "1"
    },
    "attackNotes": [],
    "effectNotes": [],
    "changes": [],
    "changeFlags": {
      "loseDexToAC": false,
      "noEncumbrance": false,
      "mediumArmorFullSpeed": false,
      "heavyArmorFullSpeed": false
    },
    "contextNotes": [],
    "links": {
      "children": [],
      "charges": []
    },
    "tag": "",
    "useCustomTag": false,
    "armorProf": {
      "value": [],
      "custom": ""
    },
    "weaponProf": {
      "value": [],
      "custom": ""
    },
    "languages": {
      "value": [],
      "custom": ""
    },
    "flags": {
      "boolean": {},
      "dictionary": {}
    },
    "scriptCalls": [],
    "subType": "misc",
    "associations": {
      "classes": []
    },
    "showInQuickbar": false,
    "abilityType": "none",
    "crOffset": "",
    "disabled": false,
    "classSkills": {}
  },
  "ownership": {
    "default": 0
  },
  "_stats": {
    "systemId": "pf1",
    "systemVersion": "9.1",
    "coreVersion": "10.291",
    "createdTime": 1665428386650,
    "modifiedTime": 1689797950351,
    "lastModifiedBy": "ppv91YxratjWnkJi"
  },
  "effects": [],
  "folder": null,
  "sort": 0,
  "flags": {},
  "_key": "!items!A8j4ZpDkqgl8e2yb"
}