{
  "_id": "Bd0lZDCWLWjgEJzv",
  "name": "Plummeting",
  "type": "feat",
  "img": "icons/weapons/ammunition/arrow-head-war-flight.webp",
  "system": {
    "description": {
      "value": "<p><strong>Source</strong> <em>Ultimate Wilderness pg. 247</em></p><p><strong>Aura</strong> moderate transmutation <strong>CL</strong> 7th</p><p><strong>Slot</strong> none; <strong>Price</strong> +1 bonus; <strong>Weight</strong> -</p><p><h3 class=\"framing\"><img src=\"modules/pf-content/assets/PathfinderSocietySymbol.gif\" title=\"PFS Legal\" style=\"margin:3px 3px 0px 3px;\"><strong>Description</strong></h3>This special ability can be placed only on ranged weapons. A flying creature hit with a <em>plummeting</em> weapon must immediately attempt a DC 20 Fly check with a penalty equal to twice the weapon's enhancement bonus; if it fails, it loses 10 feet of altitude. On a confirmed critical hit, the creature loses 10 feet of altitude if it succeeds at its Fly check, and it falls 1d4x10 feet on a failed check. If a flying creature's loss of altitude results in it striking the ground or another solid surface, it takes falling damage as appropriate and is no longer flying.</p><p><h3 class=\"framing\"><strong>Construction</strong></h3><strong>Requirements</strong> Craft Magic Arms and Armor, <em>bestow curse</em>, <em>fly</em>; <strong>Price</strong> -</p>",
      "unidentified": ""
    },
    "tags": [
      "Ranged Qualities"
    ],
    "actions": [],
    "uses": {
      "per": null,
      "value": 0,
      "maxFormula": "",
      "autoDeductChargesCost": "1"
    },
    "attackNotes": [],
    "effectNotes": [],
    "changes": [],
    "changeFlags": {
      "loseDexToAC": false,
      "noEncumbrance": false,
      "mediumArmorFullSpeed": false,
      "heavyArmorFullSpeed": false
    },
    "contextNotes": [],
    "links": {
      "children": [],
      "charges": []
    },
    "tag": "",
    "useCustomTag": false,
    "armorProf": {
      "value": [],
      "custom": ""
    },
    "weaponProf": {
      "value": [],
      "custom": ""
    },
    "languages": {
      "value": [],
      "custom": ""
    },
    "flags": {
      "boolean": {},
      "dictionary": {}
    },
    "scriptCalls": [],
    "subType": "misc",
    "associations": {
      "classes": []
    },
    "showInQuickbar": false,
    "abilityType": "none",
    "crOffset": "",
    "disabled": false,
    "classSkills": {}
  },
  "ownership": {
    "default": 0
  },
  "_stats": {
    "systemId": "pf1",
    "systemVersion": "9.1",
    "coreVersion": "10.291",
    "createdTime": 1665428386655,
    "modifiedTime": 1689797950392,
    "lastModifiedBy": "ppv91YxratjWnkJi"
  },
  "effects": [],
  "folder": null,
  "sort": 0,
  "flags": {},
  "_key": "!items!Bd0lZDCWLWjgEJzv"
}