{
  "_id": "9bXtjuH2QvRblIkH",
  "name": "Sacrosanct",
  "type": "feat",
  "img": "systems/pf1/icons/skills/violet_04.jpg",
  "system": {
    "description": {
      "value": "<p><strong>Source</strong> <em>Mythic Adventures pg. 143</em></p><p><strong>Aura</strong> moderate evocation <strong>CL</strong> 8th</p><p><strong>Slot</strong> none; <strong>Price</strong> +5,000 gp; <strong>Weight</strong> -</p><p><h3 class=\"framing\"><strong>Description</strong></h3>Taking the form of a deity's favored weapon, a sacrosanct weapon serves as both a martial implement and the corresponding deity's holy (or unholy) symbol. Once per day when the wielder uses the <em>sacrosanct</em> weapon to channel energy, she can increase the radius of the channel energy to 40 feet. They wielder must be able to channel positive or negative energy to use this ability.</p><p>&nbsp;</p><p> Alternatively, the wielder can expend one use of mythic power to use this ability instead of expending its daily use. When using mythic power to activate this ability, it can be done at will.</p><p><h3 class=\"framing\"><strong>Construction</strong></h3><strong>Requirements</strong> Craft Magic Arms and Armor, Mythic Crafter, the crafter must be able to channel energy; <strong>Price</strong> -</p>",
      "unidentified": ""
    },
    "tags": [
      "Melee Qualities"
    ],
    "actions": [],
    "uses": {
      "per": null,
      "value": 0,
      "maxFormula": "",
      "autoDeductChargesCost": "1"
    },
    "attackNotes": [],
    "effectNotes": [],
    "changes": [],
    "changeFlags": {
      "loseDexToAC": false,
      "noEncumbrance": false,
      "mediumArmorFullSpeed": false,
      "heavyArmorFullSpeed": false
    },
    "contextNotes": [],
    "links": {
      "children": [],
      "charges": []
    },
    "tag": "",
    "useCustomTag": false,
    "armorProf": {
      "value": [],
      "custom": ""
    },
    "weaponProf": {
      "value": [],
      "custom": ""
    },
    "languages": {
      "value": [],
      "custom": ""
    },
    "flags": {
      "boolean": {},
      "dictionary": {}
    },
    "scriptCalls": [],
    "subType": "misc",
    "associations": {
      "classes": []
    },
    "showInQuickbar": false,
    "abilityType": "none",
    "crOffset": "",
    "disabled": false,
    "classSkills": {}
  },
  "ownership": {
    "default": 0
  },
  "_stats": {
    "systemId": "pf1",
    "systemVersion": "9.1",
    "coreVersion": "10.291",
    "createdTime": 1665428386645,
    "modifiedTime": 1689797950263,
    "lastModifiedBy": "ppv91YxratjWnkJi"
  },
  "effects": [],
  "folder": null,
  "sort": 0,
  "flags": {},
  "_key": "!items!9bXtjuH2QvRblIkH"
}