{
  "_id": "vymaBlQN0RmsnULJ",
  "name": "Spell Storing (Armor)",
  "type": "feat",
  "img": "icons/equipment/chest/breastplate-cuirass-steel-grey.webp",
  "folder": "wtSOBwzPhfUhelI4",
  "system": {
    "description": {
      "value": "<p><strong>Source</strong>&nbsp;<em>Ultimate Equipment pg. 122</em></p>\n<p><strong>Aura</strong>&nbsp;strong evocation&nbsp;<strong>CL</strong>&nbsp;12th</p>\n<p><strong>Slot</strong>&nbsp;armor quality;&nbsp;<strong>Price</strong>&nbsp;+1 bonus;&nbsp;<strong>Weight</strong>&nbsp;-</p>\n<h3 class=\"framing\"><img style=\"margin: 3px 3px 0px 3px;\" title=\"PFS Legal\" src=\"modules/pf-content/assets/PathfinderSocietySymbol.gif\" /><strong>Description</strong></h3>\n<p>This armor allows a spellcaster to store a single touch spell of up to 3rd level in it. Anytime a creature hits the wearer with a melee attack or melee touch attack, the armor can cast the spell on that creature as an immediate action if the wearer desires. Once the spell has been cast from the armor, a spellcaster can cast any other targeted touch spell of up to 3rd level into it. The armor magically imparts to the wielder the name of the spell currently stored within it. A randomly rolled suit of spell storing armor has a 50% chance to have a spell stored in it already.&nbsp;<em>Spell storing&nbsp;</em>armor emits a strong aura of the evocation school, plus the aura of the stored spell.</p>\n<h3 class=\"framing\"><strong>Construction</strong></h3>\n<p><strong>Requirements</strong>&nbsp;Craft Magic Arms and Armor, creator must be a caster of at least 12th level;&nbsp;<strong>Price</strong>&nbsp;+1 bonus</p>",
      "unidentified": ""
    },
    "tags": [
      "Armor Qualities"
    ],
    "actions": [],
    "uses": {
      "per": null,
      "value": 0,
      "maxFormula": "",
      "autoDeductChargesCost": "1"
    },
    "attackNotes": [],
    "effectNotes": [],
    "changes": [],
    "changeFlags": {
      "loseDexToAC": false,
      "noEncumbrance": false,
      "mediumArmorFullSpeed": false,
      "heavyArmorFullSpeed": false
    },
    "contextNotes": [],
    "links": {
      "children": [],
      "charges": []
    },
    "tag": "spellStoringArmor",
    "useCustomTag": false,
    "armorProf": {
      "value": [],
      "custom": ""
    },
    "weaponProf": {
      "value": [],
      "custom": ""
    },
    "languages": {
      "value": [],
      "custom": ""
    },
    "flags": {
      "boolean": {},
      "dictionary": {}
    },
    "scriptCalls": [],
    "subType": "misc",
    "associations": {
      "classes": []
    },
    "showInQuickbar": false,
    "abilityType": "none",
    "crOffset": "",
    "disabled": false,
    "classSkills": {},
    "auraStrength": 0
  },
  "ownership": {
    "default": 0
  },
  "_stats": {
    "systemId": "pf1",
    "systemVersion": "9.1",
    "coreVersion": "10.291",
    "createdTime": 1665428387071,
    "modifiedTime": 1689797952315,
    "lastModifiedBy": "ppv91YxratjWnkJi"
  },
  "effects": [],
  "sort": 0,
  "flags": {},
  "_key": "!items!vymaBlQN0RmsnULJ"
}