{
  "_id": "X2MOLlGCVAJoPizg",
  "name": "Steaming",
  "type": "feat",
  "img": "icons/equipment/chest/breastplate-cuirass-steel-grey.webp",
  "system": {
    "description": {
      "value": "<p><strong>Source</strong> <em>Monster Codex pg. 57</em></p><p><strong>Aura</strong> faint evocation <strong>CL</strong> 3rd</p><p><strong>Slot</strong> none; <strong>Price</strong> +2 bonus; <strong>Weight</strong> -</p><p><h3 class=\"framing\"><img src=\"modules/pf-content/assets/PathfinderSocietySymbol.gif\" title=\"PFS Legal\" style=\"margin:3px 3px 0px 3px;\"><strong>Description</strong></h3>A suit of <em>steaming </em>armor features numerous sliding plates and movable pieces to aid in ventilation. Three times per day, the wearer of <em>steaming </em>armor can speak a command word that causes the armor to emit a cloud of scorching steam. The steam lasts for 5 rounds or until the wearer dismisses it by speaking a second command word.</p><p>&nbsp;</p><p> When the wearer speaks the command word and at the start of the wearer's turn during subsequent rounds, the steam deals 1d6 points of fire damage to any creature grappling the wearer or occupying the wearer's square (though not to the wearer) and 1 point of damage to any creature within a 5-footradius burst of the wearer (except for those that have already taken damage because they are grappling the wearer). While the <em>steaming </em>ability is active, a creature that is within 5 feet of the wearer that makes a melee attack or attempts a combat maneuver against the wearer must succeed at a DC 14 Reflex saving throw or take 1d6 points of fire damage.</p><p>&nbsp;</p><p> The <em>steaming </em>armor special ability can be applied only to medium and heavy armors.</p><p><h3 class=\"framing\"><strong>Construction</strong></h3><strong>Requirements</strong> Craft Magic Arms and Armor, <em>elemental aura</em><sup>APG</sup>; <strong>Price</strong> +2 bonus</p>",
      "unidentified": ""
    },
    "tags": [
      "Armor Qualities"
    ],
    "actions": [],
    "uses": {
      "per": null,
      "value": 0,
      "maxFormula": "",
      "autoDeductChargesCost": "1"
    },
    "attackNotes": [],
    "effectNotes": [],
    "changes": [],
    "changeFlags": {
      "loseDexToAC": false,
      "noEncumbrance": false,
      "mediumArmorFullSpeed": false,
      "heavyArmorFullSpeed": false
    },
    "contextNotes": [],
    "links": {
      "children": [],
      "charges": []
    },
    "tag": "",
    "useCustomTag": false,
    "armorProf": {
      "value": [],
      "custom": ""
    },
    "weaponProf": {
      "value": [],
      "custom": ""
    },
    "languages": {
      "value": [],
      "custom": ""
    },
    "flags": {
      "boolean": {},
      "dictionary": {}
    },
    "scriptCalls": [],
    "subType": "misc",
    "associations": {
      "classes": []
    },
    "showInQuickbar": false,
    "abilityType": "none",
    "crOffset": "",
    "disabled": false,
    "classSkills": {}
  },
  "ownership": {
    "default": 0
  },
  "_stats": {
    "systemId": "pf1",
    "systemVersion": "9.1",
    "coreVersion": "10.291",
    "createdTime": 1665428386769,
    "modifiedTime": 1689797951193,
    "lastModifiedBy": "ppv91YxratjWnkJi"
  },
  "effects": [],
  "folder": null,
  "sort": 0,
  "flags": {},
  "_key": "!items!X2MOLlGCVAJoPizg"
}