{
  "_id": "xMRdAJM5AWKhcpbv",
  "name": "Transformative",
  "type": "feat",
  "img": "systems/pf1/icons/skills/violet_04.jpg",
  "system": {
    "description": {
      "value": "<p><strong>Source</strong> <em>Ultimate Equipment pg. 149</em>, <em>Advanced Player's Guide pg. 289</em></p><p><strong>Aura</strong> moderate transmutation <strong>CL</strong> 10th</p><p><strong>Slot</strong> weapon quality; <strong>Price</strong> +10,000 gp; <strong>Weight</strong> -</p><p><h3 class=\"framing\"><img src=\"modules/pf-content/assets/PathfinderSocietySymbol.gif\" title=\"PFS Legal\" style=\"margin:3px 3px 0px 3px;\"><strong>Description</strong></h3>This special ability can only be placed on melee weapons. A <em>transformative </em>weapon alters its shape at its wielder's command, becoming any other melee weapon of the same general shape and handedness; the weapon's categorization as simple, martial, or exotic is irrelevant. For example, a Medium <em>transformative longsword </em>can take the shape of any other Medium one-handed melee weapon, such as a scimitar, flail, or trident, but not a Medium light or two-handed melee weapon (such as a Medium short sword or a Medium greatsword). It can even take the shape of comparable weapons of different size categories. For example, a Small greatsword is a two-handed slashing weapon for a Small character, but is a one-handed slashing weapon for a Medium character, which is very similar to a Medium longsword; a Small <em>transformative greatsword</em> can thus become an actual Medium longsword, usable by a Medium creature without the -2 penalty for using a weapon of the wrong size. The weapon retains all of its abilities, including enhancement bonuses and weapon special abilities, except those prohibited by its current shape. For example, a <em>keen transformative weapon </em>functions normally in the form of a piercing or slashing weapon, but cannot use the keen special ability when in the shape of a bludgeoning weapon. When unattended, the weapon reverts to its true shape.</p><p><h3 class=\"framing\"><strong>Construction</strong></h3><strong>Requirements</strong> Craft Magic Arms and Armor, <em>major creation</em>; <strong>Price</strong> +5,000 gp</p>",
      "unidentified": ""
    },
    "tags": [
      "Melee Qualities"
    ],
    "actions": [],
    "uses": {
      "per": null,
      "value": 0,
      "maxFormula": "",
      "autoDeductChargesCost": "1"
    },
    "attackNotes": [],
    "effectNotes": [],
    "changes": [],
    "changeFlags": {
      "loseDexToAC": false,
      "noEncumbrance": false,
      "mediumArmorFullSpeed": false,
      "heavyArmorFullSpeed": false
    },
    "contextNotes": [],
    "links": {
      "children": [],
      "charges": []
    },
    "tag": "",
    "useCustomTag": false,
    "armorProf": {
      "value": [],
      "custom": ""
    },
    "weaponProf": {
      "value": [],
      "custom": ""
    },
    "languages": {
      "value": [],
      "custom": ""
    },
    "flags": {
      "boolean": {},
      "dictionary": {}
    },
    "scriptCalls": [],
    "subType": "misc",
    "associations": {
      "classes": []
    },
    "showInQuickbar": false,
    "abilityType": "none",
    "crOffset": "",
    "disabled": false,
    "classSkills": {}
  },
  "ownership": {
    "default": 0
  },
  "_stats": {
    "systemId": "pf1",
    "systemVersion": "9.1",
    "coreVersion": "10.291",
    "createdTime": 1665428387078,
    "modifiedTime": 1689797952362,
    "lastModifiedBy": "ppv91YxratjWnkJi"
  },
  "effects": [],
  "folder": null,
  "sort": 0,
  "flags": {},
  "_key": "!items!xMRdAJM5AWKhcpbv"
}