{
  "_id": "D15nrpSqMUZMb076",
  "name": "Unaligned",
  "type": "feat",
  "img": "systems/pf1/icons/skills/violet_04.jpg",
  "system": {
    "description": {
      "value": "<p><strong>Source</strong> <em>Planar Adventures pg. 48</em></p><p><strong>Aura</strong> faint abjuration <strong>CL</strong> 5th</p><p><strong>Slot</strong> none; <strong>Price</strong> +1 bonus; <strong>Weight</strong> -</p><p><h3 class=\"framing\"><img src=\"modules/pf-content/assets/PathfinderSocietySymbol.gif\" title=\"PFS Legal\" style=\"margin:3px 3px 0px 3px;\"><strong>Description</strong></h3>Typically forged by aeons or other creatures that eschew commonly held structures of morality, <em>unaligned</em> weapons quell the effects of extreme alignments on the wielder. The wielder counts her Hit Dice as 4 lower than her actual total HD when someone attempts to detect her alignment using <em>detect chaos</em>, <em>detect evil</em>, <em>detect good</em>, <em>detect law</em>, or similar spells or effects. Furthermore, if the wielder is an outsider and is targeted by a spell or effect with an alignment descriptor that deals additional damage to or has an additional effect on outsiders (such as <em>holy smite</em>), she adds a bonus equal to the unaligned weapon's enhancement bonus on saving throws she attempts against that spell or effect. Finally, the wielder takes no penalties on her Charisma-, Intelligence-, or Wisdom-based checks from a plane's mildly aligned or strongly aligned traits, regardless of her actual alignment.</p><p><h3 class=\"framing\"><strong>Construction</strong></h3><strong>Requirements</strong> Craft Magic Arms and Armor, <em>undetectable alignment</em>; <strong>Price</strong> -</p>",
      "unidentified": ""
    },
    "tags": [
      "Melee Qualities"
    ],
    "actions": [],
    "uses": {
      "per": null,
      "value": 0,
      "maxFormula": "",
      "autoDeductChargesCost": "1"
    },
    "attackNotes": [],
    "effectNotes": [],
    "changes": [],
    "changeFlags": {
      "loseDexToAC": false,
      "noEncumbrance": false,
      "mediumArmorFullSpeed": false,
      "heavyArmorFullSpeed": false
    },
    "contextNotes": [],
    "links": {
      "children": [],
      "charges": []
    },
    "tag": "",
    "useCustomTag": false,
    "armorProf": {
      "value": [],
      "custom": ""
    },
    "weaponProf": {
      "value": [],
      "custom": ""
    },
    "languages": {
      "value": [],
      "custom": ""
    },
    "flags": {
      "boolean": {},
      "dictionary": {}
    },
    "scriptCalls": [],
    "subType": "misc",
    "associations": {
      "classes": []
    },
    "showInQuickbar": false,
    "abilityType": "none",
    "crOffset": "",
    "disabled": false,
    "classSkills": {}
  },
  "ownership": {
    "default": 0
  },
  "_stats": {
    "systemId": "pf1",
    "systemVersion": "9.1",
    "coreVersion": "10.291",
    "createdTime": 1665428386664,
    "modifiedTime": 1689797950461,
    "lastModifiedBy": "ppv91YxratjWnkJi"
  },
  "effects": [],
  "folder": null,
  "sort": 0,
  "flags": {},
  "_key": "!items!D15nrpSqMUZMb076"
}