{
  "_id": "TpRUa3PRsPlsQEl9",
  "name": "Veering",
  "type": "feat",
  "img": "icons/weapons/ammunition/arrow-head-war-flight.webp",
  "system": {
    "description": {
      "value": "<p><strong>Source</strong> <em>Ranged Tactics Toolbox pg. 27</em></p><p><strong>Aura</strong> faint evocation <strong>CL</strong> 5th</p><p><strong>Slot</strong> none; <strong>Price</strong> +1 bonus; <strong>Weight</strong> -</p><p><h3 class=\"framing\"><img src=\"modules/pf-content/assets/PathfinderSocietySymbol.gif\" title=\"PFS Legal\" style=\"margin:3px 3px 0px 3px;\"><strong>Description</strong></h3>This special ability can be placed only on ranged weapons. <em>Veering</em> weapons feature feathers or carved images of wings or winged creatures in their construction. Attacks with a <em>veering</em> weapon ignore a target's bonus to AC from partial cover and reduce the target's bonus to AC from cover and soft cover by 2. A <em>veering</em> weapon bestows no benefit against targets with total cover.</p><p><h3 class=\"framing\"><strong>Construction</strong></h3><strong>Requirements</strong> Craft Magic Arms and Armor, <em>magic missile</em>; <strong>Price</strong> -</p>",
      "unidentified": ""
    },
    "tags": [
      "Ranged Qualities"
    ],
    "actions": [],
    "uses": {
      "per": null,
      "value": 0,
      "maxFormula": "",
      "autoDeductChargesCost": "1"
    },
    "attackNotes": [],
    "effectNotes": [],
    "changes": [],
    "changeFlags": {
      "loseDexToAC": false,
      "noEncumbrance": false,
      "mediumArmorFullSpeed": false,
      "heavyArmorFullSpeed": false
    },
    "contextNotes": [],
    "links": {
      "children": [],
      "charges": []
    },
    "tag": "",
    "useCustomTag": false,
    "armorProf": {
      "value": [],
      "custom": ""
    },
    "weaponProf": {
      "value": [],
      "custom": ""
    },
    "languages": {
      "value": [],
      "custom": ""
    },
    "flags": {
      "boolean": {},
      "dictionary": {}
    },
    "scriptCalls": [],
    "subType": "misc",
    "associations": {
      "classes": []
    },
    "showInQuickbar": false,
    "abilityType": "none",
    "crOffset": "",
    "disabled": false,
    "classSkills": {}
  },
  "ownership": {
    "default": 0
  },
  "_stats": {
    "systemId": "pf1",
    "systemVersion": "9.1",
    "coreVersion": "10.291",
    "createdTime": 1665428386753,
    "modifiedTime": 1689797951082,
    "lastModifiedBy": "ppv91YxratjWnkJi"
  },
  "effects": [],
  "folder": null,
  "sort": 0,
  "flags": {},
  "_key": "!items!TpRUa3PRsPlsQEl9"
}