{
  "_id": "JIgEeTwmgrUT0efT",
  "name": "Wyrmsbreath",
  "type": "feat",
  "img": "icons/equipment/shield/heater-steel-boss-red.webp",
  "system": {
    "description": {
      "value": "<p><strong>Source</strong> <em>Ultimate Equipment pg. 123</em></p><p><strong>Aura</strong> faint evocation <strong>CL</strong> 5th</p><p><strong>Slot</strong> shield quality; <strong>Price</strong> +5,000 gp; <strong>Weight</strong> -</p><p><h3 class=\"framing\"><img src=\"modules/pf-content/assets/PathfinderSocietySymbol.gif\" title=\"PFS Legal\" style=\"margin:3px 3px 0px 3px;\"><strong>Description</strong></h3>A shield with this special ability is usually crafted with an open dragon's mouth on the front. A shield with the <em>wyrmsbreath </em>special ability is keyed to one type of energy (acid, cold, electricity, or fire). The shield gains 1 charge for every 5 points of damage from the keyed energy type the wearer takes. On command, the bearer can expend 1 to 5 charges from the shield to have it create a breath weapon in a 15 foot cone dealing 1d4 points of energy damage per charge expended (Reflex DC 11 half). This damage is the same type as the shield's keyed energy type. A shield can store up to 5 charges at a time, and stored charges expire harmlessly after 24 hours. A shield cannot have more than one <em>wyrmsbreath </em>ability.</p><p><h3 class=\"framing\"><strong>Construction</strong></h3><strong>Requirements</strong> Craft Magic Arms and Armor, <em>burning hands</em>; <strong>Price</strong> +2,500 gp</p>",
      "unidentified": ""
    },
    "tags": [
      "Shield Qualities"
    ],
    "actions": [],
    "uses": {
      "per": null,
      "value": 0,
      "maxFormula": "",
      "autoDeductChargesCost": "1"
    },
    "attackNotes": [],
    "effectNotes": [],
    "changes": [],
    "changeFlags": {
      "loseDexToAC": false,
      "noEncumbrance": false,
      "mediumArmorFullSpeed": false,
      "heavyArmorFullSpeed": false
    },
    "contextNotes": [],
    "links": {
      "children": [],
      "charges": []
    },
    "tag": "",
    "useCustomTag": false,
    "armorProf": {
      "value": [],
      "custom": ""
    },
    "weaponProf": {
      "value": [],
      "custom": ""
    },
    "languages": {
      "value": [],
      "custom": ""
    },
    "flags": {
      "boolean": {},
      "dictionary": {}
    },
    "scriptCalls": [],
    "subType": "misc",
    "associations": {
      "classes": []
    },
    "showInQuickbar": false,
    "abilityType": "none",
    "crOffset": "",
    "disabled": false,
    "classSkills": {}
  },
  "ownership": {
    "default": 0
  },
  "_stats": {
    "systemId": "pf1",
    "systemVersion": "9.1",
    "coreVersion": "10.291",
    "createdTime": 1665428386697,
    "modifiedTime": 1689797950662,
    "lastModifiedBy": "ppv91YxratjWnkJi"
  },
  "effects": [],
  "folder": null,
  "sort": 0,
  "flags": {},
  "_key": "!items!JIgEeTwmgrUT0efT"
}