{
  "_id": "UBSBJvsZWySVAClx",
  "name": "Abundant Step",
  "type": "feat",
  "img": "icons/equipment/head/hat-tricorn-brown.webp",
  "system": {
    "description": {
      "value": "<strong>Swashbuckler 15th Level Deed</strong><br/><br/><p>At 15th level, an Okayo corsair can spend 2 panache points as a move action to move magically between spaces, as dimension door. Her caster level for this effect is equal to her swashbuckler level. She can't take other creatures with her when she uses this ability.</p>",
      "unidentified": ""
    },
    "tags": [
      "Swashbuckler",
      "Swashbuckler 15th Level Deed"
    ],
    "actions": [],
    "uses": {
      "per": null,
      "value": 0,
      "maxFormula": "",
      "autoDeductChargesCost": "1"
    },
    "attackNotes": [],
    "effectNotes": [],
    "changes": [],
    "changeFlags": {
      "loseDexToAC": false,
      "noEncumbrance": false,
      "mediumArmorFullSpeed": false,
      "heavyArmorFullSpeed": false
    },
    "contextNotes": [],
    "links": {
      "children": [],
      "charges": []
    },
    "tag": "",
    "useCustomTag": false,
    "armorProf": {
      "value": [],
      "custom": ""
    },
    "weaponProf": {
      "value": [],
      "custom": ""
    },
    "languages": {
      "value": [],
      "custom": ""
    },
    "flags": {
      "boolean": {},
      "dictionary": {}
    },
    "scriptCalls": [],
    "subType": "classFeat",
    "associations": {
      "classes": [
        "Swashbuckler"
      ]
    },
    "showInQuickbar": false,
    "abilityType": "none",
    "crOffset": "",
    "disabled": false,
    "classSkills": {}
  },
  "ownership": {
    "default": 0
  },
  "_stats": {
    "systemId": "pf1",
    "systemVersion": "9.1",
    "coreVersion": "10.291",
    "createdTime": 1665428272135,
    "modifiedTime": 1689797848693,
    "lastModifiedBy": "ppv91YxratjWnkJi"
  },
  "effects": [],
  "folder": null,
  "sort": 0,
  "flags": {},
  "_key": "!items!UBSBJvsZWySVAClx"
}