{
  "_id": "fJSPpmeCyZ6mzUZj",
  "name": "Accurate Poisoner",
  "type": "feat",
  "img": "systems/pf1/icons/items/inventory/lockpick.jpg",
  "system": {
    "description": {
      "value": "<strong>Rogue Talent</strong><br/><br/><p>A rogue with this talent delivers poisons with deadly precision. When the rogue successfully hits an opponent with a poisoned weapon and would deal sneak attack damage, she can forgo the sneak attack damage and increase the poison's potency. If she does, the poison's duration increases by 2 (for example, large scorpion venom lasts for 8 rounds instead of 6 rounds, and drow poison lasts for 4 minutes instead of 2 minutes).</p>",
      "unidentified": ""
    },
    "tags": [
      "Rogue",
      "Rogue Talent"
    ],
    "actions": [],
    "uses": {
      "per": null,
      "value": 0,
      "maxFormula": "",
      "autoDeductChargesCost": "1"
    },
    "attackNotes": [],
    "effectNotes": [],
    "changes": [],
    "changeFlags": {
      "loseDexToAC": false,
      "noEncumbrance": false,
      "mediumArmorFullSpeed": false,
      "heavyArmorFullSpeed": false
    },
    "contextNotes": [],
    "links": {
      "children": [],
      "charges": []
    },
    "tag": "",
    "useCustomTag": false,
    "armorProf": {
      "value": [],
      "custom": ""
    },
    "weaponProf": {
      "value": [],
      "custom": ""
    },
    "languages": {
      "value": [],
      "custom": ""
    },
    "flags": {
      "boolean": {},
      "dictionary": {}
    },
    "scriptCalls": [],
    "subType": "classFeat",
    "associations": {
      "classes": [
        "Rogue"
      ]
    },
    "showInQuickbar": false,
    "abilityType": "none",
    "crOffset": "",
    "disabled": false,
    "classSkills": {}
  },
  "ownership": {
    "default": 0
  },
  "_stats": {
    "systemId": "pf1",
    "systemVersion": "9.1",
    "coreVersion": "10.291",
    "createdTime": 1665428274037,
    "modifiedTime": 1689797856333,
    "lastModifiedBy": "ppv91YxratjWnkJi"
  },
  "effects": [],
  "folder": null,
  "sort": 0,
  "flags": {},
  "_key": "!items!fJSPpmeCyZ6mzUZj"
}