{
  "_id": "QZOkfGrRwXN1LOAS",
  "name": "Alchemical Refinement",
  "type": "feat",
  "img": "systems/pf1/icons/skills/yellow_37.jpg",
  "system": {
    "description": {
      "value": "<strong>Fighter Cunning Edge</strong><br/><br/><p>The opportunist increases the save DC of any alchemical item he crafts by 1 for every 3 fighter levels he has. Doing so increases the raw material cost to craft that item by 10 gp for every +1 increase. This bonus applies only when the opportunist uses the crafted alchemical item himself; it functions as a normal item of its type for all other users.</p>",
      "unidentified": ""
    },
    "tags": [
      "Fighter",
      "Fighter Cunning Edge"
    ],
    "actions": [],
    "uses": {
      "per": null,
      "value": 0,
      "maxFormula": "",
      "autoDeductChargesCost": "1"
    },
    "attackNotes": [],
    "effectNotes": [],
    "changes": [],
    "changeFlags": {
      "loseDexToAC": false,
      "noEncumbrance": false,
      "mediumArmorFullSpeed": false,
      "heavyArmorFullSpeed": false
    },
    "contextNotes": [],
    "links": {
      "children": [],
      "charges": []
    },
    "tag": "",
    "useCustomTag": false,
    "armorProf": {
      "value": [],
      "custom": ""
    },
    "weaponProf": {
      "value": [],
      "custom": ""
    },
    "languages": {
      "value": [],
      "custom": ""
    },
    "flags": {
      "boolean": {},
      "dictionary": {}
    },
    "scriptCalls": [],
    "subType": "classFeat",
    "associations": {
      "classes": [
        "Fighter"
      ]
    },
    "showInQuickbar": false,
    "abilityType": "none",
    "crOffset": "",
    "disabled": false,
    "classSkills": {}
  },
  "ownership": {
    "default": 0
  },
  "_stats": {
    "systemId": "pf1",
    "systemVersion": "9.1",
    "coreVersion": "10.291",
    "createdTime": 1665428271159,
    "modifiedTime": 1689797845457,
    "lastModifiedBy": "ppv91YxratjWnkJi"
  },
  "effects": [],
  "folder": null,
  "sort": 0,
  "flags": {},
  "_key": "!items!QZOkfGrRwXN1LOAS"
}