{
  "_id": "ChDGb19UrODLnpUi",
  "name": "All-Consuming Flames",
  "type": "feat",
  "img": "systems/pf1/icons/spells/leaf-jade-3.jpg",
  "system": {
    "description": {
      "value": "<strong>Druid Domain Power</strong><br/><br/><p>At 8th level, you can channel the extraplanar heat into your allies' weapons within 30 feet as a standard action. For 1 minute, the affected weapons gain the cold-outsider-bane, fire-outsider-bane, or flaming weapon special abilities. You must grant each weapon the same ability, and this ability affects no more than two of any ally's weapons. You can use this ability once per day, plus an additional time per day for every four levels beyond 8th.</p><p>Alternatively, you can choose to gain a Small fire elemental as a familiar, as if you possessed the Improved Familiar feat. Your effective wizard level for this ability is equal to your druid level and stacks with other classes that grant a familiar.</p>",
      "unidentified": ""
    },
    "tags": [
      "Druid",
      "Druid Domain Power"
    ],
    "actions": [],
    "uses": {
      "per": null,
      "value": 0,
      "maxFormula": "",
      "autoDeductChargesCost": "1"
    },
    "attackNotes": [],
    "effectNotes": [],
    "changes": [],
    "changeFlags": {
      "loseDexToAC": false,
      "noEncumbrance": false,
      "mediumArmorFullSpeed": false,
      "heavyArmorFullSpeed": false
    },
    "contextNotes": [],
    "links": {
      "children": [],
      "charges": []
    },
    "tag": "",
    "useCustomTag": false,
    "armorProf": {
      "value": [],
      "custom": ""
    },
    "weaponProf": {
      "value": [],
      "custom": ""
    },
    "languages": {
      "value": [],
      "custom": ""
    },
    "flags": {
      "boolean": {},
      "dictionary": {}
    },
    "scriptCalls": [],
    "subType": "classFeat",
    "associations": {
      "classes": [
        "Druid"
      ]
    },
    "showInQuickbar": false,
    "abilityType": "none",
    "crOffset": "",
    "disabled": false,
    "classSkills": {}
  },
  "ownership": {
    "default": 0
  },
  "_stats": {
    "systemId": "pf1",
    "systemVersion": "9.1",
    "coreVersion": "10.291",
    "createdTime": 1665428268828,
    "modifiedTime": 1689797834954,
    "lastModifiedBy": "ppv91YxratjWnkJi"
  },
  "effects": [],
  "folder": null,
  "sort": 0,
  "flags": {},
  "_key": "!items!ChDGb19UrODLnpUi"
}