{
  "_id": "G3bhtpVqHA2mz2bO",
  "name": "Ancients' Flight (Oratory)",
  "type": "feat",
  "img": "systems/pf1/icons/items/inventory/lute.jpg",
  "system": {
    "description": {
      "value": "<strong>Bard - Masterpieces</strong><br/><br/><p>You compel dragons to recite an epic poem telling the story of their race's creation.</p><p><b>Prerequisite: </b>Perform (oratory) 13 ranks, ability to speak Draconic.</p><p><b>Cost: </b>Feat or 5th-level bard spell known.</p><p><b>Effect: </b>This urgent verse tugs at the racial arrogance of dragonkind, compelling dragons, both true and lesser, to perform the epic alongside you. Any creatures of the dragon type that can hear this masterpiece must succeed at a Will save or be compelled to join in the performance. Affected dragons cannot use their mouths to attack or even speak except to recite Ancients' Flight, preventing them from using their bite attacks and breath weapons, casting spells with vocal components, or otherwise communicating vocally for the duration of the performance. The effect ceases as soon as you end your bardic performance.</p><p><b>Use: </b>2 bardic performance rounds per round.</p><p><b>Action: </b>1 full round.</p>",
      "unidentified": ""
    },
    "tags": [
      "Bard",
      "Bard - Masterpieces"
    ],
    "actions": [],
    "uses": {
      "per": null,
      "value": 0,
      "maxFormula": "",
      "autoDeductChargesCost": "1"
    },
    "attackNotes": [],
    "effectNotes": [],
    "changes": [],
    "changeFlags": {
      "loseDexToAC": false,
      "noEncumbrance": false,
      "mediumArmorFullSpeed": false,
      "heavyArmorFullSpeed": false
    },
    "contextNotes": [],
    "links": {
      "children": [],
      "charges": []
    },
    "tag": "",
    "useCustomTag": false,
    "armorProf": {
      "value": [],
      "custom": ""
    },
    "weaponProf": {
      "value": [],
      "custom": ""
    },
    "languages": {
      "value": [],
      "custom": ""
    },
    "flags": {
      "boolean": {},
      "dictionary": {}
    },
    "scriptCalls": [],
    "subType": "classFeat",
    "associations": {
      "classes": [
        "Bard"
      ]
    },
    "showInQuickbar": false,
    "abilityType": "none",
    "crOffset": "",
    "disabled": false,
    "classSkills": {}
  },
  "ownership": {
    "default": 0
  },
  "_stats": {
    "systemId": "pf1",
    "systemVersion": "9.1",
    "coreVersion": "10.291",
    "createdTime": 1665428269347,
    "modifiedTime": 1689797837230,
    "lastModifiedBy": "ppv91YxratjWnkJi"
  },
  "effects": [],
  "folder": null,
  "sort": 0,
  "flags": {},
  "_key": "!items!G3bhtpVqHA2mz2bO"
}