{
  "_id": "RA9u7G1673OQpazU",
  "name": "Angel",
  "type": "feat",
  "img": "systems/pf1/icons/skills/blue_37.jpg",
  "system": {
    "description": {
      "value": "<strong>Medium Outsider Spirit</strong><br/><br/><p>An angel is a servant of the good-aligned planes, a voice of unity and cooperation among celestial beings.</p><p><b>Alignment: </b>Any good.</p><p><b>Spirits: </b>Astral deva (trickster), balisse (hierophant), empyrean (archmage), movanic deva (champion), planetar (marshal), and solar (guardian).</p><p><b>Taboos: </b>Choose one of the following: you must not ignore an opportunity to destroy or hinder an evil creature or organization unless doing so would put innocents in harm's way; you must always offer your foes a chance to peacefully surrender to you, and you must accept and honor any such terms that your foes agree to; you must offer whatever support and assistance you can spare to any creature that asks such service from you, provided your actions do not further the cause of evil.</p><p><b>Protective Aura (Intermediate, Su): </b>You gain a +4 deflection bonus to your AC and a +4 resistance bonus on saving throws against attacks made by or effects created by evil creatures. In addition, you are protected from effects created by evil creatures that possess you or exert mental control over you, as per protection from evil.</p><p>As a standard action, you can project this benefit to allies within 10 feet as an aura. You may use this ability for a number of rounds per day equal to your medium level. These rounds don't need to be consecutive.</p><p><b>Truespeech (Gift, Su): </b>You gain tongues as a constant spell-like ability, with a caster level equal to your medium level.</p>",
      "unidentified": ""
    },
    "tags": [
      "Medium",
      "Medium Outsider Spirit"
    ],
    "actions": [],
    "uses": {
      "per": null,
      "value": 0,
      "maxFormula": "",
      "autoDeductChargesCost": "1"
    },
    "attackNotes": [],
    "effectNotes": [],
    "changes": [],
    "changeFlags": {
      "loseDexToAC": false,
      "noEncumbrance": false,
      "mediumArmorFullSpeed": false,
      "heavyArmorFullSpeed": false
    },
    "contextNotes": [],
    "links": {
      "children": [],
      "charges": []
    },
    "tag": "",
    "useCustomTag": false,
    "armorProf": {
      "value": [],
      "custom": ""
    },
    "weaponProf": {
      "value": [],
      "custom": ""
    },
    "languages": {
      "value": [],
      "custom": ""
    },
    "flags": {
      "boolean": {},
      "dictionary": {}
    },
    "scriptCalls": [],
    "subType": "classFeat",
    "associations": {
      "classes": [
        "Medium"
      ]
    },
    "showInQuickbar": false,
    "abilityType": "none",
    "crOffset": "",
    "disabled": false,
    "classSkills": {}
  },
  "ownership": {
    "default": 0
  },
  "_stats": {
    "systemId": "pf1",
    "systemVersion": "9.1",
    "coreVersion": "10.291",
    "createdTime": 1665428271540,
    "modifiedTime": 1689797846395,
    "lastModifiedBy": "ppv91YxratjWnkJi"
  },
  "effects": [],
  "folder": null,
  "sort": 0,
  "flags": {},
  "_key": "!items!RA9u7G1673OQpazU"
}