{
  "_id": "f8f1wXe1UZNSdv4w",
  "name": "Angelic Bond",
  "type": "feat",
  "img": "systems/pf1/icons/spells/protect-royal-3.jpg",
  "system": {
    "description": {
      "value": "<strong>Paladin Variant Divine Bond</strong><br/><br/><p>As a standard action, the paladin can call forth an angel spirit that bonds to her, causing her to manifest a resplendent halo. This bond allows the paladin to shine light as per continual flame for 1 minute per paladin level. Additionally, while the halo shines, all allies within 20 feet gain the benefits of protection from evil, except the deflection and resistance bonuses are +3. For every 3 levels she has beyond 5th, the deflection bonus and resistance bonus provided by this effect increases by 1, up to a maximum of +8 at 20th level. The paladin can use this ability once per day at 5th level, and one additional time per day for every 4 levels beyond 5th, up to a total of four times per day at 17th level.</p>",
      "unidentified": ""
    },
    "tags": [
      "Paladin",
      "Paladin Variant Divine Bond"
    ],
    "actions": [],
    "uses": {
      "per": null,
      "value": 0,
      "maxFormula": "",
      "autoDeductChargesCost": "1"
    },
    "attackNotes": [],
    "effectNotes": [],
    "changes": [],
    "changeFlags": {
      "loseDexToAC": false,
      "noEncumbrance": false,
      "mediumArmorFullSpeed": false,
      "heavyArmorFullSpeed": false
    },
    "contextNotes": [],
    "links": {
      "children": [],
      "charges": []
    },
    "tag": "",
    "useCustomTag": false,
    "armorProf": {
      "value": [],
      "custom": ""
    },
    "weaponProf": {
      "value": [],
      "custom": ""
    },
    "languages": {
      "value": [],
      "custom": ""
    },
    "flags": {
      "boolean": {},
      "dictionary": {}
    },
    "scriptCalls": [],
    "subType": "classFeat",
    "associations": {
      "classes": [
        "Paladin"
      ]
    },
    "showInQuickbar": false,
    "abilityType": "none",
    "crOffset": "",
    "disabled": false,
    "classSkills": {}
  },
  "ownership": {
    "default": 0
  },
  "_stats": {
    "systemId": "pf1",
    "systemVersion": "9.1",
    "coreVersion": "10.291",
    "createdTime": 1665428274022,
    "modifiedTime": 1689797856226,
    "lastModifiedBy": "ppv91YxratjWnkJi"
  },
  "effects": [],
  "folder": null,
  "sort": 0,
  "flags": {},
  "_key": "!items!f8f1wXe1UZNSdv4w"
}