{
  "_id": "hqbGuZ4MIsDWcfoC",
  "name": "Anguish Bomb",
  "type": "feat",
  "img": "systems/pf1/icons/items/potions/grand-yellow.jpg",
  "system": {
    "description": {
      "value": "<strong>Alchemist Discovery - Bomb</strong><br/><br/><p>You can throw bombs infused with psychic trauma. This discovery allows other alchemists to duplicate the anguish bombs used by mnemostillers.</p>",
      "unidentified": ""
    },
    "tags": [
      "Alchemist",
      "Alchemist Discovery - Bomb"
    ],
    "actions": [],
    "uses": {
      "per": null,
      "value": 0,
      "maxFormula": "",
      "autoDeductChargesCost": "1"
    },
    "attackNotes": [],
    "effectNotes": [],
    "changes": [],
    "changeFlags": {
      "loseDexToAC": false,
      "noEncumbrance": false,
      "mediumArmorFullSpeed": false,
      "heavyArmorFullSpeed": false
    },
    "contextNotes": [],
    "links": {
      "children": [],
      "charges": []
    },
    "tag": "",
    "useCustomTag": false,
    "armorProf": {
      "value": [],
      "custom": ""
    },
    "weaponProf": {
      "value": [],
      "custom": ""
    },
    "languages": {
      "value": [],
      "custom": ""
    },
    "flags": {
      "boolean": {},
      "dictionary": {}
    },
    "scriptCalls": [],
    "subType": "classFeat",
    "associations": {
      "classes": [
        "Alchemist"
      ]
    },
    "showInQuickbar": false,
    "abilityType": "none",
    "crOffset": "",
    "disabled": false,
    "classSkills": {}
  },
  "ownership": {
    "default": 0
  },
  "_stats": {
    "systemId": "pf1",
    "systemVersion": "9.1",
    "coreVersion": "10.291",
    "createdTime": 1665428274607,
    "modifiedTime": 1689797858225,
    "lastModifiedBy": "ppv91YxratjWnkJi"
  },
  "effects": [],
  "folder": null,
  "sort": 0,
  "flags": {},
  "_key": "!items!hqbGuZ4MIsDWcfoC"
}