{
  "_id": "nhr6uZQ9GnJaENL0",
  "name": "Ascension",
  "type": "feat",
  "img": "systems/pf1/icons/skills/red_12.jpg",
  "system": {
    "description": {
      "value": "<strong>Bloodrager - Bloodline Powers</strong><br/><br/><p>At 20th level, you become infused with the power of the heavens. You gain immunity to acid, cold, and petrification. You also gain resistance 10 to electricity and fire, as well as a +4 racial bonus on saving throws against poison. You have these benefits constantly, even while not bloodraging.</p>",
      "unidentified": ""
    },
    "tags": [
      "Bloodrager",
      "Bloodrager - Bloodline Powers"
    ],
    "actions": [],
    "uses": {
      "per": null,
      "value": 0,
      "maxFormula": "",
      "autoDeductChargesCost": "1"
    },
    "attackNotes": [],
    "effectNotes": [],
    "changes": [],
    "changeFlags": {
      "loseDexToAC": false,
      "noEncumbrance": false,
      "mediumArmorFullSpeed": false,
      "heavyArmorFullSpeed": false
    },
    "contextNotes": [],
    "links": {
      "children": [],
      "charges": []
    },
    "tag": "",
    "useCustomTag": false,
    "armorProf": {
      "value": [],
      "custom": ""
    },
    "weaponProf": {
      "value": [],
      "custom": ""
    },
    "languages": {
      "value": [],
      "custom": ""
    },
    "flags": {
      "boolean": {},
      "dictionary": {}
    },
    "scriptCalls": [],
    "subType": "classFeat",
    "associations": {
      "classes": [
        "Bloodrager"
      ]
    },
    "showInQuickbar": false,
    "abilityType": "none",
    "crOffset": "",
    "disabled": false,
    "classSkills": {}
  },
  "ownership": {
    "default": 0
  },
  "_stats": {
    "systemId": "pf1",
    "systemVersion": "9.1",
    "coreVersion": "10.291",
    "createdTime": 1665428275814,
    "modifiedTime": 1689797862024,
    "lastModifiedBy": "ppv91YxratjWnkJi"
  },
  "effects": [],
  "folder": null,
  "sort": 0,
  "flags": {},
  "_key": "!items!nhr6uZQ9GnJaENL0"
}