{
  "_id": "sQzVBMkTyGuGtQPM",
  "name": "Ash Subdomain",
  "type": "feat",
  "img": "systems/pf1/icons/items/inventory/badge-cross.jpg",
  "system": {
    "description": {
      "value": "<strong>Cleric Subdomain</strong><br/><br/><p><b>Associated Domain(s): </b>Fire</p><p><b>Associated Deities: </b>Angradd, Asmodeus, Chavazvug, Feronia, Flauros, Furcas, Haborym, Hastrikhal, Izyagna, Lady Nanbyo, Mhar, Moloch, Nurgal, Onos, Ptah, Rubicante, Sekhmet, Sezelrian, Urxehl, Yabu, Yamatsumi, Ymeri, Zelishkar, Zipacna, Zurapadyn, Zursvaater</p><p><b>Replacement Power: </b>The following granted power replaces the fire resistance power of the Fire domain.</p><p><b>Replacement Domain Spells: </b>7th-disintegrate, 9th-fiery body.</p>",
      "unidentified": ""
    },
    "tags": [
      "Cleric",
      "Cleric Subdomain"
    ],
    "actions": [],
    "uses": {
      "per": null,
      "value": 0,
      "maxFormula": "",
      "autoDeductChargesCost": "1"
    },
    "attackNotes": [],
    "effectNotes": [],
    "changes": [],
    "changeFlags": {
      "loseDexToAC": false,
      "noEncumbrance": false,
      "mediumArmorFullSpeed": false,
      "heavyArmorFullSpeed": false
    },
    "contextNotes": [],
    "links": {
      "children": [],
      "charges": []
    },
    "tag": "",
    "useCustomTag": false,
    "armorProf": {
      "value": [],
      "custom": ""
    },
    "weaponProf": {
      "value": [],
      "custom": ""
    },
    "languages": {
      "value": [],
      "custom": ""
    },
    "flags": {
      "boolean": {},
      "dictionary": {}
    },
    "scriptCalls": [],
    "subType": "classFeat",
    "associations": {
      "classes": [
        "Cleric"
      ]
    },
    "showInQuickbar": false,
    "abilityType": "none",
    "crOffset": "",
    "disabled": false,
    "classSkills": {}
  },
  "ownership": {
    "default": 0
  },
  "_stats": {
    "systemId": "pf1",
    "systemVersion": "9.1",
    "coreVersion": "10.291",
    "createdTime": 1665428276532,
    "modifiedTime": 1689797864586,
    "lastModifiedBy": "ppv91YxratjWnkJi"
  },
  "effects": [],
  "folder": null,
  "sort": 0,
  "flags": {},
  "_key": "!items!sQzVBMkTyGuGtQPM"
}