{
  "_id": "AA1ylfa4XS8XC5e5",
  "name": "Assumed Form (Intrigue)",
  "type": "feat",
  "img": "systems/pf1/icons/skills/red_09.jpg",
  "system": {
    "description": {
      "value": "<strong>Oracle Intrigue Mystery Power</strong><br/><br/><p>You can change your appearance at will, as disguise self with a caster level equal to your oracle level. At 7th level, you can choose to actually transform, which works the same way but counts as a polymorph effect instead of an illusion and doesn't allow a Will save to disbelieve. At 11th level, the ability lasts until you dismiss it or use it again, allowing you to even keep it active while you sleep. At 15th level, when you use this ability as a polymorph effect, you can gain the size bonus to your ability scores and additional racial abilities as if using alter self.</p>",
      "unidentified": ""
    },
    "tags": [
      "Oracle",
      "Oracle Intrigue Mystery Power"
    ],
    "actions": [],
    "uses": {
      "per": null,
      "value": 0,
      "maxFormula": "",
      "autoDeductChargesCost": "1"
    },
    "attackNotes": [],
    "effectNotes": [],
    "changes": [],
    "changeFlags": {
      "loseDexToAC": false,
      "noEncumbrance": false,
      "mediumArmorFullSpeed": false,
      "heavyArmorFullSpeed": false
    },
    "contextNotes": [],
    "links": {
      "children": [],
      "charges": []
    },
    "tag": "",
    "useCustomTag": false,
    "armorProf": {
      "value": [],
      "custom": ""
    },
    "weaponProf": {
      "value": [],
      "custom": ""
    },
    "languages": {
      "value": [],
      "custom": ""
    },
    "flags": {
      "boolean": {},
      "dictionary": {}
    },
    "scriptCalls": [],
    "subType": "classFeat",
    "associations": {
      "classes": [
        "Oracle"
      ]
    },
    "showInQuickbar": false,
    "abilityType": "none",
    "crOffset": "",
    "disabled": false,
    "classSkills": {}
  },
  "ownership": {
    "default": 0
  },
  "_stats": {
    "systemId": "pf1",
    "systemVersion": "9.1",
    "coreVersion": "10.291",
    "createdTime": 1665428268617,
    "modifiedTime": 1689797832573,
    "lastModifiedBy": "ppv91YxratjWnkJi"
  },
  "effects": [],
  "folder": null,
  "sort": 0,
  "flags": {},
  "_key": "!items!AA1ylfa4XS8XC5e5"
}