{
  "_id": "ruuG88BunA1dK60J",
  "name": "Avalanche",
  "type": "feat",
  "img": "systems/pf1/icons/spells/fireball-red-3.jpg",
  "system": {
    "description": {
      "value": "<strong>Sorcerer Bloodline Power</strong><br/><br/><p>At 9th level, whenever you hit a single target with a spell that deals damage, you may make a bull rush check as a swift action. Your CMB for this maneuver is equal to your sorcerer caster level + your Charisma bonus. You can make this maneuver even if the target is not in melee range, and you do not provoke an attack of opportunity for making this maneuver. If the target is in contact with earth, stone, or rock, you gain a +4 bonus on your CMB check.</p>",
      "unidentified": ""
    },
    "tags": [
      "Sorcerer",
      "Sorcerer Bloodline Power"
    ],
    "actions": [],
    "uses": {
      "per": null,
      "value": 0,
      "maxFormula": "",
      "autoDeductChargesCost": "1"
    },
    "attackNotes": [],
    "effectNotes": [],
    "changes": [],
    "changeFlags": {
      "loseDexToAC": false,
      "noEncumbrance": false,
      "mediumArmorFullSpeed": false,
      "heavyArmorFullSpeed": false
    },
    "contextNotes": [],
    "links": {
      "children": [],
      "charges": []
    },
    "tag": "",
    "useCustomTag": false,
    "armorProf": {
      "value": [],
      "custom": ""
    },
    "weaponProf": {
      "value": [],
      "custom": ""
    },
    "languages": {
      "value": [],
      "custom": ""
    },
    "flags": {
      "boolean": {},
      "dictionary": {}
    },
    "scriptCalls": [],
    "subType": "classFeat",
    "associations": {
      "classes": [
        "Sorcerer"
      ]
    },
    "showInQuickbar": false,
    "abilityType": "none",
    "crOffset": "",
    "disabled": false,
    "classSkills": {}
  },
  "ownership": {
    "default": 0
  },
  "_stats": {
    "systemId": "pf1",
    "systemVersion": "9.1",
    "coreVersion": "10.291",
    "createdTime": 1665428276485,
    "modifiedTime": 1689797864304,
    "lastModifiedBy": "ppv91YxratjWnkJi"
  },
  "effects": [],
  "folder": null,
  "sort": 0,
  "flags": {},
  "_key": "!items!ruuG88BunA1dK60J"
}