{
  "_id": "ZEuAk7HvZXwuYkMv",
  "name": "Azata Subdomain",
  "type": "feat",
  "img": "systems/pf1/icons/items/inventory/badge-cross.jpg",
  "system": {
    "description": {
      "value": "<strong>Cleric Subdomain</strong><br/><br/><p><b>Associated Domain(s): </b>Chaos, Good</p><p><b>Associated Deities: </b>Ashava, Black Butterfly, Calistria, Cayden Cailean, Cernunnos, Chadali, Chucaro, Desna, Elion, Findeladlara, Hathor, Hembad, Immonhiel, Jalaijatali, Keltheald, Ketephys, Kofusachi, Lalaci, Marishi, Mazludeh, Milani, Picoperi, Pulura, Reymenda, Selket, Sinashakti, Skode, Skrymir, Thisamet, Tolc, Valani, Yuelral</p><p><b>Replacement Power: </b>The following granted power replaces the touch of chaos power of the Chaos domain or the touch of good power of the Good domain. Azatas are a race of chaotic good outsiders.</p><p><b>Replacement Domain Spells: </b>1st-expeditious retreat, 3rd-fly, 6th-planar ally (azata only).</p>",
      "unidentified": ""
    },
    "tags": [
      "Cleric",
      "Cleric Subdomain"
    ],
    "actions": [],
    "uses": {
      "per": null,
      "value": 0,
      "maxFormula": "",
      "autoDeductChargesCost": "1"
    },
    "attackNotes": [],
    "effectNotes": [],
    "changes": [],
    "changeFlags": {
      "loseDexToAC": false,
      "noEncumbrance": false,
      "mediumArmorFullSpeed": false,
      "heavyArmorFullSpeed": false
    },
    "contextNotes": [],
    "links": {
      "children": [],
      "charges": []
    },
    "tag": "",
    "useCustomTag": false,
    "armorProf": {
      "value": [],
      "custom": ""
    },
    "weaponProf": {
      "value": [],
      "custom": ""
    },
    "languages": {
      "value": [],
      "custom": ""
    },
    "flags": {
      "boolean": {},
      "dictionary": {}
    },
    "scriptCalls": [],
    "subType": "classFeat",
    "associations": {
      "classes": [
        "Cleric"
      ]
    },
    "showInQuickbar": false,
    "abilityType": "none",
    "crOffset": "",
    "disabled": false,
    "classSkills": {}
  },
  "ownership": {
    "default": 0
  },
  "_stats": {
    "systemId": "pf1",
    "systemVersion": "9.1",
    "coreVersion": "10.291",
    "createdTime": 1665428272878,
    "modifiedTime": 1689797851720,
    "lastModifiedBy": "ppv91YxratjWnkJi"
  },
  "effects": [],
  "folder": null,
  "sort": 0,
  "flags": {},
  "_key": "!items!ZEuAk7HvZXwuYkMv"
}