{
  "_id": "yM62mLPKQBMA9ZV6",
  "name": "Banish Flame",
  "type": "feat",
  "img": "systems/pf1/icons/spells/leaf-jade-3.jpg",
  "system": {
    "description": {
      "value": "<strong>Druid Domain Power</strong><br/><br/><p>At 6th level, you may use your call cold ability to damage creatures with the fire subtype (as a cleric channeling negative energy) or to cause them to flee from you (as the Turn Undead feat). Alternatively, you may use this ability to negate magical fire effects as if using a targeted dispel magic; at 12th level, this functions as targeted or area greater dispel magic instead of dispel magic.</p>",
      "unidentified": ""
    },
    "tags": [
      "Druid",
      "Druid Domain Power"
    ],
    "actions": [],
    "uses": {
      "per": null,
      "value": 0,
      "maxFormula": "",
      "autoDeductChargesCost": "1"
    },
    "attackNotes": [],
    "effectNotes": [],
    "changes": [],
    "changeFlags": {
      "loseDexToAC": false,
      "noEncumbrance": false,
      "mediumArmorFullSpeed": false,
      "heavyArmorFullSpeed": false
    },
    "contextNotes": [],
    "links": {
      "children": [],
      "charges": []
    },
    "tag": "",
    "useCustomTag": false,
    "armorProf": {
      "value": [],
      "custom": ""
    },
    "weaponProf": {
      "value": [],
      "custom": ""
    },
    "languages": {
      "value": [],
      "custom": ""
    },
    "flags": {
      "boolean": {},
      "dictionary": {}
    },
    "scriptCalls": [],
    "subType": "classFeat",
    "associations": {
      "classes": [
        "Druid"
      ]
    },
    "showInQuickbar": false,
    "abilityType": "none",
    "crOffset": "",
    "disabled": false,
    "classSkills": {}
  },
  "ownership": {
    "default": 0
  },
  "_stats": {
    "systemId": "pf1",
    "systemVersion": "9.1",
    "coreVersion": "10.291",
    "createdTime": 1665428277903,
    "modifiedTime": 1689797868500,
    "lastModifiedBy": "ppv91YxratjWnkJi"
  },
  "effects": [],
  "folder": null,
  "sort": 0,
  "flags": {},
  "_key": "!items!yM62mLPKQBMA9ZV6"
}