{
  "_id": "c2ex69IhLrk6xHoP",
  "name": "Beautiful Strike",
  "type": "feat",
  "img": "systems/pf1/icons/items/inventory/horseshoe.jpg",
  "system": {
    "description": {
      "value": "<strong>Cavalier/Samurai Order Abilitiy</strong><br/><br/><p>At 15th level, once per day when the order of the songbird samurai confirms a critical hit against the target of her challenge, she can declare it a beautiful strike without spending an action. The damage dealt by the attack becomes nonlethal damage, and the target must succeed at a Will save (DC = 10 + half the samurai's class level + her Charisma modifier) or be charmed as per charm monster (caster level equals the samurai's class level).</p>",
      "unidentified": ""
    },
    "tags": [
      "Cavalier, Samurai",
      "Cavalier/Samurai Order Abilitiy"
    ],
    "actions": [],
    "uses": {
      "per": null,
      "value": 0,
      "maxFormula": "",
      "autoDeductChargesCost": "1"
    },
    "attackNotes": [],
    "effectNotes": [],
    "changes": [],
    "changeFlags": {
      "loseDexToAC": false,
      "noEncumbrance": false,
      "mediumArmorFullSpeed": false,
      "heavyArmorFullSpeed": false
    },
    "contextNotes": [],
    "links": {
      "children": [],
      "charges": []
    },
    "tag": "",
    "useCustomTag": false,
    "armorProf": {
      "value": [],
      "custom": ""
    },
    "weaponProf": {
      "value": [],
      "custom": ""
    },
    "languages": {
      "value": [],
      "custom": ""
    },
    "flags": {
      "boolean": {},
      "dictionary": {}
    },
    "scriptCalls": [],
    "subType": "classFeat",
    "associations": {
      "classes": [
        "Cavalier",
        "Samurai"
      ]
    },
    "showInQuickbar": false,
    "abilityType": "none",
    "crOffset": "",
    "disabled": false,
    "classSkills": {}
  },
  "ownership": {
    "default": 0
  },
  "_stats": {
    "systemId": "pf1",
    "systemVersion": "9.1",
    "coreVersion": "10.291",
    "createdTime": 1665428273435,
    "modifiedTime": 1689797853627,
    "lastModifiedBy": "ppv91YxratjWnkJi"
  },
  "effects": [],
  "folder": null,
  "sort": 0,
  "flags": {},
  "_key": "!items!c2ex69IhLrk6xHoP"
}