{
  "_id": "JtNLOuLIOlayjveZ",
  "name": "Black Market Connections (UC)",
  "type": "feat",
  "img": "systems/pf1/icons/items/inventory/lockpick.jpg",
  "system": {
    "description": {
      "value": "<strong>Unchained Rogue Talent</strong><br/><br/><p>The power of the elements resides in you, and at times you can hardly control its fury. This influence comes from an elemental outsider in your family history or a time when you or your relatives were exposed to a powerful elemental force.</p><p><b>Class Skill: </b>Knowledge (planes).</p><p><b>Bonus Spells: </b>burning hands* (3rd), scorching ray* (5th), protection from energy (7th), elemental body I (9th), elemental body II (11th), elemental body III (13th), elemental body IV (15th), summon monster VIII (elementals only) (17th), elemental swarm (19th).</p><p>*These spells always deal a type of damage determined by your element. In addition, the subtype of these spells changes to match the energy type of your element.</p><p><b>Bonus Feats: </b>Dodge, Empower Spell, Great Fortitude, Improved Initiative, Lightning Reflexes, Power Attack, Skill Focus (Knowledge [planes]), Weapon Finesse.</p><p><b>Bloodline Arcana: </b>Whenever you cast a spell that deals energy damage, you can change the type of damage to match the type of your bloodline. This also changes the spell's type to match the type of your bloodline.</p><p><b>Bloodline Powers: </b>One of the four elements infuses your being, and you can draw upon its power in times of need. At first level, you must select one of the four elements: air, earth, fire, or water. This choice cannot be changed. A number of your abilities grant resistances and deal damage based on your element, as noted below.</p><table> <tr>  <td><b>Element</b></td>  <td><b>Energy Type</b></td>  <td><b>Elemental </b><b>Movement</b></td> </tr> <tr>  <td>Air</td>  <td>Electricity</td>  <td>Fly 60 feet (average)</td> </tr> <tr>  <td>Earth</td>  <td>Acid</td>  <td>Burrow 30 feet</td> </tr> <tr>  <td>Fire</td>  <td>Fire</td>  <td>+30 feet base speed</td> </tr> <tr>  <td>Water</td>  <td>Cold</td>  <td>Swim 60 feet</td> </tr></table>",
      "unidentified": ""
    },
    "tags": [
      "Rogue (Unchained)",
      "Unchained Rogue Talent"
    ],
    "actions": [],
    "uses": {
      "per": null,
      "value": 0,
      "maxFormula": "",
      "autoDeductChargesCost": "1"
    },
    "attackNotes": [],
    "effectNotes": [],
    "changes": [],
    "changeFlags": {
      "loseDexToAC": false,
      "noEncumbrance": false,
      "mediumArmorFullSpeed": false,
      "heavyArmorFullSpeed": false
    },
    "contextNotes": [],
    "links": {
      "children": [],
      "charges": []
    },
    "tag": "",
    "useCustomTag": false,
    "armorProf": {
      "value": [],
      "custom": ""
    },
    "weaponProf": {
      "value": [],
      "custom": ""
    },
    "languages": {
      "value": [],
      "custom": ""
    },
    "flags": {
      "boolean": {},
      "dictionary": {}
    },
    "scriptCalls": [],
    "subType": "classFeat",
    "associations": {
      "classes": [
        "Rogue (Unchained)"
      ]
    },
    "showInQuickbar": false,
    "abilityType": "none",
    "crOffset": "",
    "disabled": false,
    "classSkills": {}
  },
  "ownership": {
    "default": 0
  },
  "_stats": {
    "systemId": "pf1",
    "systemVersion": "9.1",
    "coreVersion": "10.291",
    "createdTime": 1665428269974,
    "modifiedTime": 1689797840318,
    "lastModifiedBy": "ppv91YxratjWnkJi"
  },
  "effects": [],
  "folder": null,
  "sort": 0,
  "flags": {},
  "_key": "!items!JtNLOuLIOlayjveZ"
}