{
  "_id": "A979R21V8J6BIkew",
  "name": "Blades, Light",
  "type": "feat",
  "img": "systems/pf1/icons/skills/yellow_37.jpg",
  "system": {
    "description": {
      "value": "<strong>Fighter Weapon Group</strong><br/><br/><p>bayonet, broken-bak seax, butterfly knife, butterfly sword, chakram, dagger, deer horn knife, dogslicer, drow razor, dueling dagger, gladius, hunga munga, kama, katar, kerambit, kukri, machete, madu (leather/steel), manople, pata, quadrens, rapier, sanpkhang, sawtooth sabre, scizore, short sword, sica, sickle, spiral rapier, starknife, sword cane, swordbreaker dagger, wakizashi, war razor</p>",
      "unidentified": ""
    },
    "tags": [
      "Fighter",
      "Fighter Weapon Group"
    ],
    "actions": [],
    "uses": {
      "per": null,
      "value": 0,
      "maxFormula": "",
      "autoDeductChargesCost": "1"
    },
    "attackNotes": [],
    "effectNotes": [],
    "changes": [],
    "changeFlags": {
      "loseDexToAC": false,
      "noEncumbrance": false,
      "mediumArmorFullSpeed": false,
      "heavyArmorFullSpeed": false
    },
    "contextNotes": [],
    "links": {
      "children": [],
      "charges": []
    },
    "tag": "",
    "useCustomTag": false,
    "armorProf": {
      "value": [],
      "custom": ""
    },
    "weaponProf": {
      "value": [],
      "custom": ""
    },
    "languages": {
      "value": [],
      "custom": ""
    },
    "flags": {
      "boolean": {},
      "dictionary": {}
    },
    "scriptCalls": [],
    "subType": "classFeat",
    "associations": {
      "classes": [
        "Fighter"
      ]
    },
    "showInQuickbar": false,
    "abilityType": "none",
    "crOffset": "",
    "disabled": false,
    "classSkills": {}
  },
  "ownership": {
    "default": 0
  },
  "_stats": {
    "systemId": "pf1",
    "systemVersion": "9.1",
    "coreVersion": "10.291",
    "createdTime": 1665428268614,
    "modifiedTime": 1689797832551,
    "lastModifiedBy": "ppv91YxratjWnkJi"
  },
  "effects": [],
  "folder": null,
  "sort": 0,
  "flags": {},
  "_key": "!items!A979R21V8J6BIkew"
}