{
  "_id": "yVWURYbLLMh84Rok",
  "name": "Bleeding Wound (Flying Blade)",
  "type": "feat",
  "img": "icons/equipment/head/hat-tricorn-brown.webp",
  "system": {
    "description": {
      "value": "<strong>Swashbuckler 11th Level Deed</strong><br/><br/><p>At 11th level, when the swashbuckler hits a living creature with a light or one-handed piercing melee weapon attack, as a free action she can spend 1 panache point to have that attack deal additional bleed damage. The amount of bleed damage dealt is equal to the swashbuckler's Dexterity modif ier (minimum 1). Alternatively, the swashbuckler can spend 2 panache points to deal 1 point of Strength, Dexterity, or Constitution bleed damage instead (swashbuckler's choice). Creatures that are immune to sneak attacks are also immune to these types of bleed damage.</p>",
      "unidentified": ""
    },
    "tags": [
      "Swashbuckler",
      "Swashbuckler 11th Level Deed"
    ],
    "actions": [],
    "uses": {
      "per": null,
      "value": 0,
      "maxFormula": "",
      "autoDeductChargesCost": "1"
    },
    "attackNotes": [],
    "effectNotes": [],
    "changes": [],
    "changeFlags": {
      "loseDexToAC": false,
      "noEncumbrance": false,
      "mediumArmorFullSpeed": false,
      "heavyArmorFullSpeed": false
    },
    "contextNotes": [],
    "links": {
      "children": [],
      "charges": []
    },
    "tag": "",
    "useCustomTag": false,
    "armorProf": {
      "value": [],
      "custom": ""
    },
    "weaponProf": {
      "value": [],
      "custom": ""
    },
    "languages": {
      "value": [],
      "custom": ""
    },
    "flags": {
      "boolean": {},
      "dictionary": {}
    },
    "scriptCalls": [],
    "subType": "classFeat",
    "associations": {
      "classes": [
        "Swashbuckler"
      ]
    },
    "showInQuickbar": false,
    "abilityType": "none",
    "crOffset": "",
    "disabled": false,
    "classSkills": {}
  },
  "ownership": {
    "default": 0
  },
  "_stats": {
    "systemId": "pf1",
    "systemVersion": "9.1",
    "coreVersion": "10.291",
    "createdTime": 1665428277921,
    "modifiedTime": 1689797868603,
    "lastModifiedBy": "ppv91YxratjWnkJi"
  },
  "effects": [],
  "folder": null,
  "sort": 0,
  "flags": {},
  "_key": "!items!yVWURYbLLMh84Rok"
}