{
  "_id": "Lc9fBzcNKXQzv1Se",
  "name": "Bleeding Wound",
  "type": "feat",
  "img": "icons/equipment/head/hat-tricorn-brown.webp",
  "system": {
    "description": {
      "value": "<strong>Swashbuckler 11th Level Deed</strong><br/><br/><p>At 11th level, a flying blade can deal bleed damage as part of an attack. This deed functions as the swashbuckler's bleeding wound deed, but the flying blade can also use this deed when making ranged attacks with either a dagger or a starknife as long as the target is within 60 feet of the flying blade. This deed alters bleeding wound.</p>",
      "unidentified": ""
    },
    "tags": [
      "Swashbuckler",
      "Swashbuckler 11th Level Deed"
    ],
    "actions": [],
    "uses": {
      "per": null,
      "value": 0,
      "maxFormula": "",
      "autoDeductChargesCost": "1"
    },
    "attackNotes": [],
    "effectNotes": [],
    "changes": [],
    "changeFlags": {
      "loseDexToAC": false,
      "noEncumbrance": false,
      "mediumArmorFullSpeed": false,
      "heavyArmorFullSpeed": false
    },
    "contextNotes": [],
    "links": {
      "children": [],
      "charges": []
    },
    "tag": "",
    "useCustomTag": false,
    "armorProf": {
      "value": [],
      "custom": ""
    },
    "weaponProf": {
      "value": [],
      "custom": ""
    },
    "languages": {
      "value": [],
      "custom": ""
    },
    "flags": {
      "boolean": {},
      "dictionary": {}
    },
    "scriptCalls": [],
    "subType": "classFeat",
    "associations": {
      "classes": [
        "Swashbuckler"
      ]
    },
    "showInQuickbar": false,
    "abilityType": "none",
    "crOffset": "",
    "disabled": false,
    "classSkills": {}
  },
  "ownership": {
    "default": 0
  },
  "_stats": {
    "systemId": "pf1",
    "systemVersion": "9.1",
    "coreVersion": "10.291",
    "createdTime": 1665428270451,
    "modifiedTime": 1689797842091,
    "lastModifiedBy": "ppv91YxratjWnkJi"
  },
  "effects": [],
  "folder": null,
  "sort": 0,
  "flags": {},
  "_key": "!items!Lc9fBzcNKXQzv1Se"
}