{
  "_id": "mxO88jHq7R8eLiEw",
  "name": "Blightburn Trap",
  "type": "feat",
  "img": "systems/pf1/icons/items/weapons/longbow.PNG",
  "system": {
    "description": {
      "value": "<strong>Ranger Trap</strong><br/><br/><p><b>Effect </b>This trap strikes the target with a small shard of blightburn, dealing 2d6 points of fire damage, 1d3 points of Constitution damage, and 1d3 points of Charisma damage. A successful Fortitude save negates the ability damage and halves the fire damage. The ranger must supply a sliver of blightburn, a dangerous task in itself, though storing the blightburn in a lead vial makes the task less risky.</p>",
      "unidentified": ""
    },
    "tags": [
      "Ranger",
      "Ranger Trap"
    ],
    "actions": [],
    "uses": {
      "per": null,
      "value": 0,
      "maxFormula": "",
      "autoDeductChargesCost": "1"
    },
    "attackNotes": [],
    "effectNotes": [],
    "changes": [],
    "changeFlags": {
      "loseDexToAC": false,
      "noEncumbrance": false,
      "mediumArmorFullSpeed": false,
      "heavyArmorFullSpeed": false
    },
    "contextNotes": [],
    "links": {
      "children": [],
      "charges": []
    },
    "tag": "",
    "useCustomTag": false,
    "armorProf": {
      "value": [],
      "custom": ""
    },
    "weaponProf": {
      "value": [],
      "custom": ""
    },
    "languages": {
      "value": [],
      "custom": ""
    },
    "flags": {
      "boolean": {},
      "dictionary": {}
    },
    "scriptCalls": [],
    "subType": "classFeat",
    "associations": {
      "classes": [
        "Ranger"
      ]
    },
    "showInQuickbar": false,
    "abilityType": "none",
    "crOffset": "",
    "disabled": false,
    "classSkills": {}
  },
  "ownership": {
    "default": 0
  },
  "_stats": {
    "systemId": "pf1",
    "systemVersion": "9.1",
    "coreVersion": "10.291",
    "createdTime": 1665428275378,
    "modifiedTime": 1689797861132,
    "lastModifiedBy": "ppv91YxratjWnkJi"
  },
  "effects": [],
  "folder": null,
  "sort": 0,
  "flags": {},
  "_key": "!items!mxO88jHq7R8eLiEw"
}