{
  "_id": "fsXY8peTSdUqXKTL",
  "name": "Blood Debt",
  "type": "feat",
  "img": "systems/pf1/icons/items/weapons/kunai.png",
  "system": {
    "description": {
      "value": "<strong>Ninja Trick - Sneak Attack Talent</strong><br/><br/><p>A ninja with this ability gains In Harm's WayAPG as a bonus feat, even if she doesn't meet the prerequisites. When the ninja intercepts an attack using this feat, she can spend 1 ki point to impose a blood debt on the aided ally. The ninja's ki pool is reduced by 1 until she ends this effect, which she may do as an immediate action. If the ninja ends the blood debt in response to a successful attack against her by a creature the indebted ally threatens, the ally (who must be willing) takes full damage from that attack and any associated effects instead of the ninja.</p>",
      "unidentified": ""
    },
    "tags": [
      "Ninja",
      "Ninja Trick - Sneak Attack Talent"
    ],
    "actions": [],
    "uses": {
      "per": null,
      "value": 0,
      "maxFormula": "",
      "autoDeductChargesCost": "1"
    },
    "attackNotes": [],
    "effectNotes": [],
    "changes": [],
    "changeFlags": {
      "loseDexToAC": false,
      "noEncumbrance": false,
      "mediumArmorFullSpeed": false,
      "heavyArmorFullSpeed": false
    },
    "contextNotes": [],
    "links": {
      "children": [],
      "charges": []
    },
    "tag": "",
    "useCustomTag": false,
    "armorProf": {
      "value": [],
      "custom": ""
    },
    "weaponProf": {
      "value": [],
      "custom": ""
    },
    "languages": {
      "value": [],
      "custom": ""
    },
    "flags": {
      "boolean": {},
      "dictionary": {}
    },
    "scriptCalls": [],
    "subType": "classFeat",
    "associations": {
      "classes": [
        "Ninja"
      ]
    },
    "showInQuickbar": false,
    "abilityType": "none",
    "crOffset": "",
    "disabled": false,
    "classSkills": {}
  },
  "ownership": {
    "default": 0
  },
  "_stats": {
    "systemId": "pf1",
    "systemVersion": "9.1",
    "coreVersion": "10.291",
    "createdTime": 1665428274082,
    "modifiedTime": 1689797856638,
    "lastModifiedBy": "ppv91YxratjWnkJi"
  },
  "effects": [],
  "folder": null,
  "sort": 0,
  "flags": {},
  "_key": "!items!fsXY8peTSdUqXKTL"
}