{
  "_id": "Dca2j3SRmf1dSLoL",
  "name": "Bloodline Development",
  "type": "feat",
  "img": "systems/pf1/icons/spells/runes-blue-2.jpg",
  "system": {
    "description": {
      "value": "<strong>Arcanist Exploit</strong><br/><br/><p>The arcanist selects one sorcerer bloodline upon taking this exploit. The arcanist gains that bloodline's 1st-level bloodline power as though she were a 1st-level sorcerer. The arcanist must select an ordinary bloodline with this ability, not one altered by an archetype. As a swift action, the arcanist can expend 1 point from her arcane reservoir to bolster her latent nature, allowing her to treat her arcanist level as her sorcerer level for the purpose of using this ability, which lasts for a number of rounds equal to her Charisma modifier (minimum 1).</p><p>She does not gain any other abilities when using this exploit in this way, such as bloodline arcana or those bloodline powers gained at 3rd level or higher. If this ability is used to gain an arcane bond and a bonded item is selected, the arcanist can only use that item to cast spells of a level equal to the level of spell that could be cast by her equivalent sorcerer level (limiting her to 1st level spells unless she spends a point from her arcane reservoir).</p><p>If the arcanist already has a bloodline (or gains one later), taking this exploit instead allows her arcanist levels to stack with the levels of the class that granted her access to the bloodline when determining the powers and abilities of her bloodline.</p>",
      "unidentified": ""
    },
    "tags": [
      "Arcanist",
      "Arcanist Exploit"
    ],
    "actions": [],
    "uses": {
      "per": null,
      "value": 0,
      "maxFormula": "",
      "autoDeductChargesCost": "1"
    },
    "attackNotes": [],
    "effectNotes": [],
    "changes": [],
    "changeFlags": {
      "loseDexToAC": false,
      "noEncumbrance": false,
      "mediumArmorFullSpeed": false,
      "heavyArmorFullSpeed": false
    },
    "contextNotes": [],
    "links": {
      "children": [],
      "charges": []
    },
    "tag": "",
    "useCustomTag": false,
    "armorProf": {
      "value": [],
      "custom": ""
    },
    "weaponProf": {
      "value": [],
      "custom": ""
    },
    "languages": {
      "value": [],
      "custom": ""
    },
    "flags": {
      "boolean": {},
      "dictionary": {}
    },
    "scriptCalls": [],
    "subType": "classFeat",
    "associations": {
      "classes": [
        "Arcanist"
      ]
    },
    "showInQuickbar": false,
    "abilityType": "none",
    "crOffset": "",
    "disabled": false,
    "classSkills": {}
  },
  "ownership": {
    "default": 0
  },
  "_stats": {
    "systemId": "pf1",
    "systemVersion": "9.1",
    "coreVersion": "10.291",
    "createdTime": 1665428269181,
    "modifiedTime": 1689797836073,
    "lastModifiedBy": "ppv91YxratjWnkJi"
  },
  "effects": [],
  "folder": null,
  "sort": 0,
  "flags": {},
  "_key": "!items!Dca2j3SRmf1dSLoL"
}