{
  "_id": "ChYQnVcdxSKUpJW8",
  "name": "Bones",
  "type": "feat",
  "img": "systems/pf1/icons/skills/red_09.jpg",
  "system": {
    "description": {
      "value": "<strong>Oracle Mystery</strong><br/><br/><p><b>Deities: </b>Norgorber, Pharasma, Urgathoa.</p><p><b>Class Skills: </b>An oracle with a bones mystery adds Bluff, Disguise, Intimidate, and Stealth to her list of class skills.</p><p><b>Bonus Spells: </b>cause fear (2nd), false life (4th), animate dead (6th), fear (8th), slay living (10th), circle of death (12th), control undead (14th), horrid wilting (16th), wail of the banshees (18th).</p><p><b>Revelations: </b>An oracle with the Bones mystery can choose from any of the following revelations.</p>",
      "unidentified": ""
    },
    "tags": [
      "Oracle",
      "Oracle Mystery"
    ],
    "actions": [],
    "uses": {
      "per": null,
      "value": 0,
      "maxFormula": "",
      "autoDeductChargesCost": "1"
    },
    "attackNotes": [],
    "effectNotes": [],
    "changes": [],
    "changeFlags": {
      "loseDexToAC": false,
      "noEncumbrance": false,
      "mediumArmorFullSpeed": false,
      "heavyArmorFullSpeed": false
    },
    "contextNotes": [],
    "links": {
      "children": [],
      "charges": []
    },
    "tag": "",
    "useCustomTag": false,
    "armorProf": {
      "value": [],
      "custom": ""
    },
    "weaponProf": {
      "value": [],
      "custom": ""
    },
    "languages": {
      "value": [],
      "custom": ""
    },
    "flags": {
      "boolean": {},
      "dictionary": {}
    },
    "scriptCalls": [],
    "subType": "classFeat",
    "associations": {
      "classes": [
        "Oracle"
      ]
    },
    "showInQuickbar": false,
    "abilityType": "none",
    "crOffset": "",
    "disabled": false,
    "classSkills": {}
  },
  "ownership": {
    "default": 0
  },
  "_stats": {
    "systemId": "pf1",
    "systemVersion": "9.1",
    "coreVersion": "10.291",
    "createdTime": 1665428268830,
    "modifiedTime": 1689797834969,
    "lastModifiedBy": "ppv91YxratjWnkJi"
  },
  "effects": [],
  "folder": null,
  "sort": 0,
  "flags": {},
  "_key": "!items!ChYQnVcdxSKUpJW8"
}