{
  "_id": "xuOOEXfNWmslxcbR",
  "name": "Boreal Bloodline",
  "type": "feat",
  "img": "systems/pf1/icons/spells/fireball-red-3.jpg",
  "system": {
    "description": {
      "value": "<strong>Sorcerer Bloodline</strong><br/><br/><p>Descended from inhabitants of the lands of ice and snow, you count among your ancestors giant-kin, troll-born, and frost-rimed spirits. Their savage and raw energies flow down through generations to infuse you to the marrow with the chill of the polar wind, crackling auroras, and the long winter's night.</p><p><b>Class Skill: </b>Survival.</p><p><b>Bonus Spells: </b>enlarge person (3rd), rage (5th), elemental aura (cold only) (7th), wall of ice (9th), cone of cold (11th), transformation (13th), giant form I (15th), polar ray (17th), meteor swarm (dealing cold damage) (19th).</p><p><b>Bonus Feats: </b>Arcane Strike, Diehard, Empower Spell, Endurance, Exotic Weapon Proficiency, Power Attack, Skill Focus (Intimidate), Toughness.</p><p><b>Bloodline Arcana: </b>Whenever you cast a spell with the cold descriptor, increase the spell's save DC by 1.</p><p><b>Bloodline Powers: </b>Your connection to primeval winters grants you a mastery of cold magic that few can match, and a savagery that fewer still can withstand.</p>",
      "unidentified": ""
    },
    "tags": [
      "Sorcerer",
      "Sorcerer Bloodline"
    ],
    "actions": [],
    "uses": {
      "per": null,
      "value": 0,
      "maxFormula": "",
      "autoDeductChargesCost": "1"
    },
    "attackNotes": [],
    "effectNotes": [],
    "changes": [],
    "changeFlags": {
      "loseDexToAC": false,
      "noEncumbrance": false,
      "mediumArmorFullSpeed": false,
      "heavyArmorFullSpeed": false
    },
    "contextNotes": [],
    "links": {
      "children": [],
      "charges": []
    },
    "tag": "",
    "useCustomTag": false,
    "armorProf": {
      "value": [],
      "custom": ""
    },
    "weaponProf": {
      "value": [],
      "custom": ""
    },
    "languages": {
      "value": [],
      "custom": ""
    },
    "flags": {
      "boolean": {},
      "dictionary": {}
    },
    "scriptCalls": [],
    "subType": "classFeat",
    "associations": {
      "classes": [
        "Sorcerer"
      ]
    },
    "showInQuickbar": false,
    "abilityType": "none",
    "crOffset": "",
    "disabled": false,
    "classSkills": {}
  },
  "ownership": {
    "default": 0
  },
  "_stats": {
    "systemId": "pf1",
    "systemVersion": "9.1",
    "coreVersion": "10.291",
    "createdTime": 1665428277871,
    "modifiedTime": 1689797868327,
    "lastModifiedBy": "ppv91YxratjWnkJi"
  },
  "effects": [],
  "folder": null,
  "sort": 0,
  "flags": {},
  "_key": "!items!xuOOEXfNWmslxcbR"
}