{
  "_id": "rJXdSTVF9tlhWgkB",
  "name": "Bull",
  "type": "feat",
  "img": "systems/pf1/icons/skills/blue_34.jpg",
  "system": {
    "description": {
      "value": "<strong>Shifter Aspect</strong><br/><br/><p>The bull is a fierce charger and is adept at trampling its foes, pounding them to a bloody pulp.</p><p><b>Minor Form: </b>You gain a +2 enhancement bonus to your Strength score. At 8th level, the bonus increases to +4, and at 15th level it increases to +6.</p><p><b>Major Form (beast shape II): </b>Your shape changes to that of a Large bull (see Cattle on page 179). While in this form, you gain a base speed of 40 feet, low-light vision, scent, and a gore attack (1d8 damage) with powerful charge (+1d8 on your gore attack). At 8th level, you gain the trample as per the universal monster rule (dealing gore damage plus 1-1/2 times your Strength modifier). At 15th level, your gore damage increases to 2d8 and you gain the Awesome Blow feat (Bestiary 314).</p><p><b>Alternate Natural Attacks: </b>Gore (P), hoof (B), slam (B)</p>",
      "unidentified": ""
    },
    "tags": [
      "Shifter",
      "Shifter Aspect"
    ],
    "actions": [],
    "uses": {
      "per": null,
      "value": 0,
      "maxFormula": "",
      "autoDeductChargesCost": "1"
    },
    "attackNotes": [],
    "effectNotes": [],
    "changes": [],
    "changeFlags": {
      "loseDexToAC": false,
      "noEncumbrance": false,
      "mediumArmorFullSpeed": false,
      "heavyArmorFullSpeed": false
    },
    "contextNotes": [],
    "links": {
      "children": [],
      "charges": []
    },
    "tag": "",
    "useCustomTag": false,
    "armorProf": {
      "value": [],
      "custom": ""
    },
    "weaponProf": {
      "value": [],
      "custom": ""
    },
    "languages": {
      "value": [],
      "custom": ""
    },
    "flags": {
      "boolean": {},
      "dictionary": {}
    },
    "scriptCalls": [],
    "subType": "classFeat",
    "associations": {
      "classes": [
        "Shifter"
      ]
    },
    "showInQuickbar": false,
    "abilityType": "none",
    "crOffset": "",
    "disabled": false,
    "classSkills": {}
  },
  "ownership": {
    "default": 0
  },
  "_stats": {
    "systemId": "pf1",
    "systemVersion": "9.1",
    "coreVersion": "10.291",
    "createdTime": 1665428276432,
    "modifiedTime": 1689797863974,
    "lastModifiedBy": "ppv91YxratjWnkJi"
  },
  "effects": [],
  "folder": null,
  "sort": 0,
  "flags": {},
  "_key": "!items!rJXdSTVF9tlhWgkB"
}