{
  "_id": "VT78jwkyB6qhiTaH",
  "name": "Burn Shroud",
  "type": "feat",
  "img": "systems/pf1/icons/items/inventory/book-red.jpg",
  "system": {
    "description": {
      "value": "<strong>Inquisitor Inquisition Power</strong><br/><br/><p>As a standard action, you can make an unarmed touch attack against a creature. The target takes 1d4 points of fire damage + 1/2 your inquisitor level (minimum 1). If the target is currently the subject of a polymorph effect that changes its appearance (such as by alter self, shapechange, or an innate shapechanging ability such as that possessed by doppelgangers), it instead takes 1d6 points of fire damage + 1/2 your inquisitor level (minimum 1). You can use this ability a number of times per day equal to 3 + your Wisdom modifier.</p>",
      "unidentified": ""
    },
    "tags": [
      "Inquisitor",
      "Inquisitor Inquisition Power"
    ],
    "actions": [],
    "uses": {
      "per": null,
      "value": 0,
      "maxFormula": "",
      "autoDeductChargesCost": "1"
    },
    "attackNotes": [],
    "effectNotes": [],
    "changes": [],
    "changeFlags": {
      "loseDexToAC": false,
      "noEncumbrance": false,
      "mediumArmorFullSpeed": false,
      "heavyArmorFullSpeed": false
    },
    "contextNotes": [],
    "links": {
      "children": [],
      "charges": []
    },
    "tag": "",
    "useCustomTag": false,
    "armorProf": {
      "value": [],
      "custom": ""
    },
    "weaponProf": {
      "value": [],
      "custom": ""
    },
    "languages": {
      "value": [],
      "custom": ""
    },
    "flags": {
      "boolean": {},
      "dictionary": {}
    },
    "scriptCalls": [],
    "subType": "classFeat",
    "associations": {
      "classes": [
        "Inquisitor"
      ]
    },
    "showInQuickbar": false,
    "abilityType": "none",
    "crOffset": "",
    "disabled": false,
    "classSkills": {}
  },
  "ownership": {
    "default": 0
  },
  "_stats": {
    "systemId": "pf1",
    "systemVersion": "9.1",
    "coreVersion": "10.291",
    "createdTime": 1665428272261,
    "modifiedTime": 1689797849424,
    "lastModifiedBy": "ppv91YxratjWnkJi"
  },
  "effects": [],
  "folder": null,
  "sort": 0,
  "flags": {},
  "_key": "!items!VT78jwkyB6qhiTaH"
}