{
  "_id": "jOAT5OUV9XV8N5dY",
  "name": "By My Honor",
  "type": "feat",
  "img": "systems/pf1/icons/items/inventory/horseshoe.jpg",
  "system": {
    "description": {
      "value": "<strong>Cavalier/Samurai Order Abilitiy</strong><br/><br/><p>At 2nd level, the cavalier must select one alignment. As long as he maintains the selected alignment, he receives a +2 morale bonus to one saving throw of his choice.</p>",
      "unidentified": ""
    },
    "tags": [
      "Cavalier, Samurai",
      "Cavalier/Samurai Order Abilitiy"
    ],
    "actions": [],
    "uses": {
      "per": null,
      "value": 0,
      "maxFormula": "",
      "autoDeductChargesCost": "1"
    },
    "attackNotes": [],
    "effectNotes": [],
    "changes": [],
    "changeFlags": {
      "loseDexToAC": false,
      "noEncumbrance": false,
      "mediumArmorFullSpeed": false,
      "heavyArmorFullSpeed": false
    },
    "contextNotes": [],
    "links": {
      "children": [],
      "charges": []
    },
    "tag": "",
    "useCustomTag": false,
    "armorProf": {
      "value": [],
      "custom": ""
    },
    "weaponProf": {
      "value": [],
      "custom": ""
    },
    "languages": {
      "value": [],
      "custom": ""
    },
    "flags": {
      "boolean": {},
      "dictionary": {}
    },
    "scriptCalls": [],
    "subType": "classFeat",
    "associations": {
      "classes": [
        "Cavalier",
        "Samurai"
      ]
    },
    "showInQuickbar": false,
    "abilityType": "none",
    "crOffset": "",
    "disabled": false,
    "classSkills": {}
  },
  "ownership": {
    "default": 0
  },
  "_stats": {
    "systemId": "pf1",
    "systemVersion": "9.1",
    "coreVersion": "10.291",
    "createdTime": 1665428274734,
    "modifiedTime": 1689797858996,
    "lastModifiedBy": "ppv91YxratjWnkJi"
  },
  "effects": [],
  "folder": null,
  "sort": 0,
  "flags": {},
  "_key": "!items!jOAT5OUV9XV8N5dY"
}