{
  "_id": "Qsbyx5EFD4hOTIUA",
  "name": "Castling",
  "type": "feat",
  "img": "systems/pf1/icons/items/inventory/pipe.jpg",
  "system": {
    "description": {
      "value": "<strong>Investigator Talents</strong><br/><br/><p>The investigator treats soft cover granted by creatures of her size or larger as though it were cover instead. Cover the investigator gains from this talent does not allow her to attempt Stealth checks.</p>",
      "unidentified": ""
    },
    "tags": [
      "Investigator",
      "Investigator Talents"
    ],
    "actions": [],
    "uses": {
      "per": null,
      "value": 0,
      "maxFormula": "",
      "autoDeductChargesCost": "1"
    },
    "attackNotes": [],
    "effectNotes": [],
    "changes": [],
    "changeFlags": {
      "loseDexToAC": false,
      "noEncumbrance": false,
      "mediumArmorFullSpeed": false,
      "heavyArmorFullSpeed": false
    },
    "contextNotes": [],
    "links": {
      "children": [],
      "charges": []
    },
    "tag": "",
    "useCustomTag": false,
    "armorProf": {
      "value": [],
      "custom": ""
    },
    "weaponProf": {
      "value": [],
      "custom": ""
    },
    "languages": {
      "value": [],
      "custom": ""
    },
    "flags": {
      "boolean": {},
      "dictionary": {}
    },
    "scriptCalls": [],
    "subType": "classFeat",
    "associations": {
      "classes": [
        "Investigator"
      ]
    },
    "showInQuickbar": false,
    "abilityType": "none",
    "crOffset": "",
    "disabled": false,
    "classSkills": {}
  },
  "ownership": {
    "default": 0
  },
  "_stats": {
    "systemId": "pf1",
    "systemVersion": "9.1",
    "coreVersion": "10.291",
    "createdTime": 1665428271518,
    "modifiedTime": 1689797846250,
    "lastModifiedBy": "ppv91YxratjWnkJi"
  },
  "effects": [],
  "folder": null,
  "sort": 0,
  "flags": {},
  "_key": "!items!Qsbyx5EFD4hOTIUA"
}