{
  "_id": "J0qDlB9vvzph4aMy",
  "name": "Chaos",
  "type": "feat",
  "img": "systems/pf1/icons/items/inventory/badge-cross.jpg",
  "system": {
    "description": {
      "value": "<strong>Cleric Domain</strong><br/><br/><p><b>Deities: </b>Abhoth, Abraxas, Acavna, Aldinach, Andirifkhu, Angazhan, Apep, Areshkagal, Ashava, Ashukharma, Azathoth, Baphomet, Bastet, Bergelmir, Besmara, Black Butterfly, Bokrug, Calistria, Camazotz, Cayden Cailean, Cernunnos, Chadali, Chaugnar Faugn, Chavazvug, Chucaro, Count Ranalc, Cthulhu, Cyth-V'sug, Daclau-Sar, Dagon, Dahak, Deskari, Desna, Dretha, Elion, Findeladlara, Flauros, Ghlaunder, Gogunta, Gorum, Groetus, Guyuku, Gyronna, Haagenti, Haggakal, Hanspur, Hastur, Hathor, Hei Feng, Hembad, Il'Surrish, Immonhiel, Isph-Aun-Vuln, Ithaqua, Izyagna, Jalaijatali, Jezelda, Jubilex, Kabriri, Keltheald, Ketephys, Kitumu, Kofusachi, Kostchtchie, Kro'akoth, Lady Nanbyo, Lalaci, Lamashtu, Lanishra, Marishi, Mazmezz, Menxyr, Mestama, Mhar, Milani, Mordiggian, Murnath, Narriseminer, Nephthys, Nhimbaloth, Nightripper, Nocticula, Nulgreth, Nurgal, Nyarlathotep (Black Pharaoh), Nyarlathotep (Faceless Sphinx), Nyarlathotep (Haunter of the Dark), Oaur-Ooung, Onmyuza, Orcus, Orgesh, Ovonovo, Pazuzu, Picoperi, Pulura, Ragadahn, Reymenda, Rhan-Tegoth, Rovagug, Rull, Sekhmet, Selket, Sezelrian, Shamira, Shax, Shiggarreb, Shivaska, Shub-Niggurath, Sifkesh, Sinashakti, Sithhud, Skode, Skrymir, Sobek, Socothbenoth, Ssila'meshnik, Sun Wukong, Thamir Gixx, The Lantern King, Thisamet, Thremyr, Thuskchoon, Tjasse, Tolc, Treerazor, Tsathoggua, Urazra, Urxehl, Ushitora, Valani, Varg, Verex, Xoveron, Yamasoth, Ydajisk, Ydersius, Yhidothrus, Yig, Yog-Sothoth, Zagresh, Zevgavizeb, Zogmugot, Zura</p><p><b>Granted Powers: </b>Your touch infuses life and weapons with chaos, and you revel in all things anarchic.</p><p><b>Domain Spells: </b>1st-protection from law, 2nd-align weapon (chaos only), 3rd-magic circle against law, 4th-chaos hammer, 5th-dispel law, 6th-animate objects, 7th-word of chaos, 8th-cloak of chaos, 9th-summon monster IX (chaos spell only).</p>",
      "unidentified": ""
    },
    "tags": [
      "Cleric",
      "Cleric Domain"
    ],
    "actions": [],
    "uses": {
      "per": null,
      "value": 0,
      "maxFormula": "",
      "autoDeductChargesCost": "1"
    },
    "attackNotes": [],
    "effectNotes": [],
    "changes": [],
    "changeFlags": {
      "loseDexToAC": false,
      "noEncumbrance": false,
      "mediumArmorFullSpeed": false,
      "heavyArmorFullSpeed": false
    },
    "contextNotes": [],
    "links": {
      "children": [],
      "charges": []
    },
    "tag": "",
    "useCustomTag": false,
    "armorProf": {
      "value": [],
      "custom": ""
    },
    "weaponProf": {
      "value": [],
      "custom": ""
    },
    "languages": {
      "value": [],
      "custom": ""
    },
    "flags": {
      "boolean": {},
      "dictionary": {}
    },
    "scriptCalls": [],
    "subType": "classFeat",
    "associations": {
      "classes": [
        "Cleric"
      ]
    },
    "showInQuickbar": false,
    "abilityType": "none",
    "crOffset": "",
    "disabled": false,
    "classSkills": {}
  },
  "ownership": {
    "default": 0
  },
  "_stats": {
    "systemId": "pf1",
    "systemVersion": "9.1",
    "coreVersion": "10.291",
    "createdTime": 1665428269886,
    "modifiedTime": 1689797839827,
    "lastModifiedBy": "ppv91YxratjWnkJi"
  },
  "effects": [],
  "folder": null,
  "sort": 0,
  "flags": {},
  "_key": "!items!J0qDlB9vvzph4aMy"
}