{
  "_id": "7QvnkOL7zopLdYJh",
  "name": "Cleanliness",
  "type": "feat",
  "img": "systems/pf1/icons/items/equipment/gloves.jpg",
  "system": {
    "description": {
      "value": "<strong>Monk Vow</strong><br/><br/><p>A monk undertaking this vow must wash daily. He must change into fresh clothes daily or shortly after his robes become dirty. His appearance must be kept immaculate, including either neatly braiding or shaving off his hair (and, for male monks, maintaining a clean-shaven face). His vow forbids him from willingly touching the filthy, diseased, dead, or undead (though he may attempt to cleanse or heal those suffering from disease), though using manufactured weapons to attack these creatures is allowed. A monk with this vow increases his ki pool by 1 ki point for every 5 monk levels (minimum +1).</p>",
      "unidentified": ""
    },
    "tags": [
      "Monk",
      "Monk Vow"
    ],
    "actions": [],
    "uses": {
      "per": null,
      "value": 0,
      "maxFormula": "",
      "autoDeductChargesCost": "1"
    },
    "attackNotes": [],
    "effectNotes": [],
    "changes": [],
    "changeFlags": {
      "loseDexToAC": false,
      "noEncumbrance": false,
      "mediumArmorFullSpeed": false,
      "heavyArmorFullSpeed": false
    },
    "contextNotes": [],
    "links": {
      "children": [],
      "charges": []
    },
    "tag": "",
    "useCustomTag": false,
    "armorProf": {
      "value": [],
      "custom": ""
    },
    "weaponProf": {
      "value": [],
      "custom": ""
    },
    "languages": {
      "value": [],
      "custom": ""
    },
    "flags": {
      "boolean": {},
      "dictionary": {}
    },
    "scriptCalls": [],
    "subType": "classFeat",
    "associations": {
      "classes": [
        "Monk"
      ]
    },
    "showInQuickbar": false,
    "abilityType": "none",
    "crOffset": "",
    "disabled": false,
    "classSkills": {}
  },
  "ownership": {
    "default": 0
  },
  "_stats": {
    "systemId": "pf1",
    "systemVersion": "9.1",
    "coreVersion": "10.291",
    "createdTime": 1665428268080,
    "modifiedTime": 1689797829628,
    "lastModifiedBy": "ppv91YxratjWnkJi"
  },
  "effects": [],
  "folder": null,
  "sort": 0,
  "flags": {},
  "_key": "!items!7QvnkOL7zopLdYJh"
}