{
  "_id": "iNiZVkVp35k2LH8x",
  "name": "Commanding Order",
  "type": "feat",
  "img": "systems/pf1/icons/items/inventory/book-red.jpg",
  "system": {
    "description": {
      "value": "<strong>Inquisitor Inquisition Power</strong><br/><br/><p>At 8th level, you can use greater command, except it only affects a single target. You can use this ability a number of times per day equal to 3 + your Wisdom bonus.Persistence Inquisition</p>",
      "unidentified": ""
    },
    "tags": [
      "Inquisitor",
      "Inquisitor Inquisition Power"
    ],
    "actions": [],
    "uses": {
      "per": null,
      "value": 0,
      "maxFormula": "",
      "autoDeductChargesCost": "1"
    },
    "attackNotes": [],
    "effectNotes": [],
    "changes": [],
    "changeFlags": {
      "loseDexToAC": false,
      "noEncumbrance": false,
      "mediumArmorFullSpeed": false,
      "heavyArmorFullSpeed": false
    },
    "contextNotes": [],
    "links": {
      "children": [],
      "charges": []
    },
    "tag": "",
    "useCustomTag": false,
    "armorProf": {
      "value": [],
      "custom": ""
    },
    "weaponProf": {
      "value": [],
      "custom": ""
    },
    "languages": {
      "value": [],
      "custom": ""
    },
    "flags": {
      "boolean": {},
      "dictionary": {}
    },
    "scriptCalls": [],
    "subType": "classFeat",
    "associations": {
      "classes": [
        "Inquisitor"
      ]
    },
    "showInQuickbar": false,
    "abilityType": "none",
    "crOffset": "",
    "disabled": false,
    "classSkills": {}
  },
  "ownership": {
    "default": 0
  },
  "_stats": {
    "systemId": "pf1",
    "systemVersion": "9.1",
    "coreVersion": "10.291",
    "createdTime": 1665428274644,
    "modifiedTime": 1689797858448,
    "lastModifiedBy": "ppv91YxratjWnkJi"
  },
  "effects": [],
  "folder": null,
  "sort": 0,
  "flags": {},
  "_key": "!items!iNiZVkVp35k2LH8x"
}