{
  "_id": "vUzgbz3wE2tARDqx",
  "name": "Crocodile",
  "type": "feat",
  "img": "systems/pf1/icons/skills/blue_34.jpg",
  "system": {
    "description": {
      "value": "<strong>Shifter Aspect</strong><br/><br/><p>The crocodile lurks in the water, unseen until it lunges forth with its powerful jaws.</p><p><b>Minor Form: </b>You gain a +2 competence bonus on Swim checks and grapple combat maneuver checks. This bonus increases to +4 at 8th level and +6 at 15th level.</p><p><b>Major Form (beast shape II): </b>Your shape changes to that of a crocodile. While in this form, you gain a swim speed of 30 feet, low-light vision, a bite attack (1d8) with the grab ability, and a tail slap attack (a secondary natural attack that deals 1d12 points of damage). At 8th level, once per minute as a free action, you can increase your land speed by 20 feet for 1 round. At 15th level, you gain Improved Natural Attack with your bite attack, and when you successfully grapple a foe, you can knock your grappled foe prone.</p><p><b>Alternate Natural Attacks: </b>Bite (B, P, S), tail slap (B)</p>",
      "unidentified": ""
    },
    "tags": [
      "Shifter",
      "Shifter Aspect"
    ],
    "actions": [],
    "uses": {
      "per": null,
      "value": 0,
      "maxFormula": "",
      "autoDeductChargesCost": "1"
    },
    "attackNotes": [],
    "effectNotes": [],
    "changes": [],
    "changeFlags": {
      "loseDexToAC": false,
      "noEncumbrance": false,
      "mediumArmorFullSpeed": false,
      "heavyArmorFullSpeed": false
    },
    "contextNotes": [],
    "links": {
      "children": [],
      "charges": []
    },
    "tag": "",
    "useCustomTag": false,
    "armorProf": {
      "value": [],
      "custom": ""
    },
    "weaponProf": {
      "value": [],
      "custom": ""
    },
    "languages": {
      "value": [],
      "custom": ""
    },
    "flags": {
      "boolean": {},
      "dictionary": {}
    },
    "scriptCalls": [],
    "subType": "classFeat",
    "associations": {
      "classes": [
        "Shifter"
      ]
    },
    "showInQuickbar": false,
    "abilityType": "none",
    "crOffset": "",
    "disabled": false,
    "classSkills": {}
  },
  "ownership": {
    "default": 0
  },
  "_stats": {
    "systemId": "pf1",
    "systemVersion": "9.1",
    "coreVersion": "10.291",
    "createdTime": 1665428277137,
    "modifiedTime": 1689797866564,
    "lastModifiedBy": "ppv91YxratjWnkJi"
  },
  "effects": [],
  "folder": null,
  "sort": 0,
  "flags": {},
  "_key": "!items!vUzgbz3wE2tARDqx"
}