{
  "_id": "nUeVqI94YBMuJUC8",
  "name": "Curse of Suffering",
  "type": "feat",
  "img": "systems/pf1/icons/skills/green_13.jpg",
  "system": {
    "description": {
      "value": "<strong>Shaman Spirit Hex</strong><br/><br/><p>The shaman causes a creature within 30 feet to take more damage from bleed effects and causes its wounds to heal at a slower rate. When the cursed creature takes bleed damage, it takes 1 additional point of bleed damage (even if the bleed is ability damage). Furthermore, when the target is subject to an effect that would restore its hit points, that effect restores only half the normal amount of hit points. This curse lasts for a number of rounds equal to the shaman's level. A creature affected by this hex cannot be affected by it again for 24 hours.</p>",
      "unidentified": ""
    },
    "tags": [
      "Shaman",
      "Shaman Spirit Hex"
    ],
    "actions": [],
    "uses": {
      "per": null,
      "value": 0,
      "maxFormula": "",
      "autoDeductChargesCost": "1"
    },
    "attackNotes": [],
    "effectNotes": [],
    "changes": [],
    "changeFlags": {
      "loseDexToAC": false,
      "noEncumbrance": false,
      "mediumArmorFullSpeed": false,
      "heavyArmorFullSpeed": false
    },
    "contextNotes": [],
    "links": {
      "children": [],
      "charges": []
    },
    "tag": "",
    "useCustomTag": false,
    "armorProf": {
      "value": [],
      "custom": ""
    },
    "weaponProf": {
      "value": [],
      "custom": ""
    },
    "languages": {
      "value": [],
      "custom": ""
    },
    "flags": {
      "boolean": {},
      "dictionary": {}
    },
    "scriptCalls": [],
    "subType": "classFeat",
    "associations": {
      "classes": [
        "Shaman"
      ]
    },
    "showInQuickbar": false,
    "abilityType": "none",
    "crOffset": "",
    "disabled": false,
    "classSkills": {}
  },
  "ownership": {
    "default": 0
  },
  "_stats": {
    "systemId": "pf1",
    "systemVersion": "9.1",
    "coreVersion": "10.291",
    "createdTime": 1665428275798,
    "modifiedTime": 1689797861923,
    "lastModifiedBy": "ppv91YxratjWnkJi"
  },
  "effects": [],
  "folder": null,
  "sort": 0,
  "flags": {},
  "_key": "!items!nUeVqI94YBMuJUC8"
}