{
  "_id": "HoJySJHhi9bnzTXs",
  "name": "Curse Mastery",
  "type": "feat",
  "img": "systems/pf1/icons/skills/beast_04.jpg",
  "system": {
    "description": {
      "value": "<strong>Psychic Discipline Power</strong><br/><br/><p>At 13th level, you have made the accursed magic of the hags your own. You become immune to spells of the curse subschool and curse effects. Furthermore, the DCs of your spells with the curse descriptor increase by 1, and you can apply the overpowering mind and synaptic shock phrenic amplifications to spells with the curse descriptor so long as you have learned those amplifications.</p>",
      "unidentified": ""
    },
    "tags": [
      "Psychic",
      "Psychic Discipline Power"
    ],
    "actions": [],
    "uses": {
      "per": null,
      "value": 0,
      "maxFormula": "",
      "autoDeductChargesCost": "1"
    },
    "attackNotes": [],
    "effectNotes": [],
    "changes": [],
    "changeFlags": {
      "loseDexToAC": false,
      "noEncumbrance": false,
      "mediumArmorFullSpeed": false,
      "heavyArmorFullSpeed": false
    },
    "contextNotes": [],
    "links": {
      "children": [],
      "charges": []
    },
    "tag": "",
    "useCustomTag": false,
    "armorProf": {
      "value": [],
      "custom": ""
    },
    "weaponProf": {
      "value": [],
      "custom": ""
    },
    "languages": {
      "value": [],
      "custom": ""
    },
    "flags": {
      "boolean": {},
      "dictionary": {}
    },
    "scriptCalls": [],
    "subType": "classFeat",
    "associations": {
      "classes": [
        "Psychic"
      ]
    },
    "showInQuickbar": false,
    "abilityType": "none",
    "crOffset": "",
    "disabled": false,
    "classSkills": {}
  },
  "ownership": {
    "default": 0
  },
  "_stats": {
    "systemId": "pf1",
    "systemVersion": "9.1",
    "coreVersion": "10.291",
    "createdTime": 1665428269780,
    "modifiedTime": 1689797838998,
    "lastModifiedBy": "ppv91YxratjWnkJi"
  },
  "effects": [],
  "folder": null,
  "sort": 0,
  "flags": {},
  "_key": "!items!HoJySJHhi9bnzTXs"
}