{
  "_id": "NQUSOqpAdYnmRU0F",
  "name": "Dance of Whirling Water",
  "type": "feat",
  "img": "systems/pf1/icons/skills/red_09.jpg",
  "system": {
    "description": {
      "value": "<strong>Oracle Elemental Mystery Power</strong><br/><br/><p>You dance through the battlefield with all the grace and power of the waves, sweeping up enemies and tossing them away with the powers of air and water entwined. Whenever you succeed at an Acrobatics check to move through an enemy's square, you gain a competence bonus equal to half your oracle level (minimum +1) on trip combat maneuvers against that creature until the start of your next turn. At 11th level, you gain Whirlwind Attack as a bonus feat, and you can make bull rush combat maneuvers in place of any of the attacks granted by Whirlwind Attack; you cannot move with enemies bull rushed this way.</p>",
      "unidentified": ""
    },
    "tags": [
      "Oracle",
      "Oracle Elemental Mystery Power"
    ],
    "actions": [],
    "uses": {
      "per": null,
      "value": 0,
      "maxFormula": "",
      "autoDeductChargesCost": "1"
    },
    "attackNotes": [],
    "effectNotes": [],
    "changes": [],
    "changeFlags": {
      "loseDexToAC": false,
      "noEncumbrance": false,
      "mediumArmorFullSpeed": false,
      "heavyArmorFullSpeed": false
    },
    "contextNotes": [],
    "links": {
      "children": [],
      "charges": []
    },
    "tag": "",
    "useCustomTag": false,
    "armorProf": {
      "value": [],
      "custom": ""
    },
    "weaponProf": {
      "value": [],
      "custom": ""
    },
    "languages": {
      "value": [],
      "custom": ""
    },
    "flags": {
      "boolean": {},
      "dictionary": {}
    },
    "scriptCalls": [],
    "subType": "classFeat",
    "associations": {
      "classes": [
        "Oracle"
      ]
    },
    "showInQuickbar": false,
    "abilityType": "none",
    "crOffset": "",
    "disabled": false,
    "classSkills": {}
  },
  "ownership": {
    "default": 0
  },
  "_stats": {
    "systemId": "pf1",
    "systemVersion": "9.1",
    "coreVersion": "10.291",
    "createdTime": 1665428270905,
    "modifiedTime": 1689797843517,
    "lastModifiedBy": "ppv91YxratjWnkJi"
  },
  "effects": [],
  "folder": null,
  "sort": 0,
  "flags": {},
  "_key": "!items!NQUSOqpAdYnmRU0F"
}