{
  "_id": "r3w7Dq8kRY9mPH0C",
  "name": "Dark Defense",
  "type": "feat",
  "img": "systems/pf1/icons/skills/beast_04.jpg",
  "system": {
    "description": {
      "value": "<strong>Psychic Discipline Power</strong><br/><br/><p>At 5th level, light and darkness become your allies, moving around you to protect you from your enemies. You gain a +2 deflection bonus to Armor Class against any attack while you benefit from concealment against that attack. If you have full concealment from that attack, this deflection bonus increases to +4.</p>",
      "unidentified": ""
    },
    "tags": [
      "Psychic",
      "Psychic Discipline Power"
    ],
    "actions": [],
    "uses": {
      "per": null,
      "value": 0,
      "maxFormula": "",
      "autoDeductChargesCost": "1"
    },
    "attackNotes": [],
    "effectNotes": [],
    "changes": [],
    "changeFlags": {
      "loseDexToAC": false,
      "noEncumbrance": false,
      "mediumArmorFullSpeed": false,
      "heavyArmorFullSpeed": false
    },
    "contextNotes": [],
    "links": {
      "children": [],
      "charges": []
    },
    "tag": "",
    "useCustomTag": false,
    "armorProf": {
      "value": [],
      "custom": ""
    },
    "weaponProf": {
      "value": [],
      "custom": ""
    },
    "languages": {
      "value": [],
      "custom": ""
    },
    "flags": {
      "boolean": {},
      "dictionary": {}
    },
    "scriptCalls": [],
    "subType": "classFeat",
    "associations": {
      "classes": [
        "Psychic"
      ]
    },
    "showInQuickbar": false,
    "abilityType": "none",
    "crOffset": "",
    "disabled": false,
    "classSkills": {}
  },
  "ownership": {
    "default": 0
  },
  "_stats": {
    "systemId": "pf1",
    "systemVersion": "9.1",
    "coreVersion": "10.291",
    "createdTime": 1665428276416,
    "modifiedTime": 1689797863880,
    "lastModifiedBy": "ppv91YxratjWnkJi"
  },
  "effects": [],
  "folder": null,
  "sort": 0,
  "flags": {},
  "_key": "!items!r3w7Dq8kRY9mPH0C"
}