{
  "_id": "GUOMVmVrmVPw0RA2",
  "name": "Day's Resurgence",
  "type": "feat",
  "img": "systems/pf1/icons/items/inventory/badge-cross.jpg",
  "system": {
    "description": {
      "value": "<strong>Cleric Domain Power</strong><br/><br/><p>At 8th level, you can restore a single creature as if it had just completed 8 hours of rest. It takes 10 minutes to use this power. If the use of this power is disrupted, it must be restarted, but it is not lost. At the end of the 10 minutes, a single willing creature that you have touched regains hit points as if it had rested for the night and may make new saving throws against effects that require a save once per day. The target does not suffer any negative effects if such saving throws are failed, but success counts toward removing the affliction (if possible). This ability does not allow a target to prepare spells an additional time per day. You can use this ability once per day at 8th level, plus one additional time per day for every 2 levels beyond 8th.</p>",
      "unidentified": ""
    },
    "tags": [
      "Cleric",
      "Cleric Domain Power"
    ],
    "actions": [],
    "uses": {
      "per": null,
      "value": 0,
      "maxFormula": "",
      "autoDeductChargesCost": "1"
    },
    "attackNotes": [],
    "effectNotes": [],
    "changes": [],
    "changeFlags": {
      "loseDexToAC": false,
      "noEncumbrance": false,
      "mediumArmorFullSpeed": false,
      "heavyArmorFullSpeed": false
    },
    "contextNotes": [],
    "links": {
      "children": [],
      "charges": []
    },
    "tag": "",
    "useCustomTag": false,
    "armorProf": {
      "value": [],
      "custom": ""
    },
    "weaponProf": {
      "value": [],
      "custom": ""
    },
    "languages": {
      "value": [],
      "custom": ""
    },
    "flags": {
      "boolean": {},
      "dictionary": {}
    },
    "scriptCalls": [],
    "subType": "classFeat",
    "associations": {
      "classes": [
        "Cleric"
      ]
    },
    "showInQuickbar": false,
    "abilityType": "none",
    "crOffset": "",
    "disabled": false,
    "classSkills": {}
  },
  "ownership": {
    "default": 0
  },
  "_stats": {
    "systemId": "pf1",
    "systemVersion": "9.1",
    "coreVersion": "10.291",
    "createdTime": 1665428269390,
    "modifiedTime": 1689797837593,
    "lastModifiedBy": "ppv91YxratjWnkJi"
  },
  "effects": [],
  "folder": null,
  "sort": 0,
  "flags": {},
  "_key": "!items!GUOMVmVrmVPw0RA2"
}