{
  "_id": "HJU5brUXcSMnB1kI",
  "name": "Death",
  "type": "feat",
  "img": "systems/pf1/icons/skills/yellow_21.jpg",
  "system": {
    "description": {
      "value": "<strong>Warpriest Blessing</strong><br/><br/><p><b>Deities: </b>Norgorber, Pharasma, Urgathoa, Zon-Kuthon.</p><p><b>From the Grave (minor): </b>At 1st level, you can take on a corpse-like visage for 1 minute, making you more intimidating and giving you undead-like protection from harm. You gain a +4 bonus on Disguise checks to resemble an undead creature and on Intimidate checks, as well as a +2 profane bonus on saving throws against disease, mindaffecting effects, paralysis, poison, and stun.</p><p><b>Death's Touch (major): </b>At 10th level, you can make a melee touch attack against an opponent to deliver grim suffering. If you succeed, you inflict 1 temporary negative level on the target for 1 minute. Alternatively, you can activate this ability as a swift action upon hitting an opponent with a melee attack. These temporary negative levels stack. You gain no benefit from imposing these negative levels (such as the temporary hit points undead gain from enervation).</p>",
      "unidentified": ""
    },
    "tags": [
      "Warpriest",
      "Warpriest Blessing"
    ],
    "actions": [],
    "uses": {
      "per": null,
      "value": 0,
      "maxFormula": "",
      "autoDeductChargesCost": "1"
    },
    "attackNotes": [],
    "effectNotes": [],
    "changes": [],
    "changeFlags": {
      "loseDexToAC": false,
      "noEncumbrance": false,
      "mediumArmorFullSpeed": false,
      "heavyArmorFullSpeed": false
    },
    "contextNotes": [],
    "links": {
      "children": [],
      "charges": []
    },
    "tag": "",
    "useCustomTag": false,
    "armorProf": {
      "value": [],
      "custom": ""
    },
    "weaponProf": {
      "value": [],
      "custom": ""
    },
    "languages": {
      "value": [],
      "custom": ""
    },
    "flags": {
      "boolean": {},
      "dictionary": {}
    },
    "scriptCalls": [],
    "subType": "classFeat",
    "associations": {
      "classes": [
        "Warpriest"
      ]
    },
    "showInQuickbar": false,
    "abilityType": "none",
    "crOffset": "",
    "disabled": false,
    "classSkills": {}
  },
  "ownership": {
    "default": 0
  },
  "_stats": {
    "systemId": "pf1",
    "systemVersion": "9.1",
    "coreVersion": "10.291",
    "createdTime": 1665428269742,
    "modifiedTime": 1689797838685,
    "lastModifiedBy": "ppv91YxratjWnkJi"
  },
  "effects": [],
  "folder": null,
  "sort": 0,
  "flags": {},
  "_key": "!items!HJU5brUXcSMnB1kI"
}