{
  "_id": "w2BgmmxnjDM7gHJG",
  "name": "Deceitful Trick",
  "type": "feat",
  "img": "systems/pf1/icons/skills/violet_07.jpg",
  "system": {
    "description": {
      "value": "<strong>Vigilante Talent</strong><br/><br/><p>The vigilante can perform a dirty trickAPG combat maneuver in place of his first attack during a full attack. He can take a -4 penalty on his check in order to inf lict two different conditions on his foe if he succeeds at his check. If the vigilante is successful, the target can remove both conditions as a standard action. A vigilante must have Greater Dirty TrickAPG and Improved Dirty TrickAPG in order to select this vigilante talent.</p>",
      "unidentified": ""
    },
    "tags": [
      "Vigilante",
      "Vigilante Talent"
    ],
    "actions": [],
    "uses": {
      "per": null,
      "value": 0,
      "maxFormula": "",
      "autoDeductChargesCost": "1"
    },
    "attackNotes": [],
    "effectNotes": [],
    "changes": [],
    "changeFlags": {
      "loseDexToAC": false,
      "noEncumbrance": false,
      "mediumArmorFullSpeed": false,
      "heavyArmorFullSpeed": false
    },
    "contextNotes": [],
    "links": {
      "children": [],
      "charges": []
    },
    "tag": "",
    "useCustomTag": false,
    "armorProf": {
      "value": [],
      "custom": ""
    },
    "weaponProf": {
      "value": [],
      "custom": ""
    },
    "languages": {
      "value": [],
      "custom": ""
    },
    "flags": {
      "boolean": {},
      "dictionary": {}
    },
    "scriptCalls": [],
    "subType": "classFeat",
    "associations": {
      "classes": [
        "Vigilante"
      ]
    },
    "showInQuickbar": false,
    "abilityType": "none",
    "crOffset": "",
    "disabled": false,
    "classSkills": {}
  },
  "ownership": {
    "default": 0
  },
  "_stats": {
    "systemId": "pf1",
    "systemVersion": "9.1",
    "coreVersion": "10.291",
    "createdTime": 1665428277185,
    "modifiedTime": 1689797866888,
    "lastModifiedBy": "ppv91YxratjWnkJi"
  },
  "effects": [],
  "folder": null,
  "sort": 0,
  "flags": {},
  "_key": "!items!w2BgmmxnjDM7gHJG"
}