{
  "_id": "BkRUfhJ2o7N1OoXt",
  "name": "Deep One",
  "type": "feat",
  "img": "systems/pf1/icons/skills/red_09.jpg",
  "system": {
    "description": {
      "value": "<strong>Oracle Curse</strong><br/><br/><p>The lure of the ocean tugs at your soul. You reduce your base land speed by 5 feet. You gain a swim speed equal to your land speed, and if you already have a swim speed, you increase it by 10 feet. At 5th level, your natural armor bonus increases by 1 as your skin thickens. At 10th level, you gain a +1 bonus to your caster level when casting spells underwater and when casting spells with the water descriptor. At 15th level, you gain the benefits of freedom of movement while underwater.</p>",
      "unidentified": ""
    },
    "tags": [
      "Oracle",
      "Oracle Curse"
    ],
    "actions": [],
    "uses": {
      "per": null,
      "value": 0,
      "maxFormula": "",
      "autoDeductChargesCost": "1"
    },
    "attackNotes": [],
    "effectNotes": [],
    "changes": [],
    "changeFlags": {
      "loseDexToAC": false,
      "noEncumbrance": false,
      "mediumArmorFullSpeed": false,
      "heavyArmorFullSpeed": false
    },
    "contextNotes": [],
    "links": {
      "children": [],
      "charges": []
    },
    "tag": "",
    "useCustomTag": false,
    "armorProf": {
      "value": [],
      "custom": ""
    },
    "weaponProf": {
      "value": [],
      "custom": ""
    },
    "languages": {
      "value": [],
      "custom": ""
    },
    "flags": {
      "boolean": {},
      "dictionary": {}
    },
    "scriptCalls": [],
    "subType": "classFeat",
    "associations": {
      "classes": [
        "Oracle"
      ]
    },
    "showInQuickbar": false,
    "abilityType": "none",
    "crOffset": "",
    "disabled": false,
    "classSkills": {}
  },
  "ownership": {
    "default": 0
  },
  "_stats": {
    "systemId": "pf1",
    "systemVersion": "9.1",
    "coreVersion": "10.291",
    "createdTime": 1665428268745,
    "modifiedTime": 1689797834168,
    "lastModifiedBy": "ppv91YxratjWnkJi"
  },
  "effects": [],
  "folder": null,
  "sort": 0,
  "flags": {},
  "_key": "!items!BkRUfhJ2o7N1OoXt"
}