{
  "_id": "uJ2szZmhOvXpjoYj",
  "name": "Defense Subdomain",
  "type": "feat",
  "img": "systems/pf1/icons/items/inventory/badge-cross.jpg",
  "system": {
    "description": {
      "value": "<strong>Cleric Subdomain</strong><br/><br/><p><b>Associated Domain(s): </b>Protection</p><p><b>Associated Deities: </b>Abadar, Acavna, Alseta, Amaznen, Andoletta, Anubis, Arazni, Aroggus, Arqueros, Ashukharma, Bastet, Bes, Bohga, Chadali, Dalenydra, Dretha, Grundinnar, Haborym, Jaidz, Korada, Lorris, Milani, Nephthys, Nethys, Olheon, Ondisso, Rowdrosh, Selket, Shelyn, Shelyn (pre-Earthfall), Soralyon, Torag, Trudd, Wadjet, Winlas, Wylgart, Yamatsumi, Yig</p><p><b>Replacement Power: </b>The following granted power replaces the resistant touch power of the Protection domain.</p><p><b>Replacement Domain Spells: </b>1st-shield, 2nd-barkskin, 7th-deflection.</p>",
      "unidentified": ""
    },
    "tags": [
      "Cleric",
      "Cleric Subdomain"
    ],
    "actions": [],
    "uses": {
      "per": null,
      "value": 0,
      "maxFormula": "",
      "autoDeductChargesCost": "1"
    },
    "attackNotes": [],
    "effectNotes": [],
    "changes": [],
    "changeFlags": {
      "loseDexToAC": false,
      "noEncumbrance": false,
      "mediumArmorFullSpeed": false,
      "heavyArmorFullSpeed": false
    },
    "contextNotes": [],
    "links": {
      "children": [],
      "charges": []
    },
    "tag": "",
    "useCustomTag": false,
    "armorProf": {
      "value": [],
      "custom": ""
    },
    "weaponProf": {
      "value": [],
      "custom": ""
    },
    "languages": {
      "value": [],
      "custom": ""
    },
    "flags": {
      "boolean": {},
      "dictionary": {}
    },
    "scriptCalls": [],
    "subType": "classFeat",
    "associations": {
      "classes": [
        "Cleric"
      ]
    },
    "showInQuickbar": false,
    "abilityType": "none",
    "crOffset": "",
    "disabled": false,
    "classSkills": {}
  },
  "ownership": {
    "default": 0
  },
  "_stats": {
    "systemId": "pf1",
    "systemVersion": "9.1",
    "coreVersion": "10.291",
    "createdTime": 1665428277057,
    "modifiedTime": 1689797866095,
    "lastModifiedBy": "ppv91YxratjWnkJi"
  },
  "effects": [],
  "folder": null,
  "sort": 0,
  "flags": {},
  "_key": "!items!uJ2szZmhOvXpjoYj"
}