{
  "_id": "LsPIUd7QiUXr6URc",
  "name": "Demonic",
  "type": "feat",
  "img": "systems/pf1/icons/skills/red_09.jpg",
  "system": {
    "description": {
      "value": "<strong>Oracle Curse</strong><br/><br/><p>Your heart is cursed with the pull of the Abyss. You cannot cast spells with the good or lawful descriptors, nor can you summon good or lawful creatures. Good and lawful creatures instinctively distrust you, and you take a -4 penalty on all Diplomacy checks against such creatures. You gain a +2 bonus on all Bluff and Intimidate checks. Diplomacy is not a class skill for you, but Bluff or Intimidate (choose one) is. At 5th level, you gain a +4 bonus to all saving throws against fear effects. At 10th level, you gain immunity to poison. At 15th level, any weapon you wield is treated as chaotic and evil for the purposes of overcoming damage reduction.</p>",
      "unidentified": ""
    },
    "tags": [
      "Oracle",
      "Oracle Curse"
    ],
    "actions": [],
    "uses": {
      "per": null,
      "value": 0,
      "maxFormula": "",
      "autoDeductChargesCost": "1"
    },
    "attackNotes": [],
    "effectNotes": [],
    "changes": [],
    "changeFlags": {
      "loseDexToAC": false,
      "noEncumbrance": false,
      "mediumArmorFullSpeed": false,
      "heavyArmorFullSpeed": false
    },
    "contextNotes": [],
    "links": {
      "children": [],
      "charges": []
    },
    "tag": "",
    "useCustomTag": false,
    "armorProf": {
      "value": [],
      "custom": ""
    },
    "weaponProf": {
      "value": [],
      "custom": ""
    },
    "languages": {
      "value": [],
      "custom": ""
    },
    "flags": {
      "boolean": {},
      "dictionary": {}
    },
    "scriptCalls": [],
    "subType": "classFeat",
    "associations": {
      "classes": [
        "Oracle"
      ]
    },
    "showInQuickbar": false,
    "abilityType": "none",
    "crOffset": "",
    "disabled": false,
    "classSkills": {}
  },
  "ownership": {
    "default": 0
  },
  "_stats": {
    "systemId": "pf1",
    "systemVersion": "9.1",
    "coreVersion": "10.291",
    "createdTime": 1665428270473,
    "modifiedTime": 1689797842215,
    "lastModifiedBy": "ppv91YxratjWnkJi"
  },
  "effects": [],
  "folder": null,
  "sort": 0,
  "flags": {},
  "_key": "!items!LsPIUd7QiUXr6URc"
}