{
  "_id": "MleippiGTfotxFnN",
  "name": "Demon Subdomain",
  "type": "feat",
  "img": "systems/pf1/icons/items/inventory/badge-cross.jpg",
  "system": {
    "description": {
      "value": "<strong>Cleric Subdomain</strong><br/><br/><p><b>Associated Domain(s): </b>Chaos, Evil</p><p><b>Associated Deities: </b>Abraxas, Aldinach, Andirifkhu, Angazhan, Apep, Areshkagal, Baphomet, Camazotz, Cyth-V'sug, Daclau-Sar, Dagon, Dahak, Deskari, Dretha, Flauros, Ghlaunder, Gogunta, Gyronna, Haagenti, Haggakal, Izyagna, Jezelda, Jubilex, Kabriri, Kitumu, Kostchtchie, Kro'akoth, Lady Nanbyo, Lamashtu, Lanishra, Mazmezz, Menxyr, Mestama, Murnath, Nightripper, Nocticula, Nulgreth, Nurgal, Orcus, Ovonovo, Pazuzu, Rovagug, Rull, Sezelrian, Shamira, Shax, Shivaska, Sifkesh, Sithhud, Socothbenoth, Thamir Gixx, Thremyr, Treerazor, Urazra, Urxehl, Varg, Xoveron, Ydersius, Yhidothrus, Zagresh, Zevgavizeb, Zogmugot, Zura</p><p><b>Replacement Power: </b>The following granted power replaces the touch of chaos power of the Chaos domain or the touch of evil power of the Evil domain. Demons are a race of chaotic evil outsiders.</p><p><b>Replacement Domain Spells: </b>1st-doom, 3rd-rage, 6th-planar binding (demons only).</p>",
      "unidentified": ""
    },
    "tags": [
      "Cleric",
      "Cleric Subdomain"
    ],
    "actions": [],
    "uses": {
      "per": null,
      "value": 0,
      "maxFormula": "",
      "autoDeductChargesCost": "1"
    },
    "attackNotes": [],
    "effectNotes": [],
    "changes": [],
    "changeFlags": {
      "loseDexToAC": false,
      "noEncumbrance": false,
      "mediumArmorFullSpeed": false,
      "heavyArmorFullSpeed": false
    },
    "contextNotes": [],
    "links": {
      "children": [],
      "charges": []
    },
    "tag": "",
    "useCustomTag": false,
    "armorProf": {
      "value": [],
      "custom": ""
    },
    "weaponProf": {
      "value": [],
      "custom": ""
    },
    "languages": {
      "value": [],
      "custom": ""
    },
    "flags": {
      "boolean": {},
      "dictionary": {}
    },
    "scriptCalls": [],
    "subType": "classFeat",
    "associations": {
      "classes": [
        "Cleric"
      ]
    },
    "showInQuickbar": false,
    "abilityType": "none",
    "crOffset": "",
    "disabled": false,
    "classSkills": {}
  },
  "ownership": {
    "default": 0
  },
  "_stats": {
    "systemId": "pf1",
    "systemVersion": "9.1",
    "coreVersion": "10.291",
    "createdTime": 1665428270530,
    "modifiedTime": 1689797842609,
    "lastModifiedBy": "ppv91YxratjWnkJi"
  },
  "effects": [],
  "folder": null,
  "sort": 0,
  "flags": {},
  "_key": "!items!MleippiGTfotxFnN"
}