{
  "_id": "gdcwzq3coYTtavsS",
  "name": "Destined Bloodline",
  "type": "feat",
  "img": "systems/pf1/icons/skills/red_12.jpg",
  "system": {
    "description": {
      "value": "<strong>Bloodrager - Bloodline</strong><br/><br/><p>Your bloodline is destined for great things. When you bloodrage, you exude a greatness that makes all but the most legendary creatures seem lesser.</p><p><b>Bonus Feats: </b>Diehard, Endurance, Improved Initiative, Intimidating Prowess, Leadership, Lightning Reflexes, Weapon Focus.</p><p><b>Bonus Spells: </b>shield (7th), blur (10th), protection from energy (13th), freedom of movement (16th)</p><p><b>Bloodline Powers: </b>Your future greatness grants you the might to strike your enemies with awe.</p>",
      "unidentified": ""
    },
    "tags": [
      "Bloodrager",
      "Bloodrager - Bloodline"
    ],
    "actions": [],
    "uses": {
      "per": null,
      "value": 0,
      "maxFormula": "",
      "autoDeductChargesCost": "1"
    },
    "attackNotes": [],
    "effectNotes": [],
    "changes": [],
    "changeFlags": {
      "loseDexToAC": false,
      "noEncumbrance": false,
      "mediumArmorFullSpeed": false,
      "heavyArmorFullSpeed": false
    },
    "contextNotes": [],
    "links": {
      "children": [],
      "charges": []
    },
    "tag": "",
    "useCustomTag": false,
    "armorProf": {
      "value": [],
      "custom": ""
    },
    "weaponProf": {
      "value": [],
      "custom": ""
    },
    "languages": {
      "value": [],
      "custom": ""
    },
    "flags": {
      "boolean": {},
      "dictionary": {}
    },
    "scriptCalls": [],
    "subType": "classFeat",
    "associations": {
      "classes": [
        "Bloodrager"
      ]
    },
    "showInQuickbar": false,
    "abilityType": "none",
    "crOffset": "",
    "disabled": false,
    "classSkills": {}
  },
  "ownership": {
    "default": 0
  },
  "_stats": {
    "systemId": "pf1",
    "systemVersion": "9.1",
    "coreVersion": "10.291",
    "createdTime": 1665428274507,
    "modifiedTime": 1689797857537,
    "lastModifiedBy": "ppv91YxratjWnkJi"
  },
  "effects": [],
  "folder": null,
  "sort": 0,
  "flags": {},
  "_key": "!items!gdcwzq3coYTtavsS"
}