{
  "_id": "Wj2giilm8mglvTdd",
  "name": "Destruction",
  "type": "feat",
  "img": "systems/pf1/icons/skills/yellow_21.jpg",
  "system": {
    "description": {
      "value": "<strong>Warpriest Blessing</strong><br/><br/><p><b>Deities: </b>Gorum, Nethys, Rovagug, Zon-Kuthon.</p><p><b>Destructive Attacks (minor): </b>At 1st level, you can touch an ally and bless it with the power of destruction. For 1 minute, the ally gains a morale bonus on weapon damage rolls equal to half your level (minimum 1).</p><p><b>Heart of Carnage (major): </b>At 10th level, you can touch an ally and bless it with even greater destructive power. For 1 minute, the ally gains a +4 insight bonus on attack rolls made to confirm critical hits and has a 50% chance to treat any critical hit or sneak attack against it as a normal hit.</p>",
      "unidentified": ""
    },
    "tags": [
      "Warpriest",
      "Warpriest Blessing"
    ],
    "actions": [],
    "uses": {
      "per": null,
      "value": 0,
      "maxFormula": "",
      "autoDeductChargesCost": "1"
    },
    "attackNotes": [],
    "effectNotes": [],
    "changes": [],
    "changeFlags": {
      "loseDexToAC": false,
      "noEncumbrance": false,
      "mediumArmorFullSpeed": false,
      "heavyArmorFullSpeed": false
    },
    "contextNotes": [],
    "links": {
      "children": [],
      "charges": []
    },
    "tag": "",
    "useCustomTag": false,
    "armorProf": {
      "value": [],
      "custom": ""
    },
    "weaponProf": {
      "value": [],
      "custom": ""
    },
    "languages": {
      "value": [],
      "custom": ""
    },
    "flags": {
      "boolean": {},
      "dictionary": {}
    },
    "scriptCalls": [],
    "subType": "classFeat",
    "associations": {
      "classes": [
        "Warpriest"
      ]
    },
    "showInQuickbar": false,
    "abilityType": "none",
    "crOffset": "",
    "disabled": false,
    "classSkills": {}
  },
  "ownership": {
    "default": 0
  },
  "_stats": {
    "systemId": "pf1",
    "systemVersion": "9.1",
    "coreVersion": "10.291",
    "createdTime": 1665428272695,
    "modifiedTime": 1689797850611,
    "lastModifiedBy": "ppv91YxratjWnkJi"
  },
  "effects": [],
  "folder": null,
  "sort": 0,
  "flags": {},
  "_key": "!items!Wj2giilm8mglvTdd"
}