{
  "_id": "4HR3tCD6FLi88LQi",
  "name": "Destruction",
  "type": "feat",
  "img": "systems/pf1/icons/items/inventory/badge-cross.jpg",
  "system": {
    "description": {
      "value": "<strong>Cleric Domain</strong><br/><br/><p><b>Deities: </b>Ahriman, Ananshea, Andak, Anogetz, Apep, Apollyon, Ayrzul, Azathoth, Belial, Bokrug, Charg, Daclau-Sar, Dagon, Dahak, Deskari, Dhalavei, Doloras, Draghignazzo, Ealdeez, Eiseth, Feronia, Fumeiyoshi, Ghatanothoa, Ghlaunder, Gorum, Groetus, Gyronna, Hastrikhal, Hei Feng, Hshurha, Iaozrael, Jacarkas, Jubilex, Kelizandri, Kerkamoth, Lady Nanbyo, Libicocco, Mazmezz, Mhar, Mother Vulture, Nataka, Nethys, Ozranvial, Ragathiel, Reymenda, Rovagug, Scal, Sekhmet, Shax, Shyka, Speakers of the Depths, Tamede, Thuskchoon, Tjasse, Treerazor, Ushitora, Venkelvore, Vevelor, Vildeis, Xiquiripat, Xsistaid, Yabu, Ymeri, Zaebos, Zagresh, Zaigasnar, Zon-Kuthon, Zurapadyn, Zyphus</p><p><b>Granted Powers: </b>You revel in ruin and devastation, and can deliver particularly destructive attacks.</p><p><b>Domain Spells: </b>1st-true strike, 2nd-shatter, 3rd-rage, 4th-inflict critical wounds, 5th-shout, 6th-harm, 7th-disintegrate, 8th-earthquake, 9th-implosion.</p>",
      "unidentified": ""
    },
    "tags": [
      "Cleric",
      "Cleric Domain"
    ],
    "actions": [],
    "uses": {
      "per": null,
      "value": 0,
      "maxFormula": "",
      "autoDeductChargesCost": "1"
    },
    "attackNotes": [],
    "effectNotes": [],
    "changes": [],
    "changeFlags": {
      "loseDexToAC": false,
      "noEncumbrance": false,
      "mediumArmorFullSpeed": false,
      "heavyArmorFullSpeed": false
    },
    "contextNotes": [],
    "links": {
      "children": [],
      "charges": []
    },
    "tag": "",
    "useCustomTag": false,
    "armorProf": {
      "value": [],
      "custom": ""
    },
    "weaponProf": {
      "value": [],
      "custom": ""
    },
    "languages": {
      "value": [],
      "custom": ""
    },
    "flags": {
      "boolean": {},
      "dictionary": {}
    },
    "scriptCalls": [],
    "subType": "classFeat",
    "associations": {
      "classes": [
        "Cleric"
      ]
    },
    "showInQuickbar": false,
    "abilityType": "none",
    "crOffset": "",
    "disabled": false,
    "classSkills": {}
  },
  "ownership": {
    "default": 0
  },
  "_stats": {
    "systemId": "pf1",
    "systemVersion": "9.1",
    "coreVersion": "10.291",
    "createdTime": 1665428267557,
    "modifiedTime": 1689797826416,
    "lastModifiedBy": "ppv91YxratjWnkJi"
  },
  "effects": [],
  "folder": null,
  "sort": 0,
  "flags": {},
  "_key": "!items!4HR3tCD6FLi88LQi"
}