{
  "_id": "K3Uh8Nfwdgk7viek",
  "name": "Dimensional Slide (Su)",
  "type": "feat",
  "img": "systems/pf1/icons/spells/runes-blue-2.jpg",
  "system": {
    "description": {
      "value": "<strong>Arcanist Exploit</strong><br/><br/><p>The arcanist can expend 1 point from her arcane reservoir to create a dimensional crack that she can step through to reach another location. This ability is used as part of a move action or withdraw action, allowing her to move up to 10 feet per arcanist level to any location she can see. This counts as 5 feet of movement. She can only use this ability once per round. She does not provoke attacks of opportunity when moving in this way, but any other movement she attempts as part of her move action provokes as normal.</p>",
      "unidentified": ""
    },
    "tags": [
      "Arcanist",
      "Arcanist Exploit"
    ],
    "actions": [],
    "uses": {
      "per": null,
      "value": 0,
      "maxFormula": "",
      "autoDeductChargesCost": "1"
    },
    "attackNotes": [],
    "effectNotes": [],
    "changes": [],
    "changeFlags": {
      "loseDexToAC": false,
      "noEncumbrance": false,
      "mediumArmorFullSpeed": false,
      "heavyArmorFullSpeed": false
    },
    "contextNotes": [],
    "links": {
      "children": [],
      "charges": []
    },
    "tag": "",
    "useCustomTag": false,
    "armorProf": {
      "value": [],
      "custom": ""
    },
    "weaponProf": {
      "value": [],
      "custom": ""
    },
    "languages": {
      "value": [],
      "custom": ""
    },
    "flags": {
      "boolean": {},
      "dictionary": {}
    },
    "scriptCalls": [],
    "subType": "classFeat",
    "associations": {
      "classes": [
        "Arcanist"
      ]
    },
    "showInQuickbar": false,
    "abilityType": "none",
    "crOffset": "",
    "disabled": false,
    "classSkills": {}
  },
  "ownership": {
    "default": 0
  },
  "_stats": {
    "systemId": "pf1",
    "systemVersion": "9.1",
    "coreVersion": "10.291",
    "createdTime": 1665428269996,
    "modifiedTime": 1689797840429,
    "lastModifiedBy": "ppv91YxratjWnkJi"
  },
  "effects": [],
  "folder": null,
  "sort": 0,
  "flags": {},
  "_key": "!items!K3Uh8Nfwdgk7viek"
}