{
  "_id": "Kf0nqglYRnYA1ApI",
  "name": "Diplomacy",
  "type": "feat",
  "img": "systems/pf1/icons/items/inventory/lockpick.jpg",
  "system": {
    "description": {
      "value": "<strong>Unchained Rogue Skill Unlock</strong><br/><br/><p>With sufficient ranks in Diplomacy, you earn the following.</p><p><b>5 Ranks: </b>The time required to influence a creature's attitude or gather information is halved.</p><p><b>10 Ranks: </b>You can attempt to adjust a creature's attitude in 1 round by taking a -10 penalty. If you take 1 minute to adjust a creature's attitude, add your Charisma bonus to the number of hours that attitude change persists.</p><p><b>15 Ranks: </b>You can attempt to adjust a creature's attitude in 1 round with no penalty. If you take 1 minute to adjust a creature's attitude, the duration of the resulting change is measured in days, not hours. You can gather information in 10 minutes by taking a -5 penalty.</p><p><b>20 Ranks: </b>You can attempt to adjust a creature's attitude in 1 round with no penalty. If you take 1 minute to adjust a creature's attitude, the duration of the resulting change is measured in weeks, not hours. You can gather information in 1d4 minutes with no penalty.</p>",
      "unidentified": ""
    },
    "tags": [
      "Rogue (Unchained)",
      "Unchained Rogue Skill Unlock"
    ],
    "actions": [],
    "uses": {
      "per": null,
      "value": 0,
      "maxFormula": "",
      "autoDeductChargesCost": "1"
    },
    "attackNotes": [],
    "effectNotes": [],
    "changes": [],
    "changeFlags": {
      "loseDexToAC": false,
      "noEncumbrance": false,
      "mediumArmorFullSpeed": false,
      "heavyArmorFullSpeed": false
    },
    "contextNotes": [],
    "links": {
      "children": [],
      "charges": []
    },
    "tag": "",
    "useCustomTag": false,
    "armorProf": {
      "value": [],
      "custom": ""
    },
    "weaponProf": {
      "value": [],
      "custom": ""
    },
    "languages": {
      "value": [],
      "custom": ""
    },
    "flags": {
      "boolean": {},
      "dictionary": {}
    },
    "scriptCalls": [],
    "subType": "classFeat",
    "associations": {
      "classes": [
        "Rogue (Unchained)"
      ]
    },
    "showInQuickbar": false,
    "abilityType": "none",
    "crOffset": "",
    "disabled": false,
    "classSkills": {}
  },
  "ownership": {
    "default": 0
  },
  "_stats": {
    "systemId": "pf1",
    "systemVersion": "9.1",
    "coreVersion": "10.291",
    "createdTime": 1665428270371,
    "modifiedTime": 1689797841383,
    "lastModifiedBy": "ppv91YxratjWnkJi"
  },
  "effects": [],
  "folder": null,
  "sort": 0,
  "flags": {},
  "_key": "!items!Kf0nqglYRnYA1ApI"
}