{
  "_id": "CEgaFU9ey3Mwwvuw",
  "name": "Disguise",
  "type": "feat",
  "img": "systems/pf1/icons/items/inventory/lockpick.jpg",
  "system": {
    "description": {
      "value": "<strong>Unchained Rogue Skill Unlock</strong><br/><br/><p>With sufficient ranks in Disguise, you earn the following.</p><p><b>5 Ranks: </b>You can create a disguise in 1d3 minutes.</p><p><b>10 Ranks: </b>You can create a disguise in 1d3 rounds. If you take the full normal amount of time to create your disguise, you take no penalty for disguising your gender, race, or age category.</p><p><b>15 Ranks: </b>You can create a disguise as a full-round action.</p><p><b>20 Ranks: </b>You can create a disguise as a standard action, or as a full-round action combined with a Bluff check to create a diversion to hide.</p>",
      "unidentified": ""
    },
    "tags": [
      "Rogue (Unchained)",
      "Unchained Rogue Skill Unlock"
    ],
    "actions": [],
    "uses": {
      "per": null,
      "value": 0,
      "maxFormula": "",
      "autoDeductChargesCost": "1"
    },
    "attackNotes": [],
    "effectNotes": [],
    "changes": [],
    "changeFlags": {
      "loseDexToAC": false,
      "noEncumbrance": false,
      "mediumArmorFullSpeed": false,
      "heavyArmorFullSpeed": false
    },
    "contextNotes": [],
    "links": {
      "children": [],
      "charges": []
    },
    "tag": "",
    "useCustomTag": false,
    "armorProf": {
      "value": [],
      "custom": ""
    },
    "weaponProf": {
      "value": [],
      "custom": ""
    },
    "languages": {
      "value": [],
      "custom": ""
    },
    "flags": {
      "boolean": {},
      "dictionary": {}
    },
    "scriptCalls": [],
    "subType": "classFeat",
    "associations": {
      "classes": [
        "Rogue (Unchained)"
      ]
    },
    "showInQuickbar": false,
    "abilityType": "none",
    "crOffset": "",
    "disabled": false,
    "classSkills": {}
  },
  "ownership": {
    "default": 0
  },
  "_stats": {
    "systemId": "pf1",
    "systemVersion": "9.1",
    "coreVersion": "10.291",
    "createdTime": 1665428268798,
    "modifiedTime": 1689797834613,
    "lastModifiedBy": "ppv91YxratjWnkJi"
  },
  "effects": [],
  "folder": null,
  "sort": 0,
  "flags": {},
  "_key": "!items!CEgaFU9ey3Mwwvuw"
}