{
  "_id": "uGNMUVEgM5J6ZtG5",
  "name": "Distracting Shot",
  "type": "feat",
  "img": "systems/pf1/icons/skills/weapon_36.jpg",
  "system": {
    "description": {
      "value": "<strong>Gunslinger Deeds</strong><br/><br/><p>At 7th level, a bolt ace can spend 1 grit point and choose to miss a target that she could normally attack within her range with a crossbow attack. When she does, the target loses its Dexterity bonus to AC (if any) for 1 round. This deed replaces startling shot.</p>",
      "unidentified": ""
    },
    "tags": [
      "Gunslinger",
      "Gunslinger Deeds"
    ],
    "actions": [],
    "uses": {
      "per": null,
      "value": 0,
      "maxFormula": "",
      "autoDeductChargesCost": "1"
    },
    "attackNotes": [],
    "effectNotes": [],
    "changes": [],
    "changeFlags": {
      "loseDexToAC": false,
      "noEncumbrance": false,
      "mediumArmorFullSpeed": false,
      "heavyArmorFullSpeed": false
    },
    "contextNotes": [],
    "links": {
      "children": [],
      "charges": []
    },
    "tag": "",
    "useCustomTag": false,
    "armorProf": {
      "value": [],
      "custom": ""
    },
    "weaponProf": {
      "value": [],
      "custom": ""
    },
    "languages": {
      "value": [],
      "custom": ""
    },
    "flags": {
      "boolean": {},
      "dictionary": {}
    },
    "scriptCalls": [],
    "subType": "classFeat",
    "associations": {
      "classes": [
        "Gunslinger"
      ]
    },
    "showInQuickbar": false,
    "abilityType": "none",
    "crOffset": "",
    "disabled": false,
    "classSkills": {}
  },
  "ownership": {
    "default": 0
  },
  "_stats": {
    "systemId": "pf1",
    "systemVersion": "9.1",
    "coreVersion": "10.291",
    "createdTime": 1665428277054,
    "modifiedTime": 1689797866071,
    "lastModifiedBy": "ppv91YxratjWnkJi"
  },
  "effects": [],
  "folder": null,
  "sort": 0,
  "flags": {},
  "_key": "!items!uGNMUVEgM5J6ZtG5"
}