{
  "_id": "84Xs3U3N27RVuSWG",
  "name": "Dolphin",
  "type": "feat",
  "img": "systems/pf1/icons/skills/blue_34.jpg",
  "system": {
    "description": {
      "value": "<strong>Shifter Aspect</strong><br/><br/><p>The aspect of the dolphin imparts clever mastery of the seas. Shifters with this aspect also embody the size and ferociousness of large dolphins, such as orcas.</p><p><b>Minor Form: </b>You gain a +4 competence bonus on Knowledge checks to identify creatures' abilities and weaknesses. This bonus increases to +6 at 8th level and +8 at 15th level.</p><p><b>Major Form (beast shape II): </b>Your shape changes to that of a Large dolphin, but your space is 10 feet instead of 5 feet. While in this form, you gain a swim speed of 60 feet, blindsense with a range of 10 feet, low-light vision, a bite attack (1d8), and the ability to hold your breath for a number of minutes equal to 6 times your Constitution score before you risk drowning. At 8th level, the range of your blindsense increases to 20 feet. At 15th level, the range of your blindsense increases to 60 feet and your swim speed increases to 80 feet.</p><p><b>Alternate Natural Attacks: </b>Bite (B, P, S), Slam (B)</p>",
      "unidentified": ""
    },
    "tags": [
      "Shifter",
      "Shifter Aspect"
    ],
    "actions": [],
    "uses": {
      "per": null,
      "value": 0,
      "maxFormula": "",
      "autoDeductChargesCost": "1"
    },
    "attackNotes": [],
    "effectNotes": [],
    "changes": [],
    "changeFlags": {
      "loseDexToAC": false,
      "noEncumbrance": false,
      "mediumArmorFullSpeed": false,
      "heavyArmorFullSpeed": false
    },
    "contextNotes": [],
    "links": {
      "children": [],
      "charges": []
    },
    "tag": "",
    "useCustomTag": false,
    "armorProf": {
      "value": [],
      "custom": ""
    },
    "weaponProf": {
      "value": [],
      "custom": ""
    },
    "languages": {
      "value": [],
      "custom": ""
    },
    "flags": {
      "boolean": {},
      "dictionary": {}
    },
    "scriptCalls": [],
    "subType": "classFeat",
    "associations": {
      "classes": [
        "Shifter"
      ]
    },
    "showInQuickbar": false,
    "abilityType": "none",
    "crOffset": "",
    "disabled": false,
    "classSkills": {}
  },
  "ownership": {
    "default": 0
  },
  "_stats": {
    "systemId": "pf1",
    "systemVersion": "9.1",
    "coreVersion": "10.291",
    "createdTime": 1665428268133,
    "modifiedTime": 1689797829974,
    "lastModifiedBy": "ppv91YxratjWnkJi"
  },
  "effects": [],
  "folder": null,
  "sort": 0,
  "flags": {},
  "_key": "!items!84Xs3U3N27RVuSWG"
}