{
  "_id": "dAOCxw9YR5r3Y1Jh",
  "name": "Double Time",
  "type": "feat",
  "img": "systems/pf1/icons/skills/violet_07.jpg",
  "system": {
    "description": {
      "value": "<strong>Vigilante Social Talent</strong><br/><br/><p>The vigilante's social identity is that of a skilled and respected artisan or professional, rather than a merchant or noble. In order to complete his day's work while still continuing his vigilante activities, he has learned to work faster than normal, hiding his progress so it seems like he is working full shifts at his day job rather than spending some of that time on other pursuits. The vigilante needs to spend only 6 hours each day for mundane uses of the Craft or Profession skill, rather than 8 hours. If he has the social grace social talent, he needs to spend only 4 hours for any skill he's chosen with social grace. A vigilante must have a social identity appropriate to the chosen skill to select this talent.</p>",
      "unidentified": ""
    },
    "tags": [
      "Vigilante",
      "Vigilante Social Talent"
    ],
    "actions": [],
    "uses": {
      "per": null,
      "value": 0,
      "maxFormula": "",
      "autoDeductChargesCost": "1"
    },
    "attackNotes": [],
    "effectNotes": [],
    "changes": [],
    "changeFlags": {
      "loseDexToAC": false,
      "noEncumbrance": false,
      "mediumArmorFullSpeed": false,
      "heavyArmorFullSpeed": false
    },
    "contextNotes": [],
    "links": {
      "children": [],
      "charges": []
    },
    "tag": "",
    "useCustomTag": false,
    "armorProf": {
      "value": [],
      "custom": ""
    },
    "weaponProf": {
      "value": [],
      "custom": ""
    },
    "languages": {
      "value": [],
      "custom": ""
    },
    "flags": {
      "boolean": {},
      "dictionary": {}
    },
    "scriptCalls": [],
    "subType": "classFeat",
    "associations": {
      "classes": [
        "Vigilante"
      ]
    },
    "showInQuickbar": false,
    "abilityType": "none",
    "crOffset": "",
    "disabled": false,
    "classSkills": {}
  },
  "ownership": {
    "default": 0
  },
  "_stats": {
    "systemId": "pf1",
    "systemVersion": "9.1",
    "coreVersion": "10.291",
    "createdTime": 1665428273522,
    "modifiedTime": 1689797854365,
    "lastModifiedBy": "ppv91YxratjWnkJi"
  },
  "effects": [],
  "folder": null,
  "sort": 0,
  "flags": {},
  "_key": "!items!dAOCxw9YR5r3Y1Jh"
}