{
  "_id": "AnpIrF5frDGBiZ99",
  "name": "Dust to Dust",
  "type": "feat",
  "img": "systems/pf1/icons/skills/red_09.jpg",
  "system": {
    "description": {
      "value": "<strong>Oracle Apocalypse Mystery Power</strong><br/><br/><p>Once per day as a standard action, you can cause the weapons around you to shatter in their wielders' hands. When you use this ability, attempt a single sunder combat maneuver, using your caster level in place of your base attack bonus and your Charisma modifier in place of Strength. Every creature except you in a 10-foot radius that is wielding a manufactured weapon is targeted by the same attempt. You deal an amount of damage to each weapon affected equal to 1d4 x your Charisma modifier (minimum 1d4). At 11th level, this damage increases to 1d6 x your Charisma modifier (minimum 1d6). At 10th level, you can use this ability twice per day.</p>",
      "unidentified": ""
    },
    "tags": [
      "Oracle",
      "Oracle Apocalypse Mystery Power"
    ],
    "actions": [],
    "uses": {
      "per": null,
      "value": 0,
      "maxFormula": "",
      "autoDeductChargesCost": "1"
    },
    "attackNotes": [],
    "effectNotes": [],
    "changes": [],
    "changeFlags": {
      "loseDexToAC": false,
      "noEncumbrance": false,
      "mediumArmorFullSpeed": false,
      "heavyArmorFullSpeed": false
    },
    "contextNotes": [],
    "links": {
      "children": [],
      "charges": []
    },
    "tag": "",
    "useCustomTag": false,
    "armorProf": {
      "value": [],
      "custom": ""
    },
    "weaponProf": {
      "value": [],
      "custom": ""
    },
    "languages": {
      "value": [],
      "custom": ""
    },
    "flags": {
      "boolean": {},
      "dictionary": {}
    },
    "scriptCalls": [],
    "subType": "classFeat",
    "associations": {
      "classes": [
        "Oracle"
      ]
    },
    "showInQuickbar": false,
    "abilityType": "none",
    "crOffset": "",
    "disabled": false,
    "classSkills": {}
  },
  "ownership": {
    "default": 0
  },
  "_stats": {
    "systemId": "pf1",
    "systemVersion": "9.1",
    "coreVersion": "10.291",
    "createdTime": 1665428268675,
    "modifiedTime": 1689797833058,
    "lastModifiedBy": "ppv91YxratjWnkJi"
  },
  "effects": [],
  "folder": null,
  "sort": 0,
  "flags": {},
  "_key": "!items!AnpIrF5frDGBiZ99"
}