{
  "_id": "sCiCZkhh0HaPMnCe",
  "name": "Earth (Elemental School)",
  "type": "feat",
  "img": "systems/pf1/icons/spells/beam-magenta-3.jpg",
  "system": {
    "description": {
      "value": "<strong>Wizard Arcane School</strong><br/><br/><p>The earth elementalist draws power from the stone around him, shaping it, shattering it, and bending it to his will. He can use it to defend himself or cause it to rise up and crush his foes.</p><h>Earth Elementalist Wizard Spells</h><p>0 - acid splash</p><p>1st - corrosive touch, expeditious excavation, grease, mudball, stone fist, stone shield, thunderstomp</p><p>2nd - acid arrow, create pit, elemental speech, elemental touch, glitterdust, molten orb, resist energy, shatter, stone call, stone discus, summon monster ii</p><p>3rd - burrow, draconic reservoir, elemental aura, heart of the metal, protection from energy, raging rubble, resist energy, communal, shifting sand, spiked pit, stinking cloud, thunderstomp, greater</p><p>4th - acid pit, calcific touch, detonate, dragon's breath, earth glide, elemental body i, obsidian flow, protection from energy, communal, stone shape, stoneskin, summon monster iv, vitriolic mist</p><p>5th - acidic spray, corrosive consumption, elemental body ii, hungry pit, passwall, planar adaptation, planar binding, lesser, stoneskin, communal, summon monster v, transmute mud to rock, transmute rock to mud, wall of stone</p><p>6th - acid fog, elemental body iii, flesh to stone, move earth, planar binding, stone to flesh, summon monster vi, tar pool, wall of iron</p><p>7th - caustic eruption, elemental body iv, planar adaptation, mass, rampart, reverse gravity, statue, summon monster vii</p><p>8th - iron body, planar binding, greater, summon monster viii, wall of lava</p><p>9th - clashing rocks, gate, world wave</p>",
      "unidentified": ""
    },
    "tags": [
      "Wizard",
      "Wizard Arcane School"
    ],
    "actions": [],
    "uses": {
      "per": null,
      "value": 0,
      "maxFormula": "",
      "autoDeductChargesCost": "1"
    },
    "attackNotes": [],
    "effectNotes": [],
    "changes": [],
    "changeFlags": {
      "loseDexToAC": false,
      "noEncumbrance": false,
      "mediumArmorFullSpeed": false,
      "heavyArmorFullSpeed": false
    },
    "contextNotes": [],
    "links": {
      "children": [],
      "charges": []
    },
    "tag": "",
    "useCustomTag": false,
    "armorProf": {
      "value": [],
      "custom": ""
    },
    "weaponProf": {
      "value": [],
      "custom": ""
    },
    "languages": {
      "value": [],
      "custom": ""
    },
    "flags": {
      "boolean": {},
      "dictionary": {}
    },
    "scriptCalls": [],
    "subType": "classFeat",
    "associations": {
      "classes": [
        "Wizard"
      ]
    },
    "showInQuickbar": false,
    "abilityType": "none",
    "crOffset": "",
    "disabled": false,
    "classSkills": {}
  },
  "ownership": {
    "default": 0
  },
  "_stats": {
    "systemId": "pf1",
    "systemVersion": "9.1",
    "coreVersion": "10.291",
    "createdTime": 1665428276512,
    "modifiedTime": 1689797864458,
    "lastModifiedBy": "ppv91YxratjWnkJi"
  },
  "effects": [],
  "folder": null,
  "sort": 0,
  "flags": {},
  "_key": "!items!sCiCZkhh0HaPMnCe"
}