{
  "_id": "86DZW9J9Qm5DNH0U",
  "name": "Ectoplasmic Servant",
  "type": "feat",
  "img": "systems/pf1/icons/items/potions/grand-yellow.jpg",
  "system": {
    "description": {
      "value": "<strong>Alchemist Discovery - Ectoplasm Master</strong><br/><br/><p>An ectoplasm master who selects this discovery adds all summon monster spells of 6th level or lower to his alchemist formula list as ectoplasmic extracts. Whenever he summons a creature using an ectoplasmic extract, the creature must appear in a square adjacent to his own, and it gains the ectoplasmic creature template. Creatures summoned using ectoplasmic extracts cannot have templates other than the ectoplasmic creature template.</p>",
      "unidentified": ""
    },
    "tags": [
      "Alchemist",
      "Alchemist Discovery - Ectoplasm Master"
    ],
    "actions": [],
    "uses": {
      "per": null,
      "value": 0,
      "maxFormula": "",
      "autoDeductChargesCost": "1"
    },
    "attackNotes": [],
    "effectNotes": [],
    "changes": [],
    "changeFlags": {
      "loseDexToAC": false,
      "noEncumbrance": false,
      "mediumArmorFullSpeed": false,
      "heavyArmorFullSpeed": false
    },
    "contextNotes": [],
    "links": {
      "children": [],
      "charges": []
    },
    "tag": "",
    "useCustomTag": false,
    "armorProf": {
      "value": [],
      "custom": ""
    },
    "weaponProf": {
      "value": [],
      "custom": ""
    },
    "languages": {
      "value": [],
      "custom": ""
    },
    "flags": {
      "boolean": {},
      "dictionary": {}
    },
    "scriptCalls": [],
    "subType": "classFeat",
    "associations": {
      "classes": [
        "Alchemist"
      ]
    },
    "showInQuickbar": false,
    "abilityType": "none",
    "crOffset": "",
    "disabled": false,
    "classSkills": {}
  },
  "ownership": {
    "default": 0
  },
  "_stats": {
    "systemId": "pf1",
    "systemVersion": "9.1",
    "coreVersion": "10.291",
    "createdTime": 1665428268135,
    "modifiedTime": 1689797829986,
    "lastModifiedBy": "ppv91YxratjWnkJi"
  },
  "effects": [],
  "folder": null,
  "sort": 0,
  "flags": {},
  "_key": "!items!86DZW9J9Qm5DNH0U"
}