{
  "_id": "27SmcQilWTBcJzYG",
  "name": "Ectoplasm Bloodline",
  "type": "feat",
  "img": "systems/pf1/icons/spells/fireball-red-3.jpg",
  "system": {
    "description": {
      "value": "<strong>Sorcerer Bloodline</strong><br/><br/><p>Your family has a connection with the ethereal substance known as ectoplasm, whether from communing with the spirits or battling the spiritual undead. The power of the Ethereal Plane thrums in your mind and pulls at your flesh.</p><p><b>Class Skill: </b>Stealth.</p><p><b>Bonus Spells: </b>obscuring mist (3rd), ghost whip (5th), ectoplasmic snare (7th), spirit-bound blade (9th), wall of ectoplasm (11th), ethereal jaunt (13th), ectoplasmic eruption (15th), create demiplane (17th), etherealness (19th).</p><p><b>Bonus Feats: </b>Blind-Fight, Dodge, Ectoplasmic SpellAPG, Lingering SpellAPG, Silent Spell, Skill Focus (Fly), Skill Focus (Stealth), Spell Focus.</p><p><b>Bloodline Arcana: </b>Incorporeal creatures take 75% of the normal amount of damage from your damaging spells, and when incorporeal creatures attempt saving throws against your non-damaging spells, they roll twice and must take the lower result.</p><p><b>Bloodline Powers: </b>You can control and emit ectoplasm, leaving you less grounded in the physical world.</p>",
      "unidentified": ""
    },
    "tags": [
      "Sorcerer",
      "Sorcerer Bloodline"
    ],
    "actions": [],
    "uses": {
      "per": null,
      "value": 0,
      "maxFormula": "",
      "autoDeductChargesCost": "1"
    },
    "attackNotes": [],
    "effectNotes": [],
    "changes": [],
    "changeFlags": {
      "loseDexToAC": false,
      "noEncumbrance": false,
      "mediumArmorFullSpeed": false,
      "heavyArmorFullSpeed": false
    },
    "contextNotes": [],
    "links": {
      "children": [],
      "charges": []
    },
    "tag": "",
    "useCustomTag": false,
    "armorProf": {
      "value": [],
      "custom": ""
    },
    "weaponProf": {
      "value": [],
      "custom": ""
    },
    "languages": {
      "value": [],
      "custom": ""
    },
    "flags": {
      "boolean": {},
      "dictionary": {}
    },
    "scriptCalls": [],
    "subType": "classFeat",
    "associations": {
      "classes": [
        "Sorcerer"
      ]
    },
    "showInQuickbar": false,
    "abilityType": "none",
    "crOffset": "",
    "disabled": false,
    "classSkills": {}
  },
  "ownership": {
    "default": 0
  },
  "_stats": {
    "systemId": "pf1",
    "systemVersion": "9.1",
    "coreVersion": "10.291",
    "createdTime": 1665428267093,
    "modifiedTime": 1689797824176,
    "lastModifiedBy": "ppv91YxratjWnkJi"
  },
  "effects": [],
  "folder": null,
  "sort": 0,
  "flags": {},
  "_key": "!items!27SmcQilWTBcJzYG"
}