{
  "_id": "RmpS8Rx9Mp38kzMI",
  "name": "Elemental Whispers, Greater",
  "type": "feat",
  "img": "systems/pf1/icons/skills/violet_28.jpg",
  "system": {
    "description": {
      "value": "<strong>Kineticist Wild Talent - Utility</strong><br/><br/><p>Element universal; Type utility (Su); Level 3; Burn 0</p><p>Prerequisite elemental whispers</p><p>Your friendship with the elements has grown. You gain your choice of a wyspB5 or Small elemental of your primary element as an improved familiar, without needing to meet any of the usual prerequisites for gaining such a familiar. Unlike with elemental whispers, this improved familiar acts in all ways like a familiar: it's always manifested, it has hit points equal to 1/2 your own, and so on. You no longer receive the familiar benefits from the original creature you selected. If your improved familiar dies, you can still contact its voice in your mind and gain the Alertness feat, but you can't cause it to manifest. If you pay the usual costs for replacing a familiar, you manifest a new form for your elemental friend.</p>",
      "unidentified": ""
    },
    "tags": [
      "Kineticist",
      "Kineticist Wild Talent - Utility"
    ],
    "actions": [],
    "uses": {
      "per": null,
      "value": 0,
      "maxFormula": "",
      "autoDeductChargesCost": "1"
    },
    "attackNotes": [],
    "effectNotes": [],
    "changes": [],
    "changeFlags": {
      "loseDexToAC": false,
      "noEncumbrance": false,
      "mediumArmorFullSpeed": false,
      "heavyArmorFullSpeed": false
    },
    "contextNotes": [],
    "links": {
      "children": [],
      "charges": []
    },
    "tag": "",
    "useCustomTag": false,
    "armorProf": {
      "value": [],
      "custom": ""
    },
    "weaponProf": {
      "value": [],
      "custom": ""
    },
    "languages": {
      "value": [],
      "custom": ""
    },
    "flags": {
      "boolean": {},
      "dictionary": {}
    },
    "scriptCalls": [],
    "subType": "classFeat",
    "associations": {
      "classes": [
        "Kineticist"
      ]
    },
    "showInQuickbar": false,
    "abilityType": "none",
    "crOffset": "",
    "disabled": false,
    "classSkills": {}
  },
  "ownership": {
    "default": 0
  },
  "_stats": {
    "systemId": "pf1",
    "systemVersion": "9.1",
    "coreVersion": "10.291",
    "createdTime": 1665428271603,
    "modifiedTime": 1689797846814,
    "lastModifiedBy": "ppv91YxratjWnkJi"
  },
  "effects": [],
  "folder": null,
  "sort": 0,
  "flags": {},
  "_key": "!items!RmpS8Rx9Mp38kzMI"
}