{
  "_id": "zrHN4JxwwDyR5Rwa",
  "name": "Elemental Armor",
  "type": "feat",
  "img": "systems/pf1/icons/skills/violet_07.jpg",
  "system": {
    "description": {
      "value": "<strong>Vigilante Warlock Talent</strong><br/><br/><p>When in her vigilante identity, the warlock gains armor made of elemental energy. She is surrounded by a nimbus of ice, lightning, or flames, granting her resistance 5 to cold, electricity, or fire, respectively. The damage type must be chosen when she selects this talent, and it can't be changed. At 4th level, the warlock's armor deals 1d6 points of damage of the chosen energy type to any creature striking the warlock with a natural weapon or a non-reach melee weapon. A creature that attempts a grapple combat maneuver check against the warlock also takes this damage. A creature can take damage in this way no more than once per round. At 8th level, the energy resistance increases to 10. At 12th level, the damage increases to 2d6 points. At 16th level, the warlock becomes immune to the chosen damage type while in her vigilante identity.</p>",
      "unidentified": ""
    },
    "tags": [
      "Vigilante",
      "Vigilante Warlock Talent"
    ],
    "actions": [],
    "uses": {
      "per": null,
      "value": 0,
      "maxFormula": "",
      "autoDeductChargesCost": "1"
    },
    "attackNotes": [],
    "effectNotes": [],
    "changes": [],
    "changeFlags": {
      "loseDexToAC": false,
      "noEncumbrance": false,
      "mediumArmorFullSpeed": false,
      "heavyArmorFullSpeed": false
    },
    "contextNotes": [],
    "links": {
      "children": [],
      "charges": []
    },
    "tag": "",
    "useCustomTag": false,
    "armorProf": {
      "value": [],
      "custom": ""
    },
    "weaponProf": {
      "value": [],
      "custom": ""
    },
    "languages": {
      "value": [],
      "custom": ""
    },
    "flags": {
      "boolean": {},
      "dictionary": {}
    },
    "scriptCalls": [],
    "subType": "classFeat",
    "associations": {
      "classes": [
        "Vigilante"
      ]
    },
    "showInQuickbar": false,
    "abilityType": "none",
    "crOffset": "",
    "disabled": false,
    "classSkills": {}
  },
  "ownership": {
    "default": 0
  },
  "_stats": {
    "systemId": "pf1",
    "systemVersion": "9.1",
    "coreVersion": "10.291",
    "createdTime": 1665428278063,
    "modifiedTime": 1689797869315,
    "lastModifiedBy": "ppv91YxratjWnkJi"
  },
  "effects": [],
  "folder": null,
  "sort": 0,
  "flags": {},
  "_key": "!items!zrHN4JxwwDyR5Rwa"
}