{
  "_id": "oC1aRJyXIIoc0gMr",
  "name": "Elemental Stance",
  "type": "feat",
  "img": "systems/pf1/icons/items/weapons/greataxe.png",
  "system": {
    "description": {
      "value": "<strong>Unchained Rage Power - Stance</strong><br/><br/><p>When the barbarian adopts this stance, she chooses an energy type (acid, cold, electricity, or fire). Her melee attacks deal 1 additional point of damage of the chosen type. This damage increases to 1d6 points at 8th level. At 12th level, the barbarian's critical hits deal an additional 1d10 points of energy damage of the same type (2d10 if the weapon deals x3 damage on a critical hit, 3d10 if the weapon deals x4 damage on a critical hit). This is a stance rage power. A barbarian must be at least 4th level to select this rage power.</p>",
      "unidentified": ""
    },
    "tags": [
      "Barbarian (Unchained)",
      "Unchained Rage Power - Stance"
    ],
    "actions": [],
    "uses": {
      "per": null,
      "value": 0,
      "maxFormula": "",
      "autoDeductChargesCost": "1"
    },
    "attackNotes": [],
    "effectNotes": [],
    "changes": [],
    "changeFlags": {
      "loseDexToAC": false,
      "noEncumbrance": false,
      "mediumArmorFullSpeed": false,
      "heavyArmorFullSpeed": false
    },
    "contextNotes": [],
    "links": {
      "children": [],
      "charges": []
    },
    "tag": "",
    "useCustomTag": false,
    "armorProf": {
      "value": [],
      "custom": ""
    },
    "weaponProf": {
      "value": [],
      "custom": ""
    },
    "languages": {
      "value": [],
      "custom": ""
    },
    "flags": {
      "boolean": {},
      "dictionary": {}
    },
    "scriptCalls": [],
    "subType": "classFeat",
    "associations": {
      "classes": [
        "Barbarian (Unchained)"
      ]
    },
    "showInQuickbar": false,
    "abilityType": "none",
    "crOffset": "",
    "disabled": false,
    "classSkills": {}
  },
  "ownership": {
    "default": 0
  },
  "_stats": {
    "systemId": "pf1",
    "systemVersion": "9.1",
    "coreVersion": "10.291",
    "createdTime": 1665428275850,
    "modifiedTime": 1689797862240,
    "lastModifiedBy": "ppv91YxratjWnkJi"
  },
  "effects": [],
  "folder": null,
  "sort": 0,
  "flags": {},
  "_key": "!items!oC1aRJyXIIoc0gMr"
}