{
  "_id": "oKJ5kCFpQAtf2ypl",
  "name": "Elemental Bloodline",
  "type": "feat",
  "img": "systems/pf1/icons/skills/red_12.jpg",
  "system": {
    "description": {
      "value": "<strong>Bloodrager - Bloodline</strong><br/><br/><p>The power of the elements resides in you, and at times you can hardly control its fury. This influence comes either from an elemental outsider in your family history or from a moment when you or your ancestors were exposed to a powerful elemental force or cataclysm.</p><p></p><p>Bonus Feats: Cleave, Dodge, Great Fortitude, Improved Initiative, Lightning Reflexes, Power Attack, Weapon Focus.</p><p></p><p>Bonus Spells: burning hands* (7th), scorching ray* (10th), protection from energy (13th), elemental body I (16th)</p><p></p><p>Spells marked with an asterisk [*] always deal a type of energy damage determined by your element, regardless of the spell's normal effects. In addition, the subtype of these spells changes to match the energy type of your element.</p><p></p><p>Bloodline Powers: One of the four elements infuses your being, and you can draw upon its power while bloodraging. At first level, you must select an element: air, earth, fire, or water. Once chosen, this cannot be changed. A number of your abilities deal damage and grant resistances based on your element, as noted below.</p><table> <tr>  <td>Element</td>  <td>Energy Type</td>  <td>Elemental Movement</td> </tr> <tr>  <td>Air</td>  <td>Electricity</td>  <td>Fly 60 feet (good)</td> </tr> <tr>  <td>Earth</td>  <td>Acid</td>  <td>Burrow 30 feet</td> </tr> <tr>  <td>Fire</td>  <td>Fire</td>  <td>+30 feet base land speed</td> </tr> <tr>  <td>Water</td>  <td>Cold</td>  <td>Swim 60 feet</td> </tr></table>",
      "unidentified": ""
    },
    "tags": [
      "Bloodrager",
      "Bloodrager - Bloodline"
    ],
    "actions": [],
    "uses": {
      "per": null,
      "value": 0,
      "maxFormula": "",
      "autoDeductChargesCost": "1"
    },
    "attackNotes": [],
    "effectNotes": [],
    "changes": [],
    "changeFlags": {
      "loseDexToAC": false,
      "noEncumbrance": false,
      "mediumArmorFullSpeed": false,
      "heavyArmorFullSpeed": false
    },
    "contextNotes": [],
    "links": {
      "children": [],
      "charges": []
    },
    "tag": "",
    "useCustomTag": false,
    "armorProf": {
      "value": [],
      "custom": ""
    },
    "weaponProf": {
      "value": [],
      "custom": ""
    },
    "languages": {
      "value": [],
      "custom": ""
    },
    "flags": {
      "boolean": {},
      "dictionary": {}
    },
    "scriptCalls": [],
    "subType": "classFeat",
    "associations": {
      "classes": [
        "Bloodrager"
      ]
    },
    "showInQuickbar": false,
    "abilityType": "none",
    "crOffset": "",
    "disabled": false,
    "classSkills": {}
  },
  "ownership": {
    "default": 0
  },
  "_stats": {
    "systemId": "pf1",
    "systemVersion": "9.1",
    "coreVersion": "10.291",
    "createdTime": 1665428275863,
    "modifiedTime": 1689797862320,
    "lastModifiedBy": "ppv91YxratjWnkJi"
  },
  "effects": [],
  "folder": null,
  "sort": 0,
  "flags": {},
  "_key": "!items!oKJ5kCFpQAtf2ypl"
}