{
  "_id": "3dCoG1CbLcTpJrez",
  "name": "Elemental Fury",
  "type": "feat",
  "img": "systems/pf1/icons/items/equipment/gloves.jpg",
  "system": {
    "description": {
      "value": "<strong>Ki Powers (Unchained)</strong><br/><br/><p>A monk who selects this ki power must select one type of energy: acid, cold, electricity, or fire. Once this choice is made, it cannot be changed. The monk can expend 1 point from his ki pool as a swift action to imbue his natural attacks with this energy, causing them to deal 1d6 points of damage of the chosen type for a number of rounds equal to 1/2 his monk level. A monk must be at least 6th level before selecting this ki power.</p>",
      "unidentified": ""
    },
    "tags": [
      "Monk (Unchained)",
      "Ki Powers (Unchained)"
    ],
    "actions": [],
    "uses": {
      "per": null,
      "value": 0,
      "maxFormula": "",
      "autoDeductChargesCost": "1"
    },
    "attackNotes": [],
    "effectNotes": [],
    "changes": [],
    "changeFlags": {
      "loseDexToAC": false,
      "noEncumbrance": false,
      "mediumArmorFullSpeed": false,
      "heavyArmorFullSpeed": false
    },
    "contextNotes": [],
    "links": {
      "children": [],
      "charges": []
    },
    "tag": "",
    "useCustomTag": false,
    "armorProf": {
      "value": [],
      "custom": ""
    },
    "weaponProf": {
      "value": [],
      "custom": ""
    },
    "languages": {
      "value": [],
      "custom": ""
    },
    "flags": {
      "boolean": {},
      "dictionary": {}
    },
    "scriptCalls": [],
    "subType": "classFeat",
    "associations": {
      "classes": [
        "Monk (Unchained)"
      ]
    },
    "showInQuickbar": false,
    "abilityType": "none",
    "crOffset": "",
    "disabled": false,
    "classSkills": {}
  },
  "ownership": {
    "default": 0
  },
  "_stats": {
    "systemId": "pf1",
    "systemVersion": "9.1",
    "coreVersion": "10.291",
    "createdTime": 1665428267518,
    "modifiedTime": 1689797826056,
    "lastModifiedBy": "ppv91YxratjWnkJi"
  },
  "effects": [],
  "folder": null,
  "sort": 0,
  "flags": {},
  "_key": "!items!3dCoG1CbLcTpJrez"
}