{
  "_id": "6m925a7iRDJv1J7v",
  "name": "Elemental Strikes",
  "type": "feat",
  "img": "systems/pf1/icons/skills/red_12.jpg",
  "system": {
    "description": {
      "value": "<strong>Bloodrager - Bloodline Powers</strong><br/><br/><p>At 1st level, three times a day as a swift action you can imbue your melee attacks with elemental energy. For 1 round, your melee attacks deal 1d6 points of additional damage of your energy type. At 8th level, you can use this ability up to five times per day. At 20th level, all your melee attacks deal this damage, and this ability no longer requires a swift action to activate.</p>",
      "unidentified": ""
    },
    "tags": [
      "Bloodrager",
      "Bloodrager - Bloodline Powers"
    ],
    "actions": [],
    "uses": {
      "per": null,
      "value": 0,
      "maxFormula": "",
      "autoDeductChargesCost": "1"
    },
    "attackNotes": [],
    "effectNotes": [],
    "changes": [],
    "changeFlags": {
      "loseDexToAC": false,
      "noEncumbrance": false,
      "mediumArmorFullSpeed": false,
      "heavyArmorFullSpeed": false
    },
    "contextNotes": [],
    "links": {
      "children": [],
      "charges": []
    },
    "tag": "",
    "useCustomTag": false,
    "armorProf": {
      "value": [],
      "custom": ""
    },
    "weaponProf": {
      "value": [],
      "custom": ""
    },
    "languages": {
      "value": [],
      "custom": ""
    },
    "flags": {
      "boolean": {},
      "dictionary": {}
    },
    "scriptCalls": [],
    "subType": "classFeat",
    "associations": {
      "classes": [
        "Bloodrager"
      ]
    },
    "showInQuickbar": false,
    "abilityType": "none",
    "crOffset": "",
    "disabled": false,
    "classSkills": {}
  },
  "ownership": {
    "default": 0
  },
  "_stats": {
    "systemId": "pf1",
    "systemVersion": "9.1",
    "coreVersion": "10.291",
    "createdTime": 1665428268032,
    "modifiedTime": 1689797829334,
    "lastModifiedBy": "ppv91YxratjWnkJi"
  },
  "effects": [],
  "folder": null,
  "sort": 0,
  "flags": {},
  "_key": "!items!6m925a7iRDJv1J7v"
}