{
  "_id": "97Jl8XwUJzic9WfV",
  "name": "Enveloping Winds",
  "type": "feat",
  "img": "systems/pf1/icons/skills/violet_28.jpg",
  "system": {
    "description": {
      "value": "<strong>Kineticist Wild Talent - Defense</strong><br/><br/><p>Element air; Type defense (Su); Level -; Burn 0</p><p>You constantly surround yourself with a whirling torrent of air, crackling arcs of lightning, or both to protect yourself from ranged attacks. All ranged attacks made with physical weapons suffer a 20% miss chance against you, except for attacks from massive weapons such as a giant's thrown boulder or a ballista. This ability has no effect on ray attacks. The miss chance increases by 5% for every 5 kineticist levels you possess beyond 2nd. By accepting 1 point of burn, you can increase the miss chance by 5% until the next time your burn is removed. You can continue to accept points of burn to increase the miss chance further, up to a maximum of 75%. Whenever you accept burn while using an air wild talent, the energy surging through you causes your enveloping winds to also affect non-physical ranged attacks such as ray attacks for 1 round. You can dismiss or restore this effect as an immediate action.</p>",
      "unidentified": ""
    },
    "tags": [
      "Kineticist",
      "Kineticist Wild Talent - Defense"
    ],
    "actions": [],
    "uses": {
      "per": null,
      "value": 0,
      "maxFormula": "",
      "autoDeductChargesCost": "1"
    },
    "attackNotes": [],
    "effectNotes": [],
    "changes": [],
    "changeFlags": {
      "loseDexToAC": false,
      "noEncumbrance": false,
      "mediumArmorFullSpeed": false,
      "heavyArmorFullSpeed": false
    },
    "contextNotes": [],
    "links": {
      "children": [],
      "charges": []
    },
    "tag": "",
    "useCustomTag": false,
    "armorProf": {
      "value": [],
      "custom": ""
    },
    "weaponProf": {
      "value": [],
      "custom": ""
    },
    "languages": {
      "value": [],
      "custom": ""
    },
    "flags": {
      "boolean": {},
      "dictionary": {}
    },
    "scriptCalls": [],
    "subType": "classFeat",
    "associations": {
      "classes": [
        "Kineticist"
      ]
    },
    "showInQuickbar": false,
    "abilityType": "none",
    "crOffset": "",
    "disabled": false,
    "classSkills": {}
  },
  "ownership": {
    "default": 0
  },
  "_stats": {
    "systemId": "pf1",
    "systemVersion": "9.1",
    "coreVersion": "10.291",
    "createdTime": 1665428268234,
    "modifiedTime": 1689797830526,
    "lastModifiedBy": "ppv91YxratjWnkJi"
  },
  "effects": [],
  "folder": null,
  "sort": 0,
  "flags": {},
  "_key": "!items!97Jl8XwUJzic9WfV"
}