{
  "_id": "P2FMbG3nDuAXyedw",
  "name": "Eternal Opposition (Ex)",
  "type": "feat",
  "img": "systems/pf1/icons/skills/weapon_39.jpg",
  "system": {
    "description": {
      "value": "<strong>Slayer Talent</strong><br/><br/><p>Samsaran only. While most imperial dragons, undead, and other long-enduring foes can count on outlasting their mortal adversaries, the samsaran slayer has pledged to oppose their machinations across all his lifetimes. When his studied target is of the dragon, fey, outsider, or undead type, the slayer gains a +2 insight bonus to his AC against its attacks and on saving throws against its abilities.</p>",
      "unidentified": ""
    },
    "tags": [
      "Slayer",
      "Slayer Talent"
    ],
    "actions": [],
    "uses": {
      "per": null,
      "value": 0,
      "maxFormula": "",
      "autoDeductChargesCost": "1"
    },
    "attackNotes": [],
    "effectNotes": [],
    "changes": [],
    "changeFlags": {
      "loseDexToAC": false,
      "noEncumbrance": false,
      "mediumArmorFullSpeed": false,
      "heavyArmorFullSpeed": false
    },
    "contextNotes": [],
    "links": {
      "children": [],
      "charges": []
    },
    "tag": "",
    "useCustomTag": false,
    "armorProf": {
      "value": [],
      "custom": ""
    },
    "weaponProf": {
      "value": [],
      "custom": ""
    },
    "languages": {
      "value": [],
      "custom": ""
    },
    "flags": {
      "boolean": {},
      "dictionary": {}
    },
    "scriptCalls": [],
    "subType": "classFeat",
    "associations": {
      "classes": [
        "Slayer"
      ]
    },
    "showInQuickbar": false,
    "abilityType": "none",
    "crOffset": "",
    "disabled": false,
    "classSkills": {}
  },
  "ownership": {
    "default": 0
  },
  "_stats": {
    "systemId": "pf1",
    "systemVersion": "9.1",
    "coreVersion": "10.291",
    "createdTime": 1665428271025,
    "modifiedTime": 1689797844650,
    "lastModifiedBy": "ppv91YxratjWnkJi"
  },
  "effects": [],
  "folder": null,
  "sort": 0,
  "flags": {},
  "_key": "!items!P2FMbG3nDuAXyedw"
}