{
  "_id": "UCD0iroXJa6ruLGr",
  "name": "Expanded Boon",
  "type": "feat",
  "img": "systems/pf1/icons/skills/green_13.jpg",
  "system": {
    "description": {
      "value": "<strong>Shaman Hex</strong><br/><br/><p>When a benefactor gains this hex, she chooses one of the following: ability checks, attack rolls, or skill checks. Instead of gaining an insight bonus on saving throws, any creature with a boon reservoir granted by the benefactor can spend 1 point as an immediate action to gain a +2 insight bonus on rolls or checks of the chosen kind until the start of its next turn. This hex can be chosen multiple times. Each time, it applies to a different roll or check. A benefactor must have the boon reservoir hex before choosing this hex.</p>",
      "unidentified": ""
    },
    "tags": [
      "Shaman",
      "Shaman Hex"
    ],
    "actions": [],
    "uses": {
      "per": null,
      "value": 0,
      "maxFormula": "",
      "autoDeductChargesCost": "1"
    },
    "attackNotes": [],
    "effectNotes": [],
    "changes": [],
    "changeFlags": {
      "loseDexToAC": false,
      "noEncumbrance": false,
      "mediumArmorFullSpeed": false,
      "heavyArmorFullSpeed": false
    },
    "contextNotes": [],
    "links": {
      "children": [],
      "charges": []
    },
    "tag": "",
    "useCustomTag": false,
    "armorProf": {
      "value": [],
      "custom": ""
    },
    "weaponProf": {
      "value": [],
      "custom": ""
    },
    "languages": {
      "value": [],
      "custom": ""
    },
    "flags": {
      "boolean": {},
      "dictionary": {}
    },
    "scriptCalls": [],
    "subType": "classFeat",
    "associations": {
      "classes": [
        "Shaman"
      ]
    },
    "showInQuickbar": false,
    "abilityType": "none",
    "crOffset": "",
    "disabled": false,
    "classSkills": {}
  },
  "ownership": {
    "default": 0
  },
  "_stats": {
    "systemId": "pf1",
    "systemVersion": "9.1",
    "coreVersion": "10.291",
    "createdTime": 1665428272138,
    "modifiedTime": 1689797848711,
    "lastModifiedBy": "ppv91YxratjWnkJi"
  },
  "effects": [],
  "folder": null,
  "sort": 0,
  "flags": {},
  "_key": "!items!UCD0iroXJa6ruLGr"
}