{
  "_id": "cKW8HBgtG9jbzkxd",
  "name": "Experience Across Ages (Ex)",
  "type": "feat",
  "img": "systems/pf1/icons/skills/weapon_39.jpg",
  "system": {
    "description": {
      "value": "<strong>Slayer Talent</strong><br/><br/><p>Samsaran only. Once per day, a samsaran slayer can draw upon insights from his previous lifetimes to help identify a foe or recall a key piece of information. As a swift action, the slayer can attempt a Knowledge check as if he had a number of ranks in the appropriate Knowledge skill equal to his slayer level. A slayer can use this talent one additional time per day for every 5 slayer levels he has.</p>",
      "unidentified": ""
    },
    "tags": [
      "Slayer",
      "Slayer Talent"
    ],
    "actions": [],
    "uses": {
      "per": null,
      "value": 0,
      "maxFormula": "",
      "autoDeductChargesCost": "1"
    },
    "attackNotes": [],
    "effectNotes": [],
    "changes": [],
    "changeFlags": {
      "loseDexToAC": false,
      "noEncumbrance": false,
      "mediumArmorFullSpeed": false,
      "heavyArmorFullSpeed": false
    },
    "contextNotes": [],
    "links": {
      "children": [],
      "charges": []
    },
    "tag": "",
    "useCustomTag": false,
    "armorProf": {
      "value": [],
      "custom": ""
    },
    "weaponProf": {
      "value": [],
      "custom": ""
    },
    "languages": {
      "value": [],
      "custom": ""
    },
    "flags": {
      "boolean": {},
      "dictionary": {}
    },
    "scriptCalls": [],
    "subType": "classFeat",
    "associations": {
      "classes": [
        "Slayer"
      ]
    },
    "showInQuickbar": false,
    "abilityType": "none",
    "crOffset": "",
    "disabled": false,
    "classSkills": {}
  },
  "ownership": {
    "default": 0
  },
  "_stats": {
    "systemId": "pf1",
    "systemVersion": "9.1",
    "coreVersion": "10.291",
    "createdTime": 1665428273462,
    "modifiedTime": 1689797853876,
    "lastModifiedBy": "ppv91YxratjWnkJi"
  },
  "effects": [],
  "folder": null,
  "sort": 0,
  "flags": {},
  "_key": "!items!cKW8HBgtG9jbzkxd"
}