{
  "_id": "4RezXoEPQJ6AjgXk",
  "name": "Faith",
  "type": "feat",
  "img": "systems/pf1/icons/skills/beast_04.jpg",
  "system": {
    "description": {
      "value": "<strong>Psychic Discipline</strong><br/><br/><p>Your belief in a higher power fuels your psychic abilities. Whether your mental abilities truly come to you as a divine gift or are simply enhanced by the power of your belief, none can say. In many ways, you resemble a divine caster, and prayers often factor into your casting of psychic spells.</p><p><b>Phrenic Pool Ability: </b>Wisdom</p><p><b>Bonus Spells: </b>bless (1st), spiritual weapon (4th), magic vestment (6th), guardian of faith (8th), commune (10th), psychic surgery (12th), greater scrying (14th), greater planar ally (16th), miracle (18th).</p><p><b>Discipline Powers: </b>Your powers serve to protect or cure you and your allies.</p>",
      "unidentified": ""
    },
    "tags": [
      "Psychic",
      "Psychic Discipline"
    ],
    "actions": [],
    "uses": {
      "per": null,
      "value": 0,
      "maxFormula": "",
      "autoDeductChargesCost": "1"
    },
    "attackNotes": [],
    "effectNotes": [],
    "changes": [],
    "changeFlags": {
      "loseDexToAC": false,
      "noEncumbrance": false,
      "mediumArmorFullSpeed": false,
      "heavyArmorFullSpeed": false
    },
    "contextNotes": [],
    "links": {
      "children": [],
      "charges": []
    },
    "tag": "",
    "useCustomTag": false,
    "armorProf": {
      "value": [],
      "custom": ""
    },
    "weaponProf": {
      "value": [],
      "custom": ""
    },
    "languages": {
      "value": [],
      "custom": ""
    },
    "flags": {
      "boolean": {},
      "dictionary": {}
    },
    "scriptCalls": [],
    "subType": "classFeat",
    "associations": {
      "classes": [
        "Psychic"
      ]
    },
    "showInQuickbar": false,
    "abilityType": "none",
    "crOffset": "",
    "disabled": false,
    "classSkills": {}
  },
  "ownership": {
    "default": 0
  },
  "_stats": {
    "systemId": "pf1",
    "systemVersion": "9.1",
    "coreVersion": "10.291",
    "createdTime": 1665428267575,
    "modifiedTime": 1689797826561,
    "lastModifiedBy": "ppv91YxratjWnkJi"
  },
  "effects": [],
  "folder": null,
  "sort": 0,
  "flags": {},
  "_key": "!items!4RezXoEPQJ6AjgXk"
}