{
  "_id": "kPg50PYW3AVEGK2p",
  "name": "Faithful (Achaekek)",
  "type": "feat",
  "img": "systems/pf1/icons/items/weapons/longbow.PNG",
  "system": {
    "description": {
      "value": "<strong>Ranger Combat Style</strong><br/><br/><p>If the ranger selects faithful (achaekek), he can choose from the following list whenever he gains a combat style feat: Double Slice, Exotic Weapon Proficiency (sawtooth sabre), Two-Weapon Feint, and Two-Weapon Fighting. At 6th level, he adds Improved Two-Weapon Feint and Two-Weapon Defense to the list. At 10th level, he adds Greater Two-Weapon Fighting and Two-Weapon Rend to the list.</p>",
      "unidentified": ""
    },
    "tags": [
      "Ranger",
      "Ranger Combat Style"
    ],
    "actions": [],
    "uses": {
      "per": null,
      "value": 0,
      "maxFormula": "",
      "autoDeductChargesCost": "1"
    },
    "attackNotes": [],
    "effectNotes": [],
    "changes": [],
    "changeFlags": {
      "loseDexToAC": false,
      "noEncumbrance": false,
      "mediumArmorFullSpeed": false,
      "heavyArmorFullSpeed": false
    },
    "contextNotes": [],
    "links": {
      "children": [],
      "charges": []
    },
    "tag": "",
    "useCustomTag": false,
    "armorProf": {
      "value": [],
      "custom": ""
    },
    "weaponProf": {
      "value": [],
      "custom": ""
    },
    "languages": {
      "value": [],
      "custom": ""
    },
    "flags": {
      "boolean": {},
      "dictionary": {}
    },
    "scriptCalls": [],
    "subType": "classFeat",
    "associations": {
      "classes": [
        "Ranger"
      ]
    },
    "showInQuickbar": false,
    "abilityType": "none",
    "crOffset": "",
    "disabled": false,
    "classSkills": {}
  },
  "ownership": {
    "default": 0
  },
  "_stats": {
    "systemId": "pf1",
    "systemVersion": "9.1",
    "coreVersion": "10.291",
    "createdTime": 1665428275168,
    "modifiedTime": 1689797860032,
    "lastModifiedBy": "ppv91YxratjWnkJi"
  },
  "effects": [],
  "folder": null,
  "sort": 0,
  "flags": {},
  "_key": "!items!kPg50PYW3AVEGK2p"
}