{
  "_id": "4QPrsjvULgoRRox6",
  "name": "Fasting",
  "type": "feat",
  "img": "systems/pf1/icons/items/equipment/gloves.jpg",
  "system": {
    "description": {
      "value": "<strong>Monk Vow</strong><br/><br/><p>The monk eats nothing but rice (or a similar bland, staple food) and drinks nothing but water. On certain days (usually once per month or on a religious holiday), he may eat a small portion of other simple, bland food to maintain proper nutrition. The monk cannot use tobacco, drugs, potions, alchemical items requiring eating or drinking, or any other thing that could be considered a food or beverage. A monk with this vow increases his ki pool by 1 ki point for every 6 monk levels (minimum +1).</p>",
      "unidentified": ""
    },
    "tags": [
      "Monk",
      "Monk Vow"
    ],
    "actions": [],
    "uses": {
      "per": null,
      "value": 0,
      "maxFormula": "",
      "autoDeductChargesCost": "1"
    },
    "attackNotes": [],
    "effectNotes": [],
    "changes": [],
    "changeFlags": {
      "loseDexToAC": false,
      "noEncumbrance": false,
      "mediumArmorFullSpeed": false,
      "heavyArmorFullSpeed": false
    },
    "contextNotes": [],
    "links": {
      "children": [],
      "charges": []
    },
    "tag": "",
    "useCustomTag": false,
    "armorProf": {
      "value": [],
      "custom": ""
    },
    "weaponProf": {
      "value": [],
      "custom": ""
    },
    "languages": {
      "value": [],
      "custom": ""
    },
    "flags": {
      "boolean": {},
      "dictionary": {}
    },
    "scriptCalls": [],
    "subType": "classFeat",
    "associations": {
      "classes": [
        "Monk"
      ]
    },
    "showInQuickbar": false,
    "abilityType": "none",
    "crOffset": "",
    "disabled": false,
    "classSkills": {}
  },
  "ownership": {
    "default": 0
  },
  "_stats": {
    "systemId": "pf1",
    "systemVersion": "9.1",
    "coreVersion": "10.291",
    "createdTime": 1665428267572,
    "modifiedTime": 1689797826530,
    "lastModifiedBy": "ppv91YxratjWnkJi"
  },
  "effects": [],
  "folder": null,
  "sort": 0,
  "flags": {},
  "_key": "!items!4QPrsjvULgoRRox6"
}