{
  "_id": "I3QwqQn2ScPR9LiT",
  "name": "Fear",
  "type": "feat",
  "img": "systems/pf1/icons/skills/shadow_17.jpg",
  "system": {
    "description": {
      "value": "<strong>Phantom Emotional Focus</strong><br/><br/><p>A phantom with this emotional focus suffered from overwhelming fear in life. As a phantom, it is able to channel that fear into a terrifying weapon. Fear phantoms are often horrifying to behold. Sometimes they appear as ghostly figures in tattered funeral garb or wrapped in chains or other bindings. Their features may be distorted into gaunt and haunting forms, making them seem more like ghosts or spectres. A miasma of livid gray swirling motes often surrounds their forms as they stalk their surroundings, seeking to bestow their terror on others.</p><p><b>Skills: </b>The phantom gains a number of ranks in Intimidate and Stealth equal to its number of Hit Dice. While confined in the spiritualist's consciousness, such a phantom grants the spiritualist Skill Focus in each of these skills.</p><p><b>Good Saves: </b>Reflex and Will.</p><p><b>Stealthy: </b>The phantom gains Stealthy as a bonus feat.</p><p><b>Horrifying Strike (Ex): </b>If the phantom hits a creature with a slam attack, that creature must succeed at a Will saving throw (DC = 10 + 1/2 the phantom's Hit Dice + the phantom's Charisma modifier) or be shaken for 1d4 rounds. Multiple attacks against the same creature do not cause the creature to become frightened. This is a mind-affecting fear effect.</p><p><b>Increase Fear (Su): </b>When the spiritualist reaches 7th level, as a swift action, the phantom can emit a 20-footradius aura that amplifies the fear conditions of enemies within it if they fail their Will saving throws (DC = 10 + 1/2 the phantom's Hit Dice + the phantom's Charisma modifier). A shaken enemy in the aura becomes frightened, a frightened creature becomes panicked, and a panicked creature cowers. This effect lasts either as long as the enemy stays within the aura and is under the condition of the initial fear effect, or for a number of rounds after it leaves the aura equal to 1/2 the phantom's Hit Dice, or until the end of the original fear effect's duration, whichever comes first. A creature that succeeds at the saving throw is immune to this effect from the same phantom for 24 hours. This is a mind-affecting fear effect. The phantom can use this ability in either ectoplasmic or incorporeal form.</p><p><b>Frightful Attack (Su): </b>When the spiritualist reaches 12th level, if the phantom hits with a slam attack, it can frighten those it hits instead of causing them to be shaken (the phantom chooses when it makes the attack). This is a mind-affecting fear effect.</p><p><b>Shelter Allies (Su): </b>When the spiritualist reaches 17th level, the phantom protects its allies from terror. Allies within the phantom's increase fear aura are immune to fear as long as they are within the aura. This ability also grants the phantom's spiritualist master immunity to fear as long as the phantom is not banished to the Ethereal Plane.</p>",
      "unidentified": ""
    },
    "tags": [
      "Spiritualist",
      "Phantom Emotional Focus"
    ],
    "actions": [],
    "uses": {
      "per": null,
      "value": 0,
      "maxFormula": "",
      "autoDeductChargesCost": "1"
    },
    "attackNotes": [],
    "effectNotes": [],
    "changes": [],
    "changeFlags": {
      "loseDexToAC": false,
      "noEncumbrance": false,
      "mediumArmorFullSpeed": false,
      "heavyArmorFullSpeed": false
    },
    "contextNotes": [],
    "links": {
      "children": [],
      "charges": []
    },
    "tag": "",
    "useCustomTag": false,
    "armorProf": {
      "value": [],
      "custom": ""
    },
    "weaponProf": {
      "value": [],
      "custom": ""
    },
    "languages": {
      "value": [],
      "custom": ""
    },
    "flags": {
      "boolean": {},
      "dictionary": {}
    },
    "scriptCalls": [],
    "subType": "classFeat",
    "associations": {
      "classes": [
        "Spiritualist"
      ]
    },
    "showInQuickbar": false,
    "abilityType": "none",
    "crOffset": "",
    "disabled": false,
    "classSkills": {}
  },
  "ownership": {
    "default": 0
  },
  "_stats": {
    "systemId": "pf1",
    "systemVersion": "9.1",
    "coreVersion": "10.291",
    "createdTime": 1665428269799,
    "modifiedTime": 1689797839122,
    "lastModifiedBy": "ppv91YxratjWnkJi"
  },
  "effects": [],
  "folder": null,
  "sort": 0,
  "flags": {},
  "_key": "!items!I3QwqQn2ScPR9LiT"
}