{
  "_id": "vZKTevNKXtkq4eiV",
  "name": "Ferocious Trample, Greater",
  "type": "feat",
  "img": "systems/pf1/icons/items/weapons/greataxe.png",
  "system": {
    "description": {
      "value": "<strong>Rage Power - Offensive</strong><br/><br/><p>A barbarian's mount can affect creatures up to its own size with its ferocious trample. In addition, it can make an overrun combat maneuver check as a free action against a creature that fails its Reflex save (or chooses not to save in order to take an attack of opportunity) against its trample. A barbarian must have the ferocious trample rage power to select this rage power. A barbarian must be at least 12th level to select this rage power.</p>",
      "unidentified": ""
    },
    "tags": [
      "Barbarian",
      "Rage Power - Offensive"
    ],
    "actions": [],
    "uses": {
      "per": null,
      "value": 0,
      "maxFormula": "",
      "autoDeductChargesCost": "1"
    },
    "attackNotes": [],
    "effectNotes": [],
    "changes": [],
    "changeFlags": {
      "loseDexToAC": false,
      "noEncumbrance": false,
      "mediumArmorFullSpeed": false,
      "heavyArmorFullSpeed": false
    },
    "contextNotes": [],
    "links": {
      "children": [],
      "charges": []
    },
    "tag": "",
    "useCustomTag": false,
    "armorProf": {
      "value": [],
      "custom": ""
    },
    "weaponProf": {
      "value": [],
      "custom": ""
    },
    "languages": {
      "value": [],
      "custom": ""
    },
    "flags": {
      "boolean": {},
      "dictionary": {}
    },
    "scriptCalls": [],
    "subType": "classFeat",
    "associations": {
      "classes": [
        "Barbarian"
      ]
    },
    "showInQuickbar": false,
    "abilityType": "none",
    "crOffset": "",
    "disabled": false,
    "classSkills": {}
  },
  "ownership": {
    "default": 0
  },
  "_stats": {
    "systemId": "pf1",
    "systemVersion": "9.1",
    "coreVersion": "10.291",
    "createdTime": 1665428277149,
    "modifiedTime": 1689797866639,
    "lastModifiedBy": "ppv91YxratjWnkJi"
  },
  "effects": [],
  "folder": null,
  "sort": 0,
  "flags": {},
  "_key": "!items!vZKTevNKXtkq4eiV"
}