{
  "_id": "BeEuypfpKJwenYBQ",
  "name": "Fighter's Stamina",
  "type": "feat",
  "img": "systems/pf1/icons/skills/yellow_37.jpg",
  "system": {
    "description": {
      "value": "<strong>Advanced Weapon Training</strong><br/><br/><p>The fighter gains Combat Stamina as a bonus feat, even when not wielding a weapon from the appropriate weapon group. If the fighter already has this feat, he gains Extra Stamina as a bonus feat instead.</p>",
      "unidentified": ""
    },
    "tags": [
      "Fighter",
      "Advanced Weapon Training"
    ],
    "actions": [],
    "uses": {
      "per": null,
      "value": 0,
      "maxFormula": "",
      "autoDeductChargesCost": "1"
    },
    "attackNotes": [],
    "effectNotes": [],
    "changes": [],
    "changeFlags": {
      "loseDexToAC": false,
      "noEncumbrance": false,
      "mediumArmorFullSpeed": false,
      "heavyArmorFullSpeed": false
    },
    "contextNotes": [],
    "links": {
      "children": [],
      "charges": []
    },
    "tag": "",
    "useCustomTag": false,
    "armorProf": {
      "value": [],
      "custom": ""
    },
    "weaponProf": {
      "value": [],
      "custom": ""
    },
    "languages": {
      "value": [],
      "custom": ""
    },
    "flags": {
      "boolean": {},
      "dictionary": {}
    },
    "scriptCalls": [],
    "subType": "classFeat",
    "associations": {
      "classes": [
        "Fighter"
      ]
    },
    "showInQuickbar": false,
    "abilityType": "none",
    "crOffset": "",
    "disabled": false,
    "classSkills": {}
  },
  "ownership": {
    "default": 0
  },
  "_stats": {
    "systemId": "pf1",
    "systemVersion": "9.1",
    "coreVersion": "10.291",
    "createdTime": 1665428268736,
    "modifiedTime": 1689797834081,
    "lastModifiedBy": "ppv91YxratjWnkJi"
  },
  "effects": [],
  "folder": null,
  "sort": 0,
  "flags": {},
  "_key": "!items!BeEuypfpKJwenYBQ"
}