{
  "_id": "qU5e19HyYnnNIHGN",
  "name": "Figurine",
  "type": "feat",
  "img": "systems/pf1/icons/items/inventory/book-purple.jpg",
  "system": {
    "description": {
      "value": "<strong>Occultist Sacred Implement</strong><br/><br/><p><b>Deity </b>Rovagug; <b>Implement </b>figurine; <b>Opposition School </b>abjuration</p><p><i>Footsteps of the Rough Beast (Su): </i>You can expend 1 point of mental focus as a move action to cause the ground in a 5-foot-radius burst centered on you to crumble and rupture, becoming difficult terrain. If you remain stationary, in subsequent rounds you can concentrate on this area as though concentrating on a spell by expending 1 additional mental focus each round. As long as you maintain concentration; the radius of the difficult terrain increases by 5 feet (maximum 30-foot radius) each round. You immediately cease concentrating if you move from your originating location. Difficult terrain created this way remains for 24 hours before returning to its original state.</p>",
      "unidentified": ""
    },
    "tags": [
      "Occultist",
      "Occultist Sacred Implement"
    ],
    "actions": [],
    "uses": {
      "per": null,
      "value": 0,
      "maxFormula": "",
      "autoDeductChargesCost": "1"
    },
    "attackNotes": [],
    "effectNotes": [],
    "changes": [],
    "changeFlags": {
      "loseDexToAC": false,
      "noEncumbrance": false,
      "mediumArmorFullSpeed": false,
      "heavyArmorFullSpeed": false
    },
    "contextNotes": [],
    "links": {
      "children": [],
      "charges": []
    },
    "tag": "",
    "useCustomTag": false,
    "armorProf": {
      "value": [],
      "custom": ""
    },
    "weaponProf": {
      "value": [],
      "custom": ""
    },
    "languages": {
      "value": [],
      "custom": ""
    },
    "flags": {
      "boolean": {},
      "dictionary": {}
    },
    "scriptCalls": [],
    "subType": "classFeat",
    "associations": {
      "classes": [
        "Occultist"
      ]
    },
    "showInQuickbar": false,
    "abilityType": "none",
    "crOffset": "",
    "disabled": false,
    "classSkills": {}
  },
  "ownership": {
    "default": 0
  },
  "_stats": {
    "systemId": "pf1",
    "systemVersion": "9.1",
    "coreVersion": "10.291",
    "createdTime": 1665428275999,
    "modifiedTime": 1689797863134,
    "lastModifiedBy": "ppv91YxratjWnkJi"
  },
  "effects": [],
  "folder": null,
  "sort": 0,
  "flags": {},
  "_key": "!items!qU5e19HyYnnNIHGN"
}