{
  "_id": "VhRz8sgOa8FD9JGM",
  "name": "Firework Trap*",
  "type": "feat",
  "img": "systems/pf1/icons/items/weapons/longbow.PNG",
  "system": {
    "description": {
      "value": "<strong>Ranger Trap</strong><br/><br/><p><b>Effect </b>A ranger can add this augmentation to a fire or smoke trap. The trap explodes in a flash of colored lights. All creatures within 10 feet must succeed at a saving throw (Fortitude if an extraordinary firework trap, Will if supernatural) or be blinded for 1d4+1 rounds. If this is an extraordinary trap, the ranger must use an alchemical weapon when setting the trap, such as flash powderUE or a fireworkUE.</p>",
      "unidentified": ""
    },
    "tags": [
      "Ranger",
      "Ranger Trap"
    ],
    "actions": [],
    "uses": {
      "per": null,
      "value": 0,
      "maxFormula": "",
      "autoDeductChargesCost": "1"
    },
    "attackNotes": [],
    "effectNotes": [],
    "changes": [],
    "changeFlags": {
      "loseDexToAC": false,
      "noEncumbrance": false,
      "mediumArmorFullSpeed": false,
      "heavyArmorFullSpeed": false
    },
    "contextNotes": [],
    "links": {
      "children": [],
      "charges": []
    },
    "tag": "",
    "useCustomTag": false,
    "armorProf": {
      "value": [],
      "custom": ""
    },
    "weaponProf": {
      "value": [],
      "custom": ""
    },
    "languages": {
      "value": [],
      "custom": ""
    },
    "flags": {
      "boolean": {},
      "dictionary": {}
    },
    "scriptCalls": [],
    "subType": "classFeat",
    "associations": {
      "classes": [
        "Ranger"
      ]
    },
    "showInQuickbar": false,
    "abilityType": "none",
    "crOffset": "",
    "disabled": false,
    "classSkills": {}
  },
  "ownership": {
    "default": 0
  },
  "_stats": {
    "systemId": "pf1",
    "systemVersion": "9.1",
    "coreVersion": "10.291",
    "createdTime": 1665428272281,
    "modifiedTime": 1689797849531,
    "lastModifiedBy": "ppv91YxratjWnkJi"
  },
  "effects": [],
  "folder": null,
  "sort": 0,
  "flags": {},
  "_key": "!items!VhRz8sgOa8FD9JGM"
}