{
  "_id": "mu9sNty2oCRG39uT",
  "name": "Fire Steed",
  "type": "feat",
  "img": "systems/pf1/icons/skills/violet_28.jpg",
  "system": {
    "description": {
      "value": "<strong>Kineticist Wild Talent - Utility</strong><br/><br/><p>Element fire; Type utility (Sp); Level 2; Burn 0</p><p>You imbue a willing animal, magical beast, or other creature that can serve as a suitable mount with elemental power from the Plane of Fire, wreathing it in flames for 1 round. You can accept 1 point of burn to increase the duration to 1 round per kineticist level you have. The mount gains fire resistance 10 and its speed increases by 10 feet. Creatures other than you who touch the mount, attack the mount with a natural weapon or unarmed strike, or attempt to mount the creature take 1d6 points of fire damage every round they are in contact with the mount.</p>",
      "unidentified": ""
    },
    "tags": [
      "Kineticist",
      "Kineticist Wild Talent - Utility"
    ],
    "actions": [],
    "uses": {
      "per": null,
      "value": 0,
      "maxFormula": "",
      "autoDeductChargesCost": "1"
    },
    "attackNotes": [],
    "effectNotes": [],
    "changes": [],
    "changeFlags": {
      "loseDexToAC": false,
      "noEncumbrance": false,
      "mediumArmorFullSpeed": false,
      "heavyArmorFullSpeed": false
    },
    "contextNotes": [],
    "links": {
      "children": [],
      "charges": []
    },
    "tag": "",
    "useCustomTag": false,
    "armorProf": {
      "value": [],
      "custom": ""
    },
    "weaponProf": {
      "value": [],
      "custom": ""
    },
    "languages": {
      "value": [],
      "custom": ""
    },
    "flags": {
      "boolean": {},
      "dictionary": {}
    },
    "scriptCalls": [],
    "subType": "classFeat",
    "associations": {
      "classes": [
        "Kineticist"
      ]
    },
    "showInQuickbar": false,
    "abilityType": "none",
    "crOffset": "",
    "disabled": false,
    "classSkills": {}
  },
  "ownership": {
    "default": 0
  },
  "_stats": {
    "systemId": "pf1",
    "systemVersion": "9.1",
    "coreVersion": "10.291",
    "createdTime": 1665428275376,
    "modifiedTime": 1689797861119,
    "lastModifiedBy": "ppv91YxratjWnkJi"
  },
  "effects": [],
  "folder": null,
  "sort": 0,
  "flags": {},
  "_key": "!items!mu9sNty2oCRG39uT"
}