{
  "_id": "jTzhibyAtzkMHRDF",
  "name": "Flowing Step",
  "type": "feat",
  "img": "systems/pf1/icons/skills/red_09.jpg",
  "system": {
    "description": {
      "value": "<strong>Oracle Elemental Mystery Power</strong><br/><br/><p>Fire's hunger and water's flow grant you swiftness and elegance, and you move with breathtaking purpose and grace. You can increase your base speed by 10 feet. At 7th level, while using this ability, you can use Acrobatics to move at full speed through threatened squares or other creatures' squares without increasing the DC by 10. At 11th level, while using this ability, you can walk on liquid as if using water walk, and you are immune to damage caused by proximity to (but not immersion in) lava, magma, and similarly heated stone. You can use this ability for 1 hour per day per oracle level. This duration does not need to be consecutive, but it must be spent in 1-hour increments. Oracles with the lame oracle curse cannot select this revelation.</p>",
      "unidentified": ""
    },
    "tags": [
      "Oracle",
      "Oracle Elemental Mystery Power"
    ],
    "actions": [],
    "uses": {
      "per": null,
      "value": 0,
      "maxFormula": "",
      "autoDeductChargesCost": "1"
    },
    "attackNotes": [],
    "effectNotes": [],
    "changes": [],
    "changeFlags": {
      "loseDexToAC": false,
      "noEncumbrance": false,
      "mediumArmorFullSpeed": false,
      "heavyArmorFullSpeed": false
    },
    "contextNotes": [],
    "links": {
      "children": [],
      "charges": []
    },
    "tag": "",
    "useCustomTag": false,
    "armorProf": {
      "value": [],
      "custom": ""
    },
    "weaponProf": {
      "value": [],
      "custom": ""
    },
    "languages": {
      "value": [],
      "custom": ""
    },
    "flags": {
      "boolean": {},
      "dictionary": {}
    },
    "scriptCalls": [],
    "subType": "classFeat",
    "associations": {
      "classes": [
        "Oracle"
      ]
    },
    "showInQuickbar": false,
    "abilityType": "none",
    "crOffset": "",
    "disabled": false,
    "classSkills": {}
  },
  "ownership": {
    "default": 0
  },
  "_stats": {
    "systemId": "pf1",
    "systemVersion": "9.1",
    "coreVersion": "10.291",
    "createdTime": 1665428274739,
    "modifiedTime": 1689797859073,
    "lastModifiedBy": "ppv91YxratjWnkJi"
  },
  "effects": [],
  "folder": null,
  "sort": 0,
  "flags": {},
  "_key": "!items!jTzhibyAtzkMHRDF"
}