{
  "_id": "Fgg7MxaixbwNtHFL",
  "name": "Flurrying Arm",
  "type": "feat",
  "img": "systems/pf1/icons/spells/enchant-magenta-3.jpg",
  "system": {
    "description": {
      "value": "<strong>Magus Jistkan Artificer Arcana</strong><br/><br/><p>A Jistkan artificer can improve his golem arm to attack faster. He gains the flurry of blows monk class ability, treating his class level as his monk level. A Jistkan artificer makes only one additional attack when he uses flurry of blows. The magus must be at least 11th level to select this arcana.</p>",
      "unidentified": ""
    },
    "tags": [
      "Magus",
      "Magus Jistkan Artificer Arcana"
    ],
    "actions": [],
    "uses": {
      "per": null,
      "value": 0,
      "maxFormula": "",
      "autoDeductChargesCost": "1"
    },
    "attackNotes": [],
    "effectNotes": [],
    "changes": [],
    "changeFlags": {
      "loseDexToAC": false,
      "noEncumbrance": false,
      "mediumArmorFullSpeed": false,
      "heavyArmorFullSpeed": false
    },
    "contextNotes": [],
    "links": {
      "children": [],
      "charges": []
    },
    "tag": "",
    "useCustomTag": false,
    "armorProf": {
      "value": [],
      "custom": ""
    },
    "weaponProf": {
      "value": [],
      "custom": ""
    },
    "languages": {
      "value": [],
      "custom": ""
    },
    "flags": {
      "boolean": {},
      "dictionary": {}
    },
    "scriptCalls": [],
    "subType": "classFeat",
    "associations": {
      "classes": [
        "Magus"
      ]
    },
    "showInQuickbar": false,
    "abilityType": "none",
    "crOffset": "",
    "disabled": false,
    "classSkills": {}
  },
  "ownership": {
    "default": 0
  },
  "_stats": {
    "systemId": "pf1",
    "systemVersion": "9.1",
    "coreVersion": "10.291",
    "createdTime": 1665428269328,
    "modifiedTime": 1689797837086,
    "lastModifiedBy": "ppv91YxratjWnkJi"
  },
  "effects": [],
  "folder": null,
  "sort": 0,
  "flags": {},
  "_key": "!items!Fgg7MxaixbwNtHFL"
}