{
  "_id": "7UySIKAQVrhYDRgB",
  "name": "Foe Collision",
  "type": "feat",
  "img": "systems/pf1/icons/skills/violet_07.jpg",
  "system": {
    "description": {
      "value": "<strong>Vigilante Talent - Hidden Strike</strong><br/><br/><p>The vigilante can shove one of his foes into another. When the vigilante deals hidden strike damage to a corporeal foe with a melee attack, he can also deal an amount of nonlethal damage equal to his reduced hidden strike damage to an opponent adjacent to the first (even if the second opponent is out of his reach). The damage is bludgeoning damage, and if the colliding foe has any natural attacks, the damage is also considered magic, evil, or any other type of damage the natural attack deals. Unlike normal vigilante talents that affect hidden strikes, this vigilante talent applies in all cases when the target is denied its Dexterity bonus to AC. Only a stalker vigilante can select this talent.</p>",
      "unidentified": ""
    },
    "tags": [
      "Vigilante",
      "Vigilante Talent - Hidden Strike"
    ],
    "actions": [],
    "uses": {
      "per": null,
      "value": 0,
      "maxFormula": "",
      "autoDeductChargesCost": "1"
    },
    "attackNotes": [],
    "effectNotes": [],
    "changes": [],
    "changeFlags": {
      "loseDexToAC": false,
      "noEncumbrance": false,
      "mediumArmorFullSpeed": false,
      "heavyArmorFullSpeed": false
    },
    "contextNotes": [],
    "links": {
      "children": [],
      "charges": []
    },
    "tag": "",
    "useCustomTag": false,
    "armorProf": {
      "value": [],
      "custom": ""
    },
    "weaponProf": {
      "value": [],
      "custom": ""
    },
    "languages": {
      "value": [],
      "custom": ""
    },
    "flags": {
      "boolean": {},
      "dictionary": {}
    },
    "scriptCalls": [],
    "subType": "classFeat",
    "associations": {
      "classes": [
        "Vigilante"
      ]
    },
    "showInQuickbar": false,
    "abilityType": "none",
    "crOffset": "",
    "disabled": false,
    "classSkills": {}
  },
  "ownership": {
    "default": 0
  },
  "_stats": {
    "systemId": "pf1",
    "systemVersion": "9.1",
    "coreVersion": "10.291",
    "createdTime": 1665428268093,
    "modifiedTime": 1689797829713,
    "lastModifiedBy": "ppv91YxratjWnkJi"
  },
  "effects": [],
  "folder": null,
  "sort": 0,
  "flags": {},
  "_key": "!items!7UySIKAQVrhYDRgB"
}