{
  "_id": "SBDTm8xXcHbNMO4Y",
  "name": "Fragmentation",
  "type": "feat",
  "img": "systems/pf1/icons/skills/violet_28.jpg",
  "system": {
    "description": {
      "value": "<strong>Kineticist Wild Talent - Infusion</strong><br/><br/><p>Element earth, water; Type form infusion; Level 7; Burn 4</p><p>Prerequisite extended range</p><p>Associated Blasts earth, ice, metal</p><p>Saving Throw none or Reflex half; see text</p><p>You throw a volatile sphere of solid matter that shatters into countless shards. Attempt a ranged attack roll against a target within 120 feet. If you hit, the target takes your kinetic blast damage with no saving throw. All other creatures and objects within a 20-foot burst take half the normal amount of damage and can attempt a Reflex save to reduce that damage by half again. If the attack misses its target, the blast has no effect. The saving throw DC is Dexterity-based.</p>",
      "unidentified": ""
    },
    "tags": [
      "Kineticist",
      "Kineticist Wild Talent - Infusion"
    ],
    "actions": [],
    "uses": {
      "per": null,
      "value": 0,
      "maxFormula": "",
      "autoDeductChargesCost": "1"
    },
    "attackNotes": [],
    "effectNotes": [],
    "changes": [],
    "changeFlags": {
      "loseDexToAC": false,
      "noEncumbrance": false,
      "mediumArmorFullSpeed": false,
      "heavyArmorFullSpeed": false
    },
    "contextNotes": [],
    "links": {
      "children": [],
      "charges": []
    },
    "tag": "",
    "useCustomTag": false,
    "armorProf": {
      "value": [],
      "custom": ""
    },
    "weaponProf": {
      "value": [],
      "custom": ""
    },
    "languages": {
      "value": [],
      "custom": ""
    },
    "flags": {
      "boolean": {},
      "dictionary": {}
    },
    "scriptCalls": [],
    "subType": "classFeat",
    "associations": {
      "classes": [
        "Kineticist"
      ]
    },
    "showInQuickbar": false,
    "abilityType": "none",
    "crOffset": "",
    "disabled": false,
    "classSkills": {}
  },
  "ownership": {
    "default": 0
  },
  "_stats": {
    "systemId": "pf1",
    "systemVersion": "9.1",
    "coreVersion": "10.291",
    "createdTime": 1665428271629,
    "modifiedTime": 1689797847015,
    "lastModifiedBy": "ppv91YxratjWnkJi"
  },
  "effects": [],
  "folder": null,
  "sort": 0,
  "flags": {},
  "_key": "!items!SBDTm8xXcHbNMO4Y"
}