{
  "_id": "Zkr4iLuHqYDY0oaV",
  "name": "Freezing Trap",
  "type": "feat",
  "img": "systems/pf1/icons/items/weapons/longbow.PNG",
  "system": {
    "description": {
      "value": "<strong>Ranger Trap</strong><br/><br/><p><b>Effect </b>The trap creates a burst of ice that damages and encases the triggering creature. The creature takes 1d3 points of cold damage + 1/4 the ranger's level and is entangled and stuck to the ground, similar to the effect of a tanglefoot bag. A successful Reflex save halves the damage and means the creature is not stuck to the floor by the ice. The ice is 1 inch thick per 2 Hit Dice of the ranger (minimum 1), has hardness 0 and 3 hit points per inch of thickness, and melts in 2d4 rounds.</p>",
      "unidentified": ""
    },
    "tags": [
      "Ranger",
      "Ranger Trap"
    ],
    "actions": [],
    "uses": {
      "per": null,
      "value": 0,
      "maxFormula": "",
      "autoDeductChargesCost": "1"
    },
    "attackNotes": [],
    "effectNotes": [],
    "changes": [],
    "changeFlags": {
      "loseDexToAC": false,
      "noEncumbrance": false,
      "mediumArmorFullSpeed": false,
      "heavyArmorFullSpeed": false
    },
    "contextNotes": [],
    "links": {
      "children": [],
      "charges": []
    },
    "tag": "",
    "useCustomTag": false,
    "armorProf": {
      "value": [],
      "custom": ""
    },
    "weaponProf": {
      "value": [],
      "custom": ""
    },
    "languages": {
      "value": [],
      "custom": ""
    },
    "flags": {
      "boolean": {},
      "dictionary": {}
    },
    "scriptCalls": [],
    "subType": "classFeat",
    "associations": {
      "classes": [
        "Ranger"
      ]
    },
    "showInQuickbar": false,
    "abilityType": "none",
    "crOffset": "",
    "disabled": false,
    "classSkills": {}
  },
  "ownership": {
    "default": 0
  },
  "_stats": {
    "systemId": "pf1",
    "systemVersion": "9.1",
    "coreVersion": "10.291",
    "createdTime": 1665428272909,
    "modifiedTime": 1689797851908,
    "lastModifiedBy": "ppv91YxratjWnkJi"
  },
  "effects": [],
  "folder": null,
  "sort": 0,
  "flags": {},
  "_key": "!items!Zkr4iLuHqYDY0oaV"
}