{
  "_id": "qhnxtoFMCuWR2rPB",
  "name": "Frightful Countenance",
  "type": "feat",
  "img": "systems/pf1/icons/skills/blue_15.jpg",
  "system": {
    "description": {
      "value": "<strong>Mesmerist Trick</strong><br/><br/><p>The subject's appearance changes into that which frightens an attacker to the core. The mindwyrm mesmer can trigger this trick when the subject is targeted by an attack or by a spell that requires an attack roll. The attacker must succeed at a Will save or the attack misses and the attacker immediately becomes shaken for 1d4 rounds. This is a mind-affecting fear effect.</p>",
      "unidentified": ""
    },
    "tags": [
      "Mesmerist",
      "Mesmerist Trick"
    ],
    "actions": [],
    "uses": {
      "per": null,
      "value": 0,
      "maxFormula": "",
      "autoDeductChargesCost": "1"
    },
    "attackNotes": [],
    "effectNotes": [],
    "changes": [],
    "changeFlags": {
      "loseDexToAC": false,
      "noEncumbrance": false,
      "mediumArmorFullSpeed": false,
      "heavyArmorFullSpeed": false
    },
    "contextNotes": [],
    "links": {
      "children": [],
      "charges": []
    },
    "tag": "",
    "useCustomTag": false,
    "armorProf": {
      "value": [],
      "custom": ""
    },
    "weaponProf": {
      "value": [],
      "custom": ""
    },
    "languages": {
      "value": [],
      "custom": ""
    },
    "flags": {
      "boolean": {},
      "dictionary": {}
    },
    "scriptCalls": [],
    "subType": "classFeat",
    "associations": {
      "classes": [
        "Mesmerist"
      ]
    },
    "showInQuickbar": false,
    "abilityType": "none",
    "crOffset": "",
    "disabled": false,
    "classSkills": {}
  },
  "ownership": {
    "default": 0
  },
  "_stats": {
    "systemId": "pf1",
    "systemVersion": "9.1",
    "coreVersion": "10.291",
    "createdTime": 1665428276398,
    "modifiedTime": 1689797863754,
    "lastModifiedBy": "ppv91YxratjWnkJi"
  },
  "effects": [],
  "folder": null,
  "sort": 0,
  "flags": {},
  "_key": "!items!qhnxtoFMCuWR2rPB"
}