{
  "_id": "AP7An88KSknjZbgN",
  "name": "Frog Domain",
  "type": "feat",
  "img": "systems/pf1/icons/spells/leaf-jade-3.jpg",
  "system": {
    "description": {
      "value": "<strong>Druid Domain</strong><br/><br/><p><b>Granted Powers: </b>You venerate the elder amphibians that first brought life to land.</p><p><b>Domain Spells: </b>1st-jump, 2nd-delay poison, 3rd-lily pad stride, 4th-shout, 5th-blessing of the salamander, 6th-confusion, 7th-animal shapes (amphibians only), 8th-greater shout, 9th-summon froghemoth.</p>",
      "unidentified": ""
    },
    "tags": [
      "Druid",
      "Druid Domain"
    ],
    "actions": [],
    "uses": {
      "per": null,
      "value": 0,
      "maxFormula": "",
      "autoDeductChargesCost": "1"
    },
    "attackNotes": [],
    "effectNotes": [],
    "changes": [],
    "changeFlags": {
      "loseDexToAC": false,
      "noEncumbrance": false,
      "mediumArmorFullSpeed": false,
      "heavyArmorFullSpeed": false
    },
    "contextNotes": [],
    "links": {
      "children": [],
      "charges": []
    },
    "tag": "",
    "useCustomTag": false,
    "armorProf": {
      "value": [],
      "custom": ""
    },
    "weaponProf": {
      "value": [],
      "custom": ""
    },
    "languages": {
      "value": [],
      "custom": ""
    },
    "flags": {
      "boolean": {},
      "dictionary": {}
    },
    "scriptCalls": [],
    "subType": "classFeat",
    "associations": {
      "classes": [
        "Druid"
      ]
    },
    "showInQuickbar": false,
    "abilityType": "none",
    "crOffset": "",
    "disabled": false,
    "classSkills": {}
  },
  "ownership": {
    "default": 0
  },
  "_stats": {
    "systemId": "pf1",
    "systemVersion": "9.1",
    "coreVersion": "10.291",
    "createdTime": 1665428268631,
    "modifiedTime": 1689797832684,
    "lastModifiedBy": "ppv91YxratjWnkJi"
  },
  "effects": [],
  "folder": null,
  "sort": 0,
  "flags": {},
  "_key": "!items!AP7An88KSknjZbgN"
}