{
  "_id": "IZnhatszxIrQClm0",
  "name": "Fugue de Rue d'Auseil",
  "type": "feat",
  "img": "systems/pf1/icons/items/inventory/lute.jpg",
  "system": {
    "description": {
      "value": "<strong>Bard - Masterpieces</strong><br/><br/><p>Your music provides a bastion that hedges out horrors and fiends.</p><p>Prerequisite: Perform (string instruments) 15 ranks.</p><p>Cost: Feat or 6th-level bard spell known.</p><p>Effect: This piece of music combines two discordant melodies: one that represents humanity, and another that represents the unsettling horror of the places between the stars. When you activate this performance, you create a hemispherical field that hedges out outsiders, aberrations, and undead. When you begin this performance, roll a Perform (string instruments) check; the radius of the hemisphere may be any size, measured in feet, up to the result of your check.</p><p>This effect can be used only defensively. Forcing the hemispherical barrier against creatures that the effect keeps at bay immediately collapses the barrier.</p><p>Use: 1 bardic performance round per minute.</p><p>Action: 1 full round.</p>",
      "unidentified": ""
    },
    "tags": [
      "Bard",
      "Bard - Masterpieces"
    ],
    "actions": [],
    "uses": {
      "per": null,
      "value": 0,
      "maxFormula": "",
      "autoDeductChargesCost": "1"
    },
    "attackNotes": [],
    "effectNotes": [],
    "changes": [],
    "changeFlags": {
      "loseDexToAC": false,
      "noEncumbrance": false,
      "mediumArmorFullSpeed": false,
      "heavyArmorFullSpeed": false
    },
    "contextNotes": [],
    "links": {
      "children": [],
      "charges": []
    },
    "tag": "",
    "useCustomTag": false,
    "armorProf": {
      "value": [],
      "custom": ""
    },
    "weaponProf": {
      "value": [],
      "custom": ""
    },
    "languages": {
      "value": [],
      "custom": ""
    },
    "flags": {
      "boolean": {},
      "dictionary": {}
    },
    "scriptCalls": [],
    "subType": "classFeat",
    "associations": {
      "classes": [
        "Bard"
      ]
    },
    "showInQuickbar": false,
    "abilityType": "none",
    "crOffset": "",
    "disabled": false,
    "classSkills": {}
  },
  "ownership": {
    "default": 0
  },
  "_stats": {
    "systemId": "pf1",
    "systemVersion": "9.1",
    "coreVersion": "10.291",
    "createdTime": 1665428269846,
    "modifiedTime": 1689797839471,
    "lastModifiedBy": "ppv91YxratjWnkJi"
  },
  "effects": [],
  "folder": null,
  "sort": 0,
  "flags": {},
  "_key": "!items!IZnhatszxIrQClm0"
}