{
  "_id": "Cthivw332Rt5CODy",
  "name": "Gaze",
  "type": "feat",
  "img": "systems/pf1/icons/skills/red_12.jpg",
  "system": {
    "description": {
      "value": "<strong>Bloodrager - Bloodline Powers</strong><br/><br/><p>At 1st level, you can harness the power of the medusa through your gaze. As a standard action, choose a creature within your line of sight who is within 30 feet of you. The creature must succeed at a Fortitude saving throw or have its speed halved for a number of rounds equal to your Constitution modifier (minimum 1 round). The DC of this save is equal to 10 + half your bloodrager level + your Constitution modifier.</p>",
      "unidentified": ""
    },
    "tags": [
      "Bloodrager",
      "Bloodrager - Bloodline Powers"
    ],
    "actions": [],
    "uses": {
      "per": null,
      "value": 0,
      "maxFormula": "",
      "autoDeductChargesCost": "1"
    },
    "attackNotes": [],
    "effectNotes": [],
    "changes": [],
    "changeFlags": {
      "loseDexToAC": false,
      "noEncumbrance": false,
      "mediumArmorFullSpeed": false,
      "heavyArmorFullSpeed": false
    },
    "contextNotes": [],
    "links": {
      "children": [],
      "charges": []
    },
    "tag": "",
    "useCustomTag": false,
    "armorProf": {
      "value": [],
      "custom": ""
    },
    "weaponProf": {
      "value": [],
      "custom": ""
    },
    "languages": {
      "value": [],
      "custom": ""
    },
    "flags": {
      "boolean": {},
      "dictionary": {}
    },
    "scriptCalls": [],
    "subType": "classFeat",
    "associations": {
      "classes": [
        "Bloodrager"
      ]
    },
    "showInQuickbar": false,
    "abilityType": "none",
    "crOffset": "",
    "disabled": false,
    "classSkills": {}
  },
  "ownership": {
    "default": 0
  },
  "_stats": {
    "systemId": "pf1",
    "systemVersion": "9.1",
    "coreVersion": "10.291",
    "createdTime": 1665428268845,
    "modifiedTime": 1689797835092,
    "lastModifiedBy": "ppv91YxratjWnkJi"
  },
  "effects": [],
  "folder": null,
  "sort": 0,
  "flags": {},
  "_key": "!items!Cthivw332Rt5CODy"
}