{
  "_id": "3hADTV6nVwSKnUSL",
  "name": "Good",
  "type": "feat",
  "img": "systems/pf1/icons/skills/yellow_21.jpg",
  "system": {
    "description": {
      "value": "<strong>Warpriest Blessing</strong><br/><br/><p><b>Deities: </b>Cayden Cailean, Desna, Erastil, Iomedae, Sarenrae, Shelyn, Torag.</p><p><b>Holy Strike (minor): </b>At 1st level, you can touch one weapon and bless it with the power of purity and goodness. For 1 minute, this weapon glows green, white, or yellow-gold and deals an additional 1d6 points of damage against evil creatures. During this time, it's treated as good for the purposes of overcoming damage reduction. This additional damage doesn't stack with the additional damage from the holy weapon special ability.</p><p><b>Battle Companion (major): </b>At 10th level, you can summon a battle companion. This ability functions as summon monster IV with a duration of 1 minute, but for only a good outsider or an animal with the celestial creature simple template. This ability can summon only one creature, regardless of the list used. For every 2 levels beyond 10th, the level of the summon monster spell increases by 1 (to a maximum of summon monster IX at 20th level).</p>",
      "unidentified": ""
    },
    "tags": [
      "Warpriest",
      "Warpriest Blessing"
    ],
    "actions": [],
    "uses": {
      "per": null,
      "value": 0,
      "maxFormula": "",
      "autoDeductChargesCost": "1"
    },
    "attackNotes": [],
    "effectNotes": [],
    "changes": [],
    "changeFlags": {
      "loseDexToAC": false,
      "noEncumbrance": false,
      "mediumArmorFullSpeed": false,
      "heavyArmorFullSpeed": false
    },
    "contextNotes": [],
    "links": {
      "children": [],
      "charges": []
    },
    "tag": "",
    "useCustomTag": false,
    "armorProf": {
      "value": [],
      "custom": ""
    },
    "weaponProf": {
      "value": [],
      "custom": ""
    },
    "languages": {
      "value": [],
      "custom": ""
    },
    "flags": {
      "boolean": {},
      "dictionary": {}
    },
    "scriptCalls": [],
    "subType": "classFeat",
    "associations": {
      "classes": [
        "Warpriest"
      ]
    },
    "showInQuickbar": false,
    "abilityType": "none",
    "crOffset": "",
    "disabled": false,
    "classSkills": {}
  },
  "ownership": {
    "default": 0
  },
  "_stats": {
    "systemId": "pf1",
    "systemVersion": "9.1",
    "coreVersion": "10.291",
    "createdTime": 1665428267523,
    "modifiedTime": 1689797826103,
    "lastModifiedBy": "ppv91YxratjWnkJi"
  },
  "effects": [],
  "folder": null,
  "sort": 0,
  "flags": {},
  "_key": "!items!3hADTV6nVwSKnUSL"
}