{
  "_id": "a0O42hzUJKBRqtBM",
  "name": "Good",
  "type": "feat",
  "img": "systems/pf1/icons/items/inventory/badge-cross.jpg",
  "system": {
    "description": {
      "value": "<strong>Cleric Domain</strong><br/><br/><p><b>Deities: </b>Aegirran, Aesocar, Andoletta, Angradd, Apsu, Arqueros, Arshea, Ashava, Benorus, Bergelmir, Bes, Bharnarol, Black Butterfly, Bolka, Cayden Cailean, Cernunnos, Chadali, Chaldira, Chucaro, Dalenydra, Damerrich, Desna, Easivra, Eldas, Elion, Erastil, Eritrice, Falayna, Findeladlara, Folgrit, Ghenshau, Gruhastha, Grundinnar, Halcamora, Hathor, Hembad, Immonhiel, Iomedae, Irez, Isis, Jaidi, Jaidz, Jalaijatali, Kazutal, Kelinahat, Kelksiomides, Keltheald, Ketephys, Khepri, Kofusachi, Korada, Kroina, Kurgess, Lalaci, Lorris, Lymnieris, Lythertida, Marishi, Mazludeh, Milani, Myr, Neith, Neshen, Olheon, Omrataji, Ondisso, Osiris, Picoperi, Pulura, Qi Zhong, Ragathiel, Reymenda, Rowdrosh, Sarenrae, Selket, Seramaydiel, Shei, Shelyn, Shelyn (pre-Earthfall), Shizuru, Sinashakti, Skode, Skrymir, Smiad, Soralyon, Svarozic, Tanagaar, Thisamet, Tolc, Torag, Trudd, Tsukiyo, Uskyeria, Valani, Vildeis, Wadjet, Winlas, Ylimancha, Yuelral, Zohls</p><p><b>Granted Powers: </b>You have pledged your life and soul to goodness and purity.</p><p><b>Domain Spells: </b>1st-protection from evil, 2nd-align weapon (good only), 3rd-magic circle against evil, 4th-holy smite, 5th-dispel evil, 6th-blade barrier, 7th-holy word, 8th-holy aura, 9th-summon monster IX (good spell only).</p>",
      "unidentified": ""
    },
    "tags": [
      "Cleric",
      "Cleric Domain"
    ],
    "actions": [],
    "uses": {
      "per": null,
      "value": 0,
      "maxFormula": "",
      "autoDeductChargesCost": "1"
    },
    "attackNotes": [],
    "effectNotes": [],
    "changes": [],
    "changeFlags": {
      "loseDexToAC": false,
      "noEncumbrance": false,
      "mediumArmorFullSpeed": false,
      "heavyArmorFullSpeed": false
    },
    "contextNotes": [],
    "links": {
      "children": [],
      "charges": []
    },
    "tag": "",
    "useCustomTag": false,
    "armorProf": {
      "value": [],
      "custom": ""
    },
    "weaponProf": {
      "value": [],
      "custom": ""
    },
    "languages": {
      "value": [],
      "custom": ""
    },
    "flags": {
      "boolean": {},
      "dictionary": {}
    },
    "scriptCalls": [],
    "subType": "classFeat",
    "associations": {
      "classes": [
        "Cleric"
      ]
    },
    "showInQuickbar": false,
    "abilityType": "none",
    "crOffset": "",
    "disabled": false,
    "classSkills": {}
  },
  "ownership": {
    "default": 0
  },
  "_stats": {
    "systemId": "pf1",
    "systemVersion": "9.1",
    "coreVersion": "10.291",
    "createdTime": 1665428272931,
    "modifiedTime": 1689797852047,
    "lastModifiedBy": "ppv91YxratjWnkJi"
  },
  "effects": [],
  "folder": null,
  "sort": 0,
  "flags": {},
  "_key": "!items!a0O42hzUJKBRqtBM"
}