{
  "_id": "dOzcLIREx5B2Dgnn",
  "name": "Gravity Control, Greater",
  "type": "feat",
  "img": "systems/pf1/icons/skills/violet_28.jpg",
  "system": {
    "description": {
      "value": "<strong>Kineticist Wild Talent - Utility</strong><br/><br/><p>Element void; Type utility (Sp); Level 5; Burn 0</p><p>Prerequisite gravity control</p><p>You have greater control over gravity, as per greater flame jet.</p>",
      "unidentified": ""
    },
    "tags": [
      "Kineticist",
      "Kineticist Wild Talent - Utility"
    ],
    "actions": [],
    "uses": {
      "per": null,
      "value": 0,
      "maxFormula": "",
      "autoDeductChargesCost": "1"
    },
    "attackNotes": [],
    "effectNotes": [],
    "changes": [],
    "changeFlags": {
      "loseDexToAC": false,
      "noEncumbrance": false,
      "mediumArmorFullSpeed": false,
      "heavyArmorFullSpeed": false
    },
    "contextNotes": [],
    "links": {
      "children": [],
      "charges": []
    },
    "tag": "",
    "useCustomTag": false,
    "armorProf": {
      "value": [],
      "custom": ""
    },
    "weaponProf": {
      "value": [],
      "custom": ""
    },
    "languages": {
      "value": [],
      "custom": ""
    },
    "flags": {
      "boolean": {},
      "dictionary": {}
    },
    "scriptCalls": [],
    "subType": "classFeat",
    "associations": {
      "classes": [
        "Kineticist"
      ]
    },
    "showInQuickbar": false,
    "abilityType": "none",
    "crOffset": "",
    "disabled": false,
    "classSkills": {}
  },
  "ownership": {
    "default": 0
  },
  "_stats": {
    "systemId": "pf1",
    "systemVersion": "9.1",
    "coreVersion": "10.291",
    "createdTime": 1665428273902,
    "modifiedTime": 1689797855106,
    "lastModifiedBy": "ppv91YxratjWnkJi"
  },
  "effects": [],
  "folder": null,
  "sort": 0,
  "flags": {},
  "_key": "!items!dOzcLIREx5B2Dgnn"
}