{
  "_id": "oQTJruZ8YFmGgyEA",
  "name": "Haunted",
  "type": "feat",
  "img": "systems/pf1/icons/spells/protect-royal-3.jpg",
  "system": {
    "description": {
      "value": "<strong>Paladin 6th-Level Mercy</strong><br/><br/><p>The paladin's lay on hands also acts as protection from evil, but only for the purpose of allowing a new saving throw against enchantment (charm) and enchantment (compulsion) effects, making the target immune to any attempts to possess or exercise mental control over the target, or preventing a life force from controlling the target (all as described in the second effect of protection from evil). Use the paladin's level as the caster level.</p>",
      "unidentified": ""
    },
    "tags": [
      "Paladin",
      "Paladin 6th-Level Mercy"
    ],
    "actions": [],
    "uses": {
      "per": null,
      "value": 0,
      "maxFormula": "",
      "autoDeductChargesCost": "1"
    },
    "attackNotes": [],
    "effectNotes": [],
    "changes": [],
    "changeFlags": {
      "loseDexToAC": false,
      "noEncumbrance": false,
      "mediumArmorFullSpeed": false,
      "heavyArmorFullSpeed": false
    },
    "contextNotes": [],
    "links": {
      "children": [],
      "charges": []
    },
    "tag": "",
    "useCustomTag": false,
    "armorProf": {
      "value": [],
      "custom": ""
    },
    "weaponProf": {
      "value": [],
      "custom": ""
    },
    "languages": {
      "value": [],
      "custom": ""
    },
    "flags": {
      "boolean": {},
      "dictionary": {}
    },
    "scriptCalls": [],
    "subType": "classFeat",
    "associations": {
      "classes": [
        "Paladin"
      ]
    },
    "showInQuickbar": false,
    "abilityType": "none",
    "crOffset": "",
    "disabled": false,
    "classSkills": {}
  },
  "ownership": {
    "default": 0
  },
  "_stats": {
    "systemId": "pf1",
    "systemVersion": "9.1",
    "coreVersion": "10.291",
    "createdTime": 1665428275866,
    "modifiedTime": 1689797862338,
    "lastModifiedBy": "ppv91YxratjWnkJi"
  },
  "effects": [],
  "folder": null,
  "sort": 0,
  "flags": {},
  "_key": "!items!oQTJruZ8YFmGgyEA"
}