{
  "_id": "9VUK0k7jN4WozGKR",
  "name": "Heavy Punches",
  "type": "feat",
  "img": "systems/pf1/icons/skills/violet_07.jpg",
  "system": {
    "description": {
      "value": "<strong>Vigilante Brute Talent</strong><br/><br/><p>The brute eschews civilized combat and prefers to wade into a fight with his fists swinging. While in his vigilante identity, the brute's unarmed strikes deal damage as if he were a monk of his size and vigilante level. If he has levels in other classes that provide monk advancement for unarmed strike damage, his vigilante level stacks with those levels whenever he is in his vigilante identity.</p>",
      "unidentified": ""
    },
    "tags": [
      "Vigilante",
      "Vigilante Brute Talent"
    ],
    "actions": [],
    "uses": {
      "per": null,
      "value": 0,
      "maxFormula": "",
      "autoDeductChargesCost": "1"
    },
    "attackNotes": [],
    "effectNotes": [],
    "changes": [],
    "changeFlags": {
      "loseDexToAC": false,
      "noEncumbrance": false,
      "mediumArmorFullSpeed": false,
      "heavyArmorFullSpeed": false
    },
    "contextNotes": [],
    "links": {
      "children": [],
      "charges": []
    },
    "tag": "",
    "useCustomTag": false,
    "armorProf": {
      "value": [],
      "custom": ""
    },
    "weaponProf": {
      "value": [],
      "custom": ""
    },
    "languages": {
      "value": [],
      "custom": ""
    },
    "flags": {
      "boolean": {},
      "dictionary": {}
    },
    "scriptCalls": [],
    "subType": "classFeat",
    "associations": {
      "classes": [
        "Vigilante"
      ]
    },
    "showInQuickbar": false,
    "abilityType": "none",
    "crOffset": "",
    "disabled": false,
    "classSkills": {}
  },
  "ownership": {
    "default": 0
  },
  "_stats": {
    "systemId": "pf1",
    "systemVersion": "9.1",
    "coreVersion": "10.291",
    "createdTime": 1665428268272,
    "modifiedTime": 1689797831463,
    "lastModifiedBy": "ppv91YxratjWnkJi"
  },
  "effects": [],
  "folder": null,
  "sort": 0,
  "flags": {},
  "_key": "!items!9VUK0k7jN4WozGKR"
}