{
  "_id": "k9mpyEcpYmVYzLP8",
  "name": "Herbal Antivenom",
  "type": "feat",
  "img": "systems/pf1/icons/skills/violet_28.jpg",
  "system": {
    "description": {
      "value": "<strong>Kineticist Wild Talent - Utility</strong><br/><br/><p>Element wood; Type utility (Sp); Level 4; Burn 0</p><p>Your body can produce the herbal remedies necessary to counter almost any poison. You gain a +5 alchemical bonus on saving throws against poison, as if you were always under the effect of antitoxin. You can use the treat poison action from the Heal skill as a standard action with a mere touch, without a healer's kit, and even on yourself; if you succeed, you grant the touched creature a +5 alchemical bonus against that specific instance of poison in addition to the normal +4 bonus from treat poison. You can accept 1 point of burn while using the treat poison action in this way to also produce the effects of neutralize poison.</p>",
      "unidentified": ""
    },
    "tags": [
      "Kineticist",
      "Kineticist Wild Talent - Utility"
    ],
    "actions": [],
    "uses": {
      "per": null,
      "value": 0,
      "maxFormula": "",
      "autoDeductChargesCost": "1"
    },
    "attackNotes": [],
    "effectNotes": [],
    "changes": [],
    "changeFlags": {
      "loseDexToAC": false,
      "noEncumbrance": false,
      "mediumArmorFullSpeed": false,
      "heavyArmorFullSpeed": false
    },
    "contextNotes": [],
    "links": {
      "children": [],
      "charges": []
    },
    "tag": "",
    "useCustomTag": false,
    "armorProf": {
      "value": [],
      "custom": ""
    },
    "weaponProf": {
      "value": [],
      "custom": ""
    },
    "languages": {
      "value": [],
      "custom": ""
    },
    "flags": {
      "boolean": {},
      "dictionary": {}
    },
    "scriptCalls": [],
    "subType": "classFeat",
    "associations": {
      "classes": [
        "Kineticist"
      ]
    },
    "showInQuickbar": false,
    "abilityType": "none",
    "crOffset": "",
    "disabled": false,
    "classSkills": {}
  },
  "ownership": {
    "default": 0
  },
  "_stats": {
    "systemId": "pf1",
    "systemVersion": "9.1",
    "coreVersion": "10.291",
    "createdTime": 1665428275153,
    "modifiedTime": 1689797859943,
    "lastModifiedBy": "ppv91YxratjWnkJi"
  },
  "effects": [],
  "folder": null,
  "sort": 0,
  "flags": {},
  "_key": "!items!k9mpyEcpYmVYzLP8"
}