{
  "_id": "mmchgZ70SCr0U5oE",
  "name": "Hidden Blade",
  "type": "feat",
  "img": "icons/equipment/head/hat-tricorn-brown.webp",
  "system": {
    "description": {
      "value": "<strong>Swashbuckler 3th Level Deed</strong><br/><br/><p>At 3rd level, whenever she has at least 1 panache point, a veiled blade can hide any light or onehanded piercing melee weapon using Sleight of Hand, and she receives a +4 insight bonus on her check to hide the weapon.</p>",
      "unidentified": ""
    },
    "tags": [
      "Swashbuckler",
      "Swashbuckler 3th Level Deed"
    ],
    "actions": [],
    "uses": {
      "per": null,
      "value": 0,
      "maxFormula": "",
      "autoDeductChargesCost": "1"
    },
    "attackNotes": [],
    "effectNotes": [],
    "changes": [],
    "changeFlags": {
      "loseDexToAC": false,
      "noEncumbrance": false,
      "mediumArmorFullSpeed": false,
      "heavyArmorFullSpeed": false
    },
    "contextNotes": [],
    "links": {
      "children": [],
      "charges": []
    },
    "tag": "",
    "useCustomTag": false,
    "armorProf": {
      "value": [],
      "custom": ""
    },
    "weaponProf": {
      "value": [],
      "custom": ""
    },
    "languages": {
      "value": [],
      "custom": ""
    },
    "flags": {
      "boolean": {},
      "dictionary": {}
    },
    "scriptCalls": [],
    "subType": "classFeat",
    "associations": {
      "classes": [
        "Swashbuckler"
      ]
    },
    "showInQuickbar": false,
    "abilityType": "none",
    "crOffset": "",
    "disabled": false,
    "classSkills": {}
  },
  "ownership": {
    "default": 0
  },
  "_stats": {
    "systemId": "pf1",
    "systemVersion": "9.1",
    "coreVersion": "10.291",
    "createdTime": 1665428275360,
    "modifiedTime": 1689797861028,
    "lastModifiedBy": "ppv91YxratjWnkJi"
  },
  "effects": [],
  "folder": null,
  "sort": 0,
  "flags": {},
  "_key": "!items!mmchgZ70SCr0U5oE"
}