{
  "_id": "QRbpCoyjOKWcVzT5",
  "name": "Hubris Subdomain",
  "type": "feat",
  "img": "systems/pf1/icons/items/inventory/badge-cross.jpg",
  "system": {
    "description": {
      "value": "<strong>Cleric Domain Power</strong><br/><br/><p><b>Associated Domain(s): </b>Glory, Nobility</p><p><b>Associated Deities: </b>Dispater, General Susumu, Iomedae, Jaidz, Lissala, Olheon, Ydersius</p><p><b>Replacement Power: </b>You gain Intimidate as a class skill; this replaces the Glory domain's increased save DC to resist channel positive energy. The following granted power replaces the divine presence power of the Glory domain or the leadership power of the Nobility domain.</p><p><b>Replacement Domain Spells: </b>4th-hollow heroismUI, 7th-greater hollow heroismUI, 9th-overwhelming presenceUM. If you are evil, replace the domain spells bless weapon and holy aura with aid and unholy aura respectively.</p>",
      "unidentified": ""
    },
    "tags": [
      "Cleric",
      "Cleric Domain Power"
    ],
    "actions": [],
    "uses": {
      "per": null,
      "value": 0,
      "maxFormula": "",
      "autoDeductChargesCost": "1"
    },
    "attackNotes": [],
    "effectNotes": [],
    "changes": [],
    "changeFlags": {
      "loseDexToAC": false,
      "noEncumbrance": false,
      "mediumArmorFullSpeed": false,
      "heavyArmorFullSpeed": false
    },
    "contextNotes": [],
    "links": {
      "children": [],
      "charges": []
    },
    "tag": "",
    "useCustomTag": false,
    "armorProf": {
      "value": [],
      "custom": ""
    },
    "weaponProf": {
      "value": [],
      "custom": ""
    },
    "languages": {
      "value": [],
      "custom": ""
    },
    "flags": {
      "boolean": {},
      "dictionary": {}
    },
    "scriptCalls": [],
    "subType": "classFeat",
    "associations": {
      "classes": [
        "Cleric"
      ]
    },
    "showInQuickbar": false,
    "abilityType": "none",
    "crOffset": "",
    "disabled": false,
    "classSkills": {}
  },
  "ownership": {
    "default": 0
  },
  "_stats": {
    "systemId": "pf1",
    "systemVersion": "9.1",
    "coreVersion": "10.291",
    "createdTime": 1665428271149,
    "modifiedTime": 1689797845418,
    "lastModifiedBy": "ppv91YxratjWnkJi"
  },
  "effects": [],
  "folder": null,
  "sort": 0,
  "flags": {},
  "_key": "!items!QRbpCoyjOKWcVzT5"
}