{
  "_id": "TLgWvyyCWYi8zPsR",
  "name": "In Vogue",
  "type": "feat",
  "img": "systems/pf1/icons/skills/violet_07.jpg",
  "system": {
    "description": {
      "value": "<strong>Vigilante Social Talent</strong><br/><br/><p>The vigilante's crafting or professional business is always at the height of the local trends, allowing the vigilante to gain more profits than usual. Goods he crafts with a Craft skill he chose with social grace are worth 1/3 more gp than normal due to his celebrity, without increasing the cost to create. Whenever he uses a Profession skill he chose with social grace to make money, he makes twice as much money. A vigilante must be at least 5th level and have both the double time and social grace social talents to take this talent.</p>",
      "unidentified": ""
    },
    "tags": [
      "Vigilante",
      "Vigilante Social Talent"
    ],
    "actions": [],
    "uses": {
      "per": null,
      "value": 0,
      "maxFormula": "",
      "autoDeductChargesCost": "1"
    },
    "attackNotes": [],
    "effectNotes": [],
    "changes": [],
    "changeFlags": {
      "loseDexToAC": false,
      "noEncumbrance": false,
      "mediumArmorFullSpeed": false,
      "heavyArmorFullSpeed": false
    },
    "contextNotes": [],
    "links": {
      "children": [],
      "charges": []
    },
    "tag": "",
    "useCustomTag": false,
    "armorProf": {
      "value": [],
      "custom": ""
    },
    "weaponProf": {
      "value": [],
      "custom": ""
    },
    "languages": {
      "value": [],
      "custom": ""
    },
    "flags": {
      "boolean": {},
      "dictionary": {}
    },
    "scriptCalls": [],
    "subType": "classFeat",
    "associations": {
      "classes": [
        "Vigilante"
      ]
    },
    "showInQuickbar": false,
    "abilityType": "none",
    "crOffset": "",
    "disabled": false,
    "classSkills": {}
  },
  "ownership": {
    "default": 0
  },
  "_stats": {
    "systemId": "pf1",
    "systemVersion": "9.1",
    "coreVersion": "10.291",
    "createdTime": 1665428271730,
    "modifiedTime": 1689797847578,
    "lastModifiedBy": "ppv91YxratjWnkJi"
  },
  "effects": [],
  "folder": null,
  "sort": 0,
  "flags": {},
  "_key": "!items!TLgWvyyCWYi8zPsR"
}