{
  "_id": "NBhSHOwHCXvh2JKN",
  "name": "Infused Bullet",
  "type": "feat",
  "img": "systems/pf1/icons/skills/weapon_36.jpg",
  "system": {
    "description": {
      "value": "<strong>Gunslinger Deeds</strong><br/><br/><p>At 1st level, a planar rifter's bullets carry the essence of a plane to which his grit pool is attuned, striking true against creatures that shrink from that plane's nature. As long as he has at least 1 point in his grit pool, he gains the following benefits: if he infuses his bullets with an alignment, his bullet's damage counts as that alignment for the purposes of overcoming DR; if he infuses his bullets with an element, half of his bullet's damage changes to an energy type determined by the element infused: acid (earth), cold (water), electricity (air), or fire (fire).</p>",
      "unidentified": ""
    },
    "tags": [
      "Gunslinger",
      "Gunslinger Deeds"
    ],
    "actions": [],
    "uses": {
      "per": null,
      "value": 0,
      "maxFormula": "",
      "autoDeductChargesCost": "1"
    },
    "attackNotes": [],
    "effectNotes": [],
    "changes": [],
    "changeFlags": {
      "loseDexToAC": false,
      "noEncumbrance": false,
      "mediumArmorFullSpeed": false,
      "heavyArmorFullSpeed": false
    },
    "contextNotes": [],
    "links": {
      "children": [],
      "charges": []
    },
    "tag": "",
    "useCustomTag": false,
    "armorProf": {
      "value": [],
      "custom": ""
    },
    "weaponProf": {
      "value": [],
      "custom": ""
    },
    "languages": {
      "value": [],
      "custom": ""
    },
    "flags": {
      "boolean": {},
      "dictionary": {}
    },
    "scriptCalls": [],
    "subType": "classFeat",
    "associations": {
      "classes": [
        "Gunslinger"
      ]
    },
    "showInQuickbar": false,
    "abilityType": "none",
    "crOffset": "",
    "disabled": false,
    "classSkills": {}
  },
  "ownership": {
    "default": 0
  },
  "_stats": {
    "systemId": "pf1",
    "systemVersion": "9.1",
    "coreVersion": "10.291",
    "createdTime": 1665428270562,
    "modifiedTime": 1689797842796,
    "lastModifiedBy": "ppv91YxratjWnkJi"
  },
  "effects": [],
  "folder": null,
  "sort": 0,
  "flags": {},
  "_key": "!items!NBhSHOwHCXvh2JKN"
}