{
  "_id": "aVvdsShZa2RODrMH",
  "name": "Ingest Venom",
  "type": "feat",
  "img": "systems/pf1/icons/items/potions/grand-yellow.jpg",
  "system": {
    "description": {
      "value": "<strong>Alchemist Discovery - Crimson Chymist</strong><br/><br/><p>Once per day as a standard action, the crimson chymist can ingest one dose of any poison without harming herself. The next time she imbibes her mutagen and uses her arms of Achaekek discovery, both claws are envenomed with a dose of the poison she ingested. An ingested venom remains latent in the alchemist's system until she activates her arms of Achaekek discovery or until 24 hours have passed, whichever comes first. Additional doses of venom ingested during that time affect the alchemist normally. A crimson chymist must have the arms of Achaekek discovery before selecting this discovery.</p>",
      "unidentified": ""
    },
    "tags": [
      "Alchemist",
      "Alchemist Discovery - Crimson Chymist"
    ],
    "actions": [],
    "uses": {
      "per": null,
      "value": 0,
      "maxFormula": "",
      "autoDeductChargesCost": "1"
    },
    "attackNotes": [],
    "effectNotes": [],
    "changes": [],
    "changeFlags": {
      "loseDexToAC": false,
      "noEncumbrance": false,
      "mediumArmorFullSpeed": false,
      "heavyArmorFullSpeed": false
    },
    "contextNotes": [],
    "links": {
      "children": [],
      "charges": []
    },
    "tag": "",
    "useCustomTag": false,
    "armorProf": {
      "value": [],
      "custom": ""
    },
    "weaponProf": {
      "value": [],
      "custom": ""
    },
    "languages": {
      "value": [],
      "custom": ""
    },
    "flags": {
      "boolean": {},
      "dictionary": {}
    },
    "scriptCalls": [],
    "subType": "classFeat",
    "associations": {
      "classes": [
        "Alchemist"
      ]
    },
    "showInQuickbar": false,
    "abilityType": "none",
    "crOffset": "",
    "disabled": false,
    "classSkills": {}
  },
  "ownership": {
    "default": 0
  },
  "_stats": {
    "systemId": "pf1",
    "systemVersion": "9.1",
    "coreVersion": "10.291",
    "createdTime": 1665428273319,
    "modifiedTime": 1689797852838,
    "lastModifiedBy": "ppv91YxratjWnkJi"
  },
  "effects": [],
  "folder": null,
  "sort": 0,
  "flags": {},
  "_key": "!items!aVvdsShZa2RODrMH"
}