{
  "_id": "nTxL84nlWN5b3Zji",
  "name": "Inspire",
  "type": "feat",
  "img": "systems/pf1/icons/spells/fireball-red-3.jpg",
  "system": {
    "description": {
      "value": "<strong>Sorcerer Bloodline Power</strong><br/><br/><p>At 15th level, your artistic magic can inspire your allies to great accomplishments. You can use greater heroism as a spell-like ability. You can use this ability once per day at 15th level, twice per day at 17th level, and three times per day at 19th level.</p>",
      "unidentified": ""
    },
    "tags": [
      "Sorcerer",
      "Sorcerer Bloodline Power"
    ],
    "actions": [],
    "uses": {
      "per": null,
      "value": 0,
      "maxFormula": "",
      "autoDeductChargesCost": "1"
    },
    "attackNotes": [],
    "effectNotes": [],
    "changes": [],
    "changeFlags": {
      "loseDexToAC": false,
      "noEncumbrance": false,
      "mediumArmorFullSpeed": false,
      "heavyArmorFullSpeed": false
    },
    "contextNotes": [],
    "links": {
      "children": [],
      "charges": []
    },
    "tag": "",
    "useCustomTag": false,
    "armorProf": {
      "value": [],
      "custom": ""
    },
    "weaponProf": {
      "value": [],
      "custom": ""
    },
    "languages": {
      "value": [],
      "custom": ""
    },
    "flags": {
      "boolean": {},
      "dictionary": {}
    },
    "scriptCalls": [],
    "subType": "classFeat",
    "associations": {
      "classes": [
        "Sorcerer"
      ]
    },
    "showInQuickbar": false,
    "abilityType": "none",
    "crOffset": "",
    "disabled": false,
    "classSkills": {}
  },
  "ownership": {
    "default": 0
  },
  "_stats": {
    "systemId": "pf1",
    "systemVersion": "9.1",
    "coreVersion": "10.291",
    "createdTime": 1665428275794,
    "modifiedTime": 1689797861899,
    "lastModifiedBy": "ppv91YxratjWnkJi"
  },
  "effects": [],
  "folder": null,
  "sort": 0,
  "flags": {},
  "_key": "!items!nTxL84nlWN5b3Zji"
}