{
  "_id": "TG8ngNlTG5jW5wdV",
  "name": "Intrigue Feats",
  "type": "feat",
  "img": "systems/pf1/icons/skills/violet_07.jpg",
  "system": {
    "description": {
      "value": "<strong>Vigilante Social Talent</strong><br/><br/><p>The vigilante gains one of the following feats as a bonus feat: Blustering BluffUI, But a ScratchUI, Call TruceUI, ConfabulistUI, Criminal ReputationUI, Cutting HumiliationUI, Esoteric LinguisticsACG, Intoxicating FlatteryUI, Ironclad LogicUI, Nerve-Racking NegotiatorUI, OratorACG, Persuasive BriberyUI, Play to the CrowdUI, Quick FavorUI, Rhetorical FlourishUI, Sense AssumptionsUI, Sense RelationshipsUI, or Street SmartsUI. He must meet the feat's prerequisites. This talent can be selected multiple times; each time, the vigilante gains a new feat from the above list.</p>",
      "unidentified": ""
    },
    "tags": [
      "Vigilante",
      "Vigilante Social Talent"
    ],
    "actions": [],
    "uses": {
      "per": null,
      "value": 0,
      "maxFormula": "",
      "autoDeductChargesCost": "1"
    },
    "attackNotes": [],
    "effectNotes": [],
    "changes": [],
    "changeFlags": {
      "loseDexToAC": false,
      "noEncumbrance": false,
      "mediumArmorFullSpeed": false,
      "heavyArmorFullSpeed": false
    },
    "contextNotes": [],
    "links": {
      "children": [],
      "charges": []
    },
    "tag": "",
    "useCustomTag": false,
    "armorProf": {
      "value": [],
      "custom": ""
    },
    "weaponProf": {
      "value": [],
      "custom": ""
    },
    "languages": {
      "value": [],
      "custom": ""
    },
    "flags": {
      "boolean": {},
      "dictionary": {}
    },
    "scriptCalls": [],
    "subType": "classFeat",
    "associations": {
      "classes": [
        "Vigilante"
      ]
    },
    "showInQuickbar": false,
    "abilityType": "none",
    "crOffset": "",
    "disabled": false,
    "classSkills": {}
  },
  "ownership": {
    "default": 0
  },
  "_stats": {
    "systemId": "pf1",
    "systemVersion": "9.1",
    "coreVersion": "10.291",
    "createdTime": 1665428271721,
    "modifiedTime": 1689797847535,
    "lastModifiedBy": "ppv91YxratjWnkJi"
  },
  "effects": [],
  "folder": null,
  "sort": 0,
  "flags": {},
  "_key": "!items!TG8ngNlTG5jW5wdV"
}