{
  "_id": "N7DpVE4c9WiwgcXA",
  "name": "Jury-Rig",
  "type": "feat",
  "img": "systems/pf1/icons/skills/weapon_36.jpg",
  "system": {
    "description": {
      "value": "<strong>Gunslinger Deeds</strong><br/><br/><p>At 7th level, as a standard action, a gun scavenger can adjust a firearm she is currently wielding to fire in an unconventional way. She can spend 1 grit point to grant her firearm one of the following magic weapon enhancements for 1 round per gunslinger level: distance, flaming, glamered, or thundering. If she spends 2 grit points, she can instead grant the firearm flaming burst or stalking. Multiple uses of this ability don't stack with themselves. This deed replaces the targeting deed.</p>",
      "unidentified": ""
    },
    "tags": [
      "Gunslinger",
      "Gunslinger Deeds"
    ],
    "actions": [],
    "uses": {
      "per": null,
      "value": 0,
      "maxFormula": "",
      "autoDeductChargesCost": "1"
    },
    "attackNotes": [],
    "effectNotes": [],
    "changes": [],
    "changeFlags": {
      "loseDexToAC": false,
      "noEncumbrance": false,
      "mediumArmorFullSpeed": false,
      "heavyArmorFullSpeed": false
    },
    "contextNotes": [],
    "links": {
      "children": [],
      "charges": []
    },
    "tag": "",
    "useCustomTag": false,
    "armorProf": {
      "value": [],
      "custom": ""
    },
    "weaponProf": {
      "value": [],
      "custom": ""
    },
    "languages": {
      "value": [],
      "custom": ""
    },
    "flags": {
      "boolean": {},
      "dictionary": {}
    },
    "scriptCalls": [],
    "subType": "classFeat",
    "associations": {
      "classes": [
        "Gunslinger"
      ]
    },
    "showInQuickbar": false,
    "abilityType": "none",
    "crOffset": "",
    "disabled": false,
    "classSkills": {}
  },
  "ownership": {
    "default": 0
  },
  "_stats": {
    "systemId": "pf1",
    "systemVersion": "9.1",
    "coreVersion": "10.291",
    "createdTime": 1665428270557,
    "modifiedTime": 1689797842771,
    "lastModifiedBy": "ppv91YxratjWnkJi"
  },
  "effects": [],
  "folder": null,
  "sort": 0,
  "flags": {},
  "_key": "!items!N7DpVE4c9WiwgcXA"
}