{
  "_id": "q2ySkD4TLjZbmo3W",
  "name": "Kelizandri's Tide",
  "type": "feat",
  "img": "systems/pf1/icons/items/weapons/greataxe.png",
  "system": {
    "description": {
      "value": "<strong>Rage Power - Elemental</strong><br/><br/><p>When the barbarian rages, enemies find it difficult to escape the vortex of her fury. As a full-round action while raging, the barbarian can attempt a single combat maneuver check against each creature within 10 feet of her. If her roll equals or exceeds a creature's CMD, she moves that creature 5 feet closer to her. Once per day after attempting this maneuver, she can attack each adjacent creature as a free action as if using the Whirlwind Attack feat. If she has the Whirlwind Attack feat, she can also use it as a free action in this way one additional time per day.</p>",
      "unidentified": ""
    },
    "tags": [
      "Barbarian",
      "Rage Power - Elemental"
    ],
    "actions": [],
    "uses": {
      "per": null,
      "value": 0,
      "maxFormula": "",
      "autoDeductChargesCost": "1"
    },
    "attackNotes": [],
    "effectNotes": [],
    "changes": [],
    "changeFlags": {
      "loseDexToAC": false,
      "noEncumbrance": false,
      "mediumArmorFullSpeed": false,
      "heavyArmorFullSpeed": false
    },
    "contextNotes": [],
    "links": {
      "children": [],
      "charges": []
    },
    "tag": "",
    "useCustomTag": false,
    "armorProf": {
      "value": [],
      "custom": ""
    },
    "weaponProf": {
      "value": [],
      "custom": ""
    },
    "languages": {
      "value": [],
      "custom": ""
    },
    "flags": {
      "boolean": {},
      "dictionary": {}
    },
    "scriptCalls": [],
    "subType": "classFeat",
    "associations": {
      "classes": [
        "Barbarian"
      ]
    },
    "showInQuickbar": false,
    "abilityType": "none",
    "crOffset": "",
    "disabled": false,
    "classSkills": {}
  },
  "ownership": {
    "default": 0
  },
  "_stats": {
    "systemId": "pf1",
    "systemVersion": "9.1",
    "coreVersion": "10.291",
    "createdTime": 1665428275970,
    "modifiedTime": 1689797862974,
    "lastModifiedBy": "ppv91YxratjWnkJi"
  },
  "effects": [],
  "folder": null,
  "sort": 0,
  "flags": {},
  "_key": "!items!q2ySkD4TLjZbmo3W"
}