{
  "_id": "TReKERQFS1FPiQqO",
  "name": "Ki Panache",
  "type": "feat",
  "img": "icons/equipment/head/hat-tricorn-brown.webp",
  "system": {
    "description": {
      "value": "<strong>Swashbuckler 3rd Level Deed</strong><br/><br/><p>At 3rd level, a power similar to a monk's ki awakens within the Okayo corsair. She can spend 1 panache point as a swift action to gain one of the following three benefits: she can make one additional attack at her highest attack bonus when making a full attack, she can increase her speed by 20 feet for 1 round, or she can give herself a +4 dodge bonus to AC for 1 round.</p>",
      "unidentified": ""
    },
    "tags": [
      "Swashbuckler",
      "Swashbuckler 3rd Level Deed"
    ],
    "actions": [],
    "uses": {
      "per": null,
      "value": 0,
      "maxFormula": "",
      "autoDeductChargesCost": "1"
    },
    "attackNotes": [],
    "effectNotes": [],
    "changes": [],
    "changeFlags": {
      "loseDexToAC": false,
      "noEncumbrance": false,
      "mediumArmorFullSpeed": false,
      "heavyArmorFullSpeed": false
    },
    "contextNotes": [],
    "links": {
      "children": [],
      "charges": []
    },
    "tag": "",
    "useCustomTag": false,
    "armorProf": {
      "value": [],
      "custom": ""
    },
    "weaponProf": {
      "value": [],
      "custom": ""
    },
    "languages": {
      "value": [],
      "custom": ""
    },
    "flags": {
      "boolean": {},
      "dictionary": {}
    },
    "scriptCalls": [],
    "subType": "classFeat",
    "associations": {
      "classes": [
        "Swashbuckler"
      ]
    },
    "showInQuickbar": false,
    "abilityType": "none",
    "crOffset": "",
    "disabled": false,
    "classSkills": {}
  },
  "ownership": {
    "default": 0
  },
  "_stats": {
    "systemId": "pf1",
    "systemVersion": "9.1",
    "coreVersion": "10.291",
    "createdTime": 1665428271743,
    "modifiedTime": 1689797847657,
    "lastModifiedBy": "ppv91YxratjWnkJi"
  },
  "effects": [],
  "folder": null,
  "sort": 0,
  "flags": {},
  "_key": "!items!TReKERQFS1FPiQqO"
}