{
  "_id": "WZ1nPkvkWYw0pHes",
  "name": "Ki Visions",
  "type": "feat",
  "img": "systems/pf1/icons/items/equipment/gloves.jpg",
  "system": {
    "description": {
      "value": "<strong>Ki Powers (Unchained)</strong><br/><br/><p>A monk with this ability often sees visions of spirits or hears the voice of his departed mentor in his dreams. On any given night during which the monk dreams, he can use this ability to gain the benef its of a divination. If he does, he spends 2 ki points from the next day's total. A monk must be at least 10th level before selecting this ki power.</p>",
      "unidentified": ""
    },
    "tags": [
      "Monk (Unchained)",
      "Ki Powers (Unchained)"
    ],
    "actions": [],
    "uses": {
      "per": null,
      "value": 0,
      "maxFormula": "",
      "autoDeductChargesCost": "1"
    },
    "attackNotes": [],
    "effectNotes": [],
    "changes": [],
    "changeFlags": {
      "loseDexToAC": false,
      "noEncumbrance": false,
      "mediumArmorFullSpeed": false,
      "heavyArmorFullSpeed": false
    },
    "contextNotes": [],
    "links": {
      "children": [],
      "charges": []
    },
    "tag": "",
    "useCustomTag": false,
    "armorProf": {
      "value": [],
      "custom": ""
    },
    "weaponProf": {
      "value": [],
      "custom": ""
    },
    "languages": {
      "value": [],
      "custom": ""
    },
    "flags": {
      "boolean": {},
      "dictionary": {}
    },
    "scriptCalls": [],
    "subType": "classFeat",
    "associations": {
      "classes": [
        "Monk (Unchained)"
      ]
    },
    "showInQuickbar": false,
    "abilityType": "none",
    "crOffset": "",
    "disabled": false,
    "classSkills": {}
  },
  "ownership": {
    "default": 0
  },
  "_stats": {
    "systemId": "pf1",
    "systemVersion": "9.1",
    "coreVersion": "10.291",
    "createdTime": 1665428272351,
    "modifiedTime": 1689797849964,
    "lastModifiedBy": "ppv91YxratjWnkJi"
  },
  "effects": [],
  "folder": null,
  "sort": 0,
  "flags": {},
  "_key": "!items!WZ1nPkvkWYw0pHes"
}