{
  "_id": "zMzZemBNEZcOMl3l",
  "name": "Ki Venom",
  "type": "feat",
  "img": "systems/pf1/icons/items/weapons/kunai.png",
  "system": {
    "description": {
      "value": "<strong>Ninja Trick</strong><br/><br/><p>A ninja with this trick knows how to make poisons from innocuous herbs or minerals. Creating ki venom is a full-round action that costs 1 ki point. The poison lasts for 24 hours before becoming inert. The poison deals either Strength or Dexterity damage, chosen when the venom is created. The ninja can spend additional ki as part of the process of creating the ki venom to improve the venom in one or more of the following ways: spend 1 ki point to increase the damage die to a d6, spend 1 ki point to change the ability damage dealt to Intelligence, Wisdom, or Charisma damage, or spend 1 ki point to increase the number of saves required to cure the poison by 1.</p><h>Ki Venom</h><p>Type poison, injury; Save Fortitude DC = 10 + 1/2 the ninja's level + her Charisma modifier</p><p>Frequency 1/round for rounds equal to the ninja's Charisma modifier.</p><p>Effect 1d4 ability damage (see above); Cure 1 save</p>",
      "unidentified": ""
    },
    "tags": [
      "Ninja",
      "Ninja Trick"
    ],
    "actions": [],
    "uses": {
      "per": null,
      "value": 0,
      "maxFormula": "",
      "autoDeductChargesCost": "1"
    },
    "attackNotes": [],
    "effectNotes": [],
    "changes": [],
    "changeFlags": {
      "loseDexToAC": false,
      "noEncumbrance": false,
      "mediumArmorFullSpeed": false,
      "heavyArmorFullSpeed": false
    },
    "contextNotes": [],
    "links": {
      "children": [],
      "charges": []
    },
    "tag": "",
    "useCustomTag": false,
    "armorProf": {
      "value": [],
      "custom": ""
    },
    "weaponProf": {
      "value": [],
      "custom": ""
    },
    "languages": {
      "value": [],
      "custom": ""
    },
    "flags": {
      "boolean": {},
      "dictionary": {}
    },
    "scriptCalls": [],
    "subType": "classFeat",
    "associations": {
      "classes": [
        "Ninja"
      ]
    },
    "showInQuickbar": false,
    "abilityType": "none",
    "crOffset": "",
    "disabled": false,
    "classSkills": {}
  },
  "ownership": {
    "default": 0
  },
  "_stats": {
    "systemId": "pf1",
    "systemVersion": "9.1",
    "coreVersion": "10.291",
    "createdTime": 1665428278007,
    "modifiedTime": 1689797869060,
    "lastModifiedBy": "ppv91YxratjWnkJi"
  },
  "effects": [],
  "folder": null,
  "sort": 0,
  "flags": {},
  "_key": "!items!zMzZemBNEZcOMl3l"
}