{
  "_id": "rHyGrcQSA4TOlXk4",
  "name": "Knave Standard",
  "type": "feat",
  "img": "systems/pf1/icons/items/inventory/horseshoe.jpg",
  "system": {
    "description": {
      "value": "<strong>Cavalier/Samurai Banner</strong><br/><br/><p>The knave standard is common among cavaliers of the River Kingdoms. An ally who benefits from this standard gains a +2 dodge bonus to AC against attacks of opportunity provoked by movement and a +1 morale bonus on attack rolls that benefit from flanking. At 10th level and every 5 levels thereafter, the bonus to AC increases by 1. At 14th level, an ally benefiting from the banner gains sneak attack +1d6; this stacks with other sources of sneak attack. When the cavalier or samurai waves this standard, a number of allies equal to the cavalier or samurai's Charisma modifier (minimum 1) within 60 feet can each attempt a feint against a foe she threatens as an immediate action.</p>",
      "unidentified": ""
    },
    "tags": [
      "Cavalier, Samurai",
      "Cavalier/Samurai Banner"
    ],
    "actions": [],
    "uses": {
      "per": null,
      "value": 0,
      "maxFormula": "",
      "autoDeductChargesCost": "1"
    },
    "attackNotes": [],
    "effectNotes": [],
    "changes": [],
    "changeFlags": {
      "loseDexToAC": false,
      "noEncumbrance": false,
      "mediumArmorFullSpeed": false,
      "heavyArmorFullSpeed": false
    },
    "contextNotes": [],
    "links": {
      "children": [],
      "charges": []
    },
    "tag": "",
    "useCustomTag": false,
    "armorProf": {
      "value": [],
      "custom": ""
    },
    "weaponProf": {
      "value": [],
      "custom": ""
    },
    "languages": {
      "value": [],
      "custom": ""
    },
    "flags": {
      "boolean": {},
      "dictionary": {}
    },
    "scriptCalls": [],
    "subType": "classFeat",
    "associations": {
      "classes": [
        "Cavalier",
        "Samurai"
      ]
    },
    "showInQuickbar": false,
    "abilityType": "none",
    "crOffset": "",
    "disabled": false,
    "classSkills": {}
  },
  "ownership": {
    "default": 0
  },
  "_stats": {
    "systemId": "pf1",
    "systemVersion": "9.1",
    "coreVersion": "10.291",
    "createdTime": 1665428276427,
    "modifiedTime": 1689797863948,
    "lastModifiedBy": "ppv91YxratjWnkJi"
  },
  "effects": [],
  "folder": null,
  "sort": 0,
  "flags": {},
  "_key": "!items!rHyGrcQSA4TOlXk4"
}