{
  "_id": "X5bxXROrIJGIaZ9a",
  "name": "Kraken",
  "type": "feat",
  "img": "systems/pf1/icons/skills/blue_29.jpg",
  "system": {
    "description": {
      "value": "<strong>Hunter Animal Focus</strong><br/><br/><p>The creature gains the jet ability (Pathfinder RPG Bestiary 2 298) with a speed equal to its unmodified base land speed or four times its swim speed (if it has one), whichever is higher. If it has a swim speed, at 8th level, the jet ability's speed increases to five times its swim speed, and at 15th level, the speed increases to seven times its swim speed.</p>",
      "unidentified": ""
    },
    "tags": [
      "Hunter",
      "Hunter Animal Focus"
    ],
    "actions": [],
    "uses": {
      "per": null,
      "value": 0,
      "maxFormula": "",
      "autoDeductChargesCost": "1"
    },
    "attackNotes": [],
    "effectNotes": [],
    "changes": [],
    "changeFlags": {
      "loseDexToAC": false,
      "noEncumbrance": false,
      "mediumArmorFullSpeed": false,
      "heavyArmorFullSpeed": false
    },
    "contextNotes": [],
    "links": {
      "children": [],
      "charges": []
    },
    "tag": "",
    "useCustomTag": false,
    "armorProf": {
      "value": [],
      "custom": ""
    },
    "weaponProf": {
      "value": [],
      "custom": ""
    },
    "languages": {
      "value": [],
      "custom": ""
    },
    "flags": {
      "boolean": {},
      "dictionary": {}
    },
    "scriptCalls": [],
    "subType": "classFeat",
    "associations": {
      "classes": [
        "Hunter"
      ]
    },
    "showInQuickbar": false,
    "abilityType": "none",
    "crOffset": "",
    "disabled": false,
    "classSkills": {}
  },
  "ownership": {
    "default": 0
  },
  "_stats": {
    "systemId": "pf1",
    "systemVersion": "9.1",
    "coreVersion": "10.291",
    "createdTime": 1665428272716,
    "modifiedTime": 1689797850751,
    "lastModifiedBy": "ppv91YxratjWnkJi"
  },
  "effects": [],
  "folder": null,
  "sort": 0,
  "flags": {},
  "_key": "!items!X5bxXROrIJGIaZ9a"
}