{
  "_id": "JMap8mQFN7PsQWqE",
  "name": "Law",
  "type": "feat",
  "img": "systems/pf1/icons/items/inventory/badge-cross.jpg",
  "system": {
    "description": {
      "value": "<strong>Cleric Domain</strong><br/><br/><p><b>Deities: </b>Abadar, Achaekek, Aesocar, Aksha, Akuma, Alichino, Alocer, Alseta, Amaznen, Andak, Andoletta, Angradd, Anubis, Apsu, Ardad Lili, Aroggus, Arqueros, Asmodeus, Baalzebul, Barbariccia, Barbatos, Barravoclair, Belial, Bifrons, Bohga, Bundha, Caera, Cagnazzo, Calcabrina, Chugarra, Chupurvagasti, Circiatto, Crocell, Damerrich, Deumus, Dhalavei, Dispater, Doloras, Dradjit, Draghignazzo, Dranngvit, Eaqueo, Easivra, Eiseth, Eldas, Eligos, Erastil, Erecura, Falayna, Farfarello, Fharaas, Folgrit, Furcas, Gaap, Gavidya, General Susumu, Geryon, Ghenshau, Graffiacane, Gruhastha, Grundinnar, Haborym, Hadregash, Horus, Hudima, Hydim, Iaozrael, Imbrex, Inkariax, Inma, Iomedae, Ioramvol, Irori, Jerishall, Jiraviddain, Jyotah, Kaikyton, Kalma, Kelinahat, Kerkamoth, Kols, Kroina, Kunkarna, Libicocco, Lissala, Lissala (pre-Earthfall), Lorcan, Lorthact, Losarkur, Lymnieris, Maat, Maeha, Magdh, Magrim, Mahathallah, Malacoda, Malthus, Mammon, Matravash, Mephistopheles, Minderhal, Moloch, Morrobahn, Mursha, Myr, Nergal, Neshen, Olheon, Onamahli, Ose, Osiris, Otikaya, Otolmens, Pirias, Prihasta, Psomeira, Quindiovatos, Ra, Raetorgash, Ragathiel, Rahu, Rasvocel, Ravana, Rubicante, Ruzel, Rytara, Sabnach, Scarmiglione, Shizuru, Sicva, Smiad, Sugroz, Surpa, Svarozic, Tanagaar, Taraksun, Thoth, Titivilus, Torag, Tsukiyo, Uruskreil, Uzumae, Valmallos, Vapula, Vevelor, Vibhishah, Vildeis, Vois, Wadjet, Winlas, Wylgart, Xhasnaphar, Yaezhing, Yan-gant-y-tan, Zabha, Zaebos, Zepar, Zohls, Zon-Kuthon, Zurapadyn, Zursvaater</p><p><b>Granted Powers: </b>You follow a strict and ordered code of laws, and in so doing, achieve enlightenment.</p><p><b>Domain Spells </b>: 1st-protection from chaos, 2nd-align weapon (law only), 3rd-magic circle against chaos, 4th-order's wrath, 5th-dispel chaos, 6th-hold monster, 7th-dictum, 8th-shield of law, 9th-summon monster IX (law spell only).</p>",
      "unidentified": ""
    },
    "tags": [
      "Cleric",
      "Cleric Domain"
    ],
    "actions": [],
    "uses": {
      "per": null,
      "value": 0,
      "maxFormula": "",
      "autoDeductChargesCost": "1"
    },
    "attackNotes": [],
    "effectNotes": [],
    "changes": [],
    "changeFlags": {
      "loseDexToAC": false,
      "noEncumbrance": false,
      "mediumArmorFullSpeed": false,
      "heavyArmorFullSpeed": false
    },
    "contextNotes": [],
    "links": {
      "children": [],
      "charges": []
    },
    "tag": "",
    "useCustomTag": false,
    "armorProf": {
      "value": [],
      "custom": ""
    },
    "weaponProf": {
      "value": [],
      "custom": ""
    },
    "languages": {
      "value": [],
      "custom": ""
    },
    "flags": {
      "boolean": {},
      "dictionary": {}
    },
    "scriptCalls": [],
    "subType": "classFeat",
    "associations": {
      "classes": [
        "Cleric"
      ]
    },
    "showInQuickbar": false,
    "abilityType": "none",
    "crOffset": "",
    "disabled": false,
    "classSkills": {}
  },
  "ownership": {
    "default": 0
  },
  "_stats": {
    "systemId": "pf1",
    "systemVersion": "9.1",
    "coreVersion": "10.291",
    "createdTime": 1665428269918,
    "modifiedTime": 1689797840033,
    "lastModifiedBy": "ppv91YxratjWnkJi"
  },
  "effects": [],
  "folder": null,
  "sort": 0,
  "flags": {},
  "_key": "!items!JMap8mQFN7PsQWqE"
}