{
  "_id": "z37Xy7Pmj9xaLqhQ",
  "name": "Lay of Scholar-King (Oratory, Sing)",
  "type": "feat",
  "img": "systems/pf1/icons/items/inventory/drum.jpg",
  "system": {
    "description": {
      "value": "<strong>Skald Saga</strong><br/><br/><p>Your tale of a scholarly king sharpens your intellect, but makes others treat you with contempt.</p><p><b>Prerequisite: </b>Knowledge (history) 2 ranks, Perform (oratory) or Perform (sing) 4 ranks.</p><p><b>Cost: </b>Feat or 2nd-level skald spell known.</p><p><b>Effect: </b>You tell the sad tale of studious and introspective King Jarguut, son of Ethered. King Jarguut ruled the Linnorm Kingdom of Raemerrund, but his kingdom fractured when the thanes would not respect his intellect. While you maintain the performance, you can add your Charisma modifier (minimum +1) to Intelligence-based skill checks in addition to your Intelligence modifier, but you take your Intelligence bonus as a penalty on all Charisma-based skill checks (minimum -1).</p><p><b>Use: </b>1 raging song round per round.</p><p><b>Action: </b>1 minute.</p>",
      "unidentified": ""
    },
    "tags": [
      "Skald",
      "Skald Saga"
    ],
    "actions": [],
    "uses": {
      "per": null,
      "value": 0,
      "maxFormula": "",
      "autoDeductChargesCost": "1"
    },
    "attackNotes": [],
    "effectNotes": [],
    "changes": [],
    "changeFlags": {
      "loseDexToAC": false,
      "noEncumbrance": false,
      "mediumArmorFullSpeed": false,
      "heavyArmorFullSpeed": false
    },
    "contextNotes": [],
    "links": {
      "children": [],
      "charges": []
    },
    "tag": "",
    "useCustomTag": false,
    "armorProf": {
      "value": [],
      "custom": ""
    },
    "weaponProf": {
      "value": [],
      "custom": ""
    },
    "languages": {
      "value": [],
      "custom": ""
    },
    "flags": {
      "boolean": {},
      "dictionary": {}
    },
    "scriptCalls": [],
    "subType": "classFeat",
    "associations": {
      "classes": [
        "Skald"
      ]
    },
    "showInQuickbar": false,
    "abilityType": "none",
    "crOffset": "",
    "disabled": false,
    "classSkills": {}
  },
  "ownership": {
    "default": 0
  },
  "_stats": {
    "systemId": "pf1",
    "systemVersion": "9.1",
    "coreVersion": "10.291",
    "createdTime": 1665428277979,
    "modifiedTime": 1689797868912,
    "lastModifiedBy": "ppv91YxratjWnkJi"
  },
  "effects": [],
  "folder": null,
  "sort": 0,
  "flags": {},
  "_key": "!items!z37Xy7Pmj9xaLqhQ"
}