{
  "_id": "7DqLdnGVtxtSaDcw",
  "name": "Legalistic",
  "type": "feat",
  "img": "systems/pf1/icons/skills/red_09.jpg",
  "system": {
    "description": {
      "value": "<strong>Oracle Curse</strong><br/><br/><p>The shackles of Hell impose savage consequences should you violate a covenant, but also imbue you with remarkable guile. Whenever you break your word (either purposefully or unintentionally), you become sickened for 24 hours or until you meet your obligation, whichever comes first. However, once per day, you can make a vow to yourself that grants a +4 morale bonus on any one roll you make while trying to fulfill a promise made to another individual. At 5th level, you gain a +3 competence bonus on Diplomacy, Intimidate, and Sense Motive checks while talking to an individual one-on-one. At 10th level, you can make a new saving throw each minute to resist mind-affecting effects as your subconscious searches for loopholes. At 15th level, any creature that violates its freely given word to you takes a penalty to AC, to spell resistance, and on saving throws against your attacks and abilities equal to your Charisma modifier (minimum 1) for 24 hours.</p>",
      "unidentified": ""
    },
    "tags": [
      "Oracle",
      "Oracle Curse"
    ],
    "actions": [],
    "uses": {
      "per": null,
      "value": 0,
      "maxFormula": "",
      "autoDeductChargesCost": "1"
    },
    "attackNotes": [],
    "effectNotes": [],
    "changes": [],
    "changeFlags": {
      "loseDexToAC": false,
      "noEncumbrance": false,
      "mediumArmorFullSpeed": false,
      "heavyArmorFullSpeed": false
    },
    "contextNotes": [],
    "links": {
      "children": [],
      "charges": []
    },
    "tag": "",
    "useCustomTag": false,
    "armorProf": {
      "value": [],
      "custom": ""
    },
    "weaponProf": {
      "value": [],
      "custom": ""
    },
    "languages": {
      "value": [],
      "custom": ""
    },
    "flags": {
      "boolean": {},
      "dictionary": {}
    },
    "scriptCalls": [],
    "subType": "classFeat",
    "associations": {
      "classes": [
        "Oracle"
      ]
    },
    "showInQuickbar": false,
    "abilityType": "none",
    "crOffset": "",
    "disabled": false,
    "classSkills": {}
  },
  "ownership": {
    "default": 0
  },
  "_stats": {
    "systemId": "pf1",
    "systemVersion": "9.1",
    "coreVersion": "10.291",
    "createdTime": 1665428268063,
    "modifiedTime": 1689797829539,
    "lastModifiedBy": "ppv91YxratjWnkJi"
  },
  "effects": [],
  "folder": null,
  "sort": 0,
  "flags": {},
  "_key": "!items!7DqLdnGVtxtSaDcw"
}