{
  "_id": "xv6aWDsBfSPuYHoh",
  "name": "Liberation (Domain)",
  "type": "feat",
  "img": "systems/pf1/icons/items/inventory/badge-cross.jpg",
  "system": {
    "description": {
      "value": "<strong>Cleric Domain</strong><br/><br/><p><b>Deities: </b>Anogetz, Arshea, Black Butterfly, Desna, Eaqueo, Falayna, Feronia, Kazutal, Khepri, Llamolaek, Lorris, Milani, Mneoc, Narriseminer, Neshen, Ondisso, Saloc, Scal, Shei, Ssila'meshnik, Sun Wukong, Taraksun, Vapula, Vevelor, Xhasnaphar, Zaigasnar</p><p><b>Granted Powers: </b>You are a spirit of freedom and a staunch foe against all who would enslave and oppress.</p><p><b>Domain Spells: </b>1st-remove fear, 2nd-remove paralysis, 3rd-remove curse, 4th-freedom of movement, 5th-break enchantment, 6th-greater dispel magic, 7th-refuge, 8th-mind blank, 9th-freedom.</p>",
      "unidentified": ""
    },
    "tags": [
      "Cleric",
      "Cleric Domain"
    ],
    "actions": [],
    "uses": {
      "per": null,
      "value": 0,
      "maxFormula": "",
      "autoDeductChargesCost": "1"
    },
    "attackNotes": [],
    "effectNotes": [],
    "changes": [],
    "changeFlags": {
      "loseDexToAC": false,
      "noEncumbrance": false,
      "mediumArmorFullSpeed": false,
      "heavyArmorFullSpeed": false
    },
    "contextNotes": [],
    "links": {
      "children": [],
      "charges": []
    },
    "tag": "",
    "useCustomTag": false,
    "armorProf": {
      "value": [],
      "custom": ""
    },
    "weaponProf": {
      "value": [],
      "custom": ""
    },
    "languages": {
      "value": [],
      "custom": ""
    },
    "flags": {
      "boolean": {},
      "dictionary": {}
    },
    "scriptCalls": [],
    "subType": "classFeat",
    "associations": {
      "classes": [
        "Cleric"
      ]
    },
    "showInQuickbar": false,
    "abilityType": "none",
    "crOffset": "",
    "disabled": false,
    "classSkills": {}
  },
  "ownership": {
    "default": 0
  },
  "_stats": {
    "systemId": "pf1",
    "systemVersion": "9.1",
    "coreVersion": "10.291",
    "createdTime": 1665428277873,
    "modifiedTime": 1689797868337,
    "lastModifiedBy": "ppv91YxratjWnkJi"
  },
  "effects": [],
  "folder": null,
  "sort": 0,
  "flags": {},
  "_key": "!items!xv6aWDsBfSPuYHoh"
}