{
  "_id": "TNKtIdcmtkTQxBrX",
  "name": "Life Budding in Salted Earth (Sing, String, Wind)",
  "type": "feat",
  "img": "systems/pf1/icons/items/inventory/lute.jpg",
  "system": {
    "description": {
      "value": "<strong>Bard - Masterpieces</strong><br/><br/><p>This delicate tune suggests the determined sprouting of seedlings through barren, rocky soil. Both its motif and effects are popular in Rahadoum, where the tune is also known as 'Spring Inside.'</p><p>Prerequisite: Perform (sing), Perform (string), or Perform (wind) 4 ranks.</p><p>Cost: Feat or 3rd-level bard spell known.</p><p>Effect: This masterpiece grants all allies within 30 feet fast healing 1 for as long as the bard maintains the performance. He may increase the cost per round of the performance up to a total number equal to half his bard level to increase the fast healing by 1 for each additional round expended.</p><p>Use: 1 bardic performance round per round, plus 1 or more additional uses per round to increase the duration of this effect.</p><p>Action: 1 standard action.</p>",
      "unidentified": ""
    },
    "tags": [
      "Bard",
      "Bard - Masterpieces"
    ],
    "actions": [],
    "uses": {
      "per": null,
      "value": 0,
      "maxFormula": "",
      "autoDeductChargesCost": "1"
    },
    "attackNotes": [],
    "effectNotes": [],
    "changes": [],
    "changeFlags": {
      "loseDexToAC": false,
      "noEncumbrance": false,
      "mediumArmorFullSpeed": false,
      "heavyArmorFullSpeed": false
    },
    "contextNotes": [],
    "links": {
      "children": [],
      "charges": []
    },
    "tag": "",
    "useCustomTag": false,
    "armorProf": {
      "value": [],
      "custom": ""
    },
    "weaponProf": {
      "value": [],
      "custom": ""
    },
    "languages": {
      "value": [],
      "custom": ""
    },
    "flags": {
      "boolean": {},
      "dictionary": {}
    },
    "scriptCalls": [],
    "subType": "classFeat",
    "associations": {
      "classes": [
        "Bard"
      ]
    },
    "showInQuickbar": false,
    "abilityType": "none",
    "crOffset": "",
    "disabled": false,
    "classSkills": {}
  },
  "ownership": {
    "default": 0
  },
  "_stats": {
    "systemId": "pf1",
    "systemVersion": "9.1",
    "coreVersion": "10.291",
    "createdTime": 1665428271733,
    "modifiedTime": 1689797847600,
    "lastModifiedBy": "ppv91YxratjWnkJi"
  },
  "effects": [],
  "folder": null,
  "sort": 0,
  "flags": {},
  "_key": "!items!TNKtIdcmtkTQxBrX"
}