{
  "_id": "Jh7BnPxRutysyyX8",
  "name": "Life Leach",
  "type": "feat",
  "img": "systems/pf1/icons/skills/red_09.jpg",
  "system": {
    "description": {
      "value": "<strong>Oracle Nature Mystery Power</strong><br/><br/><p>You can draw life force from the bodies of enemies and channel it into yourself. As a standard action, you can drain the life essence from one living target within 30 feet. The target takes 1d6 points of damage per two levels you possess (maximum 10d6). You gain temporary hit points equal to the damage you deal. You can't gain more than the target's current hit points + the target's Constitution score (which is enough to kill the subject). The temporary hit points last a number of hours equal to your Charisma modifier. The target receives a Fortitude save to halve the damage (and the temporary hit points you gain). You may use this ability once per day at 7th level, plus one additional time per day for every 4 levels you possess beyond 7th. You must be at least 7th level before selecting this revelation.</p>",
      "unidentified": ""
    },
    "tags": [
      "Oracle",
      "Oracle Nature Mystery Power"
    ],
    "actions": [],
    "uses": {
      "per": null,
      "value": 0,
      "maxFormula": "",
      "autoDeductChargesCost": "1"
    },
    "attackNotes": [],
    "effectNotes": [],
    "changes": [],
    "changeFlags": {
      "loseDexToAC": false,
      "noEncumbrance": false,
      "mediumArmorFullSpeed": false,
      "heavyArmorFullSpeed": false
    },
    "contextNotes": [],
    "links": {
      "children": [],
      "charges": []
    },
    "tag": "",
    "useCustomTag": false,
    "armorProf": {
      "value": [],
      "custom": ""
    },
    "weaponProf": {
      "value": [],
      "custom": ""
    },
    "languages": {
      "value": [],
      "custom": ""
    },
    "flags": {
      "boolean": {},
      "dictionary": {}
    },
    "scriptCalls": [],
    "subType": "classFeat",
    "associations": {
      "classes": [
        "Oracle"
      ]
    },
    "showInQuickbar": false,
    "abilityType": "none",
    "crOffset": "",
    "disabled": false,
    "classSkills": {}
  },
  "ownership": {
    "default": 0
  },
  "_stats": {
    "systemId": "pf1",
    "systemVersion": "9.1",
    "coreVersion": "10.291",
    "createdTime": 1665428269940,
    "modifiedTime": 1689797840166,
    "lastModifiedBy": "ppv91YxratjWnkJi"
  },
  "effects": [],
  "folder": null,
  "sort": 0,
  "flags": {},
  "_key": "!items!Jh7BnPxRutysyyX8"
}