{
  "_id": "tOCxWAsi78KNhqzI",
  "name": "Lingering Spirit (Ex)",
  "type": "feat",
  "img": "systems/pf1/icons/items/potions/grand-yellow.jpg",
  "system": {
    "description": {
      "value": "<strong>Alchemist Discovery</strong><br/><br/><p>The alchemist is familiar enough with the ties between his body and spirit that he lingers at death's door far longer than a normal person. He treats his Constitution as 10 points higher than normal for the purpose of determining when hit point damage kills him (so an alchemist with a Constitution of 10 and this discovery dies at -20 hit points instead of -10). Reducing him to 0 Constitution or its equivalent (from ability damage, ability drain, Constitution penalties, and so on) makes him unconscious and comatose, but he is only killed after taking an additional 5 points of Constitution damage, drain, or penalty (in effect, the alchemist must be brought to -5 Constitution in order to be killed by these attacks). An alchemist must be at least 4th level before selecting this discovery.</p>",
      "unidentified": ""
    },
    "tags": [
      "Alchemist",
      "Alchemist Discovery"
    ],
    "actions": [],
    "uses": {
      "per": null,
      "value": 0,
      "maxFormula": "",
      "autoDeductChargesCost": "1"
    },
    "attackNotes": [],
    "effectNotes": [],
    "changes": [],
    "changeFlags": {
      "loseDexToAC": false,
      "noEncumbrance": false,
      "mediumArmorFullSpeed": false,
      "heavyArmorFullSpeed": false
    },
    "contextNotes": [],
    "links": {
      "children": [],
      "charges": []
    },
    "tag": "",
    "useCustomTag": false,
    "armorProf": {
      "value": [],
      "custom": ""
    },
    "weaponProf": {
      "value": [],
      "custom": ""
    },
    "languages": {
      "value": [],
      "custom": ""
    },
    "flags": {
      "boolean": {},
      "dictionary": {}
    },
    "scriptCalls": [],
    "subType": "classFeat",
    "associations": {
      "classes": [
        "Alchemist"
      ]
    },
    "showInQuickbar": false,
    "abilityType": "none",
    "crOffset": "",
    "disabled": false,
    "classSkills": {}
  },
  "ownership": {
    "default": 0
  },
  "_stats": {
    "systemId": "pf1",
    "systemVersion": "9.1",
    "coreVersion": "10.291",
    "createdTime": 1665428276605,
    "modifiedTime": 1689797865150,
    "lastModifiedBy": "ppv91YxratjWnkJi"
  },
  "effects": [],
  "folder": null,
  "sort": 0,
  "flags": {},
  "_key": "!items!tOCxWAsi78KNhqzI"
}