{
  "_id": "zeJpNR2d70bQD7e6",
  "name": "Living Pigment",
  "type": "feat",
  "img": "systems/pf1/icons/items/potions/grand-yellow.jpg",
  "system": {
    "description": {
      "value": "<strong>Alchemist Discovery</strong><br/><br/><p>The alchemist infuses his inks and dyes with a spark of animating force. As a standard action, he can expend one daily use of his bombs and a 1st-level extract he has prepared to create a creature, as summon monster I, using his level as the spell's caster level. The extract is expended as if the alchemist had consumed it. The alchemist can expend a higher-level extract when using this ability to create a creature using a summon monster spell of a level equal to the level of extract expended. For example, if the alchemist expends a 4th-level extract, he can create a creature as if using summon monster IV. Additionally, the alchemist can expend an additional use of his daily bombs when creating a creature in this way to grant the creature the celestial or fiendish template. The alchemist must have the divine inks discovery before selecting this discovery.</p>",
      "unidentified": ""
    },
    "tags": [
      "Alchemist",
      "Alchemist Discovery"
    ],
    "actions": [],
    "uses": {
      "per": null,
      "value": 0,
      "maxFormula": "",
      "autoDeductChargesCost": "1"
    },
    "attackNotes": [],
    "effectNotes": [],
    "changes": [],
    "changeFlags": {
      "loseDexToAC": false,
      "noEncumbrance": false,
      "mediumArmorFullSpeed": false,
      "heavyArmorFullSpeed": false
    },
    "contextNotes": [],
    "links": {
      "children": [],
      "charges": []
    },
    "tag": "",
    "useCustomTag": false,
    "armorProf": {
      "value": [],
      "custom": ""
    },
    "weaponProf": {
      "value": [],
      "custom": ""
    },
    "languages": {
      "value": [],
      "custom": ""
    },
    "flags": {
      "boolean": {},
      "dictionary": {}
    },
    "scriptCalls": [],
    "subType": "classFeat",
    "associations": {
      "classes": [
        "Alchemist"
      ]
    },
    "showInQuickbar": false,
    "abilityType": "none",
    "crOffset": "",
    "disabled": false,
    "classSkills": {}
  },
  "ownership": {
    "default": 0
  },
  "_stats": {
    "systemId": "pf1",
    "systemVersion": "9.1",
    "coreVersion": "10.291",
    "createdTime": 1665428278032,
    "modifiedTime": 1689797869179,
    "lastModifiedBy": "ppv91YxratjWnkJi"
  },
  "effects": [],
  "folder": null,
  "sort": 0,
  "flags": {},
  "_key": "!items!zeJpNR2d70bQD7e6"
}