{
  "_id": "g820FqizBKN06GGA",
  "name": "Loss Subdomain",
  "type": "feat",
  "img": "systems/pf1/icons/items/inventory/badge-cross.jpg",
  "system": {
    "description": {
      "value": "<strong>Cleric Subdomain</strong><br/><br/><p><b>Associated Domain(s): </b>Darkness</p><p><b>Associated Deities: </b>Ahriman, Alazhra, Apollyon, Count Ranalc, Diceid, Droskar, Groetus, Iggeret, Lao Shu Po, Maeha, Mordiggian, Nalmungder, Nightripper, Nocticula, Nyarlathotep (Haunter of the Dark), Rahu, Reymenda, Set, Shawnari, Shivaska, Sifkesh, Slandrais, Tresmalvos, Zon-Kuthon</p><p><b>Replacement Power: </b>The following granted power replaces the eyes of darkness power of the Darkness domain.</p><p><b>Replacement Domain Spells: </b>5th-enervation, 6th-modify memory, 9th-energy drain.</p>",
      "unidentified": ""
    },
    "tags": [
      "Cleric",
      "Cleric Subdomain"
    ],
    "actions": [],
    "uses": {
      "per": null,
      "value": 0,
      "maxFormula": "",
      "autoDeductChargesCost": "1"
    },
    "attackNotes": [],
    "effectNotes": [],
    "changes": [],
    "changeFlags": {
      "loseDexToAC": false,
      "noEncumbrance": false,
      "mediumArmorFullSpeed": false,
      "heavyArmorFullSpeed": false
    },
    "contextNotes": [],
    "links": {
      "children": [],
      "charges": []
    },
    "tag": "",
    "useCustomTag": false,
    "armorProf": {
      "value": [],
      "custom": ""
    },
    "weaponProf": {
      "value": [],
      "custom": ""
    },
    "languages": {
      "value": [],
      "custom": ""
    },
    "flags": {
      "boolean": {},
      "dictionary": {}
    },
    "scriptCalls": [],
    "subType": "classFeat",
    "associations": {
      "classes": [
        "Cleric"
      ]
    },
    "showInQuickbar": false,
    "abilityType": "none",
    "crOffset": "",
    "disabled": false,
    "classSkills": {}
  },
  "ownership": {
    "default": 0
  },
  "_stats": {
    "systemId": "pf1",
    "systemVersion": "9.1",
    "coreVersion": "10.291",
    "createdTime": 1665428274107,
    "modifiedTime": 1689797856779,
    "lastModifiedBy": "ppv91YxratjWnkJi"
  },
  "effects": [],
  "folder": null,
  "sort": 0,
  "flags": {},
  "_key": "!items!g820FqizBKN06GGA"
}