{
  "_id": "7lZPR8uX2Lct8IJg",
  "name": "Luck",
  "type": "feat",
  "img": "systems/pf1/icons/skills/yellow_21.jpg",
  "system": {
    "description": {
      "value": "<strong>Warpriest Blessing</strong><br/><br/><p><b>Deities: </b>Calistria, Desna, Shelyn.</p><p><b>Lucky Presence (minor): </b>At 1st level, you can touch an ally and grant it a lucky presence. The target of this luck can call upon it to roll any one ability check, attack roll, saving throw, or skill check twice and take the better result. The decision to use this ability must be made before the roll is made. Once used, or once 1 minute passes, the effect ends.</p><p><b>Unlucky Enemy (major): </b>At 10th level, as an immediate action you can force an adjacent opponent to reroll an attack, saving throw, or skill or ability check it just attempted; it must take the lower of the two rolls. You must declare this after the roll is made but before the result is revealed.</p>",
      "unidentified": ""
    },
    "tags": [
      "Warpriest",
      "Warpriest Blessing"
    ],
    "actions": [],
    "uses": {
      "per": null,
      "value": 0,
      "maxFormula": "",
      "autoDeductChargesCost": "1"
    },
    "attackNotes": [],
    "effectNotes": [],
    "changes": [],
    "changeFlags": {
      "loseDexToAC": false,
      "noEncumbrance": false,
      "mediumArmorFullSpeed": false,
      "heavyArmorFullSpeed": false
    },
    "contextNotes": [],
    "links": {
      "children": [],
      "charges": []
    },
    "tag": "",
    "useCustomTag": false,
    "armorProf": {
      "value": [],
      "custom": ""
    },
    "weaponProf": {
      "value": [],
      "custom": ""
    },
    "languages": {
      "value": [],
      "custom": ""
    },
    "flags": {
      "boolean": {},
      "dictionary": {}
    },
    "scriptCalls": [],
    "subType": "classFeat",
    "associations": {
      "classes": [
        "Warpriest"
      ]
    },
    "showInQuickbar": false,
    "abilityType": "none",
    "crOffset": "",
    "disabled": false,
    "classSkills": {}
  },
  "ownership": {
    "default": 0
  },
  "_stats": {
    "systemId": "pf1",
    "systemVersion": "9.1",
    "coreVersion": "10.291",
    "createdTime": 1665428268117,
    "modifiedTime": 1689797829856,
    "lastModifiedBy": "ppv91YxratjWnkJi"
  },
  "effects": [],
  "folder": null,
  "sort": 0,
  "flags": {},
  "_key": "!items!7lZPR8uX2Lct8IJg"
}