{
  "_id": "fumZswCktkJwH3fJ",
  "name": "Lunar",
  "type": "feat",
  "img": "systems/pf1/icons/skills/red_09.jpg",
  "system": {
    "description": {
      "value": "<strong>Oracle Mystery</strong><br/><br/><p><b>Deities: </b>Ashava, Desna, Groetus, Jezelda, Tsukiyo, Zon-Kuthon.</p><p><b>Class Skills: </b>An oracle with the lunar mystery adds Acrobatics, Knowledge (Nature), Perception, and Survival to her list of class skills.</p><p><b>Bonus Spells: </b>fumbletongue (2nd), dust of twilight (4th), rage (6th), moonstruck (8th), aspect of the wolf (10th), litany of madness (12th), lunar veil (14th), blood mist (16th), polar midnight (18th).</p><p><b>Revelations: </b>An oracle with the Lunar mystery can choose from any of the following revelations.</p>",
      "unidentified": ""
    },
    "tags": [
      "Oracle",
      "Oracle Mystery"
    ],
    "actions": [],
    "uses": {
      "per": null,
      "value": 0,
      "maxFormula": "",
      "autoDeductChargesCost": "1"
    },
    "attackNotes": [],
    "effectNotes": [],
    "changes": [],
    "changeFlags": {
      "loseDexToAC": false,
      "noEncumbrance": false,
      "mediumArmorFullSpeed": false,
      "heavyArmorFullSpeed": false
    },
    "contextNotes": [],
    "links": {
      "children": [],
      "charges": []
    },
    "tag": "",
    "useCustomTag": false,
    "armorProf": {
      "value": [],
      "custom": ""
    },
    "weaponProf": {
      "value": [],
      "custom": ""
    },
    "languages": {
      "value": [],
      "custom": ""
    },
    "flags": {
      "boolean": {},
      "dictionary": {}
    },
    "scriptCalls": [],
    "subType": "classFeat",
    "associations": {
      "classes": [
        "Oracle"
      ]
    },
    "showInQuickbar": false,
    "abilityType": "none",
    "crOffset": "",
    "disabled": false,
    "classSkills": {}
  },
  "ownership": {
    "default": 0
  },
  "_stats": {
    "systemId": "pf1",
    "systemVersion": "9.1",
    "coreVersion": "10.291",
    "createdTime": 1665428274087,
    "modifiedTime": 1689797856663,
    "lastModifiedBy": "ppv91YxratjWnkJi"
  },
  "effects": [],
  "folder": null,
  "sort": 0,
  "flags": {},
  "_key": "!items!fumZswCktkJwH3fJ"
}