{
  "_id": "Pczm5QVvtNVqsw4z",
  "name": "Lure of the Heavens",
  "type": "feat",
  "img": "systems/pf1/icons/skills/red_09.jpg",
  "system": {
    "description": {
      "value": "<strong>Oracle Heavens Mystery Power</strong><br/><br/><p>Your connection to the skies above is so strong that your feet barely touch the ground. At 1st level, you no longer leave tracks. At 5th level, you can hover up to 6 inches above the ground or even above liquid surfaces, as if levitating. At 10th level, you gain the ability to fly, as per the spell, for a number of minutes per day equal to your oracle level. This duration does not need to be consecutive, but it must be spent in 1-minute increments.</p>",
      "unidentified": ""
    },
    "tags": [
      "Oracle",
      "Oracle Heavens Mystery Power"
    ],
    "actions": [],
    "uses": {
      "per": null,
      "value": 0,
      "maxFormula": "",
      "autoDeductChargesCost": "1"
    },
    "attackNotes": [],
    "effectNotes": [],
    "changes": [],
    "changeFlags": {
      "loseDexToAC": false,
      "noEncumbrance": false,
      "mediumArmorFullSpeed": false,
      "heavyArmorFullSpeed": false
    },
    "contextNotes": [],
    "links": {
      "children": [],
      "charges": []
    },
    "tag": "",
    "useCustomTag": false,
    "armorProf": {
      "value": [],
      "custom": ""
    },
    "weaponProf": {
      "value": [],
      "custom": ""
    },
    "languages": {
      "value": [],
      "custom": ""
    },
    "flags": {
      "boolean": {},
      "dictionary": {}
    },
    "scriptCalls": [],
    "subType": "classFeat",
    "associations": {
      "classes": [
        "Oracle"
      ]
    },
    "showInQuickbar": false,
    "abilityType": "none",
    "crOffset": "",
    "disabled": false,
    "classSkills": {}
  },
  "ownership": {
    "default": 0
  },
  "_stats": {
    "systemId": "pf1",
    "systemVersion": "9.1",
    "coreVersion": "10.291",
    "createdTime": 1665428271086,
    "modifiedTime": 1689797845035,
    "lastModifiedBy": "ppv91YxratjWnkJi"
  },
  "effects": [],
  "folder": null,
  "sort": 0,
  "flags": {},
  "_key": "!items!Pczm5QVvtNVqsw4z"
}