{
  "_id": "XzctbbpGurM3bBs6",
  "name": "Marid Bloodline",
  "type": "feat",
  "img": "systems/pf1/icons/spells/fireball-red-3.jpg",
  "system": {
    "description": {
      "value": "<strong>Sorcerer Bloodline</strong><br/><br/><p>You were born with the power of water genies, and the magic of the marids is strong in you.</p><p><b>Class Skill: </b>Knowledge (planes).</p><p><b>Bonus Spells: </b>obscuring mist (3rd), see invisibility (5th), gaseous form (7th), wall of ice (9th), persistent image (11th), elemental body III (13th), plane shift (15th), polar ray (17th), wish (19th).</p><p><b>Bonus Feats: </b>Dodge, Empower Spell, Great Fortitude, Improved Initiative, Lightning Reflexes, Power Attack, Skill Focus (Knowledge [planes]), Weapon Finesse.</p><p><b>Bloodline Arcana: </b>Whenever you cast a spell that deals energy damage, you can change the type of damage to cold. This also changes the spell's descriptors to match this energy type.</p><p><b>Bloodline Powers: </b>Like a marid, you have both natural power over water and several other genie-based abilities.</p>",
      "unidentified": ""
    },
    "tags": [
      "Sorcerer",
      "Sorcerer Bloodline"
    ],
    "actions": [],
    "uses": {
      "per": null,
      "value": 0,
      "maxFormula": "",
      "autoDeductChargesCost": "1"
    },
    "attackNotes": [],
    "effectNotes": [],
    "changes": [],
    "changeFlags": {
      "loseDexToAC": false,
      "noEncumbrance": false,
      "mediumArmorFullSpeed": false,
      "heavyArmorFullSpeed": false
    },
    "contextNotes": [],
    "links": {
      "children": [],
      "charges": []
    },
    "tag": "",
    "useCustomTag": false,
    "armorProf": {
      "value": [],
      "custom": ""
    },
    "weaponProf": {
      "value": [],
      "custom": ""
    },
    "languages": {
      "value": [],
      "custom": ""
    },
    "flags": {
      "boolean": {},
      "dictionary": {}
    },
    "scriptCalls": [],
    "subType": "classFeat",
    "associations": {
      "classes": [
        "Sorcerer"
      ]
    },
    "showInQuickbar": false,
    "abilityType": "none",
    "crOffset": "",
    "disabled": false,
    "classSkills": {}
  },
  "ownership": {
    "default": 0
  },
  "_stats": {
    "systemId": "pf1",
    "systemVersion": "9.1",
    "coreVersion": "10.291",
    "createdTime": 1665428272792,
    "modifiedTime": 1689797851211,
    "lastModifiedBy": "ppv91YxratjWnkJi"
  },
  "effects": [],
  "folder": null,
  "sort": 0,
  "flags": {},
  "_key": "!items!XzctbbpGurM3bBs6"
}