{
  "_id": "7urpXiHX9SJ0xQIB",
  "name": "Mask",
  "type": "feat",
  "img": "systems/pf1/icons/items/inventory/book-purple.jpg",
  "system": {
    "description": {
      "value": "<strong>Occultist Sacred Implement</strong><br/><br/><p><b>Deity </b>Norgorber; <b>Implement </b>mask; <b>Opposition School </b>conjuration</p><p><i>Psychic Mirage (Sp): </i>You can expend 1 point of mental focus to become invisible to a single target within 30 feet, as per invisibility, and remain so for 1 minute per occultist level you have. This invisibility doesn't affect other creatures. While within 30 feet of the target, you can expend 1 point of mental focus to read the target's surface thoughts as per detect thoughts.</p>",
      "unidentified": ""
    },
    "tags": [
      "Occultist",
      "Occultist Sacred Implement"
    ],
    "actions": [],
    "uses": {
      "per": null,
      "value": 0,
      "maxFormula": "",
      "autoDeductChargesCost": "1"
    },
    "attackNotes": [],
    "effectNotes": [],
    "changes": [],
    "changeFlags": {
      "loseDexToAC": false,
      "noEncumbrance": false,
      "mediumArmorFullSpeed": false,
      "heavyArmorFullSpeed": false
    },
    "contextNotes": [],
    "links": {
      "children": [],
      "charges": []
    },
    "tag": "",
    "useCustomTag": false,
    "armorProf": {
      "value": [],
      "custom": ""
    },
    "weaponProf": {
      "value": [],
      "custom": ""
    },
    "languages": {
      "value": [],
      "custom": ""
    },
    "flags": {
      "boolean": {},
      "dictionary": {}
    },
    "scriptCalls": [],
    "subType": "classFeat",
    "associations": {
      "classes": [
        "Occultist"
      ]
    },
    "showInQuickbar": false,
    "abilityType": "none",
    "crOffset": "",
    "disabled": false,
    "classSkills": {}
  },
  "ownership": {
    "default": 0
  },
  "_stats": {
    "systemId": "pf1",
    "systemVersion": "9.1",
    "coreVersion": "10.291",
    "createdTime": 1665428268124,
    "modifiedTime": 1689797829915,
    "lastModifiedBy": "ppv91YxratjWnkJi"
  },
  "effects": [],
  "folder": null,
  "sort": 0,
  "flags": {},
  "_key": "!items!7urpXiHX9SJ0xQIB"
}