{
  "_id": "v3ZShFyMvpWRNmy9",
  "name": "Master-Thought Koan",
  "type": "feat",
  "img": "systems/pf1/icons/items/equipment/gloves.jpg",
  "system": {
    "description": {
      "value": "<strong>Ki Powers (Unchained)</strong><br/><br/><p>A monk with this ability can spend an additional 2 ki points when using either the breaking-down koan or building-up koan ki powers. When combined with master-thought koan, breaking-down koan affects a number of characters of your choice within 30 feet equal to the monk's wisdom modifier. When combined with master-thought koan, building-up koan can be used on an ally within 30 feet. A monk must be at least 12th level and have either the breaking-down koan or the building-up koan ki power before selecting this ki power.</p>",
      "unidentified": ""
    },
    "tags": [
      "Monk (Unchained)",
      "Ki Powers (Unchained)"
    ],
    "actions": [],
    "uses": {
      "per": null,
      "value": 0,
      "maxFormula": "",
      "autoDeductChargesCost": "1"
    },
    "attackNotes": [],
    "effectNotes": [],
    "changes": [],
    "changeFlags": {
      "loseDexToAC": false,
      "noEncumbrance": false,
      "mediumArmorFullSpeed": false,
      "heavyArmorFullSpeed": false
    },
    "contextNotes": [],
    "links": {
      "children": [],
      "charges": []
    },
    "tag": "",
    "useCustomTag": false,
    "armorProf": {
      "value": [],
      "custom": ""
    },
    "weaponProf": {
      "value": [],
      "custom": ""
    },
    "languages": {
      "value": [],
      "custom": ""
    },
    "flags": {
      "boolean": {},
      "dictionary": {}
    },
    "scriptCalls": [],
    "subType": "classFeat",
    "associations": {
      "classes": [
        "Monk (Unchained)"
      ]
    },
    "showInQuickbar": false,
    "abilityType": "none",
    "crOffset": "",
    "disabled": false,
    "classSkills": {}
  },
  "ownership": {
    "default": 0
  },
  "_stats": {
    "systemId": "pf1",
    "systemVersion": "9.1",
    "coreVersion": "10.291",
    "createdTime": 1665428277100,
    "modifiedTime": 1689797866352,
    "lastModifiedBy": "ppv91YxratjWnkJi"
  },
  "effects": [],
  "folder": null,
  "sort": 0,
  "flags": {},
  "_key": "!items!v3ZShFyMvpWRNmy9"
}