{
  "_id": "fhHkiLJrJskD6I7Y",
  "name": "Mesmeric Mirror",
  "type": "feat",
  "img": "systems/pf1/icons/skills/blue_15.jpg",
  "system": {
    "description": {
      "value": "<strong>Mesmerist Trick</strong><br/><br/><p>An illusory image appears near the subject to throw off attackers. The mesmerist can trigger this trick when the subject is attacked or becomes the target of a spell that requires an attack roll. One duplicate of the subject appears, and the attacker must determine randomly which it hits (as mirror image). For every 5 class levels the mesmerist possesses, one additional image appears, to a maximum of five images at 20th level. Each image lasts for 1 minute per mesmerist level or until destroyed. This is an illusion (figment) effect.</p>",
      "unidentified": ""
    },
    "tags": [
      "Mesmerist",
      "Mesmerist Trick"
    ],
    "actions": [],
    "uses": {
      "per": null,
      "value": 0,
      "maxFormula": "",
      "autoDeductChargesCost": "1"
    },
    "attackNotes": [],
    "effectNotes": [],
    "changes": [],
    "changeFlags": {
      "loseDexToAC": false,
      "noEncumbrance": false,
      "mediumArmorFullSpeed": false,
      "heavyArmorFullSpeed": false
    },
    "contextNotes": [],
    "links": {
      "children": [],
      "charges": []
    },
    "tag": "",
    "useCustomTag": false,
    "armorProf": {
      "value": [],
      "custom": ""
    },
    "weaponProf": {
      "value": [],
      "custom": ""
    },
    "languages": {
      "value": [],
      "custom": ""
    },
    "flags": {
      "boolean": {},
      "dictionary": {}
    },
    "scriptCalls": [],
    "subType": "classFeat",
    "associations": {
      "classes": [
        "Mesmerist"
      ]
    },
    "showInQuickbar": false,
    "abilityType": "none",
    "crOffset": "",
    "disabled": false,
    "classSkills": {}
  },
  "ownership": {
    "default": 0
  },
  "_stats": {
    "systemId": "pf1",
    "systemVersion": "9.1",
    "coreVersion": "10.291",
    "createdTime": 1665428274066,
    "modifiedTime": 1689797856536,
    "lastModifiedBy": "ppv91YxratjWnkJi"
  },
  "effects": [],
  "folder": null,
  "sort": 0,
  "flags": {},
  "_key": "!items!fhHkiLJrJskD6I7Y"
}