{
  "_id": "Sfx3ACubW397iupC",
  "name": "Metal Subdomain",
  "type": "feat",
  "img": "systems/pf1/icons/items/inventory/badge-cross.jpg",
  "system": {
    "description": {
      "value": "<strong>Cleric Subdomain</strong><br/><br/><p><b>Associated Domain(s): </b>Earth</p><p><b>Associated Deities: </b>Abadar, Anubis, Ayrzul, Benorus, Brigh, Cixyron, Eldas, Imbrex, Kaikyton, Mammon, Minderhal, Murnath, Omrataji, Onos, Orgesh, Ptah, Quindiovatos, Torag, Ushitora, Varg, Wylgart</p><p><b>Replacement Power: </b>The following granted power replaces the acid dart power of the Earth domain.</p><p><b>Replacement Domain Spells: </b>2nd-heat metal, 6th-wall of iron, 8th-iron body.</p>",
      "unidentified": ""
    },
    "tags": [
      "Cleric",
      "Cleric Subdomain"
    ],
    "actions": [],
    "uses": {
      "per": null,
      "value": 0,
      "maxFormula": "",
      "autoDeductChargesCost": "1"
    },
    "attackNotes": [],
    "effectNotes": [],
    "changes": [],
    "changeFlags": {
      "loseDexToAC": false,
      "noEncumbrance": false,
      "mediumArmorFullSpeed": false,
      "heavyArmorFullSpeed": false
    },
    "contextNotes": [],
    "links": {
      "children": [],
      "charges": []
    },
    "tag": "",
    "useCustomTag": false,
    "armorProf": {
      "value": [],
      "custom": ""
    },
    "weaponProf": {
      "value": [],
      "custom": ""
    },
    "languages": {
      "value": [],
      "custom": ""
    },
    "flags": {
      "boolean": {},
      "dictionary": {}
    },
    "scriptCalls": [],
    "subType": "classFeat",
    "associations": {
      "classes": [
        "Cleric"
      ]
    },
    "showInQuickbar": false,
    "abilityType": "none",
    "crOffset": "",
    "disabled": false,
    "classSkills": {}
  },
  "ownership": {
    "default": 0
  },
  "_stats": {
    "systemId": "pf1",
    "systemVersion": "9.1",
    "coreVersion": "10.291",
    "createdTime": 1665428271673,
    "modifiedTime": 1689797847277,
    "lastModifiedBy": "ppv91YxratjWnkJi"
  },
  "effects": [],
  "folder": null,
  "sort": 0,
  "flags": {},
  "_key": "!items!Sfx3ACubW397iupC"
}