{
  "_id": "7S3QgeGsSpVgomsB",
  "name": "Mighty Pebble",
  "type": "feat",
  "img": "systems/pf1/icons/skills/red_09.jpg",
  "system": {
    "description": {
      "value": "<strong>Oracle Stone Mystery Power</strong><br/><br/><p>As a standard action, you can charge and throw a pebble (or other stone of similar size) that detonates when it strikes a target as a ranged attack. The pebble has a range increment of 20 feet and has a +1 enhancement bonus to attack and damage for every four oracle levels you possess. Any creature struck by the pebble takes 1d6 points of bludgeoning damage per two oracle levels you possess (minimum 1d6). Creatures in squares adjacent to the target take half damage, or no damage if they make a Reflex saving throw. If the attack roll misses, treat the pebble as a thrown splash weapon to determine where it lands. You can use this ability once per day, plus one additional time per day at 5th level and every five levels thereafter.</p>",
      "unidentified": ""
    },
    "tags": [
      "Oracle",
      "Oracle Stone Mystery Power"
    ],
    "actions": [],
    "uses": {
      "per": null,
      "value": 0,
      "maxFormula": "",
      "autoDeductChargesCost": "1"
    },
    "attackNotes": [],
    "effectNotes": [],
    "changes": [],
    "changeFlags": {
      "loseDexToAC": false,
      "noEncumbrance": false,
      "mediumArmorFullSpeed": false,
      "heavyArmorFullSpeed": false
    },
    "contextNotes": [],
    "links": {
      "children": [],
      "charges": []
    },
    "tag": "",
    "useCustomTag": false,
    "armorProf": {
      "value": [],
      "custom": ""
    },
    "weaponProf": {
      "value": [],
      "custom": ""
    },
    "languages": {
      "value": [],
      "custom": ""
    },
    "flags": {
      "boolean": {},
      "dictionary": {}
    },
    "scriptCalls": [],
    "subType": "classFeat",
    "associations": {
      "classes": [
        "Oracle"
      ]
    },
    "showInQuickbar": false,
    "abilityType": "none",
    "crOffset": "",
    "disabled": false,
    "classSkills": {}
  },
  "ownership": {
    "default": 0
  },
  "_stats": {
    "systemId": "pf1",
    "systemVersion": "9.1",
    "coreVersion": "10.291",
    "createdTime": 1665428268084,
    "modifiedTime": 1689797829656,
    "lastModifiedBy": "ppv91YxratjWnkJi"
  },
  "effects": [],
  "folder": null,
  "sort": 0,
  "flags": {},
  "_key": "!items!7S3QgeGsSpVgomsB"
}