{
  "_id": "7ZJn8R7qmOxo2TiJ",
  "name": "Mindshield",
  "type": "feat",
  "img": "systems/pf1/icons/skills/beast_04.jpg",
  "system": {
    "description": {
      "value": "<strong>Psychic Minor Phrenic Amplification</strong><br/><br/><p>The psychic can spend 1 point from her phrenic pool to give one target of the linked spell a +2 morale bonus on Will saves for 1 round per psychic level (maximum 10 rounds). The psychic can instead spend 2 points to increase the bonus to +4. If the linked spell affects more than one creature, the psychic can spend the same number of points for each additional creature she wants to affect with this amplification. She must choose to spend either 1 point for each creature or 2 points for each creature; she can't grant different bonuses to different targets.</p>",
      "unidentified": ""
    },
    "tags": [
      "Psychic",
      "Psychic Minor Phrenic Amplification"
    ],
    "actions": [],
    "uses": {
      "per": null,
      "value": 0,
      "maxFormula": "",
      "autoDeductChargesCost": "1"
    },
    "attackNotes": [],
    "effectNotes": [],
    "changes": [],
    "changeFlags": {
      "loseDexToAC": false,
      "noEncumbrance": false,
      "mediumArmorFullSpeed": false,
      "heavyArmorFullSpeed": false
    },
    "contextNotes": [],
    "links": {
      "children": [],
      "charges": []
    },
    "tag": "",
    "useCustomTag": false,
    "armorProf": {
      "value": [],
      "custom": ""
    },
    "weaponProf": {
      "value": [],
      "custom": ""
    },
    "languages": {
      "value": [],
      "custom": ""
    },
    "flags": {
      "boolean": {},
      "dictionary": {}
    },
    "scriptCalls": [],
    "subType": "classFeat",
    "associations": {
      "classes": [
        "Psychic"
      ]
    },
    "showInQuickbar": false,
    "abilityType": "none",
    "crOffset": "",
    "disabled": false,
    "classSkills": {}
  },
  "ownership": {
    "default": 0
  },
  "_stats": {
    "systemId": "pf1",
    "systemVersion": "9.1",
    "coreVersion": "10.291",
    "createdTime": 1665428268103,
    "modifiedTime": 1689797829782,
    "lastModifiedBy": "ppv91YxratjWnkJi"
  },
  "effects": [],
  "folder": null,
  "sort": 0,
  "flags": {},
  "_key": "!items!7ZJn8R7qmOxo2TiJ"
}