{
  "_id": "3kAYGkZA0QabVBoK",
  "name": "Moonbeam",
  "type": "feat",
  "img": "systems/pf1/icons/skills/red_09.jpg",
  "system": {
    "description": {
      "value": "<strong>Oracle Lunar Mystery Power</strong><br/><br/><p>You can fire a ray of moonlight as a ranged touch attack at any creature within 30 feet. This ray deals 1d6 points of damage + 1 for every 2 oracle levels you possess. In addition, the target must succeed at a Fortitude save or become blinded for 1 round. You can use this ability a number of times per day equal to your Charisma modifier (minimum 1).</p>",
      "unidentified": ""
    },
    "tags": [
      "Oracle",
      "Oracle Lunar Mystery Power"
    ],
    "actions": [],
    "uses": {
      "per": null,
      "value": 0,
      "maxFormula": "",
      "autoDeductChargesCost": "1"
    },
    "attackNotes": [],
    "effectNotes": [],
    "changes": [],
    "changeFlags": {
      "loseDexToAC": false,
      "noEncumbrance": false,
      "mediumArmorFullSpeed": false,
      "heavyArmorFullSpeed": false
    },
    "contextNotes": [],
    "links": {
      "children": [],
      "charges": []
    },
    "tag": "",
    "useCustomTag": false,
    "armorProf": {
      "value": [],
      "custom": ""
    },
    "weaponProf": {
      "value": [],
      "custom": ""
    },
    "languages": {
      "value": [],
      "custom": ""
    },
    "flags": {
      "boolean": {},
      "dictionary": {}
    },
    "scriptCalls": [],
    "subType": "classFeat",
    "associations": {
      "classes": [
        "Oracle"
      ]
    },
    "showInQuickbar": false,
    "abilityType": "none",
    "crOffset": "",
    "disabled": false,
    "classSkills": {}
  },
  "ownership": {
    "default": 0
  },
  "_stats": {
    "systemId": "pf1",
    "systemVersion": "9.1",
    "coreVersion": "10.291",
    "createdTime": 1665428267524,
    "modifiedTime": 1689797826111,
    "lastModifiedBy": "ppv91YxratjWnkJi"
  },
  "effects": [],
  "folder": null,
  "sort": 0,
  "flags": {},
  "_key": "!items!3kAYGkZA0QabVBoK"
}