{
  "_id": "BEbK1Lbl1D6Dovbm",
  "name": "Mud School",
  "type": "feat",
  "img": "systems/pf1/icons/spells/beam-magenta-3.jpg",
  "system": {
    "description": {
      "value": "<strong>Wizard Arcane School</strong><br/><br/><p><b>Associated School: </b>Earth or Water.</p><p><b>Replacement Powers: </b>The following school powers replace the acid cloud and earth glide powers of the earth school and the cold blast and wave powers of the water school.</p>",
      "unidentified": ""
    },
    "tags": [
      "Wizard",
      "Wizard Arcane School"
    ],
    "actions": [],
    "uses": {
      "per": null,
      "value": 0,
      "maxFormula": "",
      "autoDeductChargesCost": "1"
    },
    "attackNotes": [],
    "effectNotes": [],
    "changes": [],
    "changeFlags": {
      "loseDexToAC": false,
      "noEncumbrance": false,
      "mediumArmorFullSpeed": false,
      "heavyArmorFullSpeed": false
    },
    "contextNotes": [],
    "links": {
      "children": [],
      "charges": []
    },
    "tag": "",
    "useCustomTag": false,
    "armorProf": {
      "value": [],
      "custom": ""
    },
    "weaponProf": {
      "value": [],
      "custom": ""
    },
    "languages": {
      "value": [],
      "custom": ""
    },
    "flags": {
      "boolean": {},
      "dictionary": {}
    },
    "scriptCalls": [],
    "subType": "classFeat",
    "associations": {
      "classes": [
        "Wizard"
      ]
    },
    "showInQuickbar": false,
    "abilityType": "none",
    "crOffset": "",
    "disabled": false,
    "classSkills": {}
  },
  "ownership": {
    "default": 0
  },
  "_stats": {
    "systemId": "pf1",
    "systemVersion": "9.1",
    "coreVersion": "10.291",
    "createdTime": 1665428268705,
    "modifiedTime": 1689797833805,
    "lastModifiedBy": "ppv91YxratjWnkJi"
  },
  "effects": [],
  "folder": null,
  "sort": 0,
  "flags": {},
  "_key": "!items!BEbK1Lbl1D6Dovbm"
}