{
  "_id": "6iunj2S7lOnCiFsb",
  "name": "Murder Subdomain",
  "type": "feat",
  "img": "systems/pf1/icons/items/inventory/badge-cross.jpg",
  "system": {
    "description": {
      "value": "<strong>Cleric Subdomain</strong><br/><br/><p><b>Associated Domain(s): </b>Death</p><p><b>Associated Deities: </b>Achaekek, Ajids, Andak, Arlachramas, Baalzebul, Barravoclair, Cagnazzo, Chamiaholom, Chaugnar Faugn, Chugarra, Corosbel, Deumus, Farfarello, Gogunta, Hanspur, Ioramvol, Kabriri, Kalma, Menxyr, Nergal, Nightripper, Norgorber, Orcus, Pavnuri, Rahu, Ruzel, Set, Urgathoa, Uzumae, Xhamen-Dor, Yaezhing, Yhidothrus, Zagresh, Zon-Kuthon, Zura, Zyphus</p><p><b>Replacement Power: </b>The following granted power replaces the death's embrace power of the Death domain.</p><p><b>Replacement Domain Spells: </b>3rd-keen edge, 5th-suffocation, 9th-suffocation (mass).</p>",
      "unidentified": ""
    },
    "tags": [
      "Cleric",
      "Cleric Subdomain"
    ],
    "actions": [],
    "uses": {
      "per": null,
      "value": 0,
      "maxFormula": "",
      "autoDeductChargesCost": "1"
    },
    "attackNotes": [],
    "effectNotes": [],
    "changes": [],
    "changeFlags": {
      "loseDexToAC": false,
      "noEncumbrance": false,
      "mediumArmorFullSpeed": false,
      "heavyArmorFullSpeed": false
    },
    "contextNotes": [],
    "links": {
      "children": [],
      "charges": []
    },
    "tag": "",
    "useCustomTag": false,
    "armorProf": {
      "value": [],
      "custom": ""
    },
    "weaponProf": {
      "value": [],
      "custom": ""
    },
    "languages": {
      "value": [],
      "custom": ""
    },
    "flags": {
      "boolean": {},
      "dictionary": {}
    },
    "scriptCalls": [],
    "subType": "classFeat",
    "associations": {
      "classes": [
        "Cleric"
      ]
    },
    "showInQuickbar": false,
    "abilityType": "none",
    "crOffset": "",
    "disabled": false,
    "classSkills": {}
  },
  "ownership": {
    "default": 0
  },
  "_stats": {
    "systemId": "pf1",
    "systemVersion": "9.1",
    "coreVersion": "10.291",
    "createdTime": 1665428268031,
    "modifiedTime": 1689797829326,
    "lastModifiedBy": "ppv91YxratjWnkJi"
  },
  "effects": [],
  "folder": null,
  "sort": 0,
  "flags": {},
  "_key": "!items!6iunj2S7lOnCiFsb"
}