{
  "_id": "rVc7PDibnqqevDLV",
  "name": "Mutagen (Su)",
  "type": "feat",
  "img": "systems/pf1/icons/items/potions/grand-yellow.jpg",
  "system": {
    "description": {
      "value": "<strong>Alchemist Discovery - Mutagen</strong><br/><br/><p>This discovery gives the alchemist the mutagen class ability. (This discovery exists so alchemist archetypes who have variant mutagens, such as the mindchemist, can learn how to make standard mutagens.)</p>",
      "unidentified": ""
    },
    "tags": [
      "Alchemist",
      "Alchemist Discovery - Mutagen"
    ],
    "actions": [],
    "uses": {
      "per": null,
      "value": 0,
      "maxFormula": "",
      "autoDeductChargesCost": "1"
    },
    "attackNotes": [],
    "effectNotes": [],
    "changes": [],
    "changeFlags": {
      "loseDexToAC": false,
      "noEncumbrance": false,
      "mediumArmorFullSpeed": false,
      "heavyArmorFullSpeed": false
    },
    "contextNotes": [],
    "links": {
      "children": [],
      "charges": []
    },
    "tag": "",
    "useCustomTag": false,
    "armorProf": {
      "value": [],
      "custom": ""
    },
    "weaponProf": {
      "value": [],
      "custom": ""
    },
    "languages": {
      "value": [],
      "custom": ""
    },
    "flags": {
      "boolean": {},
      "dictionary": {}
    },
    "scriptCalls": [],
    "subType": "classFeat",
    "associations": {
      "classes": [
        "Alchemist"
      ]
    },
    "showInQuickbar": false,
    "abilityType": "none",
    "crOffset": "",
    "disabled": false,
    "classSkills": {}
  },
  "ownership": {
    "default": 0
  },
  "_stats": {
    "systemId": "pf1",
    "systemVersion": "9.1",
    "coreVersion": "10.291",
    "createdTime": 1665428276448,
    "modifiedTime": 1689797864063,
    "lastModifiedBy": "ppv91YxratjWnkJi"
  },
  "effects": [],
  "folder": null,
  "sort": 0,
  "flags": {},
  "_key": "!items!rVc7PDibnqqevDLV"
}