{
  "_id": "9Tn3NdzAy9D8x60M",
  "name": "Natural Disaster",
  "type": "feat",
  "img": "systems/pf1/icons/skills/affliction_21.jpg",
  "system": {
    "description": {
      "value": "<strong>Witch Grand Hex</strong><br/><br/><p>A witch using this hex calls down the forces of nature to wreak havoc on an area. This functions as a storm of vengeance combined with an earthquake that occurs on the second round of the effect (while acid is raining from the sky). A witch must concentrate for the duration of this effect. If disrupted, the effect immediately ends. A witch can only use this ability once per day.</p>",
      "unidentified": ""
    },
    "tags": [
      "Witch",
      "Witch Grand Hex"
    ],
    "actions": [],
    "uses": {
      "per": null,
      "value": 0,
      "maxFormula": "",
      "autoDeductChargesCost": "1"
    },
    "attackNotes": [],
    "effectNotes": [],
    "changes": [],
    "changeFlags": {
      "loseDexToAC": false,
      "noEncumbrance": false,
      "mediumArmorFullSpeed": false,
      "heavyArmorFullSpeed": false
    },
    "contextNotes": [],
    "links": {
      "children": [],
      "charges": []
    },
    "tag": "",
    "useCustomTag": false,
    "armorProf": {
      "value": [],
      "custom": ""
    },
    "weaponProf": {
      "value": [],
      "custom": ""
    },
    "languages": {
      "value": [],
      "custom": ""
    },
    "flags": {
      "boolean": {},
      "dictionary": {}
    },
    "scriptCalls": [],
    "subType": "classFeat",
    "associations": {
      "classes": [
        "Witch"
      ]
    },
    "showInQuickbar": false,
    "abilityType": "none",
    "crOffset": "",
    "disabled": false,
    "classSkills": {}
  },
  "ownership": {
    "default": 0
  },
  "_stats": {
    "systemId": "pf1",
    "systemVersion": "9.1",
    "coreVersion": "10.291",
    "createdTime": 1665428268269,
    "modifiedTime": 1689797831432,
    "lastModifiedBy": "ppv91YxratjWnkJi"
  },
  "effects": [],
  "folder": null,
  "sort": 0,
  "flags": {},
  "_key": "!items!9Tn3NdzAy9D8x60M"
}