{
  "_id": "LGJl6iBHh2yrXMNL",
  "name": "Nature Spirit",
  "type": "feat",
  "img": "systems/pf1/icons/skills/green_13.jpg",
  "system": {
    "description": {
      "value": "<strong>Shaman Spirit</strong><br/><br/><p>A shaman who selects the nature spirit takes on an appearance that reflects the aspect of the natural world she has the closest connection to. A nature shaman from the forest has a green tinge to her skin and hair, with eyes of sparkling emerald and the scent of green leaves and flowers about her. A nature shaman from the tundra is typically alabaster pale, with platinum hair and crystal blue eyes, and her skin always seems strangely cold.</p><p><b>Spirit Magic Spells: </b>charm animal (1st), barkskin (2nd), speak with plants (3rd), grove of respite (4th), awaken (5th), stone tell (6th), creeping doom (7th), animal shapes (8th), world wave (9th)</p><p><b>Hexes: </b>A shaman who chooses the Nature spirit can select from the following hexes.</p><p><b>Spirit Animal: </b>The shaman's spirit animal looks feral, and appears to be in peak physical form. The animal can move through any sort of undergrowth or natural difficult terrain at its normal speed without taking damage or suffering any other impairment. If the animal has a fly speed, it can ignore the penalty on Fly skill checks for winds up to windstorm strength (see page 439 of the Core Rulebook).</p><p><b>Spirit Ability: </b>A shaman who chooses the Nature spirit as her spirit or wandering spirit gains the following ability.</p><p><i>Storm Burst (Su): </i>As a standard action, the shaman causes a small storm of swirling wind and rain to form around one creature within 30 feet. This storm causes the target to treat all foes as if they had concealment, suffering a 20% miss chance for 1 round plus 1 round for every 4 shaman levels she possesses. The shaman can use this ability a number of times per day equal to 3 + her Charisma modifier. At 11th level, any weapon she wields is treated as a thundering weapon.</p><p><b>Greater Spirit Ability: </b>A shaman who chooses the Nature spirit as her spirit or wandering spirit gains the following ability upon having access to the greater version of that spirit.</p><p><i>Spirit of Nature (Su): </i>Whenever the shaman is reduced to below 0 hit points, she automatically stabilizes and gains fast healing 1 for 1d4 rounds. At 15th level, this increases to fast healing 3.</p><p><b>True Spirit Ability: </b>A shaman who chooses the Nature spirit as her spirit or wandering spirit gains the following ability upon having access to the true version of that spirit.</p><p><i>Companion Animal (Su): </i>The shaman's spirit animal takes the form of an animal companion (Core Rulebook 51) of her choice, using her shaman level as her effective druid level. The animal retains all the special abilities and the Intelligence score of the spirit animal, but also has the statistics and abilities of an animal companion. If the animal is dismissed, is lost, or dies, it can be replaced in the same way as a normal spirit animal.</p><p><b>Manifestation: </b>Upon reaching 20th level, the shaman becomes a spirit of nature. Once per day, she can surround herself with an organic cocoon of silk as a full-round action. While enclosed in the cocoon, she's considered helpless. Eight hours later, she emerges, having changed her type to plant, animal, or humanoid, and having gained superficial physical characteristics of the chosen type as appropriate (see Pathfinder RPG Bestiary). She must choose a type that is different from her current type. This effect change doesn't alter her Hit Dice, hit points, saving throws, skill ranks, class skills, or prof iciencies. The effect is permanent, until the shaman chooses to transform again. Each time the transformation is made, the shaman is cleansed of all poisons or diseases, restored to full hit points, and healed of all ability damage.</p>",
      "unidentified": ""
    },
    "tags": [
      "Shaman",
      "Shaman Spirit"
    ],
    "actions": [],
    "uses": {
      "per": null,
      "value": 0,
      "maxFormula": "",
      "autoDeductChargesCost": "1"
    },
    "attackNotes": [],
    "effectNotes": [],
    "changes": [],
    "changeFlags": {
      "loseDexToAC": false,
      "noEncumbrance": false,
      "mediumArmorFullSpeed": false,
      "heavyArmorFullSpeed": false
    },
    "contextNotes": [],
    "links": {
      "children": [],
      "charges": []
    },
    "tag": "",
    "useCustomTag": false,
    "armorProf": {
      "value": [],
      "custom": ""
    },
    "weaponProf": {
      "value": [],
      "custom": ""
    },
    "languages": {
      "value": [],
      "custom": ""
    },
    "flags": {
      "boolean": {},
      "dictionary": {}
    },
    "scriptCalls": [],
    "subType": "classFeat",
    "associations": {
      "classes": [
        "Shaman"
      ]
    },
    "showInQuickbar": false,
    "abilityType": "none",
    "crOffset": "",
    "disabled": false,
    "classSkills": {}
  },
  "ownership": {
    "default": 0
  },
  "_stats": {
    "systemId": "pf1",
    "systemVersion": "9.1",
    "coreVersion": "10.291",
    "createdTime": 1665428270422,
    "modifiedTime": 1689797841881,
    "lastModifiedBy": "ppv91YxratjWnkJi"
  },
  "effects": [],
  "folder": null,
  "sort": 0,
  "flags": {},
  "_key": "!items!LGJl6iBHh2yrXMNL"
}