{
  "_id": "FvrrJ6KOKTGhvAhg",
  "name": "Necklace",
  "type": "feat",
  "img": "systems/pf1/icons/items/inventory/book-purple.jpg",
  "system": {
    "description": {
      "value": "<strong>Occultist Sacred Implement</strong><br/><br/><p><b>Deity </b>Aroden; <b>Implement </b>necklace; <b>Opposition School </b>illusion</p><p><i>Forgotten (Sp): </i>As a standard action, you can expend 3 points of mental focus to target a single creature within 30 feet using modify memory. This ability can be used only to cause the target to forget the last 5 minutes of interaction with you.</p>",
      "unidentified": ""
    },
    "tags": [
      "Occultist",
      "Occultist Sacred Implement"
    ],
    "actions": [],
    "uses": {
      "per": null,
      "value": 0,
      "maxFormula": "",
      "autoDeductChargesCost": "1"
    },
    "attackNotes": [],
    "effectNotes": [],
    "changes": [],
    "changeFlags": {
      "loseDexToAC": false,
      "noEncumbrance": false,
      "mediumArmorFullSpeed": false,
      "heavyArmorFullSpeed": false
    },
    "contextNotes": [],
    "links": {
      "children": [],
      "charges": []
    },
    "tag": "",
    "useCustomTag": false,
    "armorProf": {
      "value": [],
      "custom": ""
    },
    "weaponProf": {
      "value": [],
      "custom": ""
    },
    "languages": {
      "value": [],
      "custom": ""
    },
    "flags": {
      "boolean": {},
      "dictionary": {}
    },
    "scriptCalls": [],
    "subType": "classFeat",
    "associations": {
      "classes": [
        "Occultist"
      ]
    },
    "showInQuickbar": false,
    "abilityType": "none",
    "crOffset": "",
    "disabled": false,
    "classSkills": {}
  },
  "ownership": {
    "default": 0
  },
  "_stats": {
    "systemId": "pf1",
    "systemVersion": "9.1",
    "coreVersion": "10.291",
    "createdTime": 1665428269339,
    "modifiedTime": 1689797837162,
    "lastModifiedBy": "ppv91YxratjWnkJi"
  },
  "effects": [],
  "folder": null,
  "sort": 0,
  "flags": {},
  "_key": "!items!FvrrJ6KOKTGhvAhg"
}