{
  "_id": "2x6Oj9ERV7HxveHH",
  "name": "Night Queen's Fury (Act, Oratory)",
  "type": "feat",
  "img": "systems/pf1/icons/items/inventory/lute.jpg",
  "system": {
    "description": {
      "value": "<strong>Bard - Masterpieces</strong><br/><br/><p>You lay a curse on those who have wronged you.</p><p>Prerequisite: Perform (act) or Perform (oratory) 7 ranks.</p><p>Cost: Feat or 3rd-level bard spell known.</p><p>Effect: You scream out a litany of every way you have been harmed by others, from physical abuse, to verbal insults, to subtle harassment, to any other number of contemptuous actions that denied you something you were rightfully due. When you complete the performance, you fall prone, the emotion or power behind your speech driving you to your knees. Any creature that damaged you within the last round must succeed at a Will save or be cursed, as per the bestow curse spell.</p><p>Once per day, if you are reduced to fewer than 0 hit points, you can activate this bardic masterpiece as an immediate action before you become dying or dead as long as you have at least 3 rounds of bardic performance remaining.</p><p>Use: 3 rounds of bardic performance.</p><p>Action: 1 full-round action (see text).</p>",
      "unidentified": ""
    },
    "tags": [
      "Bard",
      "Bard - Masterpieces"
    ],
    "actions": [],
    "uses": {
      "per": null,
      "value": 0,
      "maxFormula": "",
      "autoDeductChargesCost": "1"
    },
    "attackNotes": [],
    "effectNotes": [],
    "changes": [],
    "changeFlags": {
      "loseDexToAC": false,
      "noEncumbrance": false,
      "mediumArmorFullSpeed": false,
      "heavyArmorFullSpeed": false
    },
    "contextNotes": [],
    "links": {
      "children": [],
      "charges": []
    },
    "tag": "",
    "useCustomTag": false,
    "armorProf": {
      "value": [],
      "custom": ""
    },
    "weaponProf": {
      "value": [],
      "custom": ""
    },
    "languages": {
      "value": [],
      "custom": ""
    },
    "flags": {
      "boolean": {},
      "dictionary": {}
    },
    "scriptCalls": [],
    "subType": "classFeat",
    "associations": {
      "classes": [
        "Bard"
      ]
    },
    "showInQuickbar": false,
    "abilityType": "none",
    "crOffset": "",
    "disabled": false,
    "classSkills": {}
  },
  "ownership": {
    "default": 0
  },
  "_stats": {
    "systemId": "pf1",
    "systemVersion": "9.1",
    "coreVersion": "10.291",
    "createdTime": 1665428267167,
    "modifiedTime": 1689797824752,
    "lastModifiedBy": "ppv91YxratjWnkJi"
  },
  "effects": [],
  "folder": null,
  "sort": 0,
  "flags": {},
  "_key": "!items!2x6Oj9ERV7HxveHH"
}