{
  "_id": "blAI2TBUBKmJYtHh",
  "name": "Nobility",
  "type": "feat",
  "img": "systems/pf1/icons/items/inventory/badge-cross.jpg",
  "system": {
    "description": {
      "value": "<strong>Cleric Domain</strong><br/><br/><p><b>Deities: </b>Abadar, Arazni, Count Ranalc, Dispater, Erecura, Eritrice, Folgrit, General Susumu, Horus, Inma, Jacarkas, Kols, Lanishra, Lissala, Lissala (pre-Earthfall), Losarkur, Myr, Naderi, Nalinivati, Nameless, Olheon, Omrataji, Ragathiel, Ruapceras, Seramaydiel, Shamira, Shax, Sicva, Smiad, Sugroz, Thamir Gixx, The Lost Prince, Trudd, Vale, Ydersius, Zaebos</p><p><b>Granted Powers: </b>You are a great leader, an inspiration to all who follow the teachings of your faith.</p><p><b>Domain Spells: </b>1st-divine favor, 2nd-enthrall, 3rd-magic vestment, 4th-discern lies, 5th-greater command, 6th-geas/quest, 7th-repulsion, 8th-demand, 9th-storm of vengeance.</p>",
      "unidentified": ""
    },
    "tags": [
      "Cleric",
      "Cleric Domain"
    ],
    "actions": [],
    "uses": {
      "per": null,
      "value": 0,
      "maxFormula": "",
      "autoDeductChargesCost": "1"
    },
    "attackNotes": [],
    "effectNotes": [],
    "changes": [],
    "changeFlags": {
      "loseDexToAC": false,
      "noEncumbrance": false,
      "mediumArmorFullSpeed": false,
      "heavyArmorFullSpeed": false
    },
    "contextNotes": [],
    "links": {
      "children": [],
      "charges": []
    },
    "tag": "",
    "useCustomTag": false,
    "armorProf": {
      "value": [],
      "custom": ""
    },
    "weaponProf": {
      "value": [],
      "custom": ""
    },
    "languages": {
      "value": [],
      "custom": ""
    },
    "flags": {
      "boolean": {},
      "dictionary": {}
    },
    "scriptCalls": [],
    "subType": "classFeat",
    "associations": {
      "classes": [
        "Cleric"
      ]
    },
    "showInQuickbar": false,
    "abilityType": "none",
    "crOffset": "",
    "disabled": false,
    "classSkills": {}
  },
  "ownership": {
    "default": 0
  },
  "_stats": {
    "systemId": "pf1",
    "systemVersion": "9.1",
    "coreVersion": "10.291",
    "createdTime": 1665428273409,
    "modifiedTime": 1689797853434,
    "lastModifiedBy": "ppv91YxratjWnkJi"
  },
  "effects": [],
  "folder": null,
  "sort": 0,
  "flags": {},
  "_key": "!items!blAI2TBUBKmJYtHh"
}