{
  "_id": "mVQPgn3P8iR2wPsr",
  "name": "Numerical Alchemy, Greater",
  "type": "feat",
  "img": "systems/pf1/icons/items/inventory/pipe.jpg",
  "system": {
    "description": {
      "value": "<strong>Investigator Talents</strong><br/><br/><p>The investigator can calculate his movements and account for his reactions to danger or unexpected situations with lightning speed. He can expend a use of inspiration to mix an extract as a standard action. The investigator must have the numerical alchemy talent and be at least 11th level to select this talent.</p>",
      "unidentified": ""
    },
    "tags": [
      "Investigator",
      "Investigator Talents"
    ],
    "actions": [],
    "uses": {
      "per": null,
      "value": 0,
      "maxFormula": "",
      "autoDeductChargesCost": "1"
    },
    "attackNotes": [],
    "effectNotes": [],
    "changes": [],
    "changeFlags": {
      "loseDexToAC": false,
      "noEncumbrance": false,
      "mediumArmorFullSpeed": false,
      "heavyArmorFullSpeed": false
    },
    "contextNotes": [],
    "links": {
      "children": [],
      "charges": []
    },
    "tag": "",
    "useCustomTag": false,
    "armorProf": {
      "value": [],
      "custom": ""
    },
    "weaponProf": {
      "value": [],
      "custom": ""
    },
    "languages": {
      "value": [],
      "custom": ""
    },
    "flags": {
      "boolean": {},
      "dictionary": {}
    },
    "scriptCalls": [],
    "subType": "classFeat",
    "associations": {
      "classes": [
        "Investigator"
      ]
    },
    "showInQuickbar": false,
    "abilityType": "none",
    "crOffset": "",
    "disabled": false,
    "classSkills": {}
  },
  "ownership": {
    "default": 0
  },
  "_stats": {
    "systemId": "pf1",
    "systemVersion": "9.1",
    "coreVersion": "10.291",
    "createdTime": 1665428275345,
    "modifiedTime": 1689797860957,
    "lastModifiedBy": "ppv91YxratjWnkJi"
  },
  "effects": [],
  "folder": null,
  "sort": 0,
  "flags": {},
  "_key": "!items!mVQPgn3P8iR2wPsr"
}