{
  "_id": "GRQVoXzN565IoyVQ",
  "name": "Obliterate Memory",
  "type": "feat",
  "img": "systems/pf1/icons/skills/red_09.jpg",
  "system": {
    "description": {
      "value": "<strong>Oracle Reaper Mystery Power</strong><br/><br/><p>As a standard action, you can target a creature within 30 feet and eliminate all memory of an event the target experienced, as modify memory. A target can attempt a Will save to negate this effect. In addition, you can cause an account of the memory erased by this ability to appear on a blank page of any book you are carrying. You can use this ability once per day, plus one additional time per day at 15th level. You must be at least 11th level to select this revelation.</p>",
      "unidentified": ""
    },
    "tags": [
      "Oracle",
      "Oracle Reaper Mystery Power"
    ],
    "actions": [],
    "uses": {
      "per": null,
      "value": 0,
      "maxFormula": "",
      "autoDeductChargesCost": "1"
    },
    "attackNotes": [],
    "effectNotes": [],
    "changes": [],
    "changeFlags": {
      "loseDexToAC": false,
      "noEncumbrance": false,
      "mediumArmorFullSpeed": false,
      "heavyArmorFullSpeed": false
    },
    "contextNotes": [],
    "links": {
      "children": [],
      "charges": []
    },
    "tag": "",
    "useCustomTag": false,
    "armorProf": {
      "value": [],
      "custom": ""
    },
    "weaponProf": {
      "value": [],
      "custom": ""
    },
    "languages": {
      "value": [],
      "custom": ""
    },
    "flags": {
      "boolean": {},
      "dictionary": {}
    },
    "scriptCalls": [],
    "subType": "classFeat",
    "associations": {
      "classes": [
        "Oracle"
      ]
    },
    "showInQuickbar": false,
    "abilityType": "none",
    "crOffset": "",
    "disabled": false,
    "classSkills": {}
  },
  "ownership": {
    "default": 0
  },
  "_stats": {
    "systemId": "pf1",
    "systemVersion": "9.1",
    "coreVersion": "10.291",
    "createdTime": 1665428269387,
    "modifiedTime": 1689797837571,
    "lastModifiedBy": "ppv91YxratjWnkJi"
  },
  "effects": [],
  "folder": null,
  "sort": 0,
  "flags": {},
  "_key": "!items!GRQVoXzN565IoyVQ"
}