{
  "_id": "0QBr3ZK14DGobPNC",
  "name": "One of Those Faces (Sp)",
  "type": "feat",
  "img": "systems/pf1/icons/skills/weapon_39.jpg",
  "system": {
    "description": {
      "value": "<strong>Slayer Talent</strong><br/><br/><p>Investigators and slayers can also select this talent if they have the Brute, Failed Apprentice, Militia Veteran, Rapscallion, River Rat, Vagabond Child, or Well-Informed trait from Pathfinder RPG Advanced Player's Guide, or Narrows Survivor or Wealthy Dabbler trait from Pathfinder Player Companion: Taldor, Echoes of Glory.</p><p>Each day, you can use disguise self as a spell-like ability for up to 10 minutes per character level. This duration need not be continuous, but it must be used in 10-minute increments. Additionally, once you have used this ability, whenever you use it for the next 24 hours you must take the same alternate appearance.</p>",
      "unidentified": ""
    },
    "tags": [
      "Slayer",
      "Slayer Talent"
    ],
    "actions": [],
    "uses": {
      "per": null,
      "value": 0,
      "maxFormula": "",
      "autoDeductChargesCost": "1"
    },
    "attackNotes": [],
    "effectNotes": [],
    "changes": [],
    "changeFlags": {
      "loseDexToAC": false,
      "noEncumbrance": false,
      "mediumArmorFullSpeed": false,
      "heavyArmorFullSpeed": false
    },
    "contextNotes": [],
    "links": {
      "children": [],
      "charges": []
    },
    "tag": "",
    "useCustomTag": false,
    "armorProf": {
      "value": [],
      "custom": ""
    },
    "weaponProf": {
      "value": [],
      "custom": ""
    },
    "languages": {
      "value": [],
      "custom": ""
    },
    "flags": {
      "boolean": {},
      "dictionary": {}
    },
    "scriptCalls": [],
    "subType": "classFeat",
    "associations": {
      "classes": [
        "Slayer"
      ]
    },
    "showInQuickbar": false,
    "abilityType": "none",
    "crOffset": "",
    "disabled": false,
    "classSkills": {}
  },
  "ownership": {
    "default": 0
  },
  "_stats": {
    "systemId": "pf1",
    "systemVersion": "9.1",
    "coreVersion": "10.291",
    "createdTime": 1665428266954,
    "modifiedTime": 1689797822919,
    "lastModifiedBy": "ppv91YxratjWnkJi"
  },
  "effects": [],
  "folder": null,
  "sort": 0,
  "flags": {},
  "_key": "!items!0QBr3ZK14DGobPNC"
}