{
  "_id": "CNIImyGsTqK1qQbW",
  "name": "Ongoing Defense",
  "type": "feat",
  "img": "systems/pf1/icons/skills/beast_04.jpg",
  "system": {
    "description": {
      "value": "<strong>Psychic Minor Phrenic Amplification</strong><br/><br/><p>The psychic can increase the duration of spells that improve her psychic defenses. She can spend 1 point from her phrenic pool when she casts any intellect fortress, mental barrier, thought shield, or tower of iron will spell to extend the spell's duration by 1 round.</p>",
      "unidentified": ""
    },
    "tags": [
      "Psychic",
      "Psychic Minor Phrenic Amplification"
    ],
    "actions": [],
    "uses": {
      "per": null,
      "value": 0,
      "maxFormula": "",
      "autoDeductChargesCost": "1"
    },
    "attackNotes": [],
    "effectNotes": [],
    "changes": [],
    "changeFlags": {
      "loseDexToAC": false,
      "noEncumbrance": false,
      "mediumArmorFullSpeed": false,
      "heavyArmorFullSpeed": false
    },
    "contextNotes": [],
    "links": {
      "children": [],
      "charges": []
    },
    "tag": "",
    "useCustomTag": false,
    "armorProf": {
      "value": [],
      "custom": ""
    },
    "weaponProf": {
      "value": [],
      "custom": ""
    },
    "languages": {
      "value": [],
      "custom": ""
    },
    "flags": {
      "boolean": {},
      "dictionary": {}
    },
    "scriptCalls": [],
    "subType": "classFeat",
    "associations": {
      "classes": [
        "Psychic"
      ]
    },
    "showInQuickbar": false,
    "abilityType": "none",
    "crOffset": "",
    "disabled": false,
    "classSkills": {}
  },
  "ownership": {
    "default": 0
  },
  "_stats": {
    "systemId": "pf1",
    "systemVersion": "9.1",
    "coreVersion": "10.291",
    "createdTime": 1665428268805,
    "modifiedTime": 1689797834713,
    "lastModifiedBy": "ppv91YxratjWnkJi"
  },
  "effects": [],
  "folder": null,
  "sort": 0,
  "flags": {},
  "_key": "!items!CNIImyGsTqK1qQbW"
}