{
  "_id": "CuUCZIUAjr1KUDeQ",
  "name": "Opposition Research",
  "type": "feat",
  "img": "systems/pf1/icons/spells/beam-magenta-3.jpg",
  "system": {
    "description": {
      "value": "<strong>Wizard Arcane Discovery</strong><br/><br/><p>By completing strenuous studies, you have broken through the mental barriers that made it hard for you to prepare spells from one of your opposition schools. Select one wizard opposition school; preparing spells of this school now only requires one spell slot of the appropriate level instead of two, and you no longer have the -4 Spellcraft penalty for crafting items from that school. You must be at least a 9th-level wizard to select this discovery.</p>",
      "unidentified": ""
    },
    "tags": [
      "Wizard",
      "Wizard Arcane Discovery"
    ],
    "actions": [],
    "uses": {
      "per": null,
      "value": 0,
      "maxFormula": "",
      "autoDeductChargesCost": "1"
    },
    "attackNotes": [],
    "effectNotes": [],
    "changes": [],
    "changeFlags": {
      "loseDexToAC": false,
      "noEncumbrance": false,
      "mediumArmorFullSpeed": false,
      "heavyArmorFullSpeed": false
    },
    "contextNotes": [],
    "links": {
      "children": [],
      "charges": []
    },
    "tag": "",
    "useCustomTag": false,
    "armorProf": {
      "value": [],
      "custom": ""
    },
    "weaponProf": {
      "value": [],
      "custom": ""
    },
    "languages": {
      "value": [],
      "custom": ""
    },
    "flags": {
      "boolean": {},
      "dictionary": {}
    },
    "scriptCalls": [],
    "subType": "classFeat",
    "associations": {
      "classes": [
        "Wizard"
      ]
    },
    "showInQuickbar": false,
    "abilityType": "none",
    "crOffset": "",
    "disabled": false,
    "classSkills": {}
  },
  "ownership": {
    "default": 0
  },
  "_stats": {
    "systemId": "pf1",
    "systemVersion": "9.1",
    "coreVersion": "10.291",
    "createdTime": 1665428268846,
    "modifiedTime": 1689797835100,
    "lastModifiedBy": "ppv91YxratjWnkJi"
  },
  "effects": [],
  "folder": null,
  "sort": 0,
  "flags": {},
  "_key": "!items!CuUCZIUAjr1KUDeQ"
}