{
  "_id": "Ul5wU7Ldka4pNMSz",
  "name": "Out for Blood",
  "type": "feat",
  "img": "systems/pf1/icons/skills/weapon_36.jpg",
  "system": {
    "description": {
      "value": "<strong>Gunslinger Dares</strong><br/><br/><p>While this dare is active, your critical threat range with firearms (for gunslingers) or light or onehanded piercing melee weapons (for swashbucklers) increases by 1 (20/ 4 becomes 19-20/ 4, 19-20/ 2 becomes 18-20/ 2, and so on). This effect does not stack with similar effects that modify a weapon's critical threat range.</p>",
      "unidentified": ""
    },
    "tags": [
      "Gunslinger",
      "Gunslinger Dares"
    ],
    "actions": [],
    "uses": {
      "per": null,
      "value": 0,
      "maxFormula": "",
      "autoDeductChargesCost": "1"
    },
    "attackNotes": [],
    "effectNotes": [],
    "changes": [],
    "changeFlags": {
      "loseDexToAC": false,
      "noEncumbrance": false,
      "mediumArmorFullSpeed": false,
      "heavyArmorFullSpeed": false
    },
    "contextNotes": [],
    "links": {
      "children": [],
      "charges": []
    },
    "tag": "",
    "useCustomTag": false,
    "armorProf": {
      "value": [],
      "custom": ""
    },
    "weaponProf": {
      "value": [],
      "custom": ""
    },
    "languages": {
      "value": [],
      "custom": ""
    },
    "flags": {
      "boolean": {},
      "dictionary": {}
    },
    "scriptCalls": [],
    "subType": "classFeat",
    "associations": {
      "classes": [
        "Gunslinger"
      ]
    },
    "showInQuickbar": false,
    "abilityType": "none",
    "crOffset": "",
    "disabled": false,
    "classSkills": {}
  },
  "ownership": {
    "default": 0
  },
  "_stats": {
    "systemId": "pf1",
    "systemVersion": "9.1",
    "coreVersion": "10.291",
    "createdTime": 1665428272199,
    "modifiedTime": 1689797849053,
    "lastModifiedBy": "ppv91YxratjWnkJi"
  },
  "effects": [],
  "folder": null,
  "sort": 0,
  "flags": {},
  "_key": "!items!Ul5wU7Ldka4pNMSz"
}