{
  "_id": "CDWV5JroG2S75bNC",
  "name": "Pageant of the Peacock (Act, Dance)",
  "type": "feat",
  "img": "systems/pf1/icons/items/inventory/lute.jpg",
  "system": {
    "description": {
      "value": "<strong>Bard - Masterpieces</strong><br/><br/><p>Your elegant movements cause you to seem to be more than you are.</p><p>Prerequisite: Perform (act) or Perform (dance) 4 ranks.</p><p>Cost: Feat or 2nd-level spell known.</p><p>Effect: By gracefully weaving your body through subtle forms and postures you can convince others of your breeding, eloquence, and refinement. For the duration of the effect, you gain a +4 circumstance bonus on Bluff checks, and may attempt a Bluff check in place of an Intelligence check or Intelligence-based skill check. The subtle changes in your movements also confer a +4 circumstance bonus on Disguise checks to appear to be someone of a higher station (an aristocrat, merchant prince, or even a queen).</p><p>Use: 1 bardic performance round per 10 minutes of the effect's duration.</p><p>Action: 1 standard action.</p>",
      "unidentified": ""
    },
    "tags": [
      "Bard",
      "Bard - Masterpieces"
    ],
    "actions": [],
    "uses": {
      "per": null,
      "value": 0,
      "maxFormula": "",
      "autoDeductChargesCost": "1"
    },
    "attackNotes": [],
    "effectNotes": [],
    "changes": [],
    "changeFlags": {
      "loseDexToAC": false,
      "noEncumbrance": false,
      "mediumArmorFullSpeed": false,
      "heavyArmorFullSpeed": false
    },
    "contextNotes": [],
    "links": {
      "children": [],
      "charges": []
    },
    "tag": "",
    "useCustomTag": false,
    "armorProf": {
      "value": [],
      "custom": ""
    },
    "weaponProf": {
      "value": [],
      "custom": ""
    },
    "languages": {
      "value": [],
      "custom": ""
    },
    "flags": {
      "boolean": {},
      "dictionary": {}
    },
    "scriptCalls": [],
    "subType": "classFeat",
    "associations": {
      "classes": [
        "Bard"
      ]
    },
    "showInQuickbar": false,
    "abilityType": "none",
    "crOffset": "",
    "disabled": false,
    "classSkills": {}
  },
  "ownership": {
    "default": 0
  },
  "_stats": {
    "systemId": "pf1",
    "systemVersion": "9.1",
    "coreVersion": "10.291",
    "createdTime": 1665428268793,
    "modifiedTime": 1689797834570,
    "lastModifiedBy": "ppv91YxratjWnkJi"
  },
  "effects": [],
  "folder": null,
  "sort": 0,
  "flags": {},
  "_key": "!items!CDWV5JroG2S75bNC"
}