{
  "_id": "jTyMnh5Yh6taNoDZ",
  "name": "Peerless Speed",
  "type": "feat",
  "img": "systems/pf1/icons/spells/fireball-red-3.jpg",
  "system": {
    "description": {
      "value": "<strong>Sorcerer Bloodline Power</strong><br/><br/><p>At 3rd level, you can tap into the power of the Astral's enhanced magical nature to gain the ability to accelerate your spellcasting dramatically. Once per day as a swift action, you can cast one cantrip you know as though it were augmented by the Quicken Spell metamagic feat, without altering the cantrip's level. At 5th level and every 2 levels thereafter, the maximum level of the spell you can augment with this ability increases by 1, to a maximum of an 8th-level spell at 19th level. If you use this ability while on the Astral Plane or on any plane whose enhanced magic trait allows you to cast a spell as if augmented by Quicken Spell, you can instead choose to augment the spell as though you had applied the Empower Spell or Maximize Spell metamagic feats instead.</p>",
      "unidentified": ""
    },
    "tags": [
      "Sorcerer",
      "Sorcerer Bloodline Power"
    ],
    "actions": [],
    "uses": {
      "per": null,
      "value": 0,
      "maxFormula": "",
      "autoDeductChargesCost": "1"
    },
    "attackNotes": [],
    "effectNotes": [],
    "changes": [],
    "changeFlags": {
      "loseDexToAC": false,
      "noEncumbrance": false,
      "mediumArmorFullSpeed": false,
      "heavyArmorFullSpeed": false
    },
    "contextNotes": [],
    "links": {
      "children": [],
      "charges": []
    },
    "tag": "",
    "useCustomTag": false,
    "armorProf": {
      "value": [],
      "custom": ""
    },
    "weaponProf": {
      "value": [],
      "custom": ""
    },
    "languages": {
      "value": [],
      "custom": ""
    },
    "flags": {
      "boolean": {},
      "dictionary": {}
    },
    "scriptCalls": [],
    "subType": "classFeat",
    "associations": {
      "classes": [
        "Sorcerer"
      ]
    },
    "showInQuickbar": false,
    "abilityType": "none",
    "crOffset": "",
    "disabled": false,
    "classSkills": {}
  },
  "ownership": {
    "default": 0
  },
  "_stats": {
    "systemId": "pf1",
    "systemVersion": "9.1",
    "coreVersion": "10.291",
    "createdTime": 1665428274738,
    "modifiedTime": 1689797859064,
    "lastModifiedBy": "ppv91YxratjWnkJi"
  },
  "effects": [],
  "folder": null,
  "sort": 0,
  "flags": {},
  "_key": "!items!jTyMnh5Yh6taNoDZ"
}