{
  "_id": "HsNIMijstxxuKzwV",
  "name": "Phantasmal Assault",
  "type": "feat",
  "img": "systems/pf1/icons/skills/beast_04.jpg",
  "system": {
    "description": {
      "value": "<strong>Psychic Discipline Power</strong><br/><br/><p>At 13th level, you learn to harness your psychic force against all forms of haunts and undead creatures. Your mind-affecting spells that deal damage can now be used against haunts and undead normally immune to mind-affecting effects (including mindless undead). These spells are treated as though they dealt positive energy damage. This affects only spells that deal purely psychic-based damage (such as psychic crushOA, mind thrustOA, or synapse overloadOA); effects based on physical effects (such as telekinetic projectileOA or telekinetic stormOA) don't benefit from this ability. Additional non-damaging effects from such spells don't affect the haunt, unless it would be normally affected. When you use a mind-affecting effect that deals damage against a possessed creature, the possessing entity takes a -4 penalty on the saving throw against the mind-affecting attack.</p>",
      "unidentified": ""
    },
    "tags": [
      "Psychic",
      "Psychic Discipline Power"
    ],
    "actions": [],
    "uses": {
      "per": null,
      "value": 0,
      "maxFormula": "",
      "autoDeductChargesCost": "1"
    },
    "attackNotes": [],
    "effectNotes": [],
    "changes": [],
    "changeFlags": {
      "loseDexToAC": false,
      "noEncumbrance": false,
      "mediumArmorFullSpeed": false,
      "heavyArmorFullSpeed": false
    },
    "contextNotes": [],
    "links": {
      "children": [],
      "charges": []
    },
    "tag": "",
    "useCustomTag": false,
    "armorProf": {
      "value": [],
      "custom": ""
    },
    "weaponProf": {
      "value": [],
      "custom": ""
    },
    "languages": {
      "value": [],
      "custom": ""
    },
    "flags": {
      "boolean": {},
      "dictionary": {}
    },
    "scriptCalls": [],
    "subType": "classFeat",
    "associations": {
      "classes": [
        "Psychic"
      ]
    },
    "showInQuickbar": false,
    "abilityType": "none",
    "crOffset": "",
    "disabled": false,
    "classSkills": {}
  },
  "ownership": {
    "default": 0
  },
  "_stats": {
    "systemId": "pf1",
    "systemVersion": "9.1",
    "coreVersion": "10.291",
    "createdTime": 1665428269782,
    "modifiedTime": 1689797839011,
    "lastModifiedBy": "ppv91YxratjWnkJi"
  },
  "effects": [],
  "folder": null,
  "sort": 0,
  "flags": {},
  "_key": "!items!HsNIMijstxxuKzwV"
}