{
  "_id": "YSSnMOKoz8EdOlZU",
  "name": "Phoenix Fire",
  "type": "feat",
  "img": "systems/pf1/icons/items/inventory/drum.jpg",
  "system": {
    "description": {
      "value": "<strong>Bloodrager - Bloodline Powers</strong><br/><br/><p>The power of the phoenix brings righteous destruction to any who oppose it. At 20th level, while bloodraging, you gain the following effects: your melee attacks deal an additional 2d6 points of fire damage, any enemies within 20 feet of you must succeed at a Reflex save (DC = 10 + 1/2 your bloodrager level + your Constitution modifier) or take 4d6 points of fire damage at the start of their turn, and any creature that attacks you with a natural or non-reach weapon takes 1d6 points of fire damage (no save) with each successful hit.</p>",
      "unidentified": ""
    },
    "tags": [
      "Skald",
      "Bloodrager - Bloodline Powers"
    ],
    "actions": [],
    "uses": {
      "per": null,
      "value": 0,
      "maxFormula": "",
      "autoDeductChargesCost": "1"
    },
    "attackNotes": [],
    "effectNotes": [],
    "changes": [],
    "changeFlags": {
      "loseDexToAC": false,
      "noEncumbrance": false,
      "mediumArmorFullSpeed": false,
      "heavyArmorFullSpeed": false
    },
    "contextNotes": [],
    "links": {
      "children": [],
      "charges": []
    },
    "tag": "",
    "useCustomTag": false,
    "armorProf": {
      "value": [],
      "custom": ""
    },
    "weaponProf": {
      "value": [],
      "custom": ""
    },
    "languages": {
      "value": [],
      "custom": ""
    },
    "flags": {
      "boolean": {},
      "dictionary": {}
    },
    "scriptCalls": [],
    "subType": "classFeat",
    "associations": {
      "classes": [
        "Skald"
      ]
    },
    "showInQuickbar": false,
    "abilityType": "none",
    "crOffset": "",
    "disabled": false,
    "classSkills": {}
  },
  "ownership": {
    "default": 0
  },
  "_stats": {
    "systemId": "pf1",
    "systemVersion": "9.1",
    "coreVersion": "10.291",
    "createdTime": 1665428272831,
    "modifiedTime": 1689797851431,
    "lastModifiedBy": "ppv91YxratjWnkJi"
  },
  "effects": [],
  "folder": null,
  "sort": 0,
  "flags": {},
  "_key": "!items!YSSnMOKoz8EdOlZU"
}