{
  "_id": "htQE3v2MdzvKoRW3",
  "name": "Pierce the Veil",
  "type": "feat",
  "img": "systems/pf1/icons/skills/green_13.jpg",
  "system": {
    "description": {
      "value": "<strong>Shaman Spirit Hex</strong><br/><br/><p>The shaman gains darkvision to a range of up to 30 feet. If the shaman already has darkvision, its range increases by 30 feet. At 8th level, this ability becomes enhanced, allowing the shaman to see perfectly in darkness of any kind, even that created by deeper darkness.</p>",
      "unidentified": ""
    },
    "tags": [
      "Shaman",
      "Shaman Spirit Hex"
    ],
    "actions": [],
    "uses": {
      "per": null,
      "value": 0,
      "maxFormula": "",
      "autoDeductChargesCost": "1"
    },
    "attackNotes": [],
    "effectNotes": [],
    "changes": [],
    "changeFlags": {
      "loseDexToAC": false,
      "noEncumbrance": false,
      "mediumArmorFullSpeed": false,
      "heavyArmorFullSpeed": false
    },
    "contextNotes": [],
    "links": {
      "children": [],
      "charges": []
    },
    "tag": "",
    "useCustomTag": false,
    "armorProf": {
      "value": [],
      "custom": ""
    },
    "weaponProf": {
      "value": [],
      "custom": ""
    },
    "languages": {
      "value": [],
      "custom": ""
    },
    "flags": {
      "boolean": {},
      "dictionary": {}
    },
    "scriptCalls": [],
    "subType": "classFeat",
    "associations": {
      "classes": [
        "Shaman"
      ]
    },
    "showInQuickbar": false,
    "abilityType": "none",
    "crOffset": "",
    "disabled": false,
    "classSkills": {}
  },
  "ownership": {
    "default": 0
  },
  "_stats": {
    "systemId": "pf1",
    "systemVersion": "9.1",
    "coreVersion": "10.291",
    "createdTime": 1665428274610,
    "modifiedTime": 1689797858246,
    "lastModifiedBy": "ppv91YxratjWnkJi"
  },
  "effects": [],
  "folder": null,
  "sort": 0,
  "flags": {},
  "_key": "!items!htQE3v2MdzvKoRW3"
}