{
  "_id": "hj1sX9wdGFUesOX3",
  "name": "Plague's Caress",
  "type": "feat",
  "img": "systems/pf1/icons/spells/fireball-red-3.jpg",
  "system": {
    "description": {
      "value": "<strong>Sorcerer Bloodline Power</strong><br/><br/><p>At 1st level, you can make a melee touch attack as a standard action that causes a living creature's flesh to break out into rancid-smelling pustules and sores for a number of rounds equal to 1/2 your sorcerer level (minimum 1 round). These sores cause the victim to become sickened for the duration of the effect; this is a disease effect. You can use this ability a number of times per day equal to 3 + your Charisma modifier.</p>",
      "unidentified": ""
    },
    "tags": [
      "Sorcerer",
      "Sorcerer Bloodline Power"
    ],
    "actions": [],
    "uses": {
      "per": null,
      "value": 0,
      "maxFormula": "",
      "autoDeductChargesCost": "1"
    },
    "attackNotes": [],
    "effectNotes": [],
    "changes": [],
    "changeFlags": {
      "loseDexToAC": false,
      "noEncumbrance": false,
      "mediumArmorFullSpeed": false,
      "heavyArmorFullSpeed": false
    },
    "contextNotes": [],
    "links": {
      "children": [],
      "charges": []
    },
    "tag": "",
    "useCustomTag": false,
    "armorProf": {
      "value": [],
      "custom": ""
    },
    "weaponProf": {
      "value": [],
      "custom": ""
    },
    "languages": {
      "value": [],
      "custom": ""
    },
    "flags": {
      "boolean": {},
      "dictionary": {}
    },
    "scriptCalls": [],
    "subType": "classFeat",
    "associations": {
      "classes": [
        "Sorcerer"
      ]
    },
    "showInQuickbar": false,
    "abilityType": "none",
    "crOffset": "",
    "disabled": false,
    "classSkills": {}
  },
  "ownership": {
    "default": 0
  },
  "_stats": {
    "systemId": "pf1",
    "systemVersion": "9.1",
    "coreVersion": "10.291",
    "createdTime": 1665428274594,
    "modifiedTime": 1689797858139,
    "lastModifiedBy": "ppv91YxratjWnkJi"
  },
  "effects": [],
  "folder": null,
  "sort": 0,
  "flags": {},
  "_key": "!items!hj1sX9wdGFUesOX3"
}