{
  "_id": "DgpgI9R9IYAg8Vvl",
  "name": "Plains Domain",
  "type": "feat",
  "img": "systems/pf1/icons/spells/leaf-jade-3.jpg",
  "system": {
    "description": {
      "value": "<strong>Druid Domain</strong><br/><br/><p><b>Granted Powers: </b>The wide open spaces of the prairie, savanna, and steppe are yours to master.</p><p><b>Domain Spells: 1 </b>st-mount, 2nd-chameleon stride, 3rd-haste, 4th-aspect of the stag, 5th-control winds, 6th-find the path, 7th-whirlwind, 8th-animal shapes, 9th-worldwave.</p>",
      "unidentified": ""
    },
    "tags": [
      "Druid",
      "Druid Domain"
    ],
    "actions": [],
    "uses": {
      "per": null,
      "value": 0,
      "maxFormula": "",
      "autoDeductChargesCost": "1"
    },
    "attackNotes": [],
    "effectNotes": [],
    "changes": [],
    "changeFlags": {
      "loseDexToAC": false,
      "noEncumbrance": false,
      "mediumArmorFullSpeed": false,
      "heavyArmorFullSpeed": false
    },
    "contextNotes": [],
    "links": {
      "children": [],
      "charges": []
    },
    "tag": "",
    "useCustomTag": false,
    "armorProf": {
      "value": [],
      "custom": ""
    },
    "weaponProf": {
      "value": [],
      "custom": ""
    },
    "languages": {
      "value": [],
      "custom": ""
    },
    "flags": {
      "boolean": {},
      "dictionary": {}
    },
    "scriptCalls": [],
    "subType": "classFeat",
    "associations": {
      "classes": [
        "Druid"
      ]
    },
    "showInQuickbar": false,
    "abilityType": "none",
    "crOffset": "",
    "disabled": false,
    "classSkills": {}
  },
  "ownership": {
    "default": 0
  },
  "_stats": {
    "systemId": "pf1",
    "systemVersion": "9.1",
    "coreVersion": "10.291",
    "createdTime": 1665428269185,
    "modifiedTime": 1689797836098,
    "lastModifiedBy": "ppv91YxratjWnkJi"
  },
  "effects": [],
  "folder": null,
  "sort": 0,
  "flags": {},
  "_key": "!items!DgpgI9R9IYAg8Vvl"
}