{
  "_id": "klQ9BQ194etIPYkD",
  "name": "Plane of Water Domain",
  "type": "feat",
  "img": "systems/pf1/icons/spells/leaf-jade-3.jpg",
  "system": {
    "description": {
      "value": "<strong>Druid Domain</strong><br/><br/><p><b>Granted Powers: </b>You are at one with the Plane of Water, able to navigate it and weaponize it at will. In addition, you can use wild empathy to influence a creature with the water subtype if its Intelligence score is 1 or 2.</p><p><b>Domain Spells: </b>1st-touch of the seaAPG, 2nd-elemental speechAPG, 3rd-water breathing, 4th-planar adaptationAPG, 5th-solid fog (functions underwater), 6th-mass planar adaptationAPG, 7th-fluid formAPG, 8th-seamantleAPG, 9th-tsunamiAPG.</p>",
      "unidentified": ""
    },
    "tags": [
      "Druid",
      "Druid Domain"
    ],
    "actions": [],
    "uses": {
      "per": null,
      "value": 0,
      "maxFormula": "",
      "autoDeductChargesCost": "1"
    },
    "attackNotes": [],
    "effectNotes": [],
    "changes": [],
    "changeFlags": {
      "loseDexToAC": false,
      "noEncumbrance": false,
      "mediumArmorFullSpeed": false,
      "heavyArmorFullSpeed": false
    },
    "contextNotes": [],
    "links": {
      "children": [],
      "charges": []
    },
    "tag": "",
    "useCustomTag": false,
    "armorProf": {
      "value": [],
      "custom": ""
    },
    "weaponProf": {
      "value": [],
      "custom": ""
    },
    "languages": {
      "value": [],
      "custom": ""
    },
    "flags": {
      "boolean": {},
      "dictionary": {}
    },
    "scriptCalls": [],
    "subType": "classFeat",
    "associations": {
      "classes": [
        "Druid"
      ]
    },
    "showInQuickbar": false,
    "abilityType": "none",
    "crOffset": "",
    "disabled": false,
    "classSkills": {}
  },
  "ownership": {
    "default": 0
  },
  "_stats": {
    "systemId": "pf1",
    "systemVersion": "9.1",
    "coreVersion": "10.291",
    "createdTime": 1665428275200,
    "modifiedTime": 1689797860208,
    "lastModifiedBy": "ppv91YxratjWnkJi"
  },
  "effects": [],
  "folder": null,
  "sort": 0,
  "flags": {},
  "_key": "!items!klQ9BQ194etIPYkD"
}