{
  "_id": "clGwkS2rdNOk2FlQ",
  "name": "Poison Touch",
  "type": "feat",
  "img": "systems/pf1/icons/skills/affliction_21.jpg",
  "system": {
    "description": {
      "value": "<strong>Witch Hex</strong><br/><br/><p>The witch empowers herself or an ally within 30 feet with poisonous nails. The affected creature gains a claw attack as a secondary attack that deals 1d3 points of damage (1d2 for Small creatures) and has the following poison ability: Witch Toxin: Claw-injury; save Fort DC 10 + half the witch's level + the witch's Intelligence modifier; frequency 1/round for 6 rounds; effect 1d2 Str; cure 1 save. The creature gains this claw attack for a number of minutes equal to the witch's level. If the target already has a claw attack, that attack gains the poison ability listed above, but the DC is 1 higher. Once a creature has benefited from this hex, it cannot benefit from it again for 24 hours.</p>",
      "unidentified": ""
    },
    "tags": [
      "Witch",
      "Witch Hex"
    ],
    "actions": [],
    "uses": {
      "per": null,
      "value": 0,
      "maxFormula": "",
      "autoDeductChargesCost": "1"
    },
    "attackNotes": [],
    "effectNotes": [],
    "changes": [],
    "changeFlags": {
      "loseDexToAC": false,
      "noEncumbrance": false,
      "mediumArmorFullSpeed": false,
      "heavyArmorFullSpeed": false
    },
    "contextNotes": [],
    "links": {
      "children": [],
      "charges": []
    },
    "tag": "",
    "useCustomTag": false,
    "armorProf": {
      "value": [],
      "custom": ""
    },
    "weaponProf": {
      "value": [],
      "custom": ""
    },
    "languages": {
      "value": [],
      "custom": ""
    },
    "flags": {
      "boolean": {},
      "dictionary": {}
    },
    "scriptCalls": [],
    "subType": "classFeat",
    "associations": {
      "classes": [
        "Witch"
      ]
    },
    "showInQuickbar": false,
    "abilityType": "none",
    "crOffset": "",
    "disabled": false,
    "classSkills": {}
  },
  "ownership": {
    "default": 0
  },
  "_stats": {
    "systemId": "pf1",
    "systemVersion": "9.1",
    "coreVersion": "10.291",
    "createdTime": 1665428273486,
    "modifiedTime": 1689797854069,
    "lastModifiedBy": "ppv91YxratjWnkJi"
  },
  "effects": [],
  "folder": null,
  "sort": 0,
  "flags": {},
  "_key": "!items!clGwkS2rdNOk2FlQ"
}