{
  "_id": "n590mU3WjkP18GyI",
  "name": "Pollute Water",
  "type": "feat",
  "img": "systems/pf1/icons/skills/affliction_21.jpg",
  "system": {
    "description": {
      "value": "<strong>Witch Hex</strong><br/><br/><p>The witch can corrupt bodies of water with foul energies. This functions as the blight hex, except it affects only either an area of standing water or a creature with the aquatic or water subtype. A creature of any type that drinks water from a polluted area must succeed at a Fortitude saving throw or become nauseated for 1d3 rounds and afflicted as if blighted with the blight hex curse. A creature that succeeds at this saving throw is immune to the effects of polluted water from this area for 24 hours. Polluted water does not quench thirst.</p>",
      "unidentified": ""
    },
    "tags": [
      "Witch",
      "Witch Hex"
    ],
    "actions": [],
    "uses": {
      "per": null,
      "value": 0,
      "maxFormula": "",
      "autoDeductChargesCost": "1"
    },
    "attackNotes": [],
    "effectNotes": [],
    "changes": [],
    "changeFlags": {
      "loseDexToAC": false,
      "noEncumbrance": false,
      "mediumArmorFullSpeed": false,
      "heavyArmorFullSpeed": false
    },
    "contextNotes": [],
    "links": {
      "children": [],
      "charges": []
    },
    "tag": "",
    "useCustomTag": false,
    "armorProf": {
      "value": [],
      "custom": ""
    },
    "weaponProf": {
      "value": [],
      "custom": ""
    },
    "languages": {
      "value": [],
      "custom": ""
    },
    "flags": {
      "boolean": {},
      "dictionary": {}
    },
    "scriptCalls": [],
    "subType": "classFeat",
    "associations": {
      "classes": [
        "Witch"
      ]
    },
    "showInQuickbar": false,
    "abilityType": "none",
    "crOffset": "",
    "disabled": false,
    "classSkills": {}
  },
  "ownership": {
    "default": 0
  },
  "_stats": {
    "systemId": "pf1",
    "systemVersion": "9.1",
    "coreVersion": "10.291",
    "createdTime": 1665428275384,
    "modifiedTime": 1689797861676,
    "lastModifiedBy": "ppv91YxratjWnkJi"
  },
  "effects": [],
  "folder": null,
  "sort": 0,
  "flags": {},
  "_key": "!items!n590mU3WjkP18GyI"
}