{
  "_id": "C6w2H8NoFQUokEeO",
  "name": "Pranked",
  "type": "feat",
  "img": "systems/pf1/icons/skills/red_09.jpg",
  "system": {
    "description": {
      "value": "<strong>Oracle Curse</strong><br/><br/><p>Capricious fey constantly bedevil you, playing pranks on you such as tying your shoelaces together, hiding your gear, making inappropriate noises or smells at formal events, and mimicking your voice to tell embarrassing lies. In addition to any social consequences of such mischief, you take a -4 penalty on initiative checks. Furthermore, whenever you attempt to retrieve a stored item from your gear, there's a 25% chance that you fail to find it with that action. Add faerie fire and ghost sound to your list of spells known. At 5th level, add glitterdust and minor image to your list of spells known. At 10th level, add confusion to your list of spells known as a 5th-level spell. At 15th level, add project image to your list of spells known. A possessed oracleUM can select this curse in place of the haunted curse.</p>",
      "unidentified": ""
    },
    "tags": [
      "Oracle",
      "Oracle Curse"
    ],
    "actions": [],
    "uses": {
      "per": null,
      "value": 0,
      "maxFormula": "",
      "autoDeductChargesCost": "1"
    },
    "attackNotes": [],
    "effectNotes": [],
    "changes": [],
    "changeFlags": {
      "loseDexToAC": false,
      "noEncumbrance": false,
      "mediumArmorFullSpeed": false,
      "heavyArmorFullSpeed": false
    },
    "contextNotes": [],
    "links": {
      "children": [],
      "charges": []
    },
    "tag": "",
    "useCustomTag": false,
    "armorProf": {
      "value": [],
      "custom": ""
    },
    "weaponProf": {
      "value": [],
      "custom": ""
    },
    "languages": {
      "value": [],
      "custom": ""
    },
    "flags": {
      "boolean": {},
      "dictionary": {}
    },
    "scriptCalls": [],
    "subType": "classFeat",
    "associations": {
      "classes": [
        "Oracle"
      ]
    },
    "showInQuickbar": false,
    "abilityType": "none",
    "crOffset": "",
    "disabled": false,
    "classSkills": {}
  },
  "ownership": {
    "default": 0
  },
  "_stats": {
    "systemId": "pf1",
    "systemVersion": "9.1",
    "coreVersion": "10.291",
    "createdTime": 1665428268786,
    "modifiedTime": 1689797834517,
    "lastModifiedBy": "ppv91YxratjWnkJi"
  },
  "effects": [],
  "folder": null,
  "sort": 0,
  "flags": {},
  "_key": "!items!C6w2H8NoFQUokEeO"
}