{
  "_id": "G1qYHT0vSnbSBpbM",
  "name": "Presence of Dragons",
  "type": "feat",
  "img": "systems/pf1/icons/skills/red_09.jpg",
  "system": {
    "description": {
      "value": "<strong>Oracle Dragon Mystery Power</strong><br/><br/><p>Those who would oppose you must overcome their fear of dragons or be struck with terror at your draconic majesty. As a swift action, you can manifest an aura of draconic might around yourself. Enemies within 30 feet who can see you when you activate this ability must attempt a Will save. Success means that the creature is immune to this ability for the following 24 hours. On a failed save, the opponent is shaken for 2d6 rounds. This is a mind-affecting fear effect. You can use this ability once per day at 1st level, plus one additional time per day at 5th level and for every 5 levels beyond 5th.</p>",
      "unidentified": ""
    },
    "tags": [
      "Oracle",
      "Oracle Dragon Mystery Power"
    ],
    "actions": [],
    "uses": {
      "per": null,
      "value": 0,
      "maxFormula": "",
      "autoDeductChargesCost": "1"
    },
    "attackNotes": [],
    "effectNotes": [],
    "changes": [],
    "changeFlags": {
      "loseDexToAC": false,
      "noEncumbrance": false,
      "mediumArmorFullSpeed": false,
      "heavyArmorFullSpeed": false
    },
    "contextNotes": [],
    "links": {
      "children": [],
      "charges": []
    },
    "tag": "",
    "useCustomTag": false,
    "armorProf": {
      "value": [],
      "custom": ""
    },
    "weaponProf": {
      "value": [],
      "custom": ""
    },
    "languages": {
      "value": [],
      "custom": ""
    },
    "flags": {
      "boolean": {},
      "dictionary": {}
    },
    "scriptCalls": [],
    "subType": "classFeat",
    "associations": {
      "classes": [
        "Oracle"
      ]
    },
    "showInQuickbar": false,
    "abilityType": "none",
    "crOffset": "",
    "disabled": false,
    "classSkills": {}
  },
  "ownership": {
    "default": 0
  },
  "_stats": {
    "systemId": "pf1",
    "systemVersion": "9.1",
    "coreVersion": "10.291",
    "createdTime": 1665428269346,
    "modifiedTime": 1689797837217,
    "lastModifiedBy": "ppv91YxratjWnkJi"
  },
  "effects": [],
  "folder": null,
  "sort": 0,
  "flags": {},
  "_key": "!items!G1qYHT0vSnbSBpbM"
}