{
  "_id": "EnmDQrM2aEghYVMQ",
  "name": "Profession",
  "type": "feat",
  "img": "systems/pf1/icons/items/inventory/lockpick.jpg",
  "system": {
    "description": {
      "value": "<strong>Unchained Rogue Skill Unlock</strong><br/><br/><p>With sufficient ranks in Profession, you earn the following.</p><p><b>5 Ranks: </b>When using Profession checks to earn income, you earn gold pieces equal to the result of your check each week.</p><p><b>10 Ranks: </b>When attempting Profession checks, you can roll twice and take the better result. When answering questions about your Profession, you can always take 10.</p><p><b>15 Ranks: </b>You can attempt checks to earn income once per day instead of once per week.</p><p><b>20 Ranks: </b>When attempting Profession checks, you can choose to roll once instead of twice. If you do and the result of the roll is less than 10, replace it with 10. When answering questions about your Profession, you can always take 20.</p>",
      "unidentified": ""
    },
    "tags": [
      "Rogue (Unchained)",
      "Unchained Rogue Skill Unlock"
    ],
    "actions": [],
    "uses": {
      "per": null,
      "value": 0,
      "maxFormula": "",
      "autoDeductChargesCost": "1"
    },
    "attackNotes": [],
    "effectNotes": [],
    "changes": [],
    "changeFlags": {
      "loseDexToAC": false,
      "noEncumbrance": false,
      "mediumArmorFullSpeed": false,
      "heavyArmorFullSpeed": false
    },
    "contextNotes": [],
    "links": {
      "children": [],
      "charges": []
    },
    "tag": "",
    "useCustomTag": false,
    "armorProf": {
      "value": [],
      "custom": ""
    },
    "weaponProf": {
      "value": [],
      "custom": ""
    },
    "languages": {
      "value": [],
      "custom": ""
    },
    "flags": {
      "boolean": {},
      "dictionary": {}
    },
    "scriptCalls": [],
    "subType": "classFeat",
    "associations": {
      "classes": [
        "Rogue (Unchained)"
      ]
    },
    "showInQuickbar": false,
    "abilityType": "none",
    "crOffset": "",
    "disabled": false,
    "classSkills": {}
  },
  "ownership": {
    "default": 0
  },
  "_stats": {
    "systemId": "pf1",
    "systemVersion": "9.1",
    "coreVersion": "10.291",
    "createdTime": 1665428269269,
    "modifiedTime": 1689797836723,
    "lastModifiedBy": "ppv91YxratjWnkJi"
  },
  "effects": [],
  "folder": null,
  "sort": 0,
  "flags": {},
  "_key": "!items!EnmDQrM2aEghYVMQ"
}