{
  "_id": "63AwSNUOvfUcI1tl",
  "name": "Promethean",
  "type": "feat",
  "img": "systems/pf1/icons/skills/red_09.jpg",
  "system": {
    "description": {
      "value": "<strong>Oracle Curse</strong><br/><br/><p>Your body is falling apart, forcing you to rely on mechanical augmentations or replacements to keep yourself alive. You take 1 point of Constitution damage each day, but you also ignore the first point of Strength, Dexterity, or Constitution damage you take for the remainder of that day. At 5th level, you gain a +2 bonus on all saving throws on effects that cause ability damage, ability drain, or ability score penalties. At 10th level, this bonus increases to +6. At 15th level, any effect that would normally deal ability drain on you instead deals ability damage whenever you successfully save against the effect.</p>",
      "unidentified": ""
    },
    "tags": [
      "Oracle",
      "Oracle Curse"
    ],
    "actions": [],
    "uses": {
      "per": null,
      "value": 0,
      "maxFormula": "",
      "autoDeductChargesCost": "1"
    },
    "attackNotes": [],
    "effectNotes": [],
    "changes": [],
    "changeFlags": {
      "loseDexToAC": false,
      "noEncumbrance": false,
      "mediumArmorFullSpeed": false,
      "heavyArmorFullSpeed": false
    },
    "contextNotes": [],
    "links": {
      "children": [],
      "charges": []
    },
    "tag": "",
    "useCustomTag": false,
    "armorProf": {
      "value": [],
      "custom": ""
    },
    "weaponProf": {
      "value": [],
      "custom": ""
    },
    "languages": {
      "value": [],
      "custom": ""
    },
    "flags": {
      "boolean": {},
      "dictionary": {}
    },
    "scriptCalls": [],
    "subType": "classFeat",
    "associations": {
      "classes": [
        "Oracle"
      ]
    },
    "showInQuickbar": false,
    "abilityType": "none",
    "crOffset": "",
    "disabled": false,
    "classSkills": {}
  },
  "ownership": {
    "default": 0
  },
  "_stats": {
    "systemId": "pf1",
    "systemVersion": "9.1",
    "coreVersion": "10.291",
    "createdTime": 1665428267705,
    "modifiedTime": 1689797827864,
    "lastModifiedBy": "ppv91YxratjWnkJi"
  },
  "effects": [],
  "folder": null,
  "sort": 0,
  "flags": {},
  "_key": "!items!63AwSNUOvfUcI1tl"
}