{
  "_id": "0FMMLTzIuUYDm5Yn",
  "name": "Protective Ward",
  "type": "feat",
  "img": "systems/pf1/icons/spells/beam-magenta-3.jpg",
  "system": {
    "description": {
      "value": "<strong>Wizard School Power</strong><br/><br/><p>As a standard action, you can create a 10-foot-radius field of protective magic centered on you that lasts for a number of rounds equal to your Intelligence modifier. All allies in this area (including you) receive a +1 deflection bonus to their AC. This bonus increases by +1 for every five wizard levels you possess. You can use this ability a number of times per day equal to 3 + your Intelligence modifier.</p>",
      "unidentified": ""
    },
    "tags": [
      "Wizard",
      "Wizard School Power"
    ],
    "actions": [],
    "uses": {
      "per": null,
      "value": 0,
      "maxFormula": "",
      "autoDeductChargesCost": "1"
    },
    "attackNotes": [],
    "effectNotes": [],
    "changes": [],
    "changeFlags": {
      "loseDexToAC": false,
      "noEncumbrance": false,
      "mediumArmorFullSpeed": false,
      "heavyArmorFullSpeed": false
    },
    "contextNotes": [],
    "links": {
      "children": [],
      "charges": []
    },
    "tag": "",
    "useCustomTag": false,
    "armorProf": {
      "value": [],
      "custom": ""
    },
    "weaponProf": {
      "value": [],
      "custom": ""
    },
    "languages": {
      "value": [],
      "custom": ""
    },
    "flags": {
      "boolean": {},
      "dictionary": {}
    },
    "scriptCalls": [],
    "subType": "classFeat",
    "associations": {
      "classes": [
        "Wizard"
      ]
    },
    "showInQuickbar": false,
    "abilityType": "none",
    "crOffset": "",
    "disabled": false,
    "classSkills": {}
  },
  "ownership": {
    "default": 0
  },
  "_stats": {
    "systemId": "pf1",
    "systemVersion": "9.1",
    "coreVersion": "10.291",
    "createdTime": 1665428266932,
    "modifiedTime": 1689797822767,
    "lastModifiedBy": "ppv91YxratjWnkJi"
  },
  "effects": [],
  "folder": null,
  "sort": 0,
  "flags": {},
  "_key": "!items!0FMMLTzIuUYDm5Yn"
}