{
  "_id": "Gtn2g9LQVjjKjIzh",
  "name": "Psychopomp",
  "type": "feat",
  "img": "systems/pf1/icons/skills/blue_37.jpg",
  "system": {
    "description": {
      "value": "<strong>Medium Outsider Spirit</strong><br/><br/><p>A psychopomp is a steward of souls from the Boneyard, tasked with bringing mortal souls to the afterlife.</p><p><b>Alignment: </b>Neutral.</p><p><b>Spirits: </b>Ahmuuth (hierophant), catrina (marshal), memitim (champion), morrigna (trickster), vanth (guardian), and viduus (archmage).</p><p><b>Taboos: </b>Choose one of the following: you must destroy all haunts and undead creatures whose paths you cross and oppose the creation of such creatures; you must destroy all creatures that would seek to imprison or destroy mortal souls, and set trapped souls free at every opportunity; you must wear a mask that covers the entirety of your face, and never allow it to be removed for as long as you channel the psychopomp.</p><p><b>Spirit Touch (Intermediate, Su): </b>You gain powers that assist in battling evil spirits. You are always granted a saving throw to negate death spells, magical death effects, and energy drain, even if one is not normally allowed. In addition, as a swift action, you can grant your natural weapons, as well as any weapon you wield, the ghost touch weapon special ability for a number of rounds equal to your medium level. These rounds don't need to be consecutive.</p><p><b>Spiritsense (Gift, Su): </b>You can notice, locate, and distinguish between living and undead creatures within 30 feet, just as if you had the psychopomp's spiritsense ability.</p>",
      "unidentified": ""
    },
    "tags": [
      "Medium",
      "Medium Outsider Spirit"
    ],
    "actions": [],
    "uses": {
      "per": null,
      "value": 0,
      "maxFormula": "",
      "autoDeductChargesCost": "1"
    },
    "attackNotes": [],
    "effectNotes": [],
    "changes": [],
    "changeFlags": {
      "loseDexToAC": false,
      "noEncumbrance": false,
      "mediumArmorFullSpeed": false,
      "heavyArmorFullSpeed": false
    },
    "contextNotes": [],
    "links": {
      "children": [],
      "charges": []
    },
    "tag": "",
    "useCustomTag": false,
    "armorProf": {
      "value": [],
      "custom": ""
    },
    "weaponProf": {
      "value": [],
      "custom": ""
    },
    "languages": {
      "value": [],
      "custom": ""
    },
    "flags": {
      "boolean": {},
      "dictionary": {}
    },
    "scriptCalls": [],
    "subType": "classFeat",
    "associations": {
      "classes": [
        "Medium"
      ]
    },
    "showInQuickbar": false,
    "abilityType": "none",
    "crOffset": "",
    "disabled": false,
    "classSkills": {}
  },
  "ownership": {
    "default": 0
  },
  "_stats": {
    "systemId": "pf1",
    "systemVersion": "9.1",
    "coreVersion": "10.291",
    "createdTime": 1665428269716,
    "modifiedTime": 1689797838475,
    "lastModifiedBy": "ppv91YxratjWnkJi"
  },
  "effects": [],
  "folder": null,
  "sort": 0,
  "flags": {},
  "_key": "!items!Gtn2g9LQVjjKjIzh"
}