{
  "_id": "JyNzPP5HC6w6QL1H",
  "name": "Psychic Inception",
  "type": "feat",
  "img": "systems/pf1/icons/skills/blue_15.jpg",
  "system": {
    "description": {
      "value": "<strong>Mesmerist Bold Stare</strong><br/><br/><p>The hypnotic stare and its penalty can affect creatures that are mindless or immune to mind-affecting effects (such as an undead or vermin). The mesmerist can also partially affect such a creature with his mind-affecting spells and abilities if it's under the effect of his hypnotic stare; it gains a +2 bonus on its saving throw (if any), and if affected, it still has a 50% chance each round of ignoring the effect. Ignoring the effect doesn't end the effect, but does allow the creature to act normally for that round.</p>",
      "unidentified": ""
    },
    "tags": [
      "Mesmerist",
      "Mesmerist Bold Stare"
    ],
    "actions": [],
    "uses": {
      "per": null,
      "value": 0,
      "maxFormula": "",
      "autoDeductChargesCost": "1"
    },
    "attackNotes": [],
    "effectNotes": [],
    "changes": [],
    "changeFlags": {
      "loseDexToAC": false,
      "noEncumbrance": false,
      "mediumArmorFullSpeed": false,
      "heavyArmorFullSpeed": false
    },
    "contextNotes": [],
    "links": {
      "children": [],
      "charges": []
    },
    "tag": "",
    "useCustomTag": false,
    "armorProf": {
      "value": [],
      "custom": ""
    },
    "weaponProf": {
      "value": [],
      "custom": ""
    },
    "languages": {
      "value": [],
      "custom": ""
    },
    "flags": {
      "boolean": {},
      "dictionary": {}
    },
    "scriptCalls": [],
    "subType": "classFeat",
    "associations": {
      "classes": [
        "Mesmerist"
      ]
    },
    "showInQuickbar": false,
    "abilityType": "none",
    "crOffset": "",
    "disabled": false,
    "classSkills": {}
  },
  "ownership": {
    "default": 0
  },
  "_stats": {
    "systemId": "pf1",
    "systemVersion": "9.1",
    "coreVersion": "10.291",
    "createdTime": 1665428269986,
    "modifiedTime": 1689797840381,
    "lastModifiedBy": "ppv91YxratjWnkJi"
  },
  "effects": [],
  "folder": null,
  "sort": 0,
  "flags": {},
  "_key": "!items!JyNzPP5HC6w6QL1H"
}