{
  "_id": "slQ0nCYx0NbJeEbn",
  "name": "Reliable",
  "type": "feat",
  "img": "systems/pf1/icons/skills/weapon_36.jpg",
  "system": {
    "description": {
      "value": "<strong>Gunslinger Deeds</strong><br/><br/><p>At 1st level, a techslinger can spend 1 grit point as a free action to prevent a timeworn firearm from glitching. This deed replaces quick clear.</p>",
      "unidentified": ""
    },
    "tags": [
      "Gunslinger",
      "Gunslinger Deeds"
    ],
    "actions": [],
    "uses": {
      "per": null,
      "value": 0,
      "maxFormula": "",
      "autoDeductChargesCost": "1"
    },
    "attackNotes": [],
    "effectNotes": [],
    "changes": [],
    "changeFlags": {
      "loseDexToAC": false,
      "noEncumbrance": false,
      "mediumArmorFullSpeed": false,
      "heavyArmorFullSpeed": false
    },
    "contextNotes": [],
    "links": {
      "children": [],
      "charges": []
    },
    "tag": "",
    "useCustomTag": false,
    "armorProf": {
      "value": [],
      "custom": ""
    },
    "weaponProf": {
      "value": [],
      "custom": ""
    },
    "languages": {
      "value": [],
      "custom": ""
    },
    "flags": {
      "boolean": {},
      "dictionary": {}
    },
    "scriptCalls": [],
    "subType": "classFeat",
    "associations": {
      "classes": [
        "Gunslinger"
      ]
    },
    "showInQuickbar": false,
    "abilityType": "none",
    "crOffset": "",
    "disabled": false,
    "classSkills": {}
  },
  "ownership": {
    "default": 0
  },
  "_stats": {
    "systemId": "pf1",
    "systemVersion": "9.1",
    "coreVersion": "10.291",
    "createdTime": 1665428276555,
    "modifiedTime": 1689797864751,
    "lastModifiedBy": "ppv91YxratjWnkJi"
  },
  "effects": [],
  "folder": null,
  "sort": 0,
  "flags": {},
  "_key": "!items!slQ0nCYx0NbJeEbn"
}