{
  "_id": "idKj4AReGnn1eVwj",
  "name": "Remote Viewing",
  "type": "feat",
  "img": "systems/pf1/icons/items/inventory/badge-cross.jpg",
  "system": {
    "description": {
      "value": "<strong>Cleric Domain Power</strong><br/><br/><p>Starting at 6th level, you can use clairvoyance/clairaudience at will as a spell-like ability using your cleric level as the caster level. You can use this ability for a number of rounds per day equal to your cleric level. These rounds do not need to be consecutive.</p>",
      "unidentified": ""
    },
    "tags": [
      "Cleric",
      "Cleric Domain Power"
    ],
    "actions": [],
    "uses": {
      "per": null,
      "value": 0,
      "maxFormula": "",
      "autoDeductChargesCost": "1"
    },
    "attackNotes": [],
    "effectNotes": [],
    "changes": [],
    "changeFlags": {
      "loseDexToAC": false,
      "noEncumbrance": false,
      "mediumArmorFullSpeed": false,
      "heavyArmorFullSpeed": false
    },
    "contextNotes": [],
    "links": {
      "children": [],
      "charges": []
    },
    "tag": "",
    "useCustomTag": false,
    "armorProf": {
      "value": [],
      "custom": ""
    },
    "weaponProf": {
      "value": [],
      "custom": ""
    },
    "languages": {
      "value": [],
      "custom": ""
    },
    "flags": {
      "boolean": {},
      "dictionary": {}
    },
    "scriptCalls": [],
    "subType": "classFeat",
    "associations": {
      "classes": [
        "Cleric"
      ]
    },
    "showInQuickbar": false,
    "abilityType": "none",
    "crOffset": "",
    "disabled": false,
    "classSkills": {}
  },
  "ownership": {
    "default": 0
  },
  "_stats": {
    "systemId": "pf1",
    "systemVersion": "9.1",
    "coreVersion": "10.291",
    "createdTime": 1665428274668,
    "modifiedTime": 1689797858606,
    "lastModifiedBy": "ppv91YxratjWnkJi"
  },
  "effects": [],
  "folder": null,
  "sort": 0,
  "flags": {},
  "_key": "!items!idKj4AReGnn1eVwj"
}