{
  "_id": "9W5HruvaHs4EpVXv",
  "name": "Resurgence",
  "type": "feat",
  "img": "systems/pf1/icons/skills/beast_04.jpg",
  "system": {
    "description": {
      "value": "<strong>Psychic Discipline Power</strong><br/><br/><p>At 5th level when you would be reduced to 0 hit points or fewer by an attack, you can spend 2 points from your phrenic pool as an immediate action to regain a number of hit points equal to 1d8 points of damage + your psychic level. At 10th level, this ability's healing increases to 3d8 + your psychic level. If this healing is insufficient to bring you above negative hit points, you are automatically stabilized. If you would still be killed by the amount of damage taken, you erupt with positive energy and heal all allies within 30-foot-radius burst for the amount you healed yourself.</p>",
      "unidentified": ""
    },
    "tags": [
      "Psychic",
      "Psychic Discipline Power"
    ],
    "actions": [],
    "uses": {
      "per": null,
      "value": 0,
      "maxFormula": "",
      "autoDeductChargesCost": "1"
    },
    "attackNotes": [],
    "effectNotes": [],
    "changes": [],
    "changeFlags": {
      "loseDexToAC": false,
      "noEncumbrance": false,
      "mediumArmorFullSpeed": false,
      "heavyArmorFullSpeed": false
    },
    "contextNotes": [],
    "links": {
      "children": [],
      "charges": []
    },
    "tag": "",
    "useCustomTag": false,
    "armorProf": {
      "value": [],
      "custom": ""
    },
    "weaponProf": {
      "value": [],
      "custom": ""
    },
    "languages": {
      "value": [],
      "custom": ""
    },
    "flags": {
      "boolean": {},
      "dictionary": {}
    },
    "scriptCalls": [],
    "subType": "classFeat",
    "associations": {
      "classes": [
        "Psychic"
      ]
    },
    "showInQuickbar": false,
    "abilityType": "none",
    "crOffset": "",
    "disabled": false,
    "classSkills": {}
  },
  "ownership": {
    "default": 0
  },
  "_stats": {
    "systemId": "pf1",
    "systemVersion": "9.1",
    "coreVersion": "10.291",
    "createdTime": 1665428268273,
    "modifiedTime": 1689797831470,
    "lastModifiedBy": "ppv91YxratjWnkJi"
  },
  "effects": [],
  "folder": null,
  "sort": 0,
  "flags": {},
  "_key": "!items!9W5HruvaHs4EpVXv"
}