{
  "_id": "ZxGsipwCpQPjio21",
  "name": "Rogue Talent",
  "type": "feat",
  "img": "systems/pf1/icons/items/inventory/pipe.jpg",
  "system": {
    "description": {
      "value": "<strong>Investigator Talents</strong><br/><br/><p>An investigator can select one of the following rogue talents in place of an investigator talent: acrobatic assist, assault leader, black market connections, camouflage, canny observer, charmer, coax information, combat swipe, convincing liar, cunning trigger, deft palm, demand attention, expert leaper, fast fingers, fast getaway, fast picks, fast stealth, firearm training, got your back, guileful polyglot, grit, hard to fool, hold breath, honeyed words, iron guts, lasting poison, ledge walker, major magic, minor magic, nimble climber, peerless maneuver, quick disable, quick disguise, quick trapsmith, resilience, rogue crawl, rope master, stand up, strong stroke, terrain master, trap spotter, or wall scrambler. Any talent effects based on rogue level use the investigator's class level. If the rogue talent has a prerequisite (such as the major magic rogue talent requiring the minor magic talent), the investigator must fulfill the prerequisite before selecting that rogue talent. This talent can be selected multiple times; each time, it grants the investigator a new rogue talent.</p>",
      "unidentified": ""
    },
    "tags": [
      "Investigator",
      "Investigator Talents"
    ],
    "actions": [],
    "uses": {
      "per": null,
      "value": 0,
      "maxFormula": "",
      "autoDeductChargesCost": "1"
    },
    "attackNotes": [],
    "effectNotes": [],
    "changes": [],
    "changeFlags": {
      "loseDexToAC": false,
      "noEncumbrance": false,
      "mediumArmorFullSpeed": false,
      "heavyArmorFullSpeed": false
    },
    "contextNotes": [],
    "links": {
      "children": [],
      "charges": []
    },
    "tag": "",
    "useCustomTag": false,
    "armorProf": {
      "value": [],
      "custom": ""
    },
    "weaponProf": {
      "value": [],
      "custom": ""
    },
    "languages": {
      "value": [],
      "custom": ""
    },
    "flags": {
      "boolean": {},
      "dictionary": {}
    },
    "scriptCalls": [],
    "subType": "classFeat",
    "associations": {
      "classes": [
        "Investigator"
      ]
    },
    "showInQuickbar": false,
    "abilityType": "none",
    "crOffset": "",
    "disabled": false,
    "classSkills": {}
  },
  "ownership": {
    "default": 0
  },
  "_stats": {
    "systemId": "pf1",
    "systemVersion": "9.1",
    "coreVersion": "10.291",
    "createdTime": 1665428272926,
    "modifiedTime": 1689797852018,
    "lastModifiedBy": "ppv91YxratjWnkJi"
  },
  "effects": [],
  "folder": null,
  "sort": 0,
  "flags": {},
  "_key": "!items!ZxGsipwCpQPjio21"
}