{
  "_id": "C8E90gWTp2k5yR31",
  "name": "Rolling Dodge",
  "type": "feat",
  "img": "systems/pf1/icons/items/weapons/greataxe.png",
  "system": {
    "description": {
      "value": "<strong>Rage Power - Defensive</strong><br/><br/><p>The barbarian gains a +1 dodge bonus to her Armor Class against ranged attacks for a number of rounds equal to the barbarian's current Constitution modifier (minimum 1). This bonus increases by +1 for every 6 levels the barbarian has attained. Activating this ability is a move action that does not provoke an attack of opportunity.</p>",
      "unidentified": ""
    },
    "tags": [
      "Barbarian",
      "Rage Power - Defensive"
    ],
    "actions": [],
    "uses": {
      "per": null,
      "value": 0,
      "maxFormula": "",
      "autoDeductChargesCost": "1"
    },
    "attackNotes": [],
    "effectNotes": [],
    "changes": [],
    "changeFlags": {
      "loseDexToAC": false,
      "noEncumbrance": false,
      "mediumArmorFullSpeed": false,
      "heavyArmorFullSpeed": false
    },
    "contextNotes": [],
    "links": {
      "children": [],
      "charges": []
    },
    "tag": "",
    "useCustomTag": false,
    "armorProf": {
      "value": [],
      "custom": ""
    },
    "weaponProf": {
      "value": [],
      "custom": ""
    },
    "languages": {
      "value": [],
      "custom": ""
    },
    "flags": {
      "boolean": {},
      "dictionary": {}
    },
    "scriptCalls": [],
    "subType": "classFeat",
    "associations": {
      "classes": [
        "Barbarian"
      ]
    },
    "showInQuickbar": false,
    "abilityType": "none",
    "crOffset": "",
    "disabled": false,
    "classSkills": {}
  },
  "ownership": {
    "default": 0
  },
  "_stats": {
    "systemId": "pf1",
    "systemVersion": "9.1",
    "coreVersion": "10.291",
    "createdTime": 1665428268789,
    "modifiedTime": 1689797834538,
    "lastModifiedBy": "ppv91YxratjWnkJi"
  },
  "effects": [],
  "folder": null,
  "sort": 0,
  "flags": {},
  "_key": "!items!C8E90gWTp2k5yR31"
}