{
  "_id": "wePW6rxGdtTNRs77",
  "name": "Scalykind",
  "type": "feat",
  "img": "systems/pf1/icons/items/inventory/badge-cross.jpg",
  "system": {
    "description": {
      "value": "<strong>Cleric Domain</strong><br/><br/><p><b>Deities: </b>Apep, Apsu, Ardad Lili, Dahak, Jalaijatali, Nalinivati, Ragadahn, Rytara, Sobek, Teshallas, Vois, Vorasha, Ydersius, Yig</p><p><b>Granted Powers: </b>You are a true lord of reptiles, and your gaze can drive weak creatures into unconsciousness.</p><p><b>Domain Spells: </b>1st-magic fang, 2nd-animal trance, 3rd-greater magic fang, 4th-poison, 5th-animal growth*, 6th-eyebite, 7th-creeping doom (takes the form of Diminutive-sized reptiles), 8th-animal shapes*, 9th-shapechange.*Only reptiles.</p>",
      "unidentified": ""
    },
    "tags": [
      "Cleric",
      "Cleric Domain"
    ],
    "actions": [],
    "uses": {
      "per": null,
      "value": 0,
      "maxFormula": "",
      "autoDeductChargesCost": "1"
    },
    "attackNotes": [],
    "effectNotes": [],
    "changes": [],
    "changeFlags": {
      "loseDexToAC": false,
      "noEncumbrance": false,
      "mediumArmorFullSpeed": false,
      "heavyArmorFullSpeed": false
    },
    "contextNotes": [],
    "links": {
      "children": [],
      "charges": []
    },
    "tag": "",
    "useCustomTag": false,
    "armorProf": {
      "value": [],
      "custom": ""
    },
    "weaponProf": {
      "value": [],
      "custom": ""
    },
    "languages": {
      "value": [],
      "custom": ""
    },
    "flags": {
      "boolean": {},
      "dictionary": {}
    },
    "scriptCalls": [],
    "subType": "classFeat",
    "associations": {
      "classes": [
        "Cleric"
      ]
    },
    "showInQuickbar": false,
    "abilityType": "none",
    "crOffset": "",
    "disabled": false,
    "classSkills": {}
  },
  "ownership": {
    "default": 0
  },
  "_stats": {
    "systemId": "pf1",
    "systemVersion": "9.1",
    "coreVersion": "10.291",
    "createdTime": 1665428277247,
    "modifiedTime": 1689797867223,
    "lastModifiedBy": "ppv91YxratjWnkJi"
  },
  "effects": [],
  "folder": null,
  "sort": 0,
  "flags": {},
  "_key": "!items!wePW6rxGdtTNRs77"
}