{
  "_id": "hUAJ9YjLHggVcb4o",
  "name": "Scar",
  "type": "feat",
  "img": "systems/pf1/icons/skills/affliction_21.jpg",
  "system": {
    "description": {
      "value": "<strong>Witch Hex</strong><br/><br/><p>This hex curses a single target touched with horrible scars of the witch's choosing, whether something as simple as a single letter on the target's forehead or blotchy, burnlike scars on his body. The target may make a Will save to resist this hex. These scars do not interfere with the target's senses or prevent it from using abilities, but may affect social interactions. They persist through disguises and shapechanging. The witch can user her hexes on the scarred target at a range of up to 1 mile, and she is considered to have a body part from the target for the purpose of scrying and similar divination spells. The witch can withdraw this hex from a target as a move action at any range. The number of supernatural scars the witch can maintain at once is equal to her Intelligence bonus; once she reaches this limit, she must remove the scar from a current victim in order to mark another. Effects that remove curses can remove the scar.</p>",
      "unidentified": ""
    },
    "tags": [
      "Witch",
      "Witch Hex"
    ],
    "actions": [],
    "uses": {
      "per": null,
      "value": 0,
      "maxFormula": "",
      "autoDeductChargesCost": "1"
    },
    "attackNotes": [],
    "effectNotes": [],
    "changes": [],
    "changeFlags": {
      "loseDexToAC": false,
      "noEncumbrance": false,
      "mediumArmorFullSpeed": false,
      "heavyArmorFullSpeed": false
    },
    "contextNotes": [],
    "links": {
      "children": [],
      "charges": []
    },
    "tag": "",
    "useCustomTag": false,
    "armorProf": {
      "value": [],
      "custom": ""
    },
    "weaponProf": {
      "value": [],
      "custom": ""
    },
    "languages": {
      "value": [],
      "custom": ""
    },
    "flags": {
      "boolean": {},
      "dictionary": {}
    },
    "scriptCalls": [],
    "subType": "classFeat",
    "associations": {
      "classes": [
        "Witch"
      ]
    },
    "showInQuickbar": false,
    "abilityType": "none",
    "crOffset": "",
    "disabled": false,
    "classSkills": {}
  },
  "ownership": {
    "default": 0
  },
  "_stats": {
    "systemId": "pf1",
    "systemVersion": "9.1",
    "coreVersion": "10.291",
    "createdTime": 1665428274577,
    "modifiedTime": 1689797858026,
    "lastModifiedBy": "ppv91YxratjWnkJi"
  },
  "effects": [],
  "folder": null,
  "sort": 0,
  "flags": {},
  "_key": "!items!hUAJ9YjLHggVcb4o"
}