{
  "_id": "mlfSaDJ1ZrsFR8AO",
  "name": "Scorpion Bloodline",
  "type": "feat",
  "img": "systems/pf1/icons/spells/fireball-red-3.jpg",
  "system": {
    "description": {
      "value": "<strong>Sorcerer Bloodline</strong><br/><br/><p>Whether your ancestors served a scorpion goddess or simply worked closely with more mundane members of the species, the venom from these arachnids has seeped down through generations into your blood.</p><p><b>Class Skill: </b>Climb.</p><p><b>Bonus Spells: </b>thorn javelin (3rd), spider climb (5th), poison (7th), giant vermin (scorpions only) (9th), vermin shap II (11th), sirocco (13th), creeping doom (15th), horrid wilting (17th), transmute blood to acid (19th).</p><p><b>Bonus Feats: </b>Arcane Strike, Blind-Fight, Combat Reflexes, Disruptive Spell, Improved Initiative, Nimble Moves, Skill Focus (Climb), Stealthy.</p><p><b>Bloodline Arcana: </b>You are trained in the use of poison and cannot accidentally poison yourself when applying poison to a weapon.</p><p><b>Bloodline Powers: </b>Wherever your lineage hails from now, the desert is in your blood. Your ancestors may have worshiped the power of the scorpion or learned to channel it to survive.</p>",
      "unidentified": ""
    },
    "tags": [
      "Sorcerer",
      "Sorcerer Bloodline"
    ],
    "actions": [],
    "uses": {
      "per": null,
      "value": 0,
      "maxFormula": "",
      "autoDeductChargesCost": "1"
    },
    "attackNotes": [],
    "effectNotes": [],
    "changes": [],
    "changeFlags": {
      "loseDexToAC": false,
      "noEncumbrance": false,
      "mediumArmorFullSpeed": false,
      "heavyArmorFullSpeed": false
    },
    "contextNotes": [],
    "links": {
      "children": [],
      "charges": []
    },
    "tag": "",
    "useCustomTag": false,
    "armorProf": {
      "value": [],
      "custom": ""
    },
    "weaponProf": {
      "value": [],
      "custom": ""
    },
    "languages": {
      "value": [],
      "custom": ""
    },
    "flags": {
      "boolean": {},
      "dictionary": {}
    },
    "scriptCalls": [],
    "subType": "classFeat",
    "associations": {
      "classes": [
        "Sorcerer"
      ]
    },
    "showInQuickbar": false,
    "abilityType": "none",
    "crOffset": "",
    "disabled": false,
    "classSkills": {}
  },
  "ownership": {
    "default": 0
  },
  "_stats": {
    "systemId": "pf1",
    "systemVersion": "9.1",
    "coreVersion": "10.291",
    "createdTime": 1665428275357,
    "modifiedTime": 1689797861018,
    "lastModifiedBy": "ppv91YxratjWnkJi"
  },
  "effects": [],
  "folder": null,
  "sort": 0,
  "flags": {},
  "_key": "!items!mlfSaDJ1ZrsFR8AO"
}