{
  "_id": "2LhKD94EOWPWugin",
  "name": "Second Chance",
  "type": "feat",
  "img": "systems/pf1/icons/items/inventory/book-red.jpg",
  "system": {
    "description": {
      "value": "<strong>Inquisitor Inquisition Power</strong><br/><br/><p>At 8th level, you can give an enemy a second chance to correct the error of its ways. Once per day as a standard action, you can cast atonement as a spell-like ability, targeting a creature that has violated the tenets of a religion you both share or that freely desires to convert to your alignment. If costly material components are required for the atonement, you may choose to accept a permanent negative level as a sacrifice in place of those components. The target of this effect also receives the benefits of a cure serious wounds spell as part of the effects of the atonement.</p>",
      "unidentified": ""
    },
    "tags": [
      "Inquisitor",
      "Inquisitor Inquisition Power"
    ],
    "actions": [],
    "uses": {
      "per": null,
      "value": 0,
      "maxFormula": "",
      "autoDeductChargesCost": "1"
    },
    "attackNotes": [],
    "effectNotes": [],
    "changes": [],
    "changeFlags": {
      "loseDexToAC": false,
      "noEncumbrance": false,
      "mediumArmorFullSpeed": false,
      "heavyArmorFullSpeed": false
    },
    "contextNotes": [],
    "links": {
      "children": [],
      "charges": []
    },
    "tag": "",
    "useCustomTag": false,
    "armorProf": {
      "value": [],
      "custom": ""
    },
    "weaponProf": {
      "value": [],
      "custom": ""
    },
    "languages": {
      "value": [],
      "custom": ""
    },
    "flags": {
      "boolean": {},
      "dictionary": {}
    },
    "scriptCalls": [],
    "subType": "classFeat",
    "associations": {
      "classes": [
        "Inquisitor"
      ]
    },
    "showInQuickbar": false,
    "abilityType": "none",
    "crOffset": "",
    "disabled": false,
    "classSkills": {}
  },
  "ownership": {
    "default": 0
  },
  "_stats": {
    "systemId": "pf1",
    "systemVersion": "9.1",
    "coreVersion": "10.291",
    "createdTime": 1665428267113,
    "modifiedTime": 1689797824336,
    "lastModifiedBy": "ppv91YxratjWnkJi"
  },
  "effects": [],
  "folder": null,
  "sort": 0,
  "flags": {},
  "_key": "!items!2LhKD94EOWPWugin"
}