{
  "_id": "UNLWq8hv2rioTX4c",
  "name": "Shapeshift",
  "type": "feat",
  "img": "systems/pf1/icons/skills/green_13.jpg",
  "system": {
    "description": {
      "value": "<strong>Shaman Hex</strong><br/><br/><p>The shaman transforms herself into another form for a number of minutes per day equal to her level, as alter self. This duration does not need to be consecutive, but must be spent in 1-minute increments. Changing form (including changing back) is a standard action that doesn't provoke an attack of opportunity. At 8th level, this ability works as beast shape I. At 12th level, this ability works as beast shape II. At 16th level, this ability works as beast shape III. At 20th level, this ability works as beast shape IV.</p>",
      "unidentified": ""
    },
    "tags": [
      "Shaman",
      "Shaman Hex"
    ],
    "actions": [],
    "uses": {
      "per": null,
      "value": 0,
      "maxFormula": "",
      "autoDeductChargesCost": "1"
    },
    "attackNotes": [],
    "effectNotes": [],
    "changes": [],
    "changeFlags": {
      "loseDexToAC": false,
      "noEncumbrance": false,
      "mediumArmorFullSpeed": false,
      "heavyArmorFullSpeed": false
    },
    "contextNotes": [],
    "links": {
      "children": [],
      "charges": []
    },
    "tag": "",
    "useCustomTag": false,
    "armorProf": {
      "value": [],
      "custom": ""
    },
    "weaponProf": {
      "value": [],
      "custom": ""
    },
    "languages": {
      "value": [],
      "custom": ""
    },
    "flags": {
      "boolean": {},
      "dictionary": {}
    },
    "scriptCalls": [],
    "subType": "classFeat",
    "associations": {
      "classes": [
        "Shaman"
      ]
    },
    "showInQuickbar": false,
    "abilityType": "none",
    "crOffset": "",
    "disabled": false,
    "classSkills": {}
  },
  "ownership": {
    "default": 0
  },
  "_stats": {
    "systemId": "pf1",
    "systemVersion": "9.1",
    "coreVersion": "10.291",
    "createdTime": 1665428272151,
    "modifiedTime": 1689797848784,
    "lastModifiedBy": "ppv91YxratjWnkJi"
  },
  "effects": [],
  "folder": null,
  "sort": 0,
  "flags": {},
  "_key": "!items!UNLWq8hv2rioTX4c"
}