{
  "_id": "Fc5nik3mrFVJX6C4",
  "name": "Silencing Strike",
  "type": "feat",
  "img": "systems/pf1/icons/items/inventory/pipe.jpg",
  "system": {
    "description": {
      "value": "<strong>Investigator Talents - Studied Combat/Strike</strong><br/><br/><p>When the investigator deals damage with a studied strike, the target must succeed at a Fortitude save (DC = 10 + 1/2 the investigator's class level + her Intelligence modifier) or be unable to speak (even for verbal components) for 1d4+1 rounds. A successful save reduces the duration to 1 round. This talent has no effect on creatures immune to critical hits. An investigator must be at least 15th level to select this talent.</p>",
      "unidentified": ""
    },
    "tags": [
      "Investigator",
      "Investigator Talents - Studied Combat/Strike"
    ],
    "actions": [],
    "uses": {
      "per": null,
      "value": 0,
      "maxFormula": "",
      "autoDeductChargesCost": "1"
    },
    "attackNotes": [],
    "effectNotes": [],
    "changes": [],
    "changeFlags": {
      "loseDexToAC": false,
      "noEncumbrance": false,
      "mediumArmorFullSpeed": false,
      "heavyArmorFullSpeed": false
    },
    "contextNotes": [],
    "links": {
      "children": [],
      "charges": []
    },
    "tag": "",
    "useCustomTag": false,
    "armorProf": {
      "value": [],
      "custom": ""
    },
    "weaponProf": {
      "value": [],
      "custom": ""
    },
    "languages": {
      "value": [],
      "custom": ""
    },
    "flags": {
      "boolean": {},
      "dictionary": {}
    },
    "scriptCalls": [],
    "subType": "classFeat",
    "associations": {
      "classes": [
        "Investigator"
      ]
    },
    "showInQuickbar": false,
    "abilityType": "none",
    "crOffset": "",
    "disabled": false,
    "classSkills": {}
  },
  "ownership": {
    "default": 0
  },
  "_stats": {
    "systemId": "pf1",
    "systemVersion": "9.1",
    "coreVersion": "10.291",
    "createdTime": 1665428269323,
    "modifiedTime": 1689797837059,
    "lastModifiedBy": "ppv91YxratjWnkJi"
  },
  "effects": [],
  "folder": null,
  "sort": 0,
  "flags": {},
  "_key": "!items!Fc5nik3mrFVJX6C4"
}