{
  "_id": "kK4Iz8SaCrZhwmj6",
  "name": "Slavery Subdomain",
  "type": "feat",
  "img": "systems/pf1/icons/items/inventory/badge-cross.jpg",
  "system": {
    "description": {
      "value": "<strong>Cleric Subdomain</strong><br/><br/><p><b>Associated Domain(s): </b>Law</p><p><b>Associated Deities: </b>Circiatto, Furcas, Gavidya, Hadregash, Inkariax, Jacarkas, Kalma, Lanishra, Losarkur, Vevelor, Zursvaater</p><p><b>Replacement Power: </b>The following granted power replaces the staff of order power of the Law domain.</p><p><b>Replacement Domain Spells: </b>1st-charm person, 5th- dominate person, 8th-binding.</p>",
      "unidentified": ""
    },
    "tags": [
      "Cleric",
      "Cleric Subdomain"
    ],
    "actions": [],
    "uses": {
      "per": null,
      "value": 0,
      "maxFormula": "",
      "autoDeductChargesCost": "1"
    },
    "attackNotes": [],
    "effectNotes": [],
    "changes": [],
    "changeFlags": {
      "loseDexToAC": false,
      "noEncumbrance": false,
      "mediumArmorFullSpeed": false,
      "heavyArmorFullSpeed": false
    },
    "contextNotes": [],
    "links": {
      "children": [],
      "charges": []
    },
    "tag": "",
    "useCustomTag": false,
    "armorProf": {
      "value": [],
      "custom": ""
    },
    "weaponProf": {
      "value": [],
      "custom": ""
    },
    "languages": {
      "value": [],
      "custom": ""
    },
    "flags": {
      "boolean": {},
      "dictionary": {}
    },
    "scriptCalls": [],
    "subType": "classFeat",
    "associations": {
      "classes": [
        "Cleric"
      ]
    },
    "showInQuickbar": false,
    "abilityType": "none",
    "crOffset": "",
    "disabled": false,
    "classSkills": {}
  },
  "ownership": {
    "default": 0
  },
  "_stats": {
    "systemId": "pf1",
    "systemVersion": "9.1",
    "coreVersion": "10.291",
    "createdTime": 1665428275165,
    "modifiedTime": 1689797860015,
    "lastModifiedBy": "ppv91YxratjWnkJi"
  },
  "effects": [],
  "folder": null,
  "sort": 0,
  "flags": {},
  "_key": "!items!kK4Iz8SaCrZhwmj6"
}