{
  "_id": "VAZVOrx9T3roo7a0",
  "name": "Slayer Camouflage (Ex)",
  "type": "feat",
  "img": "systems/pf1/icons/skills/weapon_39.jpg",
  "system": {
    "description": {
      "value": "<strong>Advanced Slayer Talent - Other</strong><br/><br/><p>A slayer can use the Stealth skill to hide in any of his favored terrains, even if the terrain doesn't grant cover or concealment. A slayer must have the terrain mastery talent to select this talent.</p>",
      "unidentified": ""
    },
    "tags": [
      "Slayer",
      "Advanced Slayer Talent - Other"
    ],
    "actions": [],
    "uses": {
      "per": null,
      "value": 0,
      "maxFormula": "",
      "autoDeductChargesCost": "1"
    },
    "attackNotes": [],
    "effectNotes": [],
    "changes": [],
    "changeFlags": {
      "loseDexToAC": false,
      "noEncumbrance": false,
      "mediumArmorFullSpeed": false,
      "heavyArmorFullSpeed": false
    },
    "contextNotes": [],
    "links": {
      "children": [],
      "charges": []
    },
    "tag": "",
    "useCustomTag": false,
    "armorProf": {
      "value": [],
      "custom": ""
    },
    "weaponProf": {
      "value": [],
      "custom": ""
    },
    "languages": {
      "value": [],
      "custom": ""
    },
    "flags": {
      "boolean": {},
      "dictionary": {}
    },
    "scriptCalls": [],
    "subType": "classFeat",
    "associations": {
      "classes": [
        "Slayer"
      ]
    },
    "showInQuickbar": false,
    "abilityType": "none",
    "crOffset": "",
    "disabled": false,
    "classSkills": {}
  },
  "ownership": {
    "default": 0
  },
  "_stats": {
    "systemId": "pf1",
    "systemVersion": "9.1",
    "coreVersion": "10.291",
    "createdTime": 1665428272237,
    "modifiedTime": 1689797849286,
    "lastModifiedBy": "ppv91YxratjWnkJi"
  },
  "effects": [],
  "folder": null,
  "sort": 0,
  "flags": {},
  "_key": "!items!VAZVOrx9T3roo7a0"
}