{
  "_id": "pzWy8tnfRPcKzX7R",
  "name": "Sleuth's Initiative",
  "type": "feat",
  "img": "systems/pf1/icons/items/inventory/pipe.jpg",
  "system": {
    "description": {
      "value": "<strong>Investigator Deeds</strong><br/><br/><p>At 1st level, as long as the sleuth has at least 1 luck point, he gains a +2 bonus on initiative checks. Furthermore, if he has the Quick Draw feat, his hands are free and unrestrained, and the weapon is not hidden, he can draw a single light or one-handed melee weapon as part of the initiative check. (Unlike with swashbuckler deeds, this does not have to be a piercing weapon.)</p>",
      "unidentified": ""
    },
    "tags": [
      "Investigator",
      "Investigator Deeds"
    ],
    "actions": [],
    "uses": {
      "per": null,
      "value": 0,
      "maxFormula": "",
      "autoDeductChargesCost": "1"
    },
    "attackNotes": [],
    "effectNotes": [],
    "changes": [],
    "changeFlags": {
      "loseDexToAC": false,
      "noEncumbrance": false,
      "mediumArmorFullSpeed": false,
      "heavyArmorFullSpeed": false
    },
    "contextNotes": [],
    "links": {
      "children": [],
      "charges": []
    },
    "tag": "",
    "useCustomTag": false,
    "armorProf": {
      "value": [],
      "custom": ""
    },
    "weaponProf": {
      "value": [],
      "custom": ""
    },
    "languages": {
      "value": [],
      "custom": ""
    },
    "flags": {
      "boolean": {},
      "dictionary": {}
    },
    "scriptCalls": [],
    "subType": "classFeat",
    "associations": {
      "classes": [
        "Investigator"
      ]
    },
    "showInQuickbar": false,
    "abilityType": "none",
    "crOffset": "",
    "disabled": false,
    "classSkills": {}
  },
  "ownership": {
    "default": 0
  },
  "_stats": {
    "systemId": "pf1",
    "systemVersion": "9.1",
    "coreVersion": "10.291",
    "createdTime": 1665428275966,
    "modifiedTime": 1689797862951,
    "lastModifiedBy": "ppv91YxratjWnkJi"
  },
  "effects": [],
  "folder": null,
  "sort": 0,
  "flags": {},
  "_key": "!items!pzWy8tnfRPcKzX7R"
}