{
  "_id": "zCp8nzFa5pEcSOgI",
  "name": "Smasher",
  "type": "feat",
  "img": "systems/pf1/icons/items/weapons/greataxe.png",
  "system": {
    "description": {
      "value": "<strong>Rage Power - Offensive</strong><br/><br/><p>Once per rage, whenever the barbarian makes an attack against an unattended object or a sunder combat maneuver, she can ignore the object's hardness. This ability must be used before the attack roll or sunder check is made.</p>",
      "unidentified": ""
    },
    "tags": [
      "Barbarian",
      "Rage Power - Offensive"
    ],
    "actions": [],
    "uses": {
      "per": null,
      "value": 0,
      "maxFormula": "",
      "autoDeductChargesCost": "1"
    },
    "attackNotes": [],
    "effectNotes": [],
    "changes": [],
    "changeFlags": {
      "loseDexToAC": false,
      "noEncumbrance": false,
      "mediumArmorFullSpeed": false,
      "heavyArmorFullSpeed": false
    },
    "contextNotes": [],
    "links": {
      "children": [],
      "charges": []
    },
    "tag": "",
    "useCustomTag": false,
    "armorProf": {
      "value": [],
      "custom": ""
    },
    "weaponProf": {
      "value": [],
      "custom": ""
    },
    "languages": {
      "value": [],
      "custom": ""
    },
    "flags": {
      "boolean": {},
      "dictionary": {}
    },
    "scriptCalls": [],
    "subType": "classFeat",
    "associations": {
      "classes": [
        "Barbarian"
      ]
    },
    "showInQuickbar": false,
    "abilityType": "none",
    "crOffset": "",
    "disabled": false,
    "classSkills": {}
  },
  "ownership": {
    "default": 0
  },
  "_stats": {
    "systemId": "pf1",
    "systemVersion": "9.1",
    "coreVersion": "10.291",
    "createdTime": 1665428277992,
    "modifiedTime": 1689797868981,
    "lastModifiedBy": "ppv91YxratjWnkJi"
  },
  "effects": [],
  "folder": null,
  "sort": 0,
  "flags": {},
  "_key": "!items!zCp8nzFa5pEcSOgI"
}