{
  "_id": "5MpaPZW8YctZOyVc",
  "name": "Snapping Turtle",
  "type": "feat",
  "img": "systems/pf1/icons/skills/blue_34.jpg",
  "system": {
    "description": {
      "value": "<strong>Shifter Aspect</strong><br/><br/><p>Long-lived and resilient, turtles embody wisdom and endurance in many cultures. Those who take this aspect gain profound insight as well as remarkable resilience. A snapping turtle's alternate attack is bite (B, P, S).</p><p><b>Minor Form: </b>You gain a +2 enhancement bonus to Wisdom. At 8th level, this bonus increases to +4, and at 15th level, it increases to +6.</p><p><b>Major Form (beast shape II): </b>Your shape changes to that of a Large giant snapping turtle. While in this form, you gain low-light vision, scent (30 feet), a swim speed of 20 feet, and a bite attack (1d8 + 1-1/2 your Strength modifier damage). At 8th level, you gain an insight bonus equal to your Wisdom modifier to your CMD against bull rush, drag, overrun, reposition, and trip attempts. At 15th level, you gain DR 5/silver.</p><p><b>Alternate Natural Attacks: </b>Bite (B, P, S)</p>",
      "unidentified": ""
    },
    "tags": [
      "Shifter",
      "Shifter Aspect"
    ],
    "actions": [],
    "uses": {
      "per": null,
      "value": 0,
      "maxFormula": "",
      "autoDeductChargesCost": "1"
    },
    "attackNotes": [],
    "effectNotes": [],
    "changes": [],
    "changeFlags": {
      "loseDexToAC": false,
      "noEncumbrance": false,
      "mediumArmorFullSpeed": false,
      "heavyArmorFullSpeed": false
    },
    "contextNotes": [],
    "links": {
      "children": [],
      "charges": []
    },
    "tag": "",
    "useCustomTag": false,
    "armorProf": {
      "value": [],
      "custom": ""
    },
    "weaponProf": {
      "value": [],
      "custom": ""
    },
    "languages": {
      "value": [],
      "custom": ""
    },
    "flags": {
      "boolean": {},
      "dictionary": {}
    },
    "scriptCalls": [],
    "subType": "classFeat",
    "associations": {
      "classes": [
        "Shifter"
      ]
    },
    "showInQuickbar": false,
    "abilityType": "none",
    "crOffset": "",
    "disabled": false,
    "classSkills": {}
  },
  "ownership": {
    "default": 0
  },
  "_stats": {
    "systemId": "pf1",
    "systemVersion": "9.1",
    "coreVersion": "10.291",
    "createdTime": 1665428267649,
    "modifiedTime": 1689797827282,
    "lastModifiedBy": "ppv91YxratjWnkJi"
  },
  "effects": [],
  "folder": null,
  "sort": 0,
  "flags": {},
  "_key": "!items!5MpaPZW8YctZOyVc"
}