{
  "_id": "xT2F5vxpAggcASNZ",
  "name": "Song of Sarkoris (Oratory, Sing)",
  "type": "feat",
  "img": "systems/pf1/icons/items/inventory/lute.jpg",
  "system": {
    "description": {
      "value": "<strong>Bard - Masterpieces</strong><br/><br/><p>You recite inspirational lines from this epic poem commemorating the final stand at Storasta, keeping defiance alive even in the face of certain death.</p><p>Prerequisite: Perform (oratory) or Perform (sing) 10 ranks.</p><p>Cost: Feat or 4th-level bard spell known.</p><p>Effect: When you complete the performance, all allies within 30 feet gain an attack of opportunity when reduced to negative hit points, or whenever a foe deals hit point damage equal to or greater than its Hit Dice, for the duration of the performance. The attack of opportunity can be made against any enemy within reach; it does not have to be against the source of the damage, and does not count toward your allies' maximum attacks of opportunity per round. This attack of opportunity is resolved prior to the enemy's attack, but the triggering attack is still resolved even if the enemy is killed or incapacitated.</p><p>Use: 2 bardic performance rounds per round.</p><p>Action: 1 full round.</p>",
      "unidentified": ""
    },
    "tags": [
      "Bard",
      "Bard - Masterpieces"
    ],
    "actions": [],
    "uses": {
      "per": null,
      "value": 0,
      "maxFormula": "",
      "autoDeductChargesCost": "1"
    },
    "attackNotes": [],
    "effectNotes": [],
    "changes": [],
    "changeFlags": {
      "loseDexToAC": false,
      "noEncumbrance": false,
      "mediumArmorFullSpeed": false,
      "heavyArmorFullSpeed": false
    },
    "contextNotes": [],
    "links": {
      "children": [],
      "charges": []
    },
    "tag": "",
    "useCustomTag": false,
    "armorProf": {
      "value": [],
      "custom": ""
    },
    "weaponProf": {
      "value": [],
      "custom": ""
    },
    "languages": {
      "value": [],
      "custom": ""
    },
    "flags": {
      "boolean": {},
      "dictionary": {}
    },
    "scriptCalls": [],
    "subType": "classFeat",
    "associations": {
      "classes": [
        "Bard"
      ]
    },
    "showInQuickbar": false,
    "abilityType": "none",
    "crOffset": "",
    "disabled": false,
    "classSkills": {}
  },
  "ownership": {
    "default": 0
  },
  "_stats": {
    "systemId": "pf1",
    "systemVersion": "9.1",
    "coreVersion": "10.291",
    "createdTime": 1665428277832,
    "modifiedTime": 1689797868113,
    "lastModifiedBy": "ppv91YxratjWnkJi"
  },
  "effects": [],
  "folder": null,
  "sort": 0,
  "flags": {},
  "_key": "!items!xT2F5vxpAggcASNZ"
}