{
  "_id": "7Rg60EialngCzcA8",
  "name": "Spellblade Parry",
  "type": "feat",
  "img": "systems/pf1/icons/spells/enchant-magenta-3.jpg",
  "system": {
    "description": {
      "value": "<strong>Magus Spellblade Arcana</strong><br/><br/><p>When an enemy makes a melee attack roll against the magus, as an immediate action the magus can end the athame's duration to gain a deflection bonus to his Armor Class until the end of his next turn. This bonus is equal to the level of the spell sacrificed to create the athame (maximum +5).</p>",
      "unidentified": ""
    },
    "tags": [
      "Magus",
      "Magus Spellblade Arcana"
    ],
    "actions": [],
    "uses": {
      "per": null,
      "value": 0,
      "maxFormula": "",
      "autoDeductChargesCost": "1"
    },
    "attackNotes": [],
    "effectNotes": [],
    "changes": [],
    "changeFlags": {
      "loseDexToAC": false,
      "noEncumbrance": false,
      "mediumArmorFullSpeed": false,
      "heavyArmorFullSpeed": false
    },
    "contextNotes": [],
    "links": {
      "children": [],
      "charges": []
    },
    "tag": "",
    "useCustomTag": false,
    "armorProf": {
      "value": [],
      "custom": ""
    },
    "weaponProf": {
      "value": [],
      "custom": ""
    },
    "languages": {
      "value": [],
      "custom": ""
    },
    "flags": {
      "boolean": {},
      "dictionary": {}
    },
    "scriptCalls": [],
    "subType": "classFeat",
    "associations": {
      "classes": [
        "Magus"
      ]
    },
    "showInQuickbar": false,
    "abilityType": "none",
    "crOffset": "",
    "disabled": false,
    "classSkills": {}
  },
  "ownership": {
    "default": 0
  },
  "_stats": {
    "systemId": "pf1",
    "systemVersion": "9.1",
    "coreVersion": "10.291",
    "createdTime": 1665428268083,
    "modifiedTime": 1689797829648,
    "lastModifiedBy": "ppv91YxratjWnkJi"
  },
  "effects": [],
  "folder": null,
  "sort": 0,
  "flags": {},
  "_key": "!items!7Rg60EialngCzcA8"
}