{
  "_id": "I1aPNhlqvH46uHLM",
  "name": "Sphinx Bloodline",
  "type": "feat",
  "img": "systems/pf1/icons/skills/red_12.jpg",
  "system": {
    "description": {
      "value": "<strong>Bloodrager - Bloodline</strong><br/><br/><p>Those who successfully traded riddles with sphinxes sometimes find themselves or their descendants exhibiting both arcane power and violent fury. These bloodragers find being outwitted or outmaneuvered especially infuriating; though they are usually scholarly and erudite, their fits of frenzied rage are all the more terrifying in comparison.</p><p><b>Bonus Feats: </b>Alertness, Combat Casting, Dazzling Display, Improved Critical, Iron Will, Rending Fury, Skill Focus (Intimidate), Voice of the Sibyl.</p><p><b>Bonus Spells: </b>divine favor (7th), touch of idiocy (10th), searing light (13th), bestow curse (16th)</p><p><b>Bloodline Powers: </b>You gain the ruthless claws and implacable voice of the sphinx while bloodraging.</p>",
      "unidentified": ""
    },
    "tags": [
      "Bloodrager",
      "Bloodrager - Bloodline"
    ],
    "actions": [],
    "uses": {
      "per": null,
      "value": 0,
      "maxFormula": "",
      "autoDeductChargesCost": "1"
    },
    "attackNotes": [],
    "effectNotes": [],
    "changes": [],
    "changeFlags": {
      "loseDexToAC": false,
      "noEncumbrance": false,
      "mediumArmorFullSpeed": false,
      "heavyArmorFullSpeed": false
    },
    "contextNotes": [],
    "links": {
      "children": [],
      "charges": []
    },
    "tag": "",
    "useCustomTag": false,
    "armorProf": {
      "value": [],
      "custom": ""
    },
    "weaponProf": {
      "value": [],
      "custom": ""
    },
    "languages": {
      "value": [],
      "custom": ""
    },
    "flags": {
      "boolean": {},
      "dictionary": {}
    },
    "scriptCalls": [],
    "subType": "classFeat",
    "associations": {
      "classes": [
        "Bloodrager"
      ]
    },
    "showInQuickbar": false,
    "abilityType": "none",
    "crOffset": "",
    "disabled": false,
    "classSkills": {}
  },
  "ownership": {
    "default": 0
  },
  "_stats": {
    "systemId": "pf1",
    "systemVersion": "9.1",
    "coreVersion": "10.291",
    "createdTime": 1665428269796,
    "modifiedTime": 1689797839105,
    "lastModifiedBy": "ppv91YxratjWnkJi"
  },
  "effects": [],
  "folder": null,
  "sort": 0,
  "flags": {},
  "_key": "!items!I1aPNhlqvH46uHLM"
}