{
  "_id": "b1UsbK6JALxyghdJ",
  "name": "Spotter",
  "type": "feat",
  "img": "systems/pf1/icons/skills/weapon_36.jpg",
  "system": {
    "description": {
      "value": "<strong>Gunslinger Deeds</strong><br/><br/><p>At 1st level, as a standard action, a gunner squire can spend 1 grit point to pinpoint a target within her line of sight and inform her knightly liege of the target's exact location. During the knight's next turn, if he makes a ranged attack against the pinpointed target and would take a penalty on his attack roll due to range, he may reduce this penalty by an amount equal to his gunner squire's Wisdom modifier (to a minimum penalty of 0). The gunner squire must be adjacent to her liege and able to communicate to use this deed, though a knight may move away from the gunner squire during his turn and still gain the benefits of this deed. This deed replaces the gunslinger's dodge deed.</p>",
      "unidentified": ""
    },
    "tags": [
      "Gunslinger",
      "Gunslinger Deeds"
    ],
    "actions": [],
    "uses": {
      "per": null,
      "value": 0,
      "maxFormula": "",
      "autoDeductChargesCost": "1"
    },
    "attackNotes": [],
    "effectNotes": [],
    "changes": [],
    "changeFlags": {
      "loseDexToAC": false,
      "noEncumbrance": false,
      "mediumArmorFullSpeed": false,
      "heavyArmorFullSpeed": false
    },
    "contextNotes": [],
    "links": {
      "children": [],
      "charges": []
    },
    "tag": "",
    "useCustomTag": false,
    "armorProf": {
      "value": [],
      "custom": ""
    },
    "weaponProf": {
      "value": [],
      "custom": ""
    },
    "languages": {
      "value": [],
      "custom": ""
    },
    "flags": {
      "boolean": {},
      "dictionary": {}
    },
    "scriptCalls": [],
    "subType": "classFeat",
    "associations": {
      "classes": [
        "Gunslinger"
      ]
    },
    "showInQuickbar": false,
    "abilityType": "none",
    "crOffset": "",
    "disabled": false,
    "classSkills": {}
  },
  "ownership": {
    "default": 0
  },
  "_stats": {
    "systemId": "pf1",
    "systemVersion": "9.1",
    "coreVersion": "10.291",
    "createdTime": 1665428273355,
    "modifiedTime": 1689797853059,
    "lastModifiedBy": "ppv91YxratjWnkJi"
  },
  "effects": [],
  "folder": null,
  "sort": 0,
  "flags": {},
  "_key": "!items!b1UsbK6JALxyghdJ"
}