{
  "_id": "FsuxwHtqa3jDPl47",
  "name": "Stare of Oblivion",
  "type": "feat",
  "img": "systems/pf1/icons/items/inventory/book-red.jpg",
  "system": {
    "description": {
      "value": "<strong>Inquisitor Inquisition Power</strong><br/><br/><p>At 8th level, you can use feeblemind as a gaze attack against one creature (Will negates). This effect lasts 1d4 rounds. You can use this ability once per day at 8th level, and one additional time per day for every four levels beyond 8th.</p>",
      "unidentified": ""
    },
    "tags": [
      "Inquisitor",
      "Inquisitor Inquisition Power"
    ],
    "actions": [],
    "uses": {
      "per": null,
      "value": 0,
      "maxFormula": "",
      "autoDeductChargesCost": "1"
    },
    "attackNotes": [],
    "effectNotes": [],
    "changes": [],
    "changeFlags": {
      "loseDexToAC": false,
      "noEncumbrance": false,
      "mediumArmorFullSpeed": false,
      "heavyArmorFullSpeed": false
    },
    "contextNotes": [],
    "links": {
      "children": [],
      "charges": []
    },
    "tag": "",
    "useCustomTag": false,
    "armorProf": {
      "value": [],
      "custom": ""
    },
    "weaponProf": {
      "value": [],
      "custom": ""
    },
    "languages": {
      "value": [],
      "custom": ""
    },
    "flags": {
      "boolean": {},
      "dictionary": {}
    },
    "scriptCalls": [],
    "subType": "classFeat",
    "associations": {
      "classes": [
        "Inquisitor"
      ]
    },
    "showInQuickbar": false,
    "abilityType": "none",
    "crOffset": "",
    "disabled": false,
    "classSkills": {}
  },
  "ownership": {
    "default": 0
  },
  "_stats": {
    "systemId": "pf1",
    "systemVersion": "9.1",
    "coreVersion": "10.291",
    "createdTime": 1665428269336,
    "modifiedTime": 1689797837141,
    "lastModifiedBy": "ppv91YxratjWnkJi"
  },
  "effects": [],
  "folder": null,
  "sort": 0,
  "flags": {},
  "_key": "!items!FsuxwHtqa3jDPl47"
}