{
  "_id": "qaJ7wwzMdMmSCba0",
  "name": "Stone Spirit",
  "type": "feat",
  "img": "systems/pf1/icons/skills/green_13.jpg",
  "system": {
    "description": {
      "value": "<strong>Shaman Spirit</strong><br/><br/><p>The skin of a shaman who selects the stone spirit takes on a rough, stony appearance. When the shaman calls upon one of this spirit's abilities, tiny gemstones underneath her flesh pulse with a bright glow, like phosphorescent geodes glittering in a dark cave.</p><p><b>Spirit Magic Spells: </b>magic stone (1st), stone call (2nd), meld into stone (3rd), wall of stone (4th), stoneskin (5th), stone tell (6th), statue (7th), repel metal and stone (8th), clashing rocks (9th)</p><p><b>Hexes: </b>A shaman who chooses the Stone spirit can select from the following hexes.</p><p><b>Spirit Animal: </b>The shaman's spirit animal looks as though it's made out of earth and stone, with tiny gemstones embedded in its flesh. The animal gains DR 5/adamantine.</p><p><b>Spirit Ability: </b>A shaman who chooses the Stone spirit as her spirit or wandering spirit gains the following ability.</p><p><i>Touch of Acid (Su): </i>As a standard action, the shaman can make a melee touch attack that deals 1d6 points of acid damage + 1 point for every 2 shaman levels she possesses. A shaman can use this ability a number of times per day equal to 3 + her Charisma modifier. At 11th level, any weapon she wields is treated as a corrosiveUE weapon.</p><p><b>Greater Spirit Ability: </b>A shaman who chooses the Stone spirit as her spirit or wandering spirit gains the following ability upon having access to the greater version of that spirit.</p><p><i>Body of Earth (Su): </i>The shaman gains DR 2/adamantine. This DR increases by 1 for every 4 levels beyond 8th the shaman possesses. In addition, as a standard action, she can cause jagged pieces of stone to explode from her body in a 10-foot-radius burst. This deals 1d6 points of piercing damage per 2 shaman levels she possesses. A successful Reflex saving throw halves this damage. The shaman can use this ability three times per day, but she must wait 1d4 rounds between each use.</p><p><b>True Spirit Ability: </b>A shaman who chooses the Stone spirit as her spirit or wandering spirit gains the following ability upon having access to the true version of that spirit.</p><p><i>Elemental Form (Su): </i>As a standard action, the shaman assumes the form of a Huge (or smaller) earth elemental, as elemental body IV with a duration of 1 hour per level. The shaman can use this ability once per day.</p><p><b>Manifestation: </b>Upon reaching 20th level, the shaman becomes a being of acid and earth. The shaman gains acid resistance 30. She can also apply any one of the following feats to any acid or earth spell she casts without increasing the spell's level or casting time: Enlarge Spell, Extend Spell, Silent Spell, or Still Spell. She doesn't need to possess these feats to use this ability.</p>",
      "unidentified": ""
    },
    "tags": [
      "Shaman",
      "Shaman Spirit"
    ],
    "actions": [],
    "uses": {
      "per": null,
      "value": 0,
      "maxFormula": "",
      "autoDeductChargesCost": "1"
    },
    "attackNotes": [],
    "effectNotes": [],
    "changes": [],
    "changeFlags": {
      "loseDexToAC": false,
      "noEncumbrance": false,
      "mediumArmorFullSpeed": false,
      "heavyArmorFullSpeed": false
    },
    "contextNotes": [],
    "links": {
      "children": [],
      "charges": []
    },
    "tag": "",
    "useCustomTag": false,
    "armorProf": {
      "value": [],
      "custom": ""
    },
    "weaponProf": {
      "value": [],
      "custom": ""
    },
    "languages": {
      "value": [],
      "custom": ""
    },
    "flags": {
      "boolean": {},
      "dictionary": {}
    },
    "scriptCalls": [],
    "subType": "classFeat",
    "associations": {
      "classes": [
        "Shaman"
      ]
    },
    "showInQuickbar": false,
    "abilityType": "none",
    "crOffset": "",
    "disabled": false,
    "classSkills": {}
  },
  "ownership": {
    "default": 0
  },
  "_stats": {
    "systemId": "pf1",
    "systemVersion": "9.1",
    "coreVersion": "10.291",
    "createdTime": 1665428276387,
    "modifiedTime": 1689797863669,
    "lastModifiedBy": "ppv91YxratjWnkJi"
  },
  "effects": [],
  "folder": null,
  "sort": 0,
  "flags": {},
  "_key": "!items!qaJ7wwzMdMmSCba0"
}