{
  "_id": "Qb99XufSK4Jek5iu",
  "name": "Stormborn Bloodline",
  "type": "feat",
  "img": "systems/pf1/icons/spells/fireball-red-3.jpg",
  "system": {
    "description": {
      "value": "<strong>Sorcerer Bloodline</strong><br/><br/><p>You trace your heritage to fierce and proud spirits of storm and sky, and living lightning sings in your veins.</p><p><b>Class Skill: </b>Knowledge (nature).</p><p><b>Bonus Spells: </b>shocking grasp (3rd), gust of wind (5th), lightning bolt (7th), shout (9th), overland flight (11th), chain lightning (13th), control weather (15th), whirlwind (17th), storm of vengeance (19th).</p><p><b>Bonus Feats: </b>Deadly Aim, Dodge, Enlarge Spell, Far Shot, Great Fortitude, Point-Blank Shot, Skill Focus (Fly), Wind Stance.</p><p><b>Bloodline Arcana: </b>Whenever you cast a spell with the electricity or sonic descriptor, increase the save DC by 1.</p><p><b>Bloodline Powers: </b>Your mastery of the storm is reflected in the unique panoply of powers you manifest.</p>",
      "unidentified": ""
    },
    "tags": [
      "Sorcerer",
      "Sorcerer Bloodline"
    ],
    "actions": [],
    "uses": {
      "per": null,
      "value": 0,
      "maxFormula": "",
      "autoDeductChargesCost": "1"
    },
    "attackNotes": [],
    "effectNotes": [],
    "changes": [],
    "changeFlags": {
      "loseDexToAC": false,
      "noEncumbrance": false,
      "mediumArmorFullSpeed": false,
      "heavyArmorFullSpeed": false
    },
    "contextNotes": [],
    "links": {
      "children": [],
      "charges": []
    },
    "tag": "",
    "useCustomTag": false,
    "armorProf": {
      "value": [],
      "custom": ""
    },
    "weaponProf": {
      "value": [],
      "custom": ""
    },
    "languages": {
      "value": [],
      "custom": ""
    },
    "flags": {
      "boolean": {},
      "dictionary": {}
    },
    "scriptCalls": [],
    "subType": "classFeat",
    "associations": {
      "classes": [
        "Sorcerer"
      ]
    },
    "showInQuickbar": false,
    "abilityType": "none",
    "crOffset": "",
    "disabled": false,
    "classSkills": {}
  },
  "ownership": {
    "default": 0
  },
  "_stats": {
    "systemId": "pf1",
    "systemVersion": "9.1",
    "coreVersion": "10.291",
    "createdTime": 1665428271164,
    "modifiedTime": 1689797845480,
    "lastModifiedBy": "ppv91YxratjWnkJi"
  },
  "effects": [],
  "folder": null,
  "sort": 0,
  "flags": {},
  "_key": "!items!Qb99XufSK4Jek5iu"
}