{
  "_id": "UdyTKviccJ72aHk7",
  "name": "Stormchild",
  "type": "feat",
  "img": "systems/pf1/icons/spells/fireball-red-3.jpg",
  "system": {
    "description": {
      "value": "<strong>Sorcerer Bloodline Power</strong><br/><br/><p>At 3rd level, you gain resist electricity 5 and resist sonic 5, and treat wind effects as being one step less severe. At 9th level, you treat wind effects as being two steps less severe and gain blindsense 60 feet against concealment from natural or magical fog, mist, or weather effects.</p>",
      "unidentified": ""
    },
    "tags": [
      "Sorcerer",
      "Sorcerer Bloodline Power"
    ],
    "actions": [],
    "uses": {
      "per": null,
      "value": 0,
      "maxFormula": "",
      "autoDeductChargesCost": "1"
    },
    "attackNotes": [],
    "effectNotes": [],
    "changes": [],
    "changeFlags": {
      "loseDexToAC": false,
      "noEncumbrance": false,
      "mediumArmorFullSpeed": false,
      "heavyArmorFullSpeed": false
    },
    "contextNotes": [],
    "links": {
      "children": [],
      "charges": []
    },
    "tag": "",
    "useCustomTag": false,
    "armorProf": {
      "value": [],
      "custom": ""
    },
    "weaponProf": {
      "value": [],
      "custom": ""
    },
    "languages": {
      "value": [],
      "custom": ""
    },
    "flags": {
      "boolean": {},
      "dictionary": {}
    },
    "scriptCalls": [],
    "subType": "classFeat",
    "associations": {
      "classes": [
        "Sorcerer"
      ]
    },
    "showInQuickbar": false,
    "abilityType": "none",
    "crOffset": "",
    "disabled": false,
    "classSkills": {}
  },
  "ownership": {
    "default": 0
  },
  "_stats": {
    "systemId": "pf1",
    "systemVersion": "9.1",
    "coreVersion": "10.291",
    "createdTime": 1665428272178,
    "modifiedTime": 1689797848949,
    "lastModifiedBy": "ppv91YxratjWnkJi"
  },
  "effects": [],
  "folder": null,
  "sort": 0,
  "flags": {},
  "_key": "!items!UdyTKviccJ72aHk7"
}