{
  "_id": "9aAFAWLTIl1dzCeH",
  "name": "Studied Defense",
  "type": "feat",
  "img": "systems/pf1/icons/items/inventory/pipe.jpg",
  "system": {
    "description": {
      "value": "<strong>Investigator Talents</strong><br/><br/><p>When an investigator with this talent uses his studied combat ability, he can chose to apply that ability's insight bonus to his AC against attacks made by the target of his studied combat instead of to attack rolls against the target of his studied combat. (The insight bonus on damage rolls remains.) He must choose which type of bonus he gains when using studied combat, and it cannot be changed until he uses studied combat again. An investigator must be at least 9th level to select this talent.</p>",
      "unidentified": ""
    },
    "tags": [
      "Investigator",
      "Investigator Talents"
    ],
    "actions": [],
    "uses": {
      "per": null,
      "value": 0,
      "maxFormula": "",
      "autoDeductChargesCost": "1"
    },
    "attackNotes": [],
    "effectNotes": [],
    "changes": [],
    "changeFlags": {
      "loseDexToAC": false,
      "noEncumbrance": false,
      "mediumArmorFullSpeed": false,
      "heavyArmorFullSpeed": false
    },
    "contextNotes": [],
    "links": {
      "children": [],
      "charges": []
    },
    "tag": "",
    "useCustomTag": false,
    "armorProf": {
      "value": [],
      "custom": ""
    },
    "weaponProf": {
      "value": [],
      "custom": ""
    },
    "languages": {
      "value": [],
      "custom": ""
    },
    "flags": {
      "boolean": {},
      "dictionary": {}
    },
    "scriptCalls": [],
    "subType": "classFeat",
    "associations": {
      "classes": [
        "Investigator"
      ]
    },
    "showInQuickbar": false,
    "abilityType": "none",
    "crOffset": "",
    "disabled": false,
    "classSkills": {}
  },
  "ownership": {
    "default": 0
  },
  "_stats": {
    "systemId": "pf1",
    "systemVersion": "9.1",
    "coreVersion": "10.291",
    "createdTime": 1665428268281,
    "modifiedTime": 1689797831516,
    "lastModifiedBy": "ppv91YxratjWnkJi"
  },
  "effects": [],
  "folder": null,
  "sort": 0,
  "flags": {},
  "_key": "!items!9aAFAWLTIl1dzCeH"
}