{
  "_id": "FzmORhjXcQYtVfBM",
  "name": "Sudden Speed",
  "type": "feat",
  "img": "systems/pf1/icons/items/equipment/gloves.jpg",
  "system": {
    "description": {
      "value": "<strong>Ki Powers (Unchained)</strong><br/><br/><p>A monk with this ki power can spend 1 point from his ki pool as a swift action to grant himself a sudden burst of speed. This increases the monk's base land speed by 30 feet for 1 minute.</p>",
      "unidentified": ""
    },
    "tags": [
      "Monk (Unchained)",
      "Ki Powers (Unchained)"
    ],
    "actions": [],
    "uses": {
      "per": null,
      "value": 0,
      "maxFormula": "",
      "autoDeductChargesCost": "1"
    },
    "attackNotes": [],
    "effectNotes": [],
    "changes": [],
    "changeFlags": {
      "loseDexToAC": false,
      "noEncumbrance": false,
      "mediumArmorFullSpeed": false,
      "heavyArmorFullSpeed": false
    },
    "contextNotes": [],
    "links": {
      "children": [],
      "charges": []
    },
    "tag": "",
    "useCustomTag": false,
    "armorProf": {
      "value": [],
      "custom": ""
    },
    "weaponProf": {
      "value": [],
      "custom": ""
    },
    "languages": {
      "value": [],
      "custom": ""
    },
    "flags": {
      "boolean": {},
      "dictionary": {}
    },
    "scriptCalls": [],
    "subType": "classFeat",
    "associations": {
      "classes": [
        "Monk (Unchained)"
      ]
    },
    "showInQuickbar": false,
    "abilityType": "none",
    "crOffset": "",
    "disabled": false,
    "classSkills": {}
  },
  "ownership": {
    "default": 0
  },
  "_stats": {
    "systemId": "pf1",
    "systemVersion": "9.1",
    "coreVersion": "10.291",
    "createdTime": 1665428269343,
    "modifiedTime": 1689797837192,
    "lastModifiedBy": "ppv91YxratjWnkJi"
  },
  "effects": [],
  "folder": null,
  "sort": 0,
  "flags": {},
  "_key": "!items!FzmORhjXcQYtVfBM"
}