{
  "_id": "jOKXtlBOwaMTMq6x",
  "name": "Suffering Knowledge (Su)",
  "type": "feat",
  "img": "systems/pf1/icons/spells/runes-blue-2.jpg",
  "system": {
    "description": {
      "value": "<strong>Arcanist Exploit - Greater</strong><br/><br/><p>The arcanist can learn to cast a spell by suffering from its effects. When the arcanist fails a saving throw against a spell cast by an enemy, as an immediate action she can expend 1 point from her arcane reservoir to temporarily acquire the spell. She can cast the spell using her spell slots as if it was a spell she had prepared that day. The spell must be on the sorcerer/wizard spell list and must be of a level that she can cast. The ability to cast this spell remains for a number of rounds equal to the arcanist's Charisma modif ier (minimum 1).</p>",
      "unidentified": ""
    },
    "tags": [
      "Arcanist",
      "Arcanist Exploit - Greater"
    ],
    "actions": [],
    "uses": {
      "per": null,
      "value": 0,
      "maxFormula": "",
      "autoDeductChargesCost": "1"
    },
    "attackNotes": [],
    "effectNotes": [],
    "changes": [],
    "changeFlags": {
      "loseDexToAC": false,
      "noEncumbrance": false,
      "mediumArmorFullSpeed": false,
      "heavyArmorFullSpeed": false
    },
    "contextNotes": [],
    "links": {
      "children": [],
      "charges": []
    },
    "tag": "",
    "useCustomTag": false,
    "armorProf": {
      "value": [],
      "custom": ""
    },
    "weaponProf": {
      "value": [],
      "custom": ""
    },
    "languages": {
      "value": [],
      "custom": ""
    },
    "flags": {
      "boolean": {},
      "dictionary": {}
    },
    "scriptCalls": [],
    "subType": "classFeat",
    "associations": {
      "classes": [
        "Arcanist"
      ]
    },
    "showInQuickbar": false,
    "abilityType": "none",
    "crOffset": "",
    "disabled": false,
    "classSkills": {}
  },
  "ownership": {
    "default": 0
  },
  "_stats": {
    "systemId": "pf1",
    "systemVersion": "9.1",
    "coreVersion": "10.291",
    "createdTime": 1665428274735,
    "modifiedTime": 1689797859003,
    "lastModifiedBy": "ppv91YxratjWnkJi"
  },
  "effects": [],
  "folder": null,
  "sort": 0,
  "flags": {},
  "_key": "!items!jOKXtlBOwaMTMq6x"
}