{
  "_id": "jx9l3hDKlo9fnVZv",
  "name": "Summoner's Charm",
  "type": "feat",
  "img": "systems/pf1/icons/spells/beam-magenta-3.jpg",
  "system": {
    "description": {
      "value": "<strong>Wizard School Power</strong><br/><br/><p>Whenever you cast a conjuration (summoning) spell, increase the duration by a number of rounds equal to 1/2 your wizard level (minimum 1). At 20th level, you can change the duration of all summon monster spells to permanent. You can have no more than one summon monster spell made permanent in this way at one time. If you designate another summon monster spell as permanent, the previous spell immediately ends.</p>",
      "unidentified": ""
    },
    "tags": [
      "Wizard",
      "Wizard School Power"
    ],
    "actions": [],
    "uses": {
      "per": null,
      "value": 0,
      "maxFormula": "",
      "autoDeductChargesCost": "1"
    },
    "attackNotes": [],
    "effectNotes": [],
    "changes": [],
    "changeFlags": {
      "loseDexToAC": false,
      "noEncumbrance": false,
      "mediumArmorFullSpeed": false,
      "heavyArmorFullSpeed": false
    },
    "contextNotes": [],
    "links": {
      "children": [],
      "charges": []
    },
    "tag": "",
    "useCustomTag": false,
    "armorProf": {
      "value": [],
      "custom": ""
    },
    "weaponProf": {
      "value": [],
      "custom": ""
    },
    "languages": {
      "value": [],
      "custom": ""
    },
    "flags": {
      "boolean": {},
      "dictionary": {}
    },
    "scriptCalls": [],
    "subType": "classFeat",
    "associations": {
      "classes": [
        "Wizard"
      ]
    },
    "showInQuickbar": false,
    "abilityType": "none",
    "crOffset": "",
    "disabled": false,
    "classSkills": {}
  },
  "ownership": {
    "default": 0
  },
  "_stats": {
    "systemId": "pf1",
    "systemVersion": "9.1",
    "coreVersion": "10.291",
    "createdTime": 1665428275138,
    "modifiedTime": 1689797859856,
    "lastModifiedBy": "ppv91YxratjWnkJi"
  },
  "effects": [],
  "folder": null,
  "sort": 0,
  "flags": {},
  "_key": "!items!jx9l3hDKlo9fnVZv"
}