{
  "_id": "JzjrGRicfk2x2RSC",
  "name": "Sun",
  "type": "feat",
  "img": "systems/pf1/icons/items/inventory/badge-cross.jpg",
  "system": {
    "description": {
      "value": "<strong>Cleric Domain</strong><br/><br/><p><b>Deities: </b>Aldinach, Azathoth, Easivra, Horus, Iaozrael, Iomedae, Jaidi, Jerishall, Keltheald, Khepri, Lalaci, Muronna, Nurgal, Ra, Sarenrae, Shizuru, Skode</p><p><b>Granted Powers: </b>You see truth in the pure and burning light of the sun, and can call upon its blessing or wrath to work great deeds.</p><p><b>Domain Spells: </b>1st-endure elements, 2nd-heat metal, 3rd-searing light, 4th-fire shield, 5th-flame strike, 6th-fire seeds, 7th-sunbeam, 8th-sunburst, 9th-prismatic sphere.</p>",
      "unidentified": ""
    },
    "tags": [
      "Cleric",
      "Cleric Domain"
    ],
    "actions": [],
    "uses": {
      "per": null,
      "value": 0,
      "maxFormula": "",
      "autoDeductChargesCost": "1"
    },
    "attackNotes": [],
    "effectNotes": [],
    "changes": [],
    "changeFlags": {
      "loseDexToAC": false,
      "noEncumbrance": false,
      "mediumArmorFullSpeed": false,
      "heavyArmorFullSpeed": false
    },
    "contextNotes": [],
    "links": {
      "children": [],
      "charges": []
    },
    "tag": "",
    "useCustomTag": false,
    "armorProf": {
      "value": [],
      "custom": ""
    },
    "weaponProf": {
      "value": [],
      "custom": ""
    },
    "languages": {
      "value": [],
      "custom": ""
    },
    "flags": {
      "boolean": {},
      "dictionary": {}
    },
    "scriptCalls": [],
    "subType": "classFeat",
    "associations": {
      "classes": [
        "Cleric"
      ]
    },
    "showInQuickbar": false,
    "abilityType": "none",
    "crOffset": "",
    "disabled": false,
    "classSkills": {}
  },
  "ownership": {
    "default": 0
  },
  "_stats": {
    "systemId": "pf1",
    "systemVersion": "9.1",
    "coreVersion": "10.291",
    "createdTime": 1665428269989,
    "modifiedTime": 1689797840393,
    "lastModifiedBy": "ppv91YxratjWnkJi"
  },
  "effects": [],
  "folder": null,
  "sort": 0,
  "flags": {},
  "_key": "!items!JzjrGRicfk2x2RSC"
}