{
  "_id": "8MF9ppe5O8EWmhnl",
  "name": "Survival",
  "type": "feat",
  "img": "systems/pf1/icons/items/inventory/lockpick.jpg",
  "system": {
    "description": {
      "value": "<strong>Unchained Rogue Skill Unlock</strong><br/><br/><p>With sufficient ranks in Survival, you earn the following.</p><p><b>5 Ranks: </b>You reduce all nonlethal damage you take from heat, cold, starvation, or thirst by 1 point for every 5 ranks you possess in Survival.</p><p><b>10 Ranks: </b>You can track creatures that leave no tracks, including flying and swimming creatures and creatures using trackless step or pass without trace, taking a -20 penalty on your Survival check.</p><p><b>15 Ranks: </b>Once per day, you can spend 1 hour and attempt a DC 30 Survival check. Success grants you cold resistance or fire resistance 5 for 24 hours. You can share this with one ally for every 5 by which you exceeded the check.</p><p><b>20 Ranks: </b>You take only a -10 penalty when tracking creatures that leave no tracks.</p>",
      "unidentified": ""
    },
    "tags": [
      "Rogue (Unchained)",
      "Unchained Rogue Skill Unlock"
    ],
    "actions": [],
    "uses": {
      "per": null,
      "value": 0,
      "maxFormula": "",
      "autoDeductChargesCost": "1"
    },
    "attackNotes": [],
    "effectNotes": [],
    "changes": [],
    "changeFlags": {
      "loseDexToAC": false,
      "noEncumbrance": false,
      "mediumArmorFullSpeed": false,
      "heavyArmorFullSpeed": false
    },
    "contextNotes": [],
    "links": {
      "children": [],
      "charges": []
    },
    "tag": "",
    "useCustomTag": false,
    "armorProf": {
      "value": [],
      "custom": ""
    },
    "weaponProf": {
      "value": [],
      "custom": ""
    },
    "languages": {
      "value": [],
      "custom": ""
    },
    "flags": {
      "boolean": {},
      "dictionary": {}
    },
    "scriptCalls": [],
    "subType": "classFeat",
    "associations": {
      "classes": [
        "Rogue (Unchained)"
      ]
    },
    "showInQuickbar": false,
    "abilityType": "none",
    "crOffset": "",
    "disabled": false,
    "classSkills": {}
  },
  "ownership": {
    "default": 0
  },
  "_stats": {
    "systemId": "pf1",
    "systemVersion": "9.1",
    "coreVersion": "10.291",
    "createdTime": 1665428268155,
    "modifiedTime": 1689797830060,
    "lastModifiedBy": "ppv91YxratjWnkJi"
  },
  "effects": [],
  "folder": null,
  "sort": 0,
  "flags": {},
  "_key": "!items!8MF9ppe5O8EWmhnl"
}