{
  "_id": "itFHNOeTAj6fFVcC",
  "name": "Swamp Hag",
  "type": "feat",
  "img": "systems/pf1/icons/skills/affliction_21.jpg",
  "system": {
    "description": {
      "value": "<strong>Witch Hex</strong><br/><br/><p>While traveling through swamps, mires, bogs, and similar terrain, the witch leaves no trail and cannot be tracked, as the trackless step druid ability. The witch can walk through mud and even quicksand as if it were normal ground.</p>",
      "unidentified": ""
    },
    "tags": [
      "Witch",
      "Witch Hex"
    ],
    "actions": [],
    "uses": {
      "per": null,
      "value": 0,
      "maxFormula": "",
      "autoDeductChargesCost": "1"
    },
    "attackNotes": [],
    "effectNotes": [],
    "changes": [],
    "changeFlags": {
      "loseDexToAC": false,
      "noEncumbrance": false,
      "mediumArmorFullSpeed": false,
      "heavyArmorFullSpeed": false
    },
    "contextNotes": [],
    "links": {
      "children": [],
      "charges": []
    },
    "tag": "",
    "useCustomTag": false,
    "armorProf": {
      "value": [],
      "custom": ""
    },
    "weaponProf": {
      "value": [],
      "custom": ""
    },
    "languages": {
      "value": [],
      "custom": ""
    },
    "flags": {
      "boolean": {},
      "dictionary": {}
    },
    "scriptCalls": [],
    "subType": "classFeat",
    "associations": {
      "classes": [
        "Witch"
      ]
    },
    "showInQuickbar": false,
    "abilityType": "none",
    "crOffset": "",
    "disabled": false,
    "classSkills": {}
  },
  "ownership": {
    "default": 0
  },
  "_stats": {
    "systemId": "pf1",
    "systemVersion": "9.1",
    "coreVersion": "10.291",
    "createdTime": 1665428274688,
    "modifiedTime": 1689797858728,
    "lastModifiedBy": "ppv91YxratjWnkJi"
  },
  "effects": [],
  "folder": null,
  "sort": 0,
  "flags": {},
  "_key": "!items!itFHNOeTAj6fFVcC"
}