{
  "_id": "qULvWwJhqXVSUjny",
  "name": "Take 'Em Alive",
  "type": "feat",
  "img": "systems/pf1/icons/skills/violet_07.jpg",
  "system": {
    "description": {
      "value": "<strong>Vigilante Talent</strong><br/><br/><p>The vigilante doesn't take the usual -4 penalty on attack rolls made to deal nonlethal damage with weapons that normally deal lethal damage. In addition, the vigilante gains a +1 bonus on all attack and damage rolls for attacks that deal only nonlethal damage and have no secondary effects (such as poison). This bonus increases by 1 at 5th level and every 3 levels thereafter, to a maximum of +5 at 20th level.</p>",
      "unidentified": ""
    },
    "tags": [
      "Vigilante",
      "Vigilante Talent"
    ],
    "actions": [],
    "uses": {
      "per": null,
      "value": 0,
      "maxFormula": "",
      "autoDeductChargesCost": "1"
    },
    "attackNotes": [],
    "effectNotes": [],
    "changes": [],
    "changeFlags": {
      "loseDexToAC": false,
      "noEncumbrance": false,
      "mediumArmorFullSpeed": false,
      "heavyArmorFullSpeed": false
    },
    "contextNotes": [],
    "links": {
      "children": [],
      "charges": []
    },
    "tag": "",
    "useCustomTag": false,
    "armorProf": {
      "value": [],
      "custom": ""
    },
    "weaponProf": {
      "value": [],
      "custom": ""
    },
    "languages": {
      "value": [],
      "custom": ""
    },
    "flags": {
      "boolean": {},
      "dictionary": {}
    },
    "scriptCalls": [],
    "subType": "classFeat",
    "associations": {
      "classes": [
        "Vigilante"
      ]
    },
    "showInQuickbar": false,
    "abilityType": "none",
    "crOffset": "",
    "disabled": false,
    "classSkills": {}
  },
  "ownership": {
    "default": 0
  },
  "_stats": {
    "systemId": "pf1",
    "systemVersion": "9.1",
    "coreVersion": "10.291",
    "createdTime": 1665428276000,
    "modifiedTime": 1689797863139,
    "lastModifiedBy": "ppv91YxratjWnkJi"
  },
  "effects": [],
  "folder": null,
  "sort": 0,
  "flags": {},
  "_key": "!items!qULvWwJhqXVSUjny"
}