{
  "_id": "Yh4m3p7kAi5tSR1n",
  "name": "Talons of the Dragon",
  "type": "feat",
  "img": "systems/pf1/icons/skills/red_09.jpg",
  "system": {
    "description": {
      "value": "<strong>Oracle Dragon Mystery Power</strong><br/><br/><p>You fight with the fearsome talons of dragonkind. You can grow claws as a free action. These claws are treated as natural weapons, allowing you to perform two claw attacks as a full attack action using your full base attack bonus. Each of these attacks deals an amount of slashing damage equal to 1d4 (1d3 if you are Small) + your Strength modifier. At 5th level, these claws are considered magic weapons for the purpose of overcoming DR. At 7th level, the damage die increases by 1 step, to deal an amount of slashing damage equal to 1d6 (1d4 if you are Small) + your Strength modifier. At 11th level, these claws deal an additional 1d6 points of damage of your chosen energy type on a successful hit. You can use your claws for a number of rounds per day equal to 3 + your Charisma modifier. These rounds do not need to be consecutive.</p>",
      "unidentified": ""
    },
    "tags": [
      "Oracle",
      "Oracle Dragon Mystery Power"
    ],
    "actions": [],
    "uses": {
      "per": null,
      "value": 0,
      "maxFormula": "",
      "autoDeductChargesCost": "1"
    },
    "attackNotes": [],
    "effectNotes": [],
    "changes": [],
    "changeFlags": {
      "loseDexToAC": false,
      "noEncumbrance": false,
      "mediumArmorFullSpeed": false,
      "heavyArmorFullSpeed": false
    },
    "contextNotes": [],
    "links": {
      "children": [],
      "charges": []
    },
    "tag": "",
    "useCustomTag": false,
    "armorProf": {
      "value": [],
      "custom": ""
    },
    "weaponProf": {
      "value": [],
      "custom": ""
    },
    "languages": {
      "value": [],
      "custom": ""
    },
    "flags": {
      "boolean": {},
      "dictionary": {}
    },
    "scriptCalls": [],
    "subType": "classFeat",
    "associations": {
      "classes": [
        "Oracle"
      ]
    },
    "showInQuickbar": false,
    "abilityType": "none",
    "crOffset": "",
    "disabled": false,
    "classSkills": {}
  },
  "ownership": {
    "default": 0
  },
  "_stats": {
    "systemId": "pf1",
    "systemVersion": "9.1",
    "coreVersion": "10.291",
    "createdTime": 1665428272846,
    "modifiedTime": 1689797851530,
    "lastModifiedBy": "ppv91YxratjWnkJi"
  },
  "effects": [],
  "folder": null,
  "sort": 0,
  "flags": {},
  "_key": "!items!Yh4m3p7kAi5tSR1n"
}