{
  "_id": "Tqi8ddzMdDR5N1lN",
  "name": "Tanglefoot Bomb (Su)",
  "type": "feat",
  "img": "systems/pf1/icons/items/potions/grand-yellow.jpg",
  "system": {
    "description": {
      "value": "<strong>Alchemist Discovery - Bomb</strong><br/><br/><p>A creature that takes a direct hit from a tanglefoot bomb must save against the bomb's DC or be entangled and glued to the floor as if it had failed its save against a tanglefoot bag. Creatures in the splash area that fail their saves are entangled but not glued to the floor; those who make this save are not entangled at all.</p>",
      "unidentified": ""
    },
    "tags": [
      "Alchemist",
      "Alchemist Discovery - Bomb"
    ],
    "actions": [],
    "uses": {
      "per": null,
      "value": 0,
      "maxFormula": "",
      "autoDeductChargesCost": "1"
    },
    "attackNotes": [],
    "effectNotes": [],
    "changes": [],
    "changeFlags": {
      "loseDexToAC": false,
      "noEncumbrance": false,
      "mediumArmorFullSpeed": false,
      "heavyArmorFullSpeed": false
    },
    "contextNotes": [],
    "links": {
      "children": [],
      "charges": []
    },
    "tag": "",
    "useCustomTag": false,
    "armorProf": {
      "value": [],
      "custom": ""
    },
    "weaponProf": {
      "value": [],
      "custom": ""
    },
    "languages": {
      "value": [],
      "custom": ""
    },
    "flags": {
      "boolean": {},
      "dictionary": {}
    },
    "scriptCalls": [],
    "subType": "classFeat",
    "associations": {
      "classes": [
        "Alchemist"
      ]
    },
    "showInQuickbar": false,
    "abilityType": "none",
    "crOffset": "",
    "disabled": false,
    "classSkills": {}
  },
  "ownership": {
    "default": 0
  },
  "_stats": {
    "systemId": "pf1",
    "systemVersion": "9.1",
    "coreVersion": "10.291",
    "createdTime": 1665428272110,
    "modifiedTime": 1689797848525,
    "lastModifiedBy": "ppv91YxratjWnkJi"
  },
  "effects": [],
  "folder": null,
  "sort": 0,
  "flags": {},
  "_key": "!items!Tqi8ddzMdDR5N1lN"
}