{
  "_id": "tEsnIxnXlA46zzGd",
  "name": "Terminator (Guardian)",
  "type": "feat",
  "img": "systems/pf1/icons/skills/blue_37.jpg",
  "system": {
    "description": {
      "value": "<strong>Medium Legendary Spirit</strong><br/><br/><p>The Terminator is a stoic spirit of relentless death.</p><p><b>Gaining Favor: </b>To gain the Terminator's favor, you must engage in over 1 hour (600 combat rounds) of actual life-or-death battle in the same day, refusing to cease because of either fatigue or mercy. In addition to the battles themselves, this requires a Constitution check. If you succeed, you must swear an oath to never retreat from combat and to eschew all mercy, always killing unconscious, captured, or surrendered foes, regardless of extenuating circumstances.</p><p><b>Favored Locations: </b>Arenas, fortifications under siege, places of violence.</p><p><b>Bloodless (Lesser, Su): </b>You automatically stabilize when at negative hit points, and you are killed only if your negative hit point total exceeds double your Constitution score. In addition, you can allow the Terminator to gain 1 point of influence over you to automatically end any bleed or blood drain effect or effect with the painUM descriptor. Doing so is not an action, so you can do this even if you are unconscious.</p><p><b>Emotionless Killer (Intermediate, Su): </b>You are immune to emotionUM effects, including fear, but you can't benefit from morale bonuses or bardic performances.</p>",
      "unidentified": ""
    },
    "tags": [
      "Medium",
      "Medium Legendary Spirit"
    ],
    "actions": [],
    "uses": {
      "per": null,
      "value": 0,
      "maxFormula": "",
      "autoDeductChargesCost": "1"
    },
    "attackNotes": [],
    "effectNotes": [],
    "changes": [],
    "changeFlags": {
      "loseDexToAC": false,
      "noEncumbrance": false,
      "mediumArmorFullSpeed": false,
      "heavyArmorFullSpeed": false
    },
    "contextNotes": [],
    "links": {
      "children": [],
      "charges": []
    },
    "tag": "",
    "useCustomTag": false,
    "armorProf": {
      "value": [],
      "custom": ""
    },
    "weaponProf": {
      "value": [],
      "custom": ""
    },
    "languages": {
      "value": [],
      "custom": ""
    },
    "flags": {
      "boolean": {},
      "dictionary": {}
    },
    "scriptCalls": [],
    "subType": "classFeat",
    "associations": {
      "classes": [
        "Medium"
      ]
    },
    "showInQuickbar": false,
    "abilityType": "none",
    "crOffset": "",
    "disabled": false,
    "classSkills": {}
  },
  "ownership": {
    "default": 0
  },
  "_stats": {
    "systemId": "pf1",
    "systemVersion": "9.1",
    "coreVersion": "10.291",
    "createdTime": 1665428276589,
    "modifiedTime": 1689797864968,
    "lastModifiedBy": "ppv91YxratjWnkJi"
  },
  "effects": [],
  "folder": null,
  "sort": 0,
  "flags": {},
  "_key": "!items!tEsnIxnXlA46zzGd"
}