{
  "_id": "XrrQbxxDd3AVzlXF",
  "name": "Threatening Mien",
  "type": "feat",
  "img": "systems/pf1/icons/skills/blue_15.jpg",
  "system": {
    "description": {
      "value": "<strong>Mesmerist Trick</strong><br/><br/><p>The subject's actions appear to be lethal in the extreme. A mindwyrm mesmer can trigger this trick when the subject moves adjacent to an enemy. Enemies adjacent to the subject take a -4 penalty on attacks against targets other than the subject. This trick lasts for 1 round per mindwyrm mesmer's mesmerist level.</p>",
      "unidentified": ""
    },
    "tags": [
      "Mesmerist",
      "Mesmerist Trick"
    ],
    "actions": [],
    "uses": {
      "per": null,
      "value": 0,
      "maxFormula": "",
      "autoDeductChargesCost": "1"
    },
    "attackNotes": [],
    "effectNotes": [],
    "changes": [],
    "changeFlags": {
      "loseDexToAC": false,
      "noEncumbrance": false,
      "mediumArmorFullSpeed": false,
      "heavyArmorFullSpeed": false
    },
    "contextNotes": [],
    "links": {
      "children": [],
      "charges": []
    },
    "tag": "",
    "useCustomTag": false,
    "armorProf": {
      "value": [],
      "custom": ""
    },
    "weaponProf": {
      "value": [],
      "custom": ""
    },
    "languages": {
      "value": [],
      "custom": ""
    },
    "flags": {
      "boolean": {},
      "dictionary": {}
    },
    "scriptCalls": [],
    "subType": "classFeat",
    "associations": {
      "classes": [
        "Mesmerist"
      ]
    },
    "showInQuickbar": false,
    "abilityType": "none",
    "crOffset": "",
    "disabled": false,
    "classSkills": {}
  },
  "ownership": {
    "default": 0
  },
  "_stats": {
    "systemId": "pf1",
    "systemVersion": "9.1",
    "coreVersion": "10.291",
    "createdTime": 1665428272776,
    "modifiedTime": 1689797851114,
    "lastModifiedBy": "ppv91YxratjWnkJi"
  },
  "effects": [],
  "folder": null,
  "sort": 0,
  "flags": {},
  "_key": "!items!XrrQbxxDd3AVzlXF"
}