{
  "_id": "yPi6GuQ61nTtiMb6",
  "name": "Thunderburst",
  "type": "feat",
  "img": "systems/pf1/icons/skills/red_09.jpg",
  "system": {
    "description": {
      "value": "<strong>Oracle Wind Mystery Power</strong><br/><br/><p>As a standard action, you can create a blast of air accompanied by a loud peal of thunder. The blast has a range of 100 feet and has a 20-foot radius, increasing by 5 feet for every 4 oracle levels after 7th. Creatures in the area take 1d6 points of bludgeoning damage per oracle level and are deafened for 1 hour, with a Fortitude save resulting in half damage and no deafness. You must be at least 7th level to select this revelation. You can use this ability once per day, plus one additional time per day at 11th level and every four levels thereafter.</p>",
      "unidentified": ""
    },
    "tags": [
      "Oracle",
      "Oracle Wind Mystery Power"
    ],
    "actions": [],
    "uses": {
      "per": null,
      "value": 0,
      "maxFormula": "",
      "autoDeductChargesCost": "1"
    },
    "attackNotes": [],
    "effectNotes": [],
    "changes": [],
    "changeFlags": {
      "loseDexToAC": false,
      "noEncumbrance": false,
      "mediumArmorFullSpeed": false,
      "heavyArmorFullSpeed": false
    },
    "contextNotes": [],
    "links": {
      "children": [],
      "charges": []
    },
    "tag": "",
    "useCustomTag": false,
    "armorProf": {
      "value": [],
      "custom": ""
    },
    "weaponProf": {
      "value": [],
      "custom": ""
    },
    "languages": {
      "value": [],
      "custom": ""
    },
    "flags": {
      "boolean": {},
      "dictionary": {}
    },
    "scriptCalls": [],
    "subType": "classFeat",
    "associations": {
      "classes": [
        "Oracle"
      ]
    },
    "showInQuickbar": false,
    "abilityType": "none",
    "crOffset": "",
    "disabled": false,
    "classSkills": {}
  },
  "ownership": {
    "default": 0
  },
  "_stats": {
    "systemId": "pf1",
    "systemVersion": "9.1",
    "coreVersion": "10.291",
    "createdTime": 1665428277909,
    "modifiedTime": 1689797868528,
    "lastModifiedBy": "ppv91YxratjWnkJi"
  },
  "effects": [],
  "folder": null,
  "sort": 0,
  "flags": {},
  "_key": "!items!yPi6GuQ61nTtiMb6"
}