{
  "_id": "br8Z6Mh3dSnzwg0t",
  "name": "Torag's Boon",
  "type": "feat",
  "img": "systems/pf1/icons/skills/red_09.jpg",
  "system": {
    "description": {
      "value": "<strong>Oracle Godclaw Mystery Power</strong><br/><br/><p>As a standard action, you can call upon Torag's protection to form a shield around you that blocks incoming attacks for a number of minutes equal to 1/2 your oracle level (minimum 1). The shield grants a +4 deflection bonus to your Armor Class. At 7th level, and again at 11th level and 15th level, this bonus increases by +1. At 19th level, the shield also grants you DR 2/chaos. The shield's duration does not need to be consecutive, but it must be spent in 1-minute increments.</p>",
      "unidentified": ""
    },
    "tags": [
      "Oracle",
      "Oracle Godclaw Mystery Power"
    ],
    "actions": [],
    "uses": {
      "per": null,
      "value": 0,
      "maxFormula": "",
      "autoDeductChargesCost": "1"
    },
    "attackNotes": [],
    "effectNotes": [],
    "changes": [],
    "changeFlags": {
      "loseDexToAC": false,
      "noEncumbrance": false,
      "mediumArmorFullSpeed": false,
      "heavyArmorFullSpeed": false
    },
    "contextNotes": [],
    "links": {
      "children": [],
      "charges": []
    },
    "tag": "",
    "useCustomTag": false,
    "armorProf": {
      "value": [],
      "custom": ""
    },
    "weaponProf": {
      "value": [],
      "custom": ""
    },
    "languages": {
      "value": [],
      "custom": ""
    },
    "flags": {
      "boolean": {},
      "dictionary": {}
    },
    "scriptCalls": [],
    "subType": "classFeat",
    "associations": {
      "classes": [
        "Oracle"
      ]
    },
    "showInQuickbar": false,
    "abilityType": "none",
    "crOffset": "",
    "disabled": false,
    "classSkills": {}
  },
  "ownership": {
    "default": 0
  },
  "_stats": {
    "systemId": "pf1",
    "systemVersion": "9.1",
    "coreVersion": "10.291",
    "createdTime": 1665428273417,
    "modifiedTime": 1689797853486,
    "lastModifiedBy": "ppv91YxratjWnkJi"
  },
  "effects": [],
  "folder": null,
  "sort": 0,
  "flags": {},
  "_key": "!items!br8Z6Mh3dSnzwg0t"
}