{
  "_id": "OlObuSHLOCA1UDT6",
  "name": "Touchsight",
  "type": "feat",
  "img": "systems/pf1/icons/skills/violet_28.jpg",
  "system": {
    "description": {
      "value": "<strong>Kineticist Wild Talent - Utility</strong><br/><br/><p>Element aether; Type utility (Su); Level 3; Burn 0</p><p>You attach strands of aether to everything your telekinesis touches. Any time you damage a creature using your telekinetic blast, as long as that creature doesn't use a teleportation effect, you can see that creature at any distance as if using blindsight until the end of your next turn. Immediately after damaging a creature, you can accept 1 point of burn to strengthen the strands of aether attached to that creature, increasing the duration of the touchsight on that creature to 1 round per kineticist level.</p>",
      "unidentified": ""
    },
    "tags": [
      "Kineticist",
      "Kineticist Wild Talent - Utility"
    ],
    "actions": [],
    "uses": {
      "per": null,
      "value": 0,
      "maxFormula": "",
      "autoDeductChargesCost": "1"
    },
    "attackNotes": [],
    "effectNotes": [],
    "changes": [],
    "changeFlags": {
      "loseDexToAC": false,
      "noEncumbrance": false,
      "mediumArmorFullSpeed": false,
      "heavyArmorFullSpeed": false
    },
    "contextNotes": [],
    "links": {
      "children": [],
      "charges": []
    },
    "tag": "",
    "useCustomTag": false,
    "armorProf": {
      "value": [],
      "custom": ""
    },
    "weaponProf": {
      "value": [],
      "custom": ""
    },
    "languages": {
      "value": [],
      "custom": ""
    },
    "flags": {
      "boolean": {},
      "dictionary": {}
    },
    "scriptCalls": [],
    "subType": "classFeat",
    "associations": {
      "classes": [
        "Kineticist"
      ]
    },
    "showInQuickbar": false,
    "abilityType": "none",
    "crOffset": "",
    "disabled": false,
    "classSkills": {}
  },
  "ownership": {
    "default": 0
  },
  "_stats": {
    "systemId": "pf1",
    "systemVersion": "9.1",
    "coreVersion": "10.291",
    "createdTime": 1665428271008,
    "modifiedTime": 1689797844539,
    "lastModifiedBy": "ppv91YxratjWnkJi"
  },
  "effects": [],
  "folder": null,
  "sort": 0,
  "flags": {},
  "_key": "!items!OlObuSHLOCA1UDT6"
}