{
  "_id": "Hovx6nmerRGG6rqe",
  "name": "Touch of the Void",
  "type": "feat",
  "img": "systems/pf1/icons/skills/red_09.jpg",
  "system": {
    "description": {
      "value": "<strong>Oracle Dark Tapestry Mystery Power</strong><br/><br/><p>As a standard action, you can perform a melee touch attack that deals 1d6 points of cold damage + 1 point for every two oracle levels you possess. At 7th level, the touched creature must also make a Fortitude saving throw or be fatigued for a number of rounds equal to 1/2 your oracle level. This has no effect on a creature that is already fatigued. You can use this ability a number of times per day equal to 3 + your Charisma modifier.</p>",
      "unidentified": ""
    },
    "tags": [
      "Oracle",
      "Oracle Dark Tapestry Mystery Power"
    ],
    "actions": [],
    "uses": {
      "per": null,
      "value": 0,
      "maxFormula": "",
      "autoDeductChargesCost": "1"
    },
    "attackNotes": [],
    "effectNotes": [],
    "changes": [],
    "changeFlags": {
      "loseDexToAC": false,
      "noEncumbrance": false,
      "mediumArmorFullSpeed": false,
      "heavyArmorFullSpeed": false
    },
    "contextNotes": [],
    "links": {
      "children": [],
      "charges": []
    },
    "tag": "",
    "useCustomTag": false,
    "armorProf": {
      "value": [],
      "custom": ""
    },
    "weaponProf": {
      "value": [],
      "custom": ""
    },
    "languages": {
      "value": [],
      "custom": ""
    },
    "flags": {
      "boolean": {},
      "dictionary": {}
    },
    "scriptCalls": [],
    "subType": "classFeat",
    "associations": {
      "classes": [
        "Oracle"
      ]
    },
    "showInQuickbar": false,
    "abilityType": "none",
    "crOffset": "",
    "disabled": false,
    "classSkills": {}
  },
  "ownership": {
    "default": 0
  },
  "_stats": {
    "systemId": "pf1",
    "systemVersion": "9.1",
    "coreVersion": "10.291",
    "createdTime": 1665428269781,
    "modifiedTime": 1689797839004,
    "lastModifiedBy": "ppv91YxratjWnkJi"
  },
  "effects": [],
  "folder": null,
  "sort": 0,
  "flags": {},
  "_key": "!items!Hovx6nmerRGG6rqe"
}