{
  "_id": "9DUlTn1H6I02jrsz",
  "name": "Trade Subdomain",
  "type": "feat",
  "img": "systems/pf1/icons/items/inventory/badge-cross.jpg",
  "system": {
    "description": {
      "value": "<strong>Cleric Subdomain</strong><br/><br/><p><b>Associated Domain(s): </b>Travel</p><p><b>Associated Deities </b>: Abadar, Apsu, Barbatos, Cagnazzo, Hanspur, Hathor, Kofusachi, Kurgess, Matravash, Ng, Ptah, Rowdrosh, Wadjet</p><p><b>Replacement Power: </b>The following granted power replaces the agile feet power of the Travel domain.</p><p><b>Replacement Domain Spells: </b>1st-floating disk, 5th-overland flight, 9th-gate.</p>",
      "unidentified": ""
    },
    "tags": [
      "Cleric",
      "Cleric Subdomain"
    ],
    "actions": [],
    "uses": {
      "per": null,
      "value": 0,
      "maxFormula": "",
      "autoDeductChargesCost": "1"
    },
    "attackNotes": [],
    "effectNotes": [],
    "changes": [],
    "changeFlags": {
      "loseDexToAC": false,
      "noEncumbrance": false,
      "mediumArmorFullSpeed": false,
      "heavyArmorFullSpeed": false
    },
    "contextNotes": [],
    "links": {
      "children": [],
      "charges": []
    },
    "tag": "",
    "useCustomTag": false,
    "armorProf": {
      "value": [],
      "custom": ""
    },
    "weaponProf": {
      "value": [],
      "custom": ""
    },
    "languages": {
      "value": [],
      "custom": ""
    },
    "flags": {
      "boolean": {},
      "dictionary": {}
    },
    "scriptCalls": [],
    "subType": "classFeat",
    "associations": {
      "classes": [
        "Cleric"
      ]
    },
    "showInQuickbar": false,
    "abilityType": "none",
    "crOffset": "",
    "disabled": false,
    "classSkills": {}
  },
  "ownership": {
    "default": 0
  },
  "_stats": {
    "systemId": "pf1",
    "systemVersion": "9.1",
    "coreVersion": "10.291",
    "createdTime": 1665428268242,
    "modifiedTime": 1689797830721,
    "lastModifiedBy": "ppv91YxratjWnkJi"
  },
  "effects": [],
  "folder": null,
  "sort": 0,
  "flags": {},
  "_key": "!items!9DUlTn1H6I02jrsz"
}