{
  "_id": "NVO1X3VH8GOENmNk",
  "name": "Trained Throw",
  "type": "feat",
  "img": "systems/pf1/icons/skills/yellow_37.jpg",
  "system": {
    "description": {
      "value": "<strong>Advanced Weapon Training</strong><br/><br/><p>When the fighter makes a ranged attack with a thrown weapon and applies his Dexterity modifier on attack rolls and his Strength modifier on damage rolls, he doubles his weapon training bonus on damage rolls. Unless he has the Throw Anything feat, the fighter can choose only the thrown fighter weapon group with this option. If he has Throw Anything, the fighter can choose any fighter weapon group with this option and apply this option's benefits to any weapon from that group that he throws.</p>",
      "unidentified": ""
    },
    "tags": [
      "Fighter",
      "Advanced Weapon Training"
    ],
    "actions": [],
    "uses": {
      "per": null,
      "value": 0,
      "maxFormula": "",
      "autoDeductChargesCost": "1"
    },
    "attackNotes": [],
    "effectNotes": [],
    "changes": [],
    "changeFlags": {
      "loseDexToAC": false,
      "noEncumbrance": false,
      "mediumArmorFullSpeed": false,
      "heavyArmorFullSpeed": false
    },
    "contextNotes": [],
    "links": {
      "children": [],
      "charges": []
    },
    "tag": "",
    "useCustomTag": false,
    "armorProf": {
      "value": [],
      "custom": ""
    },
    "weaponProf": {
      "value": [],
      "custom": ""
    },
    "languages": {
      "value": [],
      "custom": ""
    },
    "flags": {
      "boolean": {},
      "dictionary": {}
    },
    "scriptCalls": [],
    "subType": "classFeat",
    "associations": {
      "classes": [
        "Fighter"
      ]
    },
    "showInQuickbar": false,
    "abilityType": "none",
    "crOffset": "",
    "disabled": false,
    "classSkills": {}
  },
  "ownership": {
    "default": 0
  },
  "_stats": {
    "systemId": "pf1",
    "systemVersion": "9.1",
    "coreVersion": "10.291",
    "createdTime": 1665428270907,
    "modifiedTime": 1689797843534,
    "lastModifiedBy": "ppv91YxratjWnkJi"
  },
  "effects": [],
  "folder": null,
  "sort": 0,
  "flags": {},
  "_key": "!items!NVO1X3VH8GOENmNk"
}