{
  "_id": "wGjK9bBLU2nwb6wt",
  "name": "Trickery",
  "type": "feat",
  "img": "systems/pf1/icons/items/inventory/badge-cross.jpg",
  "system": {
    "description": {
      "value": "<strong>Cleric Domain</strong><br/><br/><p><b>Deities: </b>Achaekek, Aesdurath, Aksha, Alichino, Andirifkhu, Areshkagal, Aroggus, Asmodeus, Bastet, Besmara, Braismois, Bundha, Caera, Calistria, Camazotz, Chaldira, Chimon, Chupurvagasti, Corosbel, Dachzerul, Dahak, Dhalavei, Dispater, Dradjit, Droskar, Erecura, Folca, Gavidya, Grandmother Spider, Hudima, Isph-Aun-Vuln, Jezelda, Jyotah, Khepri, Kro'akoth, Kunkarna, Laivatiniel, Lamashtu, Lao Shu Po, Lorthact, Mahathallah, Menxyr, Mestama, Muronna, Mursha, Nalmungder, Nivi Rhombodazzle, Norgorber, Nyarlathotep (Black Pharaoh), Otikaya, Pazuzu, Picoperi, Prihasta, Ravana, Ruzel, Sifkesh, Sivanah, Skrymir, Ssila'meshnik, Sun Wukong, Surpa, Thamir Gixx, The Lantern King, Titivilus, Ulon, Verex, Vibhishah, Xhamen-Dor, Yaezhing, Ydajisk, Zabha, Zepar, Zogmugot, Zursvaater</p><p><b>Granted Powers: </b>You are a master of illusions and deceptions. Bluff, Disguise, and Stealth are class skills.</p><p><b>Domain Spells: </b>1st-disguise self, 2nd-invisibility, 3rd-nondetection, 4th-confusion, 5th-false vision, 6th-mislead, 7th-screen, 8th-mass invisibility, 9th-time stop.</p>",
      "unidentified": ""
    },
    "tags": [
      "Cleric",
      "Cleric Domain"
    ],
    "actions": [],
    "uses": {
      "per": null,
      "value": 0,
      "maxFormula": "",
      "autoDeductChargesCost": "1"
    },
    "attackNotes": [],
    "effectNotes": [],
    "changes": [],
    "changeFlags": {
      "loseDexToAC": false,
      "noEncumbrance": false,
      "mediumArmorFullSpeed": false,
      "heavyArmorFullSpeed": false
    },
    "contextNotes": [],
    "links": {
      "children": [],
      "charges": []
    },
    "tag": "",
    "useCustomTag": false,
    "armorProf": {
      "value": [],
      "custom": ""
    },
    "weaponProf": {
      "value": [],
      "custom": ""
    },
    "languages": {
      "value": [],
      "custom": ""
    },
    "flags": {
      "boolean": {},
      "dictionary": {}
    },
    "scriptCalls": [],
    "subType": "classFeat",
    "associations": {
      "classes": [
        "Cleric"
      ]
    },
    "showInQuickbar": false,
    "abilityType": "none",
    "crOffset": "",
    "disabled": false,
    "classSkills": {}
  },
  "ownership": {
    "default": 0
  },
  "_stats": {
    "systemId": "pf1",
    "systemVersion": "9.1",
    "coreVersion": "10.291",
    "createdTime": 1665428277213,
    "modifiedTime": 1689797867032,
    "lastModifiedBy": "ppv91YxratjWnkJi"
  },
  "effects": [],
  "folder": null,
  "sort": 0,
  "flags": {},
  "_key": "!items!wGjK9bBLU2nwb6wt"
}