{
  "_id": "kETWsr8EldVr0TdT",
  "name": "Trigger Primal Magic Event",
  "type": "feat",
  "img": "systems/pf1/icons/skills/red_09.jpg",
  "system": {
    "description": {
      "value": "<strong>Oracle Spellscar Mystery Power</strong><br/><br/><p>Once per day as an immediate action, you can cause a spellcaster (including yourself ) within 30 feet to trigger a primal magic event as the spell is being cast. At 13th level, you can cause any creature in the act of activating a magic item to trigger a primal magic event (see page 13). At 17th level, you can use this ability twice per day. A spellcaster can make a concentration check (DC = 15 + twice the spell's level) to focus the magic and avoid triggering a primal magic effect, but non-spellcasters activating magic items have no such option. You must be at least 9th level before selecting this revelation.</p>",
      "unidentified": ""
    },
    "tags": [
      "Oracle",
      "Oracle Spellscar Mystery Power"
    ],
    "actions": [],
    "uses": {
      "per": null,
      "value": 0,
      "maxFormula": "",
      "autoDeductChargesCost": "1"
    },
    "attackNotes": [],
    "effectNotes": [],
    "changes": [],
    "changeFlags": {
      "loseDexToAC": false,
      "noEncumbrance": false,
      "mediumArmorFullSpeed": false,
      "heavyArmorFullSpeed": false
    },
    "contextNotes": [],
    "links": {
      "children": [],
      "charges": []
    },
    "tag": "",
    "useCustomTag": false,
    "armorProf": {
      "value": [],
      "custom": ""
    },
    "weaponProf": {
      "value": [],
      "custom": ""
    },
    "languages": {
      "value": [],
      "custom": ""
    },
    "flags": {
      "boolean": {},
      "dictionary": {}
    },
    "scriptCalls": [],
    "subType": "classFeat",
    "associations": {
      "classes": [
        "Oracle"
      ]
    },
    "showInQuickbar": false,
    "abilityType": "none",
    "crOffset": "",
    "disabled": false,
    "classSkills": {}
  },
  "ownership": {
    "default": 0
  },
  "_stats": {
    "systemId": "pf1",
    "systemVersion": "9.1",
    "coreVersion": "10.291",
    "createdTime": 1665428275159,
    "modifiedTime": 1689797859982,
    "lastModifiedBy": "ppv91YxratjWnkJi"
  },
  "effects": [],
  "folder": null,
  "sort": 0,
  "flags": {},
  "_key": "!items!kETWsr8EldVr0TdT"
}