{
  "_id": "ZrGtXyfiEwgbYJzE",
  "name": "Vest",
  "type": "feat",
  "img": "systems/pf1/icons/items/inventory/book-purple.jpg",
  "system": {
    "description": {
      "value": "<strong>Occultist Sacred Implement</strong><br/><br/><p><b>Deity </b>Nethys; <b>Implement </b>vest; <b>Opposition School </b>divination</p><p><i>Parity (Su): </i>While casting a transmutation spell that provides you an enhancement bonus to a single mental or physical attribute, you can expend 1 point of mental focus as an immediate action to divide the bonus the spell provides, granting half to the original attribute affected by the spell and half to a corresponding attribute. Strength corresponds with Intelligence, Dexterity corresponds with Wisdom, and Constitution corresponds with Charisma. You can also use this ability to divide an ability score bonus granted by a magic item, but you must immediately expend 1 point of mental focus each day when you allocate mental focus to your implements to maintain the parity, or else the bonus immediately reverts to normal.</p>",
      "unidentified": ""
    },
    "tags": [
      "Occultist",
      "Occultist Sacred Implement"
    ],
    "actions": [],
    "uses": {
      "per": null,
      "value": 0,
      "maxFormula": "",
      "autoDeductChargesCost": "1"
    },
    "attackNotes": [],
    "effectNotes": [],
    "changes": [],
    "changeFlags": {
      "loseDexToAC": false,
      "noEncumbrance": false,
      "mediumArmorFullSpeed": false,
      "heavyArmorFullSpeed": false
    },
    "contextNotes": [],
    "links": {
      "children": [],
      "charges": []
    },
    "tag": "",
    "useCustomTag": false,
    "armorProf": {
      "value": [],
      "custom": ""
    },
    "weaponProf": {
      "value": [],
      "custom": ""
    },
    "languages": {
      "value": [],
      "custom": ""
    },
    "flags": {
      "boolean": {},
      "dictionary": {}
    },
    "scriptCalls": [],
    "subType": "classFeat",
    "associations": {
      "classes": [
        "Occultist"
      ]
    },
    "showInQuickbar": false,
    "abilityType": "none",
    "crOffset": "",
    "disabled": false,
    "classSkills": {}
  },
  "ownership": {
    "default": 0
  },
  "_stats": {
    "systemId": "pf1",
    "systemVersion": "9.1",
    "coreVersion": "10.291",
    "createdTime": 1665428272920,
    "modifiedTime": 1689797851978,
    "lastModifiedBy": "ppv91YxratjWnkJi"
  },
  "effects": [],
  "folder": null,
  "sort": 0,
  "flags": {},
  "_key": "!items!ZrGtXyfiEwgbYJzE"
}