{
  "_id": "d1vSCd4eODjKhSBR",
  "name": "Vestige Bloodline",
  "type": "feat",
  "img": "systems/pf1/icons/spells/fireball-red-3.jpg",
  "system": {
    "description": {
      "value": "<strong>Sorcerer Bloodline</strong><br/><br/><p>You trace your ancestry to a bygone civilization and can call upon its forgotten people or places for power.</p><p><b>Class Skill: </b>Knowledge (history).</p><p><b>Bonus Spells: </b>identify (3rd), share memory (5th), arcane sight (7th), hypercognition (9th), telepathic bond (11th), analyze dweomer (13th), vision (15th), discern location (17th), foresight (19th).</p><p><b>Bonus Feats: </b>Arcane Strike, Augment Summoning, Craft Wondrous Item, Echoing Spell, Iron Will, Leadership, Skill Focus (Knowledge [history]), Spell Focus.</p><p><b>Bloodline Arcana: </b>Whenever you cast a spell of the divination school, you see into the past. You gain an insight bonus equal to the divination spell's level on the next Appraise, Craft, or Knowledge skill check you attempt within 24 hours.</p><p><b>Bloodline Powers: </b>Your connection to your past allows you to tap into ancient secrets and power.</p>",
      "unidentified": ""
    },
    "tags": [
      "Sorcerer",
      "Sorcerer Bloodline"
    ],
    "actions": [],
    "uses": {
      "per": null,
      "value": 0,
      "maxFormula": "",
      "autoDeductChargesCost": "1"
    },
    "attackNotes": [],
    "effectNotes": [],
    "changes": [],
    "changeFlags": {
      "loseDexToAC": false,
      "noEncumbrance": false,
      "mediumArmorFullSpeed": false,
      "heavyArmorFullSpeed": false
    },
    "contextNotes": [],
    "links": {
      "children": [],
      "charges": []
    },
    "tag": "",
    "useCustomTag": false,
    "armorProf": {
      "value": [],
      "custom": ""
    },
    "weaponProf": {
      "value": [],
      "custom": ""
    },
    "languages": {
      "value": [],
      "custom": ""
    },
    "flags": {
      "boolean": {},
      "dictionary": {}
    },
    "scriptCalls": [],
    "subType": "classFeat",
    "associations": {
      "classes": [
        "Sorcerer"
      ]
    },
    "showInQuickbar": false,
    "abilityType": "none",
    "crOffset": "",
    "disabled": false,
    "classSkills": {}
  },
  "ownership": {
    "default": 0
  },
  "_stats": {
    "systemId": "pf1",
    "systemVersion": "9.1",
    "coreVersion": "10.291",
    "createdTime": 1665428273508,
    "modifiedTime": 1689797854254,
    "lastModifiedBy": "ppv91YxratjWnkJi"
  },
  "effects": [],
  "folder": null,
  "sort": 0,
  "flags": {},
  "_key": "!items!d1vSCd4eODjKhSBR"
}