{
  "_id": "bcazLUJHwvEPntJ1",
  "name": "Voice of the Grave (Bones)",
  "type": "feat",
  "img": "systems/pf1/icons/skills/red_09.jpg",
  "system": {
    "description": {
      "value": "<strong>Oracle Bones Mystery Power</strong><br/><br/><p>You can speak with dead, as per the spell, for a number of rounds per day equal to your oracle level. These rounds do not need to be consecutive. At 5th level, and every five levels thereafter, the dead creature takes a cumulative -2 penalty on its Will save to resist this effect.</p>",
      "unidentified": ""
    },
    "tags": [
      "Oracle",
      "Oracle Bones Mystery Power"
    ],
    "actions": [],
    "uses": {
      "per": null,
      "value": 0,
      "maxFormula": "",
      "autoDeductChargesCost": "1"
    },
    "attackNotes": [],
    "effectNotes": [],
    "changes": [],
    "changeFlags": {
      "loseDexToAC": false,
      "noEncumbrance": false,
      "mediumArmorFullSpeed": false,
      "heavyArmorFullSpeed": false
    },
    "contextNotes": [],
    "links": {
      "children": [],
      "charges": []
    },
    "tag": "",
    "useCustomTag": false,
    "armorProf": {
      "value": [],
      "custom": ""
    },
    "weaponProf": {
      "value": [],
      "custom": ""
    },
    "languages": {
      "value": [],
      "custom": ""
    },
    "flags": {
      "boolean": {},
      "dictionary": {}
    },
    "scriptCalls": [],
    "subType": "classFeat",
    "associations": {
      "classes": [
        "Oracle"
      ]
    },
    "showInQuickbar": false,
    "abilityType": "none",
    "crOffset": "",
    "disabled": false,
    "classSkills": {}
  },
  "ownership": {
    "default": 0
  },
  "_stats": {
    "systemId": "pf1",
    "systemVersion": "9.1",
    "coreVersion": "10.291",
    "createdTime": 1665428273397,
    "modifiedTime": 1689797853365,
    "lastModifiedBy": "ppv91YxratjWnkJi"
  },
  "effects": [],
  "folder": null,
  "sort": 0,
  "flags": {},
  "_key": "!items!bcazLUJHwvEPntJ1"
}