{
  "_id": "Uo7oqo5mQLaN7aK3",
  "name": "Void Awareness",
  "type": "feat",
  "img": "systems/pf1/icons/spells/beam-magenta-3.jpg",
  "system": {
    "description": {
      "value": "<strong>Wizard School Power</strong><br/><br/><p>Your ability to recognize the void allows your body to react to magical manifestations before you're even aware of them. You gain a +2 insight bonus on saving throws against spells and spell-like abilities. This bonus increases by +1 for every five wizard levels you possess. At 20th level, whenever you would be affected by a spell or spell-like ability that allows a saving throw, you can roll twice to save against the effect and take the better result.</p>",
      "unidentified": ""
    },
    "tags": [
      "Wizard",
      "Wizard School Power"
    ],
    "actions": [],
    "uses": {
      "per": null,
      "value": 0,
      "maxFormula": "",
      "autoDeductChargesCost": "1"
    },
    "attackNotes": [],
    "effectNotes": [],
    "changes": [],
    "changeFlags": {
      "loseDexToAC": false,
      "noEncumbrance": false,
      "mediumArmorFullSpeed": false,
      "heavyArmorFullSpeed": false
    },
    "contextNotes": [],
    "links": {
      "children": [],
      "charges": []
    },
    "tag": "",
    "useCustomTag": false,
    "armorProf": {
      "value": [],
      "custom": ""
    },
    "weaponProf": {
      "value": [],
      "custom": ""
    },
    "languages": {
      "value": [],
      "custom": ""
    },
    "flags": {
      "boolean": {},
      "dictionary": {}
    },
    "scriptCalls": [],
    "subType": "classFeat",
    "associations": {
      "classes": [
        "Wizard"
      ]
    },
    "showInQuickbar": false,
    "abilityType": "none",
    "crOffset": "",
    "disabled": false,
    "classSkills": {}
  },
  "ownership": {
    "default": 0
  },
  "_stats": {
    "systemId": "pf1",
    "systemVersion": "9.1",
    "coreVersion": "10.291",
    "createdTime": 1665428272203,
    "modifiedTime": 1689797849075,
    "lastModifiedBy": "ppv91YxratjWnkJi"
  },
  "effects": [],
  "folder": null,
  "sort": 0,
  "flags": {},
  "_key": "!items!Uo7oqo5mQLaN7aK3"
}