{
  "_id": "mcrEXeGBAyjDiIwP",
  "name": "Void",
  "type": "feat",
  "img": "systems/pf1/icons/items/inventory/badge-cross.jpg",
  "system": {
    "description": {
      "value": "<strong>Cleric Domain</strong><br/><br/><p><b>Deities: </b>Atlach-Nacha, Azathoth, Black Butterfly, Cthulhu, Groetus, Hastur, Iggeret, Inkariax, Kerkamoth, Maat, Maeha, Monad, Nhimbaloth, Rhan-Tegoth, Scal, Shawnari, Shub-Niggurath, Uaransaph, Velgaas, Yog-Sothoth</p><p><b>Granted Powers: </b>You can call upon the cold darkness between the stars to gain flight, travel to other worlds, or summon monsters from beyond to do your bidding.</p><p><b>Domain Spells: </b>1st-feather fall, 2nd-levitate, 3rd-fly, 4th-lesser planar binding, 5th-overland flight, 6th-planar binding, 7th-reverse gravity, 8th-greater planar binding, 9th-interplanetary teleport</p>",
      "unidentified": ""
    },
    "tags": [
      "Cleric",
      "Cleric Domain"
    ],
    "actions": [],
    "uses": {
      "per": null,
      "value": 0,
      "maxFormula": "",
      "autoDeductChargesCost": "1"
    },
    "attackNotes": [],
    "effectNotes": [],
    "changes": [],
    "changeFlags": {
      "loseDexToAC": false,
      "noEncumbrance": false,
      "mediumArmorFullSpeed": false,
      "heavyArmorFullSpeed": false
    },
    "contextNotes": [],
    "links": {
      "children": [],
      "charges": []
    },
    "tag": "",
    "useCustomTag": false,
    "armorProf": {
      "value": [],
      "custom": ""
    },
    "weaponProf": {
      "value": [],
      "custom": ""
    },
    "languages": {
      "value": [],
      "custom": ""
    },
    "flags": {
      "boolean": {},
      "dictionary": {}
    },
    "scriptCalls": [],
    "subType": "classFeat",
    "associations": {
      "classes": [
        "Cleric"
      ]
    },
    "showInQuickbar": false,
    "abilityType": "none",
    "crOffset": "",
    "disabled": false,
    "classSkills": {}
  },
  "ownership": {
    "default": 0
  },
  "_stats": {
    "systemId": "pf1",
    "systemVersion": "9.1",
    "coreVersion": "10.291",
    "createdTime": 1665428275352,
    "modifiedTime": 1689797860990,
    "lastModifiedBy": "ppv91YxratjWnkJi"
  },
  "effects": [],
  "folder": null,
  "sort": 0,
  "flags": {},
  "_key": "!items!mcrEXeGBAyjDiIwP"
}