{
  "_id": "2iAAHayEKATtEYuz",
  "name": "Vortex of Flesh",
  "type": "feat",
  "img": "systems/pf1/icons/spells/fireball-red-3.jpg",
  "system": {
    "description": {
      "value": "<strong>Sorcerer Bloodline Power</strong><br/><br/><p>At 9th level, you can momentarily change into an amalgam of erratic geometric shapes once per day, lashing out at every creature in a 20-foot-radius spread around you as a standard action. This attack deals 1d6 points of bludgeoning, piercing, and slashing damage per sorcerer level. If you benefit from a spell or effect that allows you to overcome damage resistance with your natural attacks (such as magic fang), this attack ignores DR of the same type. Those caught in the area can attempt a Reflex saving throw (DC = 10 + half your sorcerer level + your Charisma modifier) for half damage. At 17th level, you can use this ability twice per day. At 20th level, you can use this ability three times per day.</p>",
      "unidentified": ""
    },
    "tags": [
      "Sorcerer",
      "Sorcerer Bloodline Power"
    ],
    "actions": [],
    "uses": {
      "per": null,
      "value": 0,
      "maxFormula": "",
      "autoDeductChargesCost": "1"
    },
    "attackNotes": [],
    "effectNotes": [],
    "changes": [],
    "changeFlags": {
      "loseDexToAC": false,
      "noEncumbrance": false,
      "mediumArmorFullSpeed": false,
      "heavyArmorFullSpeed": false
    },
    "contextNotes": [],
    "links": {
      "children": [],
      "charges": []
    },
    "tag": "",
    "useCustomTag": false,
    "armorProf": {
      "value": [],
      "custom": ""
    },
    "weaponProf": {
      "value": [],
      "custom": ""
    },
    "languages": {
      "value": [],
      "custom": ""
    },
    "flags": {
      "boolean": {},
      "dictionary": {}
    },
    "scriptCalls": [],
    "subType": "classFeat",
    "associations": {
      "classes": [
        "Sorcerer"
      ]
    },
    "showInQuickbar": false,
    "abilityType": "none",
    "crOffset": "",
    "disabled": false,
    "classSkills": {}
  },
  "ownership": {
    "default": 0
  },
  "_stats": {
    "systemId": "pf1",
    "systemVersion": "9.1",
    "coreVersion": "10.291",
    "createdTime": 1665428267145,
    "modifiedTime": 1689797824545,
    "lastModifiedBy": "ppv91YxratjWnkJi"
  },
  "effects": [],
  "folder": null,
  "sort": 0,
  "flags": {},
  "_key": "!items!2iAAHayEKATtEYuz"
}