{
  "_id": "jl9P6eLXVrn7jX0k",
  "name": "Waves",
  "type": "feat",
  "img": "systems/pf1/icons/skills/red_09.jpg",
  "system": {
    "description": {
      "value": "<strong>Oracle Mystery</strong><br/><br/><p><b>Deities: </b>Gozreh, Pharasma.</p><p><b>Class Skills: </b>An oracle with the waves mystery adds Acrobatics, Escape Artist, Knowledge (nature), and Swim to her list of class skills.</p><p><b>Bonus Spells: </b>touch of the sea (2nd), slipstream (4th), water breathing (6th), wall of ice (8th), geyser (10th), fluid form (12th), vortex (14th), seamantle (16th), tsunami (18th).</p><p><b>Revelations: </b>An oracle with the Waves mystery can choose from any of the following revelations.</p>",
      "unidentified": ""
    },
    "tags": [
      "Oracle",
      "Oracle Mystery"
    ],
    "actions": [],
    "uses": {
      "per": null,
      "value": 0,
      "maxFormula": "",
      "autoDeductChargesCost": "1"
    },
    "attackNotes": [],
    "effectNotes": [],
    "changes": [],
    "changeFlags": {
      "loseDexToAC": false,
      "noEncumbrance": false,
      "mediumArmorFullSpeed": false,
      "heavyArmorFullSpeed": false
    },
    "contextNotes": [],
    "links": {
      "children": [],
      "charges": []
    },
    "tag": "",
    "useCustomTag": false,
    "armorProf": {
      "value": [],
      "custom": ""
    },
    "weaponProf": {
      "value": [],
      "custom": ""
    },
    "languages": {
      "value": [],
      "custom": ""
    },
    "flags": {
      "boolean": {},
      "dictionary": {}
    },
    "scriptCalls": [],
    "subType": "classFeat",
    "associations": {
      "classes": [
        "Oracle"
      ]
    },
    "showInQuickbar": false,
    "abilityType": "none",
    "crOffset": "",
    "disabled": false,
    "classSkills": {}
  },
  "ownership": {
    "default": 0
  },
  "_stats": {
    "systemId": "pf1",
    "systemVersion": "9.1",
    "coreVersion": "10.291",
    "createdTime": 1665428275119,
    "modifiedTime": 1689797859696,
    "lastModifiedBy": "ppv91YxratjWnkJi"
  },
  "effects": [],
  "folder": null,
  "sort": 0,
  "flags": {},
  "_key": "!items!jl9P6eLXVrn7jX0k"
}