{
  "_id": "7UxZItoZjBYhXkxf",
  "name": "Weapon Specialist",
  "type": "feat",
  "img": "systems/pf1/icons/skills/yellow_37.jpg",
  "system": {
    "description": {
      "value": "<strong>Advanced Weapon Training</strong><br/><br/><p>The fighter selects a number of combat feats that he knows equal to his weapon training bonus with the associated weapon group. The selected feats must be ones that require the fighter to choose a type of weapon (such as Weapon Focus and Weapon Specialization), and the fighter must have chosen weapons that belong to the associated fighter weapon group. The fighter is treated as having the selected feats for all the weapons in the associated weapon group that are legal choices for those feats. The fighter is also considered to have those feats with these weapons for the purpose of meeting prerequisites.</p>",
      "unidentified": ""
    },
    "tags": [
      "Fighter",
      "Advanced Weapon Training"
    ],
    "actions": [],
    "uses": {
      "per": null,
      "value": 0,
      "maxFormula": "",
      "autoDeductChargesCost": "1"
    },
    "attackNotes": [],
    "effectNotes": [],
    "changes": [],
    "changeFlags": {
      "loseDexToAC": false,
      "noEncumbrance": false,
      "mediumArmorFullSpeed": false,
      "heavyArmorFullSpeed": false
    },
    "contextNotes": [],
    "links": {
      "children": [],
      "charges": []
    },
    "tag": "",
    "useCustomTag": false,
    "armorProf": {
      "value": [],
      "custom": ""
    },
    "weaponProf": {
      "value": [],
      "custom": ""
    },
    "languages": {
      "value": [],
      "custom": ""
    },
    "flags": {
      "boolean": {},
      "dictionary": {}
    },
    "scriptCalls": [],
    "subType": "classFeat",
    "associations": {
      "classes": [
        "Fighter"
      ]
    },
    "showInQuickbar": false,
    "abilityType": "none",
    "crOffset": "",
    "disabled": false,
    "classSkills": {}
  },
  "ownership": {
    "default": 0
  },
  "_stats": {
    "systemId": "pf1",
    "systemVersion": "9.1",
    "coreVersion": "10.291",
    "createdTime": 1665428268092,
    "modifiedTime": 1689797829707,
    "lastModifiedBy": "ppv91YxratjWnkJi"
  },
  "effects": [],
  "folder": null,
  "sort": 0,
  "flags": {},
  "_key": "!items!7UxZItoZjBYhXkxf"
}