{
  "_id": "qHLgbYUXXnthnP9t",
  "name": "Weather",
  "type": "feat",
  "img": "systems/pf1/icons/skills/yellow_21.jpg",
  "system": {
    "description": {
      "value": "<strong>Warpriest Blessing</strong><br/><br/><p><b>Deities: </b>Gozreh, Rovagug.</p><p><b>Storm Strike (minor): </b>At 1st level, you can touch one weapon and grant it a blessing of stormy weather. For 1 minute, this weapon glows with blue or yellow sparks and deals an additional 1d4 points of electricity damage with each hit. This additional damage doesn't stack with the additional damage from the shock or shocking burst weapon special abilities.</p><p><b>Wind Barrier (major): </b>At 10th level, you can create a barrier of fast winds around yourself for 1 minute. This acts as a wind wall on all sides of your square, protects you with feather fall, and doesn't interfere with your ranged attacks.</p>",
      "unidentified": ""
    },
    "tags": [
      "Warpriest",
      "Warpriest Blessing"
    ],
    "actions": [],
    "uses": {
      "per": null,
      "value": 0,
      "maxFormula": "",
      "autoDeductChargesCost": "1"
    },
    "attackNotes": [],
    "effectNotes": [],
    "changes": [],
    "changeFlags": {
      "loseDexToAC": false,
      "noEncumbrance": false,
      "mediumArmorFullSpeed": false,
      "heavyArmorFullSpeed": false
    },
    "contextNotes": [],
    "links": {
      "children": [],
      "charges": []
    },
    "tag": "",
    "useCustomTag": false,
    "armorProf": {
      "value": [],
      "custom": ""
    },
    "weaponProf": {
      "value": [],
      "custom": ""
    },
    "languages": {
      "value": [],
      "custom": ""
    },
    "flags": {
      "boolean": {},
      "dictionary": {}
    },
    "scriptCalls": [],
    "subType": "classFeat",
    "associations": {
      "classes": [
        "Warpriest"
      ]
    },
    "showInQuickbar": false,
    "abilityType": "none",
    "crOffset": "",
    "disabled": false,
    "classSkills": {}
  },
  "ownership": {
    "default": 0
  },
  "_stats": {
    "systemId": "pf1",
    "systemVersion": "9.1",
    "coreVersion": "10.291",
    "createdTime": 1665428275984,
    "modifiedTime": 1689797863041,
    "lastModifiedBy": "ppv91YxratjWnkJi"
  },
  "effects": [],
  "folder": null,
  "sort": 0,
  "flags": {},
  "_key": "!items!qHLgbYUXXnthnP9t"
}