{
  "_id": "bd3qmzWgZltyX3Us",
  "name": "Wind Ward",
  "type": "feat",
  "img": "systems/pf1/icons/skills/green_13.jpg",
  "system": {
    "description": {
      "value": "<strong>Shaman Spirit Hex</strong><br/><br/><p>The shaman can touch a willing creature (including herself ) and grants a ward of wind. This ward lasts for a number of rounds equal to the shaman's level. When a warded creature is attacked with an arrow, ray, or other ranged attack that requires an attack roll, that attack suffers a 20% miss chance. At 8th level, the ward lasts for 1 minute for every level the shaman possesses. At 16th level, the miss chance increases to 50%. Once affected, the creature cannot be the target of this hex again for 24 hours.</p>",
      "unidentified": ""
    },
    "tags": [
      "Shaman",
      "Shaman Spirit Hex"
    ],
    "actions": [],
    "uses": {
      "per": null,
      "value": 0,
      "maxFormula": "",
      "autoDeductChargesCost": "1"
    },
    "attackNotes": [],
    "effectNotes": [],
    "changes": [],
    "changeFlags": {
      "loseDexToAC": false,
      "noEncumbrance": false,
      "mediumArmorFullSpeed": false,
      "heavyArmorFullSpeed": false
    },
    "contextNotes": [],
    "links": {
      "children": [],
      "charges": []
    },
    "tag": "",
    "useCustomTag": false,
    "armorProf": {
      "value": [],
      "custom": ""
    },
    "weaponProf": {
      "value": [],
      "custom": ""
    },
    "languages": {
      "value": [],
      "custom": ""
    },
    "flags": {
      "boolean": {},
      "dictionary": {}
    },
    "scriptCalls": [],
    "subType": "classFeat",
    "associations": {
      "classes": [
        "Shaman"
      ]
    },
    "showInQuickbar": false,
    "abilityType": "none",
    "crOffset": "",
    "disabled": false,
    "classSkills": {}
  },
  "ownership": {
    "default": 0
  },
  "_stats": {
    "systemId": "pf1",
    "systemVersion": "9.1",
    "coreVersion": "10.291",
    "createdTime": 1665428273399,
    "modifiedTime": 1689797853377,
    "lastModifiedBy": "ppv91YxratjWnkJi"
  },
  "effects": [],
  "folder": null,
  "sort": 0,
  "flags": {},
  "_key": "!items!bd3qmzWgZltyX3Us"
}