{
  "_id": "r9RezoFRlFxuI3Ut",
  "name": "Windsight, Greater",
  "type": "feat",
  "img": "systems/pf1/icons/skills/violet_28.jpg",
  "system": {
    "description": {
      "value": "<strong>Kineticist Wild Talent - Utility</strong><br/><br/><p>Element air; Type utility (Su); Level 5; Burn 0</p><p>Prerequisite windsight</p><p>You can send a slight breeze in a path up to 480 feet long and then back to where you wait. This allows you to use your windsight wild talent to catch a quick glimpse and hear a tiny snippet from any location that could be reached by the wind traveling that distance (the wind's path can't pass through openings smaller than 1 inch in diameter). The breeze travels 100 feet per round, so what you see and hear is delayed by 1 round for every 50 feet of the path. If you spend at least 10 minutes to set up a steady flow of wind, you can concentrate for up to 1 minute per level to gain continuous visual and auditory information for as long as you concentrate, delayed by 1 round for every 100 feet the wind travels (since the steady flow of wind has to travel only one way). While there is no invisible sensor to detect with this ability, creatures along the path of the breeze may notice a light wind, though it may not seem out of the ordinary.</p>",
      "unidentified": ""
    },
    "tags": [
      "Kineticist",
      "Kineticist Wild Talent - Utility"
    ],
    "actions": [],
    "uses": {
      "per": null,
      "value": 0,
      "maxFormula": "",
      "autoDeductChargesCost": "1"
    },
    "attackNotes": [],
    "effectNotes": [],
    "changes": [],
    "changeFlags": {
      "loseDexToAC": false,
      "noEncumbrance": false,
      "mediumArmorFullSpeed": false,
      "heavyArmorFullSpeed": false
    },
    "contextNotes": [],
    "links": {
      "children": [],
      "charges": []
    },
    "tag": "",
    "useCustomTag": false,
    "armorProf": {
      "value": [],
      "custom": ""
    },
    "weaponProf": {
      "value": [],
      "custom": ""
    },
    "languages": {
      "value": [],
      "custom": ""
    },
    "flags": {
      "boolean": {},
      "dictionary": {}
    },
    "scriptCalls": [],
    "subType": "classFeat",
    "associations": {
      "classes": [
        "Kineticist"
      ]
    },
    "showInQuickbar": false,
    "abilityType": "none",
    "crOffset": "",
    "disabled": false,
    "classSkills": {}
  },
  "ownership": {
    "default": 0
  },
  "_stats": {
    "systemId": "pf1",
    "systemVersion": "9.1",
    "coreVersion": "10.291",
    "createdTime": 1665428276421,
    "modifiedTime": 1689797863914,
    "lastModifiedBy": "ppv91YxratjWnkJi"
  },
  "effects": [],
  "folder": null,
  "sort": 0,
  "flags": {},
  "_key": "!items!r9RezoFRlFxuI3Ut"
}