{
  "_id": "cjZ7JMThmajvGC06",
  "name": "Wise King's Saga (Oratory, Sing)",
  "type": "feat",
  "img": "systems/pf1/icons/items/inventory/lute.jpg",
  "system": {
    "description": {
      "value": "<strong>Bard - Masterpieces</strong><br/><br/><p>Your saga magically weaves the counsel of sagacious ancestors into the telling.</p><p>Prerequisite: Perform (oratory) or Perform (sing) 15 ranks.</p><p>Cost: Feat or 5th-level bard spell known.</p><p>Effect: You begin an epic tale of kings and queens in ages past, recounting their lineages and sage deeds. The epic has no fixed form and has substantial room for improvisation; many bards include tales of their own wise ancestors, or the ancestors of noteworthy members of their audience. When you activate the performance, one target creature other than you within close range (25 feet + 5 feet/2 levels) gains the benefit of a commune spell. You must continue the performance for the target to receive answers, as your retelling is magically guided to include relevant responses. If you cease the performance before the target has asked all of its questions, or if you run out of bardic performance rounds, any remaining questions are lost.</p><p>Use: 10 bardic performance rounds, plus 1 bardic performance round per question.</p><p>Action: 10 minutes.</p>",
      "unidentified": ""
    },
    "tags": [
      "Bard",
      "Bard - Masterpieces"
    ],
    "actions": [],
    "uses": {
      "per": null,
      "value": 0,
      "maxFormula": "",
      "autoDeductChargesCost": "1"
    },
    "attackNotes": [],
    "effectNotes": [],
    "changes": [],
    "changeFlags": {
      "loseDexToAC": false,
      "noEncumbrance": false,
      "mediumArmorFullSpeed": false,
      "heavyArmorFullSpeed": false
    },
    "contextNotes": [],
    "links": {
      "children": [],
      "charges": []
    },
    "tag": "",
    "useCustomTag": false,
    "armorProf": {
      "value": [],
      "custom": ""
    },
    "weaponProf": {
      "value": [],
      "custom": ""
    },
    "languages": {
      "value": [],
      "custom": ""
    },
    "flags": {
      "boolean": {},
      "dictionary": {}
    },
    "scriptCalls": [],
    "subType": "classFeat",
    "associations": {
      "classes": [
        "Bard"
      ]
    },
    "showInQuickbar": false,
    "abilityType": "none",
    "crOffset": "",
    "disabled": false,
    "classSkills": {}
  },
  "ownership": {
    "default": 0
  },
  "_stats": {
    "systemId": "pf1",
    "systemVersion": "9.1",
    "coreVersion": "10.291",
    "createdTime": 1665428273484,
    "modifiedTime": 1689797854052,
    "lastModifiedBy": "ppv91YxratjWnkJi"
  },
  "effects": [],
  "folder": null,
  "sort": 0,
  "flags": {},
  "_key": "!items!cjZ7JMThmajvGC06"
}