{
  "_id": "lBnH0epR1woffaDC",
  "name": "Without a Trace",
  "type": "feat",
  "img": "systems/pf1/icons/items/inventory/lockpick.jpg",
  "system": {
    "description": {
      "value": "<strong>Rogue Talent</strong><br/><br/><p>When the rogue successfully uses evasion or improved evasion to avoid taking damage, she can attempt to hide as an immediate action. The rogue attempts a Stealth check with a -20 penalty, but gains a +1 bonus on her check for every die of damage the avoided attack would have dealt. The rogue can attempt this check even while being observed, as long as she has cover or concealment or an ability that allows her to use the Stealth skill while being observed without cover or concealment.</p>",
      "unidentified": ""
    },
    "tags": [
      "Rogue",
      "Rogue Talent"
    ],
    "actions": [],
    "uses": {
      "per": null,
      "value": 0,
      "maxFormula": "",
      "autoDeductChargesCost": "1"
    },
    "attackNotes": [],
    "effectNotes": [],
    "changes": [],
    "changeFlags": {
      "loseDexToAC": false,
      "noEncumbrance": false,
      "mediumArmorFullSpeed": false,
      "heavyArmorFullSpeed": false
    },
    "contextNotes": [],
    "links": {
      "children": [],
      "charges": []
    },
    "tag": "",
    "useCustomTag": false,
    "armorProf": {
      "value": [],
      "custom": ""
    },
    "weaponProf": {
      "value": [],
      "custom": ""
    },
    "languages": {
      "value": [],
      "custom": ""
    },
    "flags": {
      "boolean": {},
      "dictionary": {}
    },
    "scriptCalls": [],
    "subType": "classFeat",
    "associations": {
      "classes": [
        "Rogue"
      ]
    },
    "showInQuickbar": false,
    "abilityType": "none",
    "crOffset": "",
    "disabled": false,
    "classSkills": {}
  },
  "ownership": {
    "default": 0
  },
  "_stats": {
    "systemId": "pf1",
    "systemVersion": "9.1",
    "coreVersion": "10.291",
    "createdTime": 1665428275241,
    "modifiedTime": 1689797860406,
    "lastModifiedBy": "ppv91YxratjWnkJi"
  },
  "effects": [],
  "folder": null,
  "sort": 0,
  "flags": {},
  "_key": "!items!lBnH0epR1woffaDC"
}