{
  "_id": "f4iH2cZIYYo8glJd",
  "name": "Wood Healer",
  "type": "feat",
  "img": "systems/pf1/icons/skills/violet_28.jpg",
  "system": {
    "description": {
      "value": "<strong>Kineticist Wild Talent - Utility</strong><br/><br/><p>Element wood; Type utility (Sp); Level 1; Burn 1</p><p>Prerequisite positive blast</p><p>Saving Throw none; SR yes</p><p>This functions as kinetic healer, but you must base the amount of healing on your positive blast, not wood blast. A phytokineticist with positive blast as her first blast qualifies for the kinetic chirurgeon archetype and gains this utility talent instead of kinetic healer. This wild talent counts as kinetic healer for prerequisites for selecting other kineticist wild talents.</p>",
      "unidentified": ""
    },
    "tags": [
      "Kineticist",
      "Kineticist Wild Talent - Utility"
    ],
    "actions": [],
    "uses": {
      "per": null,
      "value": 0,
      "maxFormula": "",
      "autoDeductChargesCost": "1"
    },
    "attackNotes": [],
    "effectNotes": [],
    "changes": [],
    "changeFlags": {
      "loseDexToAC": false,
      "noEncumbrance": false,
      "mediumArmorFullSpeed": false,
      "heavyArmorFullSpeed": false
    },
    "contextNotes": [],
    "links": {
      "children": [],
      "charges": []
    },
    "tag": "",
    "useCustomTag": false,
    "armorProf": {
      "value": [],
      "custom": ""
    },
    "weaponProf": {
      "value": [],
      "custom": ""
    },
    "languages": {
      "value": [],
      "custom": ""
    },
    "flags": {
      "boolean": {},
      "dictionary": {}
    },
    "scriptCalls": [],
    "subType": "classFeat",
    "associations": {
      "classes": [
        "Kineticist"
      ]
    },
    "showInQuickbar": false,
    "abilityType": "none",
    "crOffset": "",
    "disabled": false,
    "classSkills": {}
  },
  "ownership": {
    "default": 0
  },
  "_stats": {
    "systemId": "pf1",
    "systemVersion": "9.1",
    "coreVersion": "10.291",
    "createdTime": 1665428274016,
    "modifiedTime": 1689797856186,
    "lastModifiedBy": "ppv91YxratjWnkJi"
  },
  "effects": [],
  "folder": null,
  "sort": 0,
  "flags": {},
  "_key": "!items!f4iH2cZIYYo8glJd"
}