{
  "_id": "JWKZgqSZ2jmSEpxQ",
  "name": "2.2.2.1. Terrain and Terrain Costs",
  "flags": {
    "importid": "ztAFAvwTdQ22fIwp"
  },
  "content": "<text type=\"formattedtext\">\n\t\t\t\t\t<table>\n\t\t\t\t\t\t<tr>\n\t\t\t\t\t\t\t<td><b>Terrain</b></td>\n\t\t\t\t\t\t\t<td><b>Exploration Time (1)</b></td>\n\t\t\t\t\t\t\t<td><b>Preparation Time (2)</b></td>\n\t\t\t\t\t\t\t<td><b>Preparation Cost (3)</b></td>\n\t\t\t\t\t\t\t<td><b>Farm Cost (4)</b></td>\n\t\t\t\t\t\t\t<td><b>Road Cost (5)</b></td>\n\t\t\t\t\t\t</tr>\n\t\t\t\t\t\t<tr>\n\t\t\t\t\t\t\t<td>Cavern (7)</td>\n\t\t\t\t\t\t\t<td>? days</td>\n\t\t\t\t\t\t\t<td>? months</td>\n\t\t\t\t\t\t\t<td>? BP</td>\n\t\t\t\t\t\t\t<td>-</td>\n\t\t\t\t\t\t\t<td>? BP</td>\n\t\t\t\t\t\t</tr>\n\t\t\t\t\t\t<tr>\n\t\t\t\t\t\t\t<td>Coastline (8)</td>\n\t\t\t\t\t\t\t<td>Special</td>\n\t\t\t\t\t\t\t<td>Special</td>\n\t\t\t\t\t\t\t<td>Special</td>\n\t\t\t\t\t\t\t<td>Special</td>\n\t\t\t\t\t\t\t<td>Special</td>\n\t\t\t\t\t\t</tr>\n\t\t\t\t\t\t<tr>\n\t\t\t\t\t\t\t<td>Desert</td>\n\t\t\t\t\t\t\t<td>? days</td>\n\t\t\t\t\t\t\t<td>? months</td>\n\t\t\t\t\t\t\t<td>? BP</td>\n\t\t\t\t\t\t\t<td>? BP</td>\n\t\t\t\t\t\t\t<td>? BP</td>\n\t\t\t\t\t\t</tr>\n\t\t\t\t\t\t<tr>\n\t\t\t\t\t\t\t<td>Forest</td>\n\t\t\t\t\t\t\t<td>? days</td>\n\t\t\t\t\t\t\t<td>? months</td>\n\t\t\t\t\t\t\t<td>? BP</td>\n\t\t\t\t\t\t\t<td>-</td>\n\t\t\t\t\t\t\t<td>? BP</td>\n\t\t\t\t\t\t</tr>\n\t\t\t\t\t\t<tr>\n\t\t\t\t\t\t\t<td>Hills</td>\n\t\t\t\t\t\t\t<td>? days</td>\n\t\t\t\t\t\t\t<td>? months</td>\n\t\t\t\t\t\t\t<td>? BP</td>\n\t\t\t\t\t\t\t<td>? BP</td>\n\t\t\t\t\t\t\t<td>? BP</td>\n\t\t\t\t\t\t</tr>\n\t\t\t\t\t\t<tr>\n\t\t\t\t\t\t\t<td>Jungle</td>\n\t\t\t\t\t\t\t<td>? days</td>\n\t\t\t\t\t\t\t<td>? months</td>\n\t\t\t\t\t\t\t<td>? BP</td>\n\t\t\t\t\t\t\t<td>-</td>\n\t\t\t\t\t\t\t<td>? BP</td>\n\t\t\t\t\t\t</tr>\n\t\t\t\t\t\t<tr>\n\t\t\t\t\t\t\t<td>Marsh</td>\n\t\t\t\t\t\t\t<td>? days</td>\n\t\t\t\t\t\t\t<td>? months</td>\n\t\t\t\t\t\t\t<td>? BP</td>\n\t\t\t\t\t\t\t<td>-</td>\n\t\t\t\t\t\t\t<td>? BP</td>\n\t\t\t\t\t\t</tr>\n\t\t\t\t\t\t<tr>\n\t\t\t\t\t\t\t<td>Mountains</td>\n\t\t\t\t\t\t\t<td>? days</td>\n\t\t\t\t\t\t\t<td>? months</td>\n\t\t\t\t\t\t\t<td>? BP</td>\n\t\t\t\t\t\t\t<td>-</td>\n\t\t\t\t\t\t\t<td>? BP</td>\n\t\t\t\t\t\t</tr>\n\t\t\t\t\t\t<tr>\n\t\t\t\t\t\t\t<td>Plains</td>\n\t\t\t\t\t\t\t<td>? days</td>\n\t\t\t\t\t\t\t<td>Immediate</td>\n\t\t\t\t\t\t\t<td>? BP</td>\n\t\t\t\t\t\t\t<td>? BP</td>\n\t\t\t\t\t\t\t<td>? BP</td>\n\t\t\t\t\t\t</tr>\n\t\t\t\t\t\t<tr>\n\t\t\t\t\t\t\t<td>Water</td>\n\t\t\t\t\t\t\t<td>? days</td>\n\t\t\t\t\t\t\t<td>-</td>\n\t\t\t\t\t\t\t<td>-</td>\n\t\t\t\t\t\t\t<td>-</td>\n\t\t\t\t\t\t\t<td>-</td>\n\t\t\t\t\t\t</tr>\n\t\t\t\t\t</table>\n\t\t\t\t\t<p>1 Exploration time represents how many days a typical scouting party requires to explore a hex of this type. These times assume a party speed of 30 feet. For parties with different speeds, see Table 3-3: Exploration Time (1 Hex) on page 154. Treat Cavern as Mountain and Jungle as Marsh for exploration time. Do not adjust the speed for Water hexes; it's assumed that the party is already using a boat or other watercraft to explore.</p>\n\t\t\t\t\t<p>2 Preparation time represents the months of labor (beginning with the current turn) required to prepare the hex for settlement. Construction of buildings can begin in the current month for settlements built on plains.</p>\n\t\t\t\t\t<p>3 Preparation cost represents the BP cost to clear a hex of this type in preparation for founding a settlement.</p>\n\t\t\t\t\t<p>4 Farm cost represents the BP cost to cultivate a hex for farming. A Farm must be within or adjacent to a hex containing a river, lake, swamp, or Canal, or adjacent to at least 2 hexes that already contain Farms.</p>\n\t\t\t\t\t<p>5 Road cost represents the BP cost to establish a Road that crosses a hex and connects to all adjacent hexes. The cost to build a Road doubles if the hex contains rivers. A kingdom with a Size of 26 or greater can build a Highway (or upgrade a Road to a Highway).</p>\n\t\t\t\t\t<p>6 If the hex contains any rivers, double the listed cost to reflect the need to build bridges.</p>\n\t\t\t\t\t<p>7 This is a large system of caves and underground passages and can be found in any terrain type except Marsh. It functions as an additional hex that exists underground, below the surface hex.</p>\n\t\t\t\t\t<p>8 Treat this as the adjacent land terrain type for all purposes.</p>\n\t\t\t\t</text>\n\t\t\t",
  "pages": [],
  "_key": "!journal!JWKZgqSZ2jmSEpxQ"
}