{
  "_id": "DnXdqwS9SPbD2zUW",
  "name": "3. Settlements and Districts",
  "flags": {
    "importid": "eq1HzFOV7TkmRCfm"
  },
  "content": "<p>The greatest assets of your kingdom are its settlements. Most settlements start as simple villages, and some grow over time into bustling cities.</p>\n<p>You can use the District Grid to create the initial design for your settlement and decide where to place additional buildings as it grows.</p>\n<p>The District Grid is divided into 9 large blocks separated by streets. Each block consists of 4 smaller lots separated by alleys. Treat each lot as approximately 750 feet per side, so overall the district takes up about 1 square mile. On each lot you may construct a building, and each building affects your kingdom's Economy, Loyalty, and so on. Descriptions of these buildings, as well as the bonuses they provide once they're added to a settlement, are in the 'Building Types' section.</p>\n<p>Most settlements only have 1 district. If your District Grid is full and you want to add another district (for example, if you run out of available lots in that settlement and want to construct additional buildings), you can create an additional district for that settlement by paying the preparation cost for the settlement's terrain as listed on Terrain and Terrain Costs (see below). Remember that your kingdom's Control DC is based on the number of districts in your settlement.</p>\n<p>Icons representing each of the building types are included as tokens. You can attach them to your District Grid as your settlement grows.</p>\n<p>The placement of buildings in your district is up to you - you can start in the center of the district and build outward, or start at the edge and build toward the center. Some buildings (such as the Guildhall) take up more than 1 lot on the grid. You can't divide up these larger structures, though you can place them so they cover a street. (Streets do not count as lots.)</p>\n<p><strong>Construction: </strong>Construction is completed in the same turn you spend BP for the building, no matter what its size is. A building's benefits apply to your kingdom immediately. At the GM's discretion, construction magic (such as lyre of building, fabricate, or wall of stone) can reduce a single building's BP cost by 2 (minimum 0). This is a one-time reduction per turn, regardless of the amount of magic used.</p>\n<p><strong>Population: </strong>A settlement's population is approximately equal to the number of completed lots within its districts &times; 250. A grid that has all 36 lots filled with buildings has a population of approximately 9,000.</p>\n<p><strong>Base Value: </strong>The base value of a settlement is used to determine what magic items may easily be purchased there. There is a 75% chance that any item of that value or lower can be found for sale in the settlement with little effort. The base value of a new settlement is 0 gp. Certain buildings (such as a Market or Tavern) increase a settlement's base value. A settlement's base value can never increase above the values listed below in Table: Settlement Size and Base Value (except under special circumstances decided by the GM).</p>\n<p><strong>Defense: </strong>A settlement's Defense is used with the mass combat rules. It otherwise has no effect unless the settlement is attacked. You can increase a settlement's Defense by building certain structures (such as City Walls).</p>\n<p>@Compendium[pf-content.kingdom-building-scenes.qYQrLDT1grPCWKqv]{District Grid}</p>\n<p>@Compendium[pf-content.kingdom-building-player.EInHlfC0fnYUHhEc]{4.2. District Sheet}</p>\n<p>@Compendium[pf-content.kingdom-building-buildings.9tXaDgy0gyzFCo4p]{District Sheet (NPC)}</p>\n<p>@Compendium[pf-content.kingdom-building-player.JWKZgqSZ2jmSEpxQ]{2.2.2.1. Terrain and Terrain Costs}</p>\n<p>&nbsp;</p>\n<p><strong>Table: Settlement Size and Base Value</strong></p>\n<table>\n<tbody>\n<tr>\n<td><strong>Population</strong></td>\n<td><strong>Settlement Size</strong></td>\n<td><strong>Base Value</strong></td>\n</tr>\n<tr>\n<td>Fewer than 21</td>\n<td>Thorp</td>\n<td>50 gp</td>\n</tr>\n<tr>\n<td>21-60</td>\n<td>Hamlet</td>\n<td>200 gp</td>\n</tr>\n<tr>\n<td>61-200</td>\n<td>Village</td>\n<td>500 gp</td>\n</tr>\n<tr>\n<td>201-2,000</td>\n<td>Small Town</td>\n<td>1,000 gp</td>\n</tr>\n<tr>\n<td>2,001 - 5,000</td>\n<td>Large Town</td>\n<td>2,000 gp</td>\n</tr>\n<tr>\n<td>5,001 - 10,000</td>\n<td>Small City</td>\n<td>4,000 gp</td>\n</tr>\n<tr>\n<td>10,001 - 25,000</td>\n<td>Large City</td>\n<td>8,000 gp</td>\n</tr>\n<tr>\n<td>More than 25,000</td>\n<td>Metropolis</td>\n<td>16,000 gp</td>\n</tr>\n</tbody>\n</table>\n<p>&nbsp;</p>\n<p>@Compendium[pf-content.kingdom-building-player.WOnvK7WUCQTgTiex]{3.1. Founding A Settlement}</p>\n<p>@Compendium[pf-content.kingdom-building-player.rVzsMYz0dip3bNHF]{3.2. Magic Items In Settlements}</p>\n<p>@Compendium[pf-content.kingdom-building-player.oq5SYnmwZccT99Cc]{3.03. Buildings}</p>\n<p>&nbsp;</p>",
  "pages": [],
  "_key": "!journal!DnXdqwS9SPbD2zUW"
}