{
  "_id": "WpJLmIp2tfAVgxib",
  "name": "4.1. Kingdom Sheet",
  "flags": {
    "cf": {
      "id": null,
      "path": "Map Notes#/CF_SEP/PFRPG - Kingdom Building - GM Version",
      "color": "#000000"
    },
    "importid": "3MBBfHdIPsSqWYUF"
  },
  "content": "<table style=\"height: 32px; width: 97.5852%;\" border=\"1\">\n<tbody>\n<tr style=\"height: 16px;\">\n<td style=\"height: 16px; width: 16.7991%;\" colspan=\"2\"><strong>Kingdom Name:</strong></td>\n<td style=\"width: 27.1981%;\">Murderville</td>\n<td style=\"height: 16px; width: 11.6324%;\"><strong>Campaign:</strong></td>\n<td style=\"width: 51.7666%;\">We aren't hobos anymore!</td>\n<td style=\"height: 16px; width: 0.113507%;\" colspan=\"4\">&nbsp;</td>\n</tr>\n</tbody>\n</table>\n<h1>Economy</h1>\n<table style=\"width: 97.5852%; height: 48px;\" border=\"1\">\n<tbody>\n<tr style=\"height: 16px;\">\n<td style=\"width: 5.67686%; height: 16px;\">&nbsp;</td>\n<td style=\"width: 57.135%; height: 16px;\" colspan=\"6\"><strong>Bonuses</strong></td>\n<td style=\"width: 35.1503%; height: 16px;\" colspan=\"4\"><strong>Penalties</strong></td>\n</tr>\n<tr style=\"height: 16px;\">\n<td style=\"width: 5.67686%; height: 16px;\"><strong>Total</strong></td>\n<td style=\"width: 10.4803%; height: 16px;\"><strong>Buildings</strong></td>\n<td style=\"width: 6.84134%; height: 16px;\"><strong>Edicts</strong></td>\n<td style=\"width: 7.42358%; height: 16px;\"><strong>Events</strong></td>\n<td style=\"width: 12.2271%; height: 16px;\"><strong>Leadership</strong></td>\n<td style=\"width: 11.3537%; height: 16px;\"><strong>Resources</strong></td>\n<td style=\"width: 8.80898%; height: 16px;\"><strong>Alignment</strong></td>\n<td style=\"width: 9.82272%; height: 16px;\"><strong>Edicts</strong></td>\n<td style=\"width: 7.56914%; height: 16px;\"><strong>Unrest</strong></td>\n<td style=\"width: 11.2082%; height: 16px;\"><strong>Vacancies</strong></td>\n<td style=\"width: 6.55022%; height: 16px;\"><strong>Other</strong></td>\n</tr>\n<tr style=\"height: 16px;\">\n<td style=\"width: 5.67686%; height: 16px;\">0</td>\n<td style=\"width: 10.4803%; height: 16px;\">0</td>\n<td style=\"width: 6.84134%; height: 16px;\">0</td>\n<td style=\"width: 7.42358%; height: 16px;\">0</td>\n<td style=\"width: 12.2271%; height: 16px;\">0</td>\n<td style=\"width: 11.3537%; height: 16px;\">0</td>\n<td style=\"width: 8.80898%; height: 16px;\">0</td>\n<td style=\"width: 9.82272%; height: 16px;\">0</td>\n<td style=\"width: 7.56914%; height: 16px;\">0</td>\n<td style=\"width: 11.2082%; height: 16px;\">0</td>\n<td style=\"width: 6.55022%; height: 16px;\">0</td>\n</tr>\n</tbody>\n</table>\n<h1>Loyalty</h1>\n<table border=\"1\">\n<tbody>\n<tr>\n<td>&nbsp;</td>\n<td colspan=\"6\"><strong>Bonuses</strong></td>\n<td colspan=\"4\"><strong>Penalties</strong></td>\n</tr>\n<tr>\n<td><strong>Total</strong></td>\n<td><strong>Buildings</strong></td>\n<td><strong>Edicts</strong></td>\n<td><strong>Events</strong></td>\n<td><strong>Leadership</strong></td>\n<td><strong>Resources</strong></td>\n<td><strong>Alignment</strong></td>\n<td><strong>Edicts</strong></td>\n<td><strong>Unrest</strong></td>\n<td><strong>Vacancies</strong></td>\n<td><strong>Other</strong></td>\n</tr>\n<tr>\n<td>0</td>\n<td>0</td>\n<td>0</td>\n<td>0</td>\n<td>0</td>\n<td>0</td>\n<td>0</td>\n<td>0</td>\n<td>0</td>\n<td>0</td>\n<td>0</td>\n</tr>\n</tbody>\n</table>\n<h1>Stability</h1>\n<table style=\"width: 98.1522%; border-style: solid;\" border=\"1\">\n<tbody>\n<tr>\n<td style=\"width: 5.75858%;\">&nbsp;</td>\n<td style=\"width: 60.3543%;\" colspan=\"6\"><strong>Bonuses</strong></td>\n<td style=\"width: 32.3367%;\" colspan=\"4\"><strong>Penalties</strong></td>\n</tr>\n<tr>\n<td style=\"width: 5.75858%;\"><strong>Total</strong></td>\n<td style=\"width: 10.6312%;\"><strong>Buildings</strong></td>\n<td style=\"width: 6.97674%;\"><strong>Edicts</strong></td>\n<td style=\"width: 7.53045%;\"><strong>Events</strong></td>\n<td style=\"width: 12.1816%;\"><strong>Leadership</strong></td>\n<td style=\"width: 11.2957%;\"><strong>Resources</strong></td>\n<td style=\"width: 11.7386%;\"><strong>Alignment</strong></td>\n<td style=\"width: 6.97674%;\"><strong>Edicts</strong></td>\n<td style=\"width: 7.53045%;\"><strong>Unrest</strong></td>\n<td style=\"width: 11.2957%;\"><strong>Vacancies</strong></td>\n<td style=\"width: 6.53378%;\"><strong>Other</strong></td>\n</tr>\n<tr>\n<td style=\"width: 5.75858%;\">0</td>\n<td style=\"width: 10.6312%;\">0</td>\n<td style=\"width: 6.97674%;\">0</td>\n<td style=\"width: 7.53045%;\">0</td>\n<td style=\"width: 12.1816%;\">0</td>\n<td style=\"width: 11.2957%;\">0</td>\n<td style=\"width: 11.7386%;\">0</td>\n<td style=\"width: 6.97674%;\">0</td>\n<td style=\"width: 7.53045%;\">0</td>\n<td style=\"width: 11.2957%;\">0</td>\n<td style=\"width: 6.53378%;\">0</td>\n</tr>\n</tbody>\n</table>\n<h1>Edicts</h1>\n<table style=\"height: 105px; width: 96.4545%;\" border=\"1\">\n<tbody>\n<tr style=\"height: 12px;\">\n<td style=\"width: 7.5179%; height: 12px;\"><strong>Promotion Level:&nbsp;</strong></td>\n<td style=\"width: 3.47643%; height: 12px;\">0</td>\n<td style=\"width: 4.97241%; height: 12px;\"><strong>+ Stability:&nbsp;</strong></td>\n<td style=\"width: 5.29763%; height: 12px;\">0</td>\n<td style=\"width: 4.73924%; height: 12px;\"><strong>+ BP Consumption:</strong></td>\n<td style=\"width: 5.60136%; height: 12px;\">0</td>\n</tr>\n<tr style=\"height: 16px;\">\n<td style=\"width: 7.5179%; height: 16px;\"><strong>Taxation Level:</strong></td>\n<td style=\"width: 3.47643%; height: 16px;\">0</td>\n<td style=\"width: 4.97241%; height: 16px;\"><strong>+ Economy:&nbsp;</strong></td>\n<td style=\"width: 5.29763%; height: 16px;\">0</td>\n<td style=\"width: 4.73924%; height: 16px;\"><strong>- Loyalty:</strong></td>\n<td style=\"width: 5.60136%; height: 16px;\">0</td>\n</tr>\n<tr style=\"height: 16px;\">\n<td style=\"width: 7.5179%; height: 16px;\"><strong>Festivals Per Year:</strong></td>\n<td style=\"width: 3.47643%; height: 16px;\">0</td>\n<td style=\"width: 4.97241%; height: 16px;\"><strong>+ Loyalty:</strong></td>\n<td style=\"width: 5.29763%; height: 16px;\">0</td>\n<td style=\"width: 4.73924%; height: 16px;\"><strong>+ BP Consumption:</strong></td>\n<td style=\"width: 5.60136%; height: 16px;\">0</td>\n</tr>\n</tbody>\n</table>\n<h1>Unrest</h1>\n<table style=\"width: 98.1522%;\" border=\"1\">\n<tbody>\n<tr>\n<td style=\"width: 45.1829%;\"><strong>Penalty on all Checks:&nbsp;</strong></td>\n<td style=\"width: 53.4882%;\"><strong>0</strong></td>\n<td style=\"width: 0.112867%;\" colspan=\"3\">&nbsp;</td>\n</tr>\n</tbody>\n</table>\n<h1>Consumption</h1>\n<table style=\"width: 97.5852%;\" border=\"1\">\n<tbody>\n<tr>\n<td style=\"width: 38.2823%;\" colspan=\"2\"><strong>BP</strong></td>\n<td style=\"width: 60.5531%;\" colspan=\"3\">0</td>\n</tr>\n<tr>\n<td style=\"width: 16.0116%;\"><strong>Size +</strong></td>\n<td style=\"width: 22.2707%;\"><strong>Citites +</strong></td>\n<td style=\"width: 20.9607%;\"><strong>Edicts +</strong></td>\n<td style=\"width: 19.7962%;\"><strong>Farms -</strong></td>\n<td style=\"width: 19.7962%;\"><strong>Other +</strong></td>\n</tr>\n<tr>\n<td style=\"width: 16.0116%;\">0</td>\n<td style=\"width: 22.2707%;\">0</td>\n<td style=\"width: 20.9607%;\">0</td>\n<td style=\"width: 19.7962%;\">0</td>\n<td style=\"width: 19.7962%;\">0</td>\n</tr>\n</tbody>\n</table>\n<h1>Treasury</h1>\n<table style=\"width: 99.5924%;\" border=\"1\">\n<tbody>\n<tr>\n<td style=\"width: 5.78751%;\"><strong>BP:</strong></td>\n<td style=\"width: 33.3422%;\">&nbsp;</td>\n<td style=\"width: 11.8246%;\"><strong>Bonus BP:</strong></td>\n<td style=\"width: 48.4984%;\">&nbsp;</td>\n</tr>\n</tbody>\n</table>\n<h1>Ongoing Events</h1>\n<table border=\"1\">\n<tbody>\n<tr>\n<td>Event A - @Link</td>\n</tr>\n<tr>\n<td>Event B - @Link</td>\n</tr>\n</tbody>\n</table>\n<h1>Leadership</h1>\n<p>@Compendium[pf-content.kingdom-building-gm.IrtnUkZkBzaufN64]{Leadership Roles}</p>\n<table style=\"width: 98.1542%;\" border=\"1\">\n<tbody>\n<tr>\n<td style=\"width: 32.7434%;\" colspan=\"2\"><strong>Leadership Role</strong></td>\n<td style=\"width: 12.8319%;\"><strong>Bonus</strong></td>\n<td style=\"width: 53.6504%;\"><strong>Attribute</strong></td>\n</tr>\n<tr>\n<td style=\"width: 15.6176%;\">Ruler</td>\n<td style=\"width: 17.1258%;\">&nbsp;</td>\n<td style=\"width: 12.8319%;\">&nbsp;</td>\n<td style=\"width: 53.6504%;\">Economy, Loyalty, Stability</td>\n</tr>\n<tr>\n<td style=\"width: 15.6176%;\">Ruler</td>\n<td style=\"width: 17.1258%;\">&nbsp;</td>\n<td style=\"width: 12.8319%;\">&nbsp;</td>\n<td style=\"width: 53.6504%;\">Economy, Loyalty, Stability</td>\n</tr>\n<tr>\n<td style=\"width: 15.6176%;\">Consort</td>\n<td style=\"width: 17.1258%;\">&nbsp;</td>\n<td style=\"width: 12.8319%;\">&nbsp;</td>\n<td style=\"width: 53.6504%;\">Loyalty</td>\n</tr>\n<tr>\n<td style=\"width: 15.6176%;\">Councilor</td>\n<td style=\"width: 17.1258%;\">&nbsp;</td>\n<td style=\"width: 12.8319%;\">&nbsp;</td>\n<td style=\"width: 53.6504%;\">Loyality</td>\n</tr>\n<tr>\n<td style=\"width: 15.6176%;\">General</td>\n<td style=\"width: 17.1258%;\">&nbsp;</td>\n<td style=\"width: 12.8319%;\">&nbsp;</td>\n<td style=\"width: 53.6504%;\">Stability</td>\n</tr>\n<tr>\n<td style=\"width: 15.6176%;\">Grand Diplomat</td>\n<td style=\"width: 17.1258%;\">&nbsp;</td>\n<td style=\"width: 12.8319%;\">&nbsp;</td>\n<td style=\"width: 53.6504%;\">Stability</td>\n</tr>\n<tr>\n<td style=\"width: 15.6176%;\">Heir</td>\n<td style=\"width: 17.1258%;\">&nbsp;</td>\n<td style=\"width: 12.8319%;\">&nbsp;</td>\n<td style=\"width: 53.6504%;\">Loyalty</td>\n</tr>\n<tr>\n<td style=\"width: 15.6176%;\">High Priest</td>\n<td style=\"width: 17.1258%;\">&nbsp;</td>\n<td style=\"width: 12.8319%;\">&nbsp;</td>\n<td style=\"width: 53.6504%;\">Stability</td>\n</tr>\n<tr>\n<td style=\"width: 15.6176%;\">Magister</td>\n<td style=\"width: 17.1258%;\">&nbsp;</td>\n<td style=\"width: 12.8319%;\">&nbsp;</td>\n<td style=\"width: 53.6504%;\">Economy</td>\n</tr>\n<tr>\n<td style=\"width: 15.6176%;\">Marshal</td>\n<td style=\"width: 17.1258%;\">&nbsp;</td>\n<td style=\"width: 12.8319%;\">&nbsp;</td>\n<td style=\"width: 53.6504%;\">Economy</td>\n</tr>\n<tr>\n<td style=\"width: 15.6176%;\">Royal Enforcer</td>\n<td style=\"width: 17.1258%;\">&nbsp;</td>\n<td style=\"width: 12.8319%;\">&nbsp;</td>\n<td style=\"width: 53.6504%;\">Loyalty, -1 Unrest/Upkeep</td>\n</tr>\n<tr>\n<td style=\"width: 15.6176%;\">Spymaster</td>\n<td style=\"width: 17.1258%;\">&nbsp;</td>\n<td style=\"width: 12.8319%;\">&nbsp;</td>\n<td style=\"width: 53.6504%;\">Economy, Loyalty, Stability</td>\n</tr>\n<tr>\n<td style=\"width: 15.6176%;\">Treasurer</td>\n<td style=\"width: 17.1258%;\">&nbsp;</td>\n<td style=\"width: 12.8319%;\">&nbsp;</td>\n<td style=\"width: 53.6504%;\">Economy</td>\n</tr>\n<tr>\n<td style=\"width: 15.6176%;\">Viceroy</td>\n<td style=\"width: 17.1258%;\">&nbsp;</td>\n<td style=\"width: 12.8319%;\">&nbsp;</td>\n<td style=\"width: 53.6504%;\">Economy</td>\n</tr>\n<tr>\n<td style=\"width: 15.6176%;\">Warden</td>\n<td style=\"width: 17.1258%;\">&nbsp;</td>\n<td style=\"width: 12.8319%;\">&nbsp;</td>\n<td style=\"width: 53.6504%;\">Loyalty</td>\n</tr>\n</tbody>\n</table>",
  "pages": [],
  "_key": "!journal!WpJLmIp2tfAVgxib"
}