{
  "_id": "EInHlfC0fnYUHhEc",
  "name": "4.2. District Sheet",
  "flags": {
    "cf": {
      "id": null,
      "path": "Map Notes#/CF_SEP/PFRPG - Kingdom Building - GM Version",
      "color": "#000000"
    },
    "importid": "D8WHPrFJ1k5pcHBp"
  },
  "content": "<table style=\"width: 97.6056%;\">\n<tbody>\n<tr>\n<td style=\"width: 36.0947%;\" colspan=\"2\"><strong>Settlement Name:</strong></td>\n<td style=\"width: 0.147929%;\" colspan=\"4\">&nbsp;</td>\n<td style=\"width: 22.7811%;\" colspan=\"2\"><strong>Base Value:</strong></td>\n<td style=\"width: 0.1443%;\">&nbsp;</td>\n<td style=\"width: 17.1717%;\"><strong>Defense:</strong></td>\n<td style=\"width: 0.1443%;\">&nbsp;</td>\n<td style=\"width: 22.6551%;\">\n<p><strong>Population:</strong></p>\n</td>\n<td style=\"width: 0.2886%;\">&nbsp;</td>\n</tr>\n<tr>\n<td style=\"width: 36.0947%;\" colspan=\"2\">Awesomeville</td>\n<td style=\"width: 0.147929%;\" colspan=\"4\">&nbsp;</td>\n<td style=\"width: 22.7811%;\" colspan=\"2\">10,000gp</td>\n<td style=\"width: 0.1443%;\">&nbsp;</td>\n<td style=\"width: 17.1717%;\">&nbsp;</td>\n<td style=\"width: 0.1443%;\">&nbsp;</td>\n<td style=\"width: 22.6551%;\">\n<p>69</p>\n</td>\n<td style=\"width: 0.2886%;\">&nbsp;</td>\n</tr>\n</tbody>\n</table>\n<p>&nbsp;</p>\n<h1>Features</h1>\n<table>\n<tbody>\n<tr>\n<td><strong>Paved Streets</strong></td>\n<td>&nbsp;</td>\n<td><strong>Sewer System</strong></td>\n<td>&nbsp;</td>\n</tr>\n<tr>\n<td>Yes</td>\n<td>&nbsp;</td>\n<td>Yes</td>\n<td>&nbsp;</td>\n</tr>\n</tbody>\n</table>\n<h1>&nbsp;</h1>\n<h1>Magic Items</h1>\n<p>&nbsp;</p>\n<table>\n<tbody>\n<tr>\n<td colspan=\"8\"><strong>Potions</strong></td>\n<td colspan=\"7\"><strong>Scrolls</strong></td>\n<td colspan=\"8\"><strong>Wondrous Items</strong></td>\n<td colspan=\"7\"><strong>Other</strong></td>\n</tr>\n<tr>\n<td colspan=\"8\">&nbsp;</td>\n<td colspan=\"7\">&nbsp;</td>\n<td colspan=\"8\">&nbsp;</td>\n<td colspan=\"7\">&nbsp;</td>\n</tr>\n<tr>\n<td colspan=\"8\">&nbsp;</td>\n<td colspan=\"7\">&nbsp;</td>\n<td colspan=\"8\">&nbsp;</td>\n<td colspan=\"7\">&nbsp;</td>\n</tr>\n<tr>\n<td colspan=\"8\">&nbsp;</td>\n<td colspan=\"7\">&nbsp;</td>\n<td colspan=\"8\">&nbsp;</td>\n<td colspan=\"7\">&nbsp;</td>\n</tr>\n<tr>\n<td colspan=\"8\">&nbsp;</td>\n<td colspan=\"7\">&nbsp;</td>\n<td colspan=\"8\">&nbsp;</td>\n<td colspan=\"7\">&nbsp;</td>\n</tr>\n<tr>\n<td colspan=\"8\">&nbsp;</td>\n<td colspan=\"7\">&nbsp;</td>\n<td colspan=\"8\">&nbsp;</td>\n<td colspan=\"7\">&nbsp;</td>\n</tr>\n<tr>\n<td colspan=\"8\">&nbsp;</td>\n<td colspan=\"7\">&nbsp;</td>\n<td colspan=\"8\">&nbsp;</td>\n<td colspan=\"7\">&nbsp;</td>\n</tr>\n<tr>\n<td colspan=\"8\">&nbsp;</td>\n<td colspan=\"7\">&nbsp;</td>\n<td colspan=\"8\">&nbsp;</td>\n<td colspan=\"7\">&nbsp;</td>\n</tr>\n<tr>\n<td colspan=\"8\">&nbsp;</td>\n<td colspan=\"7\">&nbsp;</td>\n<td colspan=\"8\">&nbsp;</td>\n</tr>\n</tbody>\n</table>",
  "pages": [],
  "_key": "!journal!EInHlfC0fnYUHhEc"
}