{
  "_id": "JYk0yBmbcRdESbOI",
  "flags": {},
  "type": 2,
  "text": "Frilled Lizard, Giant",
  "img": "systems/pf1/icons/skills/red_20.jpg",
  "collection": "pf-content.pf-goods-services",
  "resultId": "Ps2YKbdXa2OaCbzw",
  "weight": 1,
  "range": [
    15,
    15
  ],
  "drawn": false,
  "_key": "!tables.results!PaivU8HqSJjyjprV.JYk0yBmbcRdESbOI"
}