{
  "_id": "JSQBDcAXqgSu8uXu",
  "flags": {},
  "type": 2,
  "text": "Heroka's Saga, Vol. I",
  "img": "icons/sundries/books/book-embossed-gold-red.webp",
  "collection": "pf-content.pf-goods-services",
  "resultId": "88FKDGDIM4G8Tqjp",
  "weight": 1,
  "range": [
    2,
    2
  ],
  "drawn": false,
  "_key": "!tables.results!VYqRGAODLl8qzdrl.JSQBDcAXqgSu8uXu"
}