{
  "_id": "OWYEmuxeDAOuvRic",
  "flags": {},
  "type": 2,
  "text": "Rhinoceros",
  "img": "icons/commodities/biological/foot-black-grey.webp",
  "collection": "pf-content.pf-goods-services",
  "resultId": "OYYumgYwN9cunV9E",
  "weight": 1,
  "range": [
    41,
    41
  ],
  "drawn": false,
  "_key": "!tables.results!PaivU8HqSJjyjprV.OWYEmuxeDAOuvRic"
}