{
  "_id": "TwzsmHXu3vhz6wIy",
  "flags": {},
  "type": 2,
  "text": "Lizard",
  "img": "systems/pf1/icons/skills/red_20.jpg",
  "collection": "pf-content.pf-goods-services",
  "resultId": "mNcccmmJtV69JIh9",
  "weight": 1,
  "range": [
    59,
    59
  ],
  "drawn": false,
  "_key": "!tables.results!3UZQ2zknGEHIugG6.TwzsmHXu3vhz6wIy"
}