{
  "_id": "Gh2ZfTEWDpZtmRLM",
  "flags": {},
  "type": 2,
  "text": "Raven",
  "img": "icons/commodities/materials/feather-black-blue.webp",
  "collection": "pf-content.pf-goods-services",
  "resultId": "VwHtPOrSPBVO7Pme",
  "weight": 1,
  "range": [
    86,
    86
  ],
  "drawn": false,
  "_key": "!tables.results!3UZQ2zknGEHIugG6.Gh2ZfTEWDpZtmRLM"
}