{
  "_id": "f3QL5oRnKA0ne0Vx",
  "flags": {},
  "type": 2,
  "text": "Wading boots",
  "img": "icons/equipment/feet/shoes-rounded-leather-blue.webp",
  "collection": "pf-content.pf-items",
  "resultId": "4Y6nTHNXX7y93LjE",
  "weight": 1,
  "range": [
    112,
    112
  ],
  "drawn": false,
  "_key": "!tables.results!ADxaiLgyJDP36l9E.f3QL5oRnKA0ne0Vx"
}