{
  "_id": "MN0LhWyM0rRVlbvm",
  "flags": {},
  "type": 2,
  "text": "Elephant",
  "img": "icons/commodities/biological/foot-black-grey.webp",
  "collection": "pf-content.pf-goods-services",
  "resultId": "jWeKKU3uEe2uOu3R",
  "weight": 1,
  "range": [
    12,
    12
  ],
  "drawn": false,
  "_key": "!tables.results!PaivU8HqSJjyjprV.MN0LhWyM0rRVlbvm"
}