{
  "_id": "jLgWiEAcnhBvIttq",
  "flags": {},
  "type": 2,
  "text": "Rhinoceros, Wholly",
  "img": "icons/commodities/bones/hooves-cloven-brown.webp",
  "collection": "pf-content.pf-goods-services",
  "resultId": "UDqUiWrZ0a4W18rq",
  "weight": 1,
  "range": [
    43,
    43
  ],
  "drawn": false,
  "_key": "!tables.results!PaivU8HqSJjyjprV.jLgWiEAcnhBvIttq"
}