{
  "_id": "Dg3SuuguYKImHyfN",
  "flags": {},
  "type": 2,
  "text": "Boar",
  "img": "icons/commodities/bones/horn-worn-beige.webp",
  "collection": "pf-content.pf-goods-services",
  "resultId": "TZI9bjZI9WLbCDRn",
  "weight": 1,
  "range": [
    12,
    12
  ],
  "drawn": false,
  "_key": "!tables.results!3UZQ2zknGEHIugG6.Dg3SuuguYKImHyfN"
}