{
  "_id": "TMizfIrEPgJXggR3",
  "flags": {},
  "type": 2,
  "text": "Spice, Black Cumin",
  "img": "icons/commodities/materials/bowl-powder-blue.webp",
  "collection": "pf-content.pf-goods-services",
  "resultId": "kWq4P0hMGqPILmkW",
  "weight": 1,
  "range": [
    60,
    60
  ],
  "drawn": false,
  "_key": "!tables.results!Byp52tJLVqsoO7l5.TMizfIrEPgJXggR3"
}