{
  "_id": "gvtCuS7MTJPpoeCX",
  "flags": {},
  "type": 2,
  "text": "Crocodile, Dire",
  "img": "modules/pf-content/icons/spell780.png",
  "collection": "pf-content.pf-goods-services",
  "resultId": "DsSzPD8W9tmihBZE",
  "weight": 1,
  "range": [
    25,
    25
  ],
  "drawn": false,
  "_key": "!tables.results!3UZQ2zknGEHIugG6.gvtCuS7MTJPpoeCX"
}