{
  "_id": "TLcSRYk2lIuwpi7s",
  "flags": {},
  "type": 2,
  "text": "Tiger, Dire",
  "img": "modules/pf-content/icons/spell251.png",
  "collection": "pf-content.pf-goods-services",
  "resultId": "ihpbj1BxG3cM8XnB",
  "weight": 1,
  "range": [
    114,
    114
  ],
  "drawn": false,
  "_key": "!tables.results!3UZQ2zknGEHIugG6.TLcSRYk2lIuwpi7s"
}