{
  "_id": "MUQJ5oapS4Qbmn4s",
  "flags": {},
  "type": 2,
  "text": "Slave",
  "img": "icons/sundries/survival/cuffs-shackles-steel.webp",
  "collection": "pf-content.pf-goods-services",
  "resultId": "Ns3xqlvQjQJviaGg",
  "weight": 1,
  "range": [
    11,
    11
  ],
  "drawn": false,
  "_key": "!tables.results!8XhK4sPeRZOi2tsE.MUQJ5oapS4Qbmn4s"
}