{
  "_id": "6YE0K10g3OaLIUQq",
  "flags": {},
  "type": 2,
  "text": "Pathfinder Chronicles - Volume 2",
  "img": "icons/sundries/books/book-rounded-red.webp",
  "collection": "pf-content.pf-goods-services",
  "resultId": "JvkGTldQg83ItXn2",
  "weight": 1,
  "range": [
    8,
    8
  ],
  "drawn": false,
  "_key": "!tables.results!VYqRGAODLl8qzdrl.6YE0K10g3OaLIUQq"
}