{
  "_id": "tMY7kUQsZjXueDs5",
  "flags": {},
  "type": 2,
  "text": "Jewelry",
  "img": "icons/equipment/neck/amulet-round-gold-blue.webp",
  "collection": "pf-content.pf-items",
  "resultId": "I7BKYjbgOQydngNI",
  "weight": 1,
  "range": [
    39,
    39
  ],
  "drawn": false,
  "_key": "!tables.results!ADxaiLgyJDP36l9E.tMY7kUQsZjXueDs5"
}