{
  "_id": "LgckDkaiUSr6u4kc",
  "flags": {},
  "type": 2,
  "text": "Dodo",
  "img": "icons/commodities/bones/beak-hooked-red.webp",
  "collection": "pf-content.pf-goods-services",
  "resultId": "HZaDMKiDQF3rPJqb",
  "weight": 1,
  "range": [
    26,
    26
  ],
  "drawn": false,
  "_key": "!tables.results!3UZQ2zknGEHIugG6.LgckDkaiUSr6u4kc"
}