{
  "_id": "QXvb7B5kgMGOhOb8",
  "flags": {},
  "type": 2,
  "text": "Ghoul Distemper (Horrific)",
  "img": "systems/pf1/icons/skills/shadow_01.jpg",
  "collection": "pf-content.pf-maladies",
  "resultId": "69lzgZKyWbd1oDpH",
  "weight": 1,
  "range": [
    33,
    33
  ],
  "drawn": false,
  "_key": "!tables.results!mRf6CmgMCEVQS3hh.QXvb7B5kgMGOhOb8"
}