{
  "_id": "TCgSKTeZMj8dUNu8",
  "flags": {},
  "type": 2,
  "text": "Cleric's vestments",
  "img": "icons/equipment/chest/robe-layered-white.webp",
  "collection": "pf-content.pf-items",
  "resultId": "l9a0fDEfE5jKdyb1",
  "weight": 1,
  "range": [
    10,
    10
  ],
  "drawn": false,
  "_key": "!tables.results!ADxaiLgyJDP36l9E.TCgSKTeZMj8dUNu8"
}