{
  "_id": "DjDVv4hjgyJ2yrDX",
  "flags": {},
  "type": 2,
  "text": "Slave (household)",
  "img": "icons/sundries/survival/cuffs-shackles-steel.webp",
  "collection": "pf-content.pf-goods-services",
  "resultId": "WwcAbQpJ7XVf77MZ",
  "weight": 1,
  "range": [
    13,
    13
  ],
  "drawn": false,
  "_key": "!tables.results!8XhK4sPeRZOi2tsE.DjDVv4hjgyJ2yrDX"
}