{
  "_id": "HEUiOwtJu0juG6tz",
  "flags": {},
  "type": 2,
  "text": "Shakes",
  "img": "systems/pf1/icons/skills/emerald_11.jpg",
  "collection": "pf-content.pf-maladies",
  "resultId": "Nx798UF6uHLnMdnR",
  "weight": 1,
  "range": [
    50,
    50
  ],
  "drawn": false,
  "_key": "!tables.results!mRf6CmgMCEVQS3hh.HEUiOwtJu0juG6tz"
}