{
  "_id": "sp3Q0R18Ob5Q6rxq",
  "flags": {},
  "type": 2,
  "text": "Fox",
  "img": "icons/commodities/leather/fur-white-tan.webp",
  "collection": "pf-content.pf-goods-services",
  "resultId": "3O5Ul11JELh6VmEa",
  "weight": 1,
  "range": [
    38,
    38
  ],
  "drawn": false,
  "_key": "!tables.results!3UZQ2zknGEHIugG6.sp3Q0R18Ob5Q6rxq"
}