{
  "_id": "nVwOjuJCrpCDrrTE",
  "flags": {},
  "type": 2,
  "text": "Spiritual leader's vestments",
  "img": "icons/equipment/chest/robe-layered-purple.webp",
  "collection": "pf-content.pf-items",
  "resultId": "4Zzna9K2NoqPhHIK",
  "weight": 1,
  "range": [
    98,
    98
  ],
  "drawn": false,
  "_key": "!tables.results!ADxaiLgyJDP36l9E.nVwOjuJCrpCDrrTE"
}