{
  "_id": "zyJeeBUmGe64SmiN",
  "flags": {},
  "type": 2,
  "text": "Psychometrist's gloves",
  "img": "icons/equipment/hand/glove-ringed-cloth-brown.webp",
  "collection": "pf-content.pf-items",
  "resultId": "hFdK6E77VZNfXpyC",
  "weight": 1,
  "range": [
    82,
    82
  ],
  "drawn": false,
  "_key": "!tables.results!ADxaiLgyJDP36l9E.zyJeeBUmGe64SmiN"
}