{
  "_id": "DO5gAQiQfLU3CDqk",
  "flags": {},
  "type": 2,
  "text": "Final Rest",
  "img": "systems/pf1/icons/skills/affliction_08.jpg",
  "collection": "pf-content.pf-maladies",
  "resultId": "qEtdAsgPezYwz2fJ",
  "weight": 1,
  "range": [
    30,
    30
  ],
  "drawn": false,
  "_key": "!tables.results!mRf6CmgMCEVQS3hh.DO5gAQiQfLU3CDqk"
}