{
  "_id": "5xdDW6usRLL3SyM1",
  "flags": {},
  "type": 2,
  "text": "Tuberculosis",
  "img": "icons/commodities/biological/organ-heart-black.webp",
  "collection": "pf-content.pf-maladies",
  "resultId": "iW4XMifERDUGbR5W",
  "weight": 1,
  "range": [
    59,
    59
  ],
  "drawn": false,
  "_key": "!tables.results!mRf6CmgMCEVQS3hh.5xdDW6usRLL3SyM1"
}