{
  "_id": "5gVWCGO4tQYMpcYT",
  "flags": {},
  "type": 2,
  "text": "Mongoose",
  "img": "icons/commodities/bones/bone-jaw-teeth-white.webp",
  "collection": "pf-content.pf-goods-services",
  "resultId": "iFvku7r0AzxFqBPD",
  "weight": 1,
  "range": [
    63,
    63
  ],
  "drawn": false,
  "_key": "!tables.results!3UZQ2zknGEHIugG6.5gVWCGO4tQYMpcYT"
}