{
  "_id": "ZXccPw6k2VQ9Rfwq",
  "flags": {},
  "type": 2,
  "text": "Kitumu's ire",
  "img": "systems/pf1/icons/items/potions/magic-red.jpg",
  "collection": "pf-content.pf-items",
  "resultId": "1OmGgxbi0mAvPifC",
  "weight": 1,
  "range": [
    20,
    20
  ],
  "drawn": false,
  "_key": "!tables.results!s5Uknh2Kz8QcTZvX.ZXccPw6k2VQ9Rfwq"
}