{
  "_id": "eHTs15J61O6ACmew",
  "flags": {},
  "type": 2,
  "text": "Chymist's Guidebook (Formula Book, Level 15 Alchemist)",
  "img": "icons/sundries/books/book-worn-brown.webp",
  "collection": "pf-content.pf-goods-services",
  "resultId": "0FLe9gzWQTG1MyzR",
  "weight": 1,
  "range": [
    7,
    7
  ],
  "drawn": false,
  "_key": "!tables.results!Tjuc9e5QFBGutTob.eHTs15J61O6ACmew"
}