{
  "_id": "E06Fnx3HYdpN9ihY",
  "flags": {},
  "type": 2,
  "text": "Gar",
  "img": "icons/environment/creatures/fish-spotted-blue-grey.webp",
  "collection": "pf-content.pf-goods-services",
  "resultId": "qhZOtfA07ymhzTIo",
  "weight": 1,
  "range": [
    42,
    42
  ],
  "drawn": false,
  "_key": "!tables.results!3UZQ2zknGEHIugG6.E06Fnx3HYdpN9ihY"
}