{
  "_id": "EEeLbZ0zmvVNa0gy",
  "flags": {},
  "type": 2,
  "text": "Monkey",
  "img": "icons/commodities/materials/slime-brown.webp",
  "collection": "pf-content.pf-goods-services",
  "resultId": "IXUPPAxwCOCgsp9n",
  "weight": 1,
  "range": [
    65,
    65
  ],
  "drawn": false,
  "_key": "!tables.results!3UZQ2zknGEHIugG6.EEeLbZ0zmvVNa0gy"
}