{
  "_id": "ApPvnGqS8iwZm2nd",
  "flags": {},
  "type": 2,
  "text": "Outfit, Traveler's",
  "img": "icons/equipment/head/hood-simple-leather-brown.webp",
  "collection": "pf-content.pf-items",
  "resultId": "VOKUMKZ7liBHV4z8",
  "weight": 1,
  "range": [
    73,
    73
  ],
  "drawn": false,
  "_key": "!tables.results!ADxaiLgyJDP36l9E.ApPvnGqS8iwZm2nd"
}