{
  "_id": "fQqhJlWFHin7a8dd",
  "flags": {},
  "type": 2,
  "text": "Manual of Binding (Spellbook, Level 18 Conjurer)",
  "img": "icons/sundries/books/book-worn-brown.webp",
  "collection": "pf-content.pf-goods-services",
  "resultId": "WipRBkGzdcjWpe0H",
  "weight": 1,
  "range": [
    21,
    21
  ],
  "drawn": false,
  "_key": "!tables.results!Tjuc9e5QFBGutTob.fQqhJlWFHin7a8dd"
}