{
  "_id": "wuPoOfB6yUoQQc2H",
  "flags": {},
  "type": 2,
  "text": "Decorative trim",
  "img": "icons/commodities/cloth/ribbon-bolt-blue.webp",
  "collection": "pf-content.pf-items",
  "resultId": "EnxxwcRZfGqUdUGl",
  "weight": 1,
  "range": [
    17,
    17
  ],
  "drawn": false,
  "_key": "!tables.results!ADxaiLgyJDP36l9E.wuPoOfB6yUoQQc2H"
}