{
  "_id": "AfCqLqWgOTvtWRZK",
  "flags": {},
  "type": 2,
  "text": "Scarf (pocketed)",
  "img": "icons/equipment/back/cloak-collared-blue-iron.webp",
  "collection": "pf-content.pf-items",
  "resultId": "YiNs7KKn17Xdigk5",
  "weight": 1,
  "range": [
    86,
    86
  ],
  "drawn": false,
  "_key": "!tables.results!ADxaiLgyJDP36l9E.AfCqLqWgOTvtWRZK"
}