{
  "_id": "T1bswfwP3wqNMNSF",
  "flags": {},
  "type": 2,
  "text": "Hookah, Traveler's",
  "img": "icons/sundries/misc/pipe-wooden-01.webp",
  "collection": "pf-content.pf-goods-services",
  "resultId": "rQHXQtYwTQRNiHQ6",
  "weight": 1,
  "range": [
    5,
    5
  ],
  "drawn": false,
  "_key": "!tables.results!8XhK4sPeRZOi2tsE.T1bswfwP3wqNMNSF"
}