{
  "_id": "iaHG3VfUPSIhPgtl",
  "flags": {},
  "type": 2,
  "text": "Basidirond Spores",
  "img": "icons/commodities/biological/tentacle-yellow.webp",
  "collection": "pf-content.pf-maladies",
  "resultId": "ovsc9iD1lwbtQL79",
  "weight": 1,
  "range": [
    2,
    2
  ],
  "drawn": false,
  "_key": "!tables.results!mRf6CmgMCEVQS3hh.iaHG3VfUPSIhPgtl"
}