{
  "_id": "RJhITkQnCajyFb5A",
  "flags": {},
  "type": 2,
  "text": "Dog, Lap",
  "img": "icons/commodities/bones/bone-jaw-teeth-white.webp",
  "collection": "pf-content.pf-goods-services",
  "resultId": "BVyiHQM0Mm43H1jS",
  "weight": 1,
  "range": [
    30,
    30
  ],
  "drawn": false,
  "_key": "!tables.results!3UZQ2zknGEHIugG6.RJhITkQnCajyFb5A"
}