{
  "_id": "wKY9yLjwxky6Ttkt",
  "flags": {},
  "type": 2,
  "text": "Bonechill",
  "img": "systems/pf1/icons/skills/ice_17.jpg",
  "collection": "pf-content.pf-maladies",
  "resultId": "94osu7eckXvhYNbZ",
  "weight": 1,
  "range": [
    10,
    10
  ],
  "drawn": false,
  "_key": "!tables.results!mRf6CmgMCEVQS3hh.wKY9yLjwxky6Ttkt"
}