{
  "_id": "RrEI5QZFKXYqFnJF",
  "flags": {},
  "type": 0,
  "text": "Temperate Climate: Windstorm, blizzard, hurricane, or tornado",
  "img": "icons/svg/d20-black.svg",
  "resultId": "",
  "weight": 1,
  "range": [
    91,
    100
  ],
  "drawn": false,
  "_key": "!tables.results!5pBOddtATtKDtPzE.RrEI5QZFKXYqFnJF"
}