{
  "_id": "IFSadANTlftNcSPj",
  "flags": {},
  "type": 2,
  "text": "Vehicle, Keelboat",
  "img": "icons/tools/nautical/steering-wheel.webp",
  "collection": "pf-content.pf-goods-services",
  "resultId": "tNctnSKymuOQqVz9",
  "weight": 1,
  "range": [
    3,
    3
  ],
  "drawn": false,
  "_key": "!tables.results!seyXQZKq3dBHntln.IFSadANTlftNcSPj"
}