{
  "_id": "2QFQh6N3PAFSHEDe",
  "flags": {},
  "type": 2,
  "text": "Outfit, Dilettante's",
  "img": "icons/equipment/chest/vest-leather-brown-gold.webp",
  "collection": "pf-content.pf-items",
  "resultId": "BxguTrQiSIXB0mjB",
  "weight": 1,
  "range": [
    60,
    60
  ],
  "drawn": false,
  "_key": "!tables.results!ADxaiLgyJDP36l9E.2QFQh6N3PAFSHEDe"
}