{
  "_id": "dweYWBNqUNcZWVlS",
  "flags": {},
  "type": 2,
  "text": "Yak",
  "img": "modules/pf-content/icons/spell218.png",
  "collection": "pf-content.pf-goods-services",
  "resultId": "NvuSfYNyQ9WI9lws",
  "weight": 1,
  "range": [
    129,
    129
  ],
  "drawn": false,
  "_key": "!tables.results!3UZQ2zknGEHIugG6.dweYWBNqUNcZWVlS"
}