{
  "_id": "lFpZ7KmvvLWxFcvL",
  "flags": {},
  "type": 2,
  "text": "Griffon Egg",
  "img": "icons/commodities/biological/eye-lizard-orange-red.webp",
  "collection": "pf-content.pf-goods-services",
  "resultId": "ZFdvNyKCmppYpFEI",
  "weight": 1,
  "range": [
    47,
    47
  ],
  "drawn": false,
  "_key": "!tables.results!3UZQ2zknGEHIugG6.lFpZ7KmvvLWxFcvL"
}