{
  "_id": "WJMFOEcbZiABxhlb",
  "flags": {},
  "type": 2,
  "text": "Traveler's Tome (Spellbook, Level 4 Transmuter)",
  "img": "icons/sundries/books/book-worn-brown.webp",
  "collection": "pf-content.pf-goods-services",
  "resultId": "tyf3QBuWaMnd2Hbk",
  "weight": 1,
  "range": [
    38,
    38
  ],
  "drawn": false,
  "_key": "!tables.results!Tjuc9e5QFBGutTob.WJMFOEcbZiABxhlb"
}