{
  "_id": "J3eSTGHgh3zkd3ib",
  "flags": {},
  "type": 2,
  "text": "Shark, Dire",
  "img": "icons/commodities/bones/bone-jaw-teeth-brown.webp",
  "collection": "pf-content.pf-goods-services",
  "resultId": "w3ApUeoyVUyMVMbP",
  "weight": 1,
  "range": [
    94,
    94
  ],
  "drawn": false,
  "_key": "!tables.results!3UZQ2zknGEHIugG6.J3eSTGHgh3zkd3ib"
}