{
  "_id": "J4NJC0WkGr1MN2lv",
  "flags": {},
  "type": 2,
  "text": "Greenscale",
  "img": "icons/commodities/biological/tail-scaled-green.webp",
  "collection": "pf-content.pf-maladies",
  "resultId": "Gn4sYgrI6e63OVrx",
  "weight": 1,
  "range": [
    38,
    38
  ],
  "drawn": false,
  "_key": "!tables.results!mRf6CmgMCEVQS3hh.J4NJC0WkGr1MN2lv"
}