{
  "_id": "N1FWhCeciDrglx2z",
  "flags": {},
  "type": 2,
  "text": "Owl, Great Horned",
  "img": "icons/commodities/treasure/figurine-owl.webp",
  "collection": "pf-content.pf-goods-services",
  "resultId": "nwHhrCKoVzi4eSfx",
  "weight": 1,
  "range": [
    74,
    74
  ],
  "drawn": false,
  "_key": "!tables.results!3UZQ2zknGEHIugG6.N1FWhCeciDrglx2z"
}