{
  "_id": "z983b79urqWbBkbI",
  "flags": {},
  "type": 2,
  "text": "Firegut",
  "img": "systems/pf1/icons/skills/red_30.jpg",
  "collection": "pf-content.pf-maladies",
  "resultId": "KEBeNYO3Tz7IYMhA",
  "weight": 1,
  "range": [
    31,
    31
  ],
  "drawn": false,
  "_key": "!tables.results!mRf6CmgMCEVQS3hh.z983b79urqWbBkbI"
}