{
  "_id": "GH57NbF83UBgCAX7",
  "flags": {},
  "type": 2,
  "text": "Outfit, Entertainer's",
  "img": "icons/equipment/chest/coat-collared-red-gold.webp",
  "collection": "pf-content.pf-items",
  "resultId": "pzkckUHX0tGnzIs3",
  "weight": 1,
  "range": [
    61,
    61
  ],
  "drawn": false,
  "_key": "!tables.results!ADxaiLgyJDP36l9E.GH57NbF83UBgCAX7"
}