{
  "_id": "MvR45dDQfkP7Nnpv",
  "flags": {},
  "type": 2,
  "text": "Porcupine",
  "img": "icons/commodities/bones/horns-pointed-grey.webp",
  "collection": "pf-content.pf-goods-services",
  "resultId": "kZhBAElBbxS133pX",
  "weight": 1,
  "range": [
    77,
    77
  ],
  "drawn": false,
  "_key": "!tables.results!3UZQ2zknGEHIugG6.MvR45dDQfkP7Nnpv"
}