{
  "_id": "LuDPTvtkYpX7yN7B",
  "flags": {},
  "type": 2,
  "text": "Skis and poles",
  "img": "icons/tools/fasteners/pin-round.webp",
  "collection": "pf-content.pf-items",
  "resultId": "k0iw5WxYZJv1d99K",
  "weight": 1,
  "range": [
    92,
    92
  ],
  "drawn": false,
  "_key": "!tables.results!ADxaiLgyJDP36l9E.LuDPTvtkYpX7yN7B"
}