{
  "_id": "9A9yFbBz6rX80K6B",
  "flags": {},
  "type": 2,
  "text": "Corentyn Wine",
  "img": "systems/pf1/icons/items/inventory/tankard-full.jpg",
  "collection": "pf-content.pf-goods-services",
  "resultId": "k2U9LuMrzTmXdAj9",
  "weight": 1,
  "range": [
    21,
    21
  ],
  "drawn": false,
  "_key": "!tables.results!Byp52tJLVqsoO7l5.9A9yFbBz6rX80K6B"
}