{
  "_id": "mUtaDkaKkThu0QFC",
  "flags": {},
  "type": 2,
  "text": "Blister Phage",
  "img": "icons/commodities/biological/pustules-brown.webp",
  "collection": "pf-content.pf-maladies",
  "resultId": "mh0137k391vRajqg",
  "weight": 1,
  "range": [
    5,
    5
  ],
  "drawn": false,
  "_key": "!tables.results!mRf6CmgMCEVQS3hh.mUtaDkaKkThu0QFC"
}