{
  "_id": "gyEjACdBjfIUXy2T",
  "flags": {},
  "type": 2,
  "text": "Whale, Blue",
  "img": "modules/pf-content/icons/spell780.png",
  "collection": "pf-content.pf-goods-services",
  "resultId": "WKxdqffhYiJyY6RB",
  "weight": 1,
  "range": [
    123,
    123
  ],
  "drawn": false,
  "_key": "!tables.results!3UZQ2zknGEHIugG6.gyEjACdBjfIUXy2T"
}