{
  "_id": "KVRoEgDXqMVpsZhM",
  "flags": {},
  "type": 2,
  "text": "Snuffbox (tin or wood)",
  "img": "icons/containers/boxes/crate-reinforced-brown.webp",
  "collection": "pf-content.pf-goods-services",
  "resultId": "oY82zNQzeSMcyEEo",
  "weight": 1,
  "range": [
    18,
    18
  ],
  "drawn": false,
  "_key": "!tables.results!8XhK4sPeRZOi2tsE.KVRoEgDXqMVpsZhM"
}