{
  "_id": "SEFoKIlaGdVtndHO",
  "flags": {},
  "type": 2,
  "text": "Seahorse, Giant",
  "img": "modules/pf-content/icons/spell780.png",
  "collection": "pf-content.pf-goods-services",
  "resultId": "nVtyYRH8S7TFzifh",
  "weight": 1,
  "range": [
    50,
    50
  ],
  "drawn": false,
  "_key": "!tables.results!PaivU8HqSJjyjprV.SEFoKIlaGdVtndHO"
}