{
  "_id": "TnbEr1EubZ37h71L",
  "flags": {},
  "type": 2,
  "text": "Fire-resistant boots",
  "img": "icons/equipment/feet/boots-collared-red.webp",
  "collection": "pf-content.pf-items",
  "resultId": "jbdM476Ig4szGWj5",
  "weight": 1,
  "range": [
    27,
    27
  ],
  "drawn": false,
  "_key": "!tables.results!ADxaiLgyJDP36l9E.TnbEr1EubZ37h71L"
}