{
  "_id": "TrXuJ2bLEwWBpu5q",
  "flags": {},
  "type": 2,
  "text": "Shattermind",
  "img": "icons/commodities/biological/organ-brain-pink.webp",
  "collection": "pf-content.pf-maladies",
  "resultId": "6P62VZcA2Q2Vk1Lo",
  "weight": 1,
  "range": [
    51,
    51
  ],
  "drawn": false,
  "_key": "!tables.results!mRf6CmgMCEVQS3hh.TrXuJ2bLEwWBpu5q"
}