{
  "_id": "SpZWlxrYAtumUtU3",
  "flags": {},
  "type": 2,
  "text": "Rat, Riding",
  "img": "systems/pf1/icons/races/ratfolk.png",
  "collection": "pf-content.pf-goods-services",
  "resultId": "Nty8J2BGqPAnbxn2",
  "weight": 1,
  "range": [
    39,
    39
  ],
  "drawn": false,
  "_key": "!tables.results!PaivU8HqSJjyjprV.SpZWlxrYAtumUtU3"
}