{
  "_id": "tNnirbOniEWwG6R1",
  "flags": {},
  "type": 2,
  "text": "Candlefish",
  "img": "icons/environment/creatures/fish-spotted-tan.webp",
  "collection": "pf-content.pf-goods-services",
  "resultId": "O86XOiNZc45z9zEl",
  "weight": 1,
  "range": [
    13,
    13
  ],
  "drawn": false,
  "_key": "!tables.results!Byp52tJLVqsoO7l5.tNnirbOniEWwG6R1"
}