{
  "_id": "fNeHlgXwcPOLXfi3",
  "flags": {},
  "type": 2,
  "text": "Anaconda, Giant",
  "img": "systems/pf1/icons/skills/green_21.jpg",
  "collection": "pf-content.pf-goods-services",
  "resultId": "n1KbJbHTKoZLsj9Q",
  "weight": 1,
  "range": [
    1,
    1
  ],
  "drawn": false,
  "_key": "!tables.results!3UZQ2zknGEHIugG6.fNeHlgXwcPOLXfi3"
}