{
  "_id": "9IIlTkreScmRzrti",
  "flags": {},
  "type": 2,
  "text": "Bat, Dire",
  "img": "icons/commodities/biological/wing-bat-pink.webp",
  "collection": "pf-content.pf-goods-services",
  "resultId": "uJWn9rzhZYy3Wvry",
  "weight": 1,
  "range": [
    9,
    9
  ],
  "drawn": false,
  "_key": "!tables.results!3UZQ2zknGEHIugG6.9IIlTkreScmRzrti"
}