{
  "_id": "xVFt40B2Qh02doAd",
  "flags": {},
  "type": 2,
  "text": "Glacier Plague",
  "img": "systems/pf1/icons/skills/ice_05.jpg",
  "collection": "pf-content.pf-maladies",
  "resultId": "fE6mDRHdIH1a5SWG",
  "weight": 1,
  "range": [
    35,
    35
  ],
  "drawn": false,
  "_key": "!tables.results!mRf6CmgMCEVQS3hh.xVFt40B2Qh02doAd"
}