{
  "_id": "nsJT7lVgAZrwcQvR",
  "flags": {},
  "type": 2,
  "text": "Roc (Combat-Trained)",
  "img": "icons/commodities/claws/claw-bird-pink.webp",
  "collection": "pf-content.pf-goods-services",
  "resultId": "Xd3PojCipTIOjfkp",
  "weight": 1,
  "range": [
    49,
    49
  ],
  "drawn": false,
  "_key": "!tables.results!PaivU8HqSJjyjprV.nsJT7lVgAZrwcQvR"
}