{
  "_id": "WHlrgXVAEUofYtl6",
  "flags": {},
  "type": 2,
  "text": "Horse (Pony, Combat Trained)",
  "img": "icons/environment/creatures/horse-brown.webp",
  "collection": "pf-content.pf-goods-services",
  "resultId": "KrqEoPn1H1dZ8ntY",
  "weight": 1,
  "range": [
    27,
    27
  ],
  "drawn": false,
  "_key": "!tables.results!PaivU8HqSJjyjprV.WHlrgXVAEUofYtl6"
}