{
  "_id": "AH3fxHYGFFMOfCaZ",
  "flags": {},
  "type": 2,
  "text": "Vulture",
  "img": "icons/commodities/bones/beak-hooked-red.webp",
  "collection": "pf-content.pf-goods-services",
  "resultId": "3Slx9aFqS2rO7jW9",
  "weight": 1,
  "range": [
    118,
    118
  ],
  "drawn": false,
  "_key": "!tables.results!3UZQ2zknGEHIugG6.AH3fxHYGFFMOfCaZ"
}