{
  "_id": "UQZhwGfI376VOGQB",
  "flags": {},
  "type": 2,
  "text": "Camel",
  "img": "icons/commodities/bones/hooves-cloven-brown.webp",
  "collection": "pf-content.pf-goods-services",
  "resultId": "2fVesihnx0PZKvlb",
  "weight": 1,
  "range": [
    7,
    7
  ],
  "drawn": false,
  "_key": "!tables.results!PaivU8HqSJjyjprV.UQZhwGfI376VOGQB"
}