{
  "_id": "j4VFNS7Ji8CuAvbG",
  "flags": {},
  "type": 2,
  "text": "Dog, Riding",
  "img": "icons/commodities/bones/bone-jaw-teeth-white.webp",
  "collection": "pf-content.pf-goods-services",
  "resultId": "5IlVNrRgZYjVxSh6",
  "weight": 1,
  "range": [
    10,
    10
  ],
  "drawn": false,
  "_key": "!tables.results!PaivU8HqSJjyjprV.j4VFNS7Ji8CuAvbG"
}