{
  "_id": "DgMwaoNWCF9XoRH3",
  "flags": {},
  "type": 2,
  "text": "Snail Kite",
  "img": "icons/environment/creatures/crustacean-mollusk-yellow.webp",
  "collection": "pf-content.pf-goods-services",
  "resultId": "HmdKiOfnnIovyjHX",
  "weight": 1,
  "range": [
    96,
    96
  ],
  "drawn": false,
  "_key": "!tables.results!3UZQ2zknGEHIugG6.DgMwaoNWCF9XoRH3"
}