{
  "_id": "OmG6D9M4cRrUlthD",
  "flags": {},
  "type": 2,
  "text": "Bog Rot",
  "img": "icons/commodities/biological/suckers-green.webp",
  "collection": "pf-content.pf-maladies",
  "resultId": "lAxyQ2HB1ji9ZyRq",
  "weight": 1,
  "range": [
    9,
    9
  ],
  "drawn": false,
  "_key": "!tables.results!mRf6CmgMCEVQS3hh.OmG6D9M4cRrUlthD"
}