{
  "_id": "E8ObPXC8zOHOQVds",
  "flags": {},
  "type": 2,
  "text": "Griffon (Combat Trained)",
  "img": "icons/commodities/materials/feather-orange.webp",
  "collection": "pf-content.pf-goods-services",
  "resultId": "jPOFJwoy44D7IFkL",
  "weight": 1,
  "range": [
    19,
    19
  ],
  "drawn": false,
  "_key": "!tables.results!PaivU8HqSJjyjprV.E8ObPXC8zOHOQVds"
}