{
  "_id": "nXX3uWdPcBFwRcEK",
  "flags": {},
  "type": 2,
  "text": "Hat",
  "img": "icons/equipment/head/hat-belted-simple-brown.webp",
  "collection": "pf-content.pf-items",
  "resultId": "rxVwb3aTw2GdVQ2w",
  "weight": 1,
  "range": [
    32,
    32
  ],
  "drawn": false,
  "_key": "!tables.results!ADxaiLgyJDP36l9E.nXX3uWdPcBFwRcEK"
}