{
  "_id": "2kxvBVsxMdj912PN",
  "flags": {},
  "type": 2,
  "text": "Dvezda Plague",
  "img": "systems/pf1/icons/skills/blood_09.jpg",
  "collection": "pf-content.pf-maladies",
  "resultId": "seGEx0gymT7zJ755",
  "weight": 1,
  "range": [
    25,
    25
  ],
  "drawn": false,
  "_key": "!tables.results!mRf6CmgMCEVQS3hh.2kxvBVsxMdj912PN"
}