{
  "_id": "YfWxuu9elyAP52jE",
  "flags": {},
  "type": 2,
  "text": "Gar, Giant",
  "img": "icons/environment/creatures/fish-spotted-blue-grey.webp",
  "collection": "pf-content.pf-goods-services",
  "resultId": "xderks5DXX45qail",
  "weight": 1,
  "range": [
    43,
    43
  ],
  "drawn": false,
  "_key": "!tables.results!3UZQ2zknGEHIugG6.YfWxuu9elyAP52jE"
}