{
  "_id": "qHDGbunxYPVCbKO3",
  "flags": {},
  "type": 2,
  "text": "Outfit, Monk's",
  "img": "icons/equipment/hand/glove-tooled-leather-brown.webp",
  "collection": "pf-content.pf-items",
  "resultId": "XBvXND5wh6w2mzK9",
  "weight": 1,
  "range": [
    66,
    66
  ],
  "drawn": false,
  "_key": "!tables.results!ADxaiLgyJDP36l9E.qHDGbunxYPVCbKO3"
}