{
  "_id": "krAFHklW5rV2PUj9",
  "flags": {},
  "type": 2,
  "text": "Hippocampus",
  "img": "icons/environment/creatures/starfish-red.webp",
  "collection": "pf-content.pf-goods-services",
  "resultId": "MB4WhAX4lVi7A5AC",
  "weight": 1,
  "range": [
    20,
    20
  ],
  "drawn": false,
  "_key": "!tables.results!PaivU8HqSJjyjprV.krAFHklW5rV2PUj9"
}