{
  "_id": "i28ON82Ev2TxrIjg",
  "flags": {},
  "type": 2,
  "text": "Inside pocket",
  "img": "icons/commodities/cloth/cloth-green-folded.webp",
  "collection": "pf-content.pf-items",
  "resultId": "XYfrbAAvzBYwj2Qn",
  "weight": 1,
  "range": [
    38,
    38
  ],
  "drawn": false,
  "_key": "!tables.results!ADxaiLgyJDP36l9E.i28ON82Ev2TxrIjg"
}