{
  "_id": "tNBqOBjV9fuWROy2",
  "flags": {},
  "type": 2,
  "text": "Vehicle, Ship's boat",
  "img": "icons/tools/nautical/steering-wheel.webp",
  "collection": "pf-content.pf-goods-services",
  "resultId": "Juek2SEnBa2iILUe",
  "weight": 1,
  "range": [
    7,
    7
  ],
  "drawn": false,
  "_key": "!tables.results!seyXQZKq3dBHntln.tNBqOBjV9fuWROy2"
}