{
  "_id": "dxadRnTXTySrlox5",
  "flags": {},
  "type": 2,
  "text": "Hyena",
  "img": "icons/commodities/bones/bone-jaw-teeth-white.webp",
  "collection": "pf-content.pf-goods-services",
  "resultId": "vCr9WMXxKESSfjso",
  "weight": 1,
  "range": [
    51,
    51
  ],
  "drawn": false,
  "_key": "!tables.results!3UZQ2zknGEHIugG6.dxadRnTXTySrlox5"
}