{
  "_id": "zmnnBhQ18h0SLDxq",
  "flags": {},
  "type": 2,
  "text": "Frilled Lizard, Giant (Combat-Trained)",
  "img": "systems/pf1/icons/skills/red_20.jpg",
  "collection": "pf-content.pf-goods-services",
  "resultId": "tsssKxqSKYtdQ4Le",
  "weight": 1,
  "range": [
    16,
    16
  ],
  "drawn": false,
  "_key": "!tables.results!PaivU8HqSJjyjprV.zmnnBhQ18h0SLDxq"
}