{
  "_id": "Mri5y8MutFNmrOqO",
  "flags": {},
  "type": 2,
  "text": "Grandfather's Legacy (Spellbook, Level 14 Necromancer)",
  "img": "icons/sundries/books/book-worn-brown.webp",
  "collection": "pf-content.pf-goods-services",
  "resultId": "37T18ONzaPM53jJN",
  "weight": 1,
  "range": [
    13,
    13
  ],
  "drawn": false,
  "_key": "!tables.results!Tjuc9e5QFBGutTob.Mri5y8MutFNmrOqO"
}