{
  "_id": "XDDCn8E2R3kVpleT",
  "flags": {},
  "type": 2,
  "text": "Tiger",
  "img": "modules/pf-content/icons/spell251.png",
  "collection": "pf-content.pf-goods-services",
  "resultId": "TBEpFQvIoKShuOUx",
  "weight": 1,
  "range": [
    51,
    51
  ],
  "drawn": false,
  "_key": "!tables.results!PaivU8HqSJjyjprV.XDDCn8E2R3kVpleT"
}