{
  "_id": "ANpmqN05QpUaXhMj",
  "flags": {},
  "type": 0,
  "text": "Other disadvantage, or roll again twice",
  "img": "icons/svg/d20-black.svg",
  "resultId": "",
  "weight": 1,
  "range": [
    96,
    100
  ],
  "drawn": false,
  "_key": "!tables.results!RIGr93REDsLdpG3K.ANpmqN05QpUaXhMj"
}