{
  "_id": "RO7TzX2LIeLF8Ui8",
  "flags": {},
  "type": 2,
  "text": "Sangwine",
  "img": "systems/pf1/icons/items/inventory/flask.jpg",
  "collection": "pf-content.pf-goods-services",
  "resultId": "qTlfAKunvhFpn9Qx",
  "weight": 1,
  "range": [
    56,
    56
  ],
  "drawn": false,
  "_key": "!tables.results!Byp52tJLVqsoO7l5.RO7TzX2LIeLF8Ui8"
}