{
  "_id": "3djOnPSr3jIpT3hR",
  "flags": {},
  "type": 0,
  "text": "Male dwarf paladin",
  "img": "icons/svg/d20-black.svg",
  "resultId": null,
  "weight": 1,
  "range": [
    22,
    22
  ],
  "drawn": false,
  "collection": null,
  "rangeL": 22,
  "rangeH": 22,
  "_key": "!tables.results!RhHKMdXujgduoqcm.3djOnPSr3jIpT3hR"
}