{
  "_id": "eGrxFC9wKJ11ETbl",
  "flags": {},
  "type": 2,
  "text": "Green Haze",
  "img": "systems/pf1/icons/feats/blind-fight.jpg",
  "collection": "pf-content.pf-maladies",
  "resultId": "kZcU0aRWIzP19ZIQ",
  "weight": 1,
  "range": [
    37,
    37
  ],
  "drawn": false,
  "_key": "!tables.results!mRf6CmgMCEVQS3hh.eGrxFC9wKJ11ETbl"
}