{
  "_id": "hs7JRtcZhhSASdcb",
  "flags": {},
  "type": 2,
  "text": "Journal of the Beast Within (Formula Book, Level 10 Alchemist)",
  "img": "icons/sundries/books/book-worn-brown.webp",
  "collection": "pf-content.pf-goods-services",
  "resultId": "ieXhPgHayv5vDHRm",
  "weight": 1,
  "range": [
    17,
    17
  ],
  "drawn": false,
  "_key": "!tables.results!Tjuc9e5QFBGutTob.hs7JRtcZhhSASdcb"
}