{
  "_id": "j3g49t3HQ8EJB66s",
  "flags": {},
  "type": 2,
  "text": "Kit, Midwife's",
  "img": "icons/containers/chest/chest-simple-box-red.webp",
  "collection": "pf-content.pf-items",
  "resultId": "n3dYy51M7kfQJldW",
  "weight": 1,
  "range": [
    16,
    16
  ],
  "drawn": false,
  "_key": "!tables.results!s5Uknh2Kz8QcTZvX.j3g49t3HQ8EJB66s"
}