{
  "_id": "EtKdJI3MeYahX7N9",
  "flags": {},
  "type": 0,
  "text": "Desert: Duststorm",
  "img": "icons/svg/d20-black.svg",
  "resultId": "",
  "weight": 1,
  "range": [
    81,
    90
  ],
  "drawn": false,
  "_key": "!tables.results!5pBOddtATtKDtPzE.EtKdJI3MeYahX7N9"
}