{
  "_id": "vz7TpMLTwtG02p9W",
  "flags": {},
  "type": 2,
  "text": "Caul",
  "img": "icons/equipment/head/hood-cloth-pink-red.webp",
  "collection": "pf-content.pf-items",
  "resultId": "Bd9aAOp4dnzBznJ6",
  "weight": 1,
  "range": [
    4,
    4
  ],
  "drawn": false,
  "_key": "!tables.results!ADxaiLgyJDP36l9E.vz7TpMLTwtG02p9W"
}