{
  "_id": "wL2nFy79Cx2MRHJD",
  "flags": {},
  "type": 2,
  "text": "Street Meat",
  "img": "systems/pf1/icons/items/inventory/meat.jpg",
  "collection": "pf-content.pf-goods-services",
  "resultId": "68qRcBwh6PjKkMhJ",
  "weight": 1,
  "range": [
    61,
    61
  ],
  "drawn": false,
  "_key": "!tables.results!Byp52tJLVqsoO7l5.wL2nFy79Cx2MRHJD"
}