{
  "_id": "cnV4AljDvhI0UhgP",
  "flags": {},
  "type": 2,
  "text": "Squid, Giant",
  "img": "icons/environment/creatures/cephalopod-squid-pale-pink.webp",
  "collection": "pf-content.pf-goods-services",
  "resultId": "ciTmKuBExys63XUf",
  "weight": 1,
  "range": [
    102,
    102
  ],
  "drawn": false,
  "_key": "!tables.results!3UZQ2zknGEHIugG6.cnV4AljDvhI0UhgP"
}