{
  "_id": "da0AzqI5ReXnQq6H",
  "flags": {},
  "type": 2,
  "text": "Scavenger Beetle Colony",
  "img": "icons/environment/creatures/bug-beetle-gold-green.webp",
  "collection": "pf-content.pf-goods-services",
  "resultId": "sdR6vIQYqeXTeag8",
  "weight": 1,
  "range": [
    89,
    89
  ],
  "drawn": false,
  "_key": "!tables.results!3UZQ2zknGEHIugG6.da0AzqI5ReXnQq6H"
}