{
  "_id": "aUFjx8vX3McRelLQ",
  "flags": {},
  "type": 2,
  "text": "Elk (Combat-Trained)",
  "img": "icons/commodities/bones/horn-antler-tan.webp",
  "collection": "pf-content.pf-goods-services",
  "resultId": "3fodIIuqy3NvW9GG",
  "weight": 1,
  "range": [
    14,
    14
  ],
  "drawn": false,
  "_key": "!tables.results!PaivU8HqSJjyjprV.aUFjx8vX3McRelLQ"
}