{
  "_id": "NQKg2wLWKH2fIhvd",
  "flags": {},
  "type": 0,
  "text": "Whiteout: heavy snow, causing visibility problems",
  "img": "icons/svg/d20-black.svg",
  "resultId": "",
  "weight": 1,
  "range": [
    99,
    100
  ],
  "drawn": false,
  "_key": "!tables.results!6WRlNx5FRj1sg477.NQKg2wLWKH2fIhvd"
}