{
  "_id": "3n0pujs6dJsc47gU",
  "flags": {},
  "type": 2,
  "text": "Bear, Grizzly",
  "img": "icons/commodities/claws/claw-bear-brown.webp",
  "collection": "pf-content.pf-goods-services",
  "resultId": "U99QRGqg180nSk7K",
  "weight": 1,
  "range": [
    11,
    11
  ],
  "drawn": false,
  "_key": "!tables.results!3UZQ2zknGEHIugG6.3n0pujs6dJsc47gU"
}