{
  "_id": "HCVCUCrBdNDUvZp8",
  "flags": {},
  "type": 2,
  "text": "Unamed Journal (Spellbook, Level 3 Universalist)",
  "img": "icons/sundries/books/book-worn-brown.webp",
  "collection": "pf-content.pf-goods-services",
  "resultId": "GhkOX8kJYqGeBEX4",
  "weight": 1,
  "range": [
    39,
    39
  ],
  "drawn": false,
  "_key": "!tables.results!Tjuc9e5QFBGutTob.HCVCUCrBdNDUvZp8"
}