{
  "_id": "ru8E5jtgcthYewBU",
  "flags": {},
  "type": 2,
  "text": "Outfit, Flame-retardant",
  "img": "icons/equipment/chest/breastplate-rivited-red.webp",
  "collection": "pf-content.pf-items",
  "resultId": "suRJ3V0o8xA4JeDY",
  "weight": 1,
  "range": [
    64,
    64
  ],
  "drawn": false,
  "_key": "!tables.results!ADxaiLgyJDP36l9E.ru8E5jtgcthYewBU"
}