{
  "_id": "ocJqPaThQTL3v6OA",
  "flags": {},
  "type": 2,
  "text": "Bat",
  "img": "icons/commodities/biological/wing-bat-pink.webp",
  "collection": "pf-content.pf-goods-services",
  "resultId": "oOqXzlMKYhSCDfw6",
  "weight": 1,
  "range": [
    8,
    8
  ],
  "drawn": false,
  "_key": "!tables.results!3UZQ2zknGEHIugG6.ocJqPaThQTL3v6OA"
}