{
  "_id": "3g1uUBpnhRhwQ6p5",
  "flags": {},
  "type": 2,
  "text": "Doctor's mask",
  "img": "icons/equipment/head/mask-plague-grey.webp",
  "collection": "pf-content.pf-items",
  "resultId": "pq1lbi14wmjO8wU0",
  "weight": 1,
  "range": [
    19,
    19
  ],
  "drawn": false,
  "_key": "!tables.results!ADxaiLgyJDP36l9E.3g1uUBpnhRhwQ6p5"
}