{
  "_id": "xdCbwIQYsJKLRuy3",
  "flags": {},
  "type": 2,
  "text": "Hedgehog",
  "img": "icons/sundries/misc/pet-collar-blue.webp",
  "collection": "pf-content.pf-goods-services",
  "resultId": "PKYHT1E6rZqmmWkN",
  "weight": 1,
  "range": [
    49,
    49
  ],
  "drawn": false,
  "_key": "!tables.results!3UZQ2zknGEHIugG6.xdCbwIQYsJKLRuy3"
}