{
  "_id": "CDNIMuk4UbNQ7sZZ",
  "flags": {},
  "type": 2,
  "text": "Manuscript of Jack Were-son (Spellbook, Level 10 Universalist)",
  "img": "icons/sundries/books/book-worn-brown.webp",
  "collection": "pf-content.pf-goods-services",
  "resultId": "AZNzmyPEGvDFWhtD",
  "weight": 1,
  "range": [
    22,
    22
  ],
  "drawn": false,
  "_key": "!tables.results!Tjuc9e5QFBGutTob.CDNIMuk4UbNQ7sZZ"
}