{
  "_id": "eiGZwCSUSsO9jNi1",
  "flags": {},
  "type": 2,
  "text": "Slimy Doom",
  "img": "icons/commodities/materials/liquid-green.webp",
  "collection": "pf-content.pf-maladies",
  "resultId": "mmijPqbro33qoVXV",
  "weight": 1,
  "range": [
    54,
    54
  ],
  "drawn": false,
  "_key": "!tables.results!mRf6CmgMCEVQS3hh.eiGZwCSUSsO9jNi1"
}