{
  "name": "Books",
  "img": "icons/sundries/books/book-embossed-gold-red.webp",
  "description": "Table for Dungeon Guides and Pathfinder Chronicles.",
  "results": [
    "3RU3enuyPDP78Cwq",
    "JSQBDcAXqgSu8uXu",
    "NbY9Tp5AL8FKys8t",
    "9Sy5rqpK3n7Eiheu",
    "1ypUCdHXFrULnisn",
    "UBUGAhCVyXPcV0y2",
    "4Br6oagafWSgOnU2",
    "6YE0K10g3OaLIUQq",
    "i14z7HeB7vpHw7nx",
    "m6tc3Iq2kocH3QgZ"
  ],
  "formula": "1d10",
  "replacement": true,
  "displayRoll": true,
  "_id": "VYqRGAODLl8qzdrl",
  "_key": "!tables!VYqRGAODLl8qzdrl"
}