{
  "_id": "BAYcBVgoOqK5tB8w",
  "name": "Horror Adventures: Panicked",
  "img": "systems/pf1/icons/skills/affliction_05.jpg",
  "description": "d% Result",
  "results": [
    "ANpmqN05QpUaXhMj",
    "ANpmqN05QpUaXhMj",
    "ANpmqN05QpUaXhMj",
    "ANpmqN05QpUaXhMj"
  ],
  "formula": "1d100 + 0",
  "replacement": true,
  "displayRoll": true,
  "_key": "!tables!BAYcBVgoOqK5tB8w"
}