{
  "name": "Pets",
  "img": "systems/pf1/icons/skills/emerald_05.jpg",
  "description": "",
  "results": [
    "fNeHlgXwcPOLXfi3",
    "w10csbMu23Nqbyhl",
    "wWiY1oQRjQq59RLu",
    "ifD8kPvweo4bJ0ox",
    "5C4wo7CcMAUBwZu6",
    "iHp8D5HfgS0QgQRO",
    "RG99VFCwJrBIQ3Tj",
    "ocJqPaThQTL3v6OA",
    "9IIlTkreScmRzrti",
    "qpnrrxH9loSyjtZU",
    "3n0pujs6dJsc47gU",
    "Dg3SuuguYKImHyfN",
    "TIVLmPxR8TQk6QHR",
    "nwnl5WaFYbI9QQkP",
    "VLJgFaqGV8qMjtI6",
    "FGY4q8GWOutyA9hi",
    "flltQRBDtkOR26oZ",
    "mfHUtu5Z4rWAKzqb",
    "dsfuslGZJJKik9Z9",
    "RodnmqOtSHDSMTtX",
    "dAm2RSSCtXTmZjGR",
    "4ZlSgQCilaPJ2fwY",
    "fhGoqFi00pSvGx3R",
    "peNrqoUwYPbP8I7L",
    "gvtCuS7MTJPpoeCX",
    "LgckDkaiUSr6u4kc",
    "bGGCocOfVZoY4uIc",
    "8GzijyIBx6V8WjtP",
    "RRD7APEcZY5ulfnN",
    "RJhITkQnCajyFb5A",
    "5bTD2FU6LYb3CvLx",
    "hyZ07SjkdkaBZQEu",
    "ue1giKDQ7zZOAjFU",
    "7equB9qrGAfbZT47",
    "ZtbYbffgxO4Z5sSe",
    "sQRBL69BEK0Bipvj",
    "1TkFLVqdRF2jkdYG",
    "sp3Q0R18Ob5Q6rxq",
    "DXZTUCsjeiX2qBXj",
    "KqVFzAD8CXXedSmL",
    "GlohJI5z6r15K7sK",
    "E06Fnx3HYdpN9ihY",
    "YfWxuu9elyAP52jE",
    "LlfGRs71t7VpRZ9H",
    "Ofwnj7zJyRRXizMC",
    "mzBwt8ihNzaxFCnx",
    "lFpZ7KmvvLWxFcvL",
    "AFQdcN6SWQzePozF",
    "xdCbwIQYsJKLRuy3",
    "hZSo02meQJrFCLTl",
    "dxadRnTXTySrlox5",
    "U2jxBwv3sRY5xwAY",
    "7F76Mbh2116Kmx4m",
    "VbrPdipHKpuqY0bO",
    "yK7GBZ1c7T68AaMG",
    "UVxJNUCwfjFt1Q4f",
    "sMrh0YOhmLcBWT8J",
    "rwA8AU5hBjOeDjKU",
    "TwzsmHXu3vhz6wIy",
    "AeZ01c6CBs1grP2h",
    "bvrKx4BN7cZZUsES",
    "ZNecOspj6WwoxXiK",
    "5gVWCGO4tQYMpcYT",
    "yoPFl7j0MDRG2ZEo",
    "EEeLbZ0zmvVNa0gy",
    "u2PyRiulJhNtMRST",
    "tYm40l7SMQUxtSY3",
    "wTZJNPVW2khIl5I6",
    "zumCDLhV8pd7oMC9",
    "iHunZDQemgqt8VQV",
    "swnrWvRAfDdBWAq0",
    "FkOsUzQOqRaSbGBj",
    "Ize7OVW8v8ZPRw3g",
    "N1FWhCeciDrglx2z",
    "aGubA6hbXrzcYGyw",
    "ITCGgsceKocbAB2U",
    "MvR45dDQfkP7Nnpv",
    "6ro23m6n2uQw1gJs",
    "GvFBUKMwUsRycneQ",
    "16ug9BsNyPE1fajk",
    "cTenh4MtvSGwde92",
    "HIIADJERSwbYgZ4N",
    "7yWzWbtJrCZB7zOt",
    "otDmD1modsMSlpO8",
    "Xdc8Yb53zn1rotFP",
    "Gh2ZfTEWDpZtmRLM",
    "xIhpYFuWqj9QGdLb",
    "edTfVIRodpCRd1Q9",
    "da0AzqI5ReXnQq6H",
    "J1IAvCqsdO8IIlTC",
    "LedFApcggDKtG3GO",
    "23QW8LdHnNSFQCej",
    "wK26bqJkjojN5eO2",
    "J3eSTGHgh3zkd3ib",
    "rZ3xer7nSLOzEd2t",
    "DgMwaoNWCF9XoRH3",
    "ltnFo4PGprfLmVaf",
    "ipZvxc30KaWZJPx4",
    "JHVNyZHaVdDrh3xi",
    "uELjjY4w2jMdETla",
    "UKdHRXWCSAp6vJnM",
    "cnV4AljDvhI0UhgP",
    "q5MaOzPn58ewkrj4",
    "RdnmQS23zixgqlj3",
    "V3kVtMqHL5E2YwNy",
    "JGvhSqRdEg0AutR5",
    "58Aij5LzYvDU1fOx",
    "WBn2ryvw7HHYTlNO",
    "L10DrpK9Tf9CVJEH",
    "Msg5Yr46T2zThIrU",
    "aB7ZvpMWfPJ2sn6C",
    "HhiMkHzyDWPvp6Qn",
    "uudQb9iuOSk4Ji41",
    "TLcSRYk2lIuwpi7s",
    "AE5oHQ7ovtGV0bss",
    "B1VZkdBL5oQQvnsX",
    "09llGEPAjq8bxF56",
    "AH3fxHYGFFMOfCaZ",
    "0dAfpNtgS2vMEr3a",
    "auTOLhH8wfoEZcKl",
    "c6g89VUaCEpzFaPx",
    "HqCqPycEaVIsmsld",
    "gyEjACdBjfIUXy2T",
    "kBXaIQOPQqBU6XX4",
    "dPjKqN9m43g5sLJ1",
    "t8lOwJQCpqa0J62b",
    "XnotptjNtySSQYez",
    "5tvvZr5TBPsr1yK6",
    "dweYWBNqUNcZWVlS"
  ],
  "formula": "1d129",
  "replacement": true,
  "displayRoll": true,
  "_id": "3UZQ2zknGEHIugG6",
  "_key": "!tables!3UZQ2zknGEHIugG6"
}