{
  "name": "Tailor",
  "img": "icons/commodities/cloth/cloth-rolls-rgb.webp",
  "description": "",
  "results": [
    "N4fpU0q7tttfdK6L",
    "RiUIUA1bfiMSkUBD",
    "mXQ7SAZhYR9aCHr1",
    "vz7TpMLTwtG02p9W",
    "NOEKAuIjVhHk9mO8",
    "zMuVpoWP4EKGXhTV",
    "xyZchfthLU92FMDa",
    "4DX6IFGNy79veQbR",
    "TATetoD2pYFOgAjb",
    "TCgSKTeZMj8dUNu8",
    "cOfvROfSNeCwq7N4",
    "CxPEkYJnZZ903VDU",
    "E1xLOj6nJWwIdTjw",
    "isalvVX8oQzewSNT",
    "rqzOwhRfJsw1HAEa",
    "gHa5XR7JlzWRMF5W",
    "wuPoOfB6yUoQQc2H",
    "mrNNVuK9b5LEQ9Vf",
    "3g1uUBpnhRhwQ6p5",
    "UFXdxkaUmxF9RBHT",
    "q2dHQ9yBM4dHwoe5",
    "PRfs1JQ6SxNhVmZJ",
    "1oavzlom9505EXse",
    "8soPkn6b66W3WpE4",
    "FGBOykwRAnxwdeS3",
    "egXoaK7nnr3xsIBk",
    "TnbEr1EubZ37h71L",
    "orqcks1MliWH0xm1",
    "IUXULMh29bjZLIHD",
    "IttnQZxI5Ejobq6L",
    "1xNBml257HeHNQtR",
    "nXX3uWdPcBFwRcEK",
    "52ihxzy1aZrcEWOi",
    "lhv0S6wWyxaUw9Lj",
    "Ogph6n2Ucstf5esn",
    "yVubBN3UvwCYwQSc",
    "zQoLOe886DUjb7e6",
    "i28ON82Ev2TxrIjg",
    "tMY7kUQsZjXueDs5",
    "sECUwHn4QMbQMvIl",
    "HjtPHDdOw4rYwHJJ",
    "Ifxqrwjjm9fauUTd",
    "0LQrVxFKN5nIUCzY",
    "XqfaHTIU7ETvDR98",
    "nClVsDgDwjuKXErt",
    "lRbE0nf8ImCK5tTT",
    "YwGqWSiuVeJwIkTc",
    "NZpiXrSfG2vkivos",
    "VVJ1xQble6X6G3eC",
    "lLBOvJ554llBjopw",
    "FdFj0HPNq1GXvwGq",
    "Vlgsy7x4Rl3GFmsa",
    "qCIpDOkvpIB5T3Tm",
    "uPPomIM0lymvnAoF",
    "htzAolXzx4YxXCXe",
    "932UrSBqfWbOrPHU",
    "kB3pVLrg7DqYQLA2",
    "oa6dPOZtRMMTDMqb",
    "d3gbdj7WjXBi35pv",
    "2QFQh6N3PAFSHEDe",
    "GH57NbF83UBgCAX7",
    "ZrzOe8uROEHN9M8o",
    "6SU49xAEtU9t819E",
    "ru8E5jtgcthYewBU",
    "GaB353QDeU9j756L",
    "qHDGbunxYPVCbKO3",
    "komyasaFPbRpMErF",
    "GfYJElEnXSKaMc10",
    "r5X8IKd2KekyIsyr",
    "fo0UEUwmn3GfX4i8",
    "0l5lyf0rghI3G31b",
    "eyZ710dSR7qTSZxR",
    "ApPvnGqS8iwZm2nd",
    "EUPrV1uTyWojopkN",
    "nqxNN031cMH6BIfS",
    "Uk7EgdsfgZJSYvte",
    "GDxLZdUxtT4G7aJG",
    "NVHQyx66VAJ7JFLL",
    "xlevaCJPeF16dE62",
    "F5HpAe9BRIn4ZsEL",
    "A9sVj4YkGe9iHfhP",
    "zyJeeBUmGe64SmiN",
    "72HKr67SdP3hJC4c",
    "gYarGBKuIiLxnIYx",
    "XJ4mAwJHXAsAuupG",
    "AfCqLqWgOTvtWRZK",
    "5rPdL87dAj8MFZm7",
    "hyGphhsXnwDdINB1",
    "Vhka13HKjzHayGE5",
    "S91xlAaIKs30vkHW",
    "h1F0SYFwVsHHm8xH",
    "LuDPTvtkYpX7yN7B",
    "RvaWBK5MRIm5P7UK",
    "acoEc43LfFyJ81n5",
    "2Z3JE9y3jghcJR6D",
    "atb1NZTXbioHMLqF",
    "bgKo6XArhX7Bjub9",
    "nVwOjuJCrpCDrrTE",
    "XqxU56KoApxkJyvB",
    "d04xPWQDgspHnh1W",
    "14KoapWMKiGJHXdq",
    "rsfrcfwFLM6HFPGH",
    "eqIFOzz4VAzi76k4",
    "8mRbdZJreaeR4hF4",
    "obetOJjwUJNXAC2n",
    "InGFHlWO2hVxLuRe",
    "66hofPbsbGYRqk5P",
    "l2zOzgZzN5uPEg3Q",
    "KbWlgxHgjKbYdZef",
    "lKnyFYJwBPlKauTQ",
    "BMl3PKuZ4DhS8MJc",
    "f3QL5oRnKA0ne0Vx",
    "Zsb2HLUEcNID30hJ",
    "8buVYAmrhXpOSqDW",
    "wpSTq2TReLj3I7Vc",
    "k8NimsNZjCAKLxgO"
  ],
  "formula": "1d115",
  "replacement": true,
  "displayRoll": true,
  "_id": "ADxaiLgyJDP36l9E",
  "_key": "!tables!ADxaiLgyJDP36l9E"
}