{
  "_id": "VGSWU72oLQMwLkLX",
  "flags": {},
  "type": 2,
  "text": "3.4.1.05 Building Demand (Settlement, continuous)",
  "img": "icons/svg/d20-black.svg",
  "collection": "pf-content.kingdom-building-gm",
  "resultId": "QKfICzhcffsduKN9",
  "weight": 1,
  "range": [
    1,
    10
  ],
  "drawn": false,
  "_key": "!tables.results!9tX12naUdZshO3aa.VGSWU72oLQMwLkLX"
}