{
  "_id": "4LFCiUOIMyFxKDls",
  "flags": {},
  "type": 2,
  "text": "3.4.1.17. Improvement Demand (Hex, continuous)",
  "img": "icons/svg/d20-black.svg",
  "collection": "pf-content.kingdom-building-gm",
  "resultId": "iN1Od1aBthQRxFmf",
  "weight": 1,
  "range": [
    42,
    51
  ],
  "drawn": false,
  "_key": "!tables.results!bfkzFNAydISvXwFt.4LFCiUOIMyFxKDls"
}