{
  "_id": "Dc78HcXTCAZtSU0k",
  "flags": {},
  "type": 2,
  "text": "3.4.1.01. Archaeological Find",
  "img": "icons/svg/d20-black.svg",
  "collection": "pf-content.kingdom-building-gm",
  "resultId": "Xx6B4bCcA83pTAul",
  "weight": 1,
  "range": [
    1,
    7
  ],
  "drawn": false,
  "_key": "!tables.results!Uuw8mTAG60CS6lLa.Dc78HcXTCAZtSU0k"
}