{
  "_id": "oqTDmGLgM27Lj3um",
  "flags": {},
  "type": 2,
  "text": "3.4.1.24. Natural Blessing",
  "img": "icons/svg/d20-black.svg",
  "collection": "pf-content.kingdom-building-gm",
  "resultId": "jakGRebNwLqn7q28",
  "weight": 1,
  "range": [
    1,
    2
  ],
  "drawn": false,
  "_key": "!tables.results!auJYpJlk9F8khLvm.oqTDmGLgM27Lj3um"
}