{
  "_id": "N1W6Oy1fsO3D3wpm",
  "flags": {},
  "type": 2,
  "text": "3.4.1.18. Inquisition (settlement, continuous)",
  "img": "icons/svg/d20-black.svg",
  "collection": "pf-content.kingdom-building-gm",
  "resultId": "77A98mr323ImXmFm",
  "weight": 1,
  "range": [
    52,
    59
  ],
  "drawn": false,
  "_key": "!tables.results!bfkzFNAydISvXwFt.N1W6Oy1fsO3D3wpm"
}