{
  "_id": "OmfToAmcMLcR4T7G",
  "flags": {},
  "type": 2,
  "text": "3.4.1.12. Festive Invitation",
  "img": "icons/svg/d20-black.svg",
  "collection": "pf-content.kingdom-building-gm",
  "resultId": "FxIBQyYRHccumcmd",
  "weight": 1,
  "range": [
    32,
    39
  ],
  "drawn": false,
  "_key": "!tables.results!Uuw8mTAG60CS6lLa.OmfToAmcMLcR4T7G"
}