{
  "_id": "zcYSgdy9o7OnBZtZ",
  "flags": {},
  "type": 2,
  "text": "3.4.1.23. Monster Attack (Settlement, continuous)",
  "img": "icons/svg/d20-black.svg",
  "collection": "pf-content.kingdom-building-gm",
  "resultId": "Bqz6j1762qPFKBNd",
  "weight": 1,
  "range": [
    65,
    76
  ],
  "drawn": false,
  "_key": "!tables.results!bfkzFNAydISvXwFt.zcYSgdy9o7OnBZtZ"
}