{
  "_id": "zqg86NB5GeKanYSu",
  "flags": {},
  "type": 2,
  "text": "3.4.1.25. New Subjects",
  "img": "icons/svg/d20-black.svg",
  "collection": "pf-content.kingdom-building-gm",
  "resultId": "b9bpmicrXFSFRr8F",
  "weight": 1,
  "range": [
    86,
    90
  ],
  "drawn": false,
  "_key": "!tables.results!Uuw8mTAG60CS6lLa.zqg86NB5GeKanYSu"
}