{
  "_id": "OKnAv0VJ8KVrnfVj",
  "flags": {},
  "type": 2,
  "text": "3.4.1.10. Drug Den (Settlement, continuous)",
  "img": "icons/svg/d20-black.svg",
  "collection": "pf-content.kingdom-building-gm",
  "resultId": "4VCXDrSsUUsMFCyQ",
  "weight": 1,
  "range": [
    26,
    33
  ],
  "drawn": false,
  "_key": "!tables.results!9tX12naUdZshO3aa.OKnAv0VJ8KVrnfVj"
}