{
  "_id": "bKmMrXeKEvPu7Hp7",
  "flags": {},
  "type": 2,
  "text": "3.4.1.24. Natural Blessing",
  "img": "icons/svg/d20-black.svg",
  "collection": "pf-content.kingdom-building-gm",
  "resultId": "jakGRebNwLqn7q28",
  "weight": 1,
  "range": [
    76,
    85
  ],
  "drawn": false,
  "_key": "!tables.results!Uuw8mTAG60CS6lLa.bKmMrXeKEvPu7Hp7"
}