{
  "_id": "pJq5RqLF1yfmC2NC",
  "name": "Acadamae Graduate",
  "type": "feat",
  "img": "icons/sundries/books/book-open-brown.webp",
  "system": {
    "description": {
      "value": "<em>You have passed the grueling Test of Summoning and graduated from the Acadamae.</em><br/><br/><b>Prerequisites</b><br/>Specialist wizard 1st; cannot have conjuration as a forbidden school.<br/><br/><b>Benefits</b><br/>Whenever you cast a prepared arcane spell from the conjuration (summoning) school that takes longer than a standard action to cast, reduce the casting time by one round (to a minimum casting time of one standard action). Casting a spell in this way is taxing and requires a Fortitude save (DC 15 + spell level) to resist becoming fatigued.",
      "unidentified": ""
    },
    "tags": [
      "PFS",
      "General",
      "3.5"
    ],
    "actions": [],
    "uses": {
      "per": "",
      "value": 0,
      "maxFormula": "",
      "autoDeductChargesCost": "1"
    },
    "attackNotes": [],
    "effectNotes": [],
    "changes": [],
    "changeFlags": {
      "loseDexToAC": false,
      "noEncumbrance": false,
      "mediumArmorFullSpeed": false,
      "heavyArmorFullSpeed": false
    },
    "contextNotes": [],
    "links": {
      "children": [],
      "charges": []
    },
    "tag": "",
    "useCustomTag": false,
    "armorProf": {
      "value": [],
      "custom": ""
    },
    "weaponProf": {
      "value": [],
      "custom": ""
    },
    "languages": {
      "value": [],
      "custom": ""
    },
    "flags": {
      "boolean": {},
      "dictionary": {}
    },
    "scriptCalls": [],
    "subType": "feat",
    "associations": {
      "classes": []
    },
    "showInQuickbar": false,
    "abilityType": "none",
    "crOffset": "",
    "disabled": false,
    "classSkills": {
      "acr": false,
      "apr": false,
      "art": false,
      "blf": false,
      "clm": false,
      "crf": false,
      "dip": false,
      "dev": false,
      "dis": false,
      "esc": false,
      "fly": false,
      "han": false,
      "hea": false,
      "int": false,
      "kar": false,
      "kdu": false,
      "ken": false,
      "kge": false,
      "khi": false,
      "klo": false,
      "kna": false,
      "kno": false,
      "kpl": false,
      "kre": false,
      "lin": false,
      "lor": false,
      "per": false,
      "prf": false,
      "pro": false,
      "rid": false,
      "sen": false,
      "slt": false,
      "spl": false,
      "ste": false,
      "sur": false,
      "swm": false,
      "umd": false
    }
  },
  "ownership": {
    "default": 0
  },
  "_stats": {
    "systemId": "pf1",
    "systemVersion": "9.1",
    "coreVersion": "10.291",
    "createdTime": 1665428264381,
    "modifiedTime": 1689797812993,
    "lastModifiedBy": "ppv91YxratjWnkJi"
  },
  "effects": [],
  "folder": null,
  "sort": 0,
  "flags": {},
  "_key": "!items!pJq5RqLF1yfmC2NC"
}