{
  "_id": "l1rve3suQJGpUkdV",
  "name": "Azlant Fanatic (Human; Azlanti)",
  "type": "feat",
  "img": "systems/pf1/icons/skills/blue_35.jpg",
  "system": {
    "description": {
      "value": "<p><em><span id=\"ctl00_MainContent_DataListTypes_ctl26_LabelType\">Your years spent in libraries reading every musty tome you could find about the ancient lost civilization of Azlant have given you insight into the subjects of history and the arcane.</span></em></p>\n<p>&nbsp;</p>\n<p><strong>Requirements</strong></p>\n<p><span id=\"ctl00_MainContent_DataListTypes_ctl26_LabelType\">Azlanti Human Heritage</span></p>\n<p>&nbsp;</p>\n<p><strong>Benefits</strong></p>\n<p><span id=\"ctl00_MainContent_DataListTypes_ctl26_LabelType\">You gain a +1 trait bonus to Knowledge (arcana) and Knowledge (history) checks. One of these skills (your choice) is always a class skill for you.</span></p>",
      "unidentified": ""
    },
    "tags": [
      "PFS",
      "Race",
      "Human",
      "Azlanti",
      "3.5"
    ],
    "actions": [],
    "uses": {
      "per": null,
      "value": 0,
      "maxFormula": "",
      "autoDeductChargesCost": "1"
    },
    "attackNotes": [],
    "effectNotes": [],
    "changes": [],
    "changeFlags": {
      "loseDexToAC": false,
      "noEncumbrance": false,
      "mediumArmorFullSpeed": false,
      "heavyArmorFullSpeed": false
    },
    "contextNotes": [],
    "links": {
      "children": [],
      "charges": []
    },
    "tag": "adventurousExplorerSongo",
    "useCustomTag": false,
    "armorProf": {
      "value": [],
      "custom": ""
    },
    "weaponProf": {
      "value": [],
      "custom": ""
    },
    "languages": {
      "value": [],
      "custom": ""
    },
    "flags": {
      "boolean": {},
      "dictionary": {}
    },
    "scriptCalls": [],
    "subType": "trait",
    "associations": {
      "classes": []
    },
    "showInQuickbar": false,
    "abilityType": "none",
    "crOffset": "",
    "disabled": false,
    "classSkills": {}
  },
  "ownership": {
    "default": 0
  },
  "_stats": {
    "systemId": "pf1",
    "systemVersion": "9.1",
    "coreVersion": "10.291",
    "createdTime": 1665428264370,
    "modifiedTime": 1689797812872,
    "lastModifiedBy": "ppv91YxratjWnkJi"
  },
  "effects": [],
  "folder": null,
  "sort": 0,
  "flags": {},
  "_key": "!items!l1rve3suQJGpUkdV"
}