{
  "_id": "kyqVR7i1WVXkJ7eT",
  "name": "Child of Zolurket (Dwarf)",
  "type": "feat",
  "img": "systems/pf1/icons/skills/blue_35.jpg",
  "system": {
    "description": {
      "value": "<p><em><span id=\"ctl00_MainContent_DataListTypes_ctl78_LabelType\">You come from a family whose ancestors worked in the platinum mines near Tar Urkatka, now known as Zolurket. Your parents never explained why they&rsquo;ve never returned to Zolurket, but they did make sure that you knew your way around a fight against undead foes.</span></em></p>\n<p>&nbsp;</p>\n<p><strong>Requirements</strong></p>\n<p><span id=\"ctl00_MainContent_DataListTypes_ctl78_LabelType\">Dwarf</span></p>\n<p>&nbsp;</p>\n<p><strong>Benefits</strong></p>\n<p><span id=\"ctl00_MainContent_DataListTypes_ctl78_LabelType\">You gain a +1 trait bonus to weapon damage against undead.</span></p>",
      "unidentified": ""
    },
    "tags": [
      "PFS",
      "Race",
      "Dwarf",
      "3.5"
    ],
    "actions": [],
    "uses": {
      "per": null,
      "value": 0,
      "maxFormula": "",
      "autoDeductChargesCost": "1"
    },
    "attackNotes": [],
    "effectNotes": [],
    "changes": [],
    "changeFlags": {
      "loseDexToAC": false,
      "noEncumbrance": false,
      "mediumArmorFullSpeed": false,
      "heavyArmorFullSpeed": false
    },
    "contextNotes": [],
    "links": {
      "children": [],
      "charges": []
    },
    "tag": "adventurousExplorerSongo",
    "useCustomTag": false,
    "armorProf": {
      "value": [],
      "custom": ""
    },
    "weaponProf": {
      "value": [],
      "custom": ""
    },
    "languages": {
      "value": [],
      "custom": ""
    },
    "flags": {
      "boolean": {},
      "dictionary": {}
    },
    "scriptCalls": [],
    "subType": "trait",
    "associations": {
      "classes": []
    },
    "showInQuickbar": false,
    "abilityType": "none",
    "crOffset": "",
    "disabled": false,
    "classSkills": {}
  },
  "ownership": {
    "default": 0
  },
  "_stats": {
    "systemId": "pf1",
    "systemVersion": "9.1",
    "coreVersion": "10.291",
    "createdTime": 1665428264369,
    "modifiedTime": 1689797812865,
    "lastModifiedBy": "ppv91YxratjWnkJi"
  },
  "effects": [],
  "folder": null,
  "sort": 0,
  "flags": {},
  "_key": "!items!kyqVR7i1WVXkJ7eT"
}