{
  "_id": "IBBV5q21kShV0e0l",
  "name": "Duskwalker Agent (Katapesh)",
  "type": "feat",
  "img": "icons/environment/settlement/watchtower-city.webp",
  "system": {
    "description": {
      "value": "<p><em><span id=\"ctl00_MainContent_DataListTypes_ctl125_LabelType\">You spent a portion of your childhood working for the Duskwalkers, the guild responsible for policing and watching over all trade that takes place in Katapesh&rsquo;s notorious Nightstalls.</span></em></p>\n<p>&nbsp;</p>\n<p><span id=\"ctl00_MainContent_DataListTraits_ctl00_LabelName\"><strong>Requirements</strong></span></p>\n<p><span id=\"ctl00_MainContent_DataListTypes_ctl125_LabelType\">Katapesh</span></p>\n<p>&nbsp;</p>\n<p><strong>Benefits</strong></p>\n<p><span id=\"ctl00_MainContent_DataListTypes_ctl125_LabelType\">You have quite a bit more spending cash than most others of your age as a result, and start with twice the normal amount of starting gold. In addition, your reputation remains strong in the Nightstalls, and any transactions you make there are always beneficial to you; items you sell net you an additional 10% profit, and items you purchase there are 10% cheaper than normal. This discount also applies to your starting gear.</span></p>",
      "unidentified": ""
    },
    "tags": [
      "Regional",
      "3.5"
    ],
    "actions": [],
    "uses": {
      "per": null,
      "value": 0,
      "maxFormula": "",
      "autoDeductChargesCost": "1"
    },
    "attackNotes": [],
    "effectNotes": [],
    "changes": [],
    "changeFlags": {
      "loseDexToAC": false,
      "noEncumbrance": false,
      "mediumArmorFullSpeed": false,
      "heavyArmorFullSpeed": false
    },
    "contextNotes": [],
    "links": {
      "children": [],
      "charges": []
    },
    "tag": "savannaChildPlains",
    "useCustomTag": false,
    "armorProf": {
      "value": [],
      "custom": ""
    },
    "weaponProf": {
      "value": [],
      "custom": ""
    },
    "languages": {
      "value": [],
      "custom": ""
    },
    "flags": {
      "boolean": {},
      "dictionary": {}
    },
    "scriptCalls": [],
    "subType": "trait",
    "associations": {
      "classes": []
    },
    "showInQuickbar": false,
    "abilityType": "none",
    "crOffset": "",
    "disabled": false,
    "classSkills": {}
  },
  "ownership": {
    "default": 0
  },
  "_stats": {
    "systemId": "pf1",
    "systemVersion": "9.1",
    "coreVersion": "10.291",
    "createdTime": 1665428264328,
    "modifiedTime": 1689797812498,
    "lastModifiedBy": "ppv91YxratjWnkJi"
  },
  "effects": [],
  "folder": null,
  "sort": 0,
  "flags": {},
  "_key": "!items!IBBV5q21kShV0e0l"
}