{
  "_id": "g9TZc663DlqMfVH2",
  "name": "Ekujae Reflexes (Half-Elf)",
  "type": "feat",
  "img": "systems/pf1/icons/skills/blue_35.jpg",
  "system": {
    "description": {
      "value": "<p><em><span id=\"ctl00_MainContent_DataListTypes_ctl116_LabelType\">One of your parents was a member of the Ekujae tribe of the Mwangi Expanse, and you&rsquo;ve inherited a portion of your elven parent&rsquo;s quick reflexes.</span></em></p>\n<p>&nbsp;</p>\n<p><strong>Requirements</strong></p>\n<p><span id=\"ctl00_MainContent_DataListTypes_ctl116_LabelType\">Half-Elf</span></p>\n<p>&nbsp;</p>\n<p><strong>Benefits</strong></p>\n<p><span id=\"ctl00_MainContent_DataListTypes_ctl116_LabelType\">You gain a +2 trait bonus on Initiative checks.</span></p>",
      "unidentified": ""
    },
    "tags": [
      "PFS",
      "Race",
      "Half-elf",
      "3.5"
    ],
    "actions": [],
    "uses": {
      "per": null,
      "value": 0,
      "maxFormula": "",
      "autoDeductChargesCost": "1"
    },
    "attackNotes": [],
    "effectNotes": [],
    "changes": [],
    "changeFlags": {
      "loseDexToAC": false,
      "noEncumbrance": false,
      "mediumArmorFullSpeed": false,
      "heavyArmorFullSpeed": false
    },
    "contextNotes": [],
    "links": {
      "children": [],
      "charges": []
    },
    "tag": "adventurousExplorerSongo",
    "useCustomTag": false,
    "armorProf": {
      "value": [],
      "custom": ""
    },
    "weaponProf": {
      "value": [],
      "custom": ""
    },
    "languages": {
      "value": [],
      "custom": ""
    },
    "flags": {
      "boolean": {},
      "dictionary": {}
    },
    "scriptCalls": [],
    "subType": "trait",
    "associations": {
      "classes": []
    },
    "showInQuickbar": false,
    "abilityType": "none",
    "crOffset": "",
    "disabled": false,
    "classSkills": {}
  },
  "ownership": {
    "default": 0
  },
  "_stats": {
    "systemId": "pf1",
    "systemVersion": "9.1",
    "coreVersion": "10.291",
    "createdTime": 1665428264361,
    "modifiedTime": 1689797812798,
    "lastModifiedBy": "ppv91YxratjWnkJi"
  },
  "effects": [],
  "folder": null,
  "sort": 0,
  "flags": {},
  "_key": "!items!g9TZc663DlqMfVH2"
}