{
  "_id": "xZFCxAPJhg7UCPiq",
  "name": "Gnoll Killer (Legacy of Fire)",
  "type": "feat",
  "img": "icons/tools/navigation/map-chart-tan.webp",
  "system": {
    "description": {
      "value": "<p><em><span id=\"ctl00_MainContent_DataListTypes_ctl00_LabelType\">You grew up in rural Katapesh, in a region where gnoll activity was a fact of life. You killed your first gnoll at a young age when a group of gnoll slavers attacked your village, home, or caravan, and your hatred of gnolls has only grown since then. Something in your past fueled your hatred of gnolls even further&mdash; perhaps your family was slaughtered by gnolls, or maybe you even served a few harrowing weeks as a prisoner of a gnoll tribe before a miraculous escape. When you heard that Garavel was looking for brave men and women to aid in retaking the village of Kelmarane from a tribe of gnolls in the service of the notorious Carrion King, you knew you had to be part of the group, and signed up immediately.</span></em></p>\n<p>&nbsp;</p>\n<p><strong>Benefits</strong></p>\n<p><span id=\"ctl00_MainContent_DataListTypes_ctl00_LabelType\">You gain a +1 trait bonus on attack rolls and weapon damage rolls made against gnolls. If you are a barbarian and you&rsquo;re fighting gnolls, your rage lasts 1 round longer than normal. If you&rsquo;re a ranger and you select humanoid (gnoll) as a favored enemy, your trait bonus on attack rolls and weapon damage rolls against gnolls increases to +2. If you&rsquo;re a spellcaster, you gain a +1 trait bonus to spell save DCs for damaging spells against gnolls.</span></p>",
      "unidentified": ""
    },
    "tags": [
      "Campaign",
      "3.5"
    ],
    "actions": [],
    "uses": {
      "per": null,
      "value": 0,
      "maxFormula": "",
      "autoDeductChargesCost": "1"
    },
    "attackNotes": [],
    "effectNotes": [],
    "changes": [],
    "changeFlags": {
      "loseDexToAC": false,
      "noEncumbrance": false,
      "mediumArmorFullSpeed": false,
      "heavyArmorFullSpeed": false
    },
    "contextNotes": [],
    "links": {
      "children": [],
      "charges": []
    },
    "tag": "1CampaignTemplate",
    "useCustomTag": false,
    "armorProf": {
      "value": [],
      "custom": ""
    },
    "weaponProf": {
      "value": [],
      "custom": ""
    },
    "languages": {
      "value": [],
      "custom": ""
    },
    "flags": {
      "boolean": {},
      "dictionary": {}
    },
    "scriptCalls": [],
    "subType": "trait",
    "associations": {
      "classes": []
    },
    "showInQuickbar": false,
    "abilityType": "none",
    "crOffset": "",
    "disabled": false,
    "classSkills": {}
  },
  "ownership": {
    "default": 0
  },
  "_stats": {
    "systemId": "pf1",
    "systemVersion": "9.1",
    "coreVersion": "10.291",
    "createdTime": 1665428264391,
    "modifiedTime": 1689797813096,
    "lastModifiedBy": "ppv91YxratjWnkJi"
  },
  "effects": [],
  "folder": null,
  "sort": 0,
  "flags": {},
  "_key": "!items!xZFCxAPJhg7UCPiq"
}