{
  "_id": "6TNH9deI8KPr3IAx",
  "name": "Precocious Spellcaster (Taldor)",
  "type": "feat",
  "img": "icons/environment/settlement/watchtower-city.webp",
  "system": {
    "description": {
      "value": "<p><em><span id=\"ctl00_MainContent_DataListTypes_ctl301_LabelType\">Before you even began your training as a spellcaster, you spent a great deal of time studying cantrips and simple spells on your own. Because of this, you developed some innate magical abilities without any outside guidance.</span></em></p>\n<p>&nbsp;</p>\n<p><span id=\"ctl00_MainContent_DataListTraits_ctl00_LabelName\"><strong>Requirements</strong></span></p>\n<p><span id=\"ctl00_MainContent_DataListTypes_ctl301_LabelType\">Taldor</span></p>\n<p>&nbsp;</p>\n<p><strong>Benefits</strong></p>\n<p><span id=\"ctl00_MainContent_DataListTypes_ctl301_LabelType\">Select one cantrip and one 1st-level spell; when you cast these spells, they function at one caster level higher than your actual caster level.</span></p>",
      "unidentified": ""
    },
    "tags": [
      "PFS",
      "Regional",
      "3.5"
    ],
    "actions": [],
    "uses": {
      "per": null,
      "value": 0,
      "maxFormula": "",
      "autoDeductChargesCost": "1"
    },
    "attackNotes": [],
    "effectNotes": [],
    "changes": [],
    "changeFlags": {
      "loseDexToAC": false,
      "noEncumbrance": false,
      "mediumArmorFullSpeed": false,
      "heavyArmorFullSpeed": false
    },
    "contextNotes": [],
    "links": {
      "children": [],
      "charges": []
    },
    "tag": "savannaChildPlains",
    "useCustomTag": false,
    "armorProf": {
      "value": [],
      "custom": ""
    },
    "weaponProf": {
      "value": [],
      "custom": ""
    },
    "languages": {
      "value": [],
      "custom": ""
    },
    "flags": {
      "boolean": {},
      "dictionary": {}
    },
    "scriptCalls": [],
    "subType": "trait",
    "associations": {
      "classes": []
    },
    "showInQuickbar": false,
    "abilityType": "none",
    "crOffset": "",
    "disabled": false,
    "classSkills": {}
  },
  "ownership": {
    "default": 0
  },
  "_stats": {
    "systemId": "pf1",
    "systemVersion": "9.1",
    "coreVersion": "10.291",
    "createdTime": 1665428264317,
    "modifiedTime": 1689797812427,
    "lastModifiedBy": "ppv91YxratjWnkJi"
  },
  "effects": [],
  "folder": null,
  "sort": 0,
  "flags": {},
  "_key": "!items!6TNH9deI8KPr3IAx"
}