{
  "_id": "TqSFZICKJTE3mylN",
  "name": "Scouting for Fiends (Second Darkness)",
  "type": "feat",
  "img": "icons/tools/navigation/map-chart-tan.webp",
  "system": {
    "description": {
      "value": "<p><em><span id=\"ctl00_MainContent_DataListTypes_ctl00_LabelType\">You belong to an organization (most likely a religion) that has definite views on the menace posed by the lower planes. The willfulness with which the city of Korvosa (they even allow a temple of Asmodeus to operate in broad daylight!) tolerates infernal influences is, to you and your organization, the greatest symbol of what&rsquo;s wrong with civilization today. And now, in Riddleport, there&rsquo;s news that a gambling tournament is using devils and Hell as an idle decoration. It&rsquo;s likely that this is just an example of poor taste, but there&rsquo;s a chance that something sinister may be lurking beneath the goings-on at the Gold Goblin.</span></em></p>\n<p><em><span id=\"ctl00_MainContent_DataListTypes_ctl00_LabelType\">You have been contacted by your organization (or may have decided on your own) to travel to Riddleport (if you don&rsquo;t already live there) and attend this tournament under the guise of a patron. Keep an eye on things there, even after the tournament is over; if you can, get a job working for the owner. Demons and devils can be subtle, and it could take weeks or even months to find proof of their involvement.</span></em></p>\n<p>&nbsp;</p>\n<p><strong>Benefits</strong></p>\n<p><span id=\"ctl00_MainContent_DataListTypes_ctl00_LabelType\">Your near-obsessive hatred of all things fiendish grants you a +1 trait bonus on all attack rolls made against foes you know to be evil outsiders.</span></p>",
      "unidentified": ""
    },
    "tags": [
      "Campaign",
      "3.5"
    ],
    "actions": [],
    "uses": {
      "per": null,
      "value": 0,
      "maxFormula": "",
      "autoDeductChargesCost": "1"
    },
    "attackNotes": [],
    "effectNotes": [],
    "changes": [],
    "changeFlags": {
      "loseDexToAC": false,
      "noEncumbrance": false,
      "mediumArmorFullSpeed": false,
      "heavyArmorFullSpeed": false
    },
    "contextNotes": [],
    "links": {
      "children": [],
      "charges": []
    },
    "tag": "1CampaignTemplate",
    "useCustomTag": false,
    "armorProf": {
      "value": [],
      "custom": ""
    },
    "weaponProf": {
      "value": [],
      "custom": ""
    },
    "languages": {
      "value": [],
      "custom": ""
    },
    "flags": {
      "boolean": {},
      "dictionary": {}
    },
    "scriptCalls": [],
    "subType": "trait",
    "associations": {
      "classes": []
    },
    "showInQuickbar": false,
    "abilityType": "none",
    "crOffset": "",
    "disabled": false,
    "classSkills": {}
  },
  "ownership": {
    "default": 0
  },
  "_stats": {
    "systemId": "pf1",
    "systemVersion": "9.1",
    "coreVersion": "10.291",
    "createdTime": 1665428264340,
    "modifiedTime": 1689797812604,
    "lastModifiedBy": "ppv91YxratjWnkJi"
  },
  "effects": [],
  "folder": null,
  "sort": 0,
  "flags": {},
  "_key": "!items!TqSFZICKJTE3mylN"
}