{
  "_id": "OzaiNh3ogPpnIrLu",
  "name": "Sneaky Vagabond",
  "type": "feat",
  "img": "systems/pf1/icons/skills/shadow_17.jpg",
  "system": {
    "description": {
      "value": "<p><em>You have a well-practiced ability at going unnoticed.</em><br /><br /><strong>Benefits</strong><br />You get a +2 bonus on Hide checks when others are actively trying to find you. In crowds, this bonus increases to +4. Additionally, you gain a +2 circumstance bonus on Gather Information and Knowledge (local) checks when trying to find a place to hide.</p>\n<p><br /><strong>Pathfinder Society</strong></p>\n<p>Reduce all skill rank requirements by -3 to a minimum of 1</p>",
      "unidentified": ""
    },
    "tags": [
      "PFS",
      "General",
      "3.5"
    ],
    "actions": [],
    "uses": {
      "per": null,
      "value": 0,
      "maxFormula": "",
      "autoDeductChargesCost": "1"
    },
    "attackNotes": [],
    "effectNotes": [],
    "changes": [],
    "changeFlags": {
      "loseDexToAC": false,
      "noEncumbrance": false,
      "mediumArmorFullSpeed": false,
      "heavyArmorFullSpeed": false
    },
    "contextNotes": [],
    "links": {
      "children": [],
      "charges": []
    },
    "tag": "",
    "useCustomTag": false,
    "armorProf": {
      "value": [],
      "custom": ""
    },
    "weaponProf": {
      "value": [],
      "custom": ""
    },
    "languages": {
      "value": [],
      "custom": ""
    },
    "flags": {
      "boolean": {},
      "dictionary": {}
    },
    "scriptCalls": [],
    "subType": "feat",
    "associations": {
      "classes": []
    },
    "showInQuickbar": false,
    "abilityType": "none",
    "crOffset": "",
    "disabled": false,
    "classSkills": {}
  },
  "ownership": {
    "default": 0
  },
  "_stats": {
    "systemId": "pf1",
    "systemVersion": "9.1",
    "coreVersion": "10.291",
    "createdTime": 1665428264334,
    "modifiedTime": 1689797812561,
    "lastModifiedBy": "ppv91YxratjWnkJi"
  },
  "effects": [],
  "folder": null,
  "sort": 0,
  "flags": {},
  "_key": "!items!OzaiNh3ogPpnIrLu"
}