{
  "_id": "6neZrrSpdaJaACGU",
  "name": "Taldan Squire",
  "type": "feat",
  "img": "icons/environment/people/commoner.webp",
  "system": {
    "description": {
      "value": "<p><em>You spent time as a squire to a Taldan knight and understand how to fight alongside him.</em><br /><br /><strong>Prerequisites</strong><br />Base attack bonus +1, proficient in a martial weapon.<br /><br /><strong>Benefits</strong><br />When within 50 feet of a mounted ally with the Mounted Combat feat, you get a +2 bonus on initiative. If this ally is injured, you gain a +1 dodge bonus on AC as long as you are within 10 feet of him.</p>\n<p><br /><strong>Pathfinder Society</strong></p>\n<p>Reduce all skill rank requirements by -3 to a minimum of 1</p>",
      "unidentified": ""
    },
    "tags": [
      "PFS",
      "General",
      "3.5"
    ],
    "actions": [],
    "uses": {
      "per": null,
      "value": 0,
      "maxFormula": "",
      "autoDeductChargesCost": "1"
    },
    "attackNotes": [],
    "effectNotes": [],
    "changes": [],
    "changeFlags": {
      "loseDexToAC": false,
      "noEncumbrance": false,
      "mediumArmorFullSpeed": false,
      "heavyArmorFullSpeed": false
    },
    "contextNotes": [],
    "links": {
      "children": [],
      "charges": []
    },
    "tag": "",
    "useCustomTag": false,
    "armorProf": {
      "value": [],
      "custom": ""
    },
    "weaponProf": {
      "value": [],
      "custom": ""
    },
    "languages": {
      "value": [],
      "custom": ""
    },
    "flags": {
      "boolean": {},
      "dictionary": {}
    },
    "scriptCalls": [],
    "subType": "feat",
    "associations": {
      "classes": []
    },
    "showInQuickbar": false,
    "abilityType": "none",
    "crOffset": "",
    "disabled": false,
    "classSkills": {}
  },
  "ownership": {
    "default": 0
  },
  "_stats": {
    "systemId": "pf1",
    "systemVersion": "9.1",
    "coreVersion": "10.291",
    "createdTime": 1665428264318,
    "modifiedTime": 1689797812433,
    "lastModifiedBy": "ppv91YxratjWnkJi"
  },
  "effects": [],
  "folder": null,
  "sort": 0,
  "flags": {},
  "_key": "!items!6neZrrSpdaJaACGU"
}