{
  "_id": "U7XoRs9HuK062TKY",
  "name": "Uwaga Highlander (Katapesh)",
  "type": "feat",
  "img": "icons/environment/settlement/watchtower-city.webp",
  "system": {
    "description": {
      "value": "<p><em><span id=\"ctl00_MainContent_DataListTypes_ctl417_LabelType\">You were born and raised in western Katapesh, in the rugged badlands and hills of the Uwaga Highlands. Even if you were born in a city like Solku, you often had to travel the dangerous trails with your family. Predators, gnolls, and worse haunt the Uwaga Highlands, and you&rsquo;ve become something of an expert at evading them.</span></em></p>\n<p>&nbsp;</p>\n<p><span id=\"ctl00_MainContent_DataListTraits_ctl00_LabelName\"><strong>Requirements</strong></span></p>\n<p><span id=\"ctl00_MainContent_DataListTypes_ctl417_LabelType\">Katapesh</span></p>\n<p>&nbsp;</p>\n<p><strong>Benefits</strong></p>\n<p><span id=\"ctl00_MainContent_DataListTypes_ctl417_LabelType\">You gain a +1 trait bonus on Hide and Move Silently checks. This trait bonus increases to +2 in hilly or rocky areas.</span></p>\n<p>&nbsp;</p>\n<p><strong>Pathfinder Society</strong></p>\n<p>Only applies to Stealth skill.</p>",
      "unidentified": ""
    },
    "tags": [
      "PFS",
      "Regional",
      "3.5"
    ],
    "actions": [],
    "uses": {
      "per": null,
      "value": 0,
      "maxFormula": "",
      "autoDeductChargesCost": "1"
    },
    "attackNotes": [],
    "effectNotes": [],
    "changes": [],
    "changeFlags": {
      "loseDexToAC": false,
      "noEncumbrance": false,
      "mediumArmorFullSpeed": false,
      "heavyArmorFullSpeed": false
    },
    "contextNotes": [],
    "links": {
      "children": [],
      "charges": []
    },
    "tag": "savannaChildPlains",
    "useCustomTag": false,
    "armorProf": {
      "value": [],
      "custom": ""
    },
    "weaponProf": {
      "value": [],
      "custom": ""
    },
    "languages": {
      "value": [],
      "custom": ""
    },
    "flags": {
      "boolean": {},
      "dictionary": {}
    },
    "scriptCalls": [],
    "subType": "trait",
    "associations": {
      "classes": []
    },
    "showInQuickbar": false,
    "abilityType": "none",
    "crOffset": "",
    "disabled": false,
    "classSkills": {}
  },
  "ownership": {
    "default": 0
  },
  "_stats": {
    "systemId": "pf1",
    "systemVersion": "9.1",
    "coreVersion": "10.291",
    "createdTime": 1665428264341,
    "modifiedTime": 1689797812614,
    "lastModifiedBy": "ppv91YxratjWnkJi"
  },
  "effects": [],
  "folder": null,
  "sort": 0,
  "flags": {},
  "_key": "!items!U7XoRs9HuK062TKY"
}