{
  "_id": "Q7ljtb4Igplhhkmx",
  "name": "Kingdom Sheet",
  "type": "character",
  "img": "icons/environment/settlement/castle.webp",
  "system": {
    "abilities": {
      "str": {
        "value": 10,
        "damage": 0,
        "drain": 0,
        "userPenalty": 0,
        "carryBonus": 0,
        "carryMultiplier": 1,
        "total": 10,
        "mod": 0,
        "checkMod": 0,
        "penalty": 0,
        "base": 10,
        "baseMod": 0
      },
      "dex": {
        "value": 10,
        "damage": 0,
        "drain": 0,
        "userPenalty": 0,
        "total": 10,
        "mod": 0,
        "checkMod": 0,
        "penalty": 0,
        "base": 10,
        "baseMod": 0
      },
      "con": {
        "value": 10,
        "damage": 0,
        "drain": 0,
        "userPenalty": 0,
        "total": 10,
        "mod": 0,
        "checkMod": 0,
        "penalty": 0,
        "base": 10,
        "baseMod": 0
      },
      "int": {
        "value": 10,
        "damage": 0,
        "drain": 0,
        "userPenalty": 0,
        "total": 10,
        "mod": 0,
        "checkMod": 0,
        "penalty": 0,
        "base": 10,
        "baseMod": 0
      },
      "wis": {
        "value": 10,
        "damage": 0,
        "drain": 0,
        "userPenalty": 0,
        "total": 10,
        "mod": 0,
        "checkMod": 0,
        "penalty": 0,
        "base": 10,
        "baseMod": 0
      },
      "cha": {
        "value": 10,
        "damage": 0,
        "drain": 0,
        "userPenalty": 0,
        "total": 10,
        "mod": 0,
        "checkMod": 0,
        "penalty": 0,
        "base": 10,
        "baseMod": 0
      }
    },
    "attributes": {
      "hpAbility": "con",
      "cmbAbility": "str",
      "naturalAC": 0,
      "ac": {
        "normal": {
          "ability": "dex",
          "value": 0
        },
        "touch": {
          "ability": "dex",
          "value": 0
        },
        "flatFooted": {
          "value": 0
        }
      },
      "cmd": {
        "strAbility": "str",
        "dexAbility": "dex",
        "value": 0
      },
      "sr": {
        "formula": ""
      },
      "clCheck": false,
      "saveNotes": "",
      "acNotes": "",
      "cmdNotes": "",
      "srNotes": "",
      "attack": {
        "meleeAbility": "str",
        "rangedAbility": "dex",
        "general": 0,
        "shared": 0,
        "melee": 0,
        "ranged": 0
      },
      "energyDrain": 0,
      "quadruped": false,
      "savingThrows": {
        "fort": {
          "base": 0,
          "ability": "con",
          "total": 0
        },
        "ref": {
          "base": 0,
          "ability": "dex",
          "total": 0
        },
        "will": {
          "base": 0,
          "ability": "wis",
          "total": 0
        }
      },
      "hp": {
        "value": 0,
        "base": 0,
        "temp": 0,
        "nonlethal": 0,
        "offset": 0
      },
      "wounds": {
        "min": 0,
        "base": 0,
        "value": 0,
        "max": 0,
        "offset": 0
      },
      "vigor": {
        "min": 0,
        "value": 0,
        "temp": 0,
        "base": 0,
        "max": 0,
        "offset": 0
      },
      "init": {
        "value": 0,
        "ability": "dex",
        "bonus": 0
      },
      "speed": {
        "land": {
          "base": 30
        },
        "climb": {
          "base": 0
        },
        "swim": {
          "base": 0
        },
        "burrow": {
          "base": 0
        },
        "fly": {
          "base": 0,
          "maneuverability": "average"
        }
      },
      "conditions": {
        "bleed": false,
        "blind": false,
        "confused": false,
        "dazed": false,
        "dazzled": false,
        "deaf": false,
        "entangled": false,
        "fatigued": false,
        "frightened": false,
        "exhausted": false,
        "grappled": false,
        "helpless": false,
        "incorporeal": false,
        "invisible": false,
        "nauseated": false,
        "panicked": false,
        "paralyzed": false,
        "pinned": false,
        "prone": false,
        "shaken": false,
        "sickened": false,
        "staggered": false,
        "stunned": false
      },
      "spells": {
        "spellbooks": {
          "primary": {
            "name": "Primary",
            "castPerDayAllOffsetFormula": "",
            "preparedAllOffsetFormula": "",
            "casterType": "high",
            "class": "",
            "cl": {
              "formula": "",
              "base": 0,
              "value": 0,
              "total": 0
            },
            "concentrationFormula": "",
            "concentrationNotes": "",
            "clNotes": "",
            "ability": "int",
            "autoSpellLevelCalculation": true,
            "autoSpellLevels": true,
            "psychic": false,
            "arcaneSpellFailure": true,
            "hasCantrips": true,
            "spellPreparationMode": "spontaneous",
            "baseDCFormula": "10 + @sl + @ablMod",
            "spontaneous": false,
            "spellPoints": {
              "useSystem": false,
              "value": 0,
              "maxFormula": "",
              "restoreFormula": "",
              "max": 0
            },
            "spells": {
              "spell0": {
                "castPerDayOffsetFormula": "",
                "preparedOffsetFormula": ""
              },
              "spell1": {
                "castPerDayOffsetFormula": "",
                "preparedOffsetFormula": ""
              },
              "spell2": {
                "castPerDayOffsetFormula": "",
                "preparedOffsetFormula": ""
              },
              "spell3": {
                "castPerDayOffsetFormula": "",
                "preparedOffsetFormula": ""
              },
              "spell4": {
                "castPerDayOffsetFormula": "",
                "preparedOffsetFormula": ""
              },
              "spell5": {
                "castPerDayOffsetFormula": "",
                "preparedOffsetFormula": ""
              },
              "spell6": {
                "castPerDayOffsetFormula": "",
                "preparedOffsetFormula": ""
              },
              "spell7": {
                "castPerDayOffsetFormula": "",
                "preparedOffsetFormula": ""
              },
              "spell8": {
                "castPerDayOffsetFormula": "",
                "preparedOffsetFormula": ""
              },
              "spell9": {
                "castPerDayOffsetFormula": "",
                "preparedOffsetFormula": ""
              }
            },
            "spellSlotAbilityBonusFormula": "",
            "domainSlotValue": 1,
            "altName": ""
          },
          "secondary": {
            "name": "Secondary",
            "castPerDayAllOffsetFormula": "",
            "preparedAllOffsetFormula": "",
            "casterType": "high",
            "class": "",
            "cl": {
              "formula": "",
              "base": 0,
              "value": 0,
              "total": 0
            },
            "concentrationFormula": "",
            "concentrationNotes": "",
            "clNotes": "",
            "ability": "int",
            "autoSpellLevelCalculation": true,
            "autoSpellLevels": true,
            "psychic": false,
            "arcaneSpellFailure": true,
            "hasCantrips": true,
            "spellPreparationMode": "spontaneous",
            "baseDCFormula": "10 + @sl + @ablMod",
            "spontaneous": false,
            "spellPoints": {
              "useSystem": false,
              "value": 0,
              "maxFormula": "",
              "restoreFormula": "",
              "max": 0
            },
            "spells": {
              "spell0": {
                "castPerDayOffsetFormula": "",
                "preparedOffsetFormula": ""
              },
              "spell1": {
                "castPerDayOffsetFormula": "",
                "preparedOffsetFormula": ""
              },
              "spell2": {
                "castPerDayOffsetFormula": "",
                "preparedOffsetFormula": ""
              },
              "spell3": {
                "castPerDayOffsetFormula": "",
                "preparedOffsetFormula": ""
              },
              "spell4": {
                "castPerDayOffsetFormula": "",
                "preparedOffsetFormula": ""
              },
              "spell5": {
                "castPerDayOffsetFormula": "",
                "preparedOffsetFormula": ""
              },
              "spell6": {
                "castPerDayOffsetFormula": "",
                "preparedOffsetFormula": ""
              },
              "spell7": {
                "castPerDayOffsetFormula": "",
                "preparedOffsetFormula": ""
              },
              "spell8": {
                "castPerDayOffsetFormula": "",
                "preparedOffsetFormula": ""
              },
              "spell9": {
                "castPerDayOffsetFormula": "",
                "preparedOffsetFormula": ""
              }
            },
            "spellSlotAbilityBonusFormula": "",
            "domainSlotValue": 1,
            "altName": ""
          },
          "tertiary": {
            "name": "Tertiary",
            "castPerDayAllOffsetFormula": "",
            "preparedAllOffsetFormula": "",
            "casterType": "high",
            "class": "",
            "cl": {
              "formula": "",
              "base": 0,
              "value": 0,
              "total": 0
            },
            "concentrationFormula": "",
            "concentrationNotes": "",
            "clNotes": "",
            "ability": "int",
            "autoSpellLevelCalculation": true,
            "autoSpellLevels": true,
            "psychic": false,
            "arcaneSpellFailure": true,
            "hasCantrips": true,
            "spellPreparationMode": "spontaneous",
            "baseDCFormula": "10 + @sl + @ablMod",
            "spontaneous": false,
            "spellPoints": {
              "useSystem": false,
              "value": 0,
              "maxFormula": "",
              "restoreFormula": "",
              "max": 0
            },
            "spells": {
              "spell0": {
                "castPerDayOffsetFormula": "",
                "preparedOffsetFormula": ""
              },
              "spell1": {
                "castPerDayOffsetFormula": "",
                "preparedOffsetFormula": ""
              },
              "spell2": {
                "castPerDayOffsetFormula": "",
                "preparedOffsetFormula": ""
              },
              "spell3": {
                "castPerDayOffsetFormula": "",
                "preparedOffsetFormula": ""
              },
              "spell4": {
                "castPerDayOffsetFormula": "",
                "preparedOffsetFormula": ""
              },
              "spell5": {
                "castPerDayOffsetFormula": "",
                "preparedOffsetFormula": ""
              },
              "spell6": {
                "castPerDayOffsetFormula": "",
                "preparedOffsetFormula": ""
              },
              "spell7": {
                "castPerDayOffsetFormula": "",
                "preparedOffsetFormula": ""
              },
              "spell8": {
                "castPerDayOffsetFormula": "",
                "preparedOffsetFormula": ""
              },
              "spell9": {
                "castPerDayOffsetFormula": "",
                "preparedOffsetFormula": ""
              }
            },
            "spellSlotAbilityBonusFormula": "",
            "domainSlotValue": 1,
            "altName": ""
          },
          "spelllike": {
            "name": "Spell-likes",
            "castPerDayAllOffsetFormula": "",
            "preparedAllOffsetFormula": "",
            "casterType": "high",
            "class": "_hd",
            "cl": {
              "formula": "",
              "base": 0,
              "value": 0,
              "total": 0
            },
            "concentrationFormula": "",
            "concentrationNotes": "",
            "clNotes": "",
            "ability": "cha",
            "autoSpellLevelCalculation": true,
            "autoSpellLevels": true,
            "psychic": false,
            "arcaneSpellFailure": true,
            "hasCantrips": true,
            "spellPreparationMode": "spontaneous",
            "baseDCFormula": "10 + @sl + @ablMod",
            "spontaneous": false,
            "spellPoints": {
              "useSystem": false,
              "value": 0,
              "maxFormula": "",
              "restoreFormula": "",
              "max": 0
            },
            "spells": {
              "spell0": {
                "castPerDayOffsetFormula": "",
                "preparedOffsetFormula": ""
              },
              "spell1": {
                "castPerDayOffsetFormula": "",
                "preparedOffsetFormula": ""
              },
              "spell2": {
                "castPerDayOffsetFormula": "",
                "preparedOffsetFormula": ""
              },
              "spell3": {
                "castPerDayOffsetFormula": "",
                "preparedOffsetFormula": ""
              },
              "spell4": {
                "castPerDayOffsetFormula": "",
                "preparedOffsetFormula": ""
              },
              "spell5": {
                "castPerDayOffsetFormula": "",
                "preparedOffsetFormula": ""
              },
              "spell6": {
                "castPerDayOffsetFormula": "",
                "preparedOffsetFormula": ""
              },
              "spell7": {
                "castPerDayOffsetFormula": "",
                "preparedOffsetFormula": ""
              },
              "spell8": {
                "castPerDayOffsetFormula": "",
                "preparedOffsetFormula": ""
              },
              "spell9": {
                "castPerDayOffsetFormula": "",
                "preparedOffsetFormula": ""
              }
            },
            "spellSlotAbilityBonusFormula": "",
            "domainSlotValue": 1,
            "altName": ""
          }
        }
      },
      "encumbrance": {
        "levels": {}
      },
      "hd": {
        "total": 1,
        "max": {
          "_deprecated": true,
          "value": 0
        }
      },
      "bab": {
        "value": 0,
        "total": 0
      },
      "cmb": {
        "value": 0
      },
      "damage": {
        "general": 0,
        "weapon": 0,
        "spell": 0
      },
      "maxDexBonus": null,
      "mDex": {
        "armorBonus": 0,
        "shieldBonus": 0
      },
      "acp": {
        "gear": 0,
        "encumbrance": 0,
        "total": 0,
        "armorBonus": 0,
        "shieldBonus": 0,
        "attackPenalty": 0
      },
      "woundThresholds": {
        "penalty": 0,
        "mod": 0,
        "level": 0,
        "override": -1
      },
      "prof": 2,
      "spellcasting": {
        "_deprecated": true
      },
      "spelldc": {
        "_deprecated": true
      }
    },
    "details": {
      "level": {
        "value": 0,
        "min": 0,
        "max": 40
      },
      "bonusFeatFormula": "",
      "alignment": "tn",
      "biography": {
        "value": "<table style=\"height: 32px; width: 97.5852%;\" border=\"1\">\n<tbody>\n<tr style=\"height: 16px;\">\n<td style=\"height: 16px; width: 16.7991%;\" colspan=\"2\"><strong>Kingdom Name:</strong></td>\n<td style=\"width: 27.1981%;\">Murderville</td>\n<td style=\"height: 16px; width: 11.6324%;\"><strong>Campaign:</strong></td>\n<td style=\"width: 51.7666%;\">We aren't hobos anymore!</td>\n<td style=\"height: 16px; width: 0.113507%;\" colspan=\"4\">&nbsp;</td>\n</tr>\n</tbody>\n</table>\n<h1>Economy</h1>\n<table style=\"width: 97.5852%; height: 48px;\" border=\"1\">\n<tbody>\n<tr style=\"height: 16px;\">\n<td style=\"width: 5.67686%; height: 16px;\">&nbsp;</td>\n<td style=\"width: 57.135%; height: 16px;\" colspan=\"6\"><strong>Bonuses</strong></td>\n<td style=\"width: 35.1503%; height: 16px;\" colspan=\"4\"><strong>Penalties</strong></td>\n</tr>\n<tr style=\"height: 16px;\">\n<td style=\"width: 5.67686%; height: 16px;\"><strong>Total</strong></td>\n<td style=\"width: 10.4803%; height: 16px;\"><strong>Buildings</strong></td>\n<td style=\"width: 6.84134%; height: 16px;\"><strong>Edicts</strong></td>\n<td style=\"width: 7.42358%; height: 16px;\"><strong>Events</strong></td>\n<td style=\"width: 12.2271%; height: 16px;\"><strong>Leadership</strong></td>\n<td style=\"width: 11.3537%; height: 16px;\"><strong>Resources</strong></td>\n<td style=\"width: 8.80898%; height: 16px;\"><strong>Alignment</strong></td>\n<td style=\"width: 9.82272%; height: 16px;\"><strong>Edicts</strong></td>\n<td style=\"width: 7.56914%; height: 16px;\"><strong>Unrest</strong></td>\n<td style=\"width: 11.2082%; height: 16px;\"><strong>Vacancies</strong></td>\n<td style=\"width: 6.55022%; height: 16px;\"><strong>Other</strong></td>\n</tr>\n<tr style=\"height: 16px;\">\n<td style=\"width: 5.67686%; height: 16px;\">0</td>\n<td style=\"width: 10.4803%; height: 16px;\">0</td>\n<td style=\"width: 6.84134%; height: 16px;\">0</td>\n<td style=\"width: 7.42358%; height: 16px;\">0</td>\n<td style=\"width: 12.2271%; height: 16px;\">0</td>\n<td style=\"width: 11.3537%; height: 16px;\">0</td>\n<td style=\"width: 8.80898%; height: 16px;\">0</td>\n<td style=\"width: 9.82272%; height: 16px;\">0</td>\n<td style=\"width: 7.56914%; height: 16px;\">0</td>\n<td style=\"width: 11.2082%; height: 16px;\">0</td>\n<td style=\"width: 6.55022%; height: 16px;\">0</td>\n</tr>\n</tbody>\n</table>\n<h1>Loyalty</h1>\n<table border=\"1\">\n<tbody>\n<tr>\n<td>&nbsp;</td>\n<td colspan=\"6\"><strong>Bonuses</strong></td>\n<td colspan=\"4\"><strong>Penalties</strong></td>\n</tr>\n<tr>\n<td><strong>Total</strong></td>\n<td><strong>Buildings</strong></td>\n<td><strong>Edicts</strong></td>\n<td><strong>Events</strong></td>\n<td><strong>Leadership</strong></td>\n<td><strong>Resources</strong></td>\n<td><strong>Alignment</strong></td>\n<td><strong>Edicts</strong></td>\n<td><strong>Unrest</strong></td>\n<td><strong>Vacancies</strong></td>\n<td><strong>Other</strong></td>\n</tr>\n<tr>\n<td>0</td>\n<td>0</td>\n<td>0</td>\n<td>0</td>\n<td>0</td>\n<td>0</td>\n<td>0</td>\n<td>0</td>\n<td>0</td>\n<td>0</td>\n<td>0</td>\n</tr>\n</tbody>\n</table>\n<h1>Stability</h1>\n<table style=\"width: 98.1522%; border-style: solid;\" border=\"1\">\n<tbody>\n<tr>\n<td style=\"width: 5.75858%;\">&nbsp;</td>\n<td style=\"width: 60.3543%;\" colspan=\"6\"><strong>Bonuses</strong></td>\n<td style=\"width: 32.3367%;\" colspan=\"4\"><strong>Penalties</strong></td>\n</tr>\n<tr>\n<td style=\"width: 5.75858%;\"><strong>Total</strong></td>\n<td style=\"width: 10.6312%;\"><strong>Buildings</strong></td>\n<td style=\"width: 6.97674%;\"><strong>Edicts</strong></td>\n<td style=\"width: 7.53045%;\"><strong>Events</strong></td>\n<td style=\"width: 12.1816%;\"><strong>Leadership</strong></td>\n<td style=\"width: 11.2957%;\"><strong>Resources</strong></td>\n<td style=\"width: 11.7386%;\"><strong>Alignment</strong></td>\n<td style=\"width: 6.97674%;\"><strong>Edicts</strong></td>\n<td style=\"width: 7.53045%;\"><strong>Unrest</strong></td>\n<td style=\"width: 11.2957%;\"><strong>Vacancies</strong></td>\n<td style=\"width: 6.53378%;\"><strong>Other</strong></td>\n</tr>\n<tr>\n<td style=\"width: 5.75858%;\">0</td>\n<td style=\"width: 10.6312%;\">0</td>\n<td style=\"width: 6.97674%;\">0</td>\n<td style=\"width: 7.53045%;\">0</td>\n<td style=\"width: 12.1816%;\">0</td>\n<td style=\"width: 11.2957%;\">0</td>\n<td style=\"width: 11.7386%;\">0</td>\n<td style=\"width: 6.97674%;\">0</td>\n<td style=\"width: 7.53045%;\">0</td>\n<td style=\"width: 11.2957%;\">0</td>\n<td style=\"width: 6.53378%;\">0</td>\n</tr>\n</tbody>\n</table>\n<h1>Edicts</h1>\n<table style=\"height: 105px; width: 96.4545%;\" border=\"1\">\n<tbody>\n<tr style=\"height: 12px;\">\n<td style=\"width: 7.5179%; height: 12px;\"><strong>Promotion Level:&nbsp;</strong></td>\n<td style=\"width: 3.47643%; height: 12px;\">0</td>\n<td style=\"width: 4.97241%; height: 12px;\"><strong>+ Stability:&nbsp;</strong></td>\n<td style=\"width: 5.29763%; height: 12px;\">0</td>\n<td style=\"width: 4.73924%; height: 12px;\"><strong>+ BP Consumption:</strong></td>\n<td style=\"width: 5.60136%; height: 12px;\">0</td>\n</tr>\n<tr style=\"height: 16px;\">\n<td style=\"width: 7.5179%; height: 16px;\"><strong>Taxation Level:</strong></td>\n<td style=\"width: 3.47643%; height: 16px;\">0</td>\n<td style=\"width: 4.97241%; height: 16px;\"><strong>+ Economy:&nbsp;</strong></td>\n<td style=\"width: 5.29763%; height: 16px;\">0</td>\n<td style=\"width: 4.73924%; height: 16px;\"><strong>- Loyalty:</strong></td>\n<td style=\"width: 5.60136%; height: 16px;\">0</td>\n</tr>\n<tr style=\"height: 16px;\">\n<td style=\"width: 7.5179%; height: 16px;\"><strong>Festivals Per Year:</strong></td>\n<td style=\"width: 3.47643%; height: 16px;\">0</td>\n<td style=\"width: 4.97241%; height: 16px;\"><strong>+ Loyalty:</strong></td>\n<td style=\"width: 5.29763%; height: 16px;\">0</td>\n<td style=\"width: 4.73924%; height: 16px;\"><strong>+ BP Consumption:</strong></td>\n<td style=\"width: 5.60136%; height: 16px;\">0</td>\n</tr>\n</tbody>\n</table>\n<h1>Unrest</h1>\n<table style=\"width: 98.1522%;\" border=\"1\">\n<tbody>\n<tr>\n<td style=\"width: 45.1829%;\"><strong>Penalty on all Checks:&nbsp;</strong></td>\n<td style=\"width: 53.4882%;\"><strong>0</strong></td>\n<td style=\"width: 0.112867%;\" colspan=\"3\">&nbsp;</td>\n</tr>\n</tbody>\n</table>\n<h1>Consumption</h1>\n<table style=\"width: 97.5852%;\" border=\"1\">\n<tbody>\n<tr>\n<td style=\"width: 38.2823%;\" colspan=\"2\"><strong>BP</strong></td>\n<td style=\"width: 60.5531%;\" colspan=\"3\">0</td>\n</tr>\n<tr>\n<td style=\"width: 16.0116%;\"><strong>Size +</strong></td>\n<td style=\"width: 22.2707%;\"><strong>Citites +</strong></td>\n<td style=\"width: 20.9607%;\"><strong>Edicts +</strong></td>\n<td style=\"width: 19.7962%;\"><strong>Farms -</strong></td>\n<td style=\"width: 19.7962%;\"><strong>Other +</strong></td>\n</tr>\n<tr>\n<td style=\"width: 16.0116%;\">0</td>\n<td style=\"width: 22.2707%;\">0</td>\n<td style=\"width: 20.9607%;\">0</td>\n<td style=\"width: 19.7962%;\">0</td>\n<td style=\"width: 19.7962%;\">0</td>\n</tr>\n</tbody>\n</table>\n<h1>Treasury</h1>\n<table style=\"width: 99.5924%;\" border=\"1\">\n<tbody>\n<tr>\n<td style=\"width: 5.78751%;\"><strong>BP:</strong></td>\n<td style=\"width: 33.3422%;\">&nbsp;</td>\n<td style=\"width: 11.8246%;\"><strong>Bonus BP:</strong></td>\n<td style=\"width: 48.4984%;\">&nbsp;</td>\n</tr>\n</tbody>\n</table>\n<h1>Ongoing Events</h1>\n<table border=\"1\">\n<tbody>\n<tr>\n<td>Event A - @Link</td>\n</tr>\n<tr>\n<td>Event B - @Link</td>\n</tr>\n</tbody>\n</table>\n<h1>Leadership</h1>\n<p>@Compendium[pf-content.kingdom-building-gm.IrtnUkZkBzaufN64]{Leadership Roles}</p>\n<table style=\"width: 98.1542%;\" border=\"1\">\n<tbody>\n<tr>\n<td style=\"width: 32.7434%;\" colspan=\"2\"><strong>Leadership Role</strong></td>\n<td style=\"width: 12.8319%;\"><strong>Bonus</strong></td>\n<td style=\"width: 53.6504%;\"><strong>Attribute</strong></td>\n</tr>\n<tr>\n<td style=\"width: 15.6176%;\">Ruler</td>\n<td style=\"width: 17.1258%;\">&nbsp;</td>\n<td style=\"width: 12.8319%;\">&nbsp;</td>\n<td style=\"width: 53.6504%;\">Economy, Loyalty, Stability</td>\n</tr>\n<tr>\n<td style=\"width: 15.6176%;\">Ruler</td>\n<td style=\"width: 17.1258%;\">&nbsp;</td>\n<td style=\"width: 12.8319%;\">&nbsp;</td>\n<td style=\"width: 53.6504%;\">Economy, Loyalty, Stability</td>\n</tr>\n<tr>\n<td style=\"width: 15.6176%;\">Consort</td>\n<td style=\"width: 17.1258%;\">&nbsp;</td>\n<td style=\"width: 12.8319%;\">&nbsp;</td>\n<td style=\"width: 53.6504%;\">Loyalty</td>\n</tr>\n<tr>\n<td style=\"width: 15.6176%;\">Councilor</td>\n<td style=\"width: 17.1258%;\">&nbsp;</td>\n<td style=\"width: 12.8319%;\">&nbsp;</td>\n<td style=\"width: 53.6504%;\">Loyality</td>\n</tr>\n<tr>\n<td style=\"width: 15.6176%;\">General</td>\n<td style=\"width: 17.1258%;\">&nbsp;</td>\n<td style=\"width: 12.8319%;\">&nbsp;</td>\n<td style=\"width: 53.6504%;\">Stability</td>\n</tr>\n<tr>\n<td style=\"width: 15.6176%;\">Grand Diplomat</td>\n<td style=\"width: 17.1258%;\">&nbsp;</td>\n<td style=\"width: 12.8319%;\">&nbsp;</td>\n<td style=\"width: 53.6504%;\">Stability</td>\n</tr>\n<tr>\n<td style=\"width: 15.6176%;\">Heir</td>\n<td style=\"width: 17.1258%;\">&nbsp;</td>\n<td style=\"width: 12.8319%;\">&nbsp;</td>\n<td style=\"width: 53.6504%;\">Loyalty</td>\n</tr>\n<tr>\n<td style=\"width: 15.6176%;\">High Priest</td>\n<td style=\"width: 17.1258%;\">&nbsp;</td>\n<td style=\"width: 12.8319%;\">&nbsp;</td>\n<td style=\"width: 53.6504%;\">Stability</td>\n</tr>\n<tr>\n<td style=\"width: 15.6176%;\">Magister</td>\n<td style=\"width: 17.1258%;\">&nbsp;</td>\n<td style=\"width: 12.8319%;\">&nbsp;</td>\n<td style=\"width: 53.6504%;\">Economy</td>\n</tr>\n<tr>\n<td style=\"width: 15.6176%;\">Marshal</td>\n<td style=\"width: 17.1258%;\">&nbsp;</td>\n<td style=\"width: 12.8319%;\">&nbsp;</td>\n<td style=\"width: 53.6504%;\">Economy</td>\n</tr>\n<tr>\n<td style=\"width: 15.6176%;\">Royal Enforcer</td>\n<td style=\"width: 17.1258%;\">&nbsp;</td>\n<td style=\"width: 12.8319%;\">&nbsp;</td>\n<td style=\"width: 53.6504%;\">Loyalty, -1 Unrest/Upkeep</td>\n</tr>\n<tr>\n<td style=\"width: 15.6176%;\">Spymaster</td>\n<td style=\"width: 17.1258%;\">&nbsp;</td>\n<td style=\"width: 12.8319%;\">&nbsp;</td>\n<td style=\"width: 53.6504%;\">Economy, Loyalty, Stability</td>\n</tr>\n<tr>\n<td style=\"width: 15.6176%;\">Treasurer</td>\n<td style=\"width: 17.1258%;\">&nbsp;</td>\n<td style=\"width: 12.8319%;\">&nbsp;</td>\n<td style=\"width: 53.6504%;\">Economy</td>\n</tr>\n<tr>\n<td style=\"width: 15.6176%;\">Viceroy</td>\n<td style=\"width: 17.1258%;\">&nbsp;</td>\n<td style=\"width: 12.8319%;\">&nbsp;</td>\n<td style=\"width: 53.6504%;\">Economy</td>\n</tr>\n<tr>\n<td style=\"width: 15.6176%;\">Warden</td>\n<td style=\"width: 17.1258%;\">&nbsp;</td>\n<td style=\"width: 12.8319%;\">&nbsp;</td>\n<td style=\"width: 53.6504%;\">Loyalty</td>\n</tr>\n</tbody>\n</table>",
        "public": ""
      },
      "notes": {
        "value": "",
        "public": ""
      },
      "bonusSkillRankFormula": "",
      "tooltip": {
        "name": "",
        "hideHeld": false,
        "hideArmor": false,
        "hideBuffs": false,
        "hideConditions": false,
        "hideClothing": false,
        "hideName": false
      },
      "carryCapacity": {
        "bonus": {
          "user": 0
        },
        "multiplier": {
          "base": 1,
          "user": 0
        }
      },
      "xp": {
        "value": 0,
        "min": 0
      },
      "height": "",
      "weight": "",
      "gender": "",
      "deity": "",
      "age": "",
      "mythicTier": 0,
      "cr": {
        "base": 1
      }
    },
    "skills": {
      "acr": {
        "ability": "dex",
        "rt": false,
        "acp": true,
        "rank": 0,
        "value": 0,
        "mod": 0,
        "background": false
      },
      "apr": {
        "ability": "int",
        "rt": false,
        "acp": false,
        "rank": 0,
        "value": 0,
        "mod": 0,
        "background": true
      },
      "art": {
        "ability": "int",
        "rt": false,
        "acp": false,
        "rank": 0,
        "value": 0,
        "mod": 0,
        "background": true
      },
      "blf": {
        "ability": "cha",
        "rt": false,
        "acp": false,
        "rank": 0,
        "value": 0,
        "mod": 0,
        "background": false
      },
      "clm": {
        "ability": "str",
        "rt": false,
        "acp": true,
        "rank": 0,
        "value": 0,
        "mod": 0,
        "background": false
      },
      "crf": {
        "ability": "int",
        "rt": false,
        "acp": false,
        "rank": 0,
        "value": 0,
        "mod": 0,
        "background": true
      },
      "dip": {
        "ability": "cha",
        "rt": false,
        "acp": false,
        "rank": 0,
        "value": 0,
        "mod": 0,
        "background": false
      },
      "dev": {
        "ability": "dex",
        "rt": true,
        "acp": true,
        "rank": 0,
        "value": 0,
        "mod": 0,
        "background": false
      },
      "dis": {
        "ability": "cha",
        "rt": false,
        "acp": false,
        "rank": 0,
        "value": 0,
        "mod": 0,
        "background": false
      },
      "esc": {
        "ability": "dex",
        "rt": false,
        "acp": true,
        "rank": 0,
        "value": 0,
        "mod": 0,
        "background": false
      },
      "fly": {
        "ability": "dex",
        "rt": false,
        "acp": true,
        "rank": 0,
        "value": 0,
        "mod": 0,
        "background": false
      },
      "han": {
        "ability": "cha",
        "rt": true,
        "acp": false,
        "rank": 0,
        "value": 0,
        "mod": 0,
        "background": true
      },
      "hea": {
        "ability": "wis",
        "rt": false,
        "acp": false,
        "rank": 0,
        "value": 0,
        "mod": 0,
        "background": false
      },
      "int": {
        "ability": "cha",
        "rt": false,
        "acp": false,
        "rank": 0,
        "value": 0,
        "mod": 0,
        "background": false
      },
      "kar": {
        "ability": "int",
        "rt": true,
        "acp": false,
        "rank": 0,
        "value": 0,
        "mod": 0,
        "background": false
      },
      "kdu": {
        "ability": "int",
        "rt": true,
        "acp": false,
        "rank": 0,
        "value": 0,
        "mod": 0,
        "background": false
      },
      "ken": {
        "ability": "int",
        "rt": true,
        "acp": false,
        "rank": 0,
        "value": 0,
        "mod": 0,
        "background": true
      },
      "kge": {
        "ability": "int",
        "rt": true,
        "acp": false,
        "rank": 0,
        "value": 0,
        "mod": 0,
        "background": true
      },
      "khi": {
        "ability": "int",
        "rt": true,
        "acp": false,
        "rank": 0,
        "value": 0,
        "mod": 0,
        "background": true
      },
      "klo": {
        "ability": "int",
        "rt": true,
        "acp": false,
        "rank": 0,
        "value": 0,
        "mod": 0,
        "background": false
      },
      "kna": {
        "ability": "int",
        "rt": true,
        "acp": false,
        "rank": 0,
        "value": 0,
        "mod": 0,
        "background": false
      },
      "kno": {
        "ability": "int",
        "rt": true,
        "acp": false,
        "rank": 0,
        "value": 0,
        "mod": 0,
        "background": true
      },
      "kpl": {
        "ability": "int",
        "rt": true,
        "acp": false,
        "rank": 0,
        "value": 0,
        "mod": 0,
        "background": false
      },
      "kre": {
        "ability": "int",
        "rt": true,
        "acp": false,
        "rank": 0,
        "value": 0,
        "mod": 0,
        "background": false
      },
      "lin": {
        "ability": "int",
        "rt": true,
        "acp": false,
        "rank": 0,
        "value": 0,
        "mod": 0,
        "background": true
      },
      "lor": {
        "ability": "int",
        "rt": true,
        "acp": false,
        "rank": 0,
        "value": 0,
        "mod": 0,
        "background": true
      },
      "per": {
        "ability": "wis",
        "rt": false,
        "acp": false,
        "rank": 0,
        "value": 0,
        "mod": 0,
        "background": false
      },
      "prf": {
        "ability": "cha",
        "rt": false,
        "acp": false,
        "rank": 0,
        "value": 0,
        "mod": 0,
        "background": true
      },
      "pro": {
        "ability": "wis",
        "rt": true,
        "acp": false,
        "rank": 0,
        "value": 0,
        "mod": 0,
        "background": true
      },
      "rid": {
        "ability": "dex",
        "rt": false,
        "acp": true,
        "rank": 0,
        "value": 0,
        "mod": 0,
        "background": false
      },
      "sen": {
        "ability": "wis",
        "rt": false,
        "acp": false,
        "rank": 0,
        "value": 0,
        "mod": 0,
        "background": false
      },
      "slt": {
        "ability": "dex",
        "rt": true,
        "acp": true,
        "rank": 0,
        "value": 0,
        "mod": 0,
        "background": true
      },
      "spl": {
        "ability": "int",
        "rt": true,
        "acp": false,
        "rank": 0,
        "value": 0,
        "mod": 0,
        "background": false
      },
      "ste": {
        "ability": "dex",
        "rt": false,
        "acp": true,
        "rank": 0,
        "value": 0,
        "mod": 0,
        "background": false
      },
      "sur": {
        "ability": "wis",
        "rt": false,
        "acp": false,
        "rank": 0,
        "value": 0,
        "mod": 0,
        "background": false
      },
      "swm": {
        "ability": "str",
        "rt": false,
        "acp": true,
        "rank": 0,
        "value": 0,
        "mod": 0,
        "background": false
      },
      "umd": {
        "ability": "cha",
        "rt": true,
        "acp": false,
        "rank": 0,
        "value": 0,
        "mod": 0,
        "background": false
      }
    },
    "traits": {
      "size": "med",
      "senses": {
        "dv": 0,
        "ts": 0,
        "bs": 0,
        "bse": 0,
        "ll": {
          "enabled": false,
          "multiplier": {
            "dim": 2,
            "bright": 2
          }
        },
        "sid": false,
        "tr": false,
        "si": false,
        "sc": 0,
        "custom": ""
      },
      "dr": {
        "value": [],
        "custom": ""
      },
      "eres": {
        "value": [],
        "custom": ""
      },
      "cres": "",
      "regen": "",
      "fastHealing": "",
      "languages": {
        "value": [],
        "custom": ""
      },
      "di": {
        "value": [],
        "custom": ""
      },
      "dv": {
        "value": [],
        "custom": ""
      },
      "ci": {
        "value": [],
        "custom": ""
      },
      "stature": "tall",
      "weaponProf": {
        "value": [],
        "custom": ""
      },
      "armorProf": {
        "value": [],
        "custom": ""
      },
      "perception": {
        "_deprecated": true
      }
    },
    "currency": {
      "pp": 0,
      "gp": 0,
      "sp": 0,
      "cp": 0
    },
    "altCurrency": {
      "pp": 0,
      "gp": 0,
      "sp": 0,
      "cp": 0
    },
    "customSkills": {}
  },
  "prototypeToken": {
    "flags": {
      "pf1": {}
    },
    "name": "Kingdom Sheet",
    "displayName": 0,
    "width": 1,
    "height": 1,
    "lockRotation": false,
    "rotation": 0,
    "actorLink": true,
    "disposition": -1,
    "displayBars": 0,
    "bar1": {
      "attribute": null
    },
    "bar2": {
      "attribute": null
    },
    "randomImg": false,
    "alpha": 1,
    "light": {
      "alpha": 1,
      "angle": 360,
      "bright": 0,
      "coloration": 1,
      "dim": 0,
      "luminosity": 0.5,
      "saturation": 0,
      "contrast": 0,
      "shadows": 0,
      "animation": {
        "speed": 5,
        "intensity": 5,
        "type": null,
        "reverse": false
      },
      "darkness": {
        "min": 0,
        "max": 1
      },
      "attenuation": 0.5,
      "color": null
    },
    "texture": {
      "src": "icons/environment/settlement/castle.webp",
      "tint": null,
      "scaleX": 1,
      "scaleY": 1,
      "offsetX": 0,
      "offsetY": 0,
      "rotation": 0
    },
    "sight": {
      "angle": 360,
      "enabled": false,
      "range": 0,
      "brightness": 1,
      "visionMode": "basic",
      "color": null,
      "attenuation": 0.1,
      "saturation": 0,
      "contrast": 0
    },
    "detectionModes": []
  },
  "items": [],
  "ownership": {
    "default": 0
  },
  "_stats": {
    "systemId": "pf1",
    "systemVersion": "9.1",
    "coreVersion": "10.291",
    "createdTime": 1665428415530,
    "modifiedTime": 1689793764741,
    "lastModifiedBy": "ppv91YxratjWnkJi"
  },
  "effects": [],
  "folder": null,
  "sort": 0,
  "flags": {},
  "_key": "!actors!Q7ljtb4Igplhhkmx"
}