{
  "_id": "XAIecMFxepcIF9WQ",
  "name": "Amorphous",
  "type": "feat",
  "img": "icons/commodities/materials/slime-thick-blue.webp",
  "system": {
    "description": {
      "value": "<p>The creature is malleable. It is <a class=\"entity-link\" style=\"box-sizing: border-box; user-select: text; background-image: none; background-color: initial; padding: 0px; color: #ff6400; border: none;\" draggable=\"false\" data-pack=\"pf-content.pf-universal-monster-rules\" data-id=\"tMXDONflorjcBvOx\"><span style=\"box-sizing: border-box; user-select: text; text-decoration-line: underline;\">immune</span></a> to precision damage (like sneak attacks) and critical hits.</p>\n<p>&nbsp;</p>\n<p><em>Format</em>: amorphous</p>\n<p><em>Location</em>: Defensive Abilities.</p>",
      "unidentified": ""
    },
    "tags": [
      "Universal Monster Rules"
    ],
    "actions": [],
    "uses": {
      "per": null,
      "value": 0,
      "maxFormula": "",
      "autoDeductChargesCost": "1"
    },
    "attackNotes": [],
    "effectNotes": [],
    "changes": [],
    "changeFlags": {
      "loseDexToAC": false,
      "noEncumbrance": false,
      "mediumArmorFullSpeed": false,
      "heavyArmorFullSpeed": false
    },
    "contextNotes": [],
    "links": {
      "children": [],
      "charges": []
    },
    "tag": "amorphousEx",
    "useCustomTag": false,
    "armorProf": {
      "value": [],
      "custom": ""
    },
    "weaponProf": {
      "value": [],
      "custom": ""
    },
    "languages": {
      "value": [],
      "custom": ""
    },
    "flags": {
      "boolean": {},
      "dictionary": {}
    },
    "scriptCalls": [],
    "subType": "misc",
    "associations": {
      "classes": []
    },
    "showInQuickbar": false,
    "abilityType": "ex",
    "crOffset": "",
    "disabled": false,
    "classSkills": {}
  },
  "ownership": {
    "default": 0
  },
  "_stats": {
    "systemId": "pf1",
    "systemVersion": "9.1",
    "coreVersion": "10.291",
    "createdTime": 1665428402498,
    "modifiedTime": 1689797973746,
    "lastModifiedBy": "ppv91YxratjWnkJi"
  },
  "effects": [],
  "folder": null,
  "sort": 0,
  "flags": {},
  "_key": "!items!XAIecMFxepcIF9WQ"
}