{
  "_id": "qv37nqWZuXUYw2A8",
  "name": "Blood Rage",
  "type": "feat",
  "img": "systems/pf1/icons/skills/blood_13.jpg",
  "system": {
    "description": {
      "value": "<p>When the creature takes damage in combat, on its next turn it can fly into a rage as a free action. It gains +2 Constitution and +2 Strength, but takes a &ndash;2 penalty to its AC. The rage lasts as long as the battle or 1 minute, whichever is shorter. It cannot end its rage voluntarily.</p>\n<p>&nbsp;</p>\n<p><em>Format</em>: blood rage</p>\n<p><em>Location</em>: Special Attacks.</p>",
      "unidentified": ""
    },
    "tags": [
      "Universal Monster Rules"
    ],
    "actions": [],
    "uses": {
      "per": null,
      "value": 0,
      "maxFormula": "",
      "autoDeductChargesCost": "1"
    },
    "attackNotes": [],
    "effectNotes": [],
    "changes": [],
    "changeFlags": {
      "loseDexToAC": false,
      "noEncumbrance": false,
      "mediumArmorFullSpeed": false,
      "heavyArmorFullSpeed": false
    },
    "contextNotes": [],
    "links": {
      "children": [],
      "charges": []
    },
    "tag": "bloodRageEx",
    "useCustomTag": false,
    "armorProf": {
      "value": [],
      "custom": ""
    },
    "weaponProf": {
      "value": [],
      "custom": ""
    },
    "languages": {
      "value": [],
      "custom": ""
    },
    "flags": {
      "boolean": {},
      "dictionary": {}
    },
    "scriptCalls": [],
    "subType": "misc",
    "associations": {
      "classes": []
    },
    "showInQuickbar": false,
    "abilityType": "ex",
    "crOffset": "",
    "disabled": false,
    "classSkills": {}
  },
  "ownership": {
    "default": 0
  },
  "_stats": {
    "systemId": "pf1",
    "systemVersion": "9.1",
    "coreVersion": "10.291",
    "createdTime": 1665428402567,
    "modifiedTime": 1689797974184,
    "lastModifiedBy": "ppv91YxratjWnkJi"
  },
  "effects": [],
  "folder": null,
  "sort": 0,
  "flags": {},
  "_key": "!items!qv37nqWZuXUYw2A8"
}