{
  "_id": "38cHNMivtxWOBXKf",
  "name": "Incorporeal",
  "type": "feat",
  "img": "systems/pf1/icons/skills/blue_35.jpg",
  "system": {
    "description": {
      "value": "<div>\n<p>An incorporeal creature has no physical body. It can be harmed only by other incorporeal creatures, magic weapons or creatures that strike as magic weapons, spells, spell-like abilities, or supernatural abilities. It is immune to all nonmagical attack forms. Even when hit by spells or magic weapons, it takes only half damage from a corporeal source. Although it is not a magical attack, holy water can affect incorporeal undead. Corporeal spells and effects that do not cause damage only have a 50% chance of affecting an incorporeal creature (except for channel energy). Force spells and effects, such as from a <a class=\"entity-link\" style=\"box-sizing: border-box; user-select: text; background-image: none; background-color: initial; padding: 0px; color: #ff6400; border: none;\" draggable=\"false\" data-pack=\"pf1.spells\" data-id=\"49yc9dpr4kvgki2s\"><span style=\"box-sizing: border-box; user-select: text; text-decoration-line: underline;\">magic missile</span></a>, affect an incorporeal creature normally.</p>\n<p>An incorporeal creature has no natural armor bonus, but it has a deflection bonus equal to its Charisma bonus (always at least +1, even if the creature&rsquo;s Charisma score does not normally provide a bonus).</p>\n<p>An incorporeal creature can enter or pass through solid objects, but must remain adjacent to the object&rsquo;s exterior, and so cannot pass entirely through an object whose space is larger than its own. It can sense the presence of creatures or objects within a square adjacent to its current location, but enemies have total concealment (50% miss chance) from an incorporeal creature that is inside an object. In order to see beyond the object it is in and attack normally, the incorporeal creature must emerge. An incorporeal creature inside an object has total cover, but when it attacks a creature outside the object it only has cover, so a creature outside with a readied action could strike at it as it attacks. An incorporeal creature cannot pass through a force effect.</p>\n<p>An incorporeal creature&rsquo;s attacks pass through (ignore) natural armor, armor, and shields, although deflection bonuses and force effects (such as <a class=\"entity-link\" style=\"box-sizing: border-box; user-select: text; background-image: none; background-color: initial; padding: 0px; color: #ff6400; border: none;\" draggable=\"false\" data-pack=\"pf1.spells\" data-id=\"ucc0a31d1y86oleh\"><span style=\"box-sizing: border-box; user-select: text; text-decoration-line: underline;\">mage armor</span></a>) work normally against it. Incorporeal creatures pass through and operate in water as easily as they do in air. Incorporeal creatures can&rsquo;t fall or take falling damage. They can&rsquo;t perform<span style=\"text-decoration: underline;\"> </span>trip or grapple combat maneuvers, nor can they be tripped or <a class=\"entity-link\" style=\"box-sizing: border-box; user-select: text; background-image: none; background-color: initial; padding: 0px; color: #ff6400; border: none;\" draggable=\"false\" data-pack=\"pf1.conditions\" data-id=\"zemoWcP2SR6FTiS1\"><span style=\"box-sizing: border-box; user-select: text; text-decoration-line: underline;\">grappled</span></a>. In fact, they can&rsquo;t take any physical actions that would move or manipulate an opponent or its equipment, nor are they subject to such actions. Incorporeal creatures have no weight and do not set off traps that are triggered by weight.</p>\n<p>An incorporeal creature moves silently and cannot be heard with <a class=\"entity-link\" style=\"box-sizing: border-box; user-select: text; background-image: none; background-color: initial; padding: 0px; color: #ff6400; border: none;\" draggable=\"false\" data-pack=\"pf1.skills\" data-id=\"YYmmxDgp0g3ltSUG\"><span style=\"box-sizing: border-box; user-select: text; text-decoration-line: underline;\">Perception</span></a> checks if it doesn&rsquo;t wish to be. It has no Strength score, so its Dexterity modifier applies to its melee attacks, ranged attacks, and <span style=\"text-decoration: underline;\">CMB</span>. Nonvisual senses, such as <a class=\"entity-link\" style=\"box-sizing: border-box; user-select: text; background-image: none; background-color: initial; padding: 0px; color: #ff6400; border: none;\" draggable=\"false\" data-pack=\"pf-content.pf-universal-monster-rules\" data-id=\"N2upN6iz6Ip5Z6RI\"><span style=\"box-sizing: border-box; user-select: text; text-decoration-line: underline;\">blindsense</span></a> and <a class=\"entity-link\" style=\"box-sizing: border-box; user-select: text; background-image: none; background-color: initial; padding: 0px; color: #ff6400; border: none;\" draggable=\"false\" data-pack=\"pf-content.pf-universal-monster-rules\" data-id=\"IenVKrVUGgg7BYWt\"><span style=\"box-sizing: border-box; user-select: text; text-decoration-line: underline;\">scent</span></a>, are either ineffective or only partly effective with regard to incorporeal creatures. Incorporeal creatures have an innate sense of direction and can move at full speed even when they cannot see.</p>\n<br />\n<p><em>Format</em>: incorporeal</p>\n<p><em>Location</em>: Defensive Abilities.</p>\n</div>",
      "unidentified": ""
    },
    "tags": [
      "Universal Monster Rules"
    ],
    "actions": [],
    "uses": {
      "per": null,
      "value": 0,
      "maxFormula": "",
      "autoDeductChargesCost": "1"
    },
    "attackNotes": [],
    "effectNotes": [],
    "changes": [],
    "changeFlags": {
      "loseDexToAC": false,
      "noEncumbrance": false,
      "mediumArmorFullSpeed": false,
      "heavyArmorFullSpeed": false
    },
    "contextNotes": [],
    "links": {
      "children": [],
      "charges": []
    },
    "tag": "incorporealEx",
    "useCustomTag": false,
    "armorProf": {
      "value": [],
      "custom": ""
    },
    "weaponProf": {
      "value": [],
      "custom": ""
    },
    "languages": {
      "value": [],
      "custom": ""
    },
    "flags": {
      "boolean": {},
      "dictionary": {}
    },
    "scriptCalls": [],
    "subType": "misc",
    "associations": {
      "classes": []
    },
    "showInQuickbar": false,
    "abilityType": "ex",
    "crOffset": "",
    "disabled": false,
    "classSkills": {}
  },
  "ownership": {
    "default": 0
  },
  "_stats": {
    "systemId": "pf1",
    "systemVersion": "9.1",
    "coreVersion": "10.291",
    "createdTime": 1665428402421,
    "modifiedTime": 1689797973258,
    "lastModifiedBy": "ppv91YxratjWnkJi"
  },
  "effects": [],
  "folder": null,
  "sort": 0,
  "flags": {},
  "_key": "!items!38cHNMivtxWOBXKf"
}