{
  "_id": "ePXZNIPuMqG6ATr4",
  "name": "Lingering Breath [Mythic]",
  "type": "feat",
  "img": "systems/pf1/icons/skills/ice_11.jpg",
  "system": {
    "description": {
      "value": "<p>The creature can expend one use of <a class=\"entity-link\" style=\"box-sizing: border-box; user-select: text; background-image: none; background-color: initial; padding: 0px; color: #ff6400; border: none;\" draggable=\"false\" data-pack=\"pf-content.pf-universal-monster-rules\" data-id=\"emNdW1Y7gFdGwNpo\"><span style=\"box-sizing: border-box; user-select: text; text-decoration-line: underline;\">mythic power</span></a> as a free action when it uses its <a class=\"entity-link\" style=\"box-sizing: border-box; user-select: text; background-image: none; background-color: initial; padding: 0px; color: #ff6400; border: none;\" draggable=\"false\" data-pack=\"pf-content.pf-universal-monster-rules\" data-id=\"pQMisEKPQrTWyLh0\"><span style=\"box-sizing: border-box; user-select: text; text-decoration-line: underline;\">breath weapon</span></a> to make the area radiate energy damage (of the same type as the breath weapon) for 1 round per mythic rank. Any creature in, entering, or passing through the breath weapon&rsquo;s area during this duration takes damage according to the creature&rsquo;s size. This ability has no effect on breath weapons that do not deal energy damage.</p>\n<p>&nbsp;</p>\n<h2>Table 3-1: Lingering Breath Damage</h2>\n<table class=\"inner\">\n<tbody>\n<tr>\n<th><strong>Creature Size</strong></th>\n<th><strong>Points of Energy Damage</strong></th>\n</tr>\n<tr>\n<td>Medium or smaller</td>\n<td>2d4</td>\n</tr>\n<tr>\n<td>Large</td>\n<td>2d6</td>\n</tr>\n<tr>\n<td>Huge</td>\n<td>2d8</td>\n</tr>\n<tr>\n<td>Gargantuan</td>\n<td>4d6</td>\n</tr>\n<tr>\n<td>Colossal</td>\n<td>4d8</td>\n</tr>\n</tbody>\n</table>\n<p>&nbsp;</p>\n<p><em>Format</em>: lingering breath (2d6 fire, 5 rounds)</p>\n<p><em>Location</em>: Special Attacks.</p>",
      "unidentified": ""
    },
    "tags": [
      "Universal Monster Rules"
    ],
    "actions": [
      {
        "_id": "ktdwvws9dxogtoa5",
        "name": "Use",
        "img": "systems/pf1/icons/skills/ice_11.jpg",
        "description": "",
        "tag": "lingeringBreathSuMythic",
        "activation": {
          "cost": 1,
          "type": "free",
          "unchained": {
            "cost": 1,
            "type": "free"
          }
        },
        "duration": {
          "value": null,
          "units": ""
        },
        "target": {
          "value": ""
        },
        "range": {
          "units": "",
          "maxIncrements": 1,
          "minValue": null,
          "minUnits": ""
        },
        "uses": {
          "autoDeductChargesCost": "",
          "self": {
            "value": 0,
            "maxFormula": "",
            "per": null
          },
          "per": "",
          "value": 0,
          "maxFormula": "",
          "max": 0
        },
        "measureTemplate": {
          "type": "",
          "size": "",
          "overrideColor": false,
          "customColor": "",
          "overrideTexture": false,
          "customTexture": ""
        },
        "attackName": "",
        "actionType": null,
        "attackBonus": "",
        "critConfirmBonus": "",
        "damage": {
          "parts": [],
          "critParts": [],
          "nonCritParts": []
        },
        "attackParts": [],
        "formulaicAttacks": {
          "count": {
            "formula": ""
          },
          "bonus": {
            "formula": ""
          },
          "label": null
        },
        "formula": "",
        "ability": {
          "attack": null,
          "damage": null,
          "damageMult": 1,
          "critRange": 20,
          "critMult": 2
        },
        "save": {
          "dc": "",
          "type": "",
          "description": ""
        },
        "effectNotes": [],
        "attackNotes": [],
        "soundEffect": "",
        "powerAttack": {
          "multiplier": "",
          "damageBonus": 2,
          "critMultiplier": 1
        },
        "naturalAttack": {
          "primaryAttack": true,
          "secondary": {
            "attackBonus": "-5",
            "damageMult": 0.5
          }
        },
        "nonlethal": false,
        "touch": false,
        "usesAmmo": false,
        "spellEffect": "",
        "spellArea": "",
        "conditionals": [],
        "enh": {
          "value": null
        }
      }
    ],
    "uses": {
      "per": "",
      "value": 0,
      "maxFormula": "",
      "autoDeductChargesCost": "1",
      "max": 0
    },
    "attackNotes": [],
    "effectNotes": [],
    "changes": [],
    "changeFlags": {
      "loseDexToAC": false,
      "noEncumbrance": false,
      "mediumArmorFullSpeed": false,
      "heavyArmorFullSpeed": false
    },
    "contextNotes": [],
    "links": {
      "children": [],
      "charges": []
    },
    "tag": "lingeringBreathSuMythic",
    "useCustomTag": false,
    "armorProf": {
      "value": [],
      "custom": ""
    },
    "weaponProf": {
      "value": [],
      "custom": ""
    },
    "languages": {
      "value": [],
      "custom": ""
    },
    "flags": {
      "boolean": {},
      "dictionary": {}
    },
    "scriptCalls": [],
    "subType": "misc",
    "associations": {
      "classes": []
    },
    "showInQuickbar": false,
    "abilityType": "su",
    "crOffset": "",
    "disabled": false,
    "classSkills": {}
  },
  "ownership": {
    "default": 0
  },
  "_stats": {
    "systemId": "pf1",
    "systemVersion": "9.1",
    "coreVersion": "10.291",
    "createdTime": 1665428402513,
    "modifiedTime": 1689797973865,
    "lastModifiedBy": "ppv91YxratjWnkJi"
  },
  "effects": [],
  "folder": null,
  "sort": 0,
  "flags": {},
  "_key": "!items!ePXZNIPuMqG6ATr4"
}