{
  "_id": "hT4vUNFEHs5aFhEz",
  "name": "Mythic Immortality [Mythic]",
  "type": "feat",
  "img": "systems/pf1/icons/feats/improved-great-fortitude.jpg",
  "system": {
    "description": {
      "value": "<p>If the creature is killed, it returns to life 24 hours later, regardless of the condition of its body or the means by which it was killed. When it returns to life, it isn&rsquo;t treated as if it had rested, and doesn&rsquo;t regain the use of abilities that are restored with rest until it next rests. This ability doesn&rsquo;t apply if the creature is killed by a coup de grace or critical hit performed by either a mythic creature (or creature of even greater power) or a non-mythic creature wielding a weapon capable of bypassing epic <a class=\"entity-link\" style=\"box-sizing: border-box; user-select: text; background-image: none; background-color: initial; padding: 0px; color: #ff6400; border: none;\" draggable=\"false\" data-pack=\"pf-content.pf-universal-monster-rules\" data-id=\"FOhVIvz5G70mWRJv\"><span style=\"box-sizing: border-box; user-select: text; text-decoration-line: underline;\">damage reduction</span></a>. If the creature is 10th mythic rank, it can be killed only by a coup de grace or critical hit made with an artifact. (This ability is called &ldquo;immortal&rdquo; in <em>Mythic Adventures</em>.)</p>\n<p>&nbsp;</p>\n<p><em>Format</em>: mythic immortality</p>\n<p><em>Location</em>: SQ.</p>",
      "unidentified": ""
    },
    "tags": [
      "Universal Monster Rules"
    ],
    "actions": [],
    "uses": {
      "per": null,
      "value": 0,
      "maxFormula": "",
      "autoDeductChargesCost": "1"
    },
    "attackNotes": [],
    "effectNotes": [],
    "changes": [],
    "changeFlags": {
      "loseDexToAC": false,
      "noEncumbrance": false,
      "mediumArmorFullSpeed": false,
      "heavyArmorFullSpeed": false
    },
    "contextNotes": [],
    "links": {
      "children": [],
      "charges": []
    },
    "tag": "mythicImmortalitySuMythic",
    "useCustomTag": false,
    "armorProf": {
      "value": [],
      "custom": ""
    },
    "weaponProf": {
      "value": [],
      "custom": ""
    },
    "languages": {
      "value": [],
      "custom": ""
    },
    "flags": {
      "boolean": {},
      "dictionary": {}
    },
    "scriptCalls": [],
    "subType": "misc",
    "associations": {
      "classes": []
    },
    "showInQuickbar": false,
    "abilityType": "su",
    "crOffset": "",
    "disabled": false,
    "classSkills": {}
  },
  "ownership": {
    "default": 0
  },
  "_stats": {
    "systemId": "pf1",
    "systemVersion": "9.1",
    "coreVersion": "10.291",
    "createdTime": 1665428402524,
    "modifiedTime": 1689797973930,
    "lastModifiedBy": "ppv91YxratjWnkJi"
  },
  "effects": [],
  "folder": null,
  "sort": 0,
  "flags": {},
  "_key": "!items!hT4vUNFEHs5aFhEz"
}