{
  "_id": "nma0nABLP1ZAYLg6",
  "name": "Powerful Blows [Mythic]",
  "type": "feat",
  "img": "systems/pf1/icons/feats/cleave.jpg",
  "system": {
    "description": {
      "value": "<p>The specified attack adds 1-1/2 times the creature&rsquo;s Strength bonus to its damage rolls instead of its normal Strength bonus or half its Strength bonus.</p>&nbsp;<p><em>Format</em>: powerful blows (slam)</p><p><em>Location</em>: SQ.</p>",
      "unidentified": ""
    },
    "tags": [
      "Universal Monster Rules"
    ],
    "actions": [],
    "uses": {
      "per": null,
      "value": 0,
      "maxFormula": "",
      "autoDeductChargesCost": "1"
    },
    "attackNotes": [],
    "effectNotes": [],
    "changes": [],
    "changeFlags": {
      "loseDexToAC": false,
      "noEncumbrance": false,
      "mediumArmorFullSpeed": false,
      "heavyArmorFullSpeed": false
    },
    "contextNotes": [],
    "links": {
      "children": [],
      "charges": []
    },
    "tag": "powerfulBlowsExMythic",
    "useCustomTag": false,
    "armorProf": {
      "value": [],
      "custom": ""
    },
    "weaponProf": {
      "value": [],
      "custom": ""
    },
    "languages": {
      "value": [],
      "custom": ""
    },
    "flags": {
      "boolean": {},
      "dictionary": {}
    },
    "scriptCalls": [],
    "subType": "misc",
    "associations": {
      "classes": []
    },
    "showInQuickbar": false,
    "abilityType": "ex",
    "crOffset": "",
    "disabled": false,
    "classSkills": {}
  },
  "ownership": {
    "default": 0
  },
  "_stats": {
    "systemId": "pf1",
    "systemVersion": "9.1",
    "coreVersion": "10.291",
    "createdTime": 1665428402551,
    "modifiedTime": 1689797974077,
    "lastModifiedBy": "ppv91YxratjWnkJi"
  },
  "effects": [],
  "folder": null,
  "sort": 0,
  "flags": {},
  "_key": "!items!nma0nABLP1ZAYLg6"
}