{
  "_id": "wY4KCBklLHhOnnNC",
  "name": "Push",
  "type": "feat",
  "img": "systems/pf1/icons/feats/improved-unarmed-strike.jpg",
  "system": {
    "description": {
      "value": "<p>A creature with the push ability can choose to attempt a free combat maneuver check with a certain successful attack (often a slam attack). If successful, this check pushes a creature directly away as with a bull rush, but the distance moved is set by this ability. The type of attack that causes the push and the distance pushed are included in the creature&rsquo;s description. This ability only works on creatures of a size equal to or smaller than the pushing creature. Creatures pushed in this way do not provoke attacks of opportunity and stop if the push would move them into a solid object or creature.</p>\n<p>&nbsp;</p>\n<p><em>Format</em>: push (slam, 10 feet)</p>\n<p><em>Location</em>: Special Attacks and individual attacks.</p>",
      "unidentified": ""
    },
    "tags": [
      "Universal Monster Rules"
    ],
    "actions": [
      {
        "_id": "nhq2wq6yin1vae8e",
        "name": "Use",
        "img": "systems/pf1/icons/feats/improved-unarmed-strike.jpg",
        "description": "",
        "tag": "pushEx",
        "activation": {
          "cost": 1,
          "type": "free",
          "unchained": {
            "cost": 1,
            "type": "free"
          }
        },
        "duration": {
          "value": null,
          "units": ""
        },
        "target": {
          "value": ""
        },
        "range": {
          "units": "",
          "maxIncrements": 1,
          "minValue": null,
          "minUnits": ""
        },
        "uses": {
          "autoDeductChargesCost": "",
          "self": {
            "value": 0,
            "maxFormula": "",
            "per": null
          },
          "per": "",
          "value": 0,
          "maxFormula": "",
          "max": 0
        },
        "measureTemplate": {
          "type": "",
          "size": "",
          "overrideColor": false,
          "customColor": "",
          "overrideTexture": false,
          "customTexture": ""
        },
        "attackName": "",
        "actionType": "mcman",
        "attackBonus": "",
        "critConfirmBonus": "",
        "damage": {
          "parts": [],
          "critParts": [],
          "nonCritParts": []
        },
        "attackParts": [],
        "formulaicAttacks": {
          "count": {
            "formula": ""
          },
          "bonus": {
            "formula": ""
          },
          "label": null
        },
        "formula": "",
        "ability": {
          "attack": "",
          "damage": "",
          "damageMult": 1,
          "critRange": 20,
          "critMult": 2
        },
        "save": {
          "dc": "0",
          "type": "",
          "description": ""
        },
        "effectNotes": [],
        "attackNotes": [
          "Pushes back 10 ft."
        ],
        "soundEffect": "",
        "powerAttack": {
          "multiplier": "",
          "damageBonus": 2,
          "critMultiplier": 1
        },
        "naturalAttack": {
          "primaryAttack": true,
          "secondary": {
            "attackBonus": "-5",
            "damageMult": 0.5
          }
        },
        "nonlethal": false,
        "touch": false,
        "usesAmmo": false,
        "spellEffect": "",
        "spellArea": "",
        "conditionals": [],
        "enh": {
          "value": null
        }
      }
    ],
    "uses": {
      "per": "",
      "value": 0,
      "maxFormula": "",
      "autoDeductChargesCost": "1",
      "max": 0
    },
    "attackNotes": [],
    "effectNotes": [],
    "changes": [],
    "changeFlags": {
      "loseDexToAC": false,
      "noEncumbrance": false,
      "mediumArmorFullSpeed": false,
      "heavyArmorFullSpeed": false
    },
    "contextNotes": [],
    "links": {
      "children": [],
      "charges": []
    },
    "tag": "pushEx",
    "useCustomTag": false,
    "armorProf": {
      "value": [],
      "custom": ""
    },
    "weaponProf": {
      "value": [],
      "custom": ""
    },
    "languages": {
      "value": [],
      "custom": ""
    },
    "flags": {
      "boolean": {},
      "dictionary": {}
    },
    "scriptCalls": [],
    "subType": "misc",
    "associations": {
      "classes": []
    },
    "showInQuickbar": false,
    "abilityType": "ex",
    "crOffset": "",
    "disabled": false,
    "classSkills": {}
  },
  "ownership": {
    "default": 0
  },
  "_stats": {
    "systemId": "pf1",
    "systemVersion": "9.1",
    "coreVersion": "10.291",
    "createdTime": 1665428402593,
    "modifiedTime": 1689797974331,
    "lastModifiedBy": "ppv91YxratjWnkJi"
  },
  "effects": [],
  "folder": null,
  "sort": 0,
  "flags": {},
  "_key": "!items!wY4KCBklLHhOnnNC"
}