{
  "_id": "oGq7Md8fhjiJVrrR",
  "name": "Seed of Life",
  "type": "feat",
  "img": "systems/pf1/icons/skills/green_24.jpg",
  "system": {
    "description": {
      "value": "<p>An empyreal lord can touch a willing creature and imbue it with magical healing power. The target radiates an aura of good as if it were an outsider and gains a +2 insight bonus on all saving throws against negative energy and death effects. As a standard action, the target can release this energy, turning it inward as a <a class=\"entity-link\" style=\"box-sizing: border-box; user-select: text; background-image: none; background-color: initial; padding: 0px; color: #ff6400; border: none;\" draggable=\"false\" data-pack=\"pf1.spells\" data-id=\"4re1j2w8wkvsvnsi\"><span style=\"box-sizing: border-box; user-select: text; text-decoration-line: underline;\">heal</span></a> spell targeting itself or outward as <a class=\"entity-link\" style=\"box-sizing: border-box; user-select: text; background-image: none; background-color: initial; padding: 0px; color: #ff6400; border: none;\" draggable=\"false\" data-pack=\"pf1.spells\" data-id=\"8y24u1ejlqeoiyqb\"><span style=\"box-sizing: border-box; user-select: text; text-decoration-line: underline;\">mass cure serious wounds</span></a>&nbsp;on allies within 30 feet (caster level 15th). If not released, the energy dissipates harmlessly after 24 hours. The empyreal lord can use this ability 5 times per day, but only on other creatures.</p>",
      "unidentified": ""
    },
    "tags": [],
    "actions": [
      {
        "_id": "xy7mdhfq56hmu6wg",
        "name": "Use",
        "img": "systems/pf1/icons/skills/green_24.jpg",
        "description": "",
        "tag": "seedOfLifeSp",
        "activation": {
          "cost": 1,
          "type": "standard",
          "unchained": {
            "cost": 2,
            "type": "action"
          }
        },
        "duration": {
          "value": null,
          "units": "inst"
        },
        "target": {
          "value": "self or allies with 30ft"
        },
        "range": {
          "value": "30",
          "units": "ft",
          "maxIncrements": "1",
          "minValue": null,
          "minUnits": ""
        },
        "uses": {
          "autoDeductChargesCost": "",
          "self": {
            "value": 0,
            "maxFormula": "",
            "per": null
          },
          "per": "day",
          "value": 5,
          "maxFormula": "",
          "max": 5
        },
        "measureTemplate": {
          "type": "circle",
          "size": "30",
          "overrideColor": false,
          "customColor": "",
          "overrideTexture": false,
          "customTexture": ""
        },
        "attackName": "",
        "actionType": null,
        "attackBonus": "",
        "critConfirmBonus": "",
        "damage": {
          "parts": [],
          "critParts": [],
          "nonCritParts": []
        },
        "attackParts": [],
        "formulaicAttacks": {
          "count": {
            "formula": ""
          },
          "bonus": {
            "formula": ""
          },
          "label": null
        },
        "formula": "",
        "ability": {
          "attack": null,
          "damage": "",
          "damageMult": 1,
          "critRange": 20,
          "critMult": 2
        },
        "save": {
          "dc": "0",
          "type": "",
          "description": ""
        },
        "effectNotes": [],
        "attackNotes": [],
        "soundEffect": "",
        "powerAttack": {
          "multiplier": "",
          "damageBonus": 2,
          "critMultiplier": 1
        },
        "naturalAttack": {
          "primaryAttack": true,
          "secondary": {
            "attackBonus": "-5",
            "damageMult": 0.5
          }
        },
        "nonlethal": false,
        "touch": false,
        "usesAmmo": false,
        "spellEffect": "",
        "spellArea": "",
        "conditionals": [],
        "enh": {
          "value": null
        }
      }
    ],
    "uses": {
      "per": "day",
      "value": 5,
      "maxFormula": "",
      "autoDeductChargesCost": "1",
      "max": 5
    },
    "attackNotes": [],
    "effectNotes": [],
    "changes": [],
    "changeFlags": {
      "loseDexToAC": false,
      "noEncumbrance": false,
      "mediumArmorFullSpeed": false,
      "heavyArmorFullSpeed": false
    },
    "contextNotes": [],
    "links": {
      "children": [],
      "charges": []
    },
    "tag": "seedOfLifeSp",
    "useCustomTag": false,
    "armorProf": {
      "value": [],
      "custom": ""
    },
    "weaponProf": {
      "value": [],
      "custom": ""
    },
    "languages": {
      "value": [],
      "custom": ""
    },
    "flags": {
      "boolean": {},
      "dictionary": {}
    },
    "scriptCalls": [],
    "subType": "misc",
    "associations": {
      "classes": []
    },
    "showInQuickbar": false,
    "abilityType": "sp",
    "crOffset": "",
    "disabled": false,
    "classSkills": {}
  },
  "ownership": {
    "default": 0
  },
  "_stats": {
    "systemId": "pf1",
    "systemVersion": "9.1",
    "coreVersion": "10.291",
    "createdTime": 1665428402556,
    "modifiedTime": 1689797974110,
    "lastModifiedBy": "ppv91YxratjWnkJi"
  },
  "effects": [],
  "folder": null,
  "sort": 0,
  "flags": {},
  "_key": "!items!oGq7Md8fhjiJVrrR"
}