{
  "_id": "cscFVXhlZEw0Apt2",
  "name": "Sound Mimicry",
  "type": "feat",
  "img": "systems/pf1/icons/skills/emerald_06.jpg",
  "system": {
    "description": {
      "value": "<p>The creature perfectly imitates certain sounds or even specific voices. The creature attempts a <a class=\"entity-link\" style=\"box-sizing: border-box; user-select: text; background-image: none; background-color: initial; padding: 0px; color: #ff6400; border: none;\" draggable=\"false\" data-pack=\"pf1.skills\" data-id=\"pAB2PYkZO3lsmeaC\"><span style=\"box-sizing: border-box; user-select: text; text-decoration-line: underline;\">Bluff</span></a> check opposed by the listener&rsquo;s <a class=\"entity-link\" style=\"box-sizing: border-box; user-select: text; background-image: none; background-color: initial; padding: 0px; color: #ff6400; border: none;\" draggable=\"false\" data-pack=\"pf1.skills\" data-id=\"R8HGxGCKayOl15AO\"><span style=\"box-sizing: border-box; user-select: text; text-decoration-line: underline;\">Sense Motive</span></a> check to recognize the mimicry, although if the listener isn&rsquo;t familiar with the person or type of creatures mimicked, it takes a &ndash;8 penalty on its <a class=\"entity-link\" style=\"box-sizing: border-box; user-select: text; background-image: none; background-color: initial; padding: 0px; color: #ff6400; border: none;\" draggable=\"false\" data-pack=\"pf1.skills\" data-id=\"R8HGxGCKayOl15AO\"><span style=\"box-sizing: border-box; user-select: text; text-decoration-line: underline;\">Sense Motive</span></a> check. The creature has a +8 racial bonus on its Bluff check to mimic sounds (including accents and speech patterns, if a voice mimic) it has listened to for at least 10 minutes. The creature cannot duplicate the effects of magical abilities (such as <a class=\"entity-link\" style=\"box-sizing: border-box; user-select: text; background-image: none; background-color: initial; padding: 0px; color: #ff6400; border: none;\" draggable=\"false\" data-pack=\"pf1.class-abilities\" data-id=\"ZfCUTi1MiLgR4T7I\"><span style=\"box-sizing: border-box; user-select: text; text-decoration-line: underline;\">bardic performance</span></a>&nbsp;or a <a href=\"https://www.aonprd.com/MonsterDisplay.aspx?ItemName=Harpy\">harpy&rsquo;s captivating song</a>), though it may be able to mimic the sound of those abilities. This ability does not allow the creature to speak or understand languages it doesn&rsquo;t know.</p>\n<p>&nbsp;</p>\n<p><em>Format</em>: sound mimicry (voices)</p>\n<p><em>Location</em>: SQ.</p>",
      "unidentified": ""
    },
    "tags": [
      "Universal Monster Rules"
    ],
    "actions": [],
    "uses": {
      "per": null,
      "value": 0,
      "maxFormula": "",
      "autoDeductChargesCost": "1"
    },
    "attackNotes": [],
    "effectNotes": [],
    "changes": [],
    "changeFlags": {
      "loseDexToAC": false,
      "noEncumbrance": false,
      "mediumArmorFullSpeed": false,
      "heavyArmorFullSpeed": false
    },
    "contextNotes": [],
    "links": {
      "children": [],
      "charges": []
    },
    "tag": "soundMimicryEx",
    "useCustomTag": false,
    "armorProf": {
      "value": [],
      "custom": ""
    },
    "weaponProf": {
      "value": [],
      "custom": ""
    },
    "languages": {
      "value": [],
      "custom": ""
    },
    "flags": {
      "boolean": {},
      "dictionary": {}
    },
    "scriptCalls": [],
    "subType": "misc",
    "associations": {
      "classes": []
    },
    "showInQuickbar": false,
    "abilityType": "ex",
    "crOffset": "",
    "disabled": false,
    "classSkills": {}
  },
  "ownership": {
    "default": 0
  },
  "_stats": {
    "systemId": "pf1",
    "systemVersion": "9.1",
    "coreVersion": "10.291",
    "createdTime": 1665428402511,
    "modifiedTime": 1689797973851,
    "lastModifiedBy": "ppv91YxratjWnkJi"
  },
  "effects": [],
  "folder": null,
  "sort": 0,
  "flags": {},
  "_key": "!items!cscFVXhlZEw0Apt2"
}