{
  "_id": "2lJQEB5OU9wfONZf",
  "name": "Spell-Like Abilities",
  "type": "feat",
  "img": "systems/pf1/icons/spells/runes-magenta-1.jpg",
  "system": {
    "description": {
      "value": "<div>\n<p>Spell-like abilities are magical and work just like spells (though they are not spells and so have no verbal, somatic, focus, or material components). They go away in an <a class=\"entity-link\" style=\"box-sizing: border-box; user-select: text; background-image: none; background-color: initial; padding: 0px; color: #ff6400; border: none;\" draggable=\"false\" data-pack=\"pf1.spells\" data-id=\"niqxt53lhxrjfaty\"><span style=\"box-sizing: border-box; user-select: text; text-decoration-line: underline;\">antimagic field</span></a> and are subject to <a class=\"entity-link\" style=\"box-sizing: border-box; user-select: text; background-image: none; background-color: initial; padding: 0px; color: #ff6400; border: none;\" draggable=\"false\" data-pack=\"pf-content.pf-universal-monster-rules\" data-id=\"Z70dZiIx6D8W2fM3\"><span style=\"box-sizing: border-box; user-select: text; text-decoration-line: underline;\">spell resistance</span></a> if the spell the ability is based on would be subject to <a class=\"entity-link\" style=\"box-sizing: border-box; user-select: text; background-image: none; background-color: initial; padding: 0px; color: #ff6400; border: none;\" draggable=\"false\" data-pack=\"pf-content.pf-universal-monster-rules\" data-id=\"Z70dZiIx6D8W2fM3\"><span style=\"box-sizing: border-box; user-select: text; text-decoration-line: underline;\">spell resistance</span></a>.</p>\n<p>A spell-like ability usually has a limit on how often it can be used. A constant spell-like ability or one that can be used at will has no use limit. Reactivating a constant spell-like ability is a swift action. Using all other spell-like abilities is a standard action unless noted otherwise, and doing so provokes attacks of opportunity. It is possible to attempt a concentration check to use a spell-like ability defensively and avoid provoking attacks of opportunity, just as when casting a spell. A spell-like ability can be disrupted just as a spell can be. Spell-like abilities cannot be used to counterspell, nor can they be counterspelled.</p>\n<p>&nbsp;</p>\n<p>For creatures with spell-like abilities, the designated caster level defines how difficult it is to dispel their spell-like effects and to define any level-dependent variables (such as range and duration) the abilities might have. The creature&rsquo;s caster level never affects which spell-like abilities the creature has; sometimes the given caster level is lower than the level a spellcasting character would need to cast the spell of the same name. If no caster level is specified, the caster level is equal to the creature&rsquo;s Hit Dice. The saving throw (if any) against a spell-like ability is 10 + the level of the spell the ability resembles or duplicates + the creature&rsquo;s Charisma modifier.</p>\n<br />\n<p>Some spell-like abilities duplicate spells that work differently when cast by characters of different classes. A monster&rsquo;s spell-like abilities are presumed to be the sorcerer/ wizard versions. If the spell in question is not a sorcerer/ wizard spell, then default to cleric, druid, bard, paladin, or ranger, in that order.</p>\n<br />\n<p><em>Format</em>: At will&mdash;<a href=\"https://www.aonprd.com/SpellDisplay.aspx?ItemName=burning%20hands\"><em>burning hands</em></a> (DC 13)</p>\n<p><em>Location</em>: Spell-Like Abilities.</p>\n</div>",
      "unidentified": ""
    },
    "tags": [
      "Universal Monster Rules"
    ],
    "actions": [],
    "uses": {
      "per": null,
      "value": 0,
      "maxFormula": "",
      "autoDeductChargesCost": "1"
    },
    "attackNotes": [],
    "effectNotes": [],
    "changes": [],
    "changeFlags": {
      "loseDexToAC": false,
      "noEncumbrance": false,
      "mediumArmorFullSpeed": false,
      "heavyArmorFullSpeed": false
    },
    "contextNotes": [],
    "links": {
      "children": [],
      "charges": []
    },
    "tag": "spelllikeAbilitiesSp",
    "useCustomTag": false,
    "armorProf": {
      "value": [],
      "custom": ""
    },
    "weaponProf": {
      "value": [],
      "custom": ""
    },
    "languages": {
      "value": [],
      "custom": ""
    },
    "flags": {
      "boolean": {},
      "dictionary": {}
    },
    "scriptCalls": [],
    "subType": "misc",
    "associations": {
      "classes": []
    },
    "showInQuickbar": false,
    "abilityType": "sp",
    "crOffset": "",
    "disabled": false,
    "classSkills": {}
  },
  "ownership": {
    "default": 0
  },
  "_stats": {
    "systemId": "pf1",
    "systemVersion": "9.1",
    "coreVersion": "10.291",
    "createdTime": 1665428402420,
    "modifiedTime": 1689797973248,
    "lastModifiedBy": "ppv91YxratjWnkJi"
  },
  "effects": [],
  "folder": null,
  "sort": 0,
  "flags": {},
  "_key": "!items!2lJQEB5OU9wfONZf"
}