{
  "_id": "raDHrdt6UDSOxRO5",
  "name": "Summon Devils",
  "type": "feat",
  "img": "systems/pf1/icons/skills/yellow_20.jpg",
  "system": {
    "description": {
      "value": "<p>Three times per day as a swift action, an archdevil can summon any devil or combination of devils whose total combined CR is 20 or lower. This otherwise works like the <a class=\"entity-link\" style=\"box-sizing: border-box; user-select: text; background-image: none; background-color: initial; padding: 0px; color: #ff6400; border: none;\" draggable=\"false\" data-pack=\"pf-content.pf-universal-monster-rules\" data-id=\"eJ14u2Ayls8Lt0Af\"><span style=\"box-sizing: border-box; user-select: text; text-decoration-line: underline;\">summon</span></a> universal monster rule with a 100% chance of success, and it counts as a 9th-level spell effect.</p>",
      "unidentified": ""
    },
    "tags": [],
    "actions": [
      {
        "_id": "xm5n48fq1tl2otth",
        "name": "Use",
        "img": "systems/pf1/icons/skills/yellow_20.jpg",
        "description": "",
        "tag": "summonDevilsSp",
        "activation": {
          "cost": 1,
          "type": "swift",
          "unchained": {
            "cost": 1,
            "type": "action"
          }
        },
        "duration": {
          "value": null,
          "units": ""
        },
        "target": {
          "value": ""
        },
        "range": {
          "units": "",
          "maxIncrements": 1,
          "minValue": null,
          "minUnits": ""
        },
        "uses": {
          "autoDeductChargesCost": "",
          "self": {
            "value": 0,
            "maxFormula": "",
            "per": null
          },
          "per": "day",
          "value": 3,
          "maxFormula": "",
          "max": 3
        },
        "measureTemplate": {
          "type": "",
          "size": "30",
          "overrideColor": false,
          "customColor": "",
          "overrideTexture": false,
          "customTexture": ""
        },
        "attackName": "",
        "actionType": null,
        "attackBonus": "",
        "critConfirmBonus": "",
        "damage": {
          "parts": [],
          "critParts": [],
          "nonCritParts": []
        },
        "attackParts": [],
        "formulaicAttacks": {
          "count": {
            "formula": ""
          },
          "bonus": {
            "formula": ""
          },
          "label": null
        },
        "formula": "",
        "ability": {
          "attack": null,
          "damage": "",
          "damageMult": 1,
          "critRange": 20,
          "critMult": 2
        },
        "save": {
          "dc": "15",
          "type": "will",
          "description": "Reduces or Negates (see text)"
        },
        "effectNotes": [
          "DC 10 + 1/2 the qlippoth’s Hit Dice+ the qlippoth’s Charisma modifier"
        ],
        "attackNotes": [],
        "soundEffect": "",
        "powerAttack": {
          "multiplier": "",
          "damageBonus": 2,
          "critMultiplier": 1
        },
        "naturalAttack": {
          "primaryAttack": true,
          "secondary": {
            "attackBonus": "-5",
            "damageMult": 0.5
          }
        },
        "nonlethal": false,
        "touch": false,
        "usesAmmo": false,
        "spellEffect": "",
        "spellArea": "",
        "conditionals": [],
        "enh": {
          "value": null
        }
      }
    ],
    "uses": {
      "per": "day",
      "value": 3,
      "maxFormula": "",
      "autoDeductChargesCost": "1",
      "max": 3
    },
    "attackNotes": [],
    "effectNotes": [],
    "changes": [],
    "changeFlags": {
      "loseDexToAC": false,
      "noEncumbrance": false,
      "mediumArmorFullSpeed": false,
      "heavyArmorFullSpeed": false
    },
    "contextNotes": [],
    "links": {
      "children": [],
      "charges": []
    },
    "tag": "summonDevilsSp",
    "useCustomTag": false,
    "armorProf": {
      "value": [],
      "custom": ""
    },
    "weaponProf": {
      "value": [],
      "custom": ""
    },
    "languages": {
      "value": [],
      "custom": ""
    },
    "flags": {
      "boolean": {},
      "dictionary": {}
    },
    "scriptCalls": [],
    "subType": "misc",
    "associations": {
      "classes": []
    },
    "showInQuickbar": false,
    "abilityType": "sp",
    "crOffset": "",
    "disabled": false,
    "classSkills": {}
  },
  "ownership": {
    "default": 0
  },
  "_stats": {
    "systemId": "pf1",
    "systemVersion": "9.1",
    "coreVersion": "10.291",
    "createdTime": 1665428402568,
    "modifiedTime": 1689797974199,
    "lastModifiedBy": "ppv91YxratjWnkJi"
  },
  "effects": [],
  "folder": null,
  "sort": 0,
  "flags": {},
  "_key": "!items!raDHrdt6UDSOxRO5"
}