{
  "_id": "HrtBNVwPOuW3OreQ",
  "name": "Sunlight Powerlessness",
  "type": "feat",
  "img": "systems/pf1/icons/spells/light-air-fire-3.jpg",
  "system": {
    "description": {
      "value": "<p>If the creature is in sunlight (but not in an area of <a class=\"entity-link\" style=\"box-sizing: border-box; user-select: text; background-image: none; background-color: initial; padding: 0px; color: #ff6400; border: none;\" draggable=\"false\" data-pack=\"pf1.spells\" data-id=\"7x2z0i8rcx7s81fk\"><span style=\"box-sizing: border-box; user-select: text; text-decoration-line: underline;\">daylight</span></a> or similar spells), it cannot attack and is <a class=\"entity-link\" style=\"box-sizing: border-box; user-select: text; background-image: none; background-color: initial; padding: 0px; color: #ff6400; border: none;\" draggable=\"false\" data-pack=\"pf1.conditions\" data-id=\"6LpiJdKskDFD4zLC\"><span style=\"box-sizing: border-box; user-select: text; text-decoration-line: underline;\">staggered</span></a>.</p>\n<p>&nbsp;</p>\n<p><em>Format</em>: sunlight powerlessness</p>\n<p><em>Location</em>: Weaknesses.</p>",
      "unidentified": ""
    },
    "tags": [
      "Universal Monster Rules"
    ],
    "actions": [],
    "uses": {
      "per": null,
      "value": 0,
      "maxFormula": "",
      "autoDeductChargesCost": "1"
    },
    "attackNotes": [],
    "effectNotes": [],
    "changes": [],
    "changeFlags": {
      "loseDexToAC": false,
      "noEncumbrance": false,
      "mediumArmorFullSpeed": false,
      "heavyArmorFullSpeed": false
    },
    "contextNotes": [],
    "links": {
      "children": [],
      "charges": []
    },
    "tag": "sunlightPowerlessnessEx",
    "useCustomTag": false,
    "armorProf": {
      "value": [],
      "custom": ""
    },
    "weaponProf": {
      "value": [],
      "custom": ""
    },
    "languages": {
      "value": [],
      "custom": ""
    },
    "flags": {
      "boolean": {},
      "dictionary": {}
    },
    "scriptCalls": [],
    "subType": "misc",
    "associations": {
      "classes": []
    },
    "showInQuickbar": false,
    "abilityType": "ex",
    "crOffset": "",
    "disabled": false,
    "classSkills": {}
  },
  "ownership": {
    "default": 0
  },
  "_stats": {
    "systemId": "pf1",
    "systemVersion": "9.1",
    "coreVersion": "10.291",
    "createdTime": 1665428402448,
    "modifiedTime": 1689797973433,
    "lastModifiedBy": "ppv91YxratjWnkJi"
  },
  "effects": [],
  "folder": null,
  "sort": 0,
  "flags": {},
  "_key": "!items!HrtBNVwPOuW3OreQ"
}