{
  "_id": "EhsuDMp3lBxcxPXr",
  "name": "Telepathic Caster",
  "type": "feat",
  "img": "systems/pf1/icons/spells/beam-magenta-2.jpg",
  "system": {
    "description": {
      "value": "<p><span style=\"color: #191813; font-size: 13px;\">Due to a formian&rsquo;s telepathic nature, if it casts spells it does so as spell-like abilities.</span></p>",
      "unidentified": ""
    },
    "tags": [],
    "actions": [],
    "uses": {
      "per": "",
      "value": 0,
      "maxFormula": "",
      "autoDeductChargesCost": "1",
      "max": 0
    },
    "attackNotes": [],
    "effectNotes": [
      "DC 10 + 1/2 the qlippoth’s Hit Dice+ the qlippoth’s Charisma modifier"
    ],
    "changes": [],
    "changeFlags": {
      "loseDexToAC": false,
      "noEncumbrance": false,
      "mediumArmorFullSpeed": false,
      "heavyArmorFullSpeed": false
    },
    "contextNotes": [],
    "links": {
      "children": [],
      "charges": []
    },
    "tag": "telepathicCasterEx",
    "useCustomTag": false,
    "armorProf": {
      "value": [],
      "custom": ""
    },
    "weaponProf": {
      "value": [],
      "custom": ""
    },
    "languages": {
      "value": [],
      "custom": ""
    },
    "flags": {
      "boolean": {},
      "dictionary": {}
    },
    "scriptCalls": [],
    "subType": "misc",
    "associations": {
      "classes": []
    },
    "showInQuickbar": false,
    "abilityType": "ex",
    "crOffset": "",
    "disabled": false,
    "classSkills": {}
  },
  "ownership": {
    "default": 0
  },
  "_stats": {
    "systemId": "pf1",
    "systemVersion": "9.1",
    "coreVersion": "10.291",
    "createdTime": 1665428402443,
    "modifiedTime": 1689797973396,
    "lastModifiedBy": "ppv91YxratjWnkJi"
  },
  "effects": [],
  "folder": null,
  "sort": 0,
  "flags": {},
  "_key": "!items!EhsuDMp3lBxcxPXr"
}