{
  "_id": "t3LF3G1pF8oCcouU",
  "flags": {},
  "type": 0,
  "text": "6",
  "img": "icons/svg/d20-black.svg",
  "resultId": "",
  "weight": 1,
  "range": [
    97,
    100
  ],
  "drawn": false,
  "_key": "!tables.results!EXUkODGaRehreIBt.t3LF3G1pF8oCcouU"
}