{
  "_id": "mFoQui46ITNY0UlR",
  "flags": {},
  "type": 0,
  "text": "@Compendium[pf1.bestiary_2.IyLKYOWqc55zwhwG]{Barbed Devil}",
  "img": "systems/pf1/icons/races/creature-types/outsider.png",
  "resultId": "",
  "weight": 4,
  "range": [
    79,
    82
  ],
  "drawn": false,
  "_key": "!tables.results!yeQlfbQ6ARKZLOUH.mFoQui46ITNY0UlR"
}