{
  "_id": "sGgdxwWRd6oO4Ml7",
  "flags": {
    "better-rolltables": {
      "brt-result-formula": {
        "formula": ""
      }
    }
  },
  "type": 0,
  "text": "[[1d6]] @Compendium[pf1.bestiary_2.I44hFS2FS1Cnu9PF]{Cyclops}",
  "img": "systems/pf1/icons/races/human.jpg",
  "resultId": "",
  "weight": 4,
  "range": [
    85,
    88
  ],
  "drawn": false,
  "_key": "!tables.results!Kw71mFyijU5TKXAY.sGgdxwWRd6oO4Ml7"
}