{
  "_id": "GG8htm36Xl3pTmrD",
  "flags": {},
  "type": 0,
  "text": "1d4 Kongamatos",
  "img": "icons/svg/d20-black.svg",
  "resultId": "",
  "weight": 1,
  "range": [
    98,
    100
  ],
  "drawn": false,
  "_key": "!tables.results!ujK11TyOVySkc7R3.GG8htm36Xl3pTmrD"
}