{
  "_id": "t3LF3G1pF8oCcouU",
  "flags": {},
  "type": 0,
  "text": "4",
  "img": "icons/svg/d20-black.svg",
  "resultId": "",
  "weight": 1,
  "range": [
    35,
    42
  ],
  "drawn": false,
  "_key": "!tables.results!gtjNkGB5hTbOdOMl.t3LF3G1pF8oCcouU"
}