{
  "_id": "Q43ibJWpVv0DKkZr",
  "flags": {},
  "type": 0,
  "text": "@Compendium[pf1.bestiary_4.pPxwQIF3CDGQXBZ2]{Night Hag}",
  "img": "systems/pf1/icons/races/creature-types/outsider.png",
  "resultId": "",
  "weight": 4,
  "range": [
    41,
    44
  ],
  "drawn": false,
  "_key": "!tables.results!yeQlfbQ6ARKZLOUH.Q43ibJWpVv0DKkZr"
}