{
  "_id": "jseL6ANla6CoY0Ay",
  "flags": {},
  "type": 0,
  "text": "Standard",
  "img": "icons/svg/d20-black.svg",
  "resultId": "",
  "weight": 1,
  "range": [
    30,
    38
  ],
  "drawn": false,
  "_key": "!tables.results!LxP6UGsIYc00fAm4.jseL6ANla6CoY0Ay"
}