{
  "_id": "GG8htm36Xl3pTmrD",
  "flags": {},
  "type": 0,
  "text": "1 Froghemoth",
  "img": "icons/svg/d20-black.svg",
  "resultId": "",
  "weight": 1,
  "range": [
    99,
    100
  ],
  "drawn": false,
  "_key": "!tables.results!4YycC2U9gq033hBg.GG8htm36Xl3pTmrD"
}