{
  "_id": "yAalJ05zBnMtJJrb",
  "flags": {},
  "type": 0,
  "text": "[[1d6]] @Compendium[pf1.bestiary_3.ZPFoFppIQQhaqOzL]{Cloaker}",
  "img": "systems/pf1/icons/races/creature-types/abberation.png",
  "resultId": "",
  "weight": 4,
  "range": [
    19,
    22
  ],
  "drawn": false,
  "_key": "!tables.results!yeQlfbQ6ARKZLOUH.yAalJ05zBnMtJJrb"
}