{
  "_id": "z5n6eNCwgUOczZxU",
  "flags": {},
  "type": 0,
  "text": "[[1d8]] @Compendium[pf1.bestiary_4.lUcRyyoeQpUH15lj]{Gargoyle}",
  "img": "systems/pf1/icons/races/creature-types/monstrous-humanoid.png",
  "resultId": "",
  "weight": 4,
  "range": [
    87,
    90
  ],
  "drawn": false,
  "_key": "!tables.results!UaAasqrVwPYO3BdE.z5n6eNCwgUOczZxU"
}