{
  "_id": "GG8htm36Xl3pTmrD",
  "flags": {},
  "type": 0,
  "text": "1 adult red dragon",
  "img": "icons/svg/d20-black.svg",
  "resultId": "",
  "weight": 1,
  "range": [
    100,
    100
  ],
  "drawn": false,
  "_key": "!tables.results!7piva9NYi7Sx8DMu.GG8htm36Xl3pTmrD"
}