{
  "_id": "LZHD6dYbXFVRjtkc",
  "flags": {
    "better-rolltables": {
      "brt-result-formula": {
        "formula": ""
      }
    }
  },
  "type": 0,
  "text": "@Compendium[pf1.bestiary_1.1Xr8IWzBskcZByKk]{Babau}",
  "img": "systems/pf1/icons/races/creature-types/outsider.png",
  "resultId": "",
  "weight": 2,
  "range": [
    89,
    90
  ],
  "drawn": false,
  "_key": "!tables.results!deTX4e73uAem1ddR.LZHD6dYbXFVRjtkc"
}