{
  "_id": "6dS5GdJ1yIt4aBhb",
  "flags": {
    "better-rolltables": {
      "brt-result-formula": {
        "formula": ""
      }
    }
  },
  "type": 0,
  "text": "@Compendium[pf1.bestiary_4.jFLVObBcDzqa9FYu]{Spider Swarm}",
  "img": "systems/pf1/icons/races/creature-types/vermin.png",
  "resultId": "",
  "weight": 4,
  "range": [
    1,
    4
  ],
  "drawn": false,
  "_key": "!tables.results!Kw71mFyijU5TKXAY.6dS5GdJ1yIt4aBhb"
}