{
  "_id": "08TdjJFWnpFr6sph",
  "flags": {
    "better-rolltables": {
      "brt-result-formula": {
        "formula": ""
      }
    }
  },
  "type": 0,
  "text": "[[2d6]] @Compendium[pf1.bestiary_4.lf7gbHqgkpZbGkzQ]{Morlock}",
  "img": "systems/pf1/icons/races/creature-types/monstrous-humanoid.png",
  "resultId": "",
  "weight": 8,
  "range": [
    53,
    60
  ],
  "drawn": false,
  "_key": "!tables.results!czekCM9YELIoJAEW.08TdjJFWnpFr6sph"
}