{
  "_id": "fGSL8NcgcSkTG7zm",
  "flags": {
    "better-rolltables": {
      "brt-result-formula": {
        "formula": ""
      }
    }
  },
  "type": 0,
  "text": "[[1d4]] @Compendium[pf1.bestiary_3.ZVXXiNRKNuqNnrsR]{Wight}",
  "img": "systems/pf1/icons/races/creature-types/undead.png",
  "resultId": "",
  "weight": 4,
  "range": [
    53,
    56
  ],
  "drawn": false,
  "_key": "!tables.results!deTX4e73uAem1ddR.fGSL8NcgcSkTG7zm"
}