{
  "_id": "3qm0YP6s8K05HgDr",
  "flags": {
    "better-rolltables": {
      "brt-result-formula": {
        "formula": ""
      }
    }
  },
  "type": 0,
  "text": "@Compendium[pf1.bestiary_5.tYIbEwgRdgdpjFxs]{Ochre Jelly}",
  "img": "systems/pf1/icons/races/creature-types/ooze.jpg",
  "resultId": "",
  "weight": 4,
  "range": [
    39,
    42
  ],
  "drawn": false,
  "_key": "!tables.results!deTX4e73uAem1ddR.3qm0YP6s8K05HgDr"
}