{
  "_id": "cKv9ZMx6FCKLOybk",
  "flags": {
    "better-rolltables": {
      "brt-result-formula": {
        "formula": ""
      }
    }
  },
  "type": 2,
  "text": "Gelatinous Cube",
  "img": "systems/pf1/icons/races/creature-types/ooze.jpg",
  "collection": "pf1.bestiary_4",
  "resultId": "rXC2xosoN3IcgwYI",
  "weight": 4,
  "range": [
    57,
    60
  ],
  "drawn": false,
  "_key": "!tables.results!RR2N41I4f6V7xSXx.cKv9ZMx6FCKLOybk"
}