{
  "_id": "k23UdaN4XeFXPWSJ",
  "flags": {
    "better-rolltables": {
      "brt-result-formula": {
        "formula": ""
      }
    }
  },
  "type": 0,
  "text": "[[1d6]] @Compendium[pf1.bestiary_3.d4AgZH27fsi8b103]{Harpy}",
  "img": "systems/pf1/icons/races/creature-types/monstrous-humanoid.png",
  "resultId": "",
  "weight": 6,
  "range": [
    65,
    70
  ],
  "drawn": false,
  "_key": "!tables.results!Kw71mFyijU5TKXAY.k23UdaN4XeFXPWSJ"
}