{
  "_id": "GG448zS5XqmDERyZ",
  "flags": {},
  "type": 0,
  "text": "@Compendium[pf1.bestiary_3.bz0pQiaUtSdrw1As]{Mohrg}",
  "img": "systems/pf1/icons/races/creature-types/undead.png",
  "resultId": "",
  "weight": 2,
  "range": [
    91,
    92
  ],
  "drawn": false,
  "_key": "!tables.results!UaAasqrVwPYO3BdE.GG448zS5XqmDERyZ"
}