{
  "_id": "J5M00GlmbPmpKbFC",
  "flags": {
    "better-rolltables": {
      "brt-result-formula": {
        "formula": ""
      }
    }
  },
  "type": 0,
  "text": "@Compendium[pf1.bestiary_4.en7X8rnzjaIBIlMr]{Basidirond}",
  "img": "systems/pf1/icons/races/creature-types/plant.png",
  "resultId": "",
  "weight": 6,
  "range": [
    17,
    22
  ],
  "drawn": false,
  "_key": "!tables.results!czekCM9YELIoJAEW.J5M00GlmbPmpKbFC"
}