{
  "_id": "VAUxcD0hezlpmPwg",
  "flags": {
    "better-rolltables": {
      "brt-result-formula": {
        "formula": ""
      }
    }
  },
  "type": 0,
  "text": "@Compendium[pf1.bestiary_2.DTFDYegwLNphIYeJ]{Medusa}",
  "img": "systems/pf1/icons/races/creature-types/monstrous-humanoid.png",
  "resultId": "",
  "weight": 2,
  "range": [
    71,
    72
  ],
  "drawn": false,
  "_key": "!tables.results!Kw71mFyijU5TKXAY.VAUxcD0hezlpmPwg"
}