{
  "_id": "boNNfurWuqyfyNb5",
  "flags": {},
  "type": 0,
  "text": "@Compendium[pf1.bestiary_3.WzXUvUzVpSbgjSWd]{Werewolf}",
  "img": "systems/pf1/icons/races/human.jpg",
  "resultId": "",
  "weight": 2,
  "range": [
    31,
    32
  ],
  "drawn": false,
  "_key": "!tables.results!UaAasqrVwPYO3BdE.boNNfurWuqyfyNb5"
}