{
  "_id": "Eu7pnZlVPV3POzrg",
  "flags": {
    "better-rolltables": {
      "brt-result-formula": {
        "formula": ""
      }
    }
  },
  "type": 0,
  "text": "[[1d4]] @Compendium[pf1.bestiary_1.8rRqr4nNnWKWW9ax]{Yeth Hound}",
  "img": "systems/pf1/icons/races/creature-types/outsider.png",
  "resultId": "",
  "weight": 4,
  "range": [
    45,
    48
  ],
  "drawn": false,
  "_key": "!tables.results!Kw71mFyijU5TKXAY.Eu7pnZlVPV3POzrg"
}