{
  "_id": "sGvrZUCkv9SfULK5",
  "flags": {
    "better-rolltables": {
      "brt-result-formula": {
        "formula": ""
      }
    }
  },
  "type": 0,
  "text": "@Compendium[pf1.bestiary_1.6kHL2QF6pLPZetZQ]{Gynosphinx}",
  "img": "systems/pf1/icons/races/creature-types/magical-beast.png",
  "resultId": "6kHL2QF6pLPZetZQ",
  "weight": 2,
  "range": [
    95,
    96
  ],
  "drawn": false,
  "_key": "!tables.results!Kw71mFyijU5TKXAY.sGvrZUCkv9SfULK5"
}