{
  "_id": "GG8htm36Xl3pTmrD",
  "flags": {},
  "type": 0,
  "text": "Priests",
  "img": "icons/svg/d20-black.svg",
  "resultId": "",
  "weight": 1,
  "range": [
    95,
    100
  ],
  "drawn": false,
  "_key": "!tables.results!boosSNJbNi3NGOJj.GG8htm36Xl3pTmrD"
}