{
  "_id": "XH9d88S7rPdMkrQp",
  "flags": {
    "better-rolltables": {
      "brt-result-formula": {
        "formula": ""
      }
    }
  },
  "type": 0,
  "text": "[[1d4]] @Compendium[pf1.bestiary_2.FIuRjRUdN0l7Ayw2]{Roper}",
  "img": "systems/pf1/icons/races/creature-types/abberation.png",
  "resultId": "",
  "weight": 4,
  "range": [
    93,
    96
  ],
  "drawn": false,
  "_key": "!tables.results!czekCM9YELIoJAEW.XH9d88S7rPdMkrQp"
}