{
  "_id": "49r7UtVFkf8PqVtH",
  "flags": {
    "better-rolltables": {
      "brt-result-formula": {
        "formula": "1d4"
      }
    }
  },
  "type": 2,
  "text": "Ghoul",
  "img": "systems/pf1/icons/races/creature-types/undead.png",
  "collection": "pf1.bestiary_4",
  "resultId": "hdtp42CUJz5SIP3q",
  "weight": 4,
  "range": [
    45,
    48
  ],
  "drawn": false,
  "_key": "!tables.results!RR2N41I4f6V7xSXx.49r7UtVFkf8PqVtH"
}