{
  "_id": "GG8htm36Xl3pTmrD",
  "flags": {},
  "type": 0,
  "text": "1 ancient blue dragon",
  "img": "icons/svg/d20-black.svg",
  "resultId": "",
  "weight": 1,
  "range": [
    85,
    100
  ],
  "drawn": false,
  "_key": "!tables.results!uqya71uGX6bgC7mI.GG8htm36Xl3pTmrD"
}