{
  "_id": "jseL6ANla6CoY0Ay",
  "flags": {},
  "type": 0,
  "text": "Triple",
  "img": "icons/svg/d20-black.svg",
  "resultId": "",
  "weight": 1,
  "range": [
    100,
    100
  ],
  "drawn": false,
  "_key": "!tables.results!7piva9NYi7Sx8DMu.jseL6ANla6CoY0Ay"
}