{
  "_id": "SkIEeM5oB9AfjFyv",
  "flags": {
    "better-rolltables": {
      "brt-result-formula": {
        "formula": ""
      }
    }
  },
  "type": 0,
  "text": "[[1d6]] @Compendium[pf1.bestiary_1.9KJIbVd6LHQFKUmr]{Shadow}",
  "img": "systems/pf1/icons/races/creature-types/undead.png",
  "resultId": "",
  "weight": 4,
  "range": [
    55,
    58
  ],
  "drawn": false,
  "_key": "!tables.results!Kw71mFyijU5TKXAY.SkIEeM5oB9AfjFyv"
}