{
  "_id": "N3kSfpH4ueMa8gH3",
  "name": "City Streets",
  "flags": {
    "scene-packer": {
      "sourceId": "RollTable.i9HwPZy5OUjxPWaR"
    },
    "cf": {
      "id": null,
      "path": "PFRPG Random Encounter Tables",
      "color": "#000000"
    }
  },
  "img": "icons/svg/d20-grey.svg",
  "description": "\n\t\t\t\t",
  "results": [
    "GG8htm36Xl3pTmrD",
    "t3LF3G1pF8oCcouU",
    "jseL6ANla6CoY0Ay",
    "GG8htm36Xl3pTmrD",
    "t3LF3G1pF8oCcouU",
    "jseL6ANla6CoY0Ay",
    "GG8htm36Xl3pTmrD",
    "t3LF3G1pF8oCcouU",
    "jseL6ANla6CoY0Ay",
    "GG8htm36Xl3pTmrD",
    "t3LF3G1pF8oCcouU",
    "jseL6ANla6CoY0Ay",
    "GG8htm36Xl3pTmrD",
    "t3LF3G1pF8oCcouU",
    "jseL6ANla6CoY0Ay",
    "GG8htm36Xl3pTmrD",
    "t3LF3G1pF8oCcouU",
    "jseL6ANla6CoY0Ay",
    "GG8htm36Xl3pTmrD",
    "t3LF3G1pF8oCcouU",
    "jseL6ANla6CoY0Ay",
    "GG8htm36Xl3pTmrD",
    "t3LF3G1pF8oCcouU",
    "jseL6ANla6CoY0Ay",
    "GG8htm36Xl3pTmrD",
    "t3LF3G1pF8oCcouU",
    "jseL6ANla6CoY0Ay",
    "GG8htm36Xl3pTmrD",
    "t3LF3G1pF8oCcouU",
    "jseL6ANla6CoY0Ay"
  ],
  "formula": "1d100 + 0",
  "replacement": true,
  "displayRoll": true,
  "_key": "!tables!N3kSfpH4ueMa8gH3"
}