{
  "_id": "deTX4e73uAem1ddR",
  "name": "Dungeon (Avg. CR 5)",
  "flags": {
    "better-rolltables": {
      "table-type": "better",
      "loot-amount-key": ""
    },
    "scene-packer": {
      "sourceId": "RollTable.9ZojGfO93Yi1bmWE"
    },
    "cf": {
      "id": null,
      "path": "PFRPG Random Encounter Tables",
      "color": "#000000"
    }
  },
  "img": "icons/environment/wilderness/tomb-entrance.webp",
  "description": "",
  "results": [
    "gRgDa1MAYGxKodda",
    "el2lgBkpr0ixv012",
    "yWy41yWX5fpLt5aV",
    "pORFmFtVM3oOsw5u",
    "AfKPEcLDK4nNXMB1",
    "bdaUZIR8ujnHXiPC",
    "9R069PsO3wYKpwhb",
    "90Y7uEgWmmWCP2yZ",
    "3qm0YP6s8K05HgDr",
    "fGHgGFhFp0JqDeG9",
    "VzBp6MyVyIbrEuQf",
    "HHT2KTdeshMTYLfG",
    "fGSL8NcgcSkTG7zm",
    "jvN6CfKP6xI6Z1Yn",
    "QTlf9O77cX7kKtWU",
    "Ox3r0EKSQbyg6cd6",
    "GZXqL8WFiIVjsC30",
    "YBIrVX7kEmuAg2W2",
    "AxAKIYewr33gzklH",
    "amNINjqAKPsCwbuz",
    "LZHD6dYbXFVRjtkc",
    "3L4HiuQ4Bgr3gRJN",
    "EAn0555aqRr4L67c",
    "1UxUqNn8BfFU0xH7",
    "DhEDGigZAxSk3Vdg"
  ],
  "formula": "1d100",
  "replacement": true,
  "displayRoll": true,
  "_key": "!tables!deTX4e73uAem1ddR"
}