{
  "_id": "YMOCXGd61gzPINvF",
  "name": "Armageddon Plate",
  "type": "equipment",
  "img": "systems/pf1/icons/items/armor/hellknight-leather.PNG",
  "system": {
    "description": {
      "value": "<h2></b>Description</b></h2></p><p>A suit of armageddon plate acts as +1 full plate for nearly any wearer-it automatically resizes when donned to fit wearers of size Small to Large. The armor is blackened, with joints and helm in a style reminiscent of the legendary tarrasque.  6th Level: Armageddon plate is +1 light fortification full plate.  8th Level: Armageddon plate retaliates against melee attackers when its fortification ability triggers. When an attacker strikes the wearer with a melee weapon and the armor negates a critical hit or sneak attack, the power of the armor leaves the attacker shaken for 1d4 rounds (Will DC 16 negates). This is a mind-affecting fear effect, and can stack with itself to make an attacker frightened or panicked.  11th Level: Armageddon plate is +1 moderate fortification full plate.  13th Level: Armageddon plate is +2 moderate fortification full plate. The save DC of its fear effect increases to 20, and it affects attackers who use both ranged and melee weapons.  16th Level: Armageddon plate is +2 moderate fortification full plate of invulnerability. Armageddon plate grants DR 5/- instead of DR 5/magic.  18th Level: Armageddon plate is +2 moderate fortification adamantine full plate of determinationUE and invulnerability.   The damage reduction from adamantine stacks with the modified invulnerability effect for a total of DR 8/-.  20th Level: Armageddon plate is +2 heavy fortification adamantine full plate of determinationUE and invulnerability. Once per day, the wearer can lengthen the spines of the armor and release a volley of six spines as a full-attack action, all at the wearer's highest base attack bonus with a range increment of 120 feet. Each spine that hits deals 2d10 damage + the wearer's Strength bonus. If the spines attack multiple targets, all targets must be within 30 feet of each other. Once per day, the wearer can change her base land speed to 150 feet for 1 round as a free action. If she chooses to do so, she does not apply any other modifications that increase her movement speed for that round.<br><p><b>Base Item:</b> </p><h3><b>Requirements</b></h3><p>Craft Magic Arms and Armor, breath of life, fear, either limited wish or miracle</p><h3><b>Source: </b></h3>Pathfinder Unchained",
      "unidentified": ""
    },
    "tags": [],
    "quantity": 1,
    "weight": {
      "value": 50
    },
    "price": 2650,
    "size": "med",
    "equipped": true,
    "resizing": false,
    "identified": true,
    "hp": {
      "max": 10,
      "value": 10
    },
    "broken": false,
    "hardness": 10,
    "carried": true,
    "unidentified": {
      "price": 0,
      "name": ""
    },
    "cl": 5,
    "aura": {
      "custom": true,
      "school": "transmutation"
    },
    "changes": [],
    "changeFlags": {
      "loseDexToAC": false,
      "noEncumbrance": false,
      "mediumArmorFullSpeed": false,
      "heavyArmorFullSpeed": false,
      "noStr": false,
      "noDex": false,
      "oneInt": false,
      "oneWis": false,
      "oneCha": false
    },
    "contextNotes": [],
    "actions": [],
    "uses": {
      "per": null,
      "value": 0,
      "maxFormula": "",
      "autoDeductChargesCost": "1",
      "max": 0
    },
    "attackNotes": [],
    "effectNotes": [],
    "links": {
      "children": [],
      "charges": []
    },
    "tag": "armageddonPlate",
    "useCustomTag": false,
    "flags": {
      "boolean": {},
      "dictionary": {}
    },
    "scriptCalls": [],
    "masterwork": true,
    "enh": null,
    "proficient": true,
    "held": "normal",
    "subType": "armor",
    "baseTypes": [],
    "equipmentSubtype": "mediumArmor",
    "armor": {
      "value": 0,
      "dex": null,
      "acp": 0,
      "enh": 0
    },
    "spellFailure": 0,
    "slot": "slotless",
    "showInQuickbar": false,
    "powerAttack": {
      "multiplier": "",
      "damageBonus": 2,
      "critMultiplier": 1
    }
  },
  "ownership": {
    "default": 0
  },
  "_stats": {
    "systemId": "pf1",
    "systemVersion": "9.1",
    "coreVersion": "10.291",
    "createdTime": 1665428372431,
    "modifiedTime": 1689797927749,
    "lastModifiedBy": "ppv91YxratjWnkJi"
  },
  "effects": [],
  "folder": null,
  "sort": 0,
  "flags": {},
  "_key": "!items!YMOCXGd61gzPINvF"
}