{
  "_id": "4x58PmvIe2ne3AJi",
  "name": "Battlement Shield",
  "type": "equipment",
  "img": "systems/pf1/icons/items/armor/shield-light-metal.png",
  "system": {
    "description": {
      "value": "<h2></b>Description</b></h2></p><p>Once per day on command, this +2 tower shield can transform into a solid, 1-foot-thick, 10-foot-by-10-foot wall of masonry with a battlement on top and an arrow slit in each 5-foot length. The wall acts as cover just like any physical wall. The wielder can touch the wall with one hand and command it to revert to a tower shield either resting on the ground and balanced against his hand or strapped to his arm in the normal fashion. The wall has all the characteristics of any other foot-thick wall of masonry (hardness 8, 90 hit points, break DC 35). Attacks sufficient to destroy the wall cause it to immediately transform back into a shield, which loses half its hit points and gains the broken condition. The shield remains in wall form until destroyed or commanded to return to shield form. The wall cannot appear in a space too small to accommodate it.<br><p><b>Base Item:</b> +2 tower shield</p><h3><b>Requirements</b></h3><p>Craft Magic Arms and Armor, wall of stone</p><h3><b>Source: </b></h3>Ultimate Equipment",
      "unidentified": ""
    },
    "tags": [],
    "quantity": 1,
    "weight": {
      "value": 45
    },
    "price": 16180,
    "size": "med",
    "equipped": true,
    "resizing": false,
    "identified": true,
    "hp": {
      "max": 10,
      "value": 10
    },
    "broken": false,
    "hardness": 10,
    "carried": true,
    "unidentified": {
      "price": 0,
      "name": ""
    },
    "cl": 9,
    "aura": {
      "custom": true,
      "school": "conjuration"
    },
    "changes": [],
    "changeFlags": {
      "loseDexToAC": false,
      "noEncumbrance": false,
      "mediumArmorFullSpeed": false,
      "heavyArmorFullSpeed": false,
      "noStr": false,
      "noDex": false,
      "oneInt": false,
      "oneWis": false,
      "oneCha": false
    },
    "contextNotes": [],
    "actions": [],
    "uses": {
      "per": null,
      "value": 0,
      "maxFormula": "",
      "autoDeductChargesCost": "1",
      "max": 0
    },
    "attackNotes": [],
    "effectNotes": [],
    "links": {
      "children": [],
      "charges": []
    },
    "tag": "battlementShield",
    "useCustomTag": false,
    "flags": {
      "boolean": {},
      "dictionary": {}
    },
    "scriptCalls": [],
    "masterwork": true,
    "enh": null,
    "proficient": true,
    "held": "normal",
    "subType": "shield",
    "baseTypes": [],
    "equipmentSubtype": "",
    "armor": {
      "value": 0,
      "dex": null,
      "acp": 0,
      "enh": 0
    },
    "spellFailure": 0,
    "slot": "shield",
    "showInQuickbar": false,
    "powerAttack": {
      "multiplier": "",
      "damageBonus": 2,
      "critMultiplier": 1
    }
  },
  "ownership": {
    "default": 0
  },
  "_stats": {
    "systemId": "pf1",
    "systemVersion": "9.1",
    "coreVersion": "10.291",
    "createdTime": 1665428371713,
    "modifiedTime": 1689797923881,
    "lastModifiedBy": "ppv91YxratjWnkJi"
  },
  "effects": [],
  "folder": null,
  "sort": 0,
  "flags": {},
  "_key": "!items!4x58PmvIe2ne3AJi"
}