{
  "_id": "8AtI5wmCdM959llE",
  "name": "Cephalopod Staff",
  "type": "consumable",
  "img": "systems/pf1/icons/skills/blue_23.jpg",
  "system": {
    "description": {
      "value": "<h2></b>Description</b></h2></p><p>This dark mahogany staff is carved in the shape of a squid's tentacle and smells strongly of seawater. When grasped, the staff animates, writhing momentarily until it regains its rigid, wooden form. As a swift action, the wielder can transform the staff into a long, flexible weapon that functions as a masterwork whip. The staff reverts to its normal form at the beginning of the wielder's next turn.  The staff allows the use of the following spells.  • Summon monster II (octopus or squid only; 1 charge)  • Black tentacles (3 charges)  • Summon monster VI (giant octopus only; 5 charges)<br><p><b>Base Item:</b> </p><h3><b>Requirements</b></h3><p>Craft Staff, black tentacles, summon monster VI</p><h3><b>Source: </b></h3>Horror Adventures",
      "unidentified": ""
    },
    "tags": [],
    "quantity": 1,
    "weight": {
      "value": 4
    },
    "price": 22800,
    "size": "med",
    "equipped": true,
    "resizing": false,
    "identified": true,
    "hp": {
      "max": 10,
      "value": 10
    },
    "broken": false,
    "hardness": 0,
    "carried": true,
    "unidentified": {
      "price": 0,
      "name": ""
    },
    "cl": 11,
    "aura": {
      "custom": true,
      "school": "conjuration"
    },
    "actions": [],
    "uses": {
      "per": null,
      "value": 0,
      "maxFormula": "",
      "pricePerUse": 0,
      "autoDeductChargesCost": "1",
      "max": 0
    },
    "attackNotes": [],
    "effectNotes": [],
    "links": {
      "children": [],
      "charges": []
    },
    "tag": "cephalopodStaff",
    "useCustomTag": false,
    "flags": {
      "boolean": {},
      "dictionary": {}
    },
    "scriptCalls": [],
    "subType": "staff",
    "showInQuickbar": false,
    "powerAttack": {
      "multiplier": "",
      "damageBonus": 2,
      "critMultiplier": 1
    }
  },
  "ownership": {
    "default": 0
  },
  "_stats": {
    "systemId": "pf1",
    "systemVersion": "9.1",
    "coreVersion": "10.291",
    "createdTime": 1665428371761,
    "modifiedTime": 1689797924207,
    "lastModifiedBy": "ppv91YxratjWnkJi"
  },
  "effects": [],
  "folder": null,
  "sort": 0,
  "flags": {},
  "_key": "!items!8AtI5wmCdM959llE"
}