{
  "_id": "1f1Crkl2HvAIefLK",
  "name": "Crook of Cildhureen",
  "type": "consumable",
  "img": "systems/pf1/icons/skills/blue_23.jpg",
  "system": {
    "description": {
      "value": "<h2></b>Description</b></h2></p><p>This twisted and gnarled black oak staff draws upon the formless magic of the Shadow Plane to allow use of the following spells: • major image (1 charge) • shadow conjuration (2 charges) • shadow evocation (3 charges) In addition, the staff can further influence shadow conjuration and shadow evocation spells, whether cast from the staff or the wielder's daily allotment of spells, without increasing the spell's level. By expending extra charges, the wielder can increase the shadowy substance used to form such spells by +10% per charge, up to a maximum of +50%. Using the staff for this purpose does not increase the casting time of these spells.<br><p><b>Base Item:</b> </p><h3><b>Requirements</b></h3><p>Craft Staff, major image, shadow conjuration, shadow evocation</p><h3><b>Source: </b></h3>Fellnight Queen",
      "unidentified": ""
    },
    "tags": [],
    "quantity": 1,
    "weight": {
      "value": 4
    },
    "price": 16800,
    "size": "med",
    "equipped": true,
    "resizing": false,
    "identified": true,
    "hp": {
      "max": 10,
      "value": 10
    },
    "broken": false,
    "hardness": 0,
    "carried": true,
    "unidentified": {
      "price": 0,
      "name": ""
    },
    "cl": 9,
    "aura": {
      "custom": true,
      "school": "illusion"
    },
    "actions": [],
    "uses": {
      "per": null,
      "value": 0,
      "maxFormula": "",
      "pricePerUse": 0,
      "autoDeductChargesCost": "1",
      "max": 0
    },
    "attackNotes": [],
    "effectNotes": [],
    "links": {
      "children": [],
      "charges": []
    },
    "tag": "crookOfCildhureen",
    "useCustomTag": false,
    "flags": {
      "boolean": {},
      "dictionary": {}
    },
    "scriptCalls": [],
    "subType": "staff",
    "showInQuickbar": false,
    "powerAttack": {
      "multiplier": "",
      "damageBonus": 2,
      "critMultiplier": 1
    }
  },
  "ownership": {
    "default": 0
  },
  "_stats": {
    "systemId": "pf1",
    "systemVersion": "9.1",
    "coreVersion": "10.291",
    "createdTime": 1665428371669,
    "modifiedTime": 1689797923440,
    "lastModifiedBy": "ppv91YxratjWnkJi"
  },
  "effects": [],
  "folder": null,
  "sort": 0,
  "flags": {},
  "_key": "!items!1f1Crkl2HvAIefLK"
}