{
  "_id": "8Qjb3r9xRqYKPwDQ",
  "name": "Death's Preservation Banded Mail",
  "type": "equipment",
  "img": "systems/pf1/icons/items/armor/hellknight-leather.PNG",
  "system": {
    "description": {
      "value": "<h2></b>Description</b></h2></p><p>This +2 light fortification banded mail has a small, ovoid stone set in the left shoulder. The armor monitors the wearer's hit point total as the spell status. If an attack against the wearer does enough damage to kill him outright, he and his gear are teleported to a specific location determined at the time of the armor's creation. This effect acts in all other ways as the spell word of recall, with the predetermined location considered the place of sanctuary. The wearer's body is protected from decomposition for 18 days as per the gentle repose spell. Once this ability has been used, the stone set into the armor crumbles to dust and the armor reverts to being a suit of +2 light fortification banded mail.<br><p><b>Base Item:</b> 2 light fortification banded mail</p><h3><b>Requirements</b></h3><p>Craft Magic Arms and Armor, contingency, gentle repose, limited wish or miracle, word of recall</p><h3><b>Source: </b></h3>Dragonslayer's Handbook",
      "unidentified": ""
    },
    "tags": [],
    "quantity": 1,
    "weight": {
      "value": 35
    },
    "price": 22400,
    "size": "med",
    "equipped": true,
    "resizing": false,
    "identified": true,
    "hp": {
      "max": 10,
      "value": 10
    },
    "broken": false,
    "hardness": 10,
    "carried": true,
    "unidentified": {
      "price": 0,
      "name": ""
    },
    "cl": 18,
    "aura": {
      "custom": true,
      "school": "conjuration and divination"
    },
    "changes": [],
    "changeFlags": {
      "loseDexToAC": false,
      "noEncumbrance": false,
      "mediumArmorFullSpeed": false,
      "heavyArmorFullSpeed": false,
      "noStr": false,
      "noDex": false,
      "oneInt": false,
      "oneWis": false,
      "oneCha": false
    },
    "contextNotes": [],
    "actions": [],
    "uses": {
      "per": null,
      "value": 0,
      "maxFormula": "",
      "autoDeductChargesCost": "1",
      "max": 0
    },
    "attackNotes": [],
    "effectNotes": [],
    "links": {
      "children": [],
      "charges": []
    },
    "tag": "deathsPreservationBandedMail",
    "useCustomTag": false,
    "flags": {
      "boolean": {},
      "dictionary": {}
    },
    "scriptCalls": [],
    "masterwork": true,
    "enh": null,
    "proficient": true,
    "held": "normal",
    "subType": "armor",
    "baseTypes": [],
    "equipmentSubtype": "mediumArmor",
    "armor": {
      "value": 0,
      "dex": null,
      "acp": 0,
      "enh": 0
    },
    "spellFailure": 0,
    "slot": "slotless",
    "showInQuickbar": false,
    "powerAttack": {
      "multiplier": "",
      "damageBonus": 2,
      "critMultiplier": 1
    }
  },
  "ownership": {
    "default": 0
  },
  "_stats": {
    "systemId": "pf1",
    "systemVersion": "9.1",
    "coreVersion": "10.291",
    "createdTime": 1665428371766,
    "modifiedTime": 1689797924230,
    "lastModifiedBy": "ppv91YxratjWnkJi"
  },
  "effects": [],
  "folder": null,
  "sort": 0,
  "flags": {},
  "_key": "!items!8Qjb3r9xRqYKPwDQ"
}