{
  "_id": "rOPhLInoWerK1Dk7",
  "name": "Demon Armor",
  "type": "equipment",
  "img": "systems/pf1/icons/items/armor/hellknight-leather.PNG",
  "system": {
    "description": {
      "value": "<h2></b>Description</b></h2></p><p>This plate armor is fashioned to make the wearer appear to be a demon. Glowing red energy emanates from sigils engraved on the armor's key plates and joints, and the runes intermittently surge with fiendish power. This +4 full plate allows the wearer to make claw attacks that deal 1d10 points of damage, strike as +1 weapons, and afflict the target as if she had been struck by a contagion spell (Fortitude DC 14 negates). Use of contagion requires a normal melee attack with the claws. The claws are built into the armor's vambraces and gauntlets, and cannot be disarmed.  A suit of demon armor is infused with evil, and as a result it bestows one negative level on any nonevil creature wearing it. This negative level persists as long as the armor is worn and disappears when the armor is removed. The negative level cannot be overcome in any way (including restoration spells) while the armor is worn.<br><p><b>Base Item:</b> +4 full plate</p><h3><b>Requirements</b></h3><p>Craft Magic Arms and Armor, contagion</p><h3><b>Source: </b></h3>Ultimate Equipment",
      "unidentified": ""
    },
    "tags": [],
    "quantity": 1,
    "weight": {
      "value": 50
    },
    "price": 52260,
    "size": "med",
    "equipped": true,
    "resizing": false,
    "identified": true,
    "hp": {
      "max": 10,
      "value": 10
    },
    "broken": false,
    "hardness": 10,
    "carried": true,
    "unidentified": {
      "price": 0,
      "name": ""
    },
    "cl": 13,
    "aura": {
      "custom": true,
      "school": "necromancy [evil]"
    },
    "changes": [],
    "changeFlags": {
      "loseDexToAC": false,
      "noEncumbrance": false,
      "mediumArmorFullSpeed": false,
      "heavyArmorFullSpeed": false,
      "noStr": false,
      "noDex": false,
      "oneInt": false,
      "oneWis": false,
      "oneCha": false
    },
    "contextNotes": [],
    "actions": [],
    "uses": {
      "per": null,
      "value": 0,
      "maxFormula": "",
      "autoDeductChargesCost": "1",
      "max": 0
    },
    "attackNotes": [],
    "effectNotes": [],
    "links": {
      "children": [],
      "charges": []
    },
    "tag": "demonArmor",
    "useCustomTag": false,
    "flags": {
      "boolean": {},
      "dictionary": {}
    },
    "scriptCalls": [],
    "masterwork": true,
    "enh": null,
    "proficient": true,
    "held": "normal",
    "subType": "armor",
    "baseTypes": [],
    "equipmentSubtype": "mediumArmor",
    "armor": {
      "value": 0,
      "dex": null,
      "acp": 0,
      "enh": 0
    },
    "spellFailure": 0,
    "slot": "slotless",
    "showInQuickbar": false,
    "powerAttack": {
      "multiplier": "",
      "damageBonus": 2,
      "critMultiplier": 1
    }
  },
  "ownership": {
    "default": 0
  },
  "_stats": {
    "systemId": "pf1",
    "systemVersion": "9.1",
    "coreVersion": "10.291",
    "createdTime": 1665428373016,
    "modifiedTime": 1689797930073,
    "lastModifiedBy": "ppv91YxratjWnkJi"
  },
  "effects": [],
  "folder": null,
  "sort": 0,
  "flags": {},
  "_key": "!items!rOPhLInoWerK1Dk7"
}