{
  "_id": "RwjPkNkaUURgX1VG",
  "name": "Driftwood Shield",
  "type": "equipment",
  "img": "systems/pf1/icons/items/armor/shield-light-metal.png",
  "system": {
    "description": {
      "value": "<h2></b>Description</b></h2></p><p>This +1 heavy wooden shield looks like it is made from pieces of driftwood lashed together with seaweed. The bearer may use know direction at will. Once p er day when s truck by a melee attack, the bearer of a driftwood shield can use warp wood as an immediate action, affecting one Small or smaller wooden object wielded, held, or carried by the opponent who attacked her.<br><p><b>Base Item:</b> +1 heavy wooden shield</p><h3><b>Requirements</b></h3><p>Craft Magic Arms and Armor, know direction, warp wood</p><h3><b>Source: </b></h3>Inner Sea Gods",
      "unidentified": ""
    },
    "tags": [],
    "quantity": 1,
    "weight": {
      "value": 10
    },
    "price": 2527,
    "size": "med",
    "equipped": true,
    "resizing": false,
    "identified": true,
    "hp": {
      "max": 10,
      "value": 10
    },
    "broken": false,
    "hardness": 10,
    "carried": true,
    "unidentified": {
      "price": 0,
      "name": ""
    },
    "cl": 3,
    "aura": {
      "custom": true,
      "school": "divination and transmutation"
    },
    "changes": [],
    "changeFlags": {
      "loseDexToAC": false,
      "noEncumbrance": false,
      "mediumArmorFullSpeed": false,
      "heavyArmorFullSpeed": false,
      "noStr": false,
      "noDex": false,
      "oneInt": false,
      "oneWis": false,
      "oneCha": false
    },
    "contextNotes": [],
    "actions": [],
    "uses": {
      "per": null,
      "value": 0,
      "maxFormula": "",
      "autoDeductChargesCost": "1",
      "max": 0
    },
    "attackNotes": [],
    "effectNotes": [],
    "links": {
      "children": [],
      "charges": []
    },
    "tag": "driftwoodShield",
    "useCustomTag": false,
    "flags": {
      "boolean": {},
      "dictionary": {}
    },
    "scriptCalls": [],
    "masterwork": true,
    "enh": null,
    "proficient": true,
    "held": "normal",
    "subType": "shield",
    "baseTypes": [],
    "equipmentSubtype": "",
    "armor": {
      "value": 0,
      "dex": null,
      "acp": 0,
      "enh": 0
    },
    "spellFailure": 0,
    "slot": "shield",
    "showInQuickbar": false,
    "powerAttack": {
      "multiplier": "",
      "damageBonus": 2,
      "critMultiplier": 1
    }
  },
  "ownership": {
    "default": 0
  },
  "_stats": {
    "systemId": "pf1",
    "systemVersion": "9.1",
    "coreVersion": "10.291",
    "createdTime": 1665428372320,
    "modifiedTime": 1689797927052,
    "lastModifiedBy": "ppv91YxratjWnkJi"
  },
  "effects": [],
  "folder": null,
  "sort": 0,
  "flags": {},
  "_key": "!items!RwjPkNkaUURgX1VG"
}