{
  "_id": "QXp5wtei99tIQ6Y2",
  "name": "Equestrian Plate",
  "type": "equipment",
  "img": "systems/pf1/icons/items/armor/hellknight-leather.PNG",
  "system": {
    "description": {
      "value": "<h2></b>Description</b></h2></p><p>Shined to a mirror finish, this suit of +2 full plate is decorated with gold inlay. As a move action when the wearer is mounted, the plates of the armor expand and reposition to protect the wearer's mount. In this form, the armor becomes a suit of +2 banded mail for the wearer and a suit of +1 banded mail barding worn by the mount. A second move action merges it back into +2 full plate. Equestrian plate cannot transform and protect a mount more than one size larger than its wearer or a creature that cannot wear barding. It can create exotic barding, however, such as for a griffon or dragon.  If extra enhancements or spells are placed upon equestrian plate in full plate form, they affect only the wearer's armor when the suit is split. Effects on the barding are suppressed when it is merged into the armor. If either suit of armor is broken while separated, the other half immediately gains the broken condition as well. Destroying one suit destroys the other as well.  Full plate 50 lbs. Banded mail 35 lbs. Barding 70 lbs.<br><p><b>Base Item:</b> +2 full plate|+2 banded mail|+1 banded mail barding</p><h3><b>Requirements</b></h3><p>Craft Magic Arms and Armor, fabricate</p><h3><b>Source: </b></h3>Ultimate Equipment",
      "unidentified": ""
    },
    "tags": [],
    "quantity": 1,
    "weight": {
      "value": 0
    },
    "price": 10650,
    "size": "med",
    "equipped": true,
    "resizing": false,
    "identified": true,
    "hp": {
      "max": 10,
      "value": 10
    },
    "broken": false,
    "hardness": 10,
    "carried": true,
    "unidentified": {
      "price": 0,
      "name": ""
    },
    "cl": 9,
    "aura": {
      "custom": true,
      "school": "transmutation"
    },
    "changes": [],
    "changeFlags": {
      "loseDexToAC": false,
      "noEncumbrance": false,
      "mediumArmorFullSpeed": false,
      "heavyArmorFullSpeed": false,
      "noStr": false,
      "noDex": false,
      "oneInt": false,
      "oneWis": false,
      "oneCha": false
    },
    "contextNotes": [],
    "actions": [],
    "uses": {
      "per": null,
      "value": 0,
      "maxFormula": "",
      "autoDeductChargesCost": "1",
      "max": 0
    },
    "attackNotes": [],
    "effectNotes": [],
    "links": {
      "children": [],
      "charges": []
    },
    "tag": "equestrianPlate",
    "useCustomTag": false,
    "flags": {
      "boolean": {},
      "dictionary": {}
    },
    "scriptCalls": [],
    "masterwork": true,
    "enh": null,
    "proficient": true,
    "held": "normal",
    "subType": "armor",
    "baseTypes": [],
    "equipmentSubtype": "mediumArmor",
    "armor": {
      "value": 0,
      "dex": null,
      "acp": 0,
      "enh": 0
    },
    "spellFailure": 0,
    "slot": "slotless",
    "showInQuickbar": false,
    "powerAttack": {
      "multiplier": "",
      "damageBonus": 2,
      "critMultiplier": 1
    }
  },
  "ownership": {
    "default": 0
  },
  "_stats": {
    "systemId": "pf1",
    "systemVersion": "9.1",
    "coreVersion": "10.291",
    "createdTime": 1665428372295,
    "modifiedTime": 1689797926899,
    "lastModifiedBy": "ppv91YxratjWnkJi"
  },
  "effects": [],
  "folder": null,
  "sort": 0,
  "flags": {},
  "_key": "!items!QXp5wtei99tIQ6Y2"
}