{
  "_id": "Dt3CZKPW1Nl0bcdi",
  "name": "Hallowed Chain",
  "type": "equipment",
  "img": "systems/pf1/icons/items/armor/hellknight-leather.PNG",
  "system": {
    "description": {
      "value": "<h2></b>Description</b></h2></p><p>Most often forged in Ustalav and Varisia as protection against the unquiet dead, this suit of +2 chainmail amplifies the effect of channeled positive energy. When its wearer is healed by positive energy (even if not currently wounded) or is in the area of positive energy channeled to harm undead, the armor absorbs 1 point of positive energy per 2 dice of healing, with a minimum of 1 point and a maximum of 5 points. This does not reduce the effect of the positive energy on any of its targets. Until the end of the wearer's next turn, any creature that would be harmed by positive energy (such as an undead) that strikes the wearer with a natural weapon or an unarmed strike or that succeeds at a grapple combat maneuver check against the wearer takes an amount of damage equal to the amount of positive energy stored in the armor.  If multiple effects charge the armor, only the strongest effect applies. Fixed amounts of healing (such as that granted by the heal spell) have no effect on the armor.<br><p><b>Base Item:</b> +2 chainmail</p><h3><b>Requirements</b></h3><p>Craft Magic Arms and Armor, cure moderate wounds, creator must be a Varisian</p><h3><b>Source: </b></h3>Inner Sea Races",
      "unidentified": ""
    },
    "tags": [],
    "quantity": 1,
    "weight": {
      "value": 40
    },
    "price": 12800,
    "size": "med",
    "equipped": true,
    "resizing": false,
    "identified": true,
    "hp": {
      "max": 10,
      "value": 10
    },
    "broken": false,
    "hardness": 10,
    "carried": true,
    "unidentified": {
      "price": 0,
      "name": ""
    },
    "cl": 5,
    "aura": {
      "custom": true,
      "school": "conjuration"
    },
    "changes": [],
    "changeFlags": {
      "loseDexToAC": false,
      "noEncumbrance": false,
      "mediumArmorFullSpeed": false,
      "heavyArmorFullSpeed": false,
      "noStr": false,
      "noDex": false,
      "oneInt": false,
      "oneWis": false,
      "oneCha": false
    },
    "contextNotes": [],
    "actions": [],
    "uses": {
      "per": null,
      "value": 0,
      "maxFormula": "",
      "autoDeductChargesCost": "1",
      "max": 0
    },
    "attackNotes": [],
    "effectNotes": [],
    "links": {
      "children": [],
      "charges": []
    },
    "tag": "hallowedChain",
    "useCustomTag": false,
    "flags": {
      "boolean": {},
      "dictionary": {}
    },
    "scriptCalls": [],
    "masterwork": true,
    "enh": null,
    "proficient": true,
    "held": "normal",
    "subType": "armor",
    "baseTypes": [],
    "equipmentSubtype": "mediumArmor",
    "armor": {
      "value": 0,
      "dex": null,
      "acp": 0,
      "enh": 0
    },
    "spellFailure": 0,
    "slot": "slotless",
    "showInQuickbar": false,
    "powerAttack": {
      "multiplier": "",
      "damageBonus": 2,
      "critMultiplier": 1
    }
  },
  "ownership": {
    "default": 0
  },
  "_stats": {
    "systemId": "pf1",
    "systemVersion": "9.1",
    "coreVersion": "10.291",
    "createdTime": 1665428371848,
    "modifiedTime": 1689797925054,
    "lastModifiedBy": "ppv91YxratjWnkJi"
  },
  "effects": [],
  "folder": null,
  "sort": 0,
  "flags": {},
  "_key": "!items!Dt3CZKPW1Nl0bcdi"
}