{
  "_id": "DhqriWwaHyKHKfPP",
  "name": "Hero's Hauberk",
  "type": "equipment",
  "img": "systems/pf1/icons/items/armor/hellknight-leather.PNG",
  "system": {
    "description": {
      "value": "<h2></b>Description</b></h2></p><p>The damage reduction of this dull gray +1 adamantine chain shirt stacks with any other damage reduction the   wearer possesses. For example, a wearer with DR 5/magic would reduce damage from nonmagical attacks by 6, and magical attacks by 1. While the wearer rages or maintains a raging song, the armor emits a low droning sound and grants the benefits of light fortification.  While the wearer maintains a bardic performance, the armor's links jangle in harmony with his song or movements, aiding his focus. The wearer receives a +1 luck bonus on all ability checks and skill checks he attempts during such a performance. In addition, any penalties applied to his attack rolls, ability checks, skill checks, and saving throws are reduced by 1. If a die roll has multiple penalties, the total of the penalties is reduced by 1, not each individual penalty.<br><p><b>Base Item:</b> +1 adamantine chain shirt</p><h3><b>Requirements</b></h3><p>Craft Magic Arms and Armor, limited wish or miracle, creator must have the raging song class feature</p><h3><b>Source: </b></h3>Advanced Class Guide",
      "unidentified": ""
    },
    "tags": [],
    "quantity": 1,
    "weight": {
      "value": 25
    },
    "price": 16600,
    "size": "med",
    "equipped": true,
    "resizing": false,
    "identified": true,
    "hp": {
      "max": 10,
      "value": 10
    },
    "broken": false,
    "hardness": 10,
    "carried": true,
    "unidentified": {
      "price": 0,
      "name": ""
    },
    "cl": 13,
    "aura": {
      "custom": true,
      "school": "abjuration"
    },
    "changes": [],
    "changeFlags": {
      "loseDexToAC": false,
      "noEncumbrance": false,
      "mediumArmorFullSpeed": false,
      "heavyArmorFullSpeed": false,
      "noStr": false,
      "noDex": false,
      "oneInt": false,
      "oneWis": false,
      "oneCha": false
    },
    "contextNotes": [],
    "actions": [],
    "uses": {
      "per": null,
      "value": 0,
      "maxFormula": "",
      "autoDeductChargesCost": "1",
      "max": 0
    },
    "attackNotes": [],
    "effectNotes": [],
    "links": {
      "children": [],
      "charges": []
    },
    "tag": "herosHauberk",
    "useCustomTag": false,
    "flags": {
      "boolean": {},
      "dictionary": {}
    },
    "scriptCalls": [],
    "masterwork": true,
    "enh": null,
    "proficient": true,
    "held": "normal",
    "subType": "armor",
    "baseTypes": [],
    "equipmentSubtype": "mediumArmor",
    "armor": {
      "value": 0,
      "dex": null,
      "acp": 0,
      "enh": 0
    },
    "spellFailure": 0,
    "slot": "slotless",
    "showInQuickbar": false,
    "powerAttack": {
      "multiplier": "",
      "damageBonus": 2,
      "critMultiplier": 1
    }
  },
  "ownership": {
    "default": 0
  },
  "_stats": {
    "systemId": "pf1",
    "systemVersion": "9.1",
    "coreVersion": "10.291",
    "createdTime": 1665428371845,
    "modifiedTime": 1689797925035,
    "lastModifiedBy": "ppv91YxratjWnkJi"
  },
  "effects": [],
  "folder": null,
  "sort": 0,
  "flags": {},
  "_key": "!items!DhqriWwaHyKHKfPP"
}