{
  "_id": "gNMVAU5PCvvMWcKy",
  "name": "Hushing Arrow",
  "type": "loot",
  "img": "systems/pf1/icons/items/weapons/bolt.PNG",
  "system": {
    "description": {
      "value": "<h2></b>Description</b></h2></p><p>This +1 arrow makes no sound on release or as it flies through the air. A creature struck by a hushing arrow must succeed at a DC 13 Will save or be affected by silence (as the spell) for 5 rounds. The silence effect is not triggered by arrows that miss or those that strike an inanimate object.  A greater hushing arrow functions just like a normal hushing arrow, except the target must succeed at a DC 16 Will save to avoid being silenced. Hushing bolts and greater hushing bolts can also be made; they share the same statistics as hushing arrows and greater hushing arrows, except they weigh 1/10 of a pound per bolt.<br><p><b>Base Item:</b> +1 arrow</p><h3><b>Requirements</b></h3><p>Craft Magic Arms and Armor,  silence</p><h3><b>Source: </b></h3>Ultimate Equipment",
      "unidentified": ""
    },
    "tags": [],
    "quantity": 1,
    "weight": {
      "value": 0
    },
    "price": 547,
    "size": "med",
    "equipped": false,
    "resizing": false,
    "identified": true,
    "hp": {
      "max": 10,
      "value": 10
    },
    "broken": false,
    "hardness": 0,
    "carried": true,
    "unidentified": {
      "price": 0,
      "name": ""
    },
    "cl": 5,
    "aura": {
      "custom": true,
      "school": "illusion"
    },
    "changes": [],
    "changeFlags": {
      "loseDexToAC": false,
      "noEncumbrance": false,
      "mediumArmorFullSpeed": false,
      "heavyArmorFullSpeed": false,
      "noStr": false,
      "noDex": false,
      "oneInt": false,
      "oneWis": false,
      "oneCha": false
    },
    "contextNotes": [],
    "links": {
      "children": []
    },
    "tag": "hushingArrow",
    "useCustomTag": false,
    "flags": {
      "boolean": {},
      "dictionary": {}
    },
    "scriptCalls": [],
    "subType": "ammo",
    "extraType": "",
    "uses": {
      "value": 0,
      "max": 0
    }
  },
  "ownership": {
    "default": 0
  },
  "_stats": {
    "systemId": "pf1",
    "systemVersion": "9.1",
    "coreVersion": "10.291",
    "createdTime": 1665428372746,
    "modifiedTime": 1689797928894,
    "lastModifiedBy": "ppv91YxratjWnkJi"
  },
  "effects": [],
  "folder": null,
  "sort": 0,
  "flags": {},
  "_key": "!items!gNMVAU5PCvvMWcKy"
}