{
  "_id": "YtQV5iAxNMPafUEg",
  "name": "Legacy Arrow",
  "type": "weapon",
  "img": "systems/pf1/icons/items/weapons/estoc.PNG",
  "system": {
    "description": {
      "value": "<h2></b>Description</b></h2></p><p>This ornately carved arrow always survives being fired. By concentrating as a standard action, the last person to shoot the arrow can sense the direction in which it lies, up to a distance of 1 mile. This effect fades 24 hours after firing. Initially, a legacy arrow acts merely as a masterwork arrow, but it always retains its ability to survive and be recovered after use. Legacy arrows can be found as other sorts of ammunition, including bolts, shuriken, sling bullets, and even firearm bullets.   6th Level: The arrow has the distance special ability, normally not available to ammunition. When fired, it loses this weapon special ability and any gained at higher levels for 1 day.  9th Level: The arrow has the distance and seeking special abilities.  11th Level: When fired, the arrow regains its special abilities after 10 minutes instead of 1 day.  14th Level: Once per day as a standard action, the arrow's wielder can designate it as a bane arrow for a category of her choice. It retains its current bane properties until they are changed. The arrow still takes 10 minutes to regain the use of bane, as usual.  16th Level: The arrow retains its bane, distance, and seeking special abilities after being fired.  18th Level: Once per week, the wielder can take a standard action to fire the arrow, giving it the properties of a greater slaying arrow (keyed to the same category as its bane ability) in addition to its other special abilities. After being fired, the arrow loses all special abilities for 1 week.  20th Level: The greater slaying ability can be used once per day (after which the arrow loses all special abilities for 1 day) rather than once per week. The arrow overcomes damage reduction as though adamantine.<br><p><b>Base Item:</b> </p><h3><b>Requirements</b></h3><p>Craft Magic Arms and Armor, Heighten Spell, clairaudience/ clairvoyance, finger of death, summon monster I, true seeing</p><h3><b>Source: </b></h3>Pathfinder Unchained",
      "unidentified": ""
    },
    "tags": [],
    "quantity": 1,
    "weight": {
      "value": 0.1
    },
    "price": 305,
    "size": "med",
    "equipped": true,
    "resizing": false,
    "identified": true,
    "hp": {
      "max": 10,
      "value": 10
    },
    "broken": false,
    "hardness": 10,
    "carried": true,
    "unidentified": {
      "price": 0,
      "name": ""
    },
    "cl": 4,
    "aura": {
      "custom": true,
      "school": "transmutation"
    },
    "changes": [],
    "changeFlags": {
      "loseDexToAC": false,
      "noEncumbrance": false,
      "mediumArmorFullSpeed": false,
      "heavyArmorFullSpeed": false,
      "noStr": false,
      "noDex": false,
      "oneInt": false,
      "oneWis": false,
      "oneCha": false
    },
    "actions": [
      {
        "_id": "x347u0vfxnbh3l80",
        "name": "Attack",
        "img": "systems/pf1/icons/items/weapons/estoc.PNG",
        "description": "",
        "tag": "legacyArrow",
        "activation": {
          "cost": 1,
          "type": "attack",
          "unchained": {
            "cost": 1,
            "type": "attack"
          }
        },
        "duration": {
          "value": null,
          "units": "inst"
        },
        "target": {
          "value": ""
        },
        "range": {
          "units": "melee",
          "maxIncrements": 1,
          "minValue": null,
          "minUnits": ""
        },
        "uses": {
          "autoDeductChargesCost": "",
          "self": {
            "value": 0,
            "maxFormula": "",
            "per": null
          },
          "per": null,
          "value": 0,
          "maxFormula": "",
          "max": 0
        },
        "measureTemplate": {
          "type": "",
          "size": "",
          "overrideColor": false,
          "customColor": "",
          "overrideTexture": false,
          "customTexture": ""
        },
        "attackName": "",
        "actionType": "mwak",
        "attackBonus": "",
        "critConfirmBonus": "",
        "damage": {
          "parts": [
            {
              "formula": "sizeRoll(1, 4, @size)",
              "type": {
                "values": [],
                "custom": ""
              }
            }
          ],
          "critParts": [],
          "nonCritParts": []
        },
        "attackParts": [],
        "formulaicAttacks": {
          "count": {
            "formula": "ceil(@attributes.bab.total / 5) - 1"
          },
          "bonus": {
            "formula": "@formulaicAttack * -5"
          },
          "label": null
        },
        "formula": "",
        "ability": {
          "attack": "str",
          "damage": "str",
          "damageMult": 1,
          "critRange": 20,
          "critMult": 2
        },
        "save": {
          "dc": 0,
          "type": "",
          "description": ""
        },
        "effectNotes": [],
        "attackNotes": [],
        "soundEffect": "",
        "powerAttack": {
          "multiplier": "",
          "damageBonus": 2,
          "critMultiplier": 1
        },
        "naturalAttack": {
          "primaryAttack": true,
          "secondary": {
            "attackBonus": "-5",
            "damageMult": 0.5
          }
        },
        "nonlethal": false,
        "touch": false,
        "usesAmmo": false,
        "spellEffect": "",
        "spellArea": "",
        "conditionals": [],
        "enh": {
          "value": null
        }
      }
    ],
    "uses": {
      "per": null,
      "value": 0,
      "maxFormula": "",
      "autoDeductChargesCost": "1",
      "max": 0
    },
    "attackNotes": [],
    "effectNotes": [],
    "contextNotes": [],
    "links": {
      "children": []
    },
    "tag": "legacyArrow",
    "useCustomTag": false,
    "flags": {
      "boolean": {},
      "dictionary": {}
    },
    "scriptCalls": [],
    "masterwork": true,
    "enh": null,
    "proficient": true,
    "held": "normal",
    "baseTypes": [],
    "weaponGroups": {
      "value": [],
      "custom": ""
    },
    "subType": "simple",
    "weaponSubtype": "light",
    "properties": {},
    "showInQuickbar": false,
    "ammoType": "",
    "powerAttack": {
      "multiplier": "",
      "damageBonus": 2,
      "critMultiplier": 1
    },
    "usesAmmo": false,
    "bonus": {
      "value": 0,
      "_deprecated": true
    },
    "damage2": {
      "value": "",
      "_deprecated": true
    },
    "damage2Type": {
      "value": "",
      "_deprecated": true
    }
  },
  "ownership": {
    "default": 0
  },
  "_stats": {
    "systemId": "pf1",
    "systemVersion": "9.1",
    "coreVersion": "10.291",
    "createdTime": 1665428372440,
    "modifiedTime": 1689797927824,
    "lastModifiedBy": "ppv91YxratjWnkJi"
  },
  "effects": [],
  "folder": null,
  "sort": 0,
  "flags": {},
  "_key": "!items!YtQV5iAxNMPafUEg"
}