{
  "_id": "Cb90okxRVDl0dGav",
  "name": "Legion Armor",
  "type": "equipment",
  "img": "systems/pf1/icons/items/armor/hellknight-leather.PNG",
  "system": {
    "description": {
      "value": "<h2></b>Description</b></h2></p><p>This gilded suit of +2 banded mail is decorated with images of celestial beings holding their weapons high. Legion armor is typically worn by high-ranking angels and archons directly combating the forces of evil on the Material Plane.  Once per day as a standard action, the wearer of a suit of legion armor can cast the spell spiritual allyAPG with a duration of 1 minute. This ally typically takes on the appearance of an imposing angelic warrior. At any time while the armor's spiritual ally is conjured, the wearer of a suit of legion armor can dismiss the effect as a standard action, causing the spiritual ally to explode with a thunderous choir of voices and blaring trumpets. This effect causes each evil-aligned creatures within 100 feet to become shaken unless it succeeds at a DC 20 Will save.<br><p><b>Base Item:</b> +2 banded mail</p><h3><b>Requirements</b></h3><p>Craft Magic Arms and Armor, cause fear, spiritual allyAPG</p><h3><b>Source: </b></h3>Armor Masters Handbook",
      "unidentified": ""
    },
    "tags": [],
    "quantity": 1,
    "weight": {
      "value": 35
    },
    "price": 13400,
    "size": "med",
    "equipped": true,
    "resizing": false,
    "identified": true,
    "hp": {
      "max": 10,
      "value": 10
    },
    "broken": false,
    "hardness": 10,
    "carried": true,
    "unidentified": {
      "price": 0,
      "name": ""
    },
    "cl": 7,
    "aura": {
      "custom": true,
      "school": "evocation"
    },
    "changes": [],
    "changeFlags": {
      "loseDexToAC": false,
      "noEncumbrance": false,
      "mediumArmorFullSpeed": false,
      "heavyArmorFullSpeed": false,
      "noStr": false,
      "noDex": false,
      "oneInt": false,
      "oneWis": false,
      "oneCha": false
    },
    "contextNotes": [],
    "actions": [],
    "uses": {
      "per": null,
      "value": 0,
      "maxFormula": "",
      "autoDeductChargesCost": "1",
      "max": 0
    },
    "attackNotes": [],
    "effectNotes": [],
    "links": {
      "children": [],
      "charges": []
    },
    "tag": "legionArmor",
    "useCustomTag": false,
    "flags": {
      "boolean": {},
      "dictionary": {}
    },
    "scriptCalls": [],
    "masterwork": true,
    "enh": null,
    "proficient": true,
    "held": "normal",
    "subType": "armor",
    "baseTypes": [],
    "equipmentSubtype": "mediumArmor",
    "armor": {
      "value": 0,
      "dex": null,
      "acp": 0,
      "enh": 0
    },
    "spellFailure": 0,
    "slot": "slotless",
    "showInQuickbar": false,
    "powerAttack": {
      "multiplier": "",
      "damageBonus": 2,
      "critMultiplier": 1
    }
  },
  "ownership": {
    "default": 0
  },
  "_stats": {
    "systemId": "pf1",
    "systemVersion": "9.1",
    "coreVersion": "10.291",
    "createdTime": 1665428371826,
    "modifiedTime": 1689797924611,
    "lastModifiedBy": "ppv91YxratjWnkJi"
  },
  "effects": [],
  "folder": null,
  "sort": 0,
  "flags": {},
  "_key": "!items!Cb90okxRVDl0dGav"
}