{
  "_id": "ur9YJ7sv5fHRTQ4x",
  "name": "Lion's Shield",
  "type": "equipment",
  "img": "systems/pf1/icons/items/armor/shield-light-metal.png",
  "system": {
    "description": {
      "value": "<h2></b>Description</b></h2></p><p>This +2 heavy steel shield is fashioned to appear to be a roaring lion's head. Three times per day as a free action, the lion's head can be commanded to attack (independently of the shield wearer), biting with the wielder's base attack bonus (including multiple attacks, if the wielder has them) and dealing 2d6 points of damage. This attack is in addition to any actions performed by the wielder.<br><p><b>Base Item:</b> +2 heavy steel shield</p><h3><b>Requirements</b></h3><p>Craft Magic Arms and Armor, summon nature's ally IV</p><h3><b>Source: </b></h3>Ultimate Equipment",
      "unidentified": ""
    },
    "tags": [],
    "quantity": 1,
    "weight": {
      "value": 15
    },
    "price": 9170,
    "size": "med",
    "equipped": true,
    "resizing": false,
    "identified": true,
    "hp": {
      "max": 10,
      "value": 10
    },
    "broken": false,
    "hardness": 10,
    "carried": true,
    "unidentified": {
      "price": 0,
      "name": ""
    },
    "cl": 10,
    "aura": {
      "custom": true,
      "school": "conjuration"
    },
    "changes": [],
    "changeFlags": {
      "loseDexToAC": false,
      "noEncumbrance": false,
      "mediumArmorFullSpeed": false,
      "heavyArmorFullSpeed": false,
      "noStr": false,
      "noDex": false,
      "oneInt": false,
      "oneWis": false,
      "oneCha": false
    },
    "contextNotes": [],
    "actions": [],
    "uses": {
      "per": null,
      "value": 0,
      "maxFormula": "",
      "autoDeductChargesCost": "1",
      "max": 0
    },
    "attackNotes": [],
    "effectNotes": [],
    "links": {
      "children": [],
      "charges": []
    },
    "tag": "lionsShield",
    "useCustomTag": false,
    "flags": {
      "boolean": {},
      "dictionary": {}
    },
    "scriptCalls": [],
    "masterwork": true,
    "enh": null,
    "proficient": true,
    "held": "normal",
    "subType": "shield",
    "baseTypes": [],
    "equipmentSubtype": "",
    "armor": {
      "value": 0,
      "dex": null,
      "acp": 0,
      "enh": 0
    },
    "spellFailure": 0,
    "slot": "shield",
    "showInQuickbar": false,
    "powerAttack": {
      "multiplier": "",
      "damageBonus": 2,
      "critMultiplier": 1
    }
  },
  "ownership": {
    "default": 0
  },
  "_stats": {
    "systemId": "pf1",
    "systemVersion": "9.1",
    "coreVersion": "10.291",
    "createdTime": 1665428373068,
    "modifiedTime": 1689797930375,
    "lastModifiedBy": "ppv91YxratjWnkJi"
  },
  "effects": [],
  "folder": null,
  "sort": 0,
  "flags": {},
  "_key": "!items!ur9YJ7sv5fHRTQ4x"
}