{
  "_id": "tpY4W3IksLkvdCqV",
  "name": "Maelstrom Shield",
  "type": "equipment",
  "img": "systems/pf1/icons/items/armor/shield-light-metal.png",
  "system": {
    "description": {
      "value": "<h2></b>Description</b></h2></p><p>The device of this +1 bashing heavy steel shield features a magical image of the trackless seas, complete with rolling waves and crashing whitecaps. When used to make a shield bash attack, the shield's wielder can make a trip attack as a free action against the same target without provoking an attack of opportunity from the creature being tripped. On command, the wielder can make the shield produce a gallon of fresh drinkable water. Once per day on command, the wielder can use the maelstrom shield to emit a stream of water as the hydraulic push spell.<br><p><b>Base Item:</b> +1 bashing heavy steel shield</p><h3><b>Requirements</b></h3><p>Craft Magic Arms and Armor, bull's strength, control water, hydraulic push (Advanced Player's Guide)</p><h3><b>Source: </b></h3>Ultimate Equipment",
      "unidentified": ""
    },
    "tags": [],
    "quantity": 1,
    "weight": {
      "value": 10
    },
    "price": 14170,
    "size": "med",
    "equipped": true,
    "resizing": false,
    "identified": true,
    "hp": {
      "max": 10,
      "value": 10
    },
    "broken": false,
    "hardness": 10,
    "carried": true,
    "unidentified": {
      "price": 0,
      "name": ""
    },
    "cl": 5,
    "aura": {
      "custom": true,
      "school": "evocation"
    },
    "changes": [],
    "changeFlags": {
      "loseDexToAC": false,
      "noEncumbrance": false,
      "mediumArmorFullSpeed": false,
      "heavyArmorFullSpeed": false,
      "noStr": false,
      "noDex": false,
      "oneInt": false,
      "oneWis": false,
      "oneCha": false
    },
    "contextNotes": [],
    "actions": [],
    "uses": {
      "per": null,
      "value": 0,
      "maxFormula": "",
      "autoDeductChargesCost": "1",
      "max": 0
    },
    "attackNotes": [],
    "effectNotes": [],
    "links": {
      "children": [],
      "charges": []
    },
    "tag": "maelstromShield",
    "useCustomTag": false,
    "flags": {
      "boolean": {},
      "dictionary": {}
    },
    "scriptCalls": [],
    "masterwork": true,
    "enh": null,
    "proficient": true,
    "held": "normal",
    "subType": "shield",
    "baseTypes": [],
    "equipmentSubtype": "",
    "armor": {
      "value": 0,
      "dex": null,
      "acp": 0,
      "enh": 0
    },
    "spellFailure": 0,
    "slot": "shield",
    "showInQuickbar": false,
    "powerAttack": {
      "multiplier": "",
      "damageBonus": 2,
      "critMultiplier": 1
    }
  },
  "ownership": {
    "default": 0
  },
  "_stats": {
    "systemId": "pf1",
    "systemVersion": "9.1",
    "coreVersion": "10.291",
    "createdTime": 1665428373051,
    "modifiedTime": 1689797930272,
    "lastModifiedBy": "ppv91YxratjWnkJi"
  },
  "effects": [],
  "folder": null,
  "sort": 0,
  "flags": {},
  "_key": "!items!tpY4W3IksLkvdCqV"
}