{
  "_id": "Dr9aUPpM6bIyUe6q",
  "name": "Many-Eyed Staff",
  "type": "consumable",
  "img": "systems/pf1/icons/skills/blue_23.jpg",
  "system": {
    "description": {
      "value": "<h2></b>Description</b></h2></p><p>Whenever the user is holding this wooden staff, 10 bulging eyes carved along the length of the staff animate, granting the user a +5 competence bonus on Perception checks as long as he is grasping the staff. As a move action, the wielder can select a creature within 100 feet and see through its eyes with no saving throw. The creature selected must be either a spider summoned with the staff or a creature blinded by a blindness/deafness spell cast from the staff (the wielder ignores the blindness/deafness effect). The connection lasts as long as the wielder and the target creature remain within 100 feet of each other, though the wielder can end it as a free action. The effect also ends if the target was a blinded creature and regains the ability to see. The wielder is blinded while maintaining this connection.  The staff allows the use of the following spells.  • Blindness/deafness (blindness only; 1 charge)  • Summon monster II (giant spider only; 1 charge)  • Prying eyes (3 charges)<br><p><b>Base Item:</b> </p><h3><b>Requirements</b></h3><p>Craft Staff, blindness/deafness, prying eyes, summon monster II</p><h3><b>Source: </b></h3>Horror Adventures",
      "unidentified": ""
    },
    "tags": [],
    "quantity": 1,
    "weight": {
      "value": 5
    },
    "price": 32000,
    "size": "med",
    "equipped": true,
    "resizing": false,
    "identified": true,
    "hp": {
      "max": 10,
      "value": 10
    },
    "broken": false,
    "hardness": 0,
    "carried": true,
    "unidentified": {
      "price": 0,
      "name": ""
    },
    "cl": 9,
    "aura": {
      "custom": true,
      "school": "divination"
    },
    "actions": [],
    "uses": {
      "per": null,
      "value": 0,
      "maxFormula": "",
      "pricePerUse": 0,
      "autoDeductChargesCost": "1",
      "max": 0
    },
    "attackNotes": [],
    "effectNotes": [],
    "links": {
      "children": [],
      "charges": []
    },
    "tag": "manyeyedStaff",
    "useCustomTag": false,
    "flags": {
      "boolean": {},
      "dictionary": {}
    },
    "scriptCalls": [],
    "subType": "staff",
    "showInQuickbar": false,
    "powerAttack": {
      "multiplier": "",
      "damageBonus": 2,
      "critMultiplier": 1
    }
  },
  "ownership": {
    "default": 0
  },
  "_stats": {
    "systemId": "pf1",
    "systemVersion": "9.1",
    "coreVersion": "10.291",
    "createdTime": 1665428371847,
    "modifiedTime": 1689797925043,
    "lastModifiedBy": "ppv91YxratjWnkJi"
  },
  "effects": [],
  "folder": null,
  "sort": 0,
  "flags": {},
  "_key": "!items!Dr9aUPpM6bIyUe6q"
}