{
  "_id": "s8GIFCEOExMrrj1s",
  "name": "Master's Woe Stiletto",
  "type": "weapon",
  "img": "systems/pf1/icons/items/weapons/estoc.PNG",
  "system": {
    "description": {
      "value": "<h2></b>Description</b></h2></p><p>The black-lacquered handle of this slender blade is inlaid with the image of a broken skull. A master's woe stiletto is a +1 living steelUE dagger that allows its wielder to weaken a would-be necromancer's control over the undead. Three times per day when the wielder successfully strikes a target with the stiletto, the wielder can activate the stiletto as a free action to force the target to attempt a DC 13 Will save. On a failure, the number of undead creatures the target can control through spells like animate dead or feats like Command Undead is reduced by 6 Hit Dice (to a minimum of 1 HD). Any excess undead become uncontrolled, but their former controller may choose which creatures are released. This effect lasts for 3 hours and cannot be dispelled, though it can be removed by remove curse, break enchantment, or similar effects. Any uncontrolled undead remain uncontrolled when the effect ends.<br><p><b>Base Item:</b> +1 living steel dagger</p><h3><b>Requirements</b></h3><p>Craft Magic Arms and Armor, necromantic burden (see page 27)</p><h3><b>Source: </b></h3>Undead Slayer's Handbook",
      "unidentified": ""
    },
    "tags": [],
    "quantity": 1,
    "weight": {
      "value": 1
    },
    "price": 10002,
    "size": "med",
    "equipped": true,
    "resizing": false,
    "identified": true,
    "hp": {
      "max": 10,
      "value": 10
    },
    "broken": false,
    "hardness": 10,
    "carried": true,
    "unidentified": {
      "price": 0,
      "name": ""
    },
    "cl": 3,
    "aura": {
      "custom": true,
      "school": "necromancy"
    },
    "changes": [],
    "changeFlags": {
      "loseDexToAC": false,
      "noEncumbrance": false,
      "mediumArmorFullSpeed": false,
      "heavyArmorFullSpeed": false,
      "noStr": false,
      "noDex": false,
      "oneInt": false,
      "oneWis": false,
      "oneCha": false
    },
    "actions": [
      {
        "_id": "kwiw5jsrlz8cckem",
        "name": "Attack",
        "img": "systems/pf1/icons/items/weapons/estoc.PNG",
        "description": "",
        "tag": "mastersWoeStiletto",
        "activation": {
          "cost": 1,
          "type": "attack",
          "unchained": {
            "cost": 1,
            "type": "attack"
          }
        },
        "duration": {
          "value": null,
          "units": "inst"
        },
        "target": {
          "value": ""
        },
        "range": {
          "units": "melee",
          "maxIncrements": 1,
          "minValue": null,
          "minUnits": ""
        },
        "uses": {
          "autoDeductChargesCost": "",
          "self": {
            "value": 0,
            "maxFormula": "",
            "per": null
          },
          "per": null,
          "value": 0,
          "maxFormula": "",
          "max": 0
        },
        "measureTemplate": {
          "type": "",
          "size": "",
          "overrideColor": false,
          "customColor": "",
          "overrideTexture": false,
          "customTexture": ""
        },
        "attackName": "",
        "actionType": "mwak",
        "attackBonus": "",
        "critConfirmBonus": "",
        "damage": {
          "parts": [
            {
              "formula": "sizeRoll(1, 4, @size)",
              "type": {
                "values": [],
                "custom": ""
              }
            }
          ],
          "critParts": [],
          "nonCritParts": []
        },
        "attackParts": [],
        "formulaicAttacks": {
          "count": {
            "formula": "ceil(@attributes.bab.total / 5) - 1"
          },
          "bonus": {
            "formula": "@formulaicAttack * -5"
          },
          "label": null
        },
        "formula": "",
        "ability": {
          "attack": "str",
          "damage": "str",
          "damageMult": 1,
          "critRange": 20,
          "critMult": 2
        },
        "save": {
          "dc": 0,
          "type": "",
          "description": ""
        },
        "effectNotes": [],
        "attackNotes": [],
        "soundEffect": "",
        "powerAttack": {
          "multiplier": "",
          "damageBonus": 2,
          "critMultiplier": 1
        },
        "naturalAttack": {
          "primaryAttack": true,
          "secondary": {
            "attackBonus": "-5",
            "damageMult": 0.5
          }
        },
        "nonlethal": false,
        "touch": false,
        "usesAmmo": false,
        "spellEffect": "",
        "spellArea": "",
        "conditionals": [],
        "enh": {
          "value": null
        }
      }
    ],
    "uses": {
      "per": null,
      "value": 0,
      "maxFormula": "",
      "autoDeductChargesCost": "1",
      "max": 0
    },
    "attackNotes": [],
    "effectNotes": [],
    "contextNotes": [],
    "links": {
      "children": []
    },
    "tag": "mastersWoeStiletto",
    "useCustomTag": false,
    "flags": {
      "boolean": {},
      "dictionary": {}
    },
    "scriptCalls": [],
    "masterwork": true,
    "enh": null,
    "proficient": true,
    "held": "normal",
    "baseTypes": [],
    "weaponGroups": {
      "value": [],
      "custom": ""
    },
    "subType": "simple",
    "weaponSubtype": "light",
    "properties": {},
    "showInQuickbar": false,
    "ammoType": "",
    "powerAttack": {
      "multiplier": "",
      "damageBonus": 2,
      "critMultiplier": 1
    },
    "usesAmmo": false,
    "bonus": {
      "value": 0,
      "_deprecated": true
    },
    "damage2": {
      "value": "",
      "_deprecated": true
    },
    "damage2Type": {
      "value": "",
      "_deprecated": true
    }
  },
  "ownership": {
    "default": 0
  },
  "_stats": {
    "systemId": "pf1",
    "systemVersion": "9.1",
    "coreVersion": "10.291",
    "createdTime": 1665428373023,
    "modifiedTime": 1689797930122,
    "lastModifiedBy": "ppv91YxratjWnkJi"
  },
  "effects": [],
  "folder": null,
  "sort": 0,
  "flags": {},
  "_key": "!items!s8GIFCEOExMrrj1s"
}