{
  "_id": "ljWi0sTBKGo9jkYC",
  "name": "Nail Of The Princess",
  "type": "weapon",
  "img": "systems/pf1/icons/items/weapons/estoc.PNG",
  "system": {
    "description": {
      "value": "<h2></b>Description</b></h2></p><p>This +1 scythe has five onyx gems set into its blade. A creature with the ability to channel negative energy can expend one use of that ability to charge the weapon with power, causing one onyx gem per 1d6 points of channeled energy to glow (multiple channels do not stack; the wielder must be able to channel 5d6 points of negative energy to activate all five gems). Anytime the wielder deals damage to a creature with the scythe, he can activate one charged gem as a swift action, releasing its energy and dealing 1d6 points of channeled negative energy damage to the target. Alternatively, as a standard action the wielder can touch the scythe to a willing creature healed by negative energy (such as undead) and release any number of stored charges, each of which heals the target for 1d6 points of damage.<br><p><b>Base Item:</b> +1 scythe</p><h3><b>Requirements</b></h3><p>Craft Magic Arms and Armor, creator must be able to channel negative energy</p><h3><b>Source: </b></h3>Inner Sea Gods",
      "unidentified": ""
    },
    "tags": [],
    "quantity": 1,
    "weight": {
      "value": 10
    },
    "price": 5318,
    "size": "med",
    "equipped": true,
    "resizing": false,
    "identified": true,
    "hp": {
      "max": 10,
      "value": 10
    },
    "broken": false,
    "hardness": 10,
    "carried": true,
    "unidentified": {
      "price": 0,
      "name": ""
    },
    "cl": 9,
    "aura": {
      "custom": true,
      "school": "necromancy"
    },
    "changes": [],
    "changeFlags": {
      "loseDexToAC": false,
      "noEncumbrance": false,
      "mediumArmorFullSpeed": false,
      "heavyArmorFullSpeed": false,
      "noStr": false,
      "noDex": false,
      "oneInt": false,
      "oneWis": false,
      "oneCha": false
    },
    "actions": [
      {
        "_id": "qogx56sgot6p8qpg",
        "name": "Attack",
        "img": "systems/pf1/icons/items/weapons/estoc.PNG",
        "description": "",
        "tag": "nailOfThePrincess",
        "activation": {
          "cost": 1,
          "type": "attack",
          "unchained": {
            "cost": 1,
            "type": "attack"
          }
        },
        "duration": {
          "value": null,
          "units": "inst"
        },
        "target": {
          "value": ""
        },
        "range": {
          "units": "melee",
          "maxIncrements": 1,
          "minValue": null,
          "minUnits": ""
        },
        "uses": {
          "autoDeductChargesCost": "",
          "self": {
            "value": 0,
            "maxFormula": "",
            "per": null
          },
          "per": null,
          "value": 0,
          "maxFormula": "",
          "max": 0
        },
        "measureTemplate": {
          "type": "",
          "size": "",
          "overrideColor": false,
          "customColor": "",
          "overrideTexture": false,
          "customTexture": ""
        },
        "attackName": "",
        "actionType": "mwak",
        "attackBonus": "",
        "critConfirmBonus": "",
        "damage": {
          "parts": [
            {
              "formula": "sizeRoll(1, 4, @size)",
              "type": {
                "values": [],
                "custom": ""
              }
            }
          ],
          "critParts": [],
          "nonCritParts": []
        },
        "attackParts": [],
        "formulaicAttacks": {
          "count": {
            "formula": "ceil(@attributes.bab.total / 5) - 1"
          },
          "bonus": {
            "formula": "@formulaicAttack * -5"
          },
          "label": null
        },
        "formula": "",
        "ability": {
          "attack": "str",
          "damage": "str",
          "damageMult": 1,
          "critRange": 20,
          "critMult": 2
        },
        "save": {
          "dc": 0,
          "type": "",
          "description": ""
        },
        "effectNotes": [],
        "attackNotes": [],
        "soundEffect": "",
        "powerAttack": {
          "multiplier": "",
          "damageBonus": 2,
          "critMultiplier": 1
        },
        "naturalAttack": {
          "primaryAttack": true,
          "secondary": {
            "attackBonus": "-5",
            "damageMult": 0.5
          }
        },
        "nonlethal": false,
        "touch": false,
        "usesAmmo": false,
        "spellEffect": "",
        "spellArea": "",
        "conditionals": [],
        "enh": {
          "value": null
        }
      }
    ],
    "uses": {
      "per": null,
      "value": 0,
      "maxFormula": "",
      "autoDeductChargesCost": "1",
      "max": 0
    },
    "attackNotes": [],
    "effectNotes": [],
    "contextNotes": [],
    "links": {
      "children": []
    },
    "tag": "nailOfThePrincess",
    "useCustomTag": false,
    "flags": {
      "boolean": {},
      "dictionary": {}
    },
    "scriptCalls": [],
    "masterwork": true,
    "enh": null,
    "proficient": true,
    "held": "normal",
    "baseTypes": [],
    "weaponGroups": {
      "value": [],
      "custom": ""
    },
    "subType": "simple",
    "weaponSubtype": "light",
    "properties": {},
    "showInQuickbar": false,
    "ammoType": "",
    "powerAttack": {
      "multiplier": "",
      "damageBonus": 2,
      "critMultiplier": 1
    },
    "usesAmmo": false,
    "bonus": {
      "value": 0,
      "_deprecated": true
    },
    "damage2": {
      "value": "",
      "_deprecated": true
    },
    "damage2Type": {
      "value": "",
      "_deprecated": true
    }
  },
  "ownership": {
    "default": 0
  },
  "_stats": {
    "systemId": "pf1",
    "systemVersion": "9.1",
    "coreVersion": "10.291",
    "createdTime": 1665428372907,
    "modifiedTime": 1689797929439,
    "lastModifiedBy": "ppv91YxratjWnkJi"
  },
  "effects": [],
  "folder": null,
  "sort": 0,
  "flags": {},
  "_key": "!items!ljWi0sTBKGo9jkYC"
}