{
  "_id": "gubjtfhHcXGmGKWd",
  "name": "Reporting Cartridge",
  "type": "loot",
  "img": "systems/pf1/icons/items/weapons/bolt.PNG",
  "system": {
    "description": {
      "value": "<h2></b>Description</b></h2></p><p>This +1 paper alchemical cartridge contains a bullet and is marked with a symbol of an ear. When fired from a firearm, a reporting cartridge allows the wielder to temporarily transfer her sense of hearing to the location where the bullet lands. Until she dismisses the effect by rubbing her ears as a move action, the wielder can hear as clairaudience from the square in which the bullet landed, regardless of whether it hit its mark.<br><p><b>Base Item:</b> +1 paper alchemical cartridge</p><h3><b>Requirements</b></h3><p>Craft Magic Arms and Armor, clairaudience/clairvoyance</p><h3><b>Source: </b></h3>Ranged Tactics Toolbox",
      "unidentified": ""
    },
    "tags": [],
    "quantity": 1,
    "weight": {
      "value": 0
    },
    "price": 566,
    "size": "med",
    "equipped": false,
    "resizing": false,
    "identified": true,
    "hp": {
      "max": 10,
      "value": 10
    },
    "broken": false,
    "hardness": 0,
    "carried": true,
    "unidentified": {
      "price": 0,
      "name": ""
    },
    "cl": 5,
    "aura": {
      "custom": true,
      "school": "divination"
    },
    "changes": [],
    "changeFlags": {
      "loseDexToAC": false,
      "noEncumbrance": false,
      "mediumArmorFullSpeed": false,
      "heavyArmorFullSpeed": false,
      "noStr": false,
      "noDex": false,
      "oneInt": false,
      "oneWis": false,
      "oneCha": false
    },
    "contextNotes": [],
    "links": {
      "children": []
    },
    "tag": "reportingCartridge",
    "useCustomTag": false,
    "flags": {
      "boolean": {},
      "dictionary": {}
    },
    "scriptCalls": [],
    "subType": "ammo",
    "extraType": "",
    "uses": {
      "value": 0,
      "max": 0
    }
  },
  "ownership": {
    "default": 0
  },
  "_stats": {
    "systemId": "pf1",
    "systemVersion": "9.1",
    "coreVersion": "10.291",
    "createdTime": 1665428372762,
    "modifiedTime": 1689793683039,
    "lastModifiedBy": "ppv91YxratjWnkJi"
  },
  "effects": [],
  "folder": null,
  "sort": 0,
  "flags": {},
  "_key": "!items!gubjtfhHcXGmGKWd"
}