{
  "_id": "VXQl7WzkmR8WXJT0",
  "name": "Shield Of Sunrise",
  "type": "equipment",
  "img": "systems/pf1/icons/items/armor/shield-light-metal.png",
  "system": {
    "description": {
      "value": "<h2></b>Description</b></h2></p><p>This +1 bashing light steel shield features a brilliant sun motif, and always seems comfortably warm to the touch. Once per day when the shield's bearer successfully hits a creature with a shield bash attack, he may activate the shield as a swift action to mark the target with radiant energy. This radiant energy lasts for 1d4 rounds. During this time, the marked creature shines like a sunrod, and the wielder's allies gain a +1 insight bonus on attack rolls against the marked creature as long as they are within 30 feet of it. If the marked creature is vulnerable to light, this insight bonus increases to +3. When a marked creature is hit by a melee or ranged attack, the radiant energy discharges in a burst of light, dealing 1d6 points of damage to the marked creature and ending the marking effect. If the creature is vulnerable to light, it is also dazed for 1 round.<br><p><b>Base Item:</b> +1 bashing light steel shield</p><h3><b>Requirements</b></h3><p>Craft Magic Arms and Armor, daybreak arrowUC, tactical acumenUC</p><h3><b>Source: </b></h3>Undead Slayer's Handbook",
      "unidentified": ""
    },
    "tags": [],
    "quantity": 1,
    "weight": {
      "value": 6
    },
    "price": 7659,
    "size": "med",
    "equipped": true,
    "resizing": false,
    "identified": true,
    "hp": {
      "max": 10,
      "value": 10
    },
    "broken": false,
    "hardness": 10,
    "carried": true,
    "unidentified": {
      "price": 0,
      "name": ""
    },
    "cl": 5,
    "aura": {
      "custom": true,
      "school": "evocation"
    },
    "changes": [],
    "changeFlags": {
      "loseDexToAC": false,
      "noEncumbrance": false,
      "mediumArmorFullSpeed": false,
      "heavyArmorFullSpeed": false,
      "noStr": false,
      "noDex": false,
      "oneInt": false,
      "oneWis": false,
      "oneCha": false
    },
    "contextNotes": [],
    "actions": [],
    "uses": {
      "per": null,
      "value": 0,
      "maxFormula": "",
      "autoDeductChargesCost": "1",
      "max": 0
    },
    "attackNotes": [],
    "effectNotes": [],
    "links": {
      "children": [],
      "charges": []
    },
    "tag": "shieldOfSunrise",
    "useCustomTag": false,
    "flags": {
      "boolean": {},
      "dictionary": {}
    },
    "scriptCalls": [],
    "masterwork": true,
    "enh": null,
    "proficient": true,
    "held": "normal",
    "subType": "shield",
    "baseTypes": [],
    "equipmentSubtype": "",
    "armor": {
      "value": 0,
      "dex": null,
      "acp": 0,
      "enh": 0
    },
    "spellFailure": 0,
    "slot": "shield",
    "showInQuickbar": false,
    "powerAttack": {
      "multiplier": "",
      "damageBonus": 2,
      "critMultiplier": 1
    }
  },
  "ownership": {
    "default": 0
  },
  "_stats": {
    "systemId": "pf1",
    "systemVersion": "9.1",
    "coreVersion": "10.291",
    "createdTime": 1665428372380,
    "modifiedTime": 1689797927403,
    "lastModifiedBy": "ppv91YxratjWnkJi"
  },
  "effects": [],
  "folder": null,
  "sort": 0,
  "flags": {},
  "_key": "!items!VXQl7WzkmR8WXJT0"
}