{
  "_id": "pGCU0e3OREqXqnZW",
  "name": "Snailplate",
  "type": "equipment",
  "img": "systems/pf1/icons/items/armor/hellknight-leather.PNG",
  "system": {
    "description": {
      "value": "<h2></b>Description</b></h2></p><p>This breastplate made from the shell of a flail snail functions as a +1 reflecting breastplate (even though that shield property cannot normally be added to armor).  Once per day, the wearer can cause a spell targeted at him to reflect back at the caster, exactly like spell turning.  At the GM's discretion, the wearer can instead expend this one use per day to roll on the flail snail's chart, randomly warping the spell in question.<br><p><b>Base Item:</b> +1 reflecting breastplate</p><h3><b>Requirements</b></h3><p>Craft Magic Arms and Armor, spell turning, one flail snail shell</p><h3><b>Source: </b></h3>Misfit Monsters Redeemed",
      "unidentified": ""
    },
    "tags": [],
    "quantity": 1,
    "weight": {
      "value": 30
    },
    "price": 36000,
    "size": "med",
    "equipped": true,
    "resizing": false,
    "identified": true,
    "hp": {
      "max": 10,
      "value": 10
    },
    "broken": false,
    "hardness": 10,
    "carried": true,
    "unidentified": {
      "price": 0,
      "name": ""
    },
    "cl": 14,
    "aura": {
      "custom": true,
      "school": "abjuration"
    },
    "changes": [],
    "changeFlags": {
      "loseDexToAC": false,
      "noEncumbrance": false,
      "mediumArmorFullSpeed": false,
      "heavyArmorFullSpeed": false,
      "noStr": false,
      "noDex": false,
      "oneInt": false,
      "oneWis": false,
      "oneCha": false
    },
    "contextNotes": [],
    "actions": [],
    "uses": {
      "per": null,
      "value": 0,
      "maxFormula": "",
      "autoDeductChargesCost": "1",
      "max": 0
    },
    "attackNotes": [],
    "effectNotes": [],
    "links": {
      "children": [],
      "charges": []
    },
    "tag": "snailplate",
    "useCustomTag": false,
    "flags": {
      "boolean": {},
      "dictionary": {}
    },
    "scriptCalls": [],
    "masterwork": true,
    "enh": null,
    "proficient": true,
    "held": "normal",
    "subType": "armor",
    "baseTypes": [],
    "equipmentSubtype": "mediumArmor",
    "armor": {
      "value": 0,
      "dex": null,
      "acp": 0,
      "enh": 0
    },
    "spellFailure": 0,
    "slot": "slotless",
    "showInQuickbar": false,
    "powerAttack": {
      "multiplier": "",
      "damageBonus": 2,
      "critMultiplier": 1
    }
  },
  "ownership": {
    "default": 0
  },
  "_stats": {
    "systemId": "pf1",
    "systemVersion": "9.1",
    "coreVersion": "10.291",
    "createdTime": 1665428372968,
    "modifiedTime": 1689797929804,
    "lastModifiedBy": "ppv91YxratjWnkJi"
  },
  "effects": [],
  "folder": null,
  "sort": 0,
  "flags": {},
  "_key": "!items!pGCU0e3OREqXqnZW"
}