{
  "_id": "j3wNQ2GUjYO2OWJB",
  "name": "Spider's Fang",
  "type": "weapon",
  "img": "systems/pf1/icons/items/weapons/estoc.PNG",
  "system": {
    "description": {
      "value": "<h2></b>Description</b></h2></p><p>This punching dagger's blade is engraved with images of spider webs. Upon close inspection, the images seem to come alive as if spiders were swarming across the webs on the blade. Twice per day as a free action, this +2 keen wounding punching dagger can poison a living creature hit by an attack made by this weapon as the poison spell (Fortitude DC 20 negates). In addition, the wielder gains a +2 competence bonus on Acrobatics checks made to move through an enemy's threatened area without provoking an attack of opportunity.<br><p><b>Base Item:</b> +2 keen wounding punching dagger</p><h3><b>Requirements</b></h3><p>Craft Magic Arms and Armor, bleed, keen edge, ray of enfeeblement</p><h3><b>Source: </b></h3>Ultimate Equipment",
      "unidentified": ""
    },
    "tags": [],
    "quantity": 1,
    "weight": {
      "value": 1
    },
    "price": 79102,
    "size": "med",
    "equipped": true,
    "resizing": false,
    "identified": true,
    "hp": {
      "max": 10,
      "value": 10
    },
    "broken": false,
    "hardness": 10,
    "carried": true,
    "unidentified": {
      "price": 0,
      "name": ""
    },
    "cl": 10,
    "aura": {
      "custom": true,
      "school": "evocation"
    },
    "changes": [],
    "changeFlags": {
      "loseDexToAC": false,
      "noEncumbrance": false,
      "mediumArmorFullSpeed": false,
      "heavyArmorFullSpeed": false,
      "noStr": false,
      "noDex": false,
      "oneInt": false,
      "oneWis": false,
      "oneCha": false
    },
    "actions": [
      {
        "_id": "t6zgxi7ys533qhxa",
        "name": "Attack",
        "img": "systems/pf1/icons/items/weapons/estoc.PNG",
        "description": "",
        "tag": "spidersFang",
        "activation": {
          "cost": 1,
          "type": "attack",
          "unchained": {
            "cost": 1,
            "type": "attack"
          }
        },
        "duration": {
          "value": null,
          "units": "inst"
        },
        "target": {
          "value": ""
        },
        "range": {
          "units": "melee",
          "maxIncrements": 1,
          "minValue": null,
          "minUnits": ""
        },
        "uses": {
          "autoDeductChargesCost": "",
          "self": {
            "value": 0,
            "maxFormula": "",
            "per": null
          },
          "per": null,
          "value": 0,
          "maxFormula": "",
          "max": 0
        },
        "measureTemplate": {
          "type": "",
          "size": "",
          "overrideColor": false,
          "customColor": "",
          "overrideTexture": false,
          "customTexture": ""
        },
        "attackName": "",
        "actionType": "mwak",
        "attackBonus": "",
        "critConfirmBonus": "",
        "damage": {
          "parts": [
            {
              "formula": "sizeRoll(1, 4, @size)",
              "type": {
                "values": [],
                "custom": ""
              }
            }
          ],
          "critParts": [],
          "nonCritParts": []
        },
        "attackParts": [],
        "formulaicAttacks": {
          "count": {
            "formula": "ceil(@attributes.bab.total / 5) - 1"
          },
          "bonus": {
            "formula": "@formulaicAttack * -5"
          },
          "label": null
        },
        "formula": "",
        "ability": {
          "attack": "str",
          "damage": "str",
          "damageMult": 1,
          "critRange": 20,
          "critMult": 2
        },
        "save": {
          "dc": 0,
          "type": "",
          "description": ""
        },
        "effectNotes": [],
        "attackNotes": [],
        "soundEffect": "",
        "powerAttack": {
          "multiplier": "",
          "damageBonus": 2,
          "critMultiplier": 1
        },
        "naturalAttack": {
          "primaryAttack": true,
          "secondary": {
            "attackBonus": "-5",
            "damageMult": 0.5
          }
        },
        "nonlethal": false,
        "touch": false,
        "usesAmmo": false,
        "spellEffect": "",
        "spellArea": "",
        "conditionals": [],
        "enh": {
          "value": null
        }
      }
    ],
    "uses": {
      "per": null,
      "value": 0,
      "maxFormula": "",
      "autoDeductChargesCost": "1",
      "max": 0
    },
    "attackNotes": [],
    "effectNotes": [],
    "contextNotes": [],
    "links": {
      "children": []
    },
    "tag": "spidersFang",
    "useCustomTag": false,
    "flags": {
      "boolean": {},
      "dictionary": {}
    },
    "scriptCalls": [],
    "masterwork": true,
    "enh": null,
    "proficient": true,
    "held": "normal",
    "baseTypes": [],
    "weaponGroups": {
      "value": [],
      "custom": ""
    },
    "subType": "simple",
    "weaponSubtype": "light",
    "properties": {},
    "showInQuickbar": false,
    "ammoType": "",
    "powerAttack": {
      "multiplier": "",
      "damageBonus": 2,
      "critMultiplier": 1
    },
    "usesAmmo": false,
    "bonus": {
      "value": 0,
      "_deprecated": true
    },
    "damage2": {
      "value": "",
      "_deprecated": true
    },
    "damage2Type": {
      "value": "",
      "_deprecated": true
    }
  },
  "ownership": {
    "default": 0
  },
  "_stats": {
    "systemId": "pf1",
    "systemVersion": "9.1",
    "coreVersion": "10.291",
    "createdTime": 1665428372867,
    "modifiedTime": 1689797929185,
    "lastModifiedBy": "ppv91YxratjWnkJi"
  },
  "effects": [],
  "folder": null,
  "sort": 0,
  "flags": {},
  "_key": "!items!j3wNQ2GUjYO2OWJB"
}