{
  "_id": "7Hw1AYBSV8Elb0LF",
  "name": "Staff Of Aspects",
  "type": "consumable",
  "img": "systems/pf1/icons/skills/blue_23.jpg",
  "system": {
    "description": {
      "value": "<h2></b>Description</b></h2></p><p>This stout staff is made of ash. Four faces of animals-a bear, a falcon, a stag, and a wolf-are carved at its top. The aspect staff functions as a +1/+1 quarterstaff and allows the use of the following spells:  • Aspect of the bear (1 charge; Advanced Player's Guide)  • Aspect of the falcon (1 charge; Advanced Player's Guide)  • Aspect of the stag (2 charges; Advanced Player's Guide)  • Aspect of the wolf (3 charges; Advanced Player's Guide)<br><p><b>Base Item:</b> +1/+1 quarterstaff</p><h3><b>Requirements</b></h3><p>Craft Magic Arms and Armor, Craft Staff, aspect of the bear, aspect of the falcon, aspect of the stag, aspect of the wolf</p><h3><b>Source: </b></h3>Ultimate Equipment",
      "unidentified": ""
    },
    "tags": [],
    "quantity": 1,
    "weight": {
      "value": 5
    },
    "price": 37600,
    "size": "med",
    "equipped": true,
    "resizing": false,
    "identified": true,
    "hp": {
      "max": 10,
      "value": 10
    },
    "broken": false,
    "hardness": 0,
    "carried": true,
    "unidentified": {
      "price": 0,
      "name": ""
    },
    "cl": 9,
    "aura": {
      "custom": true,
      "school": "transmutation"
    },
    "actions": [],
    "uses": {
      "per": null,
      "value": 0,
      "maxFormula": "",
      "pricePerUse": 0,
      "autoDeductChargesCost": "1",
      "max": 0
    },
    "attackNotes": [],
    "effectNotes": [],
    "links": {
      "children": [],
      "charges": []
    },
    "tag": "staffOfAspects",
    "useCustomTag": false,
    "flags": {
      "boolean": {},
      "dictionary": {}
    },
    "scriptCalls": [],
    "subType": "staff",
    "showInQuickbar": false,
    "powerAttack": {
      "multiplier": "",
      "damageBonus": 2,
      "critMultiplier": 1
    }
  },
  "ownership": {
    "default": 0
  },
  "_stats": {
    "systemId": "pf1",
    "systemVersion": "9.1",
    "coreVersion": "10.291",
    "createdTime": 1665428371748,
    "modifiedTime": 1689797924118,
    "lastModifiedBy": "ppv91YxratjWnkJi"
  },
  "effects": [],
  "folder": null,
  "sort": 0,
  "flags": {},
  "_key": "!items!7Hw1AYBSV8Elb0LF"
}