{
  "_id": "SOoNl92f7kMH5vFI",
  "name": "Staff Of Waves",
  "type": "consumable",
  "img": "systems/pf1/icons/skills/blue_23.jpg",
  "system": {
    "description": {
      "value": "<h2></b>Description</b></h2></p><p>This staff is made of entwined coral and topped with a brilliant sapphire. The staff functions as a +1 quenching quarterstaff above the waves and a +1 impact quarterstaff below, and attacks with the staff of waves take no penalties for being bludgeoning melee attacks underwater. It allows use of the following spells:  • Hydraulic torrentAPG (1 charge)  • SlipstreamAPG (1 charge)  • Wave form (2 charges)  • Ride the wavesUM (2 charges)  • VortexAPG (3 charges)<br><p><b>Base Item:</b> +1 quenching quarterstaff|+1 impact quarterstaff</p><h3><b>Requirements</b></h3><p>Craft Staff, hydraulic torrentAPG, ride the wavesUM, slipstreamAPG, vortexAPG, wave form</p><h3><b>Source: </b></h3>Aquatic Adventures",
      "unidentified": ""
    },
    "tags": [],
    "quantity": 1,
    "weight": {
      "value": 5
    },
    "price": 90300,
    "size": "med",
    "equipped": true,
    "resizing": false,
    "identified": true,
    "hp": {
      "max": 10,
      "value": 10
    },
    "broken": false,
    "hardness": 0,
    "carried": true,
    "unidentified": {
      "price": 0,
      "name": ""
    },
    "cl": 13,
    "aura": {
      "custom": true,
      "school": "necromancy"
    },
    "actions": [],
    "uses": {
      "per": null,
      "value": 0,
      "maxFormula": "",
      "pricePerUse": 0,
      "autoDeductChargesCost": "1",
      "max": 0
    },
    "attackNotes": [],
    "effectNotes": [],
    "links": {
      "children": [],
      "charges": []
    },
    "tag": "staffOfWaves",
    "useCustomTag": false,
    "flags": {
      "boolean": {},
      "dictionary": {}
    },
    "scriptCalls": [],
    "subType": "staff",
    "showInQuickbar": false,
    "powerAttack": {
      "multiplier": "",
      "damageBonus": 2,
      "critMultiplier": 1
    }
  },
  "ownership": {
    "default": 0
  },
  "_stats": {
    "systemId": "pf1",
    "systemVersion": "9.1",
    "coreVersion": "10.291",
    "createdTime": 1665428372325,
    "modifiedTime": 1689797927077,
    "lastModifiedBy": "ppv91YxratjWnkJi"
  },
  "effects": [],
  "folder": null,
  "sort": 0,
  "flags": {},
  "_key": "!items!SOoNl92f7kMH5vFI"
}