{
  "_id": "xzckh4VAYfmt1GrY",
  "name": "Staff Of Radiance",
  "type": "consumable",
  "img": "systems/pf1/icons/skills/blue_23.jpg",
  "system": {
    "description": {
      "value": "<h2></b>Description</b></h2></p><p>This silver-tipped willow staff constantly emits light, as if from a light spell-the radiance is emitted from the staff's metallic end and flickers as if with flame. The staff's wielder can deactivate or activate this glowing light as a swift action. In addition, a staff of radiance allows use of the following spells:  • Glitterdust (1 charge)  • Daylight (2 charges)  • Searing light (2 charges)<br><p><b>Base Item:</b> </p><h3><b>Requirements</b></h3><p>Craft Staff, daylight, glitterdust, light, searing light</p><h3><b>Source: </b></h3>Ultimate Equipment",
      "unidentified": ""
    },
    "tags": [],
    "quantity": 1,
    "weight": {
      "value": 5
    },
    "price": 23200,
    "size": "med",
    "equipped": true,
    "resizing": false,
    "identified": true,
    "hp": {
      "max": 10,
      "value": 10
    },
    "broken": false,
    "hardness": 0,
    "carried": true,
    "unidentified": {
      "price": 0,
      "name": ""
    },
    "cl": 8,
    "aura": {
      "custom": true,
      "school": "evocation"
    },
    "actions": [],
    "uses": {
      "per": null,
      "value": 0,
      "maxFormula": "",
      "pricePerUse": 0,
      "autoDeductChargesCost": "1",
      "max": 0
    },
    "attackNotes": [],
    "effectNotes": [],
    "links": {
      "children": [],
      "charges": []
    },
    "tag": "staffOfRadiance",
    "useCustomTag": false,
    "flags": {
      "boolean": {},
      "dictionary": {}
    },
    "scriptCalls": [],
    "subType": "staff",
    "showInQuickbar": false,
    "powerAttack": {
      "multiplier": "",
      "damageBonus": 2,
      "critMultiplier": 1
    }
  },
  "ownership": {
    "default": 0
  },
  "_stats": {
    "systemId": "pf1",
    "systemVersion": "9.1",
    "coreVersion": "10.291",
    "createdTime": 1665428373306,
    "modifiedTime": 1689797930688,
    "lastModifiedBy": "ppv91YxratjWnkJi"
  },
  "effects": [],
  "folder": null,
  "sort": 0,
  "flags": {},
  "_key": "!items!xzckh4VAYfmt1GrY"
}