{
  "_id": "Q8Z5IIXSwkDb1cXx",
  "name": "Staff Of Nethys",
  "type": "consumable",
  "img": "systems/pf1/icons/skills/blue_23.jpg",
  "system": {
    "description": {
      "value": "<h2></b>Description</b></h2></p><p>These staves are often made of darkwood and topped with the holy symbol of Nethys, the eyes of which are made of rare gems that glow with magical energy. While the upper end of the staff (along with its symbol) always appears clean and pristine, the lower end of the staff's shaft appears charred by fire and pitted by acid. This staff allows the use of the following spells:  • Arcane sight (1 charge)  • Channel the giftISG (1 charge)  • Fractions of heal and harmISG (1 charge)  • Spell gaugeISG (1 charge)  • Prying eyes (2 charges) • Spell scourgeISG (3 charges)  In addition, the wielder of the staff can store additional spells in the staff itself, similarly to a ring of spell storing. The staff of Nethys can contain up to 5 levels of spells (arcane, divine, or psychic, or even a mix of all three). The wielder doesn't need to spend charges to cast one of these stored spells from the staff, but must have levels in a class with that spell on its spell list.<br><p><b>Base Item:</b> </p><h3><b>Requirements</b></h3><p>Create Staff, Heightened Spell, arcane sight, channel the giftISG or imbue with spell ability, fractions of heal and harmISG, prying eyes, spell gaugeISG, spell scourgeISG</p><h3><b>Source: </b></h3>Divine Anthology",
      "unidentified": ""
    },
    "tags": [],
    "quantity": 1,
    "weight": {
      "value": 5
    },
    "price": 131550,
    "size": "med",
    "equipped": true,
    "resizing": false,
    "identified": true,
    "hp": {
      "max": 10,
      "value": 10
    },
    "broken": false,
    "hardness": 0,
    "carried": true,
    "unidentified": {
      "price": 0,
      "name": ""
    },
    "cl": 13,
    "aura": {
      "custom": true,
      "school": "abjuratio"
    },
    "actions": [],
    "uses": {
      "per": null,
      "value": 0,
      "maxFormula": "",
      "pricePerUse": 0,
      "autoDeductChargesCost": "1",
      "max": 0
    },
    "attackNotes": [],
    "effectNotes": [],
    "links": {
      "children": [],
      "charges": []
    },
    "tag": "staffOfNethys",
    "useCustomTag": false,
    "flags": {
      "boolean": {},
      "dictionary": {}
    },
    "scriptCalls": [],
    "subType": "staff",
    "showInQuickbar": false,
    "powerAttack": {
      "multiplier": "",
      "damageBonus": 2,
      "critMultiplier": 1
    }
  },
  "ownership": {
    "default": 0
  },
  "_stats": {
    "systemId": "pf1",
    "systemVersion": "9.1",
    "coreVersion": "10.291",
    "createdTime": 1665428372284,
    "modifiedTime": 1689797926844,
    "lastModifiedBy": "ppv91YxratjWnkJi"
  },
  "effects": [],
  "folder": null,
  "sort": 0,
  "flags": {},
  "_key": "!items!Q8Z5IIXSwkDb1cXx"
}