{
  "_id": "oYf6yWwzY1hvSabL",
  "name": "Staff Of Hoarding",
  "type": "consumable",
  "img": "systems/pf1/icons/skills/blue_23.jpg",
  "system": {
    "description": {
      "value": "<h2></b>Description</b></h2></p><p>This gorgeous teak shaft has many gold and silver coins hammered into it. It allows use of the following spells:   • Identify (1 charge)   • Locate object (1 charge)   • Magic aura (1 charge)   • Secret chest (2 charges)   • Legend lore (3 charges)<br><p><b>Base Item:</b> </p><h3><b>Requirements</b></h3><p>Craft Staff, identify, legend lore, locate object, magic aura, secret chest</p><h3><b>Source: </b></h3>Ultimate Equipment",
      "unidentified": ""
    },
    "tags": [],
    "quantity": 1,
    "weight": {
      "value": 5
    },
    "price": 55866,
    "size": "med",
    "equipped": true,
    "resizing": false,
    "identified": true,
    "hp": {
      "max": 10,
      "value": 10
    },
    "broken": false,
    "hardness": 0,
    "carried": true,
    "unidentified": {
      "price": 0,
      "name": ""
    },
    "cl": 11,
    "aura": {
      "custom": true,
      "school": "varies, varies"
    },
    "actions": [],
    "uses": {
      "per": null,
      "value": 0,
      "maxFormula": "",
      "pricePerUse": 0,
      "autoDeductChargesCost": "1",
      "max": 0
    },
    "attackNotes": [],
    "effectNotes": [],
    "links": {
      "children": [],
      "charges": []
    },
    "tag": "staffOfHoarding",
    "useCustomTag": false,
    "flags": {
      "boolean": {},
      "dictionary": {}
    },
    "scriptCalls": [],
    "subType": "staff",
    "showInQuickbar": false,
    "powerAttack": {
      "multiplier": "",
      "damageBonus": 2,
      "critMultiplier": 1
    }
  },
  "ownership": {
    "default": 0
  },
  "_stats": {
    "systemId": "pf1",
    "systemVersion": "9.1",
    "coreVersion": "10.291",
    "createdTime": 1665428372956,
    "modifiedTime": 1689797929722,
    "lastModifiedBy": "ppv91YxratjWnkJi"
  },
  "effects": [],
  "folder": null,
  "sort": 0,
  "flags": {},
  "_key": "!items!oYf6yWwzY1hvSabL"
}