{
  "_id": "YMj8JH93ojh7Di2L",
  "name": "Staff Of Abjuration",
  "type": "consumable",
  "img": "systems/pf1/icons/skills/blue_23.jpg",
  "system": {
    "description": {
      "value": "<h2></b>Description</b></h2></p><p>Usually carved from the heartwood of an ancient oak, ash, sequoia, or other large tree, this staff allows use of the following spells:   • Dispel magic (1 charge)   • Resist energy (1 charge)   • Shield (1 charge)   • Dismissal (2 charges)   • Lesser globe of invulnerability (2 charges)   • Repulsion (3 charges)<br><p><b>Base Item:</b> </p><h3><b>Requirements</b></h3><p>Craft Staff, dismissal, dispel magic, lesser globe of invulnerability, repulsion, resist energy, shield</p><h3><b>Source: </b></h3>Ultimate Equipment",
      "unidentified": ""
    },
    "tags": [],
    "quantity": 1,
    "weight": {
      "value": 5
    },
    "price": 82000,
    "size": "med",
    "equipped": true,
    "resizing": false,
    "identified": true,
    "hp": {
      "max": 10,
      "value": 10
    },
    "broken": false,
    "hardness": 0,
    "carried": true,
    "unidentified": {
      "price": 0,
      "name": ""
    },
    "cl": 13,
    "aura": {
      "custom": true,
      "school": "abjuration"
    },
    "actions": [],
    "uses": {
      "per": null,
      "value": 0,
      "maxFormula": "",
      "pricePerUse": 0,
      "autoDeductChargesCost": "1",
      "max": 0
    },
    "attackNotes": [],
    "effectNotes": [],
    "links": {
      "children": [],
      "charges": []
    },
    "tag": "staffOfAbjuration",
    "useCustomTag": false,
    "flags": {
      "boolean": {},
      "dictionary": {}
    },
    "scriptCalls": [],
    "subType": "staff",
    "showInQuickbar": false,
    "powerAttack": {
      "multiplier": "",
      "damageBonus": 2,
      "critMultiplier": 1
    }
  },
  "ownership": {
    "default": 0
  },
  "_stats": {
    "systemId": "pf1",
    "systemVersion": "9.1",
    "coreVersion": "10.291",
    "createdTime": 1665428372434,
    "modifiedTime": 1689797927769,
    "lastModifiedBy": "ppv91YxratjWnkJi"
  },
  "effects": [],
  "folder": null,
  "sort": 0,
  "flags": {},
  "_key": "!items!YMj8JH93ojh7Di2L"
}