{
  "_id": "UzRi2oLwKL2Vu3Av",
  "name": "Staff Of Traps",
  "type": "consumable",
  "img": "systems/pf1/icons/skills/blue_23.jpg",
  "system": {
    "description": {
      "value": "<h2></b>Description</b></h2></p><p>The tip of this dark wooden shaft holds a piece of hard, chalk-like stone between black, clawlike protrusions. The staff allows use of the following spells:   • Alarm (1 charge)   • Magic mouth (1 charge)   • Phantom trap (1 charge)   • Explosive runes (2 charges)   • Fire trap (2 charges)   • Sepia snake sigil (2 charges)<br><p><b>Base Item:</b> </p><h3><b>Requirements</b></h3><p>Craft Staff, alarm, explosive runes, fire trap, magic mouth, phantom trap, sepia snake sigil</p><h3><b>Source: </b></h3>Ultimate Equipment",
      "unidentified": ""
    },
    "tags": [],
    "quantity": 1,
    "weight": {
      "value": 5
    },
    "price": 56925,
    "size": "med",
    "equipped": true,
    "resizing": false,
    "identified": true,
    "hp": {
      "max": 10,
      "value": 10
    },
    "broken": false,
    "hardness": 0,
    "carried": true,
    "unidentified": {
      "price": 0,
      "name": ""
    },
    "cl": 8,
    "aura": {
      "custom": true,
      "school": "abjuration"
    },
    "actions": [],
    "uses": {
      "per": null,
      "value": 0,
      "maxFormula": "",
      "pricePerUse": 0,
      "autoDeductChargesCost": "1",
      "max": 0
    },
    "attackNotes": [],
    "effectNotes": [],
    "links": {
      "children": [],
      "charges": []
    },
    "tag": "staffOfTraps",
    "useCustomTag": false,
    "flags": {
      "boolean": {},
      "dictionary": {}
    },
    "scriptCalls": [],
    "subType": "staff",
    "showInQuickbar": false,
    "powerAttack": {
      "multiplier": "",
      "damageBonus": 2,
      "critMultiplier": 1
    }
  },
  "ownership": {
    "default": 0
  },
  "_stats": {
    "systemId": "pf1",
    "systemVersion": "9.1",
    "coreVersion": "10.291",
    "createdTime": 1665428372369,
    "modifiedTime": 1689797927343,
    "lastModifiedBy": "ppv91YxratjWnkJi"
  },
  "effects": [],
  "folder": null,
  "sort": 0,
  "flags": {},
  "_key": "!items!UzRi2oLwKL2Vu3Av"
}