{
  "_id": "qRmsW3hSrUwymmGW",
  "name": "Staff Of The Pyre Lord",
  "type": "consumable",
  "img": "systems/pf1/icons/skills/blue_23.jpg",
  "system": {
    "description": {
      "value": "<h2></b>Description</b></h2></p><p>This staff is carved entirely of polished obsidian inset with rubies. Flickering flames seem to dance across its surface. As the wielder goes up in level, the illusory flames grow larger and change in color, starting out a faint yellow and eventually becoming a deep blue. This staff allows the use of the following spells.  • Spark (1 charge)  • Scorching ray (2 charges)  10th Level: Scorching ray now costs only 1 charge, and the staff allows the use of fireball for 2 charges.  12th Level: The staff's fireball spells become empowered fireball. The staff counts as a +1 flaming quarterstaff when used as a weapon.  14th Level: The staff allows the use of summon monster VI for 2 charges to summon fire elementals only.  16th Level: The staff replaces summon monster VI with summon monster VIII for 3 charges to summon fire elementals only. It also allows the use of fire storm for 2 charges.  18th Level: The staff allows the use of meteor swarm for 3 charges. The cost for summon monster VIII decreases to 2 charges, and empowered fireball now costs 1 charge.  20th Level: The cost of meteor swarm and fire storm each decrease to 1 charge.<br><p><b>Base Item:</b> </p><h3><b>Requirements</b></h3><p>Craft Staff, Empower Spell, fire storm, fireball, meteor swarm, scorching ray, spark, summon monster VI, summon monster VIII</p><h3><b>Source: </b></h3>Pathfinder Unchained",
      "unidentified": ""
    },
    "tags": [],
    "quantity": 1,
    "weight": {
      "value": 1
    },
    "price": 8800,
    "size": "med",
    "equipped": true,
    "resizing": false,
    "identified": true,
    "hp": {
      "max": 10,
      "value": 10
    },
    "broken": false,
    "hardness": 0,
    "carried": true,
    "unidentified": {
      "price": 0,
      "name": ""
    },
    "cl": 8,
    "aura": {
      "custom": true,
      "school": "evocation"
    },
    "actions": [],
    "uses": {
      "per": null,
      "value": 0,
      "maxFormula": "",
      "pricePerUse": 0,
      "autoDeductChargesCost": "1",
      "max": 0
    },
    "attackNotes": [],
    "effectNotes": [],
    "links": {
      "children": [],
      "charges": []
    },
    "tag": "staffOfThePyreLord",
    "useCustomTag": false,
    "flags": {
      "boolean": {},
      "dictionary": {}
    },
    "scriptCalls": [],
    "subType": "staff",
    "showInQuickbar": false,
    "powerAttack": {
      "multiplier": "",
      "damageBonus": 2,
      "critMultiplier": 1
    }
  },
  "ownership": {
    "default": 0
  },
  "_stats": {
    "systemId": "pf1",
    "systemVersion": "9.1",
    "coreVersion": "10.291",
    "createdTime": 1665428373001,
    "modifiedTime": 1689797929972,
    "lastModifiedBy": "ppv91YxratjWnkJi"
  },
  "effects": [],
  "folder": null,
  "sort": 0,
  "flags": {},
  "_key": "!items!qRmsW3hSrUwymmGW"
}