{
  "_id": "Rivs9y873qk5rg04",
  "name": "Sunlord's Feather",
  "type": "loot",
  "img": "systems/pf1/icons/items/weapons/bolt.PNG",
  "system": {
    "description": {
      "value": "<h2></b>Description</b></h2></p><p>Named after Sarenrae's herald, Sunlord Thalachos, this +1 flaming holy arrow has a platinum arrowhead and brilliant white fletching. When the arrow successfully strikes an evil-aligned creature, it explodes in a shower of golden sparks that summons a swarm of celestial doves (treat as a celestial bat swarm; Pathfinder RPG Bestiary 294, 30) that continues to attack the arrow's target for 10 rounds or until destroyed or dismissed. If the target is slain before the duration expires, the remaining doves fly off into the horizon.<br><p><b>Base Item:</b> +1 flaming holy arrow</p><h3><b>Requirements</b></h3><p>Craft Magic Arms and Armor, flame strike, holy smite, summon swarm, creator must be good</p><h3><b>Source: </b></h3>Inner Sea Temples",
      "unidentified": ""
    },
    "tags": [],
    "quantity": 1,
    "weight": {
      "value": 0
    },
    "price": 1100,
    "size": "med",
    "equipped": false,
    "resizing": false,
    "identified": true,
    "hp": {
      "max": 10,
      "value": 10
    },
    "broken": false,
    "hardness": 0,
    "carried": true,
    "unidentified": {
      "price": 0,
      "name": ""
    },
    "cl": 10,
    "aura": {
      "custom": true,
      "school": "transmutation"
    },
    "changes": [],
    "changeFlags": {
      "loseDexToAC": false,
      "noEncumbrance": false,
      "mediumArmorFullSpeed": false,
      "heavyArmorFullSpeed": false,
      "noStr": false,
      "noDex": false,
      "oneInt": false,
      "oneWis": false,
      "oneCha": false
    },
    "contextNotes": [],
    "links": {
      "children": []
    },
    "tag": "sunlordsFeather",
    "useCustomTag": false,
    "flags": {
      "boolean": {},
      "dictionary": {}
    },
    "scriptCalls": [],
    "subType": "ammo",
    "extraType": "",
    "uses": {
      "value": 0,
      "max": 0
    }
  },
  "ownership": {
    "default": 0
  },
  "_stats": {
    "systemId": "pf1",
    "systemVersion": "9.1",
    "coreVersion": "10.291",
    "createdTime": 1665428372318,
    "modifiedTime": 1689793682318,
    "lastModifiedBy": "ppv91YxratjWnkJi"
  },
  "effects": [],
  "folder": null,
  "sort": 0,
  "flags": {},
  "_key": "!items!Rivs9y873qk5rg04"
}