{
  "_id": "WzlJsk5a2eupJkfV",
  "name": "Thanatotic Plate",
  "type": "equipment",
  "img": "systems/pf1/icons/items/armor/hellknight-leather.PNG",
  "system": {
    "description": {
      "value": "<h2></b>Description</b></h2></p><p>This jet-black +3 unrighteousUE full plate is made in the image of the armor worn by thanatotic titansB2 and grants the wearer a fragment of their immense power. The wearer of thanatotic plate gains SR 21 against divine spells. In addition, the wearer can speak a command word to gain the benefits of air walk, break enchantment, or spell turning once per day each. Once per week, the wearer can use greater planar ally to call upon a tarry demodandB3.  A newly created set of thanatotic plate always includes a thanatotic visage (see below); this is included in the price and weight. A set of thanatotic plate missing its visage has its price reduced by that of the visage.  A nonevil character who dons thanatotic plate immediately gains 4 negative levels; these negative levels can't be removed or ignored, but they disappear when the armor is removed.<br><p><b>Base Item:</b> +3 unrighteous full plate</p><h3><b>Requirements</b></h3><p>Craft Magic Arms and Armor, air walk, break enchantment, breath of life, greater planar ally, heal, spell turning, unholy aura</p><h3><b>Source: </b></h3>Book of the Damned",
      "unidentified": ""
    },
    "tags": [],
    "quantity": 1,
    "weight": {
      "value": 50
    },
    "price": 141240,
    "size": "med",
    "equipped": true,
    "resizing": false,
    "identified": true,
    "hp": {
      "max": 10,
      "value": 10
    },
    "broken": false,
    "hardness": 10,
    "carried": true,
    "unidentified": {
      "price": 0,
      "name": ""
    },
    "cl": 15,
    "aura": {
      "custom": true,
      "school": "abjuration [evil]"
    },
    "changes": [],
    "changeFlags": {
      "loseDexToAC": false,
      "noEncumbrance": false,
      "mediumArmorFullSpeed": false,
      "heavyArmorFullSpeed": false,
      "noStr": false,
      "noDex": false,
      "oneInt": false,
      "oneWis": false,
      "oneCha": false
    },
    "contextNotes": [],
    "actions": [],
    "uses": {
      "per": null,
      "value": 0,
      "maxFormula": "",
      "autoDeductChargesCost": "1",
      "max": 0
    },
    "attackNotes": [],
    "effectNotes": [],
    "links": {
      "children": [],
      "charges": []
    },
    "tag": "thanatoticPlate",
    "useCustomTag": false,
    "flags": {
      "boolean": {},
      "dictionary": {}
    },
    "scriptCalls": [],
    "masterwork": true,
    "enh": null,
    "proficient": true,
    "held": "normal",
    "subType": "armor",
    "baseTypes": [],
    "equipmentSubtype": "mediumArmor",
    "armor": {
      "value": 0,
      "dex": null,
      "acp": 0,
      "enh": 0
    },
    "spellFailure": 0,
    "slot": "slotless",
    "showInQuickbar": false,
    "powerAttack": {
      "multiplier": "",
      "damageBonus": 2,
      "critMultiplier": 1
    }
  },
  "ownership": {
    "default": 0
  },
  "_stats": {
    "systemId": "pf1",
    "systemVersion": "9.1",
    "coreVersion": "10.291",
    "createdTime": 1665428372400,
    "modifiedTime": 1689797927527,
    "lastModifiedBy": "ppv91YxratjWnkJi"
  },
  "effects": [],
  "folder": null,
  "sort": 0,
  "flags": {},
  "_key": "!items!WzlJsk5a2eupJkfV"
}