{
  "_id": "qWedYqGAW7n2qpoW",
  "name": "Altar Of The Dawnflower",
  "type": "equipment",
  "img": "icons/svg/item-bag.svg",
  "system": {
    "description": {
      "value": "<h2></b>Description</b></h2></p><p>Unearthed from the ashes of Oppara's former temple of Sarenrae, the restored and rededicated altar of the Dawnflower sits inside the House of Dawn's Redemption at the exact location it resided nearly 200 years ago. As a gift to welcome Sarenrae's faith back into Taldor, this reclaimed treasure symbolizes the hope for a peaceful existence between the traditionalists of Oppara and those longing for the light of the Healing Flame.  This altar consists of a tiled blue box detailed with mosaics of doves in flight. A stand for a scimitar is built on top of the altar. During important worship services, the scabbard of the Lost Kiss (see below) is often placed atop the altar's scimitar stand. Praying at the altar grants a +3 bonus on Diplomacy checks to redeem an evil creature or change the attitude of a creature opposed to the Sarenite faith. Creatures who rest or receive long-term care (with the Heal skill) within 60 feet of the altar also regain 1 additional hit point per level each day.<br><p><b>Base Item:</b> </p><h3><b>Requirements</b></h3><p>Craft Wondrous Item, cure light wounds, eagle's splendor, magic circle against evil, creator must worship Sarenrae</p><h3><b>Source: </b></h3>Inner Sea Temples",
      "unidentified": ""
    },
    "tags": [],
    "quantity": 1,
    "weight": {
      "value": 250
    },
    "price": 10000,
    "size": "med",
    "equipped": true,
    "resizing": false,
    "identified": true,
    "hp": {
      "max": 10,
      "value": 10
    },
    "broken": false,
    "hardness": 0,
    "carried": true,
    "unidentified": {
      "price": 0,
      "name": ""
    },
    "cl": 10,
    "aura": {
      "custom": true,
      "school": "conjuration and enchantment [good healing]"
    },
    "changes": [],
    "changeFlags": {
      "loseDexToAC": false,
      "noEncumbrance": false,
      "mediumArmorFullSpeed": false,
      "heavyArmorFullSpeed": false
    },
    "contextNotes": [],
    "actions": [],
    "uses": {
      "per": null,
      "value": 0,
      "maxFormula": "",
      "autoDeductChargesCost": "1"
    },
    "attackNotes": [],
    "effectNotes": [],
    "links": {
      "children": [],
      "charges": []
    },
    "tag": "altarOfTheDawnflower",
    "useCustomTag": false,
    "flags": {
      "boolean": {},
      "dictionary": {}
    },
    "scriptCalls": [],
    "masterwork": false,
    "enh": null,
    "proficient": true,
    "held": "normal",
    "subType": "wondrous",
    "baseTypes": [],
    "equipmentSubtype": "lightArmor",
    "armor": {
      "value": 0,
      "dex": null,
      "acp": 0,
      "enh": 0
    },
    "spellFailure": 0,
    "slot": "slotless",
    "showInQuickbar": false
  },
  "ownership": {
    "default": 0
  },
  "_stats": {
    "systemId": "pf1",
    "systemVersion": "9.1",
    "coreVersion": "10.291",
    "createdTime": 1665428409627,
    "modifiedTime": 1689798016844,
    "lastModifiedBy": "ppv91YxratjWnkJi"
  },
  "effects": [],
  "folder": null,
  "sort": 0,
  "flags": {},
  "_key": "!items!qWedYqGAW7n2qpoW"
}