{
  "_id": "9JkqvS3zZqdvrvBu",
  "name": "Ampoule Of False Blood",
  "type": "equipment",
  "img": "icons/svg/item-bag.svg",
  "system": {
    "description": {
      "value": "<h2></b>Description</b></h2></p><p>This necklace consists of a fine gold chain from which hangs a small sealed crystal vial containing preserved liquid blood. Each ampoule is attuned to a specific sorcerer bloodline. If a sorcerer (or other creature with sorcerer bloodline powers, such as from the Eldritch Heritage feat in Ultimate Magic) wears the ampoule for at least one day, she loses her existing bloodline powers and gains the bloodline powers of the ampoule's bloodline, using her sorcerer level to determine the powers gained. The ampoule has no effect on the sorcerer's bonus spells, bloodline arcana, or bonus feats from her original bloodline (which remain unchanged).   The sorcerer can only use these bloodline powers as long as she wears the necklace. Removing the necklace leaves the sorcerer unable to access any bloodline power, either her own or those of the ampoule, until one hour has passed.   As a full round action that provokes an attack of opportunity, the wearer can break open the ampoule and drink the blood within. This destroys the item, and gives her the sickened condition for 1d4 hours. If the drinker is a sorcerer, her bloodline permanently changes to match that of the ampoule. In this case, the sorcerer's bonus spells, bloodline arcana, and bloodline powers all permanently change to match those of the ampoule's bloodline. Bonus feats previously selected due to the sorcerer's bloodline are unaffected, but new feats must be selected from the new bloodline's bonus feat list.<br><p><b>Base Item:</b> </p><h3><b>Requirements</b></h3><p>Craft Wondrous item, limited wish, polymorph, creator must be a sorcerer of the appropriate bloodline</p><h3><b>Source: </b></h3>Ultimate Equipment",
      "unidentified": ""
    },
    "tags": [],
    "quantity": 1,
    "weight": {
      "value": 0
    },
    "price": 20000,
    "size": "med",
    "equipped": true,
    "resizing": false,
    "identified": true,
    "hp": {
      "max": 10,
      "value": 10
    },
    "broken": false,
    "hardness": 0,
    "carried": true,
    "unidentified": {
      "price": 0,
      "name": ""
    },
    "cl": 15,
    "aura": {
      "custom": true,
      "school": "transmutation"
    },
    "changes": [],
    "changeFlags": {
      "loseDexToAC": false,
      "noEncumbrance": false,
      "mediumArmorFullSpeed": false,
      "heavyArmorFullSpeed": false
    },
    "contextNotes": [],
    "actions": [],
    "uses": {
      "per": null,
      "value": 0,
      "maxFormula": "",
      "autoDeductChargesCost": "1"
    },
    "attackNotes": [],
    "effectNotes": [],
    "links": {
      "children": [],
      "charges": []
    },
    "tag": "ampouleOfFalseBlood",
    "useCustomTag": false,
    "flags": {
      "boolean": {},
      "dictionary": {}
    },
    "scriptCalls": [],
    "masterwork": false,
    "enh": null,
    "proficient": true,
    "held": "normal",
    "subType": "wondrous",
    "baseTypes": [],
    "equipmentSubtype": "lightArmor",
    "armor": {
      "value": 0,
      "dex": null,
      "acp": 0,
      "enh": 0
    },
    "spellFailure": 0,
    "slot": "neck",
    "showInQuickbar": false
  },
  "ownership": {
    "default": 0
  },
  "_stats": {
    "systemId": "pf1",
    "systemVersion": "9.1",
    "coreVersion": "10.291",
    "createdTime": 1665428404232,
    "modifiedTime": 1689797987478,
    "lastModifiedBy": "ppv91YxratjWnkJi"
  },
  "effects": [],
  "folder": null,
  "sort": 0,
  "flags": {},
  "_key": "!items!9JkqvS3zZqdvrvBu"
}