{
  "_id": "6rUjSgwWkX3ff8fr",
  "name": "Amulet Of Grasping Souls",
  "type": "equipment",
  "img": "icons/svg/item-bag.svg",
  "system": {
    "description": {
      "value": "<h2></b>Description</b></h2></p><p>This amulet can be worn by both corporeal and incorporeal creatures. If worn by a corporeal creature, it confers the ghost touch special ability on her natural attacks and weapons she wields (even thrown weapons and projectiles). Once per day as a swift action, the wearer can make the next spell she casts affect incorporeal creatures as though she were using the Ectoplasmic SpellAPG metamagic feat but without increasing the spell level.   When an incorporeal creature wears the amulet, it can interact with it surroundings. Any item in its possession becomes incorporeal, allowing the incorporeal creature to take items and phase through objects with them. An incorporeal creature without a Strength score uses its Charisma score to determine how much it can carry.<br><p><b>Base Item:</b> </p><h3><b>Requirements</b></h3><p>Craft Wondrous Item, Ectoplasmic Spell, plane shift</p><h3><b>Source: </b></h3>Tears At Bitter Manor",
      "unidentified": ""
    },
    "tags": [],
    "quantity": 1,
    "weight": {
      "value": 0
    },
    "price": 21000,
    "size": "med",
    "equipped": true,
    "resizing": false,
    "identified": true,
    "hp": {
      "max": 10,
      "value": 10
    },
    "broken": false,
    "hardness": 0,
    "carried": true,
    "unidentified": {
      "price": 0,
      "name": ""
    },
    "cl": 13,
    "aura": {
      "custom": true,
      "school": "transmutation"
    },
    "changes": [],
    "changeFlags": {
      "loseDexToAC": false,
      "noEncumbrance": false,
      "mediumArmorFullSpeed": false,
      "heavyArmorFullSpeed": false
    },
    "contextNotes": [],
    "actions": [],
    "uses": {
      "per": null,
      "value": 0,
      "maxFormula": "",
      "autoDeductChargesCost": "1"
    },
    "attackNotes": [],
    "effectNotes": [],
    "links": {
      "children": [],
      "charges": []
    },
    "tag": "amuletOfGraspingSouls",
    "useCustomTag": false,
    "flags": {
      "boolean": {},
      "dictionary": {}
    },
    "scriptCalls": [],
    "masterwork": false,
    "enh": null,
    "proficient": true,
    "held": "normal",
    "subType": "wondrous",
    "baseTypes": [],
    "equipmentSubtype": "lightArmor",
    "armor": {
      "value": 0,
      "dex": null,
      "acp": 0,
      "enh": 0
    },
    "spellFailure": 0,
    "slot": "neck",
    "showInQuickbar": false
  },
  "ownership": {
    "default": 0
  },
  "_stats": {
    "systemId": "pf1",
    "systemVersion": "9.1",
    "coreVersion": "10.291",
    "createdTime": 1665428404087,
    "modifiedTime": 1689797985722,
    "lastModifiedBy": "ppv91YxratjWnkJi"
  },
  "effects": [],
  "folder": null,
  "sort": 0,
  "flags": {},
  "_key": "!items!6rUjSgwWkX3ff8fr"
}