{
  "_id": "YA4RisuQfqupRG0P",
  "name": "Amulet Of The Spirits,  Battle",
  "type": "equipment",
  "img": "icons/svg/item-bag.svg",
  "system": {
    "description": {
      "value": "<h2></b>Description</b></h2></p><p>Each different type of amulet of the spirit grants its wearer powers from one type of shaman spirit bond, but makes her vulnerable to attacks and effects that target creatures with that spirit bond (such as a spirit-hunting weapon). If a creature that already has the associated mystery or spirit wears the amulet, that wearer does not gain the abilities listed below; instead, the effective level of her mystery or spirit powers increases by 2. This effect does not stack with other abilities that increase the effective level of mystery or spirit powers.  Battle: This amulet is shaped like a tiny dagger that hangs point down. Once per day as a swift action, the wearer can activate a battle ward, which grants her a +3 deflection bonus to AC. Each time she is attacked, the deflection bonus is reduced by 1 (whether the attack succeeds or not) until the ward fades away when the bonus reaches +0. In addition, once per day as a swift action the wearer can curse a creature within 30 feet, making it take more damage from bleed effects and causing its wounds to heal at a slower rate. When the cursed creature takes bleed damage, it takes 1 additional point of bleed damage (even if the bleed is ability damage). Furthermore, when the target is subject to an effect that would restore its hit points, that effect restores only half the normal amount of hit points. This curse lasts for 8 rounds. Moderate necromancy; CL 8th; Craft Wondrous Item, bestow curse, entropic shield.<br><p><b>Base Item:</b> </p><h3><b>Requirements</b></h3><p>Craft Wondrous Item,  bestow curse, entropic shield, creator must be a shaman with the appropriate spirit</p><h3><b>Source: </b></h3>Advanced Class Guide",
      "unidentified": ""
    },
    "tags": [],
    "quantity": 1,
    "weight": {
      "value": 1
    },
    "price": 12000,
    "size": "med",
    "equipped": true,
    "resizing": false,
    "identified": true,
    "hp": {
      "max": 10,
      "value": 10
    },
    "broken": false,
    "hardness": 0,
    "carried": true,
    "unidentified": {
      "price": 0,
      "name": ""
    },
    "cl": 8,
    "aura": {
      "custom": true,
      "school": "necromancy"
    },
    "changes": [],
    "changeFlags": {
      "loseDexToAC": false,
      "noEncumbrance": false,
      "mediumArmorFullSpeed": false,
      "heavyArmorFullSpeed": false
    },
    "contextNotes": [],
    "actions": [],
    "uses": {
      "per": null,
      "value": 0,
      "maxFormula": "",
      "autoDeductChargesCost": "1"
    },
    "attackNotes": [],
    "effectNotes": [],
    "links": {
      "children": [],
      "charges": []
    },
    "tag": "amuletOfTheSpiritsBattle",
    "useCustomTag": false,
    "flags": {
      "boolean": {},
      "dictionary": {}
    },
    "scriptCalls": [],
    "masterwork": false,
    "enh": null,
    "proficient": true,
    "held": "normal",
    "subType": "wondrous",
    "baseTypes": [],
    "equipmentSubtype": "lightArmor",
    "armor": {
      "value": 0,
      "dex": null,
      "acp": 0,
      "enh": 0
    },
    "spellFailure": 0,
    "slot": "neck",
    "showInQuickbar": false
  },
  "ownership": {
    "default": 0
  },
  "_stats": {
    "systemId": "pf1",
    "systemVersion": "9.1",
    "coreVersion": "10.291",
    "createdTime": 1665428407288,
    "modifiedTime": 1689798003351,
    "lastModifiedBy": "ppv91YxratjWnkJi"
  },
  "effects": [],
  "folder": null,
  "sort": 0,
  "flags": {},
  "_key": "!items!YA4RisuQfqupRG0P"
}