{
  "_id": "f6Lq4YTgvZpYt8Pz",
  "name": "Amulet Of The Blooded, Infernal",
  "type": "equipment",
  "img": "icons/svg/item-bag.svg",
  "system": {
    "description": {
      "value": "<h2></b>Description</b></h2></p><p>Each different type of amulet of the blooded grants its wearer powers from one sorcerer bloodline, but makes him vulnerable to attacks and effects that target creatures with the appropriate bloodline (such as a blood-hunting weapon). If a creature that already has the associated bloodline wears the amulet, the wearer does not gain the abilities listed below; instead, the effective level of his bloodline powers increases by 2. This effect does not stack with other abilities that increase the effective level of bloodline powers.   Infernal: This chunk of black marble hangs from a chain of brass. The wearer gains fire resistance 5 and a +2 bonus on saving throws against poison. Three times per day the wearer can make a melee touch attack to cause a creature to become shaken for 4 rounds. Multiple touches do not stack, but do add to the duration. Moderate abjuration; CL 9th; Craft Wondrous Item, chill touch, resist energy.<br><p><b>Base Item:</b> </p><h3><b>Requirements</b></h3><p>Craft Wondrous Item, chill touch, resist energy, creator must be a sorcerer of the appropriate bloodline</p><h3><b>Source: </b></h3>Advanced Class Guide",
      "unidentified": ""
    },
    "tags": [],
    "quantity": 1,
    "weight": {
      "value": 1
    },
    "price": 12000,
    "size": "med",
    "equipped": true,
    "resizing": false,
    "identified": true,
    "hp": {
      "max": 10,
      "value": 10
    },
    "broken": false,
    "hardness": 0,
    "carried": true,
    "unidentified": {
      "price": 0,
      "name": ""
    },
    "cl": 9,
    "aura": {
      "custom": true,
      "school": "abjuration"
    },
    "changes": [],
    "changeFlags": {
      "loseDexToAC": false,
      "noEncumbrance": false,
      "mediumArmorFullSpeed": false,
      "heavyArmorFullSpeed": false
    },
    "contextNotes": [],
    "actions": [],
    "uses": {
      "per": null,
      "value": 0,
      "maxFormula": "",
      "autoDeductChargesCost": "1"
    },
    "attackNotes": [],
    "effectNotes": [],
    "links": {
      "children": [],
      "charges": []
    },
    "tag": "amuletOfTheBloodedInfernal",
    "useCustomTag": false,
    "flags": {
      "boolean": {},
      "dictionary": {}
    },
    "scriptCalls": [],
    "masterwork": false,
    "enh": null,
    "proficient": true,
    "held": "normal",
    "subType": "wondrous",
    "baseTypes": [],
    "equipmentSubtype": "lightArmor",
    "armor": {
      "value": 0,
      "dex": null,
      "acp": 0,
      "enh": 0
    },
    "spellFailure": 0,
    "slot": "neck",
    "showInQuickbar": false
  },
  "ownership": {
    "default": 0
  },
  "_stats": {
    "systemId": "pf1",
    "systemVersion": "9.1",
    "coreVersion": "10.291",
    "createdTime": 1665428407968,
    "modifiedTime": 1689798008054,
    "lastModifiedBy": "ppv91YxratjWnkJi"
  },
  "effects": [],
  "folder": null,
  "sort": 0,
  "flags": {},
  "_key": "!items!f6Lq4YTgvZpYt8Pz"
}