{
  "_id": "SNwyiqKNWBs9MEQf",
  "name": "Amulet Of The Spirits,  Flame",
  "type": "equipment",
  "img": "icons/svg/item-bag.svg",
  "system": {
    "description": {
      "value": "<h2></b>Description</b></h2></p><p>Each different type of amulet of the spirit grants its wearer powers from one type of shaman spirit bond, but makes her vulnerable to attacks and effects that target creatures with that spirit bond (such as a spirit-hunting weapon). If a creature that already has the associated mystery or spirit wears the amulet, that wearer does not gain the abilities listed below; instead, the effective level of her mystery or spirit powers increases by 2. This effect does not stack with other abilities that increase the effective level of mystery or spirit powers.    Flame: This amulet is a single fire opal hanging from a chain of brass. Twice per day as a swift action, the wearer can activate a fire ward. The next time she is struck with a melee weapon, the creature making the attack takes 1d6+4 points of fire damage. The ward lasts for 1 minute, after which it fades away if not expended. In addition, twice per day as a swift action the wearer can cause a creature within 30 feet to  become vulnerable to fire until the end of the wearer's turn. Whenever the creature takes fire damage, it takes half again as much damage (+50%). If the creature is already vulnerable to fire, this hex has no effect. Fire immunity and resistances apply as normal, and any saving throw allowed by the effect that caused the damage reduces it as normal. Moderate evocation; CL 8th; Craft Wondrous Item, burning hands.<br><p><b>Base Item:</b> </p><h3><b>Requirements</b></h3><p>Craft Wondrous Item, burning hands, creator must be a shaman with the appropriate spirit</p><h3><b>Source: </b></h3>Advanced Class Guide",
      "unidentified": ""
    },
    "tags": [],
    "quantity": 1,
    "weight": {
      "value": 1
    },
    "price": 10000,
    "size": "med",
    "equipped": true,
    "resizing": false,
    "identified": true,
    "hp": {
      "max": 10,
      "value": 10
    },
    "broken": false,
    "hardness": 0,
    "carried": true,
    "unidentified": {
      "price": 0,
      "name": ""
    },
    "cl": 8,
    "aura": {
      "custom": true,
      "school": "evocation"
    },
    "changes": [],
    "changeFlags": {
      "loseDexToAC": false,
      "noEncumbrance": false,
      "mediumArmorFullSpeed": false,
      "heavyArmorFullSpeed": false
    },
    "contextNotes": [],
    "actions": [],
    "uses": {
      "per": null,
      "value": 0,
      "maxFormula": "",
      "autoDeductChargesCost": "1"
    },
    "attackNotes": [],
    "effectNotes": [],
    "links": {
      "children": [],
      "charges": []
    },
    "tag": "amuletOfTheSpiritsFlame",
    "useCustomTag": false,
    "flags": {
      "boolean": {},
      "dictionary": {}
    },
    "scriptCalls": [],
    "masterwork": false,
    "enh": null,
    "proficient": true,
    "held": "normal",
    "subType": "wondrous",
    "baseTypes": [],
    "equipmentSubtype": "lightArmor",
    "armor": {
      "value": 0,
      "dex": null,
      "acp": 0,
      "enh": 0
    },
    "spellFailure": 0,
    "slot": "neck",
    "showInQuickbar": false
  },
  "ownership": {
    "default": 0
  },
  "_stats": {
    "systemId": "pf1",
    "systemVersion": "9.1",
    "coreVersion": "10.291",
    "createdTime": 1665428406698,
    "modifiedTime": 1689797999918,
    "lastModifiedBy": "ppv91YxratjWnkJi"
  },
  "effects": [],
  "folder": null,
  "sort": 0,
  "flags": {},
  "_key": "!items!SNwyiqKNWBs9MEQf"
}