{
  "_id": "Hp5m8lbAASqSY9PS",
  "name": "Amulet Of The Abyss",
  "type": "equipment",
  "img": "icons/svg/item-bag.svg",
  "system": {
    "description": {
      "value": "<h2></b>Description</b></h2></p><p>Each amulet of the Abyss bears a demon lord's rune on its face, indicating the entity to which the amulet is attuned. An amulet of the Abyss functions as an unholy symbol of the demon lord. For a worshiper of that demon lord, an amulet of the Abyss also functions as a phylactery of faithfulness. An amulet of the Abyss grants its wearer the ability to cast each of the three spell-like abilities granted by the associated demon lord's first exalted demonic boon  once per day. See the individual demon lord entries in Chapter 1 for lists of the spells each demon lord grants as an exalted boon. Any lawful or good character who wears this amulet gains 2 negative levels. These negative levels remain as long as the amulet is worn and cannot be overcome in any way as long as the amulet is worn (though they never result in actual level loss).<br><p><b>Base Item:</b> </p><h3><b>Requirements</b></h3><p>Craft Wondrous Item, creator must worship a demon lord</p><h3><b>Source: </b></h3>Book of the Damned",
      "unidentified": ""
    },
    "tags": [],
    "quantity": 1,
    "weight": {
      "value": 0
    },
    "price": 15000,
    "size": "med",
    "equipped": true,
    "resizing": false,
    "identified": true,
    "hp": {
      "max": 10,
      "value": 10
    },
    "broken": false,
    "hardness": 0,
    "carried": true,
    "unidentified": {
      "price": 0,
      "name": ""
    },
    "cl": 5,
    "aura": {
      "custom": true,
      "school": "conjuration [chaotic evil]"
    },
    "changes": [],
    "changeFlags": {
      "loseDexToAC": false,
      "noEncumbrance": false,
      "mediumArmorFullSpeed": false,
      "heavyArmorFullSpeed": false
    },
    "contextNotes": [],
    "actions": [],
    "uses": {
      "per": null,
      "value": 0,
      "maxFormula": "",
      "autoDeductChargesCost": "1"
    },
    "attackNotes": [],
    "effectNotes": [],
    "links": {
      "children": [],
      "charges": []
    },
    "tag": "amuletOfTheAbyss",
    "useCustomTag": false,
    "flags": {
      "boolean": {},
      "dictionary": {}
    },
    "scriptCalls": [],
    "masterwork": false,
    "enh": null,
    "proficient": true,
    "held": "normal",
    "subType": "wondrous",
    "baseTypes": [],
    "equipmentSubtype": "lightArmor",
    "armor": {
      "value": 0,
      "dex": null,
      "acp": 0,
      "enh": 0
    },
    "spellFailure": 0,
    "slot": "neck",
    "showInQuickbar": false
  },
  "ownership": {
    "default": 0
  },
  "_stats": {
    "systemId": "pf1",
    "systemVersion": "9.1",
    "coreVersion": "10.291",
    "createdTime": 1665428405365,
    "modifiedTime": 1689797992509,
    "lastModifiedBy": "ppv91YxratjWnkJi"
  },
  "effects": [],
  "folder": null,
  "sort": 0,
  "flags": {},
  "_key": "!items!Hp5m8lbAASqSY9PS"
}