{
  "_id": "4Ql0Eml3vnsd0ult",
  "name": "Angel's Clarion",
  "type": "equipment",
  "img": "icons/svg/item-bag.svg",
  "system": {
    "description": {
      "value": "<h2></b>Description</b></h2></p><p>An angel's clarion is a graceful trumpet whose bell unfolds like the petals of a flower. These trumpets are usually platinum or silver near the mouthpiece, transforming to a rose gold at the bell.   Three times per day when an angel's clarion is sounded, it releases a blast that sounds like the chiming, resonant voices of an angelic choir. Any good-aligned creatures in a 30-foot cone emanating from the trumpet are washed in positive energy and healed for 3d8+5 points of damage. This energy only affects good-aligned creatures; neutral and evil creatures receive no benefit and undead creatures are not harmed. A carpet of flowers springs up beneath the 30-foot cone, growing and blooming in seconds. Any evil-aligned creatures within the area of effect must succeed at a DC 13 Reflex save or be treated as if in the area of an entangle spell. The entangling flowers persist for 5 minutes.<br><p><b>Base Item:</b> </p><h3><b>Requirements</b></h3><p>Craft Wondrous Item, cure serious wounds, entangle, creator must worship an empyreal lord</p><h3><b>Source: </b></h3>Chronicle Of The Righteous",
      "unidentified": ""
    },
    "tags": [],
    "quantity": 1,
    "weight": {
      "value": 1
    },
    "price": 23400,
    "size": "med",
    "equipped": true,
    "resizing": false,
    "identified": true,
    "hp": {
      "max": 10,
      "value": 10
    },
    "broken": false,
    "hardness": 0,
    "carried": true,
    "unidentified": {
      "price": 0,
      "name": ""
    },
    "cl": 5,
    "aura": {
      "custom": true,
      "school": "conjuration and transmutation"
    },
    "changes": [],
    "changeFlags": {
      "loseDexToAC": false,
      "noEncumbrance": false,
      "mediumArmorFullSpeed": false,
      "heavyArmorFullSpeed": false
    },
    "contextNotes": [],
    "actions": [],
    "uses": {
      "per": null,
      "value": 0,
      "maxFormula": "",
      "autoDeductChargesCost": "1"
    },
    "attackNotes": [],
    "effectNotes": [],
    "links": {
      "children": [],
      "charges": []
    },
    "tag": "angelsClarion",
    "useCustomTag": false,
    "flags": {
      "boolean": {},
      "dictionary": {}
    },
    "scriptCalls": [],
    "masterwork": false,
    "enh": null,
    "proficient": true,
    "held": "normal",
    "subType": "wondrous",
    "baseTypes": [],
    "equipmentSubtype": "lightArmor",
    "armor": {
      "value": 0,
      "dex": null,
      "acp": 0,
      "enh": 0
    },
    "spellFailure": 0,
    "slot": "slotless",
    "showInQuickbar": false
  },
  "ownership": {
    "default": 0
  },
  "_stats": {
    "systemId": "pf1",
    "systemVersion": "9.1",
    "coreVersion": "10.291",
    "createdTime": 1665428403656,
    "modifiedTime": 1689797983149,
    "lastModifiedBy": "ppv91YxratjWnkJi"
  },
  "effects": [],
  "folder": null,
  "sort": 0,
  "flags": {},
  "_key": "!items!4Ql0Eml3vnsd0ult"
}