{
  "_id": "DUBz9lOFwWITkT1Y",
  "name": "Apparatus Of The Crab",
  "type": "equipment",
  "img": "icons/svg/item-bag.svg",
  "system": {
    "description": {
      "value": "<h2></b>Description</b></h2></p><p>An apparatus of the crab is a metallic magical vehicle. When unoccupied, it appears to be a large, sealed iron barrel big enough to hold two Medium creatures. Close examination, and a DC 20 Perception check, reveals a secret catch that opens a hatch at one end. Anyone who crawls inside finds 10 (unlabeled) levers and seating for two Medium or Small occupants. These levers allow those inside to activate and control the apparatus's movements and actions.  LEVER (1d10) LEVER FUNCTION  1 Extend/retract legs and tail  2 Uncover/cover forward porthole  3 Uncover/cover side portholes  4 Extend/retract pincers and feelers  5 Snap pincers  6 Move forward/backward  7 Turn left/right  8 Open/close eyes with continual flame inside  9 Rise/sink in water  10 Open/close hatch  Operating a lever is a full-round action, and no lever may be operated more than once per round. However, since two characters can fit inside, the apparatus can move and attack in the same round. The device can function in water up to 900 feet deep. It holds enough air for a crew of two to survive 1d4+1 hours (twice as long for a single occupant).  When active, an apparatus of the crab has the following characteristics: hp 200; hardness 15; Speed 20 ft., swim 20 ft.; AC 20 (-1 size, +11 natural); Melee 2 pincers +12 (2d8); CMB +14; CMD 24.<br><p><b>Base Item:</b> </p><h3><b>Requirements</b></h3><p>Craft Wondrous Item, animate objects, continual flame, creator must have 8 ranks in Knowledge (engineering)</p><h3><b>Source: </b></h3>Ultimate Equipment",
      "unidentified": ""
    },
    "tags": [],
    "quantity": 1,
    "weight": {
      "value": 500
    },
    "price": 90000,
    "size": "med",
    "equipped": true,
    "resizing": false,
    "identified": true,
    "hp": {
      "max": 10,
      "value": 10
    },
    "broken": false,
    "hardness": 0,
    "carried": true,
    "unidentified": {
      "price": 0,
      "name": ""
    },
    "cl": 19,
    "aura": {
      "custom": true,
      "school": "evocation and transmutation"
    },
    "changes": [],
    "changeFlags": {
      "loseDexToAC": false,
      "noEncumbrance": false,
      "mediumArmorFullSpeed": false,
      "heavyArmorFullSpeed": false
    },
    "contextNotes": [],
    "actions": [],
    "uses": {
      "per": null,
      "value": 0,
      "maxFormula": "",
      "autoDeductChargesCost": "1"
    },
    "attackNotes": [],
    "effectNotes": [],
    "links": {
      "children": [],
      "charges": []
    },
    "tag": "apparatusOfTheCrab",
    "useCustomTag": false,
    "flags": {
      "boolean": {},
      "dictionary": {}
    },
    "scriptCalls": [],
    "masterwork": false,
    "enh": null,
    "proficient": true,
    "held": "normal",
    "subType": "wondrous",
    "baseTypes": [],
    "equipmentSubtype": "lightArmor",
    "armor": {
      "value": 0,
      "dex": null,
      "acp": 0,
      "enh": 0
    },
    "spellFailure": 0,
    "slot": "slotless",
    "showInQuickbar": false
  },
  "ownership": {
    "default": 0
  },
  "_stats": {
    "systemId": "pf1",
    "systemVersion": "9.1",
    "coreVersion": "10.291",
    "createdTime": 1665428404720,
    "modifiedTime": 1689797990143,
    "lastModifiedBy": "ppv91YxratjWnkJi"
  },
  "effects": [],
  "folder": null,
  "sort": 0,
  "flags": {},
  "_key": "!items!DUBz9lOFwWITkT1Y"
}