{
  "_id": "Wcwa2xLtdstorFjz",
  "name": "Arbalest Cloak",
  "type": "equipment",
  "img": "icons/svg/item-bag.svg",
  "system": {
    "description": {
      "value": "<h2></b>Description</b></h2></p><p>Images of ballistae ornament this metallic cloak, which fits easily over armor and other bulky clothing. The wearer can activate this cloak as a swift action, causing the garment to splay outward for 1 round, its jagged hem protruding around the wearer in stiff, sharp points. While the cloak is active, the wearer counts as wearing masterwork armor spikes with which she is proficient, and she can walk on air (as though using the air walk spell). If she's riding a mount, the air walk effect instead affects the mount while the cloak is active, and the mount can move with the item's help even if it's not specially trained to move with the aid of air walk. If the wearer (or her mount) isn't standing on a solid surface by the end of the round, she immediately falls, taking any applicable falling damage.  In addition, on her first successful charge attack during the round the cloak is active, the wearer deals an additional 1d6 points of piercing damage (1d4 if she is Small), plus another 1d6 (or 1d4 if she is Small) for every 20 feet the wearer traveled in a straight line during the charge (maximum 3d6).  This cloak can be activated up to three times per day, but not more often than once per minute.<br><p><b>Base Item:</b> </p><h3><b>Requirements</b></h3><p>Craft Wondrous Item, air walk, bull's strength</p><h3><b>Source: </b></h3>AP 122",
      "unidentified": ""
    },
    "tags": [],
    "quantity": 1,
    "weight": {
      "value": 8
    },
    "price": 9000,
    "size": "med",
    "equipped": true,
    "resizing": false,
    "identified": true,
    "hp": {
      "max": 10,
      "value": 10
    },
    "broken": false,
    "hardness": 0,
    "carried": true,
    "unidentified": {
      "price": 0,
      "name": ""
    },
    "cl": 9,
    "aura": {
      "custom": true,
      "school": "transmutation"
    },
    "changes": [],
    "changeFlags": {
      "loseDexToAC": false,
      "noEncumbrance": false,
      "mediumArmorFullSpeed": false,
      "heavyArmorFullSpeed": false
    },
    "contextNotes": [],
    "actions": [],
    "uses": {
      "per": null,
      "value": 0,
      "maxFormula": "",
      "autoDeductChargesCost": "1"
    },
    "attackNotes": [],
    "effectNotes": [],
    "links": {
      "children": [],
      "charges": []
    },
    "tag": "arbalestCloak",
    "useCustomTag": false,
    "flags": {
      "boolean": {},
      "dictionary": {}
    },
    "scriptCalls": [],
    "masterwork": false,
    "enh": null,
    "proficient": true,
    "held": "normal",
    "subType": "wondrous",
    "baseTypes": [],
    "equipmentSubtype": "lightArmor",
    "armor": {
      "value": 0,
      "dex": null,
      "acp": 0,
      "enh": 0
    },
    "spellFailure": 0,
    "slot": "shoulders",
    "showInQuickbar": false
  },
  "ownership": {
    "default": 0
  },
  "_stats": {
    "systemId": "pf1",
    "systemVersion": "9.1",
    "coreVersion": "10.291",
    "createdTime": 1665428407202,
    "modifiedTime": 1689798002533,
    "lastModifiedBy": "ppv91YxratjWnkJi"
  },
  "effects": [],
  "folder": null,
  "sort": 0,
  "flags": {},
  "_key": "!items!Wcwa2xLtdstorFjz"
}