{
  "_id": "M3ZeFvAngw1KwUNM",
  "name": "Armiger's Panoply",
  "type": "equipment",
  "img": "icons/svg/item-bag.svg",
  "system": {
    "description": {
      "value": "<h2></b>Description</b></h2></p><p>An armiger's panoply is a magic item set made up of one pair of bracers and a large leather sack. The bracers are normally forearm guards made in the style of masterwork padded or quilted cloth armor. They are often made of silk or high-quality linen, though they can also be crafted of leather or even chain links. A command word is normally inscribed on the inside of one of the bracers. The sack can be used to store a single suit of armor, including a shield. The armor retains its normal weight when stored. If items other than a suit of armor and a shield are put in the sack, they immediately fall through.  Three times per day, the wearer of the bracers can speak the panoply's command word to have the suit of armor and shield stored in the sack teleport onto the wearer. The sack must be within 500 feet of the wearer of the bracers in order to function. If the wearer is already in a suit of armor, it is teleported into the sack at the same time the new armor is teleported onto the user's body. As long as the armor to be worn is the same size as the user, it fits perfectly and doesn't interfere with anything else worn or hindering the user, including any grapple or tight space the wearer might be trapped in.<br><p><b>Base Item:</b> </p><h3><b>Requirements</b></h3><p>Craft Wondrous Item, effortless armorUC</p><h3><b>Source: </b></h3>Knights Of The Inner Sea",
      "unidentified": ""
    },
    "tags": [],
    "quantity": 1,
    "weight": {
      "value": 1
    },
    "price": 7200,
    "size": "med",
    "equipped": true,
    "resizing": false,
    "identified": true,
    "hp": {
      "max": 10,
      "value": 10
    },
    "broken": false,
    "hardness": 0,
    "carried": true,
    "unidentified": {
      "price": 0,
      "name": ""
    },
    "cl": 3,
    "aura": {
      "custom": true,
      "school": "transmutation"
    },
    "changes": [],
    "changeFlags": {
      "loseDexToAC": false,
      "noEncumbrance": false,
      "mediumArmorFullSpeed": false,
      "heavyArmorFullSpeed": false
    },
    "contextNotes": [],
    "actions": [],
    "uses": {
      "per": null,
      "value": 0,
      "maxFormula": "",
      "autoDeductChargesCost": "1"
    },
    "attackNotes": [],
    "effectNotes": [],
    "links": {
      "children": [],
      "charges": []
    },
    "tag": "armigersPanoply",
    "useCustomTag": false,
    "flags": {
      "boolean": {},
      "dictionary": {}
    },
    "scriptCalls": [],
    "masterwork": false,
    "enh": null,
    "proficient": true,
    "held": "normal",
    "subType": "wondrous",
    "baseTypes": [],
    "equipmentSubtype": "lightArmor",
    "armor": {
      "value": 0,
      "dex": null,
      "acp": 0,
      "enh": 0
    },
    "spellFailure": 0,
    "slot": "wrists",
    "showInQuickbar": false
  },
  "ownership": {
    "default": 0
  },
  "_stats": {
    "systemId": "pf1",
    "systemVersion": "9.1",
    "coreVersion": "10.291",
    "createdTime": 1665428406008,
    "modifiedTime": 1689797995543,
    "lastModifiedBy": "ppv91YxratjWnkJi"
  },
  "effects": [],
  "folder": null,
  "sort": 0,
  "flags": {},
  "_key": "!items!M3ZeFvAngw1KwUNM"
}