{
  "_id": "kT136IDJTemnRWTL",
  "name": "Atavistic Splinter",
  "type": "equipment",
  "img": "icons/svg/item-bag.svg",
  "system": {
    "description": {
      "value": "<h2></b>Description</b></h2></p><p>This sheet of charred bark is 2 feet long, 10 inches wide, and 1 inch thick. The Atavistic Splinter imbues its owner with a primal authority over beasts, providing a +4 insight bonus on wild empathy checks.  Once each day, the owner can touch the Atavistic Splinter to a humanoid creature to force an animalistic transformation. Using this ability against an unwilling target requires a melee touch attack. A target touched by the Atavistic Splinter must succeed at a DC 16 Fortitude save or acquire the bestial simple template (see below) for 24 hours. After this period, the target must succeed at a DC 14 Fortitude save or retain the template for an additional 24 hours, except the Intelligence and Charisma ability score penalties from the template each increase to -4. Each day it retains the template, the target must attempt another Fortitude save; on each successive day, the Fortitude save DC decreases by 2, and the Intelligence and Charisma penalties increase by 2. These penalties can't reduce either ability score below 2. This effect can't be dispelled, but can be removed with break enchantment, limited wish, miracle, remove curse, or wish. If the target's Intelligence and Charisma scores both reach 2 as a result of this effect, the template becomes permanent and can't be removed except with miracle or wish. A target that succeeds at a saving throw against this effect can't be affected by the Atavistic Splinter for 1 year.<br><p><b>Base Item:</b> </p><h3><b>Requirements</b></h3><p>Craft Wondrous Item, dominate animal, polymorph</p><h3><b>Source: </b></h3>Lost Treasures",
      "unidentified": ""
    },
    "tags": [],
    "quantity": 1,
    "weight": {
      "value": 2
    },
    "price": 37000,
    "size": "med",
    "equipped": true,
    "resizing": false,
    "identified": true,
    "hp": {
      "max": 10,
      "value": 10
    },
    "broken": false,
    "hardness": 0,
    "carried": true,
    "unidentified": {
      "price": 0,
      "name": ""
    },
    "cl": 6,
    "aura": {
      "custom": true,
      "school": "transmutation"
    },
    "changes": [],
    "changeFlags": {
      "loseDexToAC": false,
      "noEncumbrance": false,
      "mediumArmorFullSpeed": false,
      "heavyArmorFullSpeed": false
    },
    "contextNotes": [],
    "actions": [],
    "uses": {
      "per": null,
      "value": 0,
      "maxFormula": "",
      "autoDeductChargesCost": "1"
    },
    "attackNotes": [],
    "effectNotes": [],
    "links": {
      "children": [],
      "charges": []
    },
    "tag": "atavisticSplinter",
    "useCustomTag": false,
    "flags": {
      "boolean": {},
      "dictionary": {}
    },
    "scriptCalls": [],
    "masterwork": false,
    "enh": null,
    "proficient": true,
    "held": "normal",
    "subType": "wondrous",
    "baseTypes": [],
    "equipmentSubtype": "lightArmor",
    "armor": {
      "value": 0,
      "dex": null,
      "acp": 0,
      "enh": 0
    },
    "spellFailure": 0,
    "slot": "slotless",
    "showInQuickbar": false
  },
  "ownership": {
    "default": 0
  },
  "_stats": {
    "systemId": "pf1",
    "systemVersion": "9.1",
    "coreVersion": "10.291",
    "createdTime": 1665428408584,
    "modifiedTime": 1689798011662,
    "lastModifiedBy": "ppv91YxratjWnkJi"
  },
  "effects": [],
  "folder": null,
  "sort": 0,
  "flags": {},
  "_key": "!items!kT136IDJTemnRWTL"
}