{
  "_id": "KaNvjYxKclX48Tzg",
  "name": "Azure Briolette Ioun Stone",
  "type": "equipment",
  "img": "icons/svg/item-bag.svg",
  "system": {
    "description": {
      "value": "<h2></b>Description</b></h2></p><p>This pear-shaped ioun stone sparkles in a brilliant blue color. Whenever a creature fails a saving throw against a mind-affecting spell cast by this ioun stone's user, the user gains a number of temporary hit points equal to the targeted creature's Charisma bonus (minimum 0) until the start of the user's next turn. These temporary hit points do not stack. The user doesn't gain temporary hit points from a creature that voluntarily fails its saving throw against the spell.  Resonance: This stone allows the user to pick up on psychic resonance from corpses. So long as the user has carried the ioun stone continuously for at least 24 hours, the first three corpses touched by the user each day babble residual psychic impressions into the bearer's mind. This functions as the grave wordsOA spell, except that only the user can hear the corpse speak.  Cracked: This stone functions as normal, but the number of temporary hit points gained from the azure briolette ioun stone cannot exceed the user's Charisma bonus (minimum 0). Price: 14,000 gp.  Flawed: This stone grants only 1 temporary hit point, even if the target's Charisma bonus is higher than 1. Price: 8,000 gp.<br><p><b>Base Item:</b> </p><h3><b>Requirements</b></h3><p>Craft Wondrous Item, creator must be 12th level</p><h3><b>Source: </b></h3>AP 125",
      "unidentified": ""
    },
    "tags": [],
    "quantity": 1,
    "weight": {
      "value": 0
    },
    "price": 15000,
    "size": "med",
    "equipped": true,
    "resizing": false,
    "identified": true,
    "hp": {
      "max": 10,
      "value": 10
    },
    "broken": false,
    "hardness": 0,
    "carried": true,
    "unidentified": {
      "price": 0,
      "name": ""
    },
    "cl": 12,
    "aura": {
      "custom": true,
      "school": "enchantment and necromancy"
    },
    "changes": [],
    "changeFlags": {
      "loseDexToAC": false,
      "noEncumbrance": false,
      "mediumArmorFullSpeed": false,
      "heavyArmorFullSpeed": false
    },
    "contextNotes": [],
    "actions": [],
    "uses": {
      "per": null,
      "value": 0,
      "maxFormula": "",
      "autoDeductChargesCost": "1"
    },
    "attackNotes": [],
    "effectNotes": [],
    "links": {
      "children": [],
      "charges": []
    },
    "tag": "azureBrioletteIounStone",
    "useCustomTag": false,
    "flags": {
      "boolean": {},
      "dictionary": {}
    },
    "scriptCalls": [],
    "masterwork": false,
    "enh": null,
    "proficient": true,
    "held": "normal",
    "subType": "wondrous",
    "baseTypes": [],
    "equipmentSubtype": "lightArmor",
    "armor": {
      "value": 0,
      "dex": null,
      "acp": 0,
      "enh": 0
    },
    "spellFailure": 0,
    "slot": "slotless",
    "showInQuickbar": false
  },
  "ownership": {
    "default": 0
  },
  "_stats": {
    "systemId": "pf1",
    "systemVersion": "9.1",
    "coreVersion": "10.291",
    "createdTime": 1665428405592,
    "modifiedTime": 1689797993995,
    "lastModifiedBy": "ppv91YxratjWnkJi"
  },
  "effects": [],
  "folder": null,
  "sort": 0,
  "flags": {},
  "_key": "!items!KaNvjYxKclX48Tzg"
}