{
  "_id": "o3L189myWs5DpWHE",
  "name": "Banner of the Ancient Kings",
  "type": "equipment",
  "img": "icons/svg/item-bag.svg",
  "system": {
    "description": {
      "value": "<h2></b>Description</b></h2></p><p>This tattered white canvas banner looks like an old piece of sailcloth, or perhaps a winding shroud-a 4-foot-by-6-foot rectangle with loops that can fit over a spear haft or pole running up one side. If mounted on a longspear or pole at least 8 feet in length, the banner shifts in appearance to match the heraldry or coat of arms of the person who attached it. If that person has no device, the flag instead displays a device that echoes the owner's personality (such as a favorite animal, favored weapon, or holy symbol of the wielder's deity).  When carried into battle, a banner of the ancient kings confers several benefits. As long as the longspear or pole to which the banner is attached is firmly wielded in two hands, its carrier gains a +4 circumstance bonus on Initiative checks. In addition, when so wielded, it grants the wielder and all allies within 30 feet a +2 resistance bonus on all saving throws against mind-affecting effects. If the carrier of the banner fails a saving throw against a mind-affecting effect, he may attempt a new saving throw against that effect every round he continues to wield the banner of the ancient kings- once he releases his firm grip on the banner's haft, though, he no longer gets this benefit, even if he wields the banner properly at a later point while still under the effects of the mind-affecting effect.  If the banner's carrier possesses the Flagbearer feat (Pathfinder Campaign Setting: The Inner Sea World Guide 286), the banner of the ancient kings doubles the morale bonuses granted by that feat. A bard who carries a longspear or pole to which a banner of the ancient kings has been attached is treated as four levels higher than his actual bard level for the purposes of determining the bonuses granted by his inspire courage bardic performance ability.<br><p><b>Base Item:</b> </p><h3><b>Requirements</b></h3><p>Craft Wondrous Item, heroism, resistance</p><h3><b>Source: </b></h3>Lands Of The Linnorm Kings",
      "unidentified": ""
    },
    "tags": [],
    "quantity": 1,
    "weight": {
      "value": 5
    },
    "price": 18000,
    "size": "med",
    "equipped": true,
    "resizing": false,
    "identified": true,
    "hp": {
      "max": 10,
      "value": 10
    },
    "broken": false,
    "hardness": 0,
    "carried": true,
    "unidentified": {
      "price": 0,
      "name": ""
    },
    "cl": 8,
    "aura": {
      "custom": true,
      "school": "abjuration"
    },
    "changes": [],
    "changeFlags": {
      "loseDexToAC": false,
      "noEncumbrance": false,
      "mediumArmorFullSpeed": false,
      "heavyArmorFullSpeed": false
    },
    "contextNotes": [],
    "actions": [],
    "uses": {
      "per": null,
      "value": 0,
      "maxFormula": "",
      "autoDeductChargesCost": "1"
    },
    "attackNotes": [],
    "effectNotes": [],
    "links": {
      "children": [],
      "charges": []
    },
    "tag": "bannerOfTheAncientKings",
    "useCustomTag": false,
    "flags": {
      "boolean": {},
      "dictionary": {}
    },
    "scriptCalls": [],
    "masterwork": false,
    "enh": null,
    "proficient": true,
    "held": "normal",
    "subType": "wondrous",
    "baseTypes": [],
    "equipmentSubtype": "lightArmor",
    "armor": {
      "value": 0,
      "dex": null,
      "acp": 0,
      "enh": 0
    },
    "spellFailure": 0,
    "slot": "slotless",
    "showInQuickbar": false
  },
  "ownership": {
    "default": 0
  },
  "_stats": {
    "systemId": "pf1",
    "systemVersion": "9.1",
    "coreVersion": "10.291",
    "createdTime": 1665428409158,
    "modifiedTime": 1689798014446,
    "lastModifiedBy": "ppv91YxratjWnkJi"
  },
  "effects": [],
  "folder": null,
  "sort": 0,
  "flags": {},
  "_key": "!items!o3L189myWs5DpWHE"
}