{
  "_id": "tg7b9MTXGOMCcquV",
  "name": "Blessed Keepsake",
  "type": "equipment",
  "img": "icons/svg/item-bag.svg",
  "system": {
    "description": {
      "value": "<h2></b>Description</b></h2></p><p>The fine chain bears a glass-fronted locket. If a piece of an outsider with an alignment subtype-such as a tooth from a demon or an angel's wing feather-is held in the locket for 24 hours, the blessed keepsake's magic activates. If the creature has more than one alignment subtype, one must be chosen when the piece is added to the locket.  The wearer can detect creatures of the chosen alignment at will, as the corresponding detect chaos/evil/good/law spell.  Three times per day, the wearer can use the blessed keepsake to gain protection from creatures of that alignment, as the corresponding protection from chaos/evil/good/law spell.  Lastly, if the wearer has the channel energy ability, she can channel energy to affect outsiders with that subtype as if she possessed the Alignment Channel feat.  If the piece of outsider is removed, the blessed keepsake is inactive until a new piece is attuned.<br><p><b>Base Item:</b> </p><h3><b>Requirements</b></h3><p>Craft Wondrous Item, Alignment Channel, detect chaos, evil,  good, and law, protection from chaos, evil, good, and law</p><h3><b>Source: </b></h3>Inner Sea Gods",
      "unidentified": ""
    },
    "tags": [],
    "quantity": 1,
    "weight": {
      "value": 0
    },
    "price": 8000,
    "size": "med",
    "equipped": true,
    "resizing": false,
    "identified": true,
    "hp": {
      "max": 10,
      "value": 10
    },
    "broken": false,
    "hardness": 0,
    "carried": true,
    "unidentified": {
      "price": 0,
      "name": ""
    },
    "cl": 1,
    "aura": {
      "custom": true,
      "school": "abjuration and divination"
    },
    "changes": [],
    "changeFlags": {
      "loseDexToAC": false,
      "noEncumbrance": false,
      "mediumArmorFullSpeed": false,
      "heavyArmorFullSpeed": false
    },
    "contextNotes": [],
    "actions": [],
    "uses": {
      "per": null,
      "value": 0,
      "maxFormula": "",
      "autoDeductChargesCost": "1"
    },
    "attackNotes": [],
    "effectNotes": [],
    "links": {
      "children": [],
      "charges": []
    },
    "tag": "blessedKeepsake",
    "useCustomTag": false,
    "flags": {
      "boolean": {},
      "dictionary": {}
    },
    "scriptCalls": [],
    "masterwork": false,
    "enh": null,
    "proficient": true,
    "held": "normal",
    "subType": "wondrous",
    "baseTypes": [],
    "equipmentSubtype": "lightArmor",
    "armor": {
      "value": 0,
      "dex": null,
      "acp": 0,
      "enh": 0
    },
    "spellFailure": 0,
    "slot": "neck",
    "showInQuickbar": false
  },
  "ownership": {
    "default": 0
  },
  "_stats": {
    "systemId": "pf1",
    "systemVersion": "9.1",
    "coreVersion": "10.291",
    "createdTime": 1665428409842,
    "modifiedTime": 1689798018530,
    "lastModifiedBy": "ppv91YxratjWnkJi"
  },
  "effects": [],
  "folder": null,
  "sort": 0,
  "flags": {},
  "_key": "!items!tg7b9MTXGOMCcquV"
}