{
  "_id": "HlmVZm9KUDroUekm",
  "name": "Boots Of The Elven Spirit",
  "type": "equipment",
  "img": "icons/svg/item-bag.svg",
  "system": {
    "description": {
      "value": "<h2></b>Description</b></h2></p><p>These elegant, lightweight boots are durable yet soft in texture, being partially made of living leaves and other natural materials. They grant the wearer a +5 competence bonus on Acrobatics checks and allow her to treat the first square of difficult terrain she enters each round as if it weren't difficult terrain.  12th Level: The boots allow the wearer to ignore the adverse movement effects of difficult terrain entirely.  14th Level: The boots grant the wearer a +10-foot enhancement bonus to her base movement speed, and she leaves no tracks.  17th Level: The boots allow the wearer to walk so lightly that she doesn't trigger pressure plate traps and can walk across any surface-including water, but not air-as long as she ends her movement each round on a surface that can support her weight.  20th Level: The boots allow the wearer to gain the effects of haste for 10 rounds per day, as boots of speed. If the wearer also wears the cloak of the elven spirit (see page 171), the boots grant her the ability to use tree stride as the spell, entering up to 20 trees each day.<br><p><b>Base Item:</b> </p><h3><b>Requirements</b></h3><p>Craft Wondrous Item, expeditious retreat, feather step, haste, tree stride, creator must be an elf</p><h3><b>Source: </b></h3>Pathfinder Unchained",
      "unidentified": ""
    },
    "tags": [],
    "quantity": 1,
    "weight": {
      "value": 1
    },
    "price": 3100,
    "size": "med",
    "equipped": true,
    "resizing": false,
    "identified": true,
    "hp": {
      "max": 10,
      "value": 10
    },
    "broken": false,
    "hardness": 0,
    "carried": true,
    "unidentified": {
      "price": 0,
      "name": ""
    },
    "cl": 10,
    "aura": {
      "custom": true,
      "school": "transmutation"
    },
    "changes": [],
    "changeFlags": {
      "loseDexToAC": false,
      "noEncumbrance": false,
      "mediumArmorFullSpeed": false,
      "heavyArmorFullSpeed": false
    },
    "contextNotes": [],
    "actions": [],
    "uses": {
      "per": null,
      "value": 0,
      "maxFormula": "",
      "autoDeductChargesCost": "1"
    },
    "attackNotes": [],
    "effectNotes": [],
    "links": {
      "children": [],
      "charges": []
    },
    "tag": "bootsOfTheElvenSpirit",
    "useCustomTag": false,
    "flags": {
      "boolean": {},
      "dictionary": {}
    },
    "scriptCalls": [],
    "masterwork": false,
    "enh": null,
    "proficient": true,
    "held": "normal",
    "subType": "wondrous",
    "baseTypes": [],
    "equipmentSubtype": "lightArmor",
    "armor": {
      "value": 0,
      "dex": null,
      "acp": 0,
      "enh": 0
    },
    "spellFailure": 0,
    "slot": "feet",
    "showInQuickbar": false
  },
  "ownership": {
    "default": 0
  },
  "_stats": {
    "systemId": "pf1",
    "systemVersion": "9.1",
    "coreVersion": "10.291",
    "createdTime": 1665428405362,
    "modifiedTime": 1689797992480,
    "lastModifiedBy": "ppv91YxratjWnkJi"
  },
  "effects": [],
  "folder": null,
  "sort": 0,
  "flags": {},
  "_key": "!items!HlmVZm9KUDroUekm"
}