{
  "_id": "CLMLo3OToNJyS3A8",
  "name": "Bracers Of Armor +5",
  "type": "equipment",
  "img": "icons/svg/mystery-man.svg",
  "system": {
    "description": {
      "value": "<h2></b>Description</b></h2></p><p>These items appear to be wrist or arm guards, sometimes etched with symbols of protection or depictions of vigilant-looking animals. Bracers of armor surround the wearer with an invisible but tangible field of force, granting him an armor bonus of +1 to +8, just as though he were wearing armor. Both bracers of armor must be worn for the magic to be effective.   Alternatively, bracers of armor can be enchanted with armor special abilities. See Table 3-3: Armor Special Abilities for a list of abilities. Special abilities usually count as additional bonuses for determining the market value of an item, but do not improve AC. Bracers of armor cannot have a modified bonus (armor bonus plus armor special ability bonus equivalents) higher than +8. Bracers of armor must have at least a +1 armor bonus to grant an armor special ability. Bracers of armor cannot have any armor special abilities that add a flat gp amount to their cost. Bracers of armor and ordinary armor do not stack. If the wearer receives a larger armor bonus from another source, the bracers of armor cease functioning and do not grant their armor bonus or their armor special abilities. If the bracers of armor grant a larger armor bonus, the other source of armor ceases functioning.<br><p><b>Base Item:</b> </p><h3><b>Requirements</b></h3><p>Craft Wondrous Item, mage armor, creator's caster level must be at least two times that of the bonus placed on the bracers, plus any requirements of the armor special abilities</p><h3><b>Source: </b></h3>Ultimate Equipment",
      "unidentified": ""
    },
    "tags": [],
    "quantity": 1,
    "weight": {
      "value": 1
    },
    "price": 25000,
    "size": "med",
    "equipped": true,
    "resizing": false,
    "identified": true,
    "hp": {
      "max": 10,
      "value": 10
    },
    "broken": false,
    "hardness": 0,
    "carried": true,
    "unidentified": {
      "price": 0,
      "name": ""
    },
    "cl": 7,
    "aura": {
      "custom": true,
      "school": "conjuration"
    },
    "changes": [
      {
        "_id": "nqmndro3",
        "formula": "5",
        "operator": "add",
        "subTarget": "aac",
        "modifier": "base",
        "priority": 0,
        "value": 5,
        "target": "ac"
      }
    ],
    "changeFlags": {
      "loseDexToAC": false,
      "noEncumbrance": false,
      "mediumArmorFullSpeed": false,
      "heavyArmorFullSpeed": false
    },
    "contextNotes": [],
    "actions": [],
    "uses": {
      "per": null,
      "value": 0,
      "maxFormula": "",
      "autoDeductChargesCost": "1"
    },
    "attackNotes": [],
    "effectNotes": [],
    "links": {
      "children": [],
      "charges": []
    },
    "tag": "bracersOfArmor5",
    "useCustomTag": false,
    "flags": {
      "boolean": {},
      "dictionary": {}
    },
    "scriptCalls": [],
    "masterwork": false,
    "enh": null,
    "proficient": true,
    "held": "normal",
    "subType": "wondrous",
    "baseTypes": [],
    "equipmentSubtype": "lightArmor",
    "armor": {
      "value": 0,
      "dex": null,
      "acp": 0,
      "enh": 0
    },
    "spellFailure": 0,
    "slot": "wrists",
    "showInQuickbar": false,
    "weightConverted": 1,
    "weightUnits": "lbs"
  },
  "ownership": {
    "default": 0
  },
  "_stats": {
    "systemId": "pf1",
    "systemVersion": "9.1",
    "coreVersion": "10.291",
    "createdTime": 1665428404655,
    "modifiedTime": 1689797989657,
    "lastModifiedBy": "ppv91YxratjWnkJi"
  },
  "effects": [],
  "folder": null,
  "sort": 0,
  "flags": {},
  "_key": "!items!CLMLo3OToNJyS3A8"
}