{
  "_id": "7eb3aOwaqNOVFQ6T",
  "name": "Bridle Of Tricks (5 Tricks)",
  "type": "equipment",
  "img": "icons/svg/item-bag.svg",
  "system": {
    "description": {
      "value": "<h2></b>Description</b></h2></p><p>Appearing to be a finely crafted bridle of polished steel and blue-dyed leather, a bridle of tricks can be placed on any animal or magical beast with an appropriate shape to wear a bridle (creatures with unusual anatomies may be affected with GM discretion). While wearing the bridle, a creature is treated as knowing three, four, or five additional tricks, as if it had been taught the tricks with the Handle Animal skill. The tricks granted by a bridle of tricks are set when it is created, and cannot be changed. The most common tricks found in a bridle of tricks are attack, defend, fetch, guard, and heel. See the Handle Animal description on page 97 of the Core Rulebook for more information on tricks, and Pathfinder Player Companion: Animal Archive for new additional tricks.<br><p><b>Base Item:</b> </p><h3><b>Requirements</b></h3><p>Craft Wondrous Item, speak with animals, creator must have 5 ranks in the Handle Animal skill</p><h3><b>Source: </b></h3>Knights Of The Inner Sea",
      "unidentified": ""
    },
    "tags": [],
    "quantity": 1,
    "weight": {
      "value": 2
    },
    "price": 2500,
    "size": "med",
    "equipped": true,
    "resizing": false,
    "identified": true,
    "hp": {
      "max": 10,
      "value": 10
    },
    "broken": false,
    "hardness": 0,
    "carried": true,
    "unidentified": {
      "price": 0,
      "name": ""
    },
    "cl": 5,
    "aura": {
      "custom": true,
      "school": "divination"
    },
    "changes": [],
    "changeFlags": {
      "loseDexToAC": false,
      "noEncumbrance": false,
      "mediumArmorFullSpeed": false,
      "heavyArmorFullSpeed": false
    },
    "contextNotes": [],
    "actions": [],
    "uses": {
      "per": null,
      "value": 0,
      "maxFormula": "",
      "autoDeductChargesCost": "1"
    },
    "attackNotes": [],
    "effectNotes": [],
    "links": {
      "children": [],
      "charges": []
    },
    "tag": "bridleOfTricks5Tricks",
    "useCustomTag": false,
    "flags": {
      "boolean": {},
      "dictionary": {}
    },
    "scriptCalls": [],
    "masterwork": false,
    "enh": null,
    "proficient": true,
    "held": "normal",
    "subType": "wondrous",
    "baseTypes": [],
    "equipmentSubtype": "lightArmor",
    "armor": {
      "value": 0,
      "dex": null,
      "acp": 0,
      "enh": 0
    },
    "spellFailure": 0,
    "slot": "head",
    "showInQuickbar": false
  },
  "ownership": {
    "default": 0
  },
  "_stats": {
    "systemId": "pf1",
    "systemVersion": "9.1",
    "coreVersion": "10.291",
    "createdTime": 1665428404150,
    "modifiedTime": 1689797986547,
    "lastModifiedBy": "ppv91YxratjWnkJi"
  },
  "effects": [],
  "folder": null,
  "sort": 0,
  "flags": {},
  "_key": "!items!7eb3aOwaqNOVFQ6T"
}