{
  "_id": "SioYrUDz4AJH6QCH",
  "name": "Canopic Jar Of Unlife",
  "type": "equipment",
  "img": "icons/svg/item-bag.svg",
  "system": {
    "description": {
      "value": "<h2></b>Description</b></h2></p><p>This stone jar, capped with the head of an animal or human, resembles one of the traditional carved limestone or pottery canopic jars commonly used to hold the intestines, liver, lungs, and stomach of the deceased in Osirian mummification rites. Unlike normal canopic jars, a canopic jar of unlife is used to preserve the existence of a powerful undead creature. When a corporeal undead creature is first created, one of its organs must be placed inside the canopic jar of unlife as part of the ritual that transforms the creature into an undead being. Thereafter, the undead creature's existence is linked to the canopic jar of unlife.  If the undead creature is destroyed, the canopic jar of unlife disintegrates 2 hours later, and the viscera within the jar start to regenerate into a new undead body for the subject at a rate of 10 hit points per hour. The subject is helpless until restored to full hit points. Once used to regenerate an undead creature, a canopic jar of unlife is destroyed. If the jar is opened manually after viscera are secured in it, the contents disintegrate with an ear-piercing scream and the jar loses all magical power. Smashing the jar (hardness 8, hp 20) also destroys the vessel and the viscera within.  A canopic jar of unlife only functions if linked to an undead creature during its creation; existing undead creatures or creatures with phylacteries (such as liches) or with the rejuvenation ability (such as mummy lords) cannot make use of a canopic jar of unlife.<br><p><b>Base Item:</b> </p><h3><b>Requirements</b></h3><p>Craft Wondrous Item, gentle repose, regenerate</p><h3><b>Source: </b></h3>AP 84",
      "unidentified": ""
    },
    "tags": [],
    "quantity": 1,
    "weight": {
      "value": 7
    },
    "price": 60000,
    "size": "med",
    "equipped": true,
    "resizing": false,
    "identified": true,
    "hp": {
      "max": 10,
      "value": 10
    },
    "broken": false,
    "hardness": 0,
    "carried": true,
    "unidentified": {
      "price": 0,
      "name": ""
    },
    "cl": 13,
    "aura": {
      "custom": true,
      "school": "conjuration and necromancy"
    },
    "changes": [],
    "changeFlags": {
      "loseDexToAC": false,
      "noEncumbrance": false,
      "mediumArmorFullSpeed": false,
      "heavyArmorFullSpeed": false
    },
    "contextNotes": [],
    "actions": [],
    "uses": {
      "per": null,
      "value": 0,
      "maxFormula": "",
      "autoDeductChargesCost": "1"
    },
    "attackNotes": [],
    "effectNotes": [],
    "links": {
      "children": [],
      "charges": []
    },
    "tag": "canopicJarOfUnlife",
    "useCustomTag": false,
    "flags": {
      "boolean": {},
      "dictionary": {}
    },
    "scriptCalls": [],
    "masterwork": false,
    "enh": null,
    "proficient": true,
    "held": "normal",
    "subType": "wondrous",
    "baseTypes": [],
    "equipmentSubtype": "lightArmor",
    "armor": {
      "value": 0,
      "dex": null,
      "acp": 0,
      "enh": 0
    },
    "spellFailure": 0,
    "slot": "slotless",
    "showInQuickbar": false
  },
  "ownership": {
    "default": 0
  },
  "_stats": {
    "systemId": "pf1",
    "systemVersion": "9.1",
    "coreVersion": "10.291",
    "createdTime": 1665428406718,
    "modifiedTime": 1689798000092,
    "lastModifiedBy": "ppv91YxratjWnkJi"
  },
  "effects": [],
  "folder": null,
  "sort": 0,
  "flags": {},
  "_key": "!items!SioYrUDz4AJH6QCH"
}