{
  "_id": "x4wVx3E6xAci7Mqa",
  "name": "Cayden's Cup",
  "type": "equipment",
  "img": "icons/svg/item-bag.svg",
  "system": {
    "description": {
      "value": "<h2></b>Description</b></h2></p><p>On command, this battered pewter tankard fills with ale perfectly matched to the bearer's taste and desire. Ale poured out the tankard quickly loses its flavor and virtue, becoming common swill within minutes. The tankard prevents most of the ill effects of excessive drinking, such as hangovers and blackouts, as long as it remains in its owner's possession. It also provides a +4 bonus on saving throws against poison.   Once per hour as a move action, by drinking the contents of the tankard and voicing a toast the imbiber gains a +2 morale bonus to Strength and Constitution, but takes a -2 penalty on Dexterity- and Intelligence-based ability and skill checks. These effects last for 10 minutes. If the tankard is empty, it must be filled prior to drinking. If the imbiber expends one use of mythic power while drinking from the cup, the morale bonus increase to +4, the penalties to -4, and the duration of the tankard's effects to 1 hour.<br><p><b>Base Item:</b> </p><h3><b>Requirements</b></h3><p>Craft wondrous Item, Mythic Crafter, create food and water, heroism, neutralize poison</p><h3><b>Source: </b></h3>Mythic Adventures",
      "unidentified": ""
    },
    "tags": [],
    "quantity": 1,
    "weight": {
      "value": 1
    },
    "price": 16500,
    "size": "med",
    "equipped": true,
    "resizing": false,
    "identified": true,
    "hp": {
      "max": 10,
      "value": 10
    },
    "broken": false,
    "hardness": 0,
    "carried": true,
    "unidentified": {
      "price": 0,
      "name": ""
    },
    "cl": 5,
    "aura": {
      "custom": true,
      "school": "conjuration"
    },
    "changes": [],
    "changeFlags": {
      "loseDexToAC": false,
      "noEncumbrance": false,
      "mediumArmorFullSpeed": false,
      "heavyArmorFullSpeed": false
    },
    "contextNotes": [],
    "actions": [],
    "uses": {
      "per": null,
      "value": 0,
      "maxFormula": "",
      "autoDeductChargesCost": "1"
    },
    "attackNotes": [],
    "effectNotes": [],
    "links": {
      "children": [],
      "charges": []
    },
    "tag": "caydensCup",
    "useCustomTag": false,
    "flags": {
      "boolean": {},
      "dictionary": {}
    },
    "scriptCalls": [],
    "masterwork": false,
    "enh": null,
    "proficient": true,
    "held": "normal",
    "subType": "wondrous",
    "baseTypes": [],
    "equipmentSubtype": "lightArmor",
    "armor": {
      "value": 0,
      "dex": null,
      "acp": 0,
      "enh": 0
    },
    "spellFailure": 0,
    "slot": "slotless",
    "showInQuickbar": false
  },
  "ownership": {
    "default": 0
  },
  "_stats": {
    "systemId": "pf1",
    "systemVersion": "9.1",
    "coreVersion": "10.291",
    "createdTime": 1665428410363,
    "modifiedTime": 1689798020831,
    "lastModifiedBy": "ppv91YxratjWnkJi"
  },
  "effects": [],
  "folder": null,
  "sort": 0,
  "flags": {},
  "_key": "!items!x4wVx3E6xAci7Mqa"
}