{
  "_id": "peyy5NZGfiFIcuqd",
  "name": "Champion Of The Gilded Host",
  "type": "equipment",
  "img": "icons/svg/item-bag.svg",
  "system": {
    "description": {
      "value": "<h2></b>Description</b></h2></p><p>Individually, the component pieces of the Champion of the Gilded Host have the same strong magic aura as the intact construct, but possess no noteworthy abilities of their own. Any piece with a joint may flex occasionally, but without any purpose or significant force. When the pieces are brought within 100 feet of one another, they reassemble themselves to create a golden colossus. Long-forgotten command words keyed to each piece are able to shrink it to a fraction of its full size.<br><p><b>Base Item:</b> </p><h3><b>Requirements</b></h3><p>Craft Construct, Mythic CrafterMA, antimagic field, good hope, remove fear, vengeful outrageUM, wish, creator must be at least mythic rank or tier 7th</p><h3><b>Source: </b></h3>Lost Treasures",
      "unidentified": ""
    },
    "tags": [],
    "quantity": 1,
    "weight": {
      "value": 600
    },
    "price": 500000,
    "size": "med",
    "equipped": true,
    "resizing": false,
    "identified": true,
    "hp": {
      "max": 10,
      "value": 10
    },
    "broken": false,
    "hardness": 0,
    "carried": true,
    "unidentified": {
      "price": 0,
      "name": ""
    },
    "cl": 14,
    "aura": {
      "custom": true,
      "school": "abjuration and enchantment"
    },
    "changes": [],
    "changeFlags": {
      "loseDexToAC": false,
      "noEncumbrance": false,
      "mediumArmorFullSpeed": false,
      "heavyArmorFullSpeed": false
    },
    "contextNotes": [],
    "actions": [],
    "uses": {
      "per": null,
      "value": 0,
      "maxFormula": "",
      "autoDeductChargesCost": "1"
    },
    "attackNotes": [],
    "effectNotes": [],
    "links": {
      "children": [],
      "charges": []
    },
    "tag": "championOfTheGildedHost",
    "useCustomTag": false,
    "flags": {
      "boolean": {},
      "dictionary": {}
    },
    "scriptCalls": [],
    "masterwork": false,
    "enh": null,
    "proficient": true,
    "held": "normal",
    "subType": "wondrous",
    "baseTypes": [],
    "equipmentSubtype": "lightArmor",
    "armor": {
      "value": 0,
      "dex": null,
      "acp": 0,
      "enh": 0
    },
    "spellFailure": 0,
    "slot": "slotless",
    "showInQuickbar": false
  },
  "ownership": {
    "default": 0
  },
  "_stats": {
    "systemId": "pf1",
    "systemVersion": "9.1",
    "coreVersion": "10.291",
    "createdTime": 1665428409249,
    "modifiedTime": 1689798015644,
    "lastModifiedBy": "ppv91YxratjWnkJi"
  },
  "effects": [],
  "folder": null,
  "sort": 0,
  "flags": {},
  "_key": "!items!peyy5NZGfiFIcuqd"
}