{
  "_id": "qQSg3XkJLpYXKYhl",
  "name": "Circlet Of Spell-Eating, Type II",
  "type": "equipment",
  "img": "icons/svg/item-bag.svg",
  "system": {
    "description": {
      "value": "<h2></b>Description</b></h2></p><p>Iridescent whorls and runes in a flowing eldritch script adorn this golden circlet. The circlet functions as a ring of spell knowledgeUE, allowing a spontaneous caster to learn and store an additional arcane spell. However, once the circlet has been worn for 1d6 days, the wearer must succeed at a DC 16 Will save each day when meditating to renew her spell slots. Failure indicates that she loses knowledge of a random spell, whose level cannot exceed the maximum level of the circlet of spell-eating. Knowledge of this spell is lost until the circlet is removed, returning at a rate of one spell per day, beginning with the lowest-level spell forgotten.  So long as the circlet of spell-eating has caused its wearer to forget at least one spell, its creator can cast the first spell lost to the item once per day as a spell-like ability.<br><p><b>Base Item:</b> </p><h3><b>Requirements</b></h3><p>Craft Wondrous Item, bestow curse, imbue with spell ability</p><h3><b>Source: </b></h3>Black Markets",
      "unidentified": ""
    },
    "tags": [],
    "quantity": 1,
    "weight": {
      "value": 0
    },
    "price": 6000,
    "size": "med",
    "equipped": true,
    "resizing": false,
    "identified": true,
    "hp": {
      "max": 10,
      "value": 10
    },
    "broken": false,
    "hardness": 0,
    "carried": true,
    "unidentified": {
      "price": 0,
      "name": ""
    },
    "cl": 7,
    "aura": {
      "custom": true,
      "school": "none"
    },
    "changes": [],
    "changeFlags": {
      "loseDexToAC": false,
      "noEncumbrance": false,
      "mediumArmorFullSpeed": false,
      "heavyArmorFullSpeed": false
    },
    "contextNotes": [],
    "actions": [],
    "uses": {
      "per": null,
      "value": 0,
      "maxFormula": "",
      "autoDeductChargesCost": "1"
    },
    "attackNotes": [],
    "effectNotes": [],
    "links": {
      "children": [],
      "charges": []
    },
    "tag": "circletOfSpelleatingTypeIi",
    "useCustomTag": false,
    "flags": {
      "boolean": {},
      "dictionary": {}
    },
    "scriptCalls": [],
    "masterwork": false,
    "enh": null,
    "proficient": true,
    "held": "normal",
    "subType": "wondrous",
    "baseTypes": [],
    "equipmentSubtype": "lightArmor",
    "armor": {
      "value": 0,
      "dex": null,
      "acp": 0,
      "enh": 0
    },
    "spellFailure": 0,
    "slot": "head",
    "showInQuickbar": false
  },
  "ownership": {
    "default": 0
  },
  "_stats": {
    "systemId": "pf1",
    "systemVersion": "9.1",
    "coreVersion": "10.291",
    "createdTime": 1665428409615,
    "modifiedTime": 1689798016725,
    "lastModifiedBy": "ppv91YxratjWnkJi"
  },
  "effects": [],
  "folder": null,
  "sort": 0,
  "flags": {},
  "_key": "!items!qQSg3XkJLpYXKYhl"
}