{
  "_id": "pGoF6zpAjw6qhyds",
  "name": "Cloak Of Elvenkind",
  "type": "equipment",
  "img": "icons/svg/mystery-man.svg",
  "system": {
    "description": {
      "value": "<h2></b>Description</b></h2></p><p>These cloaks of famed elven design are enhanced to reflect the wearer's surroundings, aiding him in blending in with any terrain. When this plain gray cloak is worn with the hood drawn up around the head, the wearer gains a +5 competence bonus on Stealth checks.<br><p><b>Base Item:</b> </p><h3><b>Requirements</b></h3><p>Craft Wondrous Item, invisibility, creator must be an elf</p><h3><b>Source: </b></h3>Ultimate Equipment",
      "unidentified": ""
    },
    "tags": [],
    "quantity": 1,
    "weight": {
      "value": 1
    },
    "price": 2500,
    "size": "med",
    "equipped": true,
    "resizing": false,
    "identified": true,
    "hp": {
      "max": 10,
      "value": 10
    },
    "broken": false,
    "hardness": 0,
    "carried": true,
    "unidentified": {
      "price": 0,
      "name": ""
    },
    "cl": 3,
    "aura": {
      "custom": true,
      "school": "illusion"
    },
    "changes": [
      {
        "_id": "py84dkgd",
        "formula": "5",
        "operator": "add",
        "subTarget": "skill.ste",
        "modifier": "competence",
        "priority": 0,
        "value": 5
      }
    ],
    "changeFlags": {
      "loseDexToAC": false,
      "noEncumbrance": false,
      "mediumArmorFullSpeed": false,
      "heavyArmorFullSpeed": false
    },
    "contextNotes": [],
    "actions": [],
    "uses": {
      "per": null,
      "value": 0,
      "maxFormula": "",
      "autoDeductChargesCost": "1"
    },
    "attackNotes": [],
    "effectNotes": [],
    "links": {
      "children": [],
      "charges": []
    },
    "tag": "cloakOfElvenkind",
    "useCustomTag": false,
    "flags": {
      "boolean": {},
      "dictionary": {}
    },
    "scriptCalls": [],
    "masterwork": false,
    "enh": null,
    "proficient": true,
    "held": "normal",
    "subType": "wondrous",
    "baseTypes": [],
    "equipmentSubtype": "lightArmor",
    "armor": {
      "value": 0,
      "dex": null,
      "acp": 0,
      "enh": 0
    },
    "spellFailure": 0,
    "slot": "shoulders",
    "showInQuickbar": false,
    "weightConverted": 1,
    "weightUnits": "lbs"
  },
  "ownership": {
    "default": 0
  },
  "_stats": {
    "systemId": "pf1",
    "systemVersion": "9.1",
    "coreVersion": "10.291",
    "createdTime": 1665428409231,
    "modifiedTime": 1689798015465,
    "lastModifiedBy": "ppv91YxratjWnkJi"
  },
  "effects": [],
  "folder": null,
  "sort": 0,
  "flags": {},
  "_key": "!items!pGoF6zpAjw6qhyds"
}