{
  "_id": "2tbwSRJoREPJ8VbY",
  "name": "Cloak Of The Hedge Wizard",
  "type": "equipment",
  "img": "icons/svg/item-bag.svg",
  "system": {
    "description": {
      "value": "<h2></b>Description</b></h2></p><p>This cloak comes in eight varieties-one for each school of magic. The cloak grants its wearer the ability to use a certain number of spells on command (caster level 1st) based on its school of magic. It also grants the wearer the ability to use prestidigitation on command and at will.   Abjuration: at will-resistance; 1/day-endure elements, shield   Conjuration: at will-acid splash; 1/day-mage armor, unseen servant   Divination: at will-detect magic; 1/day-detect secret doors, true strike   Enchantment: at will-daze; 1/day-charm person, sleep   Evocation: at will-light; 1/day-floating disk, magic missile   Illusion: at will-ghost sound; 1/day-color spray, silent image   Necromancy: at will-touch of fatigue; 1/day-cause fear, ray of enfeeblement   Transmutation: at will-mage hand; 1/day-enlarge person, expeditious retreat<br><p><b>Base Item:</b> </p><h3><b>Requirements</b></h3><p>Craft Wondrous Item, prestidigitation and any spell the cloak allows the caster to use; the creator must have Spell Focus in the cloak's school of magic</p><h3><b>Source: </b></h3>Ultimate Equipment",
      "unidentified": ""
    },
    "tags": [],
    "quantity": 1,
    "weight": {
      "value": 1
    },
    "price": 2500,
    "size": "med",
    "equipped": true,
    "resizing": false,
    "identified": true,
    "hp": {
      "max": 10,
      "value": 10
    },
    "broken": false,
    "hardness": 0,
    "carried": true,
    "unidentified": {
      "price": 0,
      "name": ""
    },
    "cl": 1,
    "aura": {
      "custom": true,
      "school": "school based on cloak type"
    },
    "changes": [],
    "changeFlags": {
      "loseDexToAC": false,
      "noEncumbrance": false,
      "mediumArmorFullSpeed": false,
      "heavyArmorFullSpeed": false
    },
    "contextNotes": [],
    "actions": [],
    "uses": {
      "per": null,
      "value": 0,
      "maxFormula": "",
      "autoDeductChargesCost": "1"
    },
    "attackNotes": [],
    "effectNotes": [],
    "links": {
      "children": [],
      "charges": []
    },
    "tag": "cloakOfTheHedgeWizard",
    "useCustomTag": false,
    "flags": {
      "boolean": {},
      "dictionary": {}
    },
    "scriptCalls": [],
    "masterwork": false,
    "enh": null,
    "proficient": true,
    "held": "normal",
    "subType": "wondrous",
    "baseTypes": [],
    "equipmentSubtype": "lightArmor",
    "armor": {
      "value": 0,
      "dex": null,
      "acp": 0,
      "enh": 0
    },
    "spellFailure": 0,
    "slot": "shoulders",
    "showInQuickbar": false
  },
  "ownership": {
    "default": 0
  },
  "_stats": {
    "systemId": "pf1",
    "systemVersion": "9.1",
    "coreVersion": "10.291",
    "createdTime": 1665428403543,
    "modifiedTime": 1689797982259,
    "lastModifiedBy": "ppv91YxratjWnkJi"
  },
  "effects": [],
  "folder": null,
  "sort": 0,
  "flags": {},
  "_key": "!items!2tbwSRJoREPJ8VbY"
}