{
  "_id": "uCxkM9bsFdBkSycA",
  "name": "Cloak Of Moral Refraction",
  "type": "equipment",
  "img": "icons/svg/item-bag.svg",
  "system": {
    "description": {
      "value": "<h2></b>Description</b></h2></p><p>The cloak of moral refraction has long been a tool of the riftwardens-mystics who charge themselves with maintaining cosmic balance and closing extraplanar portals throughout the multiverse. The shimmering fabric of this light silver-and-red cloak never dirties or wrinkles, and when laid out flat, the cloak reflects light nearly as well as a mirror.  A fully charged cloak of moral refraction has 3 charges-charges used are automatically renewed at a rate of 1 charge per day at dawn. The wearer may use the cloak to expend these charges and create the following effects.  • 1 charge: Dispel an ongoing spell with an alignment descriptor, as the third function of dispel chaos/evil/good/law.  • 2 charges: Ready an action to counter a spell or spell-like ability with an alignment descriptor. The effect is automatically countered, and no caster level check is required. The charges are expended only after countering a spell or spell-like ability. If you ready this action but it is not triggered, the charges are not expended.  • 3 charges: As an immediate action, counter a spell or spell-like ability cast by an outsider with an alignment subtype. The effect is automatically countered, and no caster level check is required. In addition, the outsider must succeed at a DC 20 Will save or be banished back to its home plane,  as banishment. An outsider with more than 26 Hit Dice is unaffected by the banishment effect.<br><p><b>Base Item:</b> </p><h3><b>Requirements</b></h3><p>Craft Wondrous Item; banishment; dispel chaos, evil, good, and law; dispel magic; creator must be neutral</p><h3><b>Source: </b></h3>Champions Of Balance",
      "unidentified": ""
    },
    "tags": [],
    "quantity": 1,
    "weight": {
      "value": 1
    },
    "price": 54200,
    "size": "med",
    "equipped": true,
    "resizing": false,
    "identified": true,
    "hp": {
      "max": 10,
      "value": 10
    },
    "broken": false,
    "hardness": 0,
    "carried": true,
    "unidentified": {
      "price": 0,
      "name": ""
    },
    "cl": 13,
    "aura": {
      "custom": true,
      "school": "abjuration"
    },
    "changes": [],
    "changeFlags": {
      "loseDexToAC": false,
      "noEncumbrance": false,
      "mediumArmorFullSpeed": false,
      "heavyArmorFullSpeed": false
    },
    "contextNotes": [],
    "actions": [],
    "uses": {
      "per": null,
      "value": 0,
      "maxFormula": "",
      "autoDeductChargesCost": "1"
    },
    "attackNotes": [],
    "effectNotes": [],
    "links": {
      "children": [],
      "charges": []
    },
    "tag": "cloakOfMoralRefraction",
    "useCustomTag": false,
    "flags": {
      "boolean": {},
      "dictionary": {}
    },
    "scriptCalls": [],
    "masterwork": false,
    "enh": null,
    "proficient": true,
    "held": "normal",
    "subType": "wondrous",
    "baseTypes": [],
    "equipmentSubtype": "lightArmor",
    "armor": {
      "value": 0,
      "dex": null,
      "acp": 0,
      "enh": 0
    },
    "spellFailure": 0,
    "slot": "shoulders",
    "showInQuickbar": false
  },
  "ownership": {
    "default": 0
  },
  "_stats": {
    "systemId": "pf1",
    "systemVersion": "9.1",
    "coreVersion": "10.291",
    "createdTime": 1665428409868,
    "modifiedTime": 1689798018724,
    "lastModifiedBy": "ppv91YxratjWnkJi"
  },
  "effects": [],
  "folder": null,
  "sort": 0,
  "flags": {},
  "_key": "!items!uCxkM9bsFdBkSycA"
}