{
  "_id": "W4wVSyyl2L3lshpr",
  "name": "Coat Of The Undercity, Greater",
  "type": "equipment",
  "img": "icons/svg/item-bag.svg",
  "system": {
    "description": {
      "value": "<h2></b>Description</b></h2></p><p>This coat functions much like the coat of the undercity, except the wearer can transform into a venomroach (Bestiary 2 58) as if using vermin shape II.  Alternatively, the wearer can take the form of a giant cockroach swarm. This swarm of Tiny vermin has a number of hit points equal to the wearer, uses the wearer's mental ability scores, skills, and saving throws, and gains a +2 resistance bonus on saving throws against mind-affecting effects instead of being immune to them. The swarm otherwise has the same movement, Armor Class, swarm traits, swarm damage, distraction and disease abilities as a typical rat swarm (including the abilities having a DC of 12). While in swarm form, the wearer can't use any of her activated abilities (extraordinary, supernatural, spell-like, or otherwise), cast spells, or use items, although she can end the effect as a standard action.  Either of these transformations can occur only in an urban environment. The wearer can remain transformed for up to 9 minutes per day. This duration doesn't need to be consecutive, but must be used in 1-minute increments.<br><p><b>Base Item:</b> </p><h3><b>Requirements</b></h3><p>Craft Wondrous Item, vermin shape IIUM</p><h3><b>Source: </b></h3>Ultimate Intrigue",
      "unidentified": ""
    },
    "tags": [],
    "quantity": 1,
    "weight": {
      "value": 5
    },
    "price": 37500,
    "size": "med",
    "equipped": true,
    "resizing": false,
    "identified": true,
    "hp": {
      "max": 10,
      "value": 10
    },
    "broken": false,
    "hardness": 0,
    "carried": true,
    "unidentified": {
      "price": 0,
      "name": ""
    },
    "cl": 9,
    "aura": {
      "custom": true,
      "school": "transmutation"
    },
    "changes": [],
    "changeFlags": {
      "loseDexToAC": false,
      "noEncumbrance": false,
      "mediumArmorFullSpeed": false,
      "heavyArmorFullSpeed": false
    },
    "contextNotes": [],
    "actions": [],
    "uses": {
      "per": null,
      "value": 0,
      "maxFormula": "",
      "autoDeductChargesCost": "1"
    },
    "attackNotes": [],
    "effectNotes": [],
    "links": {
      "children": [],
      "charges": []
    },
    "tag": "coatOfTheUndercityGreater",
    "useCustomTag": false,
    "flags": {
      "boolean": {},
      "dictionary": {}
    },
    "scriptCalls": [],
    "masterwork": false,
    "enh": null,
    "proficient": true,
    "held": "normal",
    "subType": "wondrous",
    "baseTypes": [],
    "equipmentSubtype": "lightArmor",
    "armor": {
      "value": 0,
      "dex": null,
      "acp": 0,
      "enh": 0
    },
    "spellFailure": 0,
    "slot": "chest",
    "showInQuickbar": false
  },
  "ownership": {
    "default": 0
  },
  "_stats": {
    "systemId": "pf1",
    "systemVersion": "9.1",
    "coreVersion": "10.291",
    "createdTime": 1665428407169,
    "modifiedTime": 1689798002196,
    "lastModifiedBy": "ppv91YxratjWnkJi"
  },
  "effects": [],
  "folder": null,
  "sort": 0,
  "flags": {},
  "_key": "!items!W4wVSyyl2L3lshpr"
}