{
  "_id": "VugtJqnAXt8PrX9C",
  "name": "Coldwarp Key",
  "type": "equipment",
  "img": "systems/pf1/icons/items/weapons/sword-cane.png",
  "system": {
    "description": {
      "value": "<h2></b>Description</b></h2></p><p>This flanged iron rod is much heavier than it looks, and grants the wielder a portion of the skill of a master coldwarper. The wielder gains a +5 competence bonus on Craft checks involving metal. A coldwarp key has three charges, which are renewed at midnight every night and can be expended to create a variety of effects. Expending one charge from a coldwarp key allows the wielder to use fabricate (as the spell) to affect metal only. If the wielder is in a natural underground environment, she can expend two charges from a coldwarp key to draw raw metal ore from the surrounding stone and shape it to her liking. This ability acts as the major creation spell, except the wielder can create only base metals and the duration is instantaneous.<br><p><b>Base Item:</b> </p><h3><b>Requirements</b></h3><p>Craft Rod, fabricate, major creation</p><h3><b>Source: </b></h3>Magical Marketplace",
      "unidentified": ""
    },
    "tags": [],
    "quantity": 1,
    "weight": {
      "value": 5
    },
    "price": 45700,
    "size": "med",
    "equipped": true,
    "resizing": false,
    "identified": true,
    "hp": {
      "max": 10,
      "value": 10
    },
    "broken": false,
    "hardness": 0,
    "carried": true,
    "unidentified": {
      "price": 0,
      "name": ""
    },
    "cl": 9,
    "aura": {
      "custom": true,
      "school": "conjuration and transmutation"
    },
    "changes": [],
    "changeFlags": {
      "loseDexToAC": false,
      "noEncumbrance": false,
      "mediumArmorFullSpeed": false,
      "heavyArmorFullSpeed": false
    },
    "contextNotes": [],
    "actions": [],
    "uses": {
      "per": null,
      "value": 0,
      "maxFormula": "",
      "autoDeductChargesCost": "1"
    },
    "attackNotes": [],
    "effectNotes": [],
    "links": {
      "children": [],
      "charges": []
    },
    "tag": "coldwarpKey",
    "useCustomTag": false,
    "flags": {
      "boolean": {},
      "dictionary": {}
    },
    "scriptCalls": [],
    "masterwork": false,
    "enh": null,
    "proficient": true,
    "held": "normal",
    "subType": "other",
    "baseTypes": [],
    "equipmentSubtype": "lightArmor",
    "armor": {
      "value": 0,
      "dex": null,
      "acp": 0,
      "enh": 0
    },
    "spellFailure": 0,
    "slot": "other",
    "showInQuickbar": false
  },
  "ownership": {
    "default": 0
  },
  "_stats": {
    "systemId": "pf1",
    "systemVersion": "9.1",
    "coreVersion": "10.291",
    "createdTime": 1665428407162,
    "modifiedTime": 1689798002128,
    "lastModifiedBy": "ppv91YxratjWnkJi"
  },
  "effects": [],
  "folder": null,
  "sort": 0,
  "flags": {},
  "_key": "!items!VugtJqnAXt8PrX9C"
}