{
  "_id": "LYIdgGgx6K5fmyjw",
  "name": "Conquering Brand, Subjugation",
  "type": "equipment",
  "img": "icons/svg/item-bag.svg",
  "system": {
    "description": {
      "value": "<h2></b>Description</b></h2></p><p>Each of these 3-foot-long branding irons ends in a distinctive, cruel-looking symbol. Once per day on command, a wielder of a conquering brand can cause the tip to grow red hot for 1 hour, and during this time one creature can be branded. The brand's recipient is burned as normal for a branding iron (see page 63) and is also affected as per brand (Pathfinder RPG Advanced Player's Guide 207) or another spell the conquering brand carries, as the wielder of the brand chooses. A conquering brand can create only one magical brand per day.  Conformity: A conquering brand of conformity can create a brand of conformity. Faint transmutation; CL 1st; Craft Wondrous Item, brandAPG, brand of conformity.  Geas: A conquering brand of geas can affect the recipient as per geas/quest. When the brand is used in this way, it takes 10 minutes for its tip to heat up. If not used to create a brand, the mark left by the branding iron is nonmagical and not tied to the spell effect, so removing it doesn't remove the spell effect. Moderate enchantment; CL 11th; Craft Wondrous Item, brandAPG, geas/quest.  Hobbling: A conquering brand of hobbling can create a brand of hobbling. Faint transmutation; CL 4th; Craft Wondrous Item, brandAPG, brand of hobbling.  Justice: A conquering brand of justice can create a mark of justice, as per the spell. When the brand is used this way,  it takes 10 minutes for its tip to heat up. Faint necromancy; CL 9th; Craft Wondrous Item, brandAPG, mark of justice.  Lesser Geas: A conquering brand of lesser geas allows you to affect the recipient as per lesser geas. When the brand is used in this way, it takes 1 round for its tip to heat up. If not used to create a brand, the mark left by the branding iron is nonmagical and not tied to the spell effect, so removing it doesn't remove the spell effect. Faint enchantment; CL 7th; Craft Wondrous Item, brandAPG, lesser geas.  Subjugation: This brand can create a greater brand (Advanced Player's Guide 207), except it blazes when brought within 30 feet of the Nail's symbol. Moderate transmutation; CL 10th; Craft Wondrous Item, brandAPG, greater brandAPG.  Tracking: A conquering brand of tracking can create a brand of tracking. Moderate transmutation; CL 9th; Craft Wondrous Item, brandAPG, brand of tracking.<br><p><b>Base Item:</b> </p><h3><b>Requirements</b></h3><p>Craft Wondrous Item, brandAPG, greater brandAPG</p><h3><b>Source: </b></h3>Path Of The Hellknight",
      "unidentified": ""
    },
    "tags": [],
    "quantity": 1,
    "weight": {
      "value": 5
    },
    "price": 14420,
    "size": "med",
    "equipped": true,
    "resizing": false,
    "identified": true,
    "hp": {
      "max": 10,
      "value": 10
    },
    "broken": false,
    "hardness": 0,
    "carried": true,
    "unidentified": {
      "price": 0,
      "name": ""
    },
    "cl": 10,
    "aura": {
      "custom": true,
      "school": "transmutation"
    },
    "changes": [],
    "changeFlags": {
      "loseDexToAC": false,
      "noEncumbrance": false,
      "mediumArmorFullSpeed": false,
      "heavyArmorFullSpeed": false
    },
    "contextNotes": [],
    "actions": [],
    "uses": {
      "per": null,
      "value": 0,
      "maxFormula": "",
      "autoDeductChargesCost": "1"
    },
    "attackNotes": [],
    "effectNotes": [],
    "links": {
      "children": [],
      "charges": []
    },
    "tag": "conqueringBrandSubjugation",
    "useCustomTag": false,
    "flags": {
      "boolean": {},
      "dictionary": {}
    },
    "scriptCalls": [],
    "masterwork": false,
    "enh": null,
    "proficient": true,
    "held": "normal",
    "subType": "wondrous",
    "baseTypes": [],
    "equipmentSubtype": "lightArmor",
    "armor": {
      "value": 0,
      "dex": null,
      "acp": 0,
      "enh": 0
    },
    "spellFailure": 0,
    "slot": "slotless",
    "showInQuickbar": false
  },
  "ownership": {
    "default": 0
  },
  "_stats": {
    "systemId": "pf1",
    "systemVersion": "9.1",
    "coreVersion": "10.291",
    "createdTime": 1665428405982,
    "modifiedTime": 1689797995338,
    "lastModifiedBy": "ppv91YxratjWnkJi"
  },
  "effects": [],
  "folder": null,
  "sort": 0,
  "flags": {},
  "_key": "!items!LYIdgGgx6K5fmyjw"
}