{
  "_id": "Nh1fVgwvt2owqaXh",
  "name": "Death's Head Talisman 24HD",
  "type": "equipment",
  "img": "icons/svg/item-bag.svg",
  "system": {
    "description": {
      "value": "<h2></b>Description</b></h2></p><p>This amulet allows the wearer to command a number of undead skeletons and zombies, which are keyed to the amulet when it is created. The animation of the undead is part of the creation process-undead that have already been created cannot be bound to a death's head talisman. The number of HD of undead tied to the amulet is equal to twice the amulet's caster level. The amulet allows the wearer to command the undead as if she had created them with animate dead, even if she has no magical talent of her own. The undead are only under control while the amulet is worn; if the amulet is removed, the undead revert to normal behavior, standing in place but responding if attacked. Once the specific undead tied to the amulet are destroyed, the talisman loses all power.<br><p><b>Base Item:</b> </p><h3><b>Requirements</b></h3><p>Craft Wondrous Item, animate dead</p><h3><b>Source: </b></h3>City of Strangers",
      "unidentified": ""
    },
    "tags": [],
    "quantity": 1,
    "weight": {
      "value": 0
    },
    "price": 2400,
    "size": "med",
    "equipped": true,
    "resizing": false,
    "identified": true,
    "hp": {
      "max": 10,
      "value": 10
    },
    "broken": false,
    "hardness": 0,
    "carried": true,
    "unidentified": {
      "price": 0,
      "name": ""
    },
    "cl": 12,
    "aura": {
      "custom": true,
      "school": "varies"
    },
    "changes": [],
    "changeFlags": {
      "loseDexToAC": false,
      "noEncumbrance": false,
      "mediumArmorFullSpeed": false,
      "heavyArmorFullSpeed": false
    },
    "contextNotes": [],
    "actions": [],
    "uses": {
      "per": null,
      "value": 0,
      "maxFormula": "",
      "autoDeductChargesCost": "1"
    },
    "attackNotes": [],
    "effectNotes": [],
    "links": {
      "children": [],
      "charges": []
    },
    "tag": "deathsHeadTalisman24hd",
    "useCustomTag": false,
    "flags": {
      "boolean": {},
      "dictionary": {}
    },
    "scriptCalls": [],
    "masterwork": false,
    "enh": null,
    "proficient": true,
    "held": "normal",
    "subType": "wondrous",
    "baseTypes": [],
    "equipmentSubtype": "lightArmor",
    "armor": {
      "value": 0,
      "dex": null,
      "acp": 0,
      "enh": 0
    },
    "spellFailure": 0,
    "slot": "neck",
    "showInQuickbar": false
  },
  "ownership": {
    "default": 0
  },
  "_stats": {
    "systemId": "pf1",
    "systemVersion": "9.1",
    "coreVersion": "10.291",
    "createdTime": 1665428406095,
    "modifiedTime": 1689797996178,
    "lastModifiedBy": "ppv91YxratjWnkJi"
  },
  "effects": [],
  "folder": null,
  "sort": 0,
  "flags": {},
  "_key": "!items!Nh1fVgwvt2owqaXh"
}