{
  "_id": "TemDQWAzgVdp593Z",
  "name": "Dust Of Weighty Burdens",
  "type": "equipment",
  "img": "icons/svg/item-bag.svg",
  "system": {
    "description": {
      "value": "<h2></b>Description</b></h2></p><p>Also known as lodestone essence, this coarse gray powder comes in a fragile ceramic flask covered in Terran runes. A newly-crafted flask contains enough powder for 10 applications if poured out carefully, or the whole container can be thrown as a splash weapon with a range increment of 10 feet.   One application of the dust sprinkled over an object increases the target's weight by 100 pounds. Multiple applications stack, and the effect remains until the object is scrubbed clean of the metallic particles (taking a full-round action per application) or it takes 5 points of electricity damage per application.   A creature struck directly with a thrown flask must make a Fortitude save (DC 10 + 1 per application remaining in the flask) or gain heavy encumbrance and be unable to fly for 2d4 rounds. Targets in the splash area must save or gain medium encumbrance for 2d4 rounds. Scrubbing or electricity damage neutralizes the thrown powder as noted above.<br><p><b>Base Item:</b> </p><h3><b>Requirements</b></h3><p>Craft Wondrous Item, slow, stone shape</p><h3><b>Source: </b></h3>Ultimate Equipment",
      "unidentified": ""
    },
    "tags": [],
    "quantity": 1,
    "weight": {
      "value": 3
    },
    "price": 3600,
    "size": "med",
    "equipped": true,
    "resizing": false,
    "identified": true,
    "hp": {
      "max": 10,
      "value": 10
    },
    "broken": false,
    "hardness": 0,
    "carried": true,
    "unidentified": {
      "price": 0,
      "name": ""
    },
    "cl": 5,
    "aura": {
      "custom": true,
      "school": "transmutation"
    },
    "changes": [],
    "changeFlags": {
      "loseDexToAC": false,
      "noEncumbrance": false,
      "mediumArmorFullSpeed": false,
      "heavyArmorFullSpeed": false
    },
    "contextNotes": [],
    "actions": [],
    "uses": {
      "per": null,
      "value": 0,
      "maxFormula": "",
      "autoDeductChargesCost": "1"
    },
    "attackNotes": [],
    "effectNotes": [],
    "links": {
      "children": [],
      "charges": []
    },
    "tag": "dustOfWeightyBurdens",
    "useCustomTag": false,
    "flags": {
      "boolean": {},
      "dictionary": {}
    },
    "scriptCalls": [],
    "masterwork": false,
    "enh": null,
    "proficient": true,
    "held": "normal",
    "subType": "wondrous",
    "baseTypes": [],
    "equipmentSubtype": "lightArmor",
    "armor": {
      "value": 0,
      "dex": null,
      "acp": 0,
      "enh": 0
    },
    "spellFailure": 0,
    "slot": "slotless",
    "showInQuickbar": false
  },
  "ownership": {
    "default": 0
  },
  "_stats": {
    "systemId": "pf1",
    "systemVersion": "9.1",
    "coreVersion": "10.291",
    "createdTime": 1665428406765,
    "modifiedTime": 1689798000535,
    "lastModifiedBy": "ppv91YxratjWnkJi"
  },
  "effects": [],
  "folder": null,
  "sort": 0,
  "flags": {},
  "_key": "!items!TemDQWAzgVdp593Z"
}