{
  "_id": "FMXGYMN0ZLxRfJTR",
  "name": "Eldritch Scholar's Monocle",
  "type": "equipment",
  "img": "icons/svg/item-bag.svg",
  "system": {
    "description": {
      "value": "<h2></b>Description</b></h2></p><p>This lens, mounted in a round electrum frame, fits snugly over the wearer's eye. Upon donning the monocle, the user sees a swirl of arcane sigils through the lens, but the sensation quickly fades. The monocle allows the user to decipher magical inscriptions, as per read magic.  Once worn for 24 consecutive hours, an eldritch scholar's monocle also protects the user from anything dangerous to read  or view. While wearing the monocle, whenever the user triggers a curse effect, an effect that causes sanity loss, or a magic trap (such as explosive runes or sepia snake sigil) simply by reading or viewing an object, the monocle's glass starts shaking, pulling the wearer's attention away from the dangerous details in the object. This allows the wearer to roll any saving throw against such an effect twice and take the better result. This effect functions only once per day. For the remainder of the day, everything viewed through the lens appears blurred and distorted, and the read magic effect no longer functions.<br><p><b>Base Item:</b> </p><h3><b>Requirements</b></h3><p>Craft Wondrous Item, augury, read magic</p><h3><b>Source: </b></h3>Horror Adventures",
      "unidentified": ""
    },
    "tags": [],
    "quantity": 1,
    "weight": {
      "value": 0
    },
    "price": 5000,
    "size": "med",
    "equipped": true,
    "resizing": false,
    "identified": true,
    "hp": {
      "max": 10,
      "value": 10
    },
    "broken": false,
    "hardness": 0,
    "carried": true,
    "unidentified": {
      "price": 0,
      "name": ""
    },
    "cl": 3,
    "aura": {
      "custom": true,
      "school": "divination"
    },
    "changes": [],
    "changeFlags": {
      "loseDexToAC": false,
      "noEncumbrance": false,
      "mediumArmorFullSpeed": false,
      "heavyArmorFullSpeed": false
    },
    "contextNotes": [],
    "actions": [],
    "uses": {
      "per": null,
      "value": 0,
      "maxFormula": "",
      "autoDeductChargesCost": "1"
    },
    "attackNotes": [],
    "effectNotes": [],
    "links": {
      "children": [],
      "charges": []
    },
    "tag": "eldritchScholarsMonocle",
    "useCustomTag": false,
    "flags": {
      "boolean": {},
      "dictionary": {}
    },
    "scriptCalls": [],
    "masterwork": false,
    "enh": null,
    "proficient": true,
    "held": "normal",
    "subType": "wondrous",
    "baseTypes": [],
    "equipmentSubtype": "lightArmor",
    "armor": {
      "value": 0,
      "dex": null,
      "acp": 0,
      "enh": 0
    },
    "spellFailure": 0,
    "slot": "eyes",
    "showInQuickbar": false
  },
  "ownership": {
    "default": 0
  },
  "_stats": {
    "systemId": "pf1",
    "systemVersion": "9.1",
    "coreVersion": "10.291",
    "createdTime": 1665428404797,
    "modifiedTime": 1689797990789,
    "lastModifiedBy": "ppv91YxratjWnkJi"
  },
  "effects": [],
  "folder": null,
  "sort": 0,
  "flags": {},
  "_key": "!items!FMXGYMN0ZLxRfJTR"
}