{
  "_id": "33pzW11YO5dWDO1C",
  "name": "Electro-Temporal Bracer",
  "type": "equipment",
  "img": "icons/svg/item-bag.svg",
  "system": {
    "description": {
      "value": "<h2></b>Description</b></h2></p><p>This rune-carved bracelet is made of thick, bright gold and allows the wearer to manipulate time through electricity magic. As a swift action, the wearer can activate the bracer, creating a nimbus of crackling blue energy that surrounds the hand wearing the electro-temporal bracer for up to 3 minutes each day. This duration need not be continuous, but it must be used in 1-minute increments. While the nimbus is active, spells with the electricity descriptor cast by the wearer have an additional effect, chosen by the wearer as each spell is cast: the spell dazzles all targets of the spell for 1 round, the spell staggers a single target of the spell for 1 round, or the spell provides a single target of the spell the benefits of haste for 1 round. The staggered and haste effects affect only one target selected by the caster as the spell is cast, even if the spell affects multiple targets. There is no saving throw for these additional effects, but a target that avoids the effects of the electricity spell entirely (such as by negating the effect with a successful save, or by having immunity to the spell's damage) is not subject to the additional effect. (A target of an additional effect that successfully saves against the electricity spell but still takes partial damage is still subject to the additional effect.)  If the wearer takes at least 50 points of electricity damage from a single source (such as a trap or a spell), the wearer immediately benefits from the effects of time stop, and the electro-temporal bracer ceases functioning for 1 month.<br><p><b>Base Item:</b> </p><h3><b>Requirements</b></h3><p>Craft Wondrous Item, haste, slow, time stop</p><h3><b>Source: </b></h3>AP 122",
      "unidentified": ""
    },
    "tags": [],
    "quantity": 1,
    "weight": {
      "value": 1
    },
    "price": 32000,
    "size": "med",
    "equipped": true,
    "resizing": false,
    "identified": true,
    "hp": {
      "max": 10,
      "value": 10
    },
    "broken": false,
    "hardness": 0,
    "carried": true,
    "unidentified": {
      "price": 0,
      "name": ""
    },
    "cl": 17,
    "aura": {
      "custom": true,
      "school": "transmutation"
    },
    "changes": [],
    "changeFlags": {
      "loseDexToAC": false,
      "noEncumbrance": false,
      "mediumArmorFullSpeed": false,
      "heavyArmorFullSpeed": false
    },
    "contextNotes": [],
    "actions": [],
    "uses": {
      "per": null,
      "value": 0,
      "maxFormula": "",
      "autoDeductChargesCost": "1"
    },
    "attackNotes": [],
    "effectNotes": [],
    "links": {
      "children": [],
      "charges": []
    },
    "tag": "electrotemporalBracer",
    "useCustomTag": false,
    "flags": {
      "boolean": {},
      "dictionary": {}
    },
    "scriptCalls": [],
    "masterwork": false,
    "enh": null,
    "proficient": true,
    "held": "normal",
    "subType": "wondrous",
    "baseTypes": [],
    "equipmentSubtype": "lightArmor",
    "armor": {
      "value": 0,
      "dex": null,
      "acp": 0,
      "enh": 0
    },
    "spellFailure": 0,
    "slot": "wrists",
    "showInQuickbar": false
  },
  "ownership": {
    "default": 0
  },
  "_stats": {
    "systemId": "pf1",
    "systemVersion": "9.1",
    "coreVersion": "10.291",
    "createdTime": 1665428403557,
    "modifiedTime": 1689797982361,
    "lastModifiedBy": "ppv91YxratjWnkJi"
  },
  "effects": [],
  "folder": null,
  "sort": 0,
  "flags": {},
  "_key": "!items!33pzW11YO5dWDO1C"
}