{
  "_id": "G2TAI84CfLUQ3czk",
  "name": "Elemental Metamagic Rod, Greater",
  "type": "equipment",
  "img": "systems/pf1/icons/items/weapons/sword-cane.png",
  "system": {
    "description": {
      "value": "<h2></b>Description</b></h2></p><p>Each elemental metamagic rod is built with the power to control and transform a specific energy type (acid, cold, electricity, or fire). The wielder can cast up to three spells per day that deal damage of the rod's energy type instead of the spell's normal damage type, as though using the Elemental Spell feat (Advanced Player's Guide). For example, an elemental metamagic rod (cold) always makes spells deal cold damage.<br><p><b>Base Item:</b> </p><h3><b>Requirements</b></h3><p>Craft Rod, Elemental Spell</p><h3><b>Source: </b></h3>Ultimate Equipment",
      "unidentified": ""
    },
    "tags": [],
    "quantity": 1,
    "weight": {
      "value": 5
    },
    "price": 24500,
    "size": "med",
    "equipped": true,
    "resizing": false,
    "identified": true,
    "hp": {
      "max": 10,
      "value": 10
    },
    "broken": false,
    "hardness": 0,
    "carried": true,
    "unidentified": {
      "price": 0,
      "name": ""
    },
    "cl": 17,
    "aura": {
      "custom": true,
      "school": "none"
    },
    "changes": [],
    "changeFlags": {
      "loseDexToAC": false,
      "noEncumbrance": false,
      "mediumArmorFullSpeed": false,
      "heavyArmorFullSpeed": false
    },
    "contextNotes": [],
    "actions": [],
    "uses": {
      "per": null,
      "value": 0,
      "maxFormula": "",
      "autoDeductChargesCost": "1"
    },
    "attackNotes": [],
    "effectNotes": [],
    "links": {
      "children": [],
      "charges": []
    },
    "tag": "elementalMetamagicRodGreater",
    "useCustomTag": false,
    "flags": {
      "boolean": {},
      "dictionary": {}
    },
    "scriptCalls": [],
    "masterwork": false,
    "enh": null,
    "proficient": true,
    "held": "normal",
    "subType": "other",
    "baseTypes": [],
    "equipmentSubtype": "lightArmor",
    "armor": {
      "value": 0,
      "dex": null,
      "acp": 0,
      "enh": 0
    },
    "spellFailure": 0,
    "slot": "other",
    "showInQuickbar": false
  },
  "ownership": {
    "default": 0
  },
  "_stats": {
    "systemId": "pf1",
    "systemVersion": "9.1",
    "coreVersion": "10.291",
    "createdTime": 1665428404828,
    "modifiedTime": 1689797991062,
    "lastModifiedBy": "ppv91YxratjWnkJi"
  },
  "effects": [],
  "folder": null,
  "sort": 0,
  "flags": {},
  "_key": "!items!G2TAI84CfLUQ3czk"
}