{
  "_id": "1TrX9I9cMS1OlfMK",
  "name": "Elemental Ring",
  "type": "equipment",
  "img": "systems/pf1/icons/items/jewelry/ring-red.jpg",
  "system": {
    "description": {
      "value": "<h2></b>Description</b></h2></p><p>This ornate ring has a thick iron band covered in sigils of calling, and is set with a large glowing gemstone that appears to be an elemental gem. The ring serves as a gateway for a specific elder elemental (25% chance each for air, earth, fire, or water) that performs a narrow range of services when called.  When activated with a command word, the elemental is called (as by greater planar ally) and demands to know what service it is to perform. It can only be commanded to protect a specific creature or object, attack a specific creature, damage a specific object, or answer questions about its home plane. The wearer of the ring is able to communicate with the elder elemental as if they shared a common language. The elder elemental serves for no more than 24 hours, after which it returns to its home plane and the ring become a valueless hunk of lead.<br><p><b>Base Item:</b> </p><h3><b>Requirements</b></h3><p>Forge Ring, planar ally, planar binding</p><h3><b>Source: </b></h3>Cohorts & Companions",
      "unidentified": ""
    },
    "tags": [],
    "quantity": 1,
    "weight": {
      "value": 1
    },
    "price": 30000,
    "size": "med",
    "equipped": true,
    "resizing": false,
    "identified": true,
    "hp": {
      "max": 10,
      "value": 10
    },
    "broken": false,
    "hardness": 0,
    "carried": true,
    "unidentified": {
      "price": 0,
      "name": ""
    },
    "cl": 15,
    "aura": {
      "custom": true,
      "school": "conjuration"
    },
    "changes": [],
    "changeFlags": {
      "loseDexToAC": false,
      "noEncumbrance": false,
      "mediumArmorFullSpeed": false,
      "heavyArmorFullSpeed": false
    },
    "contextNotes": [],
    "actions": [],
    "uses": {
      "per": null,
      "value": 0,
      "maxFormula": "",
      "autoDeductChargesCost": "1"
    },
    "attackNotes": [],
    "effectNotes": [],
    "links": {
      "children": [],
      "charges": []
    },
    "tag": "elementalRing",
    "useCustomTag": false,
    "flags": {
      "boolean": {},
      "dictionary": {}
    },
    "scriptCalls": [],
    "masterwork": false,
    "enh": null,
    "proficient": true,
    "held": "normal",
    "subType": "other",
    "baseTypes": [],
    "equipmentSubtype": "lightArmor",
    "armor": {
      "value": 0,
      "dex": null,
      "acp": 0,
      "enh": 0
    },
    "spellFailure": 0,
    "slot": "other",
    "showInQuickbar": false
  },
  "ownership": {
    "default": 0
  },
  "_stats": {
    "systemId": "pf1",
    "systemVersion": "9.1",
    "coreVersion": "10.291",
    "createdTime": 1665428403452,
    "modifiedTime": 1689797981486,
    "lastModifiedBy": "ppv91YxratjWnkJi"
  },
  "effects": [],
  "folder": null,
  "sort": 0,
  "flags": {},
  "_key": "!items!1TrX9I9cMS1OlfMK"
}