{
  "_id": "cXVuKAmHuM2N40eu",
  "name": "Elixir Of Sex Shift",
  "type": "equipment",
  "img": "icons/svg/item-bag.svg",
  "system": {
    "description": {
      "value": "<h2></b>Description</b></h2></p><p>Upon drinking this elixir, a character permanently transforms their biology to take on a different set of sexual characteristics of their choice. While the imbiber's physiology changes dramatically and their features adjust slightly to take on the new qualities, the imbiber is still recognizable as the same person. The character has only minor control over the specific details of this new appearance, and the elixir grants no benefit on Disguise checks or similar checks.  This elixir functions instantaneously and can't be dispelled, though drinking a second elixir of sex shift either reverts the imbiber to a former form or allows them to adopt alternate sexual characteristics, as they choose. The elixir has no effect on imbibers who are pregnant or are of races with no sexual differentiation. Most races, however, have a wide spectrum of sexual differentiation, some common, others more rare. Therefore, most imbibers can decide how this elixir transforms them. An unwilling imbiber can choose not to change at all.<br><p><b>Base Item:</b> </p><h3><b>Requirements</b></h3><p>Craft Wondrous Items, polymorph</p><h3><b>Source: </b></h3>Advanced Class Guide",
      "unidentified": ""
    },
    "tags": [],
    "quantity": 1,
    "weight": {
      "value": 0
    },
    "price": 2250,
    "size": "med",
    "equipped": true,
    "resizing": false,
    "identified": true,
    "hp": {
      "max": 10,
      "value": 10
    },
    "broken": false,
    "hardness": 0,
    "carried": true,
    "unidentified": {
      "price": 0,
      "name": ""
    },
    "cl": 9,
    "aura": {
      "custom": true,
      "school": "transmutation"
    },
    "changes": [],
    "changeFlags": {
      "loseDexToAC": false,
      "noEncumbrance": false,
      "mediumArmorFullSpeed": false,
      "heavyArmorFullSpeed": false
    },
    "contextNotes": [],
    "actions": [],
    "uses": {
      "per": null,
      "value": 0,
      "maxFormula": "",
      "autoDeductChargesCost": "1"
    },
    "attackNotes": [],
    "effectNotes": [],
    "links": {
      "children": [],
      "charges": []
    },
    "tag": "elixirOfSexShift",
    "useCustomTag": false,
    "flags": {
      "boolean": {},
      "dictionary": {}
    },
    "scriptCalls": [],
    "masterwork": false,
    "enh": null,
    "proficient": true,
    "held": "normal",
    "subType": "wondrous",
    "baseTypes": [],
    "equipmentSubtype": "lightArmor",
    "armor": {
      "value": 0,
      "dex": null,
      "acp": 0,
      "enh": 0
    },
    "spellFailure": 0,
    "slot": "slotless",
    "showInQuickbar": false
  },
  "ownership": {
    "default": 0
  },
  "_stats": {
    "systemId": "pf1",
    "systemVersion": "9.1",
    "coreVersion": "10.291",
    "createdTime": 1665428407828,
    "modifiedTime": 1689798006492,
    "lastModifiedBy": "ppv91YxratjWnkJi"
  },
  "effects": [],
  "folder": null,
  "sort": 0,
  "flags": {},
  "_key": "!items!cXVuKAmHuM2N40eu"
}