{
  "_id": "sIED5N1T4EwEQJ7O",
  "name": "Elixir Of Two Worlds",
  "type": "equipment",
  "img": "icons/svg/item-bag.svg",
  "system": {
    "description": {
      "value": "<h2></b>Description</b></h2></p><p>When a drinker willingly imbibes this elixir underwater, the elixir of two worlds transforms either a humanoid-shaped land-dwelling creature or a merfolk-shaped sea-dwelling creature instantaneously. A land-dweller's legs transform into a tail fin (granting him a land speed of 5 feet and swim speed of 40 feet) and he gains the aquatic subtype, while a sea-dweller's tail fin transforms into legs (granting him a land speed of 30 feet and no swim speed) and he loses the aquatic subtype. Because the drinker must imbibe it underwater, he must use a potion spongeARG or a potion sureseal bladder. Further, it's impossible to use alchemical allocationAPG with this elixir. Only miracle, wish, or similar magic, or another elixir of two worlds, can reverse the elixir's effects.<br><p><b>Base Item:</b> </p><h3><b>Requirements</b></h3><p>Craft Wondrous Item, fins to feetARG, polymorph any object</p><h3><b>Source: </b></h3>Aquatic Adventures",
      "unidentified": ""
    },
    "tags": [],
    "quantity": 1,
    "weight": {
      "value": 0.5
    },
    "price": 5000,
    "size": "med",
    "equipped": true,
    "resizing": false,
    "identified": true,
    "hp": {
      "max": 10,
      "value": 10
    },
    "broken": false,
    "hardness": 0,
    "carried": true,
    "unidentified": {
      "price": 0,
      "name": ""
    },
    "cl": 15,
    "aura": {
      "custom": true,
      "school": "transmutation"
    },
    "changes": [],
    "changeFlags": {
      "loseDexToAC": false,
      "noEncumbrance": false,
      "mediumArmorFullSpeed": false,
      "heavyArmorFullSpeed": false
    },
    "contextNotes": [],
    "actions": [],
    "uses": {
      "per": null,
      "value": 0,
      "maxFormula": "",
      "autoDeductChargesCost": "1"
    },
    "attackNotes": [],
    "effectNotes": [],
    "links": {
      "children": [],
      "charges": []
    },
    "tag": "elixirOfTwoWorlds",
    "useCustomTag": false,
    "flags": {
      "boolean": {},
      "dictionary": {}
    },
    "scriptCalls": [],
    "masterwork": false,
    "enh": null,
    "proficient": true,
    "held": "normal",
    "subType": "wondrous",
    "baseTypes": [],
    "equipmentSubtype": "lightArmor",
    "armor": {
      "value": 0,
      "dex": null,
      "acp": 0,
      "enh": 0
    },
    "spellFailure": 0,
    "slot": "slotless",
    "showInQuickbar": false
  },
  "ownership": {
    "default": 0
  },
  "_stats": {
    "systemId": "pf1",
    "systemVersion": "9.1",
    "coreVersion": "10.291",
    "createdTime": 1665428409739,
    "modifiedTime": 1689798017802,
    "lastModifiedBy": "ppv91YxratjWnkJi"
  },
  "effects": [],
  "folder": null,
  "sort": 0,
  "flags": {},
  "_key": "!items!sIED5N1T4EwEQJ7O"
}