{
  "_id": "tbyei2tZygwM67FS",
  "name": "Enmity Fetish",
  "type": "equipment",
  "img": "icons/svg/item-bag.svg",
  "system": {
    "description": {
      "value": "<h2></b>Description</b></h2></p><p>This small talisman is comprised of teeth, fingers, ears, or other grotesque trophies taken from the freshly dead. Each talisman is imbued with an intense animosity toward a particular type of creature, chosen from the ranger favored enemy list when the fetish is created. Once per day, the talisman can impart this animosity to a ranger (or other character with the favored enemy class feature), replacing one of his favored enemies with the fetish's designated creature type. This lasts 24 hours. To activate the fetish, the ranger must spend 10 minutes quietly holding it; he then may select one of his favored enemies to replace with the item's favored enemy. For example, a ranger with a +6 favored enemy bonus against orcs may use a dragon-hating fetish, gaining a +6 favored enemy bonus against dragons and losing the bonus against orcs for 24 hours. Alternatively, once per day, the bearer can activate the fetish as a swift action, but its effects only last 10 minutes and the bearer only gains half his favored enemy bonus (for example, the ranger would lose his orc bonus and only gain a +3 favored enemy bonus against dragons for 10 minutes).<br><p><b>Base Item:</b> </p><h3><b>Requirements</b></h3><p>Craft Wondrous Item, instant enemy (Advanced Player's Guide), creator must have the favored enemy class feature</p><h3><b>Source: </b></h3>Ultimate Equipment",
      "unidentified": ""
    },
    "tags": [],
    "quantity": 1,
    "weight": {
      "value": 1
    },
    "price": 40000,
    "size": "med",
    "equipped": true,
    "resizing": false,
    "identified": true,
    "hp": {
      "max": 10,
      "value": 10
    },
    "broken": false,
    "hardness": 0,
    "carried": true,
    "unidentified": {
      "price": 0,
      "name": ""
    },
    "cl": 5,
    "aura": {
      "custom": true,
      "school": "transmutation"
    },
    "changes": [],
    "changeFlags": {
      "loseDexToAC": false,
      "noEncumbrance": false,
      "mediumArmorFullSpeed": false,
      "heavyArmorFullSpeed": false
    },
    "contextNotes": [],
    "actions": [],
    "uses": {
      "per": null,
      "value": 0,
      "maxFormula": "",
      "autoDeductChargesCost": "1"
    },
    "attackNotes": [],
    "effectNotes": [],
    "links": {
      "children": [],
      "charges": []
    },
    "tag": "enmityFetish",
    "useCustomTag": false,
    "flags": {
      "boolean": {},
      "dictionary": {}
    },
    "scriptCalls": [],
    "masterwork": false,
    "enh": null,
    "proficient": true,
    "held": "normal",
    "subType": "wondrous",
    "baseTypes": [],
    "equipmentSubtype": "lightArmor",
    "armor": {
      "value": 0,
      "dex": null,
      "acp": 0,
      "enh": 0
    },
    "spellFailure": 0,
    "slot": "slotless",
    "showInQuickbar": false
  },
  "ownership": {
    "default": 0
  },
  "_stats": {
    "systemId": "pf1",
    "systemVersion": "9.1",
    "coreVersion": "10.291",
    "createdTime": 1665428409833,
    "modifiedTime": 1689798018480,
    "lastModifiedBy": "ppv91YxratjWnkJi"
  },
  "effects": [],
  "folder": null,
  "sort": 0,
  "flags": {},
  "_key": "!items!tbyei2tZygwM67FS"
}