{
  "_id": "kk7eVtUEDr7Xtiux",
  "name": "Extractor's Gloves",
  "type": "equipment",
  "img": "icons/svg/item-bag.svg",
  "system": {
    "description": {
      "value": "<h2></b>Description</b></h2></p><p>These black leather fingerless gloves are shot through with strands of giant spider webbing. They allow their wearer to steal the special abilities of an opponent's weapon and augment the wearer's unarmed strikes with the abilities instead.  Once per day, the wearer can activate the gloves by succeeding at an unarmed disarm combat maneuver against an opponent's magic weapon. Instead of disarming the weapon, the wearer can negate the weapon's special abilities (bane, flaming, and so on) for 1d4 rounds and apply these abilities to her own unarmed strikes (the weapon's enhancement bonus is unaffected). Any weapon special abilities that couldn't be applied to unarmed strikes (such as returning or vorpal) are still suspended on the weapon but are not applied to the wearer's unarmed attacks.  If the wearer's unarmed strikes already have magical weapon special abilities (such as from an amulet of mighty fists), the enhancement bonus and special ability bonus equivalents on the wearer's unarmed strikes can't total more than +10; stolen special abilities are discarded at random until the total is +10 or less (discarded abilities are still suspended in the opponent's weapon for the normal duration).<br><p><b>Base Item:</b> </p><h3><b>Requirements</b></h3><p>Craft Wondrous Item, magic weapon, vampiric touch</p><h3><b>Source: </b></h3>Monster Codex",
      "unidentified": ""
    },
    "tags": [],
    "quantity": 1,
    "weight": {
      "value": 0
    },
    "price": 5000,
    "size": "med",
    "equipped": true,
    "resizing": false,
    "identified": true,
    "hp": {
      "max": 10,
      "value": 10
    },
    "broken": false,
    "hardness": 0,
    "carried": true,
    "unidentified": {
      "price": 0,
      "name": ""
    },
    "cl": 5,
    "aura": {
      "custom": true,
      "school": "transmutation"
    },
    "changes": [],
    "changeFlags": {
      "loseDexToAC": false,
      "noEncumbrance": false,
      "mediumArmorFullSpeed": false,
      "heavyArmorFullSpeed": false
    },
    "contextNotes": [],
    "actions": [],
    "uses": {
      "per": null,
      "value": 0,
      "maxFormula": "",
      "autoDeductChargesCost": "1"
    },
    "attackNotes": [],
    "effectNotes": [],
    "links": {
      "children": [],
      "charges": []
    },
    "tag": "extractorsGloves",
    "useCustomTag": false,
    "flags": {
      "boolean": {},
      "dictionary": {}
    },
    "scriptCalls": [],
    "masterwork": false,
    "enh": null,
    "proficient": true,
    "held": "normal",
    "subType": "wondrous",
    "baseTypes": [],
    "equipmentSubtype": "lightArmor",
    "armor": {
      "value": 0,
      "dex": null,
      "acp": 0,
      "enh": 0
    },
    "spellFailure": 0,
    "slot": "hands",
    "showInQuickbar": false
  },
  "ownership": {
    "default": 0
  },
  "_stats": {
    "systemId": "pf1",
    "systemVersion": "9.1",
    "coreVersion": "10.291",
    "createdTime": 1665428408595,
    "modifiedTime": 1689798011777,
    "lastModifiedBy": "ppv91YxratjWnkJi"
  },
  "effects": [],
  "folder": null,
  "sort": 0,
  "flags": {},
  "_key": "!items!kk7eVtUEDr7Xtiux"
}