{
  "_id": "D0uRQnpA96Onmlot",
  "name": "Eye-Stealing Locket",
  "type": "equipment",
  "img": "icons/svg/item-bag.svg",
  "system": {
    "description": {
      "value": "<h2></b>Description</b></h2></p><p>This silver locket is suspended from a silver chain. As a standard action, a creature holding the locket can speak a command word to attempt to steal the sight of one creature within 30 feet. The target must succeed at a DC 13 Fortitude saving throw or its eyes are immediately sealed within the locket's interior and replaced with featureless, shadowy orbs, causing the creature to be permanently blinded. The wielder can speak a second command word to return the victim's eyes; otherwise, this blindness cannot be removed except by miracle or wish.  Each eye-stealing locket can contain only a single set of eyes at a time, and the creature in possession of the locket is treated as having a body part of the creature to whom the eyes belong for the purpose of spells such as scrying. If the wielder is a mesmerist and he uses an eye-stealing locket against the target of his hypnotic stare, he can apply the Will saving throw penalty from his hypnotic stare to the Fortitude saving throw the target attempts to prevent its eyes being stolen.<br><p><b>Base Item:</b> </p><h3><b>Requirements</b></h3><p>Craft Wondrous Item, blindness/deafness</p><h3><b>Source: </b></h3>Blood Of Shadows",
      "unidentified": ""
    },
    "tags": [],
    "quantity": 1,
    "weight": {
      "value": 0
    },
    "price": 24000,
    "size": "med",
    "equipped": true,
    "resizing": false,
    "identified": true,
    "hp": {
      "max": 10,
      "value": 10
    },
    "broken": false,
    "hardness": 0,
    "carried": true,
    "unidentified": {
      "price": 0,
      "name": ""
    },
    "cl": 3,
    "aura": {
      "custom": true,
      "school": "necromancy"
    },
    "changes": [],
    "changeFlags": {
      "loseDexToAC": false,
      "noEncumbrance": false,
      "mediumArmorFullSpeed": false,
      "heavyArmorFullSpeed": false
    },
    "contextNotes": [],
    "actions": [],
    "uses": {
      "per": null,
      "value": 0,
      "maxFormula": "",
      "autoDeductChargesCost": "1"
    },
    "attackNotes": [],
    "effectNotes": [],
    "links": {
      "children": [],
      "charges": []
    },
    "tag": "eyestealingLocket",
    "useCustomTag": false,
    "flags": {
      "boolean": {},
      "dictionary": {}
    },
    "scriptCalls": [],
    "masterwork": false,
    "enh": null,
    "proficient": true,
    "held": "normal",
    "subType": "wondrous",
    "baseTypes": [],
    "equipmentSubtype": "lightArmor",
    "armor": {
      "value": 0,
      "dex": null,
      "acp": 0,
      "enh": 0
    },
    "spellFailure": 0,
    "slot": "slotless",
    "showInQuickbar": false
  },
  "ownership": {
    "default": 0
  },
  "_stats": {
    "systemId": "pf1",
    "systemVersion": "9.1",
    "coreVersion": "10.291",
    "createdTime": 1665428404701,
    "modifiedTime": 1689797989994,
    "lastModifiedBy": "ppv91YxratjWnkJi"
  },
  "effects": [],
  "folder": null,
  "sort": 0,
  "flags": {},
  "_key": "!items!D0uRQnpA96Onmlot"
}