{
  "_id": "Vb7bW3H1pcUpd6aA",
  "name": "Faithful Lantern",
  "type": "equipment",
  "img": "icons/svg/item-bag.svg",
  "system": {
    "description": {
      "value": "<h2></b>Description</b></h2></p><p>This fine, silver bullseye lantern is embossed with the image of a stoic sentinel. It functions as a bullseye lantern that doesn't require oil to function. On command, the lantern floats alongside its user, shedding its light in whichever direction the user is looking.  Once per day on command, the lantern can be designated to stand guard for up to 8 hours. The lantern ceases to shed light and keeps watch over a 30-foot-radius area centered on itself. The lantern acts as the alarm spell, except it is activated only by creatures that are Small or larger, and it cannot see invisible creatures. If the lantern detects a creature, it notifies the user that commanded the lantern with a mental alarm, waking the user if necessary. Once the lantern notifies its user, it shines its light on the intruder until commanded to stop.<br><p><b>Base Item:</b> </p><h3><b>Requirements</b></h3><p>Craft Wondrous Item, alarm, light, mage's faithful hound, unseen servant</p><h3><b>Source: </b></h3>Blood Of Shadows",
      "unidentified": ""
    },
    "tags": [],
    "quantity": 1,
    "weight": {
      "value": 2
    },
    "price": 2500,
    "size": "med",
    "equipped": true,
    "resizing": false,
    "identified": true,
    "hp": {
      "max": 10,
      "value": 10
    },
    "broken": false,
    "hardness": 0,
    "carried": true,
    "unidentified": {
      "price": 0,
      "name": ""
    },
    "cl": 9,
    "aura": {
      "custom": true,
      "school": "abjuration and conjuration"
    },
    "changes": [],
    "changeFlags": {
      "loseDexToAC": false,
      "noEncumbrance": false,
      "mediumArmorFullSpeed": false,
      "heavyArmorFullSpeed": false
    },
    "contextNotes": [],
    "actions": [],
    "uses": {
      "per": null,
      "value": 0,
      "maxFormula": "",
      "autoDeductChargesCost": "1"
    },
    "attackNotes": [],
    "effectNotes": [],
    "links": {
      "children": [],
      "charges": []
    },
    "tag": "faithfulLantern",
    "useCustomTag": false,
    "flags": {
      "boolean": {},
      "dictionary": {}
    },
    "scriptCalls": [],
    "masterwork": false,
    "enh": null,
    "proficient": true,
    "held": "normal",
    "subType": "wondrous",
    "baseTypes": [],
    "equipmentSubtype": "lightArmor",
    "armor": {
      "value": 0,
      "dex": null,
      "acp": 0,
      "enh": 0
    },
    "spellFailure": 0,
    "slot": "slotless",
    "showInQuickbar": false
  },
  "ownership": {
    "default": 0
  },
  "_stats": {
    "systemId": "pf1",
    "systemVersion": "9.1",
    "coreVersion": "10.291",
    "createdTime": 1665428406853,
    "modifiedTime": 1689798001365,
    "lastModifiedBy": "ppv91YxratjWnkJi"
  },
  "effects": [],
  "folder": null,
  "sort": 0,
  "flags": {},
  "_key": "!items!Vb7bW3H1pcUpd6aA"
}