{
  "_id": "Jnk0HMr9Z3Aboy4T",
  "name": "Flask of Endless Sake",
  "type": "equipment",
  "img": "icons/svg/item-bag.svg",
  "system": {
    "description": {
      "value": "<h2></b>Description</b></h2></p><p>This simple ceramic flask looks like any other normal container for serving sake, or rice wine. If the flask's silver stopper is removed and the command word spoken, up to 1 gallon of sake can be poured from the flask per round. In addition, once per day, a character can drink directly from the flask to gain the effects of a potion, determined randomly. Roll 1d6 on the following table to determine the type of potion.  d6 Roll Potion type  1 heroism  2 cure moderate wounds  3 enlarge person  4 reduce person  5 lesser restoration  6 rage  This potion cannot be poured out or saved for later use; it must be drunk, and the potion's effects take place immediately.<br><p><b>Base Item:</b> </p><h3><b>Requirements</b></h3><p>Brew Potion, Craft Wondrous Item, create water, cure moderate wounds, enlarge person, heroism, lesser restoration, rage, reduce person</p><h3><b>Source: </b></h3>AP 52",
      "unidentified": ""
    },
    "tags": [],
    "quantity": 1,
    "weight": {
      "value": 1
    },
    "price": 4000,
    "size": "med",
    "equipped": true,
    "resizing": false,
    "identified": true,
    "hp": {
      "max": 10,
      "value": 10
    },
    "broken": false,
    "hardness": 0,
    "carried": true,
    "unidentified": {
      "price": 0,
      "name": ""
    },
    "cl": 5,
    "aura": {
      "custom": true,
      "school": "enchantment"
    },
    "changes": [],
    "changeFlags": {
      "loseDexToAC": false,
      "noEncumbrance": false,
      "mediumArmorFullSpeed": false,
      "heavyArmorFullSpeed": false
    },
    "contextNotes": [],
    "actions": [],
    "uses": {
      "per": null,
      "value": 0,
      "maxFormula": "",
      "autoDeductChargesCost": "1"
    },
    "attackNotes": [],
    "effectNotes": [],
    "links": {
      "children": [],
      "charges": []
    },
    "tag": "flaskOfEndlessSake",
    "useCustomTag": false,
    "flags": {
      "boolean": {},
      "dictionary": {}
    },
    "scriptCalls": [],
    "masterwork": false,
    "enh": null,
    "proficient": true,
    "held": "normal",
    "subType": "wondrous",
    "baseTypes": [],
    "equipmentSubtype": "lightArmor",
    "armor": {
      "value": 0,
      "dex": null,
      "acp": 0,
      "enh": 0
    },
    "spellFailure": 0,
    "slot": "slotless",
    "showInQuickbar": false
  },
  "ownership": {
    "default": 0
  },
  "_stats": {
    "systemId": "pf1",
    "systemVersion": "9.1",
    "coreVersion": "10.291",
    "createdTime": 1665428405522,
    "modifiedTime": 1689797993733,
    "lastModifiedBy": "ppv91YxratjWnkJi"
  },
  "effects": [],
  "folder": null,
  "sort": 0,
  "flags": {},
  "_key": "!items!Jnk0HMr9Z3Aboy4T"
}