{
  "_id": "81CFDxpsD0SdHOY6",
  "name": "Fortifying Leeches",
  "type": "equipment",
  "img": "icons/svg/item-bag.svg",
  "system": {
    "description": {
      "value": "<h2></b>Description</b></h2></p><p>This ornate glass jar is filled with greenish fluid and the slick, writhing forms of many large black leeches. Though bloatmages often use leeches to help them regulate their overloaded circulatory systems, this particular batch adds additional benefits usable by anyone. To attach this jar's leeches, the user merely needs to open the jar and upend the contents over his head and torso as a standard action-the leeches do the rest, attaching to the user's body almost instantaneously. These leeches impart a +2 enhancement bonus to Constitution, but also a -4 penalty on Diplomacy checks against creatures that might find such a practice grotesque (such as most civilized races). Once applied, the leeches persist for 8 hours before they die. The leeches are immediately destroyed if the wearer takes more than 20 points of damage from any area-effect energy damage. The jar automatically refills with a new batch of fortifying leeches after 24 hours.  While the fortifying leeches are applied, a bloatmage immediately regains 2 bonus points to her blood pool-this cannot increase her blood points to higher than her normal maximum. In addition, whenever the bloatmage uses her bloat ability to gain extra blood points, she may roll her bloat dice twice and take the more favorable result.<br><p><b>Base Item:</b> </p><h3><b>Requirements</b></h3><p>Craft Wondrous Item, bear's endurance</p><h3><b>Source: </b></h3>AP 63",
      "unidentified": ""
    },
    "tags": [],
    "quantity": 1,
    "weight": {
      "value": 2
    },
    "price": 6000,
    "size": "med",
    "equipped": true,
    "resizing": false,
    "identified": true,
    "hp": {
      "max": 10,
      "value": 10
    },
    "broken": false,
    "hardness": 0,
    "carried": true,
    "unidentified": {
      "price": 0,
      "name": ""
    },
    "cl": 3,
    "aura": {
      "custom": true,
      "school": "transmutation"
    },
    "changes": [],
    "changeFlags": {
      "loseDexToAC": false,
      "noEncumbrance": false,
      "mediumArmorFullSpeed": false,
      "heavyArmorFullSpeed": false
    },
    "contextNotes": [],
    "actions": [],
    "uses": {
      "per": null,
      "value": 0,
      "maxFormula": "",
      "autoDeductChargesCost": "1"
    },
    "attackNotes": [],
    "effectNotes": [],
    "links": {
      "children": [],
      "charges": []
    },
    "tag": "fortifyingLeeches",
    "useCustomTag": false,
    "flags": {
      "boolean": {},
      "dictionary": {}
    },
    "scriptCalls": [],
    "masterwork": false,
    "enh": null,
    "proficient": true,
    "held": "normal",
    "subType": "wondrous",
    "baseTypes": [],
    "equipmentSubtype": "lightArmor",
    "armor": {
      "value": 0,
      "dex": null,
      "acp": 0,
      "enh": 0
    },
    "spellFailure": 0,
    "slot": "slotless",
    "showInQuickbar": false
  },
  "ownership": {
    "default": 0
  },
  "_stats": {
    "systemId": "pf1",
    "systemVersion": "9.1",
    "coreVersion": "10.291",
    "createdTime": 1665428404171,
    "modifiedTime": 1689797987000,
    "lastModifiedBy": "ppv91YxratjWnkJi"
  },
  "effects": [],
  "folder": null,
  "sort": 0,
  "flags": {},
  "_key": "!items!81CFDxpsD0SdHOY6"
}