{
  "_id": "NcpeZaQdHieaxZLS",
  "name": "Frontovik's Gas Mask",
  "type": "equipment",
  "img": "icons/svg/item-bag.svg",
  "system": {
    "description": {
      "value": "<h2></b>Description</b></h2></p><p>A frontovik's gas mask has the appearance of a typical Zelinsky-Kummant gas mask used by the Russian army: a rubberized cloth bag worn over the face, with two thick glass eyepieces and a rectangular filter canister (see page 67). Named for the frontovik, the typical combat-hardened veteran of the front line, a frontovik's gas mask allows its wearer to breathe freely, even underwater or in a vacuum, as well as making its wearer immune to harmful gases and vapors, including inhaled diseases, poisons, and magic spells such as cloudkill and stinking cloud. In addition, the wearer can see through magical and normal clouds, fogs, mists, and similar effects that grant concealment, but only so long as the wearer is within the area of such concealment. A frontovik's gas mask does not grant any other kind of vision (such as darkvision or low-light vision). Wearing a gas mask imposes a -2 penalty on hearing- and sight-based Perception checks.<br><p><b>Base Item:</b> </p><h3><b>Requirements</b></h3><p>Craft Wondrous Item, darkvision, fog cloud, life bubbleAPG</p><h3><b>Source: </b></h3>AP 71",
      "unidentified": ""
    },
    "tags": [],
    "quantity": 1,
    "weight": {
      "value": 2
    },
    "price": 17000,
    "size": "med",
    "equipped": true,
    "resizing": false,
    "identified": true,
    "hp": {
      "max": 10,
      "value": 10
    },
    "broken": false,
    "hardness": 0,
    "carried": true,
    "unidentified": {
      "price": 0,
      "name": ""
    },
    "cl": 7,
    "aura": {
      "custom": true,
      "school": "abjuration"
    },
    "changes": [],
    "changeFlags": {
      "loseDexToAC": false,
      "noEncumbrance": false,
      "mediumArmorFullSpeed": false,
      "heavyArmorFullSpeed": false
    },
    "contextNotes": [],
    "actions": [],
    "uses": {
      "per": null,
      "value": 0,
      "maxFormula": "",
      "autoDeductChargesCost": "1"
    },
    "attackNotes": [],
    "effectNotes": [],
    "links": {
      "children": [],
      "charges": []
    },
    "tag": "frontoviksGasMask",
    "useCustomTag": false,
    "flags": {
      "boolean": {},
      "dictionary": {}
    },
    "scriptCalls": [],
    "masterwork": false,
    "enh": null,
    "proficient": true,
    "held": "normal",
    "subType": "wondrous",
    "baseTypes": [],
    "equipmentSubtype": "lightArmor",
    "armor": {
      "value": 0,
      "dex": null,
      "acp": 0,
      "enh": 0
    },
    "spellFailure": 0,
    "slot": "head",
    "showInQuickbar": false
  },
  "ownership": {
    "default": 0
  },
  "_stats": {
    "systemId": "pf1",
    "systemVersion": "9.1",
    "coreVersion": "10.291",
    "createdTime": 1665428406087,
    "modifiedTime": 1689797996116,
    "lastModifiedBy": "ppv91YxratjWnkJi"
  },
  "effects": [],
  "folder": null,
  "sort": 0,
  "flags": {},
  "_key": "!items!NcpeZaQdHieaxZLS"
}