{
  "_id": "hsa7LZl6OFdGW0Ph",
  "name": "Gauntlets Of Twisting Vines",
  "type": "equipment",
  "img": "icons/svg/item-bag.svg",
  "system": {
    "description": {
      "value": "<h2></b>Description</b></h2></p><p>These wrist wraps are actually dark, thorny vines that constantly move and twist around the wearer's hands of their own accord. The wearer gains a +2 circumstance bonus on combat maneuver checks to disarm, grapple, and stealAPG. Once per day when the wearer successfully pins a foe with a grapple check, the vines can move off the wearer (ending the circumstance bonus on combat maneuver checks), envelop the target, and tie it up. A tied-up victim can escape the vines by succeeding at a combat maneuver or Escape Artist check with a DC equal to the result of the combat maneuver check that pinned the victim. The character who was wearing the gauntlets when they were used to envelop a target can remove them from the target as a move action. Any other creature must succeed at a combat maneuver or Strength check at the same DC to pry the gauntlets loose of an enveloped target.<br><p><b>Base Item:</b> </p><h3><b>Requirements</b></h3><p>Craft Wondrous Item, Improved Grapple, entangle</p><h3><b>Source: </b></h3>Heroes Of The Wild",
      "unidentified": ""
    },
    "tags": [],
    "quantity": 1,
    "weight": {
      "value": 2
    },
    "price": 5000,
    "size": "med",
    "equipped": true,
    "resizing": false,
    "identified": true,
    "hp": {
      "max": 10,
      "value": 10
    },
    "broken": false,
    "hardness": 0,
    "carried": true,
    "unidentified": {
      "price": 0,
      "name": ""
    },
    "cl": 3,
    "aura": {
      "custom": true,
      "school": "transmutation"
    },
    "changes": [],
    "changeFlags": {
      "loseDexToAC": false,
      "noEncumbrance": false,
      "mediumArmorFullSpeed": false,
      "heavyArmorFullSpeed": false
    },
    "contextNotes": [],
    "actions": [],
    "uses": {
      "per": null,
      "value": 0,
      "maxFormula": "",
      "autoDeductChargesCost": "1"
    },
    "attackNotes": [],
    "effectNotes": [],
    "links": {
      "children": [],
      "charges": []
    },
    "tag": "gauntletsOfTwistingVines",
    "useCustomTag": false,
    "flags": {
      "boolean": {},
      "dictionary": {}
    },
    "scriptCalls": [],
    "masterwork": false,
    "enh": null,
    "proficient": true,
    "held": "normal",
    "subType": "wondrous",
    "baseTypes": [],
    "equipmentSubtype": "lightArmor",
    "armor": {
      "value": 0,
      "dex": null,
      "acp": 0,
      "enh": 0
    },
    "spellFailure": 0,
    "slot": "hands",
    "showInQuickbar": false
  },
  "ownership": {
    "default": 0
  },
  "_stats": {
    "systemId": "pf1",
    "systemVersion": "9.1",
    "coreVersion": "10.291",
    "createdTime": 1665428408438,
    "modifiedTime": 1689798010070,
    "lastModifiedBy": "ppv91YxratjWnkJi"
  },
  "effects": [],
  "folder": null,
  "sort": 0,
  "flags": {},
  "_key": "!items!hsa7LZl6OFdGW0Ph"
}