{
  "_id": "VtWzNFrVrYCM4RWe",
  "name": "Gauntlets Of The Unchained",
  "type": "equipment",
  "img": "icons/svg/item-bag.svg",
  "system": {
    "description": {
      "value": "<h2></b>Description</b></h2></p><p>Said to have first been forged centuries ago by a human master blacksmith who escaped from drow slavers in Sekamina, these shimmering silver gauntlets remind the wearer that she is always shackled to the deeds of her past, but remains unfettered with the promise of a freer future. The wearer of a pair of gauntlets of the unchained may only wield weapons two-handed-the magical chain that binds the gauntlets makes it effectively impossible to wield or hold more than one item at a time. By tapping the gauntlets' manacles together as a swift action, the wearer can cause damage dealt by her wielded weapon to become lawful-aligned and thus overcome the corresponding damage reduction. This effect lasts for up to 7 rounds per day. This duration need not be consecutive, but it must be spent in 1-round increments. By breaking the magical chain that connects the gauntlets as a standard action, the wearer can cause her wielded weapon to gain the anarchic weapon special ability for 7 minutes. Once broken, the chain between the gauntlets is shattered forever,  and the gauntlets become nonmagical.<br><p><b>Base Item:</b> </p><h3><b>Requirements</b></h3><p>Craft Wondrous Item, chaos hammer, order's wrath, creator must be neutral</p><h3><b>Source: </b></h3>Champions Of Balance",
      "unidentified": ""
    },
    "tags": [],
    "quantity": 1,
    "weight": {
      "value": 6
    },
    "price": 13200,
    "size": "med",
    "equipped": true,
    "resizing": false,
    "identified": true,
    "hp": {
      "max": 10,
      "value": 10
    },
    "broken": false,
    "hardness": 0,
    "carried": true,
    "unidentified": {
      "price": 0,
      "name": ""
    },
    "cl": 7,
    "aura": {
      "custom": true,
      "school": "evocation"
    },
    "changes": [],
    "changeFlags": {
      "loseDexToAC": false,
      "noEncumbrance": false,
      "mediumArmorFullSpeed": false,
      "heavyArmorFullSpeed": false
    },
    "contextNotes": [],
    "actions": [],
    "uses": {
      "per": null,
      "value": 0,
      "maxFormula": "",
      "autoDeductChargesCost": "1"
    },
    "attackNotes": [],
    "effectNotes": [],
    "links": {
      "children": [],
      "charges": []
    },
    "tag": "gauntletsOfTheUnchained",
    "useCustomTag": false,
    "flags": {
      "boolean": {},
      "dictionary": {}
    },
    "scriptCalls": [],
    "masterwork": false,
    "enh": null,
    "proficient": true,
    "held": "normal",
    "subType": "wondrous",
    "baseTypes": [],
    "equipmentSubtype": "lightArmor",
    "armor": {
      "value": 0,
      "dex": null,
      "acp": 0,
      "enh": 0
    },
    "spellFailure": 0,
    "slot": "hands",
    "showInQuickbar": false
  },
  "ownership": {
    "default": 0
  },
  "_stats": {
    "systemId": "pf1",
    "systemVersion": "9.1",
    "coreVersion": "10.291",
    "createdTime": 1665428407160,
    "modifiedTime": 1689798002102,
    "lastModifiedBy": "ppv91YxratjWnkJi"
  },
  "effects": [],
  "folder": null,
  "sort": 0,
  "flags": {},
  "_key": "!items!VtWzNFrVrYCM4RWe"
}