{
  "_id": "CtZ0M9agoXncKGt0",
  "name": "Gem Of Brightness",
  "type": "equipment",
  "img": "icons/svg/item-bag.svg",
  "system": {
    "description": {
      "value": "<h2></b>Description</b></h2></p><p>This crystal appears to be a long, rough prism. Upon utterance of a command word, though, the gem's facets suddenly grow highly polished as the crystal emits bright light of one of three sorts.   One command word causes the gem to shed light as a hooded lantern. This use of the gem does not expend any charges, and it continues to emit light until this command word is spoken a second time to extinguish the illumination.   Another command word causes the gem of brightness to send out a bright ray 1 foot in diameter and 50 feet long. This strikes as a ranged touch attack, and any creature struck by this beam is blinded for 1d4 rounds unless it makes a DC 14 Fortitude save. This use of the gem expends 1 charge.   The third command word causes the gem to flare in a blinding flash of light that fills a 30-foot cone. Although this glare lasts but a moment, any creature within the cone must make a DC 14 Fortitude save or be blinded for 1d4 rounds. This use expends 5 charges.   A newly created gem of brightness has 50 charges. When all its charges are expended, the gem becomes nonmagical and its facets grow cloudy with a fine network of cracks.<br><p><b>Base Item:</b> </p><h3><b>Requirements</b></h3><p>Craft Wondrous Item, daylight</p><h3><b>Source: </b></h3>Ultimate Equipment",
      "unidentified": ""
    },
    "tags": [],
    "quantity": 1,
    "weight": {
      "value": 0
    },
    "price": 13000,
    "size": "med",
    "equipped": true,
    "resizing": false,
    "identified": true,
    "hp": {
      "max": 10,
      "value": 10
    },
    "broken": false,
    "hardness": 0,
    "carried": true,
    "unidentified": {
      "price": 0,
      "name": ""
    },
    "cl": 6,
    "aura": {
      "custom": true,
      "school": "evocation"
    },
    "changes": [],
    "changeFlags": {
      "loseDexToAC": false,
      "noEncumbrance": false,
      "mediumArmorFullSpeed": false,
      "heavyArmorFullSpeed": false
    },
    "contextNotes": [],
    "actions": [],
    "uses": {
      "per": null,
      "value": 0,
      "maxFormula": "",
      "autoDeductChargesCost": "1"
    },
    "attackNotes": [],
    "effectNotes": [],
    "links": {
      "children": [],
      "charges": []
    },
    "tag": "gemOfBrightness",
    "useCustomTag": false,
    "flags": {
      "boolean": {},
      "dictionary": {}
    },
    "scriptCalls": [],
    "masterwork": false,
    "enh": null,
    "proficient": true,
    "held": "normal",
    "subType": "wondrous",
    "baseTypes": [],
    "equipmentSubtype": "lightArmor",
    "armor": {
      "value": 0,
      "dex": null,
      "acp": 0,
      "enh": 0
    },
    "spellFailure": 0,
    "slot": "slotless",
    "showInQuickbar": false
  },
  "ownership": {
    "default": 0
  },
  "_stats": {
    "systemId": "pf1",
    "systemVersion": "9.1",
    "coreVersion": "10.291",
    "createdTime": 1665428404689,
    "modifiedTime": 1689797989912,
    "lastModifiedBy": "ppv91YxratjWnkJi"
  },
  "effects": [],
  "folder": null,
  "sort": 0,
  "flags": {},
  "_key": "!items!CtZ0M9agoXncKGt0"
}