{
  "_id": "RPHd7cfcBLmENKFN",
  "name": "Greathelm Of The Mammoth Lord",
  "type": "equipment",
  "img": "icons/svg/item-bag.svg",
  "system": {
    "description": {
      "value": "<h2></b>Description</b></h2></p><p>This hide helm is a powerful variant of the more common helm of the Mammoth LordUE. Like its lesser incarnation, a greathelm of the Mammoth Lord is set with plates of ivory carved with runes, with a pair of tusks curving down either side of the wearer's face for cheek guards. The helm's tusks provide a gore attack dealing 1d8 points of damage for a Medium wearer (or 1d6 points of damage for a Small wearer) and count as magic and cold for the purpose of overcoming damage reduction. The greathelm of the Mammoth Lord also protects the wearer from cold environments as per endure elements. Furthermore, it provides a +5 competence bonus on Handle Animal, Ride, and wild empathy checks with elephants, mammoths, mastodons, and other elephant-like creatures. On command, the wearer can use detect animals or plants or speak with animals, but only to detect or communicate with elephant-like creatures. Once per day, the wearer can transform into a mammoth (treat as an mastodon) as beast shape III.<br><p><b>Base Item:</b> </p><h3><b>Requirements</b></h3><p>Craft Wondrous Item, beast shape III, charm animal, detect animals or plants, endure elements, speak with animals, creator must have 5 ranks in Handle Animal and Ride</p><h3><b>Source: </b></h3>Adventurer's Guide",
      "unidentified": ""
    },
    "tags": [],
    "quantity": 1,
    "weight": {
      "value": 5
    },
    "price": 24700,
    "size": "med",
    "equipped": true,
    "resizing": false,
    "identified": true,
    "hp": {
      "max": 10,
      "value": 10
    },
    "broken": false,
    "hardness": 0,
    "carried": true,
    "unidentified": {
      "price": 0,
      "name": ""
    },
    "cl": 9,
    "aura": {
      "custom": true,
      "school": "transmutation"
    },
    "changes": [],
    "changeFlags": {
      "loseDexToAC": false,
      "noEncumbrance": false,
      "mediumArmorFullSpeed": false,
      "heavyArmorFullSpeed": false
    },
    "contextNotes": [],
    "actions": [],
    "uses": {
      "per": null,
      "value": 0,
      "maxFormula": "",
      "autoDeductChargesCost": "1"
    },
    "attackNotes": [],
    "effectNotes": [],
    "links": {
      "children": [],
      "charges": []
    },
    "tag": "greathelmOfTheMammothLord",
    "useCustomTag": false,
    "flags": {
      "boolean": {},
      "dictionary": {}
    },
    "scriptCalls": [],
    "masterwork": false,
    "enh": null,
    "proficient": true,
    "held": "normal",
    "subType": "wondrous",
    "baseTypes": [],
    "equipmentSubtype": "lightArmor",
    "armor": {
      "value": 0,
      "dex": null,
      "acp": 0,
      "enh": 0
    },
    "spellFailure": 0,
    "slot": "head",
    "showInQuickbar": false
  },
  "ownership": {
    "default": 0
  },
  "_stats": {
    "systemId": "pf1",
    "systemVersion": "9.1",
    "coreVersion": "10.291",
    "createdTime": 1665428406634,
    "modifiedTime": 1689797999339,
    "lastModifiedBy": "ppv91YxratjWnkJi"
  },
  "effects": [],
  "folder": null,
  "sort": 0,
  "flags": {},
  "_key": "!items!RPHd7cfcBLmENKFN"
}