{
  "_id": "OlgSwvUeHCQpYceS",
  "name": "Gunfighter's Poncho",
  "type": "equipment",
  "img": "icons/svg/item-bag.svg",
  "system": {
    "description": {
      "value": "<h2></b>Description</b></h2></p><p>The abjurations woven into this woolen poncho not only defend against gunfire, but also insulate the wearer from dangerous magic. The wearer gains a +2 luck bonus to touch AC. Once per day as an immediate action, the wearer can negate a single ranged touched attack targeted at him, but cannot use this ability if the attack is a confirmed critical hit. When the wearer uses this ability, he must fall prone.<br><p><b>Base Item:</b> </p><h3><b>Requirements</b></h3><p>Craft Wondrous Item, bullet shield (Ultimate Combat)</p><h3><b>Source: </b></h3>Ultimate Equipment",
      "unidentified": ""
    },
    "tags": [],
    "quantity": 1,
    "weight": {
      "value": 1
    },
    "price": 14000,
    "size": "med",
    "equipped": true,
    "resizing": false,
    "identified": true,
    "hp": {
      "max": 10,
      "value": 10
    },
    "broken": false,
    "hardness": 0,
    "carried": true,
    "unidentified": {
      "price": 0,
      "name": ""
    },
    "cl": 6,
    "aura": {
      "custom": true,
      "school": "abjuration"
    },
    "changes": [],
    "changeFlags": {
      "loseDexToAC": false,
      "noEncumbrance": false,
      "mediumArmorFullSpeed": false,
      "heavyArmorFullSpeed": false
    },
    "contextNotes": [],
    "actions": [],
    "uses": {
      "per": null,
      "value": 0,
      "maxFormula": "",
      "autoDeductChargesCost": "1"
    },
    "attackNotes": [],
    "effectNotes": [],
    "links": {
      "children": [],
      "charges": []
    },
    "tag": "gunfightersPoncho",
    "useCustomTag": false,
    "flags": {
      "boolean": {},
      "dictionary": {}
    },
    "scriptCalls": [],
    "masterwork": false,
    "enh": null,
    "proficient": true,
    "held": "normal",
    "subType": "wondrous",
    "baseTypes": [],
    "equipmentSubtype": "lightArmor",
    "armor": {
      "value": 0,
      "dex": null,
      "acp": 0,
      "enh": 0
    },
    "spellFailure": 0,
    "slot": "shoulders",
    "showInQuickbar": false
  },
  "ownership": {
    "default": 0
  },
  "_stats": {
    "systemId": "pf1",
    "systemVersion": "9.1",
    "coreVersion": "10.291",
    "createdTime": 1665428406158,
    "modifiedTime": 1689797996624,
    "lastModifiedBy": "ppv91YxratjWnkJi"
  },
  "effects": [],
  "folder": null,
  "sort": 0,
  "flags": {},
  "_key": "!items!OlgSwvUeHCQpYceS"
}