{
  "_id": "6SsEiGECdA7l0puD",
  "name": "Halo Of Menace",
  "type": "equipment",
  "img": "icons/svg/item-bag.svg",
  "system": {
    "description": {
      "value": "<h2></b>Description</b></h2></p><p>When placed over the head, this halo of shimmering polished steel floats above it, though it still takes up the head slot. The halo constantly radiates a 20-foot-radius aura from its wearer. Any hostile creature within the aura must succeed at a DC 20 Will save or take a -2 penalty on attack rolls, on saving throws, and to AC for the next 24 hours or until it hits the wearer with an attack or damages it with a spell, spell-like ability, or supernatural ability. Chaotic creatures take a -2 penalty on this saving throw. A creature that has resisted or broken the effect of the halo of menace cannot be affected by the same wearer's aura for 24 hours. The aura is a mind-affecting effect.<br><p><b>Base Item:</b> </p><h3><b>Requirements</b></h3><p>Craft Wondrous Item, order's wrath, creator must be an aasimar or an archon</p><h3><b>Source: </b></h3>Ultimate Equipment",
      "unidentified": ""
    },
    "tags": [],
    "quantity": 1,
    "weight": {
      "value": 1
    },
    "price": 84000,
    "size": "med",
    "equipped": true,
    "resizing": false,
    "identified": true,
    "hp": {
      "max": 10,
      "value": 10
    },
    "broken": false,
    "hardness": 0,
    "carried": true,
    "unidentified": {
      "price": 0,
      "name": ""
    },
    "cl": 9,
    "aura": {
      "custom": true,
      "school": "enchantment"
    },
    "changes": [],
    "changeFlags": {
      "loseDexToAC": false,
      "noEncumbrance": false,
      "mediumArmorFullSpeed": false,
      "heavyArmorFullSpeed": false
    },
    "contextNotes": [],
    "actions": [],
    "uses": {
      "per": null,
      "value": 0,
      "maxFormula": "",
      "autoDeductChargesCost": "1"
    },
    "attackNotes": [],
    "effectNotes": [],
    "links": {
      "children": [],
      "charges": []
    },
    "tag": "haloOfMenace",
    "useCustomTag": false,
    "flags": {
      "boolean": {},
      "dictionary": {}
    },
    "scriptCalls": [],
    "masterwork": false,
    "enh": null,
    "proficient": true,
    "held": "normal",
    "subType": "wondrous",
    "baseTypes": [],
    "equipmentSubtype": "lightArmor",
    "armor": {
      "value": 0,
      "dex": null,
      "acp": 0,
      "enh": 0
    },
    "spellFailure": 0,
    "slot": "head",
    "showInQuickbar": false
  },
  "ownership": {
    "default": 0
  },
  "_stats": {
    "systemId": "pf1",
    "systemVersion": "9.1",
    "coreVersion": "10.291",
    "createdTime": 1665428404070,
    "modifiedTime": 1689797985472,
    "lastModifiedBy": "ppv91YxratjWnkJi"
  },
  "effects": [],
  "folder": null,
  "sort": 0,
  "flags": {},
  "_key": "!items!6SsEiGECdA7l0puD"
}