{
  "_id": "a1jQyxud77fcxKE5",
  "name": "Hamatulatsu Robe",
  "type": "equipment",
  "img": "icons/svg/item-bag.svg",
  "system": {
    "description": {
      "value": "<h2></b>Description</b></h2></p><p>Made of exquisite crimson silk, this variant monk's robe is embroidered with golden pentagrams and other fiendish symbols. If the wearer is evil and has levels in monk, her AC bonus and unarmed damage are treated as if she were a monk of 5 levels higher (maximum 20).  If the wearer is evil but not a monk, she gains the AC bonus and unarmed damage of a 5th-level monk (although she doesn't add her Wisdom bonus to her AC). This AC bonus otherwise functions just like the monk's AC bonus.  If the robe is donned by a character with the Hamatulatsu feat (Pathfinder Campaign Setting: The Inner Sea World Guide 287), the duration of the sickened effect increases to 2 rounds. If the wearer doesn't have the Hamatulatsu feat, she gains this feat while wearing the robes, but gains no further benefits to that ability.<br><p><b>Base Item:</b> </p><h3><b>Requirements</b></h3><p>Craft Wondrous Item, HamatulatsuISWG, righteous might or  transformation, unholy blight</p><h3><b>Source: </b></h3>Inner Sea Combat",
      "unidentified": ""
    },
    "tags": [],
    "quantity": 1,
    "weight": {
      "value": 1
    },
    "price": 14000,
    "size": "med",
    "equipped": true,
    "resizing": false,
    "identified": true,
    "hp": {
      "max": 10,
      "value": 10
    },
    "broken": false,
    "hardness": 0,
    "carried": true,
    "unidentified": {
      "price": 0,
      "name": ""
    },
    "cl": 10,
    "aura": {
      "custom": true,
      "school": "evocation and transmutation"
    },
    "changes": [],
    "changeFlags": {
      "loseDexToAC": false,
      "noEncumbrance": false,
      "mediumArmorFullSpeed": false,
      "heavyArmorFullSpeed": false
    },
    "contextNotes": [],
    "actions": [],
    "uses": {
      "per": null,
      "value": 0,
      "maxFormula": "",
      "autoDeductChargesCost": "1"
    },
    "attackNotes": [],
    "effectNotes": [],
    "links": {
      "children": [],
      "charges": []
    },
    "tag": "hamatulatsuRobe",
    "useCustomTag": false,
    "flags": {
      "boolean": {},
      "dictionary": {}
    },
    "scriptCalls": [],
    "masterwork": false,
    "enh": null,
    "proficient": true,
    "held": "normal",
    "subType": "wondrous",
    "baseTypes": [],
    "equipmentSubtype": "lightArmor",
    "armor": {
      "value": 0,
      "dex": null,
      "acp": 0,
      "enh": 0
    },
    "spellFailure": 0,
    "slot": "body",
    "showInQuickbar": false
  },
  "ownership": {
    "default": 0
  },
  "_stats": {
    "systemId": "pf1",
    "systemVersion": "9.1",
    "coreVersion": "10.291",
    "createdTime": 1665428407376,
    "modifiedTime": 1689798004333,
    "lastModifiedBy": "ppv91YxratjWnkJi"
  },
  "effects": [],
  "folder": null,
  "sort": 0,
  "flags": {},
  "_key": "!items!a1jQyxud77fcxKE5"
}