{
  "_id": "GHTQMkAHK2fQ9PSy",
  "name": "Harp of Storms",
  "type": "equipment",
  "img": "icons/svg/item-bag.svg",
  "system": {
    "description": {
      "value": "<h2></b>Description</b></h2></p><p>This small harp is carved from whale ivory, and its frame is filigreed with delicate gold patterns depicting winds and clouds. Up to three times per day as a standard action, you can use a harp of storms to surround yourself with an aura of brisk wind that grants you a 20% miss chance against all ranged attacks. This wind cloak effect lasts for 1 minute. At any time during that minute, you may strike additional notes on the harp of storms in order to produce one of the following three effects.  • Air Walk: You cause the winds to lift you off the ground, granting you the effects of an air walk spell for 1 round. This is normally a move action, but if you succeed at a DC 15 Perform (strings) check, it is a swift action.  • Gust of Wind: You can direct the winds surrounding you to duplicate the effects of a gust of wind spell. This is a standard action.  • Lightning Strike: As a standard action, make a Perform (strings) check. You cause a bolt of lightning to strike a single foe within 30 feet, dealing an amount of electricity damage equal to the result of your Perform (strings) check. The target gets a DC 15 Reflex save to halve the damage caused by this lightning strike.<br><p><b>Base Item:</b> </p><h3><b>Requirements</b></h3><p>Craft Wondrous Item, air walk, call lightning, gust of wind</p><h3><b>Source: </b></h3>Lands Of The Linnorm Kings",
      "unidentified": ""
    },
    "tags": [],
    "quantity": 1,
    "weight": {
      "value": 2
    },
    "price": 22000,
    "size": "med",
    "equipped": true,
    "resizing": false,
    "identified": true,
    "hp": {
      "max": 10,
      "value": 10
    },
    "broken": false,
    "hardness": 0,
    "carried": true,
    "unidentified": {
      "price": 0,
      "name": ""
    },
    "cl": 7,
    "aura": {
      "custom": true,
      "school": "evocation"
    },
    "changes": [],
    "changeFlags": {
      "loseDexToAC": false,
      "noEncumbrance": false,
      "mediumArmorFullSpeed": false,
      "heavyArmorFullSpeed": false
    },
    "contextNotes": [],
    "actions": [],
    "uses": {
      "per": null,
      "value": 0,
      "maxFormula": "",
      "autoDeductChargesCost": "1"
    },
    "attackNotes": [],
    "effectNotes": [],
    "links": {
      "children": [],
      "charges": []
    },
    "tag": "harpOfStorms",
    "useCustomTag": false,
    "flags": {
      "boolean": {},
      "dictionary": {}
    },
    "scriptCalls": [],
    "masterwork": false,
    "enh": null,
    "proficient": true,
    "held": "normal",
    "subType": "wondrous",
    "baseTypes": [],
    "equipmentSubtype": "lightArmor",
    "armor": {
      "value": 0,
      "dex": null,
      "acp": 0,
      "enh": 0
    },
    "spellFailure": 0,
    "slot": "slotless",
    "showInQuickbar": false
  },
  "ownership": {
    "default": 0
  },
  "_stats": {
    "systemId": "pf1",
    "systemVersion": "9.1",
    "coreVersion": "10.291",
    "createdTime": 1665428405136,
    "modifiedTime": 1689797991928,
    "lastModifiedBy": "ppv91YxratjWnkJi"
  },
  "effects": [],
  "folder": null,
  "sort": 0,
  "flags": {},
  "_key": "!items!GHTQMkAHK2fQ9PSy"
}