{
  "_id": "rtHHtuHpXXAsO1bz",
  "name": "Harrow Deck Of Secret Schemes",
  "type": "equipment",
  "img": "icons/svg/item-bag.svg",
  "system": {
    "description": {
      "value": "<h2></b>Description</b></h2></p><p>Members of Absalom's prominent houses sometimes employ this variant harrow deck (Pathfinder Campaign Setting: The Inner Sea World Guide 293) to communicate covertly with their fellow schemers. The deck includes the standard 54 cards plus an additional six trump cards. The trumps cards can be removed from the deck, which can then be used to perform normal harrowings.  As a standard action, the user can hand a trump card from the deck to a willing creature. By performing a variant  harrowing that involves only the user and takes 10 minutes to complete, the user can learn the name of the most recent spell or magic item used to divine information about the trump card's recipient or learn the content of messages sent concerning the recipient within 1 mile.  Once per day, the user can speak a command word to reveal the information carried by the most recent such divination or message, as well as an identifying feature of the caster or item user. The caster or item user can negate this intrusion with a successful DC 16 Will saving throw. (If the saving throw fails and the user later casts scrying or uses a similar magical effect targeting the caster or item user, the user is treated as if he had met the target.)  The recipient of the trump card can convey a simple message of up to 25 words to the deck's user by concentrating while tearing up the card as a standard action. The next variant harrowing performed as described above reveals the message instead of its usual effect. Once all six trumps have been destroyed, the deck loses its power. A trump card can be returned to the deck instead of being used to convey a message.<br><p><b>Base Item:</b> </p><h3><b>Requirements</b></h3><p>Craft Wondrous Item, detect scrying, sending</p><h3><b>Source: </b></h3>Inner Sea Intrigue",
      "unidentified": ""
    },
    "tags": [],
    "quantity": 1,
    "weight": {
      "value": 0
    },
    "price": 34400,
    "size": "med",
    "equipped": true,
    "resizing": false,
    "identified": true,
    "hp": {
      "max": 10,
      "value": 10
    },
    "broken": false,
    "hardness": 0,
    "carried": true,
    "unidentified": {
      "price": 0,
      "name": ""
    },
    "cl": 9,
    "aura": {
      "custom": true,
      "school": "divination"
    },
    "changes": [],
    "changeFlags": {
      "loseDexToAC": false,
      "noEncumbrance": false,
      "mediumArmorFullSpeed": false,
      "heavyArmorFullSpeed": false
    },
    "contextNotes": [],
    "actions": [],
    "uses": {
      "per": null,
      "value": 0,
      "maxFormula": "",
      "autoDeductChargesCost": "1"
    },
    "attackNotes": [],
    "effectNotes": [],
    "links": {
      "children": [],
      "charges": []
    },
    "tag": "harrowDeckOfSecretSchemes",
    "useCustomTag": false,
    "flags": {
      "boolean": {},
      "dictionary": {}
    },
    "scriptCalls": [],
    "masterwork": false,
    "enh": null,
    "proficient": true,
    "held": "normal",
    "subType": "wondrous",
    "baseTypes": [],
    "equipmentSubtype": "lightArmor",
    "armor": {
      "value": 0,
      "dex": null,
      "acp": 0,
      "enh": 0
    },
    "spellFailure": 0,
    "slot": "slotless",
    "showInQuickbar": false
  },
  "ownership": {
    "default": 0
  },
  "_stats": {
    "systemId": "pf1",
    "systemVersion": "9.1",
    "coreVersion": "10.291",
    "createdTime": 1665428409706,
    "modifiedTime": 1689798017517,
    "lastModifiedBy": "ppv91YxratjWnkJi"
  },
  "effects": [],
  "folder": null,
  "sort": 0,
  "flags": {},
  "_key": "!items!rtHHtuHpXXAsO1bz"
}