{
  "_id": "Tyb8YY0c0QuuYnNB",
  "name": "Headband Of Aerial Agility +6",
  "type": "equipment",
  "img": "icons/svg/item-bag.svg",
  "system": {
    "description": {
      "value": "<h2></b>Description</b></h2></p><p>This headband is decorated with feathers from a number of colorful birds. It grants boons to flying magic, and more powerful versions grant the power of flight. The wearer of a headband of aerial agility +2 treats his caster level as if it were one level higher when casting spells or creating extracts that grant flight. A headband of aerial agility +4 gains the same benefits and, on command, grants the wearer the ability to fly (as the fly spell) three times per day. A headband of aerial agility +6 functions like a +4 version, but the headband grants the ability to use fly at will.     All versions also grant the wearer an enhancement bonus to one mental ability score (Intelligence, Wisdom, or Charisma) of +2, +4, or +6. Treat this as a temporary ability bonus for the first 24 hours the headband is worn. This bonus is chosen when the headband is created and cannot be changed. If the headband grants a bonus to Intelligence, it also grants skill ranks as a headband of vast intelligence, usually granting ranks in Fly, Acrobatics, or Knowledge (planes).<br><p><b>Base Item:</b> </p><h3><b>Requirements</b></h3><p>Craft Wondrous Item, Extend Spell, fly</p><h3><b>Source: </b></h3>Ultimate Equipment",
      "unidentified": ""
    },
    "tags": [],
    "quantity": 1,
    "weight": {
      "value": 0
    },
    "price": 81000,
    "size": "med",
    "equipped": true,
    "resizing": false,
    "identified": true,
    "hp": {
      "max": 10,
      "value": 10
    },
    "broken": false,
    "hardness": 0,
    "carried": true,
    "unidentified": {
      "price": 0,
      "name": ""
    },
    "cl": 8,
    "aura": {
      "custom": true,
      "school": "transmutation"
    },
    "changes": [],
    "changeFlags": {
      "loseDexToAC": false,
      "noEncumbrance": false,
      "mediumArmorFullSpeed": false,
      "heavyArmorFullSpeed": false
    },
    "contextNotes": [],
    "actions": [],
    "uses": {
      "per": null,
      "value": 0,
      "maxFormula": "",
      "autoDeductChargesCost": "1"
    },
    "attackNotes": [],
    "effectNotes": [],
    "links": {
      "children": [],
      "charges": []
    },
    "tag": "headbandOfAerialAgility6",
    "useCustomTag": false,
    "flags": {
      "boolean": {},
      "dictionary": {}
    },
    "scriptCalls": [],
    "masterwork": false,
    "enh": null,
    "proficient": true,
    "held": "normal",
    "subType": "wondrous",
    "baseTypes": [],
    "equipmentSubtype": "lightArmor",
    "armor": {
      "value": 0,
      "dex": null,
      "acp": 0,
      "enh": 0
    },
    "spellFailure": 0,
    "slot": "headband",
    "showInQuickbar": false
  },
  "ownership": {
    "default": 0
  },
  "_stats": {
    "systemId": "pf1",
    "systemVersion": "9.1",
    "coreVersion": "10.291",
    "createdTime": 1665428406777,
    "modifiedTime": 1689798000650,
    "lastModifiedBy": "ppv91YxratjWnkJi"
  },
  "effects": [],
  "folder": null,
  "sort": 0,
  "flags": {},
  "_key": "!items!Tyb8YY0c0QuuYnNB"
}