{
  "_id": "1dQvPH7Gtt6GAInA",
  "name": "Homunculus Clay",
  "type": "equipment",
  "img": "icons/svg/item-bag.svg",
  "system": {
    "description": {
      "value": "<h2></b>Description</b></h2></p><p>If a mutagen is poured onto this fist-sized lump of dry clay (a standard action that provokes attacks of opportunity), it transforms into a homunculus. It treats the alchemist who provided the mutagen as its creator. The homunculus gains the benefits of the mutagen. For every 2 points its Constitution would be increased, it instead gains 1 additional hit point per Hit Die and a +1 bonus on Fortitude saves, and the DC of its poison increases by 1. When the effect of the mutagen ends or the homunculus is slain, it reverts to a lump of clay that can be used again at a later time. If the homunculus clay is broken or destroyed in its inactive form, it is forever ruined.<br><p><b>Base Item:</b> </p><h3><b>Requirements</b></h3><p>Craft Construct, Craft Wondrous Item, animate objects, arcane eye, mending, mirror image, creator must have 2 ranks in Craft (alchemy) and 2 ranks in Craft (sculptures)</p><h3><b>Source: </b></h3>Magical Marketplace",
      "unidentified": ""
    },
    "tags": [],
    "quantity": 1,
    "weight": {
      "value": 1
    },
    "price": 4100,
    "size": "med",
    "equipped": true,
    "resizing": false,
    "identified": true,
    "hp": {
      "max": 10,
      "value": 10
    },
    "broken": false,
    "hardness": 0,
    "carried": true,
    "unidentified": {
      "price": 0,
      "name": ""
    },
    "cl": 11,
    "aura": {
      "custom": true,
      "school": "transmutation"
    },
    "changes": [],
    "changeFlags": {
      "loseDexToAC": false,
      "noEncumbrance": false,
      "mediumArmorFullSpeed": false,
      "heavyArmorFullSpeed": false
    },
    "contextNotes": [],
    "actions": [],
    "uses": {
      "per": null,
      "value": 0,
      "maxFormula": "",
      "autoDeductChargesCost": "1"
    },
    "attackNotes": [],
    "effectNotes": [],
    "links": {
      "children": [],
      "charges": []
    },
    "tag": "homunculusClay",
    "useCustomTag": false,
    "flags": {
      "boolean": {},
      "dictionary": {}
    },
    "scriptCalls": [],
    "masterwork": false,
    "enh": null,
    "proficient": true,
    "held": "normal",
    "subType": "wondrous",
    "baseTypes": [],
    "equipmentSubtype": "lightArmor",
    "armor": {
      "value": 0,
      "dex": null,
      "acp": 0,
      "enh": 0
    },
    "spellFailure": 0,
    "slot": "slotless",
    "showInQuickbar": false
  },
  "ownership": {
    "default": 0
  },
  "_stats": {
    "systemId": "pf1",
    "systemVersion": "9.1",
    "coreVersion": "10.291",
    "createdTime": 1665428403460,
    "modifiedTime": 1689797981553,
    "lastModifiedBy": "ppv91YxratjWnkJi"
  },
  "effects": [],
  "folder": null,
  "sort": 0,
  "flags": {},
  "_key": "!items!1dQvPH7Gtt6GAInA"
}