{
  "_id": "8htgvwIrPDjBzm3U",
  "name": "Hood's Flair",
  "type": "equipment",
  "img": "icons/svg/item-bag.svg",
  "system": {
    "description": {
      "value": "<h2></b>Description</b></h2></p><p>These garish tokens usually take the form of a colorful adornment for a weapon; attaching a token takes a full-round action and provokes attacks of opportunity. Once per day, when a token is tied to a ranged weapon or thrown melee weapon that the user is wielding, she can use that token's ability, as described below. If the bearer has a grit or panache pool, she can spend grit or panache points to gain one additional use per point spent. A character can benefit from only one token at a time; securing a second token to a weapon provides no additional effects. There are four types of tokens, each offering a different benefit.  Black Feather: As a swift action when she takes a 5-foot step, the user can move an additional 5 feet, for a total of 10 feet. This additional movement provokes attacks of opportunity as normal.  Brass Leaf: When the wielder user this token as a swift action, her allies don't provide cover against her ranged attacks until the end of her turn.  Silver Chime: When the user misses with a ranged attack because of concealment, as a swift action she can reroll her miss chance percentile roll to see whether she actually hits.  Teal Bead: While making a ranged attack, the user doesn't provoke attacks of opportunity.<br><p><b>Base Item:</b> </p><h3><b>Requirements</b></h3><p>Craft Wondrous Item, haste, creator must be able to use grit or panache</p><h3><b>Source: </b></h3>Villain Codex",
      "unidentified": ""
    },
    "tags": [],
    "quantity": 1,
    "weight": {
      "value": 0
    },
    "price": 2500,
    "size": "med",
    "equipped": true,
    "resizing": false,
    "identified": true,
    "hp": {
      "max": 10,
      "value": 10
    },
    "broken": false,
    "hardness": 0,
    "carried": true,
    "unidentified": {
      "price": 0,
      "name": ""
    },
    "cl": 5,
    "aura": {
      "custom": true,
      "school": "enchantment"
    },
    "changes": [],
    "changeFlags": {
      "loseDexToAC": false,
      "noEncumbrance": false,
      "mediumArmorFullSpeed": false,
      "heavyArmorFullSpeed": false
    },
    "contextNotes": [],
    "actions": [],
    "uses": {
      "per": null,
      "value": 0,
      "maxFormula": "",
      "autoDeductChargesCost": "1"
    },
    "attackNotes": [],
    "effectNotes": [],
    "links": {
      "children": [],
      "charges": []
    },
    "tag": "hoodsFlair",
    "useCustomTag": false,
    "flags": {
      "boolean": {},
      "dictionary": {}
    },
    "scriptCalls": [],
    "masterwork": false,
    "enh": null,
    "proficient": true,
    "held": "normal",
    "subType": "wondrous",
    "baseTypes": [],
    "equipmentSubtype": "lightArmor",
    "armor": {
      "value": 0,
      "dex": null,
      "acp": 0,
      "enh": 0
    },
    "spellFailure": 0,
    "slot": "slotless",
    "showInQuickbar": false
  },
  "ownership": {
    "default": 0
  },
  "_stats": {
    "systemId": "pf1",
    "systemVersion": "9.1",
    "coreVersion": "10.291",
    "createdTime": 1665428404207,
    "modifiedTime": 1689797987289,
    "lastModifiedBy": "ppv91YxratjWnkJi"
  },
  "effects": [],
  "folder": null,
  "sort": 0,
  "flags": {},
  "_key": "!items!8htgvwIrPDjBzm3U"
}