{
  "_id": "Ng9I5qk7MxwFD3yg",
  "name": "Hood Of Privacy",
  "type": "equipment",
  "img": "icons/svg/item-bag.svg",
  "system": {
    "description": {
      "value": "<h2></b>Description</b></h2></p><p>This voluminous silver hood shimmers like a scattered handful of diamonds. The hood completely covers the wearer's face, hiding his identity, but does not impair the wearer's senses. The wearer gains a +4 bonus on saving throws against mind-affecting effects. The wearer is immediately aware when someone attempts to gain information about him through a divination spell or effect, such as scrying. As a swift action, the wearer can reduce the hood's saving throw bonus by 1 to thwart such a divination attempt, providing whatever false information the wearer desires to the diviner, or even to conceal the information entirely as though the wearer were undetectable to the divination effect. The creature using the divination effect can attempt a DC 26 Will save to learn that the information is fabricated or concealed. Expended bonuses return at a rate of 1 per week.<br><p><b>Base Item:</b> </p><h3><b>Requirements</b></h3><p>Craft Wondrous Item, detect scrying, mind blank</p><h3><b>Source: </b></h3>Legacy Of The First World",
      "unidentified": ""
    },
    "tags": [],
    "quantity": 1,
    "weight": {
      "value": 1
    },
    "price": 120000,
    "size": "med",
    "equipped": true,
    "resizing": false,
    "identified": true,
    "hp": {
      "max": 10,
      "value": 10
    },
    "broken": false,
    "hardness": 0,
    "carried": true,
    "unidentified": {
      "price": 0,
      "name": ""
    },
    "cl": 15,
    "aura": {
      "custom": true,
      "school": "abjuration"
    },
    "changes": [],
    "changeFlags": {
      "loseDexToAC": false,
      "noEncumbrance": false,
      "mediumArmorFullSpeed": false,
      "heavyArmorFullSpeed": false
    },
    "contextNotes": [],
    "actions": [],
    "uses": {
      "per": null,
      "value": 0,
      "maxFormula": "",
      "autoDeductChargesCost": "1"
    },
    "attackNotes": [],
    "effectNotes": [],
    "links": {
      "children": [],
      "charges": []
    },
    "tag": "hoodOfPrivacy",
    "useCustomTag": false,
    "flags": {
      "boolean": {},
      "dictionary": {}
    },
    "scriptCalls": [],
    "masterwork": false,
    "enh": null,
    "proficient": true,
    "held": "normal",
    "subType": "wondrous",
    "baseTypes": [],
    "equipmentSubtype": "lightArmor",
    "armor": {
      "value": 0,
      "dex": null,
      "acp": 0,
      "enh": 0
    },
    "spellFailure": 0,
    "slot": "head",
    "showInQuickbar": false
  },
  "ownership": {
    "default": 0
  },
  "_stats": {
    "systemId": "pf1",
    "systemVersion": "9.1",
    "coreVersion": "10.291",
    "createdTime": 1665428406094,
    "modifiedTime": 1689797996171,
    "lastModifiedBy": "ppv91YxratjWnkJi"
  },
  "effects": [],
  "folder": null,
  "sort": 0,
  "flags": {},
  "_key": "!items!Ng9I5qk7MxwFD3yg"
}