{
  "_id": "dhAKgpfxsIt2MyB0",
  "name": "Horseshoes Of Crushing Blows +1",
  "type": "equipment",
  "img": "icons/svg/item-bag.svg",
  "system": {
    "description": {
      "value": "<h2></b>Description</b></h2></p><p>Horseshoes of crushing blows grant an enhancement bonus on attack and damage rolls made with hoof attacks; this bonus varies based on the item's price. Alternatively, as described for the amulet of mighty fists, they can grant hooves melee weapon special abilities so long as they can be applied to unarmed attacks. Horseshoes of crushing blows cannot have a modified bonus (enhancement bonus plus special ability bonus equivalents) higher than +5. Horseshoes of crushing blows are crafted as sets of four, with each shoe in the set bearing the same enhancements. All four shoes must be worn by the same animal to be effective.   Horseshoes of crushing blows may be crafted out of special materials, gaining the usual benefits. For purposes of pricing, they count as a single one-handed weapon weighing 4 pounds (for example, adamantine horseshoes of crushing blows would cost an additional 3,000 gp). The materials needed to make cold iron horseshoes of crushing blows add no extra costs in and of themselves, but enhancing cold iron horseshoes of crushing blows increases the price by the usual 2,000 gp.<br><p><b>Base Item:</b> </p><h3><b>Requirements</b></h3><p>Craft Magic Arms and Armor, Craft Wondrous Item, creator's caster level must be at least three times the horseshoes' bonus, plus any requirements of the melee weapon special abilities</p><h3><b>Source: </b></h3>Ultimate Equipment",
      "unidentified": ""
    },
    "tags": [],
    "quantity": 1,
    "weight": {
      "value": 4
    },
    "price": 4000,
    "size": "med",
    "equipped": true,
    "resizing": false,
    "identified": true,
    "hp": {
      "max": 10,
      "value": 10
    },
    "broken": false,
    "hardness": 0,
    "carried": true,
    "unidentified": {
      "price": 0,
      "name": ""
    },
    "cl": 5,
    "aura": {
      "custom": true,
      "school": "evocation"
    },
    "changes": [],
    "changeFlags": {
      "loseDexToAC": false,
      "noEncumbrance": false,
      "mediumArmorFullSpeed": false,
      "heavyArmorFullSpeed": false
    },
    "contextNotes": [],
    "actions": [],
    "uses": {
      "per": null,
      "value": 0,
      "maxFormula": "",
      "autoDeductChargesCost": "1"
    },
    "attackNotes": [],
    "effectNotes": [],
    "links": {
      "children": [],
      "charges": []
    },
    "tag": "horseshoesOfCrushingBlows1",
    "useCustomTag": false,
    "flags": {
      "boolean": {},
      "dictionary": {}
    },
    "scriptCalls": [],
    "masterwork": false,
    "enh": null,
    "proficient": true,
    "held": "normal",
    "subType": "wondrous",
    "baseTypes": [],
    "equipmentSubtype": "lightArmor",
    "armor": {
      "value": 0,
      "dex": null,
      "acp": 0,
      "enh": 0
    },
    "spellFailure": 0,
    "slot": "feet",
    "showInQuickbar": false
  },
  "ownership": {
    "default": 0
  },
  "_stats": {
    "systemId": "pf1",
    "systemVersion": "9.1",
    "coreVersion": "10.291",
    "createdTime": 1665428407889,
    "modifiedTime": 1689798007284,
    "lastModifiedBy": "ppv91YxratjWnkJi"
  },
  "effects": [],
  "folder": null,
  "sort": 0,
  "flags": {},
  "_key": "!items!dhAKgpfxsIt2MyB0"
}