{
  "_id": "EMOibQkiURIBxZP8",
  "name": "Hypnotic Wayfinder",
  "type": "equipment",
  "img": "icons/svg/item-bag.svg",
  "system": {
    "description": {
      "value": "<h2></b>Description</b></h2></p><p>This wayfinder has a mother-of-pearl casing with perfect swirls of pink and green patterns covering the face of the device. It hangs on an 8-inch-long silver fob chain that makes it twirl slightly when held aloft. In addition to the standard functions of a wayfinder (including the ability to create light), a hypnotic wayfinder can be used once per day to mesmerize weak-minded creatures that can see it. When dangled by its fob and swung gently in a pendulumlike motion, the hypnotic wayfinder seems to change colors as light plays off its pearlescent exterior. This replicates the effects of hypnotic pattern (Will DC 13 negates), centered on the hypnotic wayfinder, but creates no visible light aside from the illusory color-shifts on the wayfinder itself. The wayfinder's wielder is immune to this effect, as are sightless creatures. While the effect is active, the wielder must remain stationary or the effect immediately ends. Otherwise, the effect lasts as long as the wielder swings the wayfinder at the end of its fob (a standard action) and for 2 rounds thereafter.<br><p><b>Base Item:</b> </p><h3><b>Requirements</b></h3><p>Craft Wondrous Item, hypnotic pattern, light</p><h3><b>Source: </b></h3>Pathfinder Society Primer",
      "unidentified": ""
    },
    "tags": [],
    "quantity": 1,
    "weight": {
      "value": 1
    },
    "price": 3000,
    "size": "med",
    "equipped": true,
    "resizing": false,
    "identified": true,
    "hp": {
      "max": 10,
      "value": 10
    },
    "broken": false,
    "hardness": 0,
    "carried": true,
    "unidentified": {
      "price": 0,
      "name": ""
    },
    "cl": 5,
    "aura": {
      "custom": true,
      "school": "illusion"
    },
    "changes": [],
    "changeFlags": {
      "loseDexToAC": false,
      "noEncumbrance": false,
      "mediumArmorFullSpeed": false,
      "heavyArmorFullSpeed": false
    },
    "contextNotes": [],
    "actions": [],
    "uses": {
      "per": null,
      "value": 0,
      "maxFormula": "",
      "autoDeductChargesCost": "1"
    },
    "attackNotes": [],
    "effectNotes": [],
    "links": {
      "children": [],
      "charges": []
    },
    "tag": "hypnoticWayfinder",
    "useCustomTag": false,
    "flags": {
      "boolean": {},
      "dictionary": {}
    },
    "scriptCalls": [],
    "masterwork": false,
    "enh": null,
    "proficient": true,
    "held": "normal",
    "subType": "wondrous",
    "baseTypes": [],
    "equipmentSubtype": "lightArmor",
    "armor": {
      "value": 0,
      "dex": null,
      "acp": 0,
      "enh": 0
    },
    "spellFailure": 0,
    "slot": "slotless",
    "showInQuickbar": false
  },
  "ownership": {
    "default": 0
  },
  "_stats": {
    "systemId": "pf1",
    "systemVersion": "9.1",
    "coreVersion": "10.291",
    "createdTime": 1665428404761,
    "modifiedTime": 1689797990480,
    "lastModifiedBy": "ppv91YxratjWnkJi"
  },
  "effects": [],
  "folder": null,
  "sort": 0,
  "flags": {},
  "_key": "!items!EMOibQkiURIBxZP8"
}