{
  "_id": "GtAMAa6Cpd1bPY0k",
  "name": "Immolation Cloak",
  "type": "equipment",
  "img": "icons/svg/item-bag.svg",
  "system": {
    "description": {
      "value": "<h2></b>Description</b></h2></p><p>An immolation cloak grants its wearer resist fire 20. As a swift action, the wearer can command the cloak to burst into flame, providing the benefits of a fire shield (warm flames only). The wearer can dismiss the flames as a free action. The cloak can be used for a maximum of 10 rounds per day, which don't have to be consecutive.   By expending one use of mythic power, the cloak's wearer can recharge its immolation abilities. In addition, the wearer can expend one use of mythic power to detonate in a fiery explosion, dealing 1d8 points of fire damage per character level in a 30-foot-radius spread. A successful Reflex save (DC 10 + the wearer's mythic tier + the wearer's Charisma modifier) halves this damage. Though apparently destroyed in the explosion, the wearer reforms just prior to the start of his next turn in the space he exploded in (or the nearest open space if that space is unavailable).<br><p><b>Base Item:</b> </p><h3><b>Requirements</b></h3><p>Craft Wondrous Item, Mythic Crafter, detonateAPG, fire shield, resist fire</p><h3><b>Source: </b></h3>Mythic Adventures",
      "unidentified": ""
    },
    "tags": [],
    "quantity": 1,
    "weight": {
      "value": 1
    },
    "price": 65000,
    "size": "med",
    "equipped": true,
    "resizing": false,
    "identified": true,
    "hp": {
      "max": 10,
      "value": 10
    },
    "broken": false,
    "hardness": 0,
    "carried": true,
    "unidentified": {
      "price": 0,
      "name": ""
    },
    "cl": 6,
    "aura": {
      "custom": true,
      "school": "evocation"
    },
    "changes": [],
    "changeFlags": {
      "loseDexToAC": false,
      "noEncumbrance": false,
      "mediumArmorFullSpeed": false,
      "heavyArmorFullSpeed": false
    },
    "contextNotes": [],
    "actions": [],
    "uses": {
      "per": null,
      "value": 0,
      "maxFormula": "",
      "autoDeductChargesCost": "1"
    },
    "attackNotes": [],
    "effectNotes": [],
    "links": {
      "children": [],
      "charges": []
    },
    "tag": "immolationCloak",
    "useCustomTag": false,
    "flags": {
      "boolean": {},
      "dictionary": {}
    },
    "scriptCalls": [],
    "masterwork": false,
    "enh": null,
    "proficient": true,
    "held": "normal",
    "subType": "wondrous",
    "baseTypes": [],
    "equipmentSubtype": "lightArmor",
    "armor": {
      "value": 0,
      "dex": null,
      "acp": 0,
      "enh": 0
    },
    "spellFailure": 0,
    "slot": "shoulders",
    "showInQuickbar": false
  },
  "ownership": {
    "default": 0
  },
  "_stats": {
    "systemId": "pf1",
    "systemVersion": "9.1",
    "coreVersion": "10.291",
    "createdTime": 1665428405265,
    "modifiedTime": 1689797992174,
    "lastModifiedBy": "ppv91YxratjWnkJi"
  },
  "effects": [],
  "folder": null,
  "sort": 0,
  "flags": {},
  "_key": "!items!GtAMAa6Cpd1bPY0k"
}