{
  "_id": "IcDupyTpRpWim52N",
  "name": "Ioun Gauntlet",
  "type": "equipment",
  "img": "icons/svg/item-bag.svg",
  "system": {
    "description": {
      "value": "<h2></b>Description</b></h2></p><p>Much like wayfinders, an ioun gauntlet grants enhanced or altogether new abilities depending on the type of ioun stone inserted into its matrix. In its base form, an ioun gauntlet grants its wearer the ability to cast detect magic as a spell-like ability once per day. When the detect magic effect is active, the gauntlet also sheds illumination as light in the 60- foot cone of the detect magic effect.  An ioun gauntlet features a single matrix in the back of the hand, suitable for one ioun stone. When an ioun stone is inserted into the matrix as a standard action, the wearer gains the associated bonus from the ioun stone as well an additional effect based on the shape of the ioun stone inserted, as listed below. While a creature can put on two ioun gauntlets, the wearer gains the additional benefit from only one inserted ioun stone.  Cabochon: +1 enhancement bonus on Acrobatics checks.  Disk: +1 enhancement bonus on Linguistics checks.  Ellipsoid: +1 enhancement bonus on Knowledge (arcana) checks.  Nodule: +1 enhancement bonus on Knowledge (geography) checks.  Pentacle: +1 enhancement bonus on Knowledge (religion) checks.  Prism: +1 enhancement bonus on Perception checks.  Pyramid: +1 enhancement bonus on Appraise checks.  Rhomboid: +1 enhancement bonus on Stealth checks.  Sphere: +1 enhancement bonus on Sense Motive checks.  Spindle: Bonus language (Aboleth).  Star: +1 enhancement bonus on Knowledge (nobility) checks.  Trillian: +1 enhancement bonus on Bluff checks.<br><p><b>Base Item:</b> </p><h3><b>Requirements</b></h3><p>Craft Wondrous Item, detect magic, light</p><h3><b>Source: </b></h3>AP 122",
      "unidentified": ""
    },
    "tags": [],
    "quantity": 1,
    "weight": {
      "value": 5
    },
    "price": 1600,
    "size": "med",
    "equipped": true,
    "resizing": false,
    "identified": true,
    "hp": {
      "max": 10,
      "value": 10
    },
    "broken": false,
    "hardness": 0,
    "carried": true,
    "unidentified": {
      "price": 0,
      "name": ""
    },
    "cl": 5,
    "aura": {
      "custom": true,
      "school": "divination and evocation"
    },
    "changes": [],
    "changeFlags": {
      "loseDexToAC": false,
      "noEncumbrance": false,
      "mediumArmorFullSpeed": false,
      "heavyArmorFullSpeed": false
    },
    "contextNotes": [],
    "actions": [],
    "uses": {
      "per": null,
      "value": 0,
      "maxFormula": "",
      "autoDeductChargesCost": "1"
    },
    "attackNotes": [],
    "effectNotes": [],
    "links": {
      "children": [],
      "charges": []
    },
    "tag": "iounGauntlet",
    "useCustomTag": false,
    "flags": {
      "boolean": {},
      "dictionary": {}
    },
    "scriptCalls": [],
    "masterwork": false,
    "enh": null,
    "proficient": true,
    "held": "normal",
    "subType": "wondrous",
    "baseTypes": [],
    "equipmentSubtype": "lightArmor",
    "armor": {
      "value": 0,
      "dex": null,
      "acp": 0,
      "enh": 0
    },
    "spellFailure": 0,
    "slot": "hands",
    "showInQuickbar": false
  },
  "ownership": {
    "default": 0
  },
  "_stats": {
    "systemId": "pf1",
    "systemVersion": "9.1",
    "coreVersion": "10.291",
    "createdTime": 1665428405442,
    "modifiedTime": 1689797993159,
    "lastModifiedBy": "ppv91YxratjWnkJi"
  },
  "effects": [],
  "folder": null,
  "sort": 0,
  "flags": {},
  "_key": "!items!IcDupyTpRpWim52N"
}