{
  "_id": "5wlZn5bsJsz182to",
  "name": "Iron Cobra Gauntlet",
  "type": "equipment",
  "img": "icons/svg/item-bag.svg",
  "system": {
    "description": {
      "value": "<h2></b>Description</b></h2></p><p>This elbow-length scaled metal gauntlet flares at the wrist like a cobra's hood. Up to three times per day, the wearer way transform the gauntlet into an iron cobra (Bestiary 182), which crawls from the wearer's wrist and obeys his commands, leaving behind a simple bracelet of linked scales. Whoever wears the bracelet is the iron cobra's master. The iron cobra can remain animated for a total of 1 hour per day.   If the snake is within hearing range of the master and commanded to revert to gauntlet form (a standard action), it travels to its master as fast as possible, crawls onto its master's arm, and as a free action reverts to its inactive shape. If the snake's duration expires before it can reach its master, it reverts to gauntlet form, but automatically melds with the bracelet if the two touch.   If slain in cobra form, the snake reverts to gauntlet form and cannot be used again for 24 hours. If destroyed in gauntlet form, the item is destroyed. The wearer can refill the iron cobra's poison reservoir in snake form or gauntlet form.<br><p><b>Base Item:</b> </p><h3><b>Requirements</b></h3><p>Craft Wondrous Item, animate objects, discern location, geas/quest</p><h3><b>Source: </b></h3>Ultimate Equipment",
      "unidentified": ""
    },
    "tags": [],
    "quantity": 1,
    "weight": {
      "value": 1
    },
    "price": 8000,
    "size": "med",
    "equipped": true,
    "resizing": false,
    "identified": true,
    "hp": {
      "max": 10,
      "value": 10
    },
    "broken": false,
    "hardness": 0,
    "carried": true,
    "unidentified": {
      "price": 0,
      "name": ""
    },
    "cl": 7,
    "aura": {
      "custom": true,
      "school": "transmutation"
    },
    "changes": [],
    "changeFlags": {
      "loseDexToAC": false,
      "noEncumbrance": false,
      "mediumArmorFullSpeed": false,
      "heavyArmorFullSpeed": false
    },
    "contextNotes": [],
    "actions": [],
    "uses": {
      "per": null,
      "value": 0,
      "maxFormula": "",
      "autoDeductChargesCost": "1"
    },
    "attackNotes": [],
    "effectNotes": [],
    "links": {
      "children": [],
      "charges": []
    },
    "tag": "ironCobraGauntlet",
    "useCustomTag": false,
    "flags": {
      "boolean": {},
      "dictionary": {}
    },
    "scriptCalls": [],
    "masterwork": false,
    "enh": null,
    "proficient": true,
    "held": "normal",
    "subType": "wondrous",
    "baseTypes": [],
    "equipmentSubtype": "lightArmor",
    "armor": {
      "value": 0,
      "dex": null,
      "acp": 0,
      "enh": 0
    },
    "spellFailure": 0,
    "slot": "hands",
    "showInQuickbar": false
  },
  "ownership": {
    "default": 0
  },
  "_stats": {
    "systemId": "pf1",
    "systemVersion": "9.1",
    "coreVersion": "10.291",
    "createdTime": 1665428404038,
    "modifiedTime": 1689797984455,
    "lastModifiedBy": "ppv91YxratjWnkJi"
  },
  "effects": [],
  "folder": null,
  "sort": 0,
  "flags": {},
  "_key": "!items!5wlZn5bsJsz182to"
}