{
  "_id": "6CTUe9dXzIVJJLXN",
  "name": "Jalhazar's Wheel",
  "type": "equipment",
  "img": "icons/svg/item-bag.svg",
  "system": {
    "description": {
      "value": "<h2></b>Description</b></h2></p><p>Handles of polished bone and grim skulls decorate this ornately carved ship's wheel. When grasped, the wheel's handles feel comfortably smooth. Those who stand watch at the wheel claim to hear the whispered guidance of Captain Xiribal Jalhazar, and occasionally feel ghostly hands holding the ship's course true. When fitted to the helm of a ship, Jalhazar's wheel grants a +5 competence bonus on sailing checks to turn the ship with the hard to port or hard to starboard actions (Skull & Shackles Player's Guide 13). The wheel also halves the penalty on sailing checks made when turning the ship while traveling at three or more times the ship's acceleration. In addition, the ship's pilot can combine a hard to port or hard to starboard action with a full ahead or heave to action as a full-round action up to three times per day.<br><p><b>Base Item:</b> </p><h3><b>Requirements</b></h3><p>Craft Wondrous Item, animate objects, haste, creator must have 10 ranks in Profession (sailor)</p><h3><b>Source: </b></h3>AP 57",
      "unidentified": ""
    },
    "tags": [],
    "quantity": 1,
    "weight": {
      "value": 15
    },
    "price": 7500,
    "size": "med",
    "equipped": true,
    "resizing": false,
    "identified": true,
    "hp": {
      "max": 10,
      "value": 10
    },
    "broken": false,
    "hardness": 0,
    "carried": true,
    "unidentified": {
      "price": 0,
      "name": ""
    },
    "cl": 11,
    "aura": {
      "custom": true,
      "school": "transmutation"
    },
    "changes": [],
    "changeFlags": {
      "loseDexToAC": false,
      "noEncumbrance": false,
      "mediumArmorFullSpeed": false,
      "heavyArmorFullSpeed": false
    },
    "contextNotes": [],
    "actions": [],
    "uses": {
      "per": null,
      "value": 0,
      "maxFormula": "",
      "autoDeductChargesCost": "1"
    },
    "attackNotes": [],
    "effectNotes": [],
    "links": {
      "children": [],
      "charges": []
    },
    "tag": "jalhazarsWheel",
    "useCustomTag": false,
    "flags": {
      "boolean": {},
      "dictionary": {}
    },
    "scriptCalls": [],
    "masterwork": false,
    "enh": null,
    "proficient": true,
    "held": "normal",
    "subType": "wondrous",
    "baseTypes": [],
    "equipmentSubtype": "lightArmor",
    "armor": {
      "value": 0,
      "dex": null,
      "acp": 0,
      "enh": 0
    },
    "spellFailure": 0,
    "slot": "slotless",
    "showInQuickbar": false
  },
  "ownership": {
    "default": 0
  },
  "_stats": {
    "systemId": "pf1",
    "systemVersion": "9.1",
    "coreVersion": "10.291",
    "createdTime": 1665428404058,
    "modifiedTime": 1689797984944,
    "lastModifiedBy": "ppv91YxratjWnkJi"
  },
  "effects": [],
  "folder": null,
  "sort": 0,
  "flags": {},
  "_key": "!items!6CTUe9dXzIVJJLXN"
}