{
  "_id": "f3DO761Qi4BQkZwX",
  "name": "Jinx Eater's Shirt",
  "type": "equipment",
  "img": "icons/svg/item-bag.svg",
  "system": {
    "description": {
      "value": "<h2></b>Description</b></h2></p><p>This shirt is stitched with dozens of symbols meant to attract bad luck, including bloodshot eyes and tengu skulls. Whenever an ally within 60 feet is subject to a curse, hex, jinx, or effect that would force her to roll multiple times for the same check and take the worse result, a tengu wearer  can attempt to eat the effect as an immediate action. The wearer of the shirt attempts a caster level check with a DC of 11 + the effect originator's caster level (or HD for an ability that has no caster level). If the attempt is successful, the wearer suffers the effect instead of the original target, and the wearer gains a number of temporary hit points equal to the effect's caster level or the target's HD, whichever is lower. These temporary hit points last for 1 minute. A jinx eater's shirt can successfully redirect an effect originating from a given creature only once each day, but otherwise it has no limitation on usage.<br><p><b>Base Item:</b> </p><h3><b>Requirements</b></h3><p>Craft Wondrous Item, remove curse, creator must be a tengu</p><h3><b>Source: </b></h3>Inner Sea Races",
      "unidentified": ""
    },
    "tags": [],
    "quantity": 1,
    "weight": {
      "value": 1
    },
    "price": 22600,
    "size": "med",
    "equipped": true,
    "resizing": false,
    "identified": true,
    "hp": {
      "max": 10,
      "value": 10
    },
    "broken": false,
    "hardness": 0,
    "carried": true,
    "unidentified": {
      "price": 0,
      "name": ""
    },
    "cl": 8,
    "aura": {
      "custom": true,
      "school": "abjuration"
    },
    "changes": [],
    "changeFlags": {
      "loseDexToAC": false,
      "noEncumbrance": false,
      "mediumArmorFullSpeed": false,
      "heavyArmorFullSpeed": false
    },
    "contextNotes": [],
    "actions": [],
    "uses": {
      "per": null,
      "value": 0,
      "maxFormula": "",
      "autoDeductChargesCost": "1"
    },
    "attackNotes": [],
    "effectNotes": [],
    "links": {
      "children": [],
      "charges": []
    },
    "tag": "jinxEatersShirt",
    "useCustomTag": false,
    "flags": {
      "boolean": {},
      "dictionary": {}
    },
    "scriptCalls": [],
    "masterwork": false,
    "enh": null,
    "proficient": true,
    "held": "normal",
    "subType": "wondrous",
    "baseTypes": [],
    "equipmentSubtype": "lightArmor",
    "armor": {
      "value": 0,
      "dex": null,
      "acp": 0,
      "enh": 0
    },
    "spellFailure": 0,
    "slot": "chest",
    "showInQuickbar": false
  },
  "ownership": {
    "default": 0
  },
  "_stats": {
    "systemId": "pf1",
    "systemVersion": "9.1",
    "coreVersion": "10.291",
    "createdTime": 1665428407961,
    "modifiedTime": 1689798008003,
    "lastModifiedBy": "ppv91YxratjWnkJi"
  },
  "effects": [],
  "folder": null,
  "sort": 0,
  "flags": {},
  "_key": "!items!f3DO761Qi4BQkZwX"
}