{
  "_id": "bKeGcQybMYZZpgIP",
  "name": "Key Cloak",
  "type": "equipment",
  "img": "icons/svg/item-bag.svg",
  "system": {
    "description": {
      "value": "<h2></b>Description</b></h2></p><p>This short cloak is made of gold thread spun into a pattern of interlocking key shapes. The cloak grants the wearer a +1 shield bonus to AC. As a move action, the wearer can activate the cloak, which instantly produces enough keys to wrap the wearer in a dome-shaped shield of hardened metal, protecting the wearer as if he were carrying a tower shield with which he is proficient. While using this ability, the wearer can take no other actions (other than adjusting which direction the effective tower shield is considered to be facing) and is immobile. The wearer can remain in this form indefinitely, but resting in this form is equivalent to resting in heavy armor. The dome of keys can be dismissed as a swift action, and it automatically vanishes if the cloak is removed.  Once per day, the cloak can also create a single special skeleton key as a standard action. This skeleton key can be tried on any one lock that uses a key, even if you aren't trained in the Disable Device skill. You use the key's Disable Device bonus of +15 rather than your own; you cannot take 10 when using a skeleton key. You can only attempt to open a particular lock with the skeleton key once. If the roll fails, the key is unable to open or close that lock. The key lasts for 1 hour and can be used on only a single lock during that time.<br><p><b>Base Item:</b> </p><h3><b>Requirements</b></h3><p>Craft Wondrous Item, fabricate, knock, stoneskin</p><h3><b>Source: </b></h3>Inner Sea Temples",
      "unidentified": ""
    },
    "tags": [],
    "quantity": 1,
    "weight": {
      "value": 2
    },
    "price": 20000,
    "size": "med",
    "equipped": true,
    "resizing": false,
    "identified": true,
    "hp": {
      "max": 10,
      "value": 10
    },
    "broken": false,
    "hardness": 0,
    "carried": true,
    "unidentified": {
      "price": 0,
      "name": ""
    },
    "cl": 9,
    "aura": {
      "custom": true,
      "school": "conjuration"
    },
    "changes": [],
    "changeFlags": {
      "loseDexToAC": false,
      "noEncumbrance": false,
      "mediumArmorFullSpeed": false,
      "heavyArmorFullSpeed": false
    },
    "contextNotes": [],
    "actions": [],
    "uses": {
      "per": null,
      "value": 0,
      "maxFormula": "",
      "autoDeductChargesCost": "1"
    },
    "attackNotes": [],
    "effectNotes": [],
    "links": {
      "children": [],
      "charges": []
    },
    "tag": "keyCloak",
    "useCustomTag": false,
    "flags": {
      "boolean": {},
      "dictionary": {}
    },
    "scriptCalls": [],
    "masterwork": false,
    "enh": null,
    "proficient": true,
    "held": "normal",
    "subType": "wondrous",
    "baseTypes": [],
    "equipmentSubtype": "lightArmor",
    "armor": {
      "value": 0,
      "dex": null,
      "acp": 0,
      "enh": 0
    },
    "spellFailure": 0,
    "slot": "shoulders",
    "showInQuickbar": false
  },
  "ownership": {
    "default": 0
  },
  "_stats": {
    "systemId": "pf1",
    "systemVersion": "9.1",
    "coreVersion": "10.291",
    "createdTime": 1665428407756,
    "modifiedTime": 1689798005726,
    "lastModifiedBy": "ppv91YxratjWnkJi"
  },
  "effects": [],
  "folder": null,
  "sort": 0,
  "flags": {},
  "_key": "!items!bKeGcQybMYZZpgIP"
}