{
  "_id": "I9IPRFE4DBooAKoy",
  "name": "Kikuya's Sensu",
  "type": "equipment",
  "img": "icons/svg/item-bag.svg",
  "system": {
    "description": {
      "value": "<h2></b>Description</b></h2></p><p>This folding fan made from cypress wood and lacquered paper is said to have belonged to Kikuya, a legendary Minkai oiran, or courtesan. When held in the hand, Kikuya's sensu grants a +2 competence bonus on the bearer's Charisma-based checks. While held, the fan provides the somatic component for spells cast by the bearer.  Once per day on command, the bearer can use one face of the fan to cast calm emotions. Also once per day, the fan's other face can create a forceful hand. In addition, the bearer can whisper behind Kikuya's sensu and send the words up to 3 miles away, as the whispering wind spell, once per day.<br><p><b>Base Item:</b> </p><h3><b>Requirements</b></h3><p>Craft Wondrous Item, calm emotions, cat's grace, forceful hand, whispering wind</p><h3><b>Source: </b></h3>AP 52",
      "unidentified": ""
    },
    "tags": [],
    "quantity": 1,
    "weight": {
      "value": 1
    },
    "price": 30840,
    "size": "med",
    "equipped": true,
    "resizing": false,
    "identified": true,
    "hp": {
      "max": 10,
      "value": 10
    },
    "broken": false,
    "hardness": 0,
    "carried": true,
    "unidentified": {
      "price": 0,
      "name": ""
    },
    "cl": 11,
    "aura": {
      "custom": true,
      "school": "evocation"
    },
    "changes": [],
    "changeFlags": {
      "loseDexToAC": false,
      "noEncumbrance": false,
      "mediumArmorFullSpeed": false,
      "heavyArmorFullSpeed": false
    },
    "contextNotes": [],
    "actions": [],
    "uses": {
      "per": null,
      "value": 0,
      "maxFormula": "",
      "autoDeductChargesCost": "1"
    },
    "attackNotes": [],
    "effectNotes": [],
    "links": {
      "children": [],
      "charges": []
    },
    "tag": "kikuyasSensu",
    "useCustomTag": false,
    "flags": {
      "boolean": {},
      "dictionary": {}
    },
    "scriptCalls": [],
    "masterwork": false,
    "enh": null,
    "proficient": true,
    "held": "normal",
    "subType": "wondrous",
    "baseTypes": [],
    "equipmentSubtype": "lightArmor",
    "armor": {
      "value": 0,
      "dex": null,
      "acp": 0,
      "enh": 0
    },
    "spellFailure": 0,
    "slot": "slotless",
    "showInQuickbar": false
  },
  "ownership": {
    "default": 0
  },
  "_stats": {
    "systemId": "pf1",
    "systemVersion": "9.1",
    "coreVersion": "10.291",
    "createdTime": 1665428405391,
    "modifiedTime": 1689797992665,
    "lastModifiedBy": "ppv91YxratjWnkJi"
  },
  "effects": [],
  "folder": null,
  "sort": 0,
  "flags": {},
  "_key": "!items!I9IPRFE4DBooAKoy"
}