{
  "_id": "tgdJQNbk5Ppuv4O5",
  "name": "Kitharodian Pen",
  "type": "equipment",
  "img": "icons/svg/item-bag.svg",
  "system": {
    "description": {
      "value": "<h2></b>Description</b></h2></p><p>The Kitharodian pen is an ink pen that produces its own ink and never needs to be refilled. The user or last person to touch the pen can speak a command word to cause it to begin taking dictation, recording all words audible from its square. The pen has a Perception modifier of +0 and can write in all languages but does not translate or enable its user to read what it has written. If held in hand, the user can relax while the pen writes, seeming to be taking the dictation, but the pen ceases to move of its own accord as long as the user intentionally attempts to control its movements. The pen writes as quickly as the words are spoken, but if multiple creatures speak over each other, each speaker must attempt a Charisma check each round and the pen transcribes only the words of the speaker with the highest result. A different command word causes the pen to cease writing. The pen transcribes for up to 1 hour per day in 10-minute increments.<br><p><b>Base Item:</b> </p><h3><b>Requirements</b></h3><p>Craft Wondrous Item, disguise self, unseen servant</p><h3><b>Source: </b></h3>Inner Sea Intrigue",
      "unidentified": ""
    },
    "tags": [],
    "quantity": 1,
    "weight": {
      "value": 0
    },
    "price": 720,
    "size": "med",
    "equipped": true,
    "resizing": false,
    "identified": true,
    "hp": {
      "max": 10,
      "value": 10
    },
    "broken": false,
    "hardness": 0,
    "carried": true,
    "unidentified": {
      "price": 0,
      "name": ""
    },
    "cl": 1,
    "aura": {
      "custom": true,
      "school": "transmutation"
    },
    "changes": [],
    "changeFlags": {
      "loseDexToAC": false,
      "noEncumbrance": false,
      "mediumArmorFullSpeed": false,
      "heavyArmorFullSpeed": false
    },
    "contextNotes": [],
    "actions": [],
    "uses": {
      "per": null,
      "value": 0,
      "maxFormula": "",
      "autoDeductChargesCost": "1"
    },
    "attackNotes": [],
    "effectNotes": [],
    "links": {
      "children": [],
      "charges": []
    },
    "tag": "kitharodianPen",
    "useCustomTag": false,
    "flags": {
      "boolean": {},
      "dictionary": {}
    },
    "scriptCalls": [],
    "masterwork": false,
    "enh": null,
    "proficient": true,
    "held": "normal",
    "subType": "wondrous",
    "baseTypes": [],
    "equipmentSubtype": "lightArmor",
    "armor": {
      "value": 0,
      "dex": null,
      "acp": 0,
      "enh": 0
    },
    "spellFailure": 0,
    "slot": "slotless",
    "showInQuickbar": false
  },
  "ownership": {
    "default": 0
  },
  "_stats": {
    "systemId": "pf1",
    "systemVersion": "9.1",
    "coreVersion": "10.291",
    "createdTime": 1665428409843,
    "modifiedTime": 1689798018538,
    "lastModifiedBy": "ppv91YxratjWnkJi"
  },
  "effects": [],
  "folder": null,
  "sort": 0,
  "flags": {},
  "_key": "!items!tgdJQNbk5Ppuv4O5"
}