{
  "_id": "yAP2NnkIxU85seki",
  "name": "Lantern Of Dancing Shadows",
  "type": "equipment",
  "img": "icons/svg/item-bag.svg",
  "system": {
    "description": {
      "value": "<h2></b>Description</b></h2></p><p>This small lantern is made of thin, nearly transparent paper and black iron. The lantern burns for 6 hours on 1 pint of oil. The lantern's light causes the illumination level in a 30- foot radius to move one step toward dim light, from bright light to normal light, from normal light to dim light, or from darkness to dim light. The lantern has no effect in an area that is already in dim light. Nonmagical sources of light, such as torches and lanterns, do not increase the light level in the lantern's area. Magical light or darkness only change the light level in the lantern's area if they have a higher caster level than the lantern.  Once per day, the lit lantern of dancing shadows can be commanded to create quasi-real illusions from the shadows cast by its light, as the shadow conjuration spell. In addition, once per day, the lantern can be commanded to solidify shadows for a short period of time. These solidified shadows cause incorporeal creatures within the lantern's illumination radius (30 feet) to coalesce into semi-physical forms, as the mass ghostbane dirge spell (Advanced Player's Guide 225).<br><p><b>Base Item:</b> </p><h3><b>Requirements</b></h3><p>Craft Wondrous Item, darkness, mass ghostbane dirge, shadow conjuration</p><h3><b>Source: </b></h3>Advanced Race Guide",
      "unidentified": ""
    },
    "tags": [],
    "quantity": 1,
    "weight": {
      "value": 2
    },
    "price": 41000,
    "size": "med",
    "equipped": true,
    "resizing": false,
    "identified": true,
    "hp": {
      "max": 10,
      "value": 10
    },
    "broken": false,
    "hardness": 0,
    "carried": true,
    "unidentified": {
      "price": 0,
      "name": ""
    },
    "cl": 6,
    "aura": {
      "custom": true,
      "school": "transmutation"
    },
    "changes": [],
    "changeFlags": {
      "loseDexToAC": false,
      "noEncumbrance": false,
      "mediumArmorFullSpeed": false,
      "heavyArmorFullSpeed": false
    },
    "contextNotes": [],
    "actions": [],
    "uses": {
      "per": null,
      "value": 0,
      "maxFormula": "",
      "autoDeductChargesCost": "1"
    },
    "attackNotes": [],
    "effectNotes": [],
    "links": {
      "children": [],
      "charges": []
    },
    "tag": "lanternOfDancingShadows",
    "useCustomTag": false,
    "flags": {
      "boolean": {},
      "dictionary": {}
    },
    "scriptCalls": [],
    "masterwork": false,
    "enh": null,
    "proficient": true,
    "held": "normal",
    "subType": "wondrous",
    "baseTypes": [],
    "equipmentSubtype": "lightArmor",
    "armor": {
      "value": 0,
      "dex": null,
      "acp": 0,
      "enh": 0
    },
    "spellFailure": 0,
    "slot": "slotless",
    "showInQuickbar": false
  },
  "ownership": {
    "default": 0
  },
  "_stats": {
    "systemId": "pf1",
    "systemVersion": "9.1",
    "coreVersion": "10.291",
    "createdTime": 1665428410435,
    "modifiedTime": 1689798021396,
    "lastModifiedBy": "ppv91YxratjWnkJi"
  },
  "effects": [],
  "folder": null,
  "sort": 0,
  "flags": {},
  "_key": "!items!yAP2NnkIxU85seki"
}