{
  "_id": "0P4WOFrG6Uae9K56",
  "name": "Lens Of Otherworldly Answers",
  "type": "equipment",
  "img": "icons/svg/item-bag.svg",
  "system": {
    "description": {
      "value": "<h2></b>Description</b></h2></p><p>This multifaceted prism acts as an aid in concentration. It can be used as a focus for the read aura occult skill unlock (Pathfinder RPG Occult Adventures 197) to reduce the time needed to read an aura from 10 minutes to 5 minutes. When held by psychic creatures, a lens of otherworldly answers emits light in a small area, increasing the light level in a 10-foot-radius by one step (darkness becomes dim light, and dim light becomes normal light). The lens cannot increase the light level above normal light. The color of the light produced varies according to the psychic creature's predominant emotional state at the time (Occult Adventures, 199), defaulting to soft white light in the case of no significant emotional state.  In addition, the owner gains special insight into questions asked and answers received from inscrutable planar powers. When expended as an additional material component when casting contact other plane (which causes the lens to crumble into valueless shards of crystal) the owner can attempt a Charisma check, Intelligence check, or Wisdom check (instead of being able to attempt only an Intelligence check) to avoid the Intelligence and Charisma drain risked by the spell. In addition, the owner subtracts 1d10 from the percentage roll (to a minimum of 1) for determining whether a contacted entity tells the truth, doesn't know, lies, or provides a random answer. If the owner is on the same plane as the entity being contacted, she subtracts an additional 1d10 from the percentage roll.<br><p><b>Base Item:</b> </p><h3><b>Requirements</b></h3><p>Craft Wondrous Item, contact other plane</p><h3><b>Source: </b></h3>Planar Adventures",
      "unidentified": ""
    },
    "tags": [],
    "quantity": 1,
    "weight": {
      "value": 0.5
    },
    "price": 1150,
    "size": "med",
    "equipped": true,
    "resizing": false,
    "identified": true,
    "hp": {
      "max": 10,
      "value": 10
    },
    "broken": false,
    "hardness": 0,
    "carried": true,
    "unidentified": {
      "price": 0,
      "name": ""
    },
    "cl": 13,
    "aura": {
      "custom": true,
      "school": "divination"
    },
    "changes": [],
    "changeFlags": {
      "loseDexToAC": false,
      "noEncumbrance": false,
      "mediumArmorFullSpeed": false,
      "heavyArmorFullSpeed": false
    },
    "contextNotes": [],
    "actions": [],
    "uses": {
      "per": null,
      "value": 0,
      "maxFormula": "",
      "autoDeductChargesCost": "1"
    },
    "attackNotes": [],
    "effectNotes": [],
    "links": {
      "children": [],
      "charges": []
    },
    "tag": "lensOfOtherworldlyAnswers",
    "useCustomTag": false,
    "flags": {
      "boolean": {},
      "dictionary": {}
    },
    "scriptCalls": [],
    "masterwork": false,
    "enh": null,
    "proficient": true,
    "held": "normal",
    "subType": "wondrous",
    "baseTypes": [],
    "equipmentSubtype": "lightArmor",
    "armor": {
      "value": 0,
      "dex": null,
      "acp": 0,
      "enh": 0
    },
    "spellFailure": 0,
    "slot": "slotless",
    "showInQuickbar": false
  },
  "ownership": {
    "default": 0
  },
  "_stats": {
    "systemId": "pf1",
    "systemVersion": "9.1",
    "coreVersion": "10.291",
    "createdTime": 1665428403392,
    "modifiedTime": 1689797980959,
    "lastModifiedBy": "ppv91YxratjWnkJi"
  },
  "effects": [],
  "folder": null,
  "sort": 0,
  "flags": {},
  "_key": "!items!0P4WOFrG6Uae9K56"
}