{
  "_id": "XjZJmcPW8REV8zkl",
  "name": "Lepidstadt Investigator's Hat",
  "type": "equipment",
  "img": "icons/svg/item-bag.svg",
  "system": {
    "description": {
      "value": "<h2></b>Description</b></h2></p><p>This black deerstalker cap features a subtle, sinister, eye-like design stitched on the front flap. The hat grants a +2 competence bonus on all Knowledge checks to identify monsters.  If the wearer is an investigator, the hat allows him to take advantage of his deductions in combat. Whenever he uses inspiration to identify a non-humanoid creature, he can record the result of the inspiration die and use it again later. Within the next minute, before rolling an attack roll against that creature, a skill check against that creature, or a saving throw against one of that creature's attacks, he can add the recorded inspiration die result to his roll-if he does so, he can't use inspiration to apply another inspiration die to the roll. Using the recorded result doesn't require the investigator to spend a use of inspiration, and the recorded result goes away once it's used. He can have only one inspiration die result recorded in this way. If he uses inspiration to identify another monster before using his recorded inspiration die, he must decide whether to replace the old result before rolling.<br><p><b>Base Item:</b> </p><h3><b>Requirements</b></h3><p>Craft Wondrous Item, know the enemyUM</p><h3><b>Source: </b></h3>Advanced Class Origins",
      "unidentified": ""
    },
    "tags": [],
    "quantity": 1,
    "weight": {
      "value": 0
    },
    "price": 7000,
    "size": "med",
    "equipped": true,
    "resizing": false,
    "identified": true,
    "hp": {
      "max": 10,
      "value": 10
    },
    "broken": false,
    "hardness": 0,
    "carried": true,
    "unidentified": {
      "price": 0,
      "name": ""
    },
    "cl": 8,
    "aura": {
      "custom": true,
      "school": "divination"
    },
    "changes": [],
    "changeFlags": {
      "loseDexToAC": false,
      "noEncumbrance": false,
      "mediumArmorFullSpeed": false,
      "heavyArmorFullSpeed": false
    },
    "contextNotes": [],
    "actions": [],
    "uses": {
      "per": null,
      "value": 0,
      "maxFormula": "",
      "autoDeductChargesCost": "1"
    },
    "attackNotes": [],
    "effectNotes": [],
    "links": {
      "children": [],
      "charges": []
    },
    "tag": "lepidstadtInvestigatorsHat",
    "useCustomTag": false,
    "flags": {
      "boolean": {},
      "dictionary": {}
    },
    "scriptCalls": [],
    "masterwork": false,
    "enh": null,
    "proficient": true,
    "held": "normal",
    "subType": "wondrous",
    "baseTypes": [],
    "equipmentSubtype": "lightArmor",
    "armor": {
      "value": 0,
      "dex": null,
      "acp": 0,
      "enh": 0
    },
    "spellFailure": 0,
    "slot": "head",
    "showInQuickbar": false
  },
  "ownership": {
    "default": 0
  },
  "_stats": {
    "systemId": "pf1",
    "systemVersion": "9.1",
    "coreVersion": "10.291",
    "createdTime": 1665428407255,
    "modifiedTime": 1689798003101,
    "lastModifiedBy": "ppv91YxratjWnkJi"
  },
  "effects": [],
  "folder": null,
  "sort": 0,
  "flags": {},
  "_key": "!items!XjZJmcPW8REV8zkl"
}