{
  "_id": "GAiTE4nQT1UIfJmu",
  "name": "Leshy Mulch Manual, Leaf Leshy",
  "type": "equipment",
  "img": "icons/svg/item-bag.svg",
  "system": {
    "description": {
      "value": "<h2></b>Description</b></h2></p><p>A leshy mulch manual is a fragile, bark-bound book containing a dozen pages of coarse, grainy paper. The book includes information and incantations that help in crafting a leshy. The instructions grant a +3 competence bonus on skill checks made to create a leshy, reduce the number of ranks in Knowledge (nature) needed to create a leshy by 2, and allow the user to treat her caster level as 2 higher for the purposes of creating a leshy. The book can also be chopped up and mixed into the soil used to grow a leshy, replacing the normal crafting cost for the leshy. When a leshy is cultivated from this soil, a spirit is automatically lured into the body, with no percentile roll required.<br><p><b>Base Item:</b> </p><h3><b>Requirements</b></h3><p>Craft Wondrous Item, plant growth, summon nature's ally III</p><h3><b>Source: </b></h3>Faiths & Philosophies",
      "unidentified": ""
    },
    "tags": [],
    "quantity": 1,
    "weight": {
      "value": 5
    },
    "price": 800,
    "size": "med",
    "equipped": true,
    "resizing": false,
    "identified": true,
    "hp": {
      "max": 10,
      "value": 10
    },
    "broken": false,
    "hardness": 0,
    "carried": true,
    "unidentified": {
      "price": 0,
      "name": ""
    },
    "cl": 0,
    "aura": {
      "custom": true,
      "school": "varies"
    },
    "changes": [],
    "changeFlags": {
      "loseDexToAC": false,
      "noEncumbrance": false,
      "mediumArmorFullSpeed": false,
      "heavyArmorFullSpeed": false
    },
    "contextNotes": [],
    "actions": [],
    "uses": {
      "per": null,
      "value": 0,
      "maxFormula": "",
      "autoDeductChargesCost": "1"
    },
    "attackNotes": [],
    "effectNotes": [],
    "links": {
      "children": [],
      "charges": []
    },
    "tag": "leshyMulchManualLeafLeshy",
    "useCustomTag": false,
    "flags": {
      "boolean": {},
      "dictionary": {}
    },
    "scriptCalls": [],
    "masterwork": false,
    "enh": null,
    "proficient": true,
    "held": "normal",
    "subType": "wondrous",
    "baseTypes": [],
    "equipmentSubtype": "lightArmor",
    "armor": {
      "value": 0,
      "dex": null,
      "acp": 0,
      "enh": 0
    },
    "spellFailure": 0,
    "slot": "slotless",
    "showInQuickbar": false
  },
  "ownership": {
    "default": 0
  },
  "_stats": {
    "systemId": "pf1",
    "systemVersion": "9.1",
    "coreVersion": "10.291",
    "createdTime": 1665428404840,
    "modifiedTime": 1689797991176,
    "lastModifiedBy": "ppv91YxratjWnkJi"
  },
  "effects": [],
  "folder": null,
  "sort": 0,
  "flags": {},
  "_key": "!items!GAiTE4nQT1UIfJmu"
}