{
  "_id": "KLcNoqR1vikQdw6b",
  "name": "Lightning Trap Spheres",
  "type": "equipment",
  "img": "icons/svg/item-bag.svg",
  "system": {
    "description": {
      "value": "<h2></b>Description</b></h2></p><p>These tiny spheres, crafted from a dull gray material and studded with tiny copper protuberances, come in sets of  four. As a standard action, a user can throw four or more spheres at a single target as a ranged touch attack with a 30-foot range increment. On a hit, the spheres explode outward, forming an immobile cage of semisolid lightning around the target. Any creature attempting to pass through the cage wall automatically takes 10d6 points of electricity damage. Four lightning trap spheres thrown simultaneously can capture a Medium target, eight spheres can capture a Large target, 12 spheres can capture a Huge target, and 16 spheres can capture a Gargantuan target. The trap persists for 1 minute for each set of spheres used, then dissipates, consuming the spheres in the process. The price above is for a set of four lightning trap spheres.<br><p><b>Base Item:</b> </p><h3><b>Requirements</b></h3><p>Craft Wondrous Item, forcecage, lightning bolt</p><h3><b>Source: </b></h3>AP 112",
      "unidentified": ""
    },
    "tags": [],
    "quantity": 1,
    "weight": {
      "value": 1
    },
    "price": 2000,
    "size": "med",
    "equipped": true,
    "resizing": false,
    "identified": true,
    "hp": {
      "max": 10,
      "value": 10
    },
    "broken": false,
    "hardness": 0,
    "carried": true,
    "unidentified": {
      "price": 0,
      "name": ""
    },
    "cl": 13,
    "aura": {
      "custom": true,
      "school": "evocation [electricity]"
    },
    "changes": [],
    "changeFlags": {
      "loseDexToAC": false,
      "noEncumbrance": false,
      "mediumArmorFullSpeed": false,
      "heavyArmorFullSpeed": false
    },
    "contextNotes": [],
    "actions": [],
    "uses": {
      "per": null,
      "value": 0,
      "maxFormula": "",
      "autoDeductChargesCost": "1"
    },
    "attackNotes": [],
    "effectNotes": [],
    "links": {
      "children": [],
      "charges": []
    },
    "tag": "lightningTrapSpheres",
    "useCustomTag": false,
    "flags": {
      "boolean": {},
      "dictionary": {}
    },
    "scriptCalls": [],
    "masterwork": false,
    "enh": null,
    "proficient": true,
    "held": "normal",
    "subType": "wondrous",
    "baseTypes": [],
    "equipmentSubtype": "lightArmor",
    "armor": {
      "value": 0,
      "dex": null,
      "acp": 0,
      "enh": 0
    },
    "spellFailure": 0,
    "slot": "slotless",
    "showInQuickbar": false
  },
  "ownership": {
    "default": 0
  },
  "_stats": {
    "systemId": "pf1",
    "systemVersion": "9.1",
    "coreVersion": "10.291",
    "createdTime": 1665428405565,
    "modifiedTime": 1689797993920,
    "lastModifiedBy": "ppv91YxratjWnkJi"
  },
  "effects": [],
  "folder": null,
  "sort": 0,
  "flags": {},
  "_key": "!items!KLcNoqR1vikQdw6b"
}