{
  "_id": "t1kUYdNcTmsZP91x",
  "name": "Lord's Banner, Swiftness",
  "type": "equipment",
  "img": "icons/svg/item-bag.svg",
  "system": {
    "description": {
      "value": "<h2></b>Description</b></h2></p><p>A lord's banner is a cloth flag or standard, typically at least 2 feet wide and 4 feet long (though some are up to twice that size), meant to be carried and displayed on a lance, polearm, frame, or staff. It has no effect when not mounted properly or when laying on the ground. It normally depicts the insignia or heraldic symbol of a particular noble. A lord's banner may be carried (on foot or mounted) or planted. In the latter case, the banner does not need a bearer, but if it is toppled or touched by an enemy, it loses its effectiveness until reclaimed and replanted by allies of its owner. Swiftness: A group or army traveling under a lord's banner of swiftness can make a forced march without needing Constitution checks or suffering any nonlethal damage from doing so, allowing them to cover great distances while still arriving ready to do battle. This ability affects all allied creatures within 1 mile as long as they are able to see the banner at least once a day.<br><p><b>Base Item:</b> </p><h3><b>Requirements</b></h3><p>Craft Wondrous Item, freedom of movement</p><h3><b>Source: </b></h3>APG",
      "unidentified": ""
    },
    "tags": [],
    "quantity": 1,
    "weight": {
      "value": 3
    },
    "price": 10000,
    "size": "med",
    "equipped": true,
    "resizing": false,
    "identified": true,
    "hp": {
      "max": 10,
      "value": 10
    },
    "broken": false,
    "hardness": 0,
    "carried": true,
    "unidentified": {
      "price": 0,
      "name": ""
    },
    "cl": 10,
    "aura": {
      "custom": true,
      "school": "various schools"
    },
    "changes": [],
    "changeFlags": {
      "loseDexToAC": false,
      "noEncumbrance": false,
      "mediumArmorFullSpeed": false,
      "heavyArmorFullSpeed": false
    },
    "contextNotes": [],
    "actions": [],
    "uses": {
      "per": null,
      "value": 0,
      "maxFormula": "",
      "autoDeductChargesCost": "1"
    },
    "attackNotes": [],
    "effectNotes": [],
    "links": {
      "children": [],
      "charges": []
    },
    "tag": "lordsBannerSwiftness",
    "useCustomTag": false,
    "flags": {
      "boolean": {},
      "dictionary": {}
    },
    "scriptCalls": [],
    "masterwork": false,
    "enh": null,
    "proficient": true,
    "held": "normal",
    "subType": "wondrous",
    "baseTypes": [],
    "equipmentSubtype": "lightArmor",
    "armor": {
      "value": 0,
      "dex": null,
      "acp": 0,
      "enh": 0
    },
    "spellFailure": 0,
    "slot": "slotless",
    "showInQuickbar": false
  },
  "ownership": {
    "default": 0
  },
  "_stats": {
    "systemId": "pf1",
    "systemVersion": "9.1",
    "coreVersion": "10.291",
    "createdTime": 1665428409784,
    "modifiedTime": 1689798018134,
    "lastModifiedBy": "ppv91YxratjWnkJi"
  },
  "effects": [],
  "folder": null,
  "sort": 0,
  "flags": {},
  "_key": "!items!t1kUYdNcTmsZP91x"
}