{
  "_id": "colT84VtZ3KVkK5z",
  "name": "Melding Cloak",
  "type": "equipment",
  "img": "icons/svg/item-bag.svg",
  "system": {
    "description": {
      "value": "<h2></b>Description</b></h2></p><p>This cloak is lined with thin strings of varying colors that shift in color to match surrounding material such as dirt, grass, or stone. This grants the wearer a +2 competence bonus on Stealth checks. As a standard action, the wearer is able to physically meld into material such as wood, plaster, or stone (but not metal or other heavily worked materials), appearing as a dim shadow on the surface. The wearer can move across any exposed portion of the material at half her normal movement speed, allowing her to travel up walls or across floors. While melded with material in this manner, the wearer gains a +10 circumstance bonus on Stealth checks. The wearer can meld with material for up to 10 minutes per day. This duration need not be consecutive, but it must be spent in 1-minute increments.  Nearby creatures can notice the melded wearer with a successful Perception check. The wearer can be targeted normally while melded with material. If the wearer takes any damage while melded, or if the surface material is manipulated with stone shape, warp wood, or similar spells, the wearer is immediately shunted out of the material into the nearest open space.<br><p><b>Base Item:</b> </p><h3><b>Requirements</b></h3><p>Craft Wondrous Item, invisibility, passwall</p><h3><b>Source: </b></h3>Monster Hunter's Handbook",
      "unidentified": ""
    },
    "tags": [],
    "quantity": 1,
    "weight": {
      "value": 1
    },
    "price": 25000,
    "size": "med",
    "equipped": true,
    "resizing": false,
    "identified": true,
    "hp": {
      "max": 10,
      "value": 10
    },
    "broken": false,
    "hardness": 0,
    "carried": true,
    "unidentified": {
      "price": 0,
      "name": ""
    },
    "cl": 10,
    "aura": {
      "custom": true,
      "school": "illusion and transmutation"
    },
    "changes": [],
    "changeFlags": {
      "loseDexToAC": false,
      "noEncumbrance": false,
      "mediumArmorFullSpeed": false,
      "heavyArmorFullSpeed": false
    },
    "contextNotes": [],
    "actions": [],
    "uses": {
      "per": null,
      "value": 0,
      "maxFormula": "",
      "autoDeductChargesCost": "1"
    },
    "attackNotes": [],
    "effectNotes": [],
    "links": {
      "children": [],
      "charges": []
    },
    "tag": "meldingCloak",
    "useCustomTag": false,
    "flags": {
      "boolean": {},
      "dictionary": {}
    },
    "scriptCalls": [],
    "masterwork": false,
    "enh": null,
    "proficient": true,
    "held": "normal",
    "subType": "wondrous",
    "baseTypes": [],
    "equipmentSubtype": "lightArmor",
    "armor": {
      "value": 0,
      "dex": null,
      "acp": 0,
      "enh": 0
    },
    "spellFailure": 0,
    "slot": "shoulders",
    "showInQuickbar": false
  },
  "ownership": {
    "default": 0
  },
  "_stats": {
    "systemId": "pf1",
    "systemVersion": "9.1",
    "coreVersion": "10.291",
    "createdTime": 1665428407842,
    "modifiedTime": 1689798006684,
    "lastModifiedBy": "ppv91YxratjWnkJi"
  },
  "effects": [],
  "folder": null,
  "sort": 0,
  "flags": {},
  "_key": "!items!colT84VtZ3KVkK5z"
}