{
  "_id": "Wkfq45mf6ePEOB8Q",
  "name": "Migrus Locker",
  "type": "equipment",
  "img": "icons/svg/item-bag.svg",
  "system": {
    "description": {
      "value": "<h2></b>Description</b></h2></p><p>This small locker is carved from fossilized wood and it is usually found chained and sealed. When the locker is unsealed and opened, the migrus-a desiccated hairless cat with a humanoid face-is found within. After a few moments the migrus animates and begins to clean itself, and its face begins to take the appearance of the creature who opened the migrus locker. The migrus considers the last creature to release it from the locker is its master.   The migrus moves in a strange jerky motion. It obeys simple verbal commands from its master. The migrus takes a very literal and brutal approach to problem solving and is fond of taking trophies. If the migrus is slain, it decays messily overnight in a glistening slick of putrid fluid. At the next dawn, the migrus reconstitutes within its locker (if the locker is opened before dawn, the partially-reconstituted migrus is visible inside, consuming the remnants of its former body.   The migrus has attributes of a cat familiar (Bestiary 131) except it has the construct type. The migrus always does its best to return to its master and cannot be permanently destroyed by normal means. If the locker is destroyed (hardness 5, 10 hp), the migrus is destroyed, no matter the distance to the locker.<br><p><b>Base Item:</b> </p><h3><b>Requirements</b></h3><p>Craft Wondrous Item, reincarnate or stone to flesh</p><h3><b>Source: </b></h3>Ultimate Equipment",
      "unidentified": ""
    },
    "tags": [],
    "quantity": 1,
    "weight": {
      "value": 20
    },
    "price": 10000,
    "size": "med",
    "equipped": true,
    "resizing": false,
    "identified": true,
    "hp": {
      "max": 10,
      "value": 10
    },
    "broken": false,
    "hardness": 0,
    "carried": true,
    "unidentified": {
      "price": 0,
      "name": ""
    },
    "cl": 6,
    "aura": {
      "custom": true,
      "school": "evocation"
    },
    "changes": [],
    "changeFlags": {
      "loseDexToAC": false,
      "noEncumbrance": false,
      "mediumArmorFullSpeed": false,
      "heavyArmorFullSpeed": false
    },
    "contextNotes": [],
    "actions": [],
    "uses": {
      "per": null,
      "value": 0,
      "maxFormula": "",
      "autoDeductChargesCost": "1"
    },
    "attackNotes": [],
    "effectNotes": [],
    "links": {
      "children": [],
      "charges": []
    },
    "tag": "migrusLocker",
    "useCustomTag": false,
    "flags": {
      "boolean": {},
      "dictionary": {}
    },
    "scriptCalls": [],
    "masterwork": false,
    "enh": null,
    "proficient": true,
    "held": "normal",
    "subType": "wondrous",
    "baseTypes": [],
    "equipmentSubtype": "lightArmor",
    "armor": {
      "value": 0,
      "dex": null,
      "acp": 0,
      "enh": 0
    },
    "spellFailure": 0,
    "slot": "slotless",
    "showInQuickbar": false
  },
  "ownership": {
    "default": 0
  },
  "_stats": {
    "systemId": "pf1",
    "systemVersion": "9.1",
    "coreVersion": "10.291",
    "createdTime": 1665428407207,
    "modifiedTime": 1689798002583,
    "lastModifiedBy": "ppv91YxratjWnkJi"
  },
  "effects": [],
  "folder": null,
  "sort": 0,
  "flags": {},
  "_key": "!items!Wkfq45mf6ePEOB8Q"
}