{
  "_id": "lZO0Wg69m3WawEbi",
  "name": "Mistcaller",
  "type": "equipment",
  "img": "icons/svg/item-bag.svg",
  "system": {
    "description": {
      "value": "<h2></b>Description</b></h2></p><p>Carved from a mammoth tusk, this ivory flute is covered with delicate carvings of wind blowing over waves, which are inlaid with silver. It functions as a masterwork musical instrument, although the notes are pitched much lower than most flutes and any tune, no matter how jauntily played, carries a mournful quality.  Once per day, the user can attempt a DC 15 Perform (wind) check to summon a bank of spectral fog. This effect functions as obscuring mist c entered o n t he user, except it moves with the user. The mist lasts for as long as the user continues to play, to a maximum of 5 minutes. Spectral faces appear to anyone within the mist other than the user, whispering for those within the mist to lay down their burdens and rest. Anyone within the mist other than the user can elect to fall asleep as a free action. Creatures asleep within the spectral fog heal 1 hit point per minute spent sleeping, and recover 1 point of ability damage if they spend at least 1 full minute asleep. Sleepers under this effect can be awakened normally.<br><p><b>Base Item:</b> </p><h3><b>Requirements</b></h3><p>Craft Wondrous Item, fog cloud, restoration</p><h3><b>Source: </b></h3>Lost Treasures",
      "unidentified": ""
    },
    "tags": [],
    "quantity": 1,
    "weight": {
      "value": 2
    },
    "price": 16000,
    "size": "med",
    "equipped": true,
    "resizing": false,
    "identified": true,
    "hp": {
      "max": 10,
      "value": 10
    },
    "broken": false,
    "hardness": 0,
    "carried": true,
    "unidentified": {
      "price": 0,
      "name": ""
    },
    "cl": 9,
    "aura": {
      "custom": true,
      "school": "conjuration"
    },
    "changes": [],
    "changeFlags": {
      "loseDexToAC": false,
      "noEncumbrance": false,
      "mediumArmorFullSpeed": false,
      "heavyArmorFullSpeed": false
    },
    "contextNotes": [],
    "actions": [],
    "uses": {
      "per": null,
      "value": 0,
      "maxFormula": "",
      "autoDeductChargesCost": "1"
    },
    "attackNotes": [],
    "effectNotes": [],
    "links": {
      "children": [],
      "charges": []
    },
    "tag": "mistcaller",
    "useCustomTag": false,
    "flags": {
      "boolean": {},
      "dictionary": {}
    },
    "scriptCalls": [],
    "masterwork": false,
    "enh": null,
    "proficient": true,
    "held": "normal",
    "subType": "wondrous",
    "baseTypes": [],
    "equipmentSubtype": "lightArmor",
    "armor": {
      "value": 0,
      "dex": null,
      "acp": 0,
      "enh": 0
    },
    "spellFailure": 0,
    "slot": "slotless",
    "showInQuickbar": false
  },
  "ownership": {
    "default": 0
  },
  "_stats": {
    "systemId": "pf1",
    "systemVersion": "9.1",
    "coreVersion": "10.291",
    "createdTime": 1665428408991,
    "modifiedTime": 1689798012840,
    "lastModifiedBy": "ppv91YxratjWnkJi"
  },
  "effects": [],
  "folder": null,
  "sort": 0,
  "flags": {},
  "_key": "!items!lZO0Wg69m3WawEbi"
}