{
  "_id": "M03qJEFgMEL2RtcT",
  "name": "Necklace of Lovelies",
  "type": "equipment",
  "img": "icons/svg/item-bag.svg",
  "system": {
    "description": {
      "value": "<h2></b>Description</b></h2></p><p>This repugnant and cruel magic item consists of a chain of cold iron on which dangle six tiny, cold iron cages, each of which contains a living but miniaturized pixie. While the pixies are free to shriek and yell and cry, the item prevents them from taking any action that would directly free them from their cage and suppresses all of their supernatural and spell-like abilities. As a swift action, the wearer of a necklace of lovelies can redirect hit point damage inflicted on him from any single attack or effect that damages him onto one of the pixies on the necklace-doing so automatically kills the poor pixie in a tiny explosion of blood. Once all of the necklace's pixies are dead or released, the necklace becomes nonmagical. The magic of a necklace of lovelies can also be released by breaking open one of the tiny pixie cages (hardness 10; hp 10; Break DC 20). If the cage contains a living pixie, the grateful fey quickly escapes and returns to normal size-in so doing, the wash of energy allows the pixie to bestow luck upon the creature who broke that particular cage if the pixie so chooses (most pixies are grateful enough to a rescuer to automatically grant this boon). An instant after the luck is bestowed, the grateful pixie vanishes (presumably back to the area in which he or she was first imprisoned in the necklace during its creation). The luck granted by this effect can be used at any point once during the next 7 days as a swift action whenever a d20 is rolled-it allows the lucky soul to roll 2d20 and pick which result he wishes to accept.<br><p><b>Base Item:</b> </p><h3><b>Requirements</b></h3><p>Craft Wondrous Item, imprisonment, shield other, 6 willing or helpless pixies</p><h3><b>Source: </b></h3>AP 36",
      "unidentified": ""
    },
    "tags": [],
    "quantity": 1,
    "weight": {
      "value": 4
    },
    "price": 36000,
    "size": "med",
    "equipped": true,
    "resizing": false,
    "identified": true,
    "hp": {
      "max": 10,
      "value": 10
    },
    "broken": false,
    "hardness": 0,
    "carried": true,
    "unidentified": {
      "price": 0,
      "name": ""
    },
    "cl": 17,
    "aura": {
      "custom": true,
      "school": "abjuration evil"
    },
    "changes": [],
    "changeFlags": {
      "loseDexToAC": false,
      "noEncumbrance": false,
      "mediumArmorFullSpeed": false,
      "heavyArmorFullSpeed": false
    },
    "contextNotes": [],
    "actions": [],
    "uses": {
      "per": null,
      "value": 0,
      "maxFormula": "",
      "autoDeductChargesCost": "1"
    },
    "attackNotes": [],
    "effectNotes": [],
    "links": {
      "children": [],
      "charges": []
    },
    "tag": "necklaceOfLovelies",
    "useCustomTag": false,
    "flags": {
      "boolean": {},
      "dictionary": {}
    },
    "scriptCalls": [],
    "masterwork": false,
    "enh": null,
    "proficient": true,
    "held": "normal",
    "subType": "wondrous",
    "baseTypes": [],
    "equipmentSubtype": "lightArmor",
    "armor": {
      "value": 0,
      "dex": null,
      "acp": 0,
      "enh": 0
    },
    "spellFailure": 0,
    "slot": "neck",
    "showInQuickbar": false
  },
  "ownership": {
    "default": 0
  },
  "_stats": {
    "systemId": "pf1",
    "systemVersion": "9.1",
    "coreVersion": "10.291",
    "createdTime": 1665428406005,
    "modifiedTime": 1689797995520,
    "lastModifiedBy": "ppv91YxratjWnkJi"
  },
  "effects": [],
  "folder": null,
  "sort": 0,
  "flags": {},
  "_key": "!items!M03qJEFgMEL2RtcT"
}