{
  "_id": "hFefSOATApgdQFms",
  "name": "Nightstone Of Sorrow",
  "type": "equipment",
  "img": "icons/svg/item-bag.svg",
  "system": {
    "description": {
      "value": "<h2></b>Description</b></h2></p><p>This black rock, usually worn on a heavy chain, looks pitted and partially charred and melted.  It gives the impression of reckless evil-more a dangerous scent than any other kind of feeling. The wearer gains fire resistance 1 and a +1 resistance bonus on Will saves against fear. If the wearer takes 10 or more points of fire damage in a single round, a claw-shaped pattern glows faintly on the surface of the stone, similar to an arcane mark.  If the dragon god Dahak is the wearer's patron, the wearer can use shatter once per day. At will, the wearer can cause the claw-symbol on the rock to glow; true dragons immediately recognize the symbol as an icon of Dahak.<br><p><b>Base Item:</b> </p><h3><b>Requirements</b></h3><p>Craft Wondrous Item, arcane mark, remove fear, resist energy, shatter</p><h3><b>Source: </b></h3>Inner Sea Gods",
      "unidentified": ""
    },
    "tags": [],
    "quantity": 1,
    "weight": {
      "value": 2
    },
    "price": 3300,
    "size": "med",
    "equipped": true,
    "resizing": false,
    "identified": true,
    "hp": {
      "max": 10,
      "value": 10
    },
    "broken": false,
    "hardness": 0,
    "carried": true,
    "unidentified": {
      "price": 0,
      "name": ""
    },
    "cl": 3,
    "aura": {
      "custom": true,
      "school": "abjuration [evil]"
    },
    "changes": [],
    "changeFlags": {
      "loseDexToAC": false,
      "noEncumbrance": false,
      "mediumArmorFullSpeed": false,
      "heavyArmorFullSpeed": false
    },
    "contextNotes": [],
    "actions": [],
    "uses": {
      "per": null,
      "value": 0,
      "maxFormula": "",
      "autoDeductChargesCost": "1"
    },
    "attackNotes": [],
    "effectNotes": [],
    "links": {
      "children": [],
      "charges": []
    },
    "tag": "nightstoneOfSorrow",
    "useCustomTag": false,
    "flags": {
      "boolean": {},
      "dictionary": {}
    },
    "scriptCalls": [],
    "masterwork": false,
    "enh": null,
    "proficient": true,
    "held": "normal",
    "subType": "wondrous",
    "baseTypes": [],
    "equipmentSubtype": "lightArmor",
    "armor": {
      "value": 0,
      "dex": null,
      "acp": 0,
      "enh": 0
    },
    "spellFailure": 0,
    "slot": "neck",
    "showInQuickbar": false
  },
  "ownership": {
    "default": 0
  },
  "_stats": {
    "systemId": "pf1",
    "systemVersion": "9.1",
    "coreVersion": "10.291",
    "createdTime": 1665428408405,
    "modifiedTime": 1689798009727,
    "lastModifiedBy": "ppv91YxratjWnkJi"
  },
  "effects": [],
  "folder": null,
  "sort": 0,
  "flags": {},
  "_key": "!items!hFefSOATApgdQFms"
}