{
  "_id": "hYX6K50eupBWZ7fc",
  "name": "Noble's Vigilant Pillbox",
  "type": "equipment",
  "img": "icons/svg/item-bag.svg",
  "system": {
    "description": {
      "value": "<h2></b>Description</b></h2></p><p>This heart-shaped charm is set with three pearls: one white, one silver, and one black. Inside, a tiny compartment usually contains smelling salts (page 101) or alchemist's kindness (page 100). Each pearl has a primary, passive ability and a secondary, active ability that activates if it is removed from the setting and swallowed (a standard action, as if drinking a potion). Swallowing a pearl destroys it. A command word activates the primary abilities of all three pearls for 1 round.   When activated, the white pearl detects poison in a 10- foot radius around the wearer, dulling to a dark gray if poison is within range. If swallowed, it grants the benefit of a delay poison spell.   The silver pearl detects diseases in a 10-foot radius, turning bright blue on discovery. If swallowed, it grants the benefit of a remove disease spell.   The black pearl turns white if any invisible creature is within 10 feet of the wearer. If swallowed, it grants the benefits of see invisibility for 1 minute.   A charms found with missing pearls has its price reduced appropriately; a white pearl is worth 750 gp, a silver pearl is worth 1,150 gp, and black pearl is worth 1,700 gp.<br><p><b>Base Item:</b> </p><h3><b>Requirements</b></h3><p>Craft Wondrous Item, delay poison, detect poison, remove disease, see invisibility</p><h3><b>Source: </b></h3>Ultimate Equipment",
      "unidentified": ""
    },
    "tags": [],
    "quantity": 1,
    "weight": {
      "value": 0
    },
    "price": 3600,
    "size": "med",
    "equipped": true,
    "resizing": false,
    "identified": true,
    "hp": {
      "max": 10,
      "value": 10
    },
    "broken": false,
    "hardness": 0,
    "carried": true,
    "unidentified": {
      "price": 0,
      "name": ""
    },
    "cl": 5,
    "aura": {
      "custom": true,
      "school": "divination"
    },
    "changes": [],
    "changeFlags": {
      "loseDexToAC": false,
      "noEncumbrance": false,
      "mediumArmorFullSpeed": false,
      "heavyArmorFullSpeed": false
    },
    "contextNotes": [],
    "actions": [],
    "uses": {
      "per": null,
      "value": 0,
      "maxFormula": "",
      "autoDeductChargesCost": "1"
    },
    "attackNotes": [],
    "effectNotes": [],
    "links": {
      "children": [],
      "charges": []
    },
    "tag": "noblesVigilantPillbox",
    "useCustomTag": false,
    "flags": {
      "boolean": {},
      "dictionary": {}
    },
    "scriptCalls": [],
    "masterwork": false,
    "enh": null,
    "proficient": true,
    "held": "normal",
    "subType": "wondrous",
    "baseTypes": [],
    "equipmentSubtype": "lightArmor",
    "armor": {
      "value": 0,
      "dex": null,
      "acp": 0,
      "enh": 0
    },
    "spellFailure": 0,
    "slot": "slotless",
    "showInQuickbar": false
  },
  "ownership": {
    "default": 0
  },
  "_stats": {
    "systemId": "pf1",
    "systemVersion": "9.1",
    "coreVersion": "10.291",
    "createdTime": 1665428408419,
    "modifiedTime": 1689798009891,
    "lastModifiedBy": "ppv91YxratjWnkJi"
  },
  "effects": [],
  "folder": null,
  "sort": 0,
  "flags": {},
  "_key": "!items!hYX6K50eupBWZ7fc"
}