{
  "_id": "hD1eK62XloZRdGxr",
  "name": "Obsession Ring",
  "type": "equipment",
  "img": "systems/pf1/icons/items/jewelry/ring-red.jpg",
  "system": {
    "description": {
      "value": "<h2></b>Description</b></h2></p><p>These rings of protection +3 are extremely varied in form. They can be of any alignment and each has its own unique personality and proclivities. Each ring has a specific obsession. To determine a particular obsession ring's obsession, roll on Table 6-10: Intelligent Item Purpose. When the ring is in pursuit of its purpose, its Ego is 10 points higher than normal.  Gnomes with the obsession racial trait have a unique understanding of the ring's mentality and gain a +5 bonus on Will saving throws to resist the obsession ring's attempts to dominate the wearer.  When an obsession ring is engaged in action directly related to its obsession, it grants its wearer the following powers, but can choose to withhold such powers if it does not believe their uses would further its obsession.  • The ring functions as a ring of protection +5.  • The ring grants its wearer a +2 luck bonus on attack rolls against creatures its obsession is sworn to defeat.  • Three times per day, the ring can allow its wearer to reroll any saving throw. The wearer gains a +4 luck bonus on the saving throw reroll.  These rings are typically quite emphatic on their desire to fulfill their obsessions, and frequently communicate with their wielder to encourage pursuit of this goal.<br><p><b>Base Item:</b> </p><h3><b>Requirements</b></h3><p>Forge Ring, shield of faith, creator must be 15th level (or 9th level if the creator is a gnome)</p><h3><b>Source: </b></h3>Ultimate Equipment",
      "unidentified": ""
    },
    "tags": [],
    "quantity": 1,
    "weight": {
      "value": 0
    },
    "price": 116500,
    "size": "med",
    "equipped": true,
    "resizing": false,
    "identified": true,
    "hp": {
      "max": 10,
      "value": 10
    },
    "broken": false,
    "hardness": 0,
    "carried": true,
    "unidentified": {
      "price": 0,
      "name": ""
    },
    "cl": 9,
    "aura": {
      "custom": true,
      "school": "abjuration"
    },
    "changes": [],
    "changeFlags": {
      "loseDexToAC": false,
      "noEncumbrance": false,
      "mediumArmorFullSpeed": false,
      "heavyArmorFullSpeed": false
    },
    "contextNotes": [],
    "actions": [],
    "uses": {
      "per": null,
      "value": 0,
      "maxFormula": "",
      "autoDeductChargesCost": "1"
    },
    "attackNotes": [],
    "effectNotes": [],
    "links": {
      "children": [],
      "charges": []
    },
    "tag": "obsessionRing",
    "useCustomTag": false,
    "flags": {
      "boolean": {},
      "dictionary": {}
    },
    "scriptCalls": [],
    "masterwork": false,
    "enh": null,
    "proficient": true,
    "held": "normal",
    "subType": "other",
    "baseTypes": [],
    "equipmentSubtype": "lightArmor",
    "armor": {
      "value": 0,
      "dex": null,
      "acp": 0,
      "enh": 0
    },
    "spellFailure": 0,
    "slot": "other",
    "showInQuickbar": false
  },
  "ownership": {
    "default": 0
  },
  "_stats": {
    "systemId": "pf1",
    "systemVersion": "9.1",
    "coreVersion": "10.291",
    "createdTime": 1665428408401,
    "modifiedTime": 1689798009679,
    "lastModifiedBy": "ppv91YxratjWnkJi"
  },
  "effects": [],
  "folder": null,
  "sort": 0,
  "flags": {},
  "_key": "!items!hD1eK62XloZRdGxr"
}