{
  "_id": "0S5iF4zry74eN2V5",
  "name": "Oozeclot Unguent",
  "type": "equipment",
  "img": "icons/svg/item-bag.svg",
  "system": {
    "description": {
      "value": "<h2></b>Description</b></h2></p><p>A single dose of oozeclot unguent can be applied to a 5-foot-square surface, whereupon it remains potent for 24 hours or until an ooze comes in contact with it. An ooze that crawls onto a surface treated with oozeclot unguent must succeed at a DC 15 Fortitude save or become immobile as its amorphous body grows rigid. As long as it is thus affected, the ooze can take no physical actions. Any amount of damage causes the hardened shell surrounding the ooze to crack, allowing the creature to slither out and resume attacks; otherwise it remains immobile for an extended period of time. An ooze of CR 3 or less is immobile for 1 week, while an ooze of CR 4 to CR 6 remains immobile for only 1d6 days. A CR 7 to CR 11 ooze is rendered immobile only for 1d6 rounds, and it can attempt a new saving throw at the end of each round to end the effect early. Oozes of CR 12 or higher are immune to the effects of oozeclot unguent entirely.<br><p><b>Base Item:</b> </p><h3><b>Requirements</b></h3><p>Craft Wondrous Item, barkskin</p><h3><b>Source: </b></h3>AP 134",
      "unidentified": ""
    },
    "tags": [],
    "quantity": 1,
    "weight": {
      "value": 0
    },
    "price": 900,
    "size": "med",
    "equipped": true,
    "resizing": false,
    "identified": true,
    "hp": {
      "max": 10,
      "value": 10
    },
    "broken": false,
    "hardness": 0,
    "carried": true,
    "unidentified": {
      "price": 0,
      "name": ""
    },
    "cl": 3,
    "aura": {
      "custom": true,
      "school": "transmutation"
    },
    "changes": [],
    "changeFlags": {
      "loseDexToAC": false,
      "noEncumbrance": false,
      "mediumArmorFullSpeed": false,
      "heavyArmorFullSpeed": false
    },
    "contextNotes": [],
    "actions": [],
    "uses": {
      "per": null,
      "value": 0,
      "maxFormula": "",
      "autoDeductChargesCost": "1"
    },
    "attackNotes": [],
    "effectNotes": [],
    "links": {
      "children": [],
      "charges": []
    },
    "tag": "oozeclotUnguent",
    "useCustomTag": false,
    "flags": {
      "boolean": {},
      "dictionary": {}
    },
    "scriptCalls": [],
    "masterwork": false,
    "enh": null,
    "proficient": true,
    "held": "normal",
    "subType": "wondrous",
    "baseTypes": [],
    "equipmentSubtype": "lightArmor",
    "armor": {
      "value": 0,
      "dex": null,
      "acp": 0,
      "enh": 0
    },
    "spellFailure": 0,
    "slot": "slotless",
    "showInQuickbar": false
  },
  "ownership": {
    "default": 0
  },
  "_stats": {
    "systemId": "pf1",
    "systemVersion": "9.1",
    "coreVersion": "10.291",
    "createdTime": 1665428403393,
    "modifiedTime": 1689797980966,
    "lastModifiedBy": "ppv91YxratjWnkJi"
  },
  "effects": [],
  "folder": null,
  "sort": 0,
  "flags": {},
  "_key": "!items!0S5iF4zry74eN2V5"
}