{
  "_id": "8IWUF51Fq8eSbP2X",
  "name": "Ophidian Coil",
  "type": "equipment",
  "img": "systems/pf1/icons/items/jewelry/ring-red.jpg",
  "system": {
    "description": {
      "value": "<h2></b>Description</b></h2></p><p>This small wooden ring resembles a serpent with tiny gemstone eyes coiling around the wearer's finger. If worn for 24 hours, it causes its wearer to manifest many serpentine traits. The wearer's skin develops a faint, diamond-shaped pattern, and the pupils of her eyes elongate. The wearer grows a pair of fangs, gaining a bite attack as a primary natural attack that deals 1d4 points of piercing damage for a Medium wearer or 1d3 points of damage for a Small wearer.  Three times per day as a free action, the wearer of the  ring may cause her fangs to drip with venom, making her bite attack poisonous for 1 round. The save DC of this poison is equal to 10 + 1/2 the wearer's Hit Dice + the wearer's Constitution modifier, but otherwise acts as black adder venom. If the wearer rolls a natural 1 on an attack with her poisonous bite, she is exposed to the poison.  Once per day as a standard action, the wearer may command her tongue to lengthen and become forked for 1 minute, gaining the scent special ability. While this ability is active, the wearer has a 20% chance of failure when casting any spell with a verbal component, as the tongue makes it difficult to speak.  The ring makes its wearer more sensitive to cold. She takes a -2 penalty to saves against spells with the cold descriptor and the effects of cold weather. Additionally, if the wearer is successfully affected by a spell with the cold descriptor, she is slowed for 1 round.<br><p><b>Base Item:</b> </p><h3><b>Requirements</b></h3><p>Forge Ring, beast shape I, poison</p><h3><b>Source: </b></h3>Down The Blighted Path",
      "unidentified": ""
    },
    "tags": [],
    "quantity": 1,
    "weight": {
      "value": 0
    },
    "price": 15000,
    "size": "med",
    "equipped": true,
    "resizing": false,
    "identified": true,
    "hp": {
      "max": 10,
      "value": 10
    },
    "broken": false,
    "hardness": 0,
    "carried": true,
    "unidentified": {
      "price": 0,
      "name": ""
    },
    "cl": 5,
    "aura": {
      "custom": true,
      "school": "transmutation"
    },
    "changes": [],
    "changeFlags": {
      "loseDexToAC": false,
      "noEncumbrance": false,
      "mediumArmorFullSpeed": false,
      "heavyArmorFullSpeed": false
    },
    "contextNotes": [],
    "actions": [],
    "uses": {
      "per": null,
      "value": 0,
      "maxFormula": "",
      "autoDeductChargesCost": "1"
    },
    "attackNotes": [],
    "effectNotes": [],
    "links": {
      "children": [],
      "charges": []
    },
    "tag": "ophidianCoil",
    "useCustomTag": false,
    "flags": {
      "boolean": {},
      "dictionary": {}
    },
    "scriptCalls": [],
    "masterwork": false,
    "enh": null,
    "proficient": true,
    "held": "normal",
    "subType": "wondrous",
    "baseTypes": [],
    "equipmentSubtype": "lightArmor",
    "armor": {
      "value": 0,
      "dex": null,
      "acp": 0,
      "enh": 0
    },
    "spellFailure": 0,
    "slot": "ring",
    "showInQuickbar": false
  },
  "ownership": {
    "default": 0
  },
  "_stats": {
    "systemId": "pf1",
    "systemVersion": "9.1",
    "coreVersion": "10.291",
    "createdTime": 1665428404186,
    "modifiedTime": 1689797987147,
    "lastModifiedBy": "ppv91YxratjWnkJi"
  },
  "effects": [],
  "folder": null,
  "sort": 0,
  "flags": {},
  "_key": "!items!8IWUF51Fq8eSbP2X"
}