{
  "_id": "KyxQ88QjP7aWoLeq",
  "name": "Orb Of Utter Chaos",
  "type": "equipment",
  "img": "icons/svg/item-bag.svg",
  "system": {
    "description": {
      "value": "<h2></b>Description</b></h2></p><p>This globe of varicolored material constantly shifts hue and texture, from steel-hard to spongy or even gelatinous. The bearer of the orb is constantly protected by entropic shield. Three times per day, when the bearer holds the orb and casts a spell with the polymorph subtype, chaotic descriptor, or one that gives creatures the confused condition, she may modify her caster level for that spell by 1d6-2.   Once per day the bearer may hold the orb and command it to dispel magic. If the dispel check succeeds, the wielder absorbs the unraveled magical energy through the orb and gains the benefit of an aid spell.   The orb bestows one permanent negative level on any lawful creature holding or carrying it. The negative level remains as long as the creature has the orb and disappears immediately when the orb is no longer held or carried. This negative level cannot be overcome in any way (including by restoration spells) while the bearer has the orb.<br><p><b>Base Item:</b> </p><h3><b>Requirements</b></h3><p>Craft Wondrous Item, aid, dispel magic, entropic shield</p><h3><b>Source: </b></h3>Ultimate Equipment",
      "unidentified": ""
    },
    "tags": [],
    "quantity": 1,
    "weight": {
      "value": 1
    },
    "price": 36000,
    "size": "med",
    "equipped": true,
    "resizing": false,
    "identified": true,
    "hp": {
      "max": 10,
      "value": 10
    },
    "broken": false,
    "hardness": 0,
    "carried": true,
    "unidentified": {
      "price": 0,
      "name": ""
    },
    "cl": 10,
    "aura": {
      "custom": true,
      "school": "abjuration"
    },
    "changes": [],
    "changeFlags": {
      "loseDexToAC": false,
      "noEncumbrance": false,
      "mediumArmorFullSpeed": false,
      "heavyArmorFullSpeed": false
    },
    "contextNotes": [],
    "actions": [],
    "uses": {
      "per": null,
      "value": 0,
      "maxFormula": "",
      "autoDeductChargesCost": "1"
    },
    "attackNotes": [],
    "effectNotes": [],
    "links": {
      "children": [],
      "charges": []
    },
    "tag": "orbOfUtterChaos",
    "useCustomTag": false,
    "flags": {
      "boolean": {},
      "dictionary": {}
    },
    "scriptCalls": [],
    "masterwork": false,
    "enh": null,
    "proficient": true,
    "held": "normal",
    "subType": "wondrous",
    "baseTypes": [],
    "equipmentSubtype": "lightArmor",
    "armor": {
      "value": 0,
      "dex": null,
      "acp": 0,
      "enh": 0
    },
    "spellFailure": 0,
    "slot": "slotless",
    "showInQuickbar": false
  },
  "ownership": {
    "default": 0
  },
  "_stats": {
    "systemId": "pf1",
    "systemVersion": "9.1",
    "coreVersion": "10.291",
    "createdTime": 1665428405632,
    "modifiedTime": 1689797994464,
    "lastModifiedBy": "ppv91YxratjWnkJi"
  },
  "effects": [],
  "folder": null,
  "sort": 0,
  "flags": {},
  "_key": "!items!KyxQ88QjP7aWoLeq"
}