{
  "_id": "lsGElj0J4vCjiLle",
  "name": "Parley Ward",
  "type": "equipment",
  "img": "icons/svg/item-bag.svg",
  "system": {
    "description": {
      "value": "<h2></b>Description</b></h2></p><p>This hemispherical dome of jet-black crystal has no discernible markings on its curved surface, but faint runes (including the command word) are visible on the flat side. Three times per week, whenever it is placed flat side down and the command word is spoken, the parley ward hums and projects a black dome-shaped field that slowly expands for 1 minute and then finally snaps into place, covering up to a 30-foot-radius area, though the area can be reduced and shaped to encompass the interior of a room or structure (such as a meeting hall or pavilion) in order to make it less obvious to those on the outside. The affected area becomes a protected zone that provides complete privacy, preventing sound, light, and divination and scrying spells from penetrating, as per the mage's private sanctum spell. Additionally, the protected zone discourages any creatures within from committing deliberate hostile acts, as though they were affected by the serenityUM spell (with no save allowed). Each use of the magic of the parley ward can function for up to 24 hours, or until the user deactivates it. Once the parley ward is activated, neither the item nor its zone can be moved; attempting to do so deactivates it, consuming one of its 3 weekly charges.<br><p><b>Base Item:</b> </p><h3><b>Requirements</b></h3><p>Craft Wondrous Item, mage's private sanctum, serenityUM</p><h3><b>Source: </b></h3>Ultimate Intrigue",
      "unidentified": ""
    },
    "tags": [],
    "quantity": 1,
    "weight": {
      "value": 2
    },
    "price": 52000,
    "size": "med",
    "equipped": true,
    "resizing": false,
    "identified": true,
    "hp": {
      "max": 10,
      "value": 10
    },
    "broken": false,
    "hardness": 0,
    "carried": true,
    "unidentified": {
      "price": 0,
      "name": ""
    },
    "cl": 11,
    "aura": {
      "custom": true,
      "school": "abjuration"
    },
    "changes": [],
    "changeFlags": {
      "loseDexToAC": false,
      "noEncumbrance": false,
      "mediumArmorFullSpeed": false,
      "heavyArmorFullSpeed": false
    },
    "contextNotes": [],
    "actions": [],
    "uses": {
      "per": null,
      "value": 0,
      "maxFormula": "",
      "autoDeductChargesCost": "1"
    },
    "attackNotes": [],
    "effectNotes": [],
    "links": {
      "children": [],
      "charges": []
    },
    "tag": "parleyWard",
    "useCustomTag": false,
    "flags": {
      "boolean": {},
      "dictionary": {}
    },
    "scriptCalls": [],
    "masterwork": false,
    "enh": null,
    "proficient": true,
    "held": "normal",
    "subType": "wondrous",
    "baseTypes": [],
    "equipmentSubtype": "lightArmor",
    "armor": {
      "value": 0,
      "dex": null,
      "acp": 0,
      "enh": 0
    },
    "spellFailure": 0,
    "slot": "slotless",
    "showInQuickbar": false
  },
  "ownership": {
    "default": 0
  },
  "_stats": {
    "systemId": "pf1",
    "systemVersion": "9.1",
    "coreVersion": "10.291",
    "createdTime": 1665428409013,
    "modifiedTime": 1689798013050,
    "lastModifiedBy": "ppv91YxratjWnkJi"
  },
  "effects": [],
  "folder": null,
  "sort": 0,
  "flags": {},
  "_key": "!items!lsGElj0J4vCjiLle"
}