{
  "_id": "bYOXUWwBGYFGCnhh",
  "name": "Pearlescent Pyramid Ioun Stone",
  "type": "equipment",
  "img": "icons/svg/item-bag.svg",
  "system": {
    "description": {
      "value": "<h2></b>Description</b></h2></p><p>This ioun stone resembles a small, pearl-white tetrahedron. This stone grants the ghost touch special ability to the user's unarmed strikes and to melee weapons she wields. The user can also focus her gaze as a standard action and gain the benefits of see invisibility for 1 round. If the user is incorporeal, corporeal melee weapons she touches gain the ghost touch special ability, allowing her to pick up and use corporeal melee weapons as normal.  Resonant Power: This stone grants the ghost touch special ability to normal or masterwork light armor the user has worn for at least 24 hours. This benefit lasts as long as the armor is in the user's possession.  Cracked: This stone functions as normal, but the user's unarmed strikes and melee weapons lose all enhancement bonuses and other weapon special abilities except for the ghost touch special ability granted by this stone (although a magic weapon that loses its enhancement bonuses still counts as a magic weapon for the purpose of overcoming damage reduction). Price: 32,000 gp.  Flawed: This stone functions as normal, but it doesn't grant the user the benefits of see invisibility. Price: 45,000 gp.<br><p><b>Base Item:</b> </p><h3><b>Requirements</b></h3><p>Craft Wondrous Item, creator must be 12th level</p><h3><b>Source: </b></h3>AP 125",
      "unidentified": ""
    },
    "tags": [],
    "quantity": 1,
    "weight": {
      "value": 0
    },
    "price": 48000,
    "size": "med",
    "equipped": true,
    "resizing": false,
    "identified": true,
    "hp": {
      "max": 10,
      "value": 10
    },
    "broken": false,
    "hardness": 0,
    "carried": true,
    "unidentified": {
      "price": 0,
      "name": ""
    },
    "cl": 12,
    "aura": {
      "custom": true,
      "school": "conjuration"
    },
    "changes": [],
    "changeFlags": {
      "loseDexToAC": false,
      "noEncumbrance": false,
      "mediumArmorFullSpeed": false,
      "heavyArmorFullSpeed": false
    },
    "contextNotes": [],
    "actions": [],
    "uses": {
      "per": null,
      "value": 0,
      "maxFormula": "",
      "autoDeductChargesCost": "1"
    },
    "attackNotes": [],
    "effectNotes": [],
    "links": {
      "children": [],
      "charges": []
    },
    "tag": "pearlescentPyramidIounStone",
    "useCustomTag": false,
    "flags": {
      "boolean": {},
      "dictionary": {}
    },
    "scriptCalls": [],
    "masterwork": false,
    "enh": null,
    "proficient": true,
    "held": "normal",
    "subType": "wondrous",
    "baseTypes": [],
    "equipmentSubtype": "lightArmor",
    "armor": {
      "value": 0,
      "dex": null,
      "acp": 0,
      "enh": 0
    },
    "spellFailure": 0,
    "slot": "slotless",
    "showInQuickbar": false
  },
  "ownership": {
    "default": 0
  },
  "_stats": {
    "systemId": "pf1",
    "systemVersion": "9.1",
    "coreVersion": "10.291",
    "createdTime": 1665428407770,
    "modifiedTime": 1689798005864,
    "lastModifiedBy": "ppv91YxratjWnkJi"
  },
  "effects": [],
  "folder": null,
  "sort": 0,
  "flags": {},
  "_key": "!items!bYOXUWwBGYFGCnhh"
}