{
  "_id": "P6xn39s6hQWcjE1G",
  "name": "Pelt Of The Ulfen Wolf",
  "type": "equipment",
  "img": "icons/svg/item-bag.svg",
  "system": {
    "description": {
      "value": "<h2></b>Description</b></h2></p><p>This pelt of a large northern wolf is fashioned into a cloak. It can be activated up to five times per day.  When struck in combat, the wearer can spend one use as a swift action to animate a ghostly wolf from the pelt. This ghostly apparition strikes the creature that attacked the wearer with a wolf's bite attack (Bestiary 278). The wearer can spend one additional use each subsequent round to have the wolf continue attacking the target. The apparition can't be redirected, and disappears if the target moves more than 5 feet of the wearer or dies. The pelt can manifest only one wolf apparition at a time. Apart from these restrictions, the wolf can be directed as a spiritual weapon spell.  When a human wears a pelt of the Ulfen wolf, he gains a +1 morale bonus on saving throws against emotion effects. In addition, any round in which he begins his turn affected by a fear effect, he can attempt a new save at the beginning of the turn to reduce the severity of the fear effect from panicked to frightened, frightened to shaken, or shaken to unaffected.<br><p><b>Base Item:</b> </p><h3><b>Requirements</b></h3><p>Craft Wondrous Item, remove fear, spiritual weapon</p><h3><b>Source: </b></h3>Inner Sea Combat",
      "unidentified": ""
    },
    "tags": [],
    "quantity": 1,
    "weight": {
      "value": 3
    },
    "price": 14800,
    "size": "med",
    "equipped": true,
    "resizing": false,
    "identified": true,
    "hp": {
      "max": 10,
      "value": 10
    },
    "broken": false,
    "hardness": 0,
    "carried": true,
    "unidentified": {
      "price": 0,
      "name": ""
    },
    "cl": 3,
    "aura": {
      "custom": true,
      "school": "evocation"
    },
    "changes": [],
    "changeFlags": {
      "loseDexToAC": false,
      "noEncumbrance": false,
      "mediumArmorFullSpeed": false,
      "heavyArmorFullSpeed": false
    },
    "contextNotes": [],
    "actions": [],
    "uses": {
      "per": null,
      "value": 0,
      "maxFormula": "",
      "autoDeductChargesCost": "1"
    },
    "attackNotes": [],
    "effectNotes": [],
    "links": {
      "children": [],
      "charges": []
    },
    "tag": "peltOfTheUlfenWolf",
    "useCustomTag": false,
    "flags": {
      "boolean": {},
      "dictionary": {}
    },
    "scriptCalls": [],
    "masterwork": false,
    "enh": null,
    "proficient": true,
    "held": "normal",
    "subType": "wondrous",
    "baseTypes": [],
    "equipmentSubtype": "lightArmor",
    "armor": {
      "value": 0,
      "dex": null,
      "acp": 0,
      "enh": 0
    },
    "spellFailure": 0,
    "slot": "shoulders",
    "showInQuickbar": false
  },
  "ownership": {
    "default": 0
  },
  "_stats": {
    "systemId": "pf1",
    "systemVersion": "9.1",
    "coreVersion": "10.291",
    "createdTime": 1665428406180,
    "modifiedTime": 1689797996980,
    "lastModifiedBy": "ppv91YxratjWnkJi"
  },
  "effects": [],
  "folder": null,
  "sort": 0,
  "flags": {},
  "_key": "!items!P6xn39s6hQWcjE1G"
}