{
  "_id": "nlC3tJNnTMh0RkbB",
  "name": "Phlogiston Vial",
  "type": "equipment",
  "img": "icons/svg/item-bag.svg",
  "system": {
    "description": {
      "value": "<h2></b>Description</b></h2></p><p>This 1-inch-long, clear glass vial is filled with a dark, amber-colored fluid that resembles the twisting, flickering form of a fire elemental. The vial is sealed with a brass cap and attached to a lightweight gold chain. When the chain is wrapped around a divine caster's holy symbol, the saving throw DC of the next banishment or dismissal spell he casts on an outsider with the fire subtype is increased by 4, and additionally, the caster gains a +2 alchemical bonus on the caster level check to overcome the creature's spell resistance against the spell. If the spell is successful, the outsider leaves behind a small pile of magical ashes and the phlogiston vial cannot be used to banish outsiders again until the oil inside is replaced as a standard action (see below).  If the ashes are collected and placed inside the vial, and the vial is used as an additional material component for a planar ally spell, the spell conjures the exact same outsider, provided the creature is a viable target of that spell. The owner of the vial receives a +4 bonus on her Charisma check to negotiate with the creature. The ashes are consumed after an agreement with the creature is made.  A phlogiston vial is a single-use item that can be recharged with a rare alchemical agent called phlogiston oil, which can only be found on the Plane of Fire and costs 2,000 gp when sold on the open market. The listed price is for a phlogiston vial full of phlogiston oil.<br><p><b>Base Item:</b> </p><h3><b>Requirements</b></h3><p>Craft Wondrous Item, banishment, planar ally</p><h3><b>Source: </b></h3>Blood Of The Elements",
      "unidentified": ""
    },
    "tags": [],
    "quantity": 1,
    "weight": {
      "value": 0
    },
    "price": 3300,
    "size": "med",
    "equipped": true,
    "resizing": false,
    "identified": true,
    "hp": {
      "max": 10,
      "value": 10
    },
    "broken": false,
    "hardness": 0,
    "carried": true,
    "unidentified": {
      "price": 0,
      "name": ""
    },
    "cl": 11,
    "aura": {
      "custom": true,
      "school": "abjuration"
    },
    "changes": [],
    "changeFlags": {
      "loseDexToAC": false,
      "noEncumbrance": false,
      "mediumArmorFullSpeed": false,
      "heavyArmorFullSpeed": false
    },
    "contextNotes": [],
    "actions": [],
    "uses": {
      "per": null,
      "value": 0,
      "maxFormula": "",
      "autoDeductChargesCost": "1"
    },
    "attackNotes": [],
    "effectNotes": [],
    "links": {
      "children": [],
      "charges": []
    },
    "tag": "phlogistonVial",
    "useCustomTag": false,
    "flags": {
      "boolean": {},
      "dictionary": {}
    },
    "scriptCalls": [],
    "masterwork": false,
    "enh": null,
    "proficient": true,
    "held": "normal",
    "subType": "wondrous",
    "baseTypes": [],
    "equipmentSubtype": "lightArmor",
    "armor": {
      "value": 0,
      "dex": null,
      "acp": 0,
      "enh": 0
    },
    "spellFailure": 0,
    "slot": "slotless",
    "showInQuickbar": false
  },
  "ownership": {
    "default": 0
  },
  "_stats": {
    "systemId": "pf1",
    "systemVersion": "9.1",
    "coreVersion": "10.291",
    "createdTime": 1665428409142,
    "modifiedTime": 1689798014302,
    "lastModifiedBy": "ppv91YxratjWnkJi"
  },
  "effects": [],
  "folder": null,
  "sort": 0,
  "flags": {},
  "_key": "!items!nlC3tJNnTMh0RkbB"
}