{
  "_id": "aeDZeIh3TDve3SmZ",
  "name": "Phoenix Cloak",
  "type": "equipment",
  "img": "icons/svg/item-bag.svg",
  "system": {
    "description": {
      "value": "<h2></b>Description</b></h2></p><p>This cloak is made of tough leather, and is decorated with brilliant red and orange feathers. As a free action, the wearer can rub her hands together, setting them alight-thus granting her natural attacks and unarmed strikes the burn special ability (Bestiary 298; 1d6, Reflex DC 14). The wearer can use this ability for up to 10 rounds per day, which don't need to be consecutive.   If the wearer takes damage that would reduce her below 0 hit points, she can expend one use of mythic power to transform into a phoenix-like being. This doesn't require an action. When this happens, she is immediately affected as though targeted with a breath of life spell (CL 9th) and polymorphs into a bird-like creature made of flames (as elemental body II, CL 9; fire elemental only). While in this form, the wearer also gains a fly speed of 50 feet with good maneuverability, as well as a +4 bonus on Fly skill checks due to this maneuverability.<br><p><b>Base Item:</b> </p><h3><b>Requirements</b></h3><p>Craft Wondrous Item, Mythic Crafter, breath of life, elemental body II</p><h3><b>Source: </b></h3>Mythic Adventures",
      "unidentified": ""
    },
    "tags": [],
    "quantity": 1,
    "weight": {
      "value": 7
    },
    "price": 55000,
    "size": "med",
    "equipped": true,
    "resizing": false,
    "identified": true,
    "hp": {
      "max": 10,
      "value": 10
    },
    "broken": false,
    "hardness": 0,
    "carried": true,
    "unidentified": {
      "price": 0,
      "name": ""
    },
    "cl": 9,
    "aura": {
      "custom": true,
      "school": "transmutation"
    },
    "changes": [],
    "changeFlags": {
      "loseDexToAC": false,
      "noEncumbrance": false,
      "mediumArmorFullSpeed": false,
      "heavyArmorFullSpeed": false
    },
    "contextNotes": [],
    "actions": [],
    "uses": {
      "per": null,
      "value": 0,
      "maxFormula": "",
      "autoDeductChargesCost": "1"
    },
    "attackNotes": [],
    "effectNotes": [],
    "links": {
      "children": [],
      "charges": []
    },
    "tag": "phoenixCloak",
    "useCustomTag": false,
    "flags": {
      "boolean": {},
      "dictionary": {}
    },
    "scriptCalls": [],
    "masterwork": false,
    "enh": null,
    "proficient": true,
    "held": "normal",
    "subType": "wondrous",
    "baseTypes": [],
    "equipmentSubtype": "lightArmor",
    "armor": {
      "value": 0,
      "dex": null,
      "acp": 0,
      "enh": 0
    },
    "spellFailure": 0,
    "slot": "shoulders",
    "showInQuickbar": false
  },
  "ownership": {
    "default": 0
  },
  "_stats": {
    "systemId": "pf1",
    "systemVersion": "9.1",
    "coreVersion": "10.291",
    "createdTime": 1665428407408,
    "modifiedTime": 1689798004770,
    "lastModifiedBy": "ppv91YxratjWnkJi"
  },
  "effects": [],
  "folder": null,
  "sort": 0,
  "flags": {},
  "_key": "!items!aeDZeIh3TDve3SmZ"
}