{
  "_id": "zeMoHSbwr4tzvncu",
  "name": "Planar Keystone",
  "type": "equipment",
  "img": "icons/svg/item-bag.svg",
  "system": {
    "description": {
      "value": "<h2></b>Description</b></h2></p><p>A planar keystone is a small cube etched with runes. Each planar keystone is attuned to a specific site on a particular plane-this site must be determined when the planar keystone is created and cannot be changed at a later date. Anyone examining the etched patterns can determine the plane and location with a successful DC 20 Knowledge (planes) check. Once per day, up to eight intelligent creatures within 20 feet of the planar keystone can concentrate upon its etched patterns for 1 minute. This concentration is tenuous; if any of the creatures are attacked or pause to take other actions during this time, the concentration of all participants is broken and the planar keystone's use for that day is lost. At the end of this time, all creatures concentrating on the planar keystone are transported to the planar keystone's site as if via plane shift, but arriving precisely on target. The planar keystone travels with the creatures-it is not left behind in the process.<br><p><b>Base Item:</b> </p><h3><b>Requirements</b></h3><p>Craft Wondrous Item, gate</p><h3><b>Source: </b></h3>Planar Adventures",
      "unidentified": ""
    },
    "tags": [],
    "quantity": 1,
    "weight": {
      "value": 2
    },
    "price": 16200,
    "size": "med",
    "equipped": true,
    "resizing": false,
    "identified": true,
    "hp": {
      "max": 10,
      "value": 10
    },
    "broken": false,
    "hardness": 0,
    "carried": true,
    "unidentified": {
      "price": 0,
      "name": ""
    },
    "cl": 17,
    "aura": {
      "custom": true,
      "school": "conjuration"
    },
    "changes": [],
    "changeFlags": {
      "loseDexToAC": false,
      "noEncumbrance": false,
      "mediumArmorFullSpeed": false,
      "heavyArmorFullSpeed": false
    },
    "contextNotes": [],
    "actions": [],
    "uses": {
      "per": null,
      "value": 0,
      "maxFormula": "",
      "autoDeductChargesCost": "1"
    },
    "attackNotes": [],
    "effectNotes": [],
    "links": {
      "children": [],
      "charges": []
    },
    "tag": "planarKeystone",
    "useCustomTag": false,
    "flags": {
      "boolean": {},
      "dictionary": {}
    },
    "scriptCalls": [],
    "masterwork": false,
    "enh": null,
    "proficient": true,
    "held": "normal",
    "subType": "wondrous",
    "baseTypes": [],
    "equipmentSubtype": "lightArmor",
    "armor": {
      "value": 0,
      "dex": null,
      "acp": 0,
      "enh": 0
    },
    "spellFailure": 0,
    "slot": "slotless",
    "showInQuickbar": false
  },
  "ownership": {
    "default": 0
  },
  "_stats": {
    "systemId": "pf1",
    "systemVersion": "9.1",
    "coreVersion": "10.291",
    "createdTime": 1665428410520,
    "modifiedTime": 1689798021977,
    "lastModifiedBy": "ppv91YxratjWnkJi"
  },
  "effects": [],
  "folder": null,
  "sort": 0,
  "flags": {},
  "_key": "!items!zeMoHSbwr4tzvncu"
}