{
  "_id": "4vbnQkg2xTLmEu3l",
  "name": "Planar Parchment",
  "type": "equipment",
  "img": "icons/svg/item-bag.svg",
  "system": {
    "description": {
      "value": "<h2></b>Description</b></h2></p><p>Resembling ordinary paper, planar parchment is used when negotiating with outsiders via spells like planar ally or planar binding. Using the parchment as part of negotiations grants the user a +2 bonus on her Charisma check to coerce the called outsider if such a check is required.  Planar parchment offers some autonomy to outsiders called for longer missions via planar ally. The use of planar parchment increases the time for a planar ally from 1 day per caster level to 1 week per caster level for long-term tasks (without increasing the cost of the payment the outsider requires). An outsider that has its term of service increased in this way isn't bound to the plane to which it was called. After negotiations are complete, it can return to its home plane, but is still required to perform the services it agreed to complete.  Regardless of whether the outsider was called via planar ally or planar binding magic, the outsider maintains a connection with the planar parchment for the duration of its service. Any writings added to the parchment are instantly transmitted to the bound outsider, as a sending spell (with no chance of failure if the outsider is on another plane). These words disappear from the parchment 1 hour after being inscribed.  Finally, once an outsider is bound to service with a planar parchment, the parchment is inscribed with script visible only to the creature completing the negotiation, or via true seeing. Reading this script is a full-round action, akin to reading a scroll. Reading this aloud immediately summons the bound outsider to the location of the scroll.  A planar parchment can be used for only one negotiation, and then turns into a nonmagical piece of parchment.<br><p><b>Base Item:</b> </p><h3><b>Requirements</b></h3><p>Craft Wondrous Item, planar binding, sending</p><h3><b>Source: </b></h3>Ultimate Intrigue",
      "unidentified": ""
    },
    "tags": [],
    "quantity": 1,
    "weight": {
      "value": 1
    },
    "price": 18000,
    "size": "med",
    "equipped": true,
    "resizing": false,
    "identified": true,
    "hp": {
      "max": 10,
      "value": 10
    },
    "broken": false,
    "hardness": 0,
    "carried": true,
    "unidentified": {
      "price": 0,
      "name": ""
    },
    "cl": 11,
    "aura": {
      "custom": true,
      "school": "conjuration and evocation"
    },
    "changes": [],
    "changeFlags": {
      "loseDexToAC": false,
      "noEncumbrance": false,
      "mediumArmorFullSpeed": false,
      "heavyArmorFullSpeed": false
    },
    "contextNotes": [],
    "actions": [],
    "uses": {
      "per": null,
      "value": 0,
      "maxFormula": "",
      "autoDeductChargesCost": "1"
    },
    "attackNotes": [],
    "effectNotes": [],
    "links": {
      "children": [],
      "charges": []
    },
    "tag": "planarParchment",
    "useCustomTag": false,
    "flags": {
      "boolean": {},
      "dictionary": {}
    },
    "scriptCalls": [],
    "masterwork": false,
    "enh": null,
    "proficient": true,
    "held": "normal",
    "subType": "wondrous",
    "baseTypes": [],
    "equipmentSubtype": "lightArmor",
    "armor": {
      "value": 0,
      "dex": null,
      "acp": 0,
      "enh": 0
    },
    "spellFailure": 0,
    "slot": "slotless",
    "showInQuickbar": false
  },
  "ownership": {
    "default": 0
  },
  "_stats": {
    "systemId": "pf1",
    "systemVersion": "9.1",
    "coreVersion": "10.291",
    "createdTime": 1665428403680,
    "modifiedTime": 1689797983319,
    "lastModifiedBy": "ppv91YxratjWnkJi"
  },
  "effects": [],
  "folder": null,
  "sort": 0,
  "flags": {},
  "_key": "!items!4vbnQkg2xTLmEu3l"
}