{
  "_id": "kL9aAsVdpPJaNjrr",
  "name": "Poison Popcushion",
  "type": "equipment",
  "img": "icons/svg/item-bag.svg",
  "system": {
    "description": {
      "value": "<h2></b>Description</b></h2></p><p>This squishy, gel-filled sack is the size of a fist, and its exterior is covered with countless tiny metal studs. When set on the ground or somewhere else within line of sight, a poison popcushion can be targeted with a melee or ranged attack (hardness 0, AC 7). A successful attack causes the poison popcushion to explode, sending a spray of needles everywhere within a 10-foot-radius burst and dealing 1d4+1 points of piercing damage to creatures caught in the area each round for 1d3 rounds. A successful DC 13 Reflex save halves this damage. Additionally, a poison popcushion can be loaded with an injury poison before it is placed. Fully loading a poison popcushion takes 3 doses of poison (not included in the price). In addition to dealing damage, a loaded poison popcushion affects struck creatures with the poison stored within, though the Fortitude save DC to save against this poison is 4 lower than the poison's usual DC.<br><p><b>Base Item:</b> </p><h3><b>Requirements</b></h3><p>Craft Wondrous Item, arrow eruptionAPG</p><h3><b>Source: </b></h3>Magical Marketplace",
      "unidentified": ""
    },
    "tags": [],
    "quantity": 1,
    "weight": {
      "value": 2
    },
    "price": 700,
    "size": "med",
    "equipped": true,
    "resizing": false,
    "identified": true,
    "hp": {
      "max": 10,
      "value": 10
    },
    "broken": false,
    "hardness": 0,
    "carried": true,
    "unidentified": {
      "price": 0,
      "name": ""
    },
    "cl": 3,
    "aura": {
      "custom": true,
      "school": "conjuration creation"
    },
    "changes": [],
    "changeFlags": {
      "loseDexToAC": false,
      "noEncumbrance": false,
      "mediumArmorFullSpeed": false,
      "heavyArmorFullSpeed": false
    },
    "contextNotes": [],
    "actions": [],
    "uses": {
      "per": null,
      "value": 0,
      "maxFormula": "",
      "autoDeductChargesCost": "1"
    },
    "attackNotes": [],
    "effectNotes": [],
    "links": {
      "children": [],
      "charges": []
    },
    "tag": "poisonPopcushion",
    "useCustomTag": false,
    "flags": {
      "boolean": {},
      "dictionary": {}
    },
    "scriptCalls": [],
    "masterwork": false,
    "enh": null,
    "proficient": true,
    "held": "normal",
    "subType": "wondrous",
    "baseTypes": [],
    "equipmentSubtype": "lightArmor",
    "armor": {
      "value": 0,
      "dex": null,
      "acp": 0,
      "enh": 0
    },
    "spellFailure": 0,
    "slot": "slotless",
    "showInQuickbar": false
  },
  "ownership": {
    "default": 0
  },
  "_stats": {
    "systemId": "pf1",
    "systemVersion": "9.1",
    "coreVersion": "10.291",
    "createdTime": 1665428408564,
    "modifiedTime": 1689798011535,
    "lastModifiedBy": "ppv91YxratjWnkJi"
  },
  "effects": [],
  "folder": null,
  "sort": 0,
  "flags": {},
  "_key": "!items!kL9aAsVdpPJaNjrr"
}