{
  "_id": "0yxEDWCSLWvGGI3s",
  "name": "Quickmetal Bracers, Cold Iron",
  "type": "equipment",
  "img": "icons/svg/item-bag.svg",
  "system": {
    "description": {
      "value": "<h2></b>Description</b></h2></p><p>Once per day when a user wearing both these bracers speaks a command word, the metal turns entirely liquid and swims over the wearer's hands to cover her weapons. The user can cover a two-handed melee weapon or up to two one-handed  or light melee weapons. For the next 10 rounds, the affected weapons can overcome damage reduction as though the weapons were made of adamantine, cold iron, or silver (as determined by the quickmetal bracers' type).  The heavy, shifting metal coating affects the balance of manufactured weapons, imposing a -2 penalty on attack rolls. Improvised weapons, however, are already unwieldy, and the metal coating doesn't significantly affect their balance.  If the wielder lets go of a weapon affected by the bracers, the liquid metal immediately turns back into a solid metal bracer- or bracers, in the case of a two-handed weapon-reappearing on the user's wrists. The bracers cannot therefore affect thrown weapons or ranged weapon ammunition.<br><p><b>Base Item:</b> </p><h3><b>Requirements</b></h3><p>Craft Wondrous Item, major creation</p><h3><b>Source: </b></h3>Adventurer's Armory 2",
      "unidentified": ""
    },
    "tags": [],
    "quantity": 1,
    "weight": {
      "value": 1
    },
    "price": 2000,
    "size": "med",
    "equipped": true,
    "resizing": false,
    "identified": true,
    "hp": {
      "max": 10,
      "value": 10
    },
    "broken": false,
    "hardness": 0,
    "carried": true,
    "unidentified": {
      "price": 0,
      "name": ""
    },
    "cl": 9,
    "aura": {
      "custom": true,
      "school": "transmutation"
    },
    "changes": [],
    "changeFlags": {
      "loseDexToAC": false,
      "noEncumbrance": false,
      "mediumArmorFullSpeed": false,
      "heavyArmorFullSpeed": false
    },
    "contextNotes": [],
    "actions": [],
    "uses": {
      "per": null,
      "value": 0,
      "maxFormula": "",
      "autoDeductChargesCost": "1"
    },
    "attackNotes": [],
    "effectNotes": [],
    "links": {
      "children": [],
      "charges": []
    },
    "tag": "quickmetalBracersColdIron",
    "useCustomTag": false,
    "flags": {
      "boolean": {},
      "dictionary": {}
    },
    "scriptCalls": [],
    "masterwork": false,
    "enh": null,
    "proficient": true,
    "held": "normal",
    "subType": "wondrous",
    "baseTypes": [],
    "equipmentSubtype": "lightArmor",
    "armor": {
      "value": 0,
      "dex": null,
      "acp": 0,
      "enh": 0
    },
    "spellFailure": 0,
    "slot": "wrists",
    "showInQuickbar": false
  },
  "ownership": {
    "default": 0
  },
  "_stats": {
    "systemId": "pf1",
    "systemVersion": "9.1",
    "coreVersion": "10.291",
    "createdTime": 1665428403424,
    "modifiedTime": 1689797981182,
    "lastModifiedBy": "ppv91YxratjWnkJi"
  },
  "effects": [],
  "folder": null,
  "sort": 0,
  "flags": {},
  "_key": "!items!0yxEDWCSLWvGGI3s"
}