{
  "_id": "JRyVqPBsTQUng7Ke",
  "name": "Righteous Medal Of Agility",
  "type": "equipment",
  "img": "icons/svg/item-bag.svg",
  "system": {
    "description": {
      "value": "<h2></b>Description</b></h2></p><p>These ornate military medals are awarded to crusaders and adventurers who excel and deserve commendation in the war against the Worldwound. A medal must be affixed to a worn article of clothing to function, but doesn't have to be worn visibly. Any number of righteous medals can be worn, but the effects of multiple medals of a single type don't stack. A righteous medal functions only if the wearer has legitimately achieved the feat for which she received the medal. As a swift action, the wearer can gain a +2 sacred bonus to the medal's associated ability score for 1 minute. In addition, each righteous medal grants a constant sacred bonus on one type of roll, as detailed below.   Righteous Medal of Agility: This triangular iron medal shows a demonic face surrounded by three swords. It is awarded to a hero who delivers a death blow to a demon in combat before that demon gets a chance to act in the combat. This medal is associated with Dexterity and grants a +1 sacred bonus on Initiative checks.   A mythic character who wears all six righteous medals gains one additional use of mythic power per day.<br><p><b>Base Item:</b> </p><h3><b>Requirements</b></h3><p>Craft Wondrous Item; bless,  cat's grace</p><h3><b>Source: </b></h3>AP 74",
      "unidentified": ""
    },
    "tags": [],
    "quantity": 1,
    "weight": {
      "value": 0
    },
    "price": 6000,
    "size": "med",
    "equipped": true,
    "resizing": false,
    "identified": true,
    "hp": {
      "max": 10,
      "value": 10
    },
    "broken": false,
    "hardness": 0,
    "carried": true,
    "unidentified": {
      "price": 0,
      "name": ""
    },
    "cl": 11,
    "aura": {
      "custom": true,
      "school": "abjuration and transmutation"
    },
    "changes": [],
    "changeFlags": {
      "loseDexToAC": false,
      "noEncumbrance": false,
      "mediumArmorFullSpeed": false,
      "heavyArmorFullSpeed": false
    },
    "contextNotes": [],
    "actions": [],
    "uses": {
      "per": null,
      "value": 0,
      "maxFormula": "",
      "autoDeductChargesCost": "1"
    },
    "attackNotes": [],
    "effectNotes": [],
    "links": {
      "children": [],
      "charges": []
    },
    "tag": "righteousMedalOfAgility",
    "useCustomTag": false,
    "flags": {
      "boolean": {},
      "dictionary": {}
    },
    "scriptCalls": [],
    "masterwork": false,
    "enh": null,
    "proficient": true,
    "held": "normal",
    "subType": "wondrous",
    "baseTypes": [],
    "equipmentSubtype": "lightArmor",
    "armor": {
      "value": 0,
      "dex": null,
      "acp": 0,
      "enh": 0
    },
    "spellFailure": 0,
    "slot": "slotless",
    "showInQuickbar": false
  },
  "ownership": {
    "default": 0
  },
  "_stats": {
    "systemId": "pf1",
    "systemVersion": "9.1",
    "coreVersion": "10.291",
    "createdTime": 1665428405496,
    "modifiedTime": 1689797993575,
    "lastModifiedBy": "ppv91YxratjWnkJi"
  },
  "effects": [],
  "folder": null,
  "sort": 0,
  "flags": {},
  "_key": "!items!JRyVqPBsTQUng7Ke"
}