{
  "_id": "07PqiOM181YVzxHk",
  "name": "Rimepelt",
  "type": "equipment",
  "img": "icons/svg/item-bag.svg",
  "system": {
    "description": {
      "value": "<h2></b>Description</b></h2></p><p>This snow-white fur pelt of a winter wolf can be worn over the shoulders as a cloak. The pelt functions as furs, granting its wearer a +2 bonus on Fortitude saves to resist cold weather. The wearer can, as a standard action, transform into a Large winter wolf as if using beast shape IV. In certain special locations where winter wolves have the ability to take human form, such as the Howlings district of Whitethrone or the town of Redtooth, the wearer of a rimepelt in wolf form can take human form as winter wolves do, appearing as a white-haired, blue-eyed human. In either wolf or human form, the wearer of a rimepelt smells like a winter wolf to other winter wolves and creatures with the scent ability. When the wearer returns to his normal form, or after 2 hours have elapsed, the rimepelt becomes a mundane winter wolf pelt.   Very rarely, a properly skinned winter wolf pelt manifests the properties of a rimepelt without requiring additional enchantment. A winter wolf whose pelt has such potential usually manifests some telltale physical attribute, such as heterochromatic eyes. Creating a rimepelt from such a rare creature requires a successful DC 25 Profession (hunter) or Survival check. Taking 20 is not allowed in this situation, and a failed check results in the pelt being utterly ruined for any use.<br><p><b>Base Item:</b> </p><h3><b>Requirements</b></h3><p>Craft Wondrous Item, beast shape IV</p><h3><b>Source: </b></h3>AP 68",
      "unidentified": ""
    },
    "tags": [],
    "quantity": 1,
    "weight": {
      "value": 5
    },
    "price": 3350,
    "size": "med",
    "equipped": true,
    "resizing": false,
    "identified": true,
    "hp": {
      "max": 10,
      "value": 10
    },
    "broken": false,
    "hardness": 0,
    "carried": true,
    "unidentified": {
      "price": 0,
      "name": ""
    },
    "cl": 11,
    "aura": {
      "custom": true,
      "school": "transmutation"
    },
    "changes": [],
    "changeFlags": {
      "loseDexToAC": false,
      "noEncumbrance": false,
      "mediumArmorFullSpeed": false,
      "heavyArmorFullSpeed": false
    },
    "contextNotes": [],
    "actions": [],
    "uses": {
      "per": null,
      "value": 0,
      "maxFormula": "",
      "autoDeductChargesCost": "1"
    },
    "attackNotes": [],
    "effectNotes": [],
    "links": {
      "children": [],
      "charges": []
    },
    "tag": "rimepelt",
    "useCustomTag": false,
    "flags": {
      "boolean": {},
      "dictionary": {}
    },
    "scriptCalls": [],
    "masterwork": false,
    "enh": null,
    "proficient": true,
    "held": "normal",
    "subType": "wondrous",
    "baseTypes": [],
    "equipmentSubtype": "lightArmor",
    "armor": {
      "value": 0,
      "dex": null,
      "acp": 0,
      "enh": 0
    },
    "spellFailure": 0,
    "slot": "shoulders",
    "showInQuickbar": false
  },
  "ownership": {
    "default": 0
  },
  "_stats": {
    "systemId": "pf1",
    "systemVersion": "9.1",
    "coreVersion": "10.291",
    "createdTime": 1665428403378,
    "modifiedTime": 1689797980830,
    "lastModifiedBy": "ppv91YxratjWnkJi"
  },
  "effects": [],
  "folder": null,
  "sort": 0,
  "flags": {},
  "_key": "!items!07PqiOM181YVzxHk"
}