{
  "_id": "KzfcD3uKQk3sLTvm",
  "name": "Ring Of The Drake (frost)",
  "type": "equipment",
  "img": "systems/pf1/icons/items/jewelry/ring-red.jpg",
  "system": {
    "description": {
      "value": "<h2></b>Description</b></h2></p><p>Carved from a white stone in the shape of a coiled dragon, this ring grants its wearer cold resistance 5. The ring has a crisp smell that lingers when it protects its wearer.  11th Level: The ring grants cold resistance 10.  14th Level: The ring grants cold resistance 20.  17th Level: The ring grants cold resistance 30. The wearer can see perfectly in snowy conditions, and does not take any penalties on Perception checks while in snow. Once per day, the ring's wearer can make a primary bite attack as a swift action. If she does not   possess a bite attack, her teeth elongate into draconic fangs as part of the swift action, granting a bite attack that deals 1d6 points of damage for a Medium wearer (1d4 for a Small wearer).  20th Level: The ring's wearer can transform into a frost drake once per day. This functions as transforming into a white dragon via form of the dragon II, except that the wearer's cold breath weapon affects a 10-foot-radius spread within 60 feet of her. All surfaces within the spread are coated with slippery ice that turns the area into difficult terrain for 2d4 rounds.<br><p><b>Base Item:</b> </p><h3><b>Requirements</b></h3><p>Forge Ring, form of the dragon II, haste, resist energy</p><h3><b>Source: </b></h3>Pathfinder Unchained",
      "unidentified": ""
    },
    "tags": [],
    "quantity": 1,
    "weight": {
      "value": 0
    },
    "price": 6000,
    "size": "med",
    "equipped": true,
    "resizing": false,
    "identified": true,
    "hp": {
      "max": 10,
      "value": 10
    },
    "broken": false,
    "hardness": 0,
    "carried": true,
    "unidentified": {
      "price": 0,
      "name": ""
    },
    "cl": 9,
    "aura": {
      "custom": true,
      "school": "abjuration"
    },
    "changes": [],
    "changeFlags": {
      "loseDexToAC": false,
      "noEncumbrance": false,
      "mediumArmorFullSpeed": false,
      "heavyArmorFullSpeed": false
    },
    "contextNotes": [],
    "actions": [],
    "uses": {
      "per": null,
      "value": 0,
      "maxFormula": "",
      "autoDeductChargesCost": "1"
    },
    "attackNotes": [],
    "effectNotes": [],
    "links": {
      "children": [],
      "charges": []
    },
    "tag": "ringOfTheDrakeFrost",
    "useCustomTag": false,
    "flags": {
      "boolean": {},
      "dictionary": {}
    },
    "scriptCalls": [],
    "masterwork": false,
    "enh": null,
    "proficient": true,
    "held": "normal",
    "subType": "other",
    "baseTypes": [],
    "equipmentSubtype": "lightArmor",
    "armor": {
      "value": 0,
      "dex": null,
      "acp": 0,
      "enh": 0
    },
    "spellFailure": 0,
    "slot": "other",
    "showInQuickbar": false
  },
  "ownership": {
    "default": 0
  },
  "_stats": {
    "systemId": "pf1",
    "systemVersion": "9.1",
    "coreVersion": "10.291",
    "createdTime": 1665428405638,
    "modifiedTime": 1689797994482,
    "lastModifiedBy": "ppv91YxratjWnkJi"
  },
  "effects": [],
  "folder": null,
  "sort": 0,
  "flags": {},
  "_key": "!items!KzfcD3uKQk3sLTvm"
}