{
  "_id": "FlsGPNVzL7R2gYNE",
  "name": "Ring Of Blood Calling",
  "type": "equipment",
  "img": "systems/pf1/icons/items/jewelry/ring-red.jpg",
  "system": {
    "description": {
      "value": "<h2></b>Description</b></h2></p><p>This iron ring is set with a polished bloodstone. When created, a ring of blood calling creates a link between a single mortal creature devoted to Asmodeus and a specific devil with no more than 12 Hit Dice who willingly agrees to be bound by the item. Once per day as a standard action, the ring's wearer can place a drop of his own blood on the ring's gem (provoking attacks of opportunity) to immediately call the devil linked to the ring to any space within 30 feet. While the wearer does not control the devil, most wearers make agreements with the devil linked to the ring for protection or some other service when called. The called devil remains for 1 hour, or the wearer can dismiss the devil as a free action.  If the devil linked to the ring is killed, the ring crumbles to dust. If wearer linked to the ring is killed, a new wearer can summon the linked devil, but can compel the devil to perform only one service, as per planar binding, which severs the devil's link to the ring when the task is completed unless the new wearer makes his own deal with the devil, reestablishing the link between the wearer, the devil, and the ring.  Nicolo Alazario's ring of blood calling is linked to a bone devil named Xanthut. If Nicolo is killed, the PCs will need to make their own arrangements with Xanthut to link themselves to the ring to call the devil.<br><p><b>Base Item:</b> </p><h3><b>Requirements</b></h3><p>Forge Ring, planar binding</p><h3><b>Source: </b></h3>AP 106",
      "unidentified": ""
    },
    "tags": [],
    "quantity": 1,
    "weight": {
      "value": 0
    },
    "price": 12000,
    "size": "med",
    "equipped": true,
    "resizing": false,
    "identified": true,
    "hp": {
      "max": 10,
      "value": 10
    },
    "broken": false,
    "hardness": 0,
    "carried": true,
    "unidentified": {
      "price": 0,
      "name": ""
    },
    "cl": 11,
    "aura": {
      "custom": true,
      "school": "conjuration"
    },
    "changes": [],
    "changeFlags": {
      "loseDexToAC": false,
      "noEncumbrance": false,
      "mediumArmorFullSpeed": false,
      "heavyArmorFullSpeed": false
    },
    "contextNotes": [],
    "actions": [],
    "uses": {
      "per": null,
      "value": 0,
      "maxFormula": "",
      "autoDeductChargesCost": "1"
    },
    "attackNotes": [],
    "effectNotes": [],
    "links": {
      "children": [],
      "charges": []
    },
    "tag": "ringOfBloodCalling",
    "useCustomTag": false,
    "flags": {
      "boolean": {},
      "dictionary": {}
    },
    "scriptCalls": [],
    "masterwork": false,
    "enh": null,
    "proficient": true,
    "held": "normal",
    "subType": "other",
    "baseTypes": [],
    "equipmentSubtype": "lightArmor",
    "armor": {
      "value": 0,
      "dex": null,
      "acp": 0,
      "enh": 0
    },
    "spellFailure": 0,
    "slot": "other",
    "showInQuickbar": false
  },
  "ownership": {
    "default": 0
  },
  "_stats": {
    "systemId": "pf1",
    "systemVersion": "9.1",
    "coreVersion": "10.291",
    "createdTime": 1665428404817,
    "modifiedTime": 1689797990959,
    "lastModifiedBy": "ppv91YxratjWnkJi"
  },
  "effects": [],
  "folder": null,
  "sort": 0,
  "flags": {},
  "_key": "!items!FlsGPNVzL7R2gYNE"
}