{
  "_id": "Z4tt13MYk2JkUIMp",
  "name": "Ring Of The Ecclesiarch",
  "type": "equipment",
  "img": "systems/pf1/icons/items/jewelry/ring-red.jpg",
  "system": {
    "description": {
      "value": "<h2></b>Description</b></h2></p><p>This ornate ring of sanctified silver is engraved with a golden signet that incorporates the holy symbol of the wearer's deity after being worn for 24 hours. The ring can be used to seal parchments or to mark any surface as the arcane mark spell at will. The wearer is marked as a scholarly leader of the faith and gains a +5 competence bonus on Diplomacy and Knowledge (religion) checks. If the wearer has the Leadership feat, she may attract double the normal number of followers, and her followers' zealous devotion grants them a +4 morale bonus on Will saves against enchantment spells and effects.   Once per day, the wearer of the ring can use prayer and enter image (Advanced Player's Guide), often using the latter power to speak and observe through portraits, statues, and even minted coinage bearing their likeness.<br><p><b>Base Item:</b> </p><h3><b>Requirements</b></h3><p>Forge Ring, arcane mark, enter image, enthrall, prayer, creator must have 5 ranks of Diplomacy and Knowledge (religion) and the ability to cast divine spells</p><h3><b>Source: </b></h3>Ultimate Equipment",
      "unidentified": ""
    },
    "tags": [],
    "quantity": 1,
    "weight": {
      "value": 0
    },
    "price": 28500,
    "size": "med",
    "equipped": true,
    "resizing": false,
    "identified": true,
    "hp": {
      "max": 10,
      "value": 10
    },
    "broken": false,
    "hardness": 0,
    "carried": true,
    "unidentified": {
      "price": 0,
      "name": ""
    },
    "cl": 5,
    "aura": {
      "custom": true,
      "school": "enchantment"
    },
    "changes": [],
    "changeFlags": {
      "loseDexToAC": false,
      "noEncumbrance": false,
      "mediumArmorFullSpeed": false,
      "heavyArmorFullSpeed": false
    },
    "contextNotes": [],
    "actions": [],
    "uses": {
      "per": null,
      "value": 0,
      "maxFormula": "",
      "autoDeductChargesCost": "1"
    },
    "attackNotes": [],
    "effectNotes": [],
    "links": {
      "children": [],
      "charges": []
    },
    "tag": "ringOfTheEcclesiarch",
    "useCustomTag": false,
    "flags": {
      "boolean": {},
      "dictionary": {}
    },
    "scriptCalls": [],
    "masterwork": false,
    "enh": null,
    "proficient": true,
    "held": "normal",
    "subType": "other",
    "baseTypes": [],
    "equipmentSubtype": "lightArmor",
    "armor": {
      "value": 0,
      "dex": null,
      "acp": 0,
      "enh": 0
    },
    "spellFailure": 0,
    "slot": "other",
    "showInQuickbar": false
  },
  "ownership": {
    "default": 0
  },
  "_stats": {
    "systemId": "pf1",
    "systemVersion": "9.1",
    "coreVersion": "10.291",
    "createdTime": 1665428407326,
    "modifiedTime": 1689798003728,
    "lastModifiedBy": "ppv91YxratjWnkJi"
  },
  "effects": [],
  "folder": null,
  "sort": 0,
  "flags": {},
  "_key": "!items!Z4tt13MYk2JkUIMp"
}