{
  "_id": "nvubFDUGYiZOsAPA",
  "name": "Ring Of Grit Mastery",
  "type": "equipment",
  "img": "systems/pf1/icons/items/jewelry/ring-red.jpg",
  "system": {
    "description": {
      "value": "<h2></b>Description</b></h2></p><p>This ring is made out of fused firearm bullets, making it a chunky but overall impressive ring. Twice per day, as a free action, when the wearer regains grit, she can choose to store it in the ring of grit mastery instead of regaining the grit point. She can store up to 2 grit points within the ring in this way. She can spend the grit points stored in the ring either of the following ways.   Once per day, without the need to take an action to do so, the wearer can spend 1 grit point stored in the ring to grant herself a +2 insight bonus to initiative.   Once per day, as a standard action, the wearer of the ring can spend 2 grit points stored within the ring to activate a bullet shield as the spell (Ultimate Combat).   Any grit points stored in the ring disappear at the start of each day.<br><p><b>Base Item:</b> </p><h3><b>Requirements</b></h3><p>Forge Ring, anticipate peril, bullet shield, creator must have the grit class feature</p><h3><b>Source: </b></h3>Ultimate Equipment",
      "unidentified": ""
    },
    "tags": [],
    "quantity": 1,
    "weight": {
      "value": 0
    },
    "price": 6840,
    "size": "med",
    "equipped": true,
    "resizing": false,
    "identified": true,
    "hp": {
      "max": 10,
      "value": 10
    },
    "broken": false,
    "hardness": 0,
    "carried": true,
    "unidentified": {
      "price": 0,
      "name": ""
    },
    "cl": 3,
    "aura": {
      "custom": true,
      "school": "abjuration and evocation"
    },
    "changes": [],
    "changeFlags": {
      "loseDexToAC": false,
      "noEncumbrance": false,
      "mediumArmorFullSpeed": false,
      "heavyArmorFullSpeed": false
    },
    "contextNotes": [],
    "actions": [],
    "uses": {
      "per": null,
      "value": 0,
      "maxFormula": "",
      "autoDeductChargesCost": "1"
    },
    "attackNotes": [],
    "effectNotes": [],
    "links": {
      "children": [],
      "charges": []
    },
    "tag": "ringOfGritMastery",
    "useCustomTag": false,
    "flags": {
      "boolean": {},
      "dictionary": {}
    },
    "scriptCalls": [],
    "masterwork": false,
    "enh": null,
    "proficient": true,
    "held": "normal",
    "subType": "other",
    "baseTypes": [],
    "equipmentSubtype": "lightArmor",
    "armor": {
      "value": 0,
      "dex": null,
      "acp": 0,
      "enh": 0
    },
    "spellFailure": 0,
    "slot": "other",
    "showInQuickbar": false
  },
  "ownership": {
    "default": 0
  },
  "_stats": {
    "systemId": "pf1",
    "systemVersion": "9.1",
    "coreVersion": "10.291",
    "createdTime": 1665428409153,
    "modifiedTime": 1689798014399,
    "lastModifiedBy": "ppv91YxratjWnkJi"
  },
  "effects": [],
  "folder": null,
  "sort": 0,
  "flags": {},
  "_key": "!items!nvubFDUGYiZOsAPA"
}