{
  "_id": "qyoGVFGPIdIybP0I",
  "name": "Ring Of Spell Storing",
  "type": "equipment",
  "img": "systems/pf1/icons/items/jewelry/ring-red.jpg",
  "system": {
    "description": {
      "value": "<h2></b>Description</b></h2></p><p>A ring of spell storing contains up to 5 levels of spells (either divine or arcane, or even a mix of both spell types) that the wearer can cast. Each spell has a caster level equal to the minimum level needed to cast that spell. The user need not provide any material components or focus to cast the spell, and there is no arcane spell failure chance for wearing armor (because the ring wearer need not gesture). The activation time for the ring is the same as the casting time for the relevant spell, with a minimum of 1 standard action.   For a randomly generated ring, treat it as a scroll to determine what spells are stored in it. If you roll a spell that would put the ring over the five-level limit, ignore that roll; the ring has no more spells in it.   A spellcaster can cast any spells into the ring, so long as the total spell levels do not add up to more than 5. Metamagic versions of spells take up storage space equal to their spell level modified by the metamagic feat. A spellcaster can use a scroll to put a spell into the minor ring of spell storing.   The ring magically imparts to the wearer the names of all spells currently stored within it.<br><p><b>Base Item:</b> </p><h3><b>Requirements</b></h3><p>Forge Ring, imbue with spell ability</p><h3><b>Source: </b></h3>Ultimate Equipment",
      "unidentified": ""
    },
    "tags": [],
    "quantity": 1,
    "weight": {
      "value": 0
    },
    "price": 50000,
    "size": "med",
    "equipped": true,
    "resizing": false,
    "identified": true,
    "hp": {
      "max": 10,
      "value": 10
    },
    "broken": false,
    "hardness": 0,
    "carried": true,
    "unidentified": {
      "price": 0,
      "name": ""
    },
    "cl": 9,
    "aura": {
      "custom": true,
      "school": "evocation"
    },
    "changes": [],
    "changeFlags": {
      "loseDexToAC": false,
      "noEncumbrance": false,
      "mediumArmorFullSpeed": false,
      "heavyArmorFullSpeed": false
    },
    "contextNotes": [],
    "actions": [],
    "uses": {
      "per": null,
      "value": 0,
      "maxFormula": "",
      "autoDeductChargesCost": "1"
    },
    "attackNotes": [],
    "effectNotes": [],
    "links": {
      "children": [],
      "charges": []
    },
    "tag": "ringOfSpellStoring",
    "useCustomTag": false,
    "flags": {
      "boolean": {},
      "dictionary": {}
    },
    "scriptCalls": [],
    "masterwork": false,
    "enh": null,
    "proficient": true,
    "held": "normal",
    "subType": "other",
    "baseTypes": [],
    "equipmentSubtype": "lightArmor",
    "armor": {
      "value": 0,
      "dex": null,
      "acp": 0,
      "enh": 0
    },
    "spellFailure": 0,
    "slot": "other",
    "showInQuickbar": false
  },
  "ownership": {
    "default": 0
  },
  "_stats": {
    "systemId": "pf1",
    "systemVersion": "9.1",
    "coreVersion": "10.291",
    "createdTime": 1665428409643,
    "modifiedTime": 1689798016993,
    "lastModifiedBy": "ppv91YxratjWnkJi"
  },
  "effects": [],
  "folder": null,
  "sort": 0,
  "flags": {},
  "_key": "!items!qyoGVFGPIdIybP0I"
}