{
  "_id": "CO11ZH0aivVaQwEi",
  "name": "Ring Of The Binding Word",
  "type": "equipment",
  "img": "systems/pf1/icons/items/jewelry/ring-red.jpg",
  "system": {
    "description": {
      "value": "<h2></b>Description</b></h2></p><p>This black iron ring always bears an engraving in Infernal that serves as reminder to the wearer of a pact made with a devil. The ring may only be crafted in the presence of a devil while a mortal enters into a contract with it. During forging, the ring creates a telepathic bond between the devil and mortal as per the spell. Additionally, once per day, the wearer or the devil may activate the ring to utilize greater teleport with the restriction that the wearer teleport only to the devil's side. If the terms of the contract are met or either the mortal or devil are killed, the ring reverts to a mundane piece of jewelry. The mortal may not remove a ring of the binding word while it remains enchanted.<br><p><b>Base Item:</b> </p><h3><b>Requirements</b></h3><p>Forge Ring, greater teleport, telepathic bond, a mortal must enter into a binding contract with a devil</p><h3><b>Source: </b></h3>PFS S1-54",
      "unidentified": ""
    },
    "tags": [],
    "quantity": 1,
    "weight": {
      "value": 0
    },
    "price": 40000,
    "size": "med",
    "equipped": true,
    "resizing": false,
    "identified": true,
    "hp": {
      "max": 10,
      "value": 10
    },
    "broken": false,
    "hardness": 0,
    "carried": true,
    "unidentified": {
      "price": 0,
      "name": ""
    },
    "cl": 13,
    "aura": {
      "custom": true,
      "school": "transmutation and conjuration"
    },
    "changes": [],
    "changeFlags": {
      "loseDexToAC": false,
      "noEncumbrance": false,
      "mediumArmorFullSpeed": false,
      "heavyArmorFullSpeed": false
    },
    "contextNotes": [],
    "actions": [],
    "uses": {
      "per": null,
      "value": 0,
      "maxFormula": "",
      "autoDeductChargesCost": "1"
    },
    "attackNotes": [],
    "effectNotes": [],
    "links": {
      "children": [],
      "charges": []
    },
    "tag": "ringOfTheBindingWord",
    "useCustomTag": false,
    "flags": {
      "boolean": {},
      "dictionary": {}
    },
    "scriptCalls": [],
    "masterwork": false,
    "enh": null,
    "proficient": true,
    "held": "normal",
    "subType": "other",
    "baseTypes": [],
    "equipmentSubtype": "lightArmor",
    "armor": {
      "value": 0,
      "dex": null,
      "acp": 0,
      "enh": 0
    },
    "spellFailure": 0,
    "slot": "other",
    "showInQuickbar": false
  },
  "ownership": {
    "default": 0
  },
  "_stats": {
    "systemId": "pf1",
    "systemVersion": "9.1",
    "coreVersion": "10.291",
    "createdTime": 1665428404657,
    "modifiedTime": 1689797989682,
    "lastModifiedBy": "ppv91YxratjWnkJi"
  },
  "effects": [],
  "folder": null,
  "sort": 0,
  "flags": {},
  "_key": "!items!CO11ZH0aivVaQwEi"
}