{
  "_id": "eAD9lFXuAYDd7OUX",
  "name": "Ring Of The Godless +2",
  "type": "equipment",
  "img": "systems/pf1/icons/items/jewelry/ring-red.jpg",
  "system": {
    "description": {
      "value": "<h2></b>Description</b></h2></p><p>These rings are said to have first been forged in Rahadoum by the Council of Elders to help root out the hidden faithful and other practitioners of the divine. A ring of the godless grants a luck bonus on saving throws against divine spells. This bonus does not apply to spell-like or supernatural abilities unless they are class abilities of a divine spellcasting class, such as channel energy or domain powers, or unless they are used by a creature that has been called, created, or summoned by divine magic. The wearer's spell resistance (if any) increases by an amount equal to the ring's luck bonus, though this increase applies only against divine spells (and spell-like abilities as described above).  A ring of the godless also allows the wearer to use detect magic at will, though it detects only divine magic. In addition, the wearer can use a specialized form of arcane sight a number of times per day equal to the ring's luck bonus. This ability can be activated as a swift action, its effect lasts until the end of the wearer's turn, and it detects only divine magic or divine spellcasting ability.<br><p><b>Base Item:</b> </p><h3><b>Requirements</b></h3><p>Forge Ring, arcane sight, detect magic, spell resistance, creator cannot be a divine spellcaster, creator must be of a level at least three times higher than the bonus of the ring</p><h3><b>Source: </b></h3>People Of The Sands",
      "unidentified": ""
    },
    "tags": [],
    "quantity": 1,
    "weight": {
      "value": 0
    },
    "price": 17000,
    "size": "med",
    "equipped": true,
    "resizing": false,
    "identified": true,
    "hp": {
      "max": 10,
      "value": 10
    },
    "broken": false,
    "hardness": 0,
    "carried": true,
    "unidentified": {
      "price": 0,
      "name": ""
    },
    "cl": 5,
    "aura": {
      "custom": true,
      "school": "abjuration and divination"
    },
    "changes": [],
    "changeFlags": {
      "loseDexToAC": false,
      "noEncumbrance": false,
      "mediumArmorFullSpeed": false,
      "heavyArmorFullSpeed": false
    },
    "contextNotes": [],
    "actions": [],
    "uses": {
      "per": null,
      "value": 0,
      "maxFormula": "",
      "autoDeductChargesCost": "1"
    },
    "attackNotes": [],
    "effectNotes": [],
    "links": {
      "children": [],
      "charges": []
    },
    "tag": "ringOfTheGodless2",
    "useCustomTag": false,
    "flags": {
      "boolean": {},
      "dictionary": {}
    },
    "scriptCalls": [],
    "masterwork": false,
    "enh": null,
    "proficient": true,
    "held": "normal",
    "subType": "other",
    "baseTypes": [],
    "equipmentSubtype": "lightArmor",
    "armor": {
      "value": 0,
      "dex": null,
      "acp": 0,
      "enh": 0
    },
    "spellFailure": 0,
    "slot": "other",
    "showInQuickbar": false
  },
  "ownership": {
    "default": 0
  },
  "_stats": {
    "systemId": "pf1",
    "systemVersion": "9.1",
    "coreVersion": "10.291",
    "createdTime": 1665428407917,
    "modifiedTime": 1689798007610,
    "lastModifiedBy": "ppv91YxratjWnkJi"
  },
  "effects": [],
  "folder": null,
  "sort": 0,
  "flags": {},
  "_key": "!items!eAD9lFXuAYDd7OUX"
}