{
  "_id": "SCbEuoPQ5XhHLCDM",
  "name": "Riverclub Ring",
  "type": "equipment",
  "img": "systems/pf1/icons/items/jewelry/ring-red.jpg",
  "system": {
    "description": {
      "value": "<h2></b>Description</b></h2></p><p>Popular among Riverfolk who prefer to work their waterway unarmed, this simple bronze band can transform into a handy weapon in a pinch. When the wearer of a riverclub ring plunges her hand into at least 1 gallon of water as a move action, she can pull forth a club made of animated water.  The weapon maintains the shape, solidity, and statistics of a masterwork club of the wielder's size so long as she holds it, dealing damage as normal, except that it deals 1 additional point of damage against creatures with the fire subtype. The club turns back into a puddle of water again as soon as the wielder loosens her grip around it.<br><p><b>Base Item:</b> </p><h3><b>Requirements</b></h3><p>Forge Ring, icicle dagger (Pathfinder RPG Ultimate Magic 224)</p><h3><b>Source: </b></h3>People Of The River",
      "unidentified": ""
    },
    "tags": [],
    "quantity": 1,
    "weight": {
      "value": 0
    },
    "price": 1000,
    "size": "med",
    "equipped": true,
    "resizing": false,
    "identified": true,
    "hp": {
      "max": 10,
      "value": 10
    },
    "broken": false,
    "hardness": 0,
    "carried": true,
    "unidentified": {
      "price": 0,
      "name": ""
    },
    "cl": 1,
    "aura": {
      "custom": true,
      "school": "conjuration"
    },
    "changes": [],
    "changeFlags": {
      "loseDexToAC": false,
      "noEncumbrance": false,
      "mediumArmorFullSpeed": false,
      "heavyArmorFullSpeed": false
    },
    "contextNotes": [],
    "actions": [],
    "uses": {
      "per": null,
      "value": 0,
      "maxFormula": "",
      "autoDeductChargesCost": "1"
    },
    "attackNotes": [],
    "effectNotes": [],
    "links": {
      "children": [],
      "charges": []
    },
    "tag": "riverclubRing",
    "useCustomTag": false,
    "flags": {
      "boolean": {},
      "dictionary": {}
    },
    "scriptCalls": [],
    "masterwork": false,
    "enh": null,
    "proficient": true,
    "held": "normal",
    "subType": "other",
    "baseTypes": [],
    "equipmentSubtype": "lightArmor",
    "armor": {
      "value": 0,
      "dex": null,
      "acp": 0,
      "enh": 0
    },
    "spellFailure": 0,
    "slot": "other",
    "showInQuickbar": false
  },
  "ownership": {
    "default": 0
  },
  "_stats": {
    "systemId": "pf1",
    "systemVersion": "9.1",
    "coreVersion": "10.291",
    "createdTime": 1665428406688,
    "modifiedTime": 1689797999822,
    "lastModifiedBy": "ppv91YxratjWnkJi"
  },
  "effects": [],
  "folder": null,
  "sort": 0,
  "flags": {},
  "_key": "!items!SCbEuoPQ5XhHLCDM"
}