{
  "_id": "5Bk4Bmy20lYTxmFK",
  "name": "Rod Of The Aboleth",
  "type": "equipment",
  "img": "systems/pf1/icons/items/weapons/sword-cane.png",
  "system": {
    "description": {
      "value": "<h2></b>Description</b></h2></p><p>The rod of the aboleth acts as a +1 corrosive light mace. One end of the rod has three eye-shaped rubies imbedded in it, while the other end comes to a sharp point. When exposed to moisture, the surface of the rod takes on a slimy sheen that doesn't affect the wielder's grip. This rod has the following powers.  • Once per day as a free action, when the rod hits a living creature, the target must succeed at a DC 18 Fortitude saving throw or take 1d4 points of Constitution damage.  • Once per day as a free action, when the rod hits a living creature, the creature must succeed at a DC 13 Will saving throw or be affected as though targeted with a aboleth's lung spell (Advanced Race Guide).  • On command for 1 minute per day, the wielder may gain a swim speed of 60 feet for 1 minute. This time need not be continuous, and can be spent in 1-round increments.<br><p><b>Base Item:</b> +1 corrosive light mace</p><h3><b>Requirements</b></h3><p>Craft Rod, aboleth's lung, acid arrow, touch of the sea (Advanced Player's Guide)</p><h3><b>Source: </b></h3>Ultimate Equipment",
      "unidentified": ""
    },
    "tags": [],
    "quantity": 1,
    "weight": {
      "value": 5
    },
    "price": 29000,
    "size": "med",
    "equipped": true,
    "resizing": false,
    "identified": true,
    "hp": {
      "max": 10,
      "value": 10
    },
    "broken": false,
    "hardness": 0,
    "carried": true,
    "unidentified": {
      "price": 0,
      "name": ""
    },
    "cl": 7,
    "aura": {
      "custom": true,
      "school": "transmutation"
    },
    "changes": [],
    "changeFlags": {
      "loseDexToAC": false,
      "noEncumbrance": false,
      "mediumArmorFullSpeed": false,
      "heavyArmorFullSpeed": false
    },
    "contextNotes": [],
    "actions": [],
    "uses": {
      "per": null,
      "value": 0,
      "maxFormula": "",
      "autoDeductChargesCost": "1"
    },
    "attackNotes": [],
    "effectNotes": [],
    "links": {
      "children": [],
      "charges": []
    },
    "tag": "rodOfTheAboleth",
    "useCustomTag": false,
    "flags": {
      "boolean": {},
      "dictionary": {}
    },
    "scriptCalls": [],
    "masterwork": false,
    "enh": null,
    "proficient": true,
    "held": "normal",
    "subType": "other",
    "baseTypes": [],
    "equipmentSubtype": "lightArmor",
    "armor": {
      "value": 0,
      "dex": null,
      "acp": 0,
      "enh": 0
    },
    "spellFailure": 0,
    "slot": "other",
    "showInQuickbar": false
  },
  "ownership": {
    "default": 0
  },
  "_stats": {
    "systemId": "pf1",
    "systemVersion": "9.1",
    "coreVersion": "10.291",
    "createdTime": 1665428403689,
    "modifiedTime": 1689797983402,
    "lastModifiedBy": "ppv91YxratjWnkJi"
  },
  "effects": [],
  "folder": null,
  "sort": 0,
  "flags": {},
  "_key": "!items!5Bk4Bmy20lYTxmFK"
}