{
  "_id": "R4zUR7i4BAvsAKYF",
  "name": "Rod Of Delumination",
  "type": "equipment",
  "img": "systems/pf1/icons/items/weapons/sword-cane.png",
  "system": {
    "description": {
      "value": "<h2></b>Description</b></h2></p><p>This silvery rod is spoon-sized and utterly featureless. A creature holding a rod of delumination can extinguish any ability, item, or spell effect that is acting as a light source simply by pointing one end of the rod at the light and uttering a command word.  Sources of magical light receive a DC 15 Will saving throw to negate this effect and have a Will save bonus equal to half their caster level; if the original caster of the effect is still within the spell's range, the spell can use its caster's Will save bonus instead. If a light source succeeds at its saving throw against a rod of delumination, the same rod cannot affect it again for 24 hours. No other properties of an affected creature, item, or spell are altered other than its ability to shed light; a torch continues to burn, a lantern continues to consume oil, and so on.  The bearer can, if she chooses, utter a second command word to reignite any light source the rod has previously extinguished, provided that the light source's normal duration hasn't expired.<br><p><b>Base Item:</b> </p><h3><b>Requirements</b></h3><p>Craft Rod, Snuffing Spell (see page 25)</p><h3><b>Source: </b></h3>Blood Of Shadows",
      "unidentified": ""
    },
    "tags": [],
    "quantity": 1,
    "weight": {
      "value": 5
    },
    "price": 35000,
    "size": "med",
    "equipped": true,
    "resizing": false,
    "identified": true,
    "hp": {
      "max": 10,
      "value": 10
    },
    "broken": false,
    "hardness": 0,
    "carried": true,
    "unidentified": {
      "price": 0,
      "name": ""
    },
    "cl": 17,
    "aura": {
      "custom": true,
      "school": "evocation"
    },
    "changes": [],
    "changeFlags": {
      "loseDexToAC": false,
      "noEncumbrance": false,
      "mediumArmorFullSpeed": false,
      "heavyArmorFullSpeed": false
    },
    "contextNotes": [],
    "actions": [],
    "uses": {
      "per": null,
      "value": 0,
      "maxFormula": "",
      "autoDeductChargesCost": "1"
    },
    "attackNotes": [],
    "effectNotes": [],
    "links": {
      "children": [],
      "charges": []
    },
    "tag": "rodOfDelumination",
    "useCustomTag": false,
    "flags": {
      "boolean": {},
      "dictionary": {}
    },
    "scriptCalls": [],
    "masterwork": false,
    "enh": null,
    "proficient": true,
    "held": "normal",
    "subType": "other",
    "baseTypes": [],
    "equipmentSubtype": "lightArmor",
    "armor": {
      "value": 0,
      "dex": null,
      "acp": 0,
      "enh": 0
    },
    "spellFailure": 0,
    "slot": "other",
    "showInQuickbar": false
  },
  "ownership": {
    "default": 0
  },
  "_stats": {
    "systemId": "pf1",
    "systemVersion": "9.1",
    "coreVersion": "10.291",
    "createdTime": 1665428406616,
    "modifiedTime": 1689797999249,
    "lastModifiedBy": "ppv91YxratjWnkJi"
  },
  "effects": [],
  "folder": null,
  "sort": 0,
  "flags": {},
  "_key": "!items!R4zUR7i4BAvsAKYF"
}