{
  "_id": "9oqolMAMr5ke3S3P",
  "name": "Rod Of Thunder And Lightning",
  "type": "equipment",
  "img": "systems/pf1/icons/items/weapons/sword-cane.png",
  "system": {
    "description": {
      "value": "<h2></b>Description</b></h2></p><p>Constructed of iron set with silver rivets, this rod has the properties of a +2 light mace. Its other powers are as follows.  • Lightning: Once per day, when the wielder desires, a short spark of electricity can leap forth when the rod strikes an opponent to deal the normal damage for a +2 light mace (1d6+2) and an extra 2d6 points of electricity damage. Even when the rod fails to score a normal hit in combat, if the roll was good enough to count as a successful melee touch attack, then the 2d6 points of electricity damage still apply. The wielder activates this power as a free action, and it works if he strikes an opponent within 1 round.  • Lightning Stroke: Once per day as a standard action, the wielder can cause the rod to shoot out a 5-foot-wide lightning bolt dealing 9 d6 points o f electricity damage (Reflex DC 16 half) to a range of 200 feet.  • Thunder: Once per day, the rod can strike as a +3 light mace, and the opponent struck is stunned from the noise of the rod's impact (Fortitude DC 16 negates). Activating this sonic power counts as a free action, and it works if the wielder strikes an opponent within 1 round.  • Thunderclap: Once per day as a standard action, the wielder can cause the rod to give out a deafening noise, just as a shout spell (Fortitude DC 16 partial, 2d6 points of sonic damage, target deafened for 2d6 rounds).  • Thunder and Lightning: Once per week as a standard action, the wielder of the rod can combine the thunderclap power with a lightning bolt, as in the lightning stroke power. The thunderclap affects all creatures within 10 feet of the bolt. The lightning stroke deals 9d6 points of electricity damage (count rolls of 1 or 2 as rolls of 3, for a range of 27 to 54 points), and the thunderclap deals 2d6 points of sonic damage. A single DC 16 Reflex save applies for both effects.<br><p><b>Base Item:</b> +2 light mace|+3 light mace</p><h3><b>Requirements</b></h3><p>Craft Magic Arms and Armor, Craft Rod, lightning bolt, shout</p><h3><b>Source: </b></h3>Ultimate Equipment",
      "unidentified": ""
    },
    "tags": [],
    "quantity": 1,
    "weight": {
      "value": 5
    },
    "price": 33000,
    "size": "med",
    "equipped": true,
    "resizing": false,
    "identified": true,
    "hp": {
      "max": 10,
      "value": 10
    },
    "broken": false,
    "hardness": 0,
    "carried": true,
    "unidentified": {
      "price": 0,
      "name": ""
    },
    "cl": 9,
    "aura": {
      "custom": true,
      "school": "evocation"
    },
    "changes": [],
    "changeFlags": {
      "loseDexToAC": false,
      "noEncumbrance": false,
      "mediumArmorFullSpeed": false,
      "heavyArmorFullSpeed": false
    },
    "contextNotes": [],
    "actions": [],
    "uses": {
      "per": null,
      "value": 0,
      "maxFormula": "",
      "autoDeductChargesCost": "1"
    },
    "attackNotes": [],
    "effectNotes": [],
    "links": {
      "children": [],
      "charges": []
    },
    "tag": "rodOfThunderAndLightning",
    "useCustomTag": false,
    "flags": {
      "boolean": {},
      "dictionary": {}
    },
    "scriptCalls": [],
    "masterwork": false,
    "enh": null,
    "proficient": true,
    "held": "normal",
    "subType": "other",
    "baseTypes": [],
    "equipmentSubtype": "lightArmor",
    "armor": {
      "value": 0,
      "dex": null,
      "acp": 0,
      "enh": 0
    },
    "spellFailure": 0,
    "slot": "other",
    "showInQuickbar": false
  },
  "ownership": {
    "default": 0
  },
  "_stats": {
    "systemId": "pf1",
    "systemVersion": "9.1",
    "coreVersion": "10.291",
    "createdTime": 1665428404261,
    "modifiedTime": 1689797988041,
    "lastModifiedBy": "ppv91YxratjWnkJi"
  },
  "effects": [],
  "folder": null,
  "sort": 0,
  "flags": {},
  "_key": "!items!9oqolMAMr5ke3S3P"
}