{
  "_id": "laCQOJyHzWhDtLjk",
  "name": "Rod Of Nettles",
  "type": "equipment",
  "img": "systems/pf1/icons/items/weapons/sword-cane.png",
  "system": {
    "description": {
      "value": "<h2></b>Description</b></h2></p><p>This wooden rod is engraved with serrated-edged leaves of stinging nettles. This rod acts as a +1 light mace that deals no damage. Instead, the rod's venomous touch (melee touch attack) deals 1d3 points of Dexterity damage and causes the target to become sickened for 1d6 rounds (DC 14 Fortitude negates the sickened effect and halves the Dexterity damage); on a critical hit, no saving throw is allowed.  Once per day on command, the wielder may touch the rod of nettles to ordinary vegetation, causing a 20-foot cube to become tangled with nettle-choked overgrowth as the overgrowth ability of the plant growth spell. Furthermore, creatures entering or within this area are affected as if touched by the rod, though creatures with a natural armor bonus of +3 or greater are immune to this effect. A creature that saves is unaffected by the area's poison for 24 hours.<br><p><b>Base Item:</b> +1 light mace</p><h3><b>Requirements</b></h3><p>Craft Rod, plant growth, poison</p><h3><b>Source: </b></h3>Ultimate Equipment",
      "unidentified": ""
    },
    "tags": [],
    "quantity": 1,
    "weight": {
      "value": 5
    },
    "price": 18000,
    "size": "med",
    "equipped": true,
    "resizing": false,
    "identified": true,
    "hp": {
      "max": 10,
      "value": 10
    },
    "broken": false,
    "hardness": 0,
    "carried": true,
    "unidentified": {
      "price": 0,
      "name": ""
    },
    "cl": 8,
    "aura": {
      "custom": true,
      "school": "transmutation"
    },
    "changes": [],
    "changeFlags": {
      "loseDexToAC": false,
      "noEncumbrance": false,
      "mediumArmorFullSpeed": false,
      "heavyArmorFullSpeed": false
    },
    "contextNotes": [],
    "actions": [],
    "uses": {
      "per": null,
      "value": 0,
      "maxFormula": "",
      "autoDeductChargesCost": "1"
    },
    "attackNotes": [],
    "effectNotes": [],
    "links": {
      "children": [],
      "charges": []
    },
    "tag": "rodOfNettles",
    "useCustomTag": false,
    "flags": {
      "boolean": {},
      "dictionary": {}
    },
    "scriptCalls": [],
    "masterwork": false,
    "enh": null,
    "proficient": true,
    "held": "normal",
    "subType": "other",
    "baseTypes": [],
    "equipmentSubtype": "lightArmor",
    "armor": {
      "value": 0,
      "dex": null,
      "acp": 0,
      "enh": 0
    },
    "spellFailure": 0,
    "slot": "other",
    "showInQuickbar": false
  },
  "ownership": {
    "default": 0
  },
  "_stats": {
    "systemId": "pf1",
    "systemVersion": "9.1",
    "coreVersion": "10.291",
    "createdTime": 1665428408993,
    "modifiedTime": 1689798012863,
    "lastModifiedBy": "ppv91YxratjWnkJi"
  },
  "effects": [],
  "folder": null,
  "sort": 0,
  "flags": {},
  "_key": "!items!laCQOJyHzWhDtLjk"
}