{
  "_id": "VGXE13znRAVsTVJx",
  "name": "Rod Of Balance",
  "type": "equipment",
  "img": "systems/pf1/icons/items/weapons/sword-cane.png",
  "system": {
    "description": {
      "value": "<h2></b>Description</b></h2></p><p>This short, slender rod appears to be crafted from solid iron, though it is incredibly light. In this shortened form, the rod has no powers. However, when the wielder pushes a small button on one end of the rod (a move action), the rod springs open to a 5-foot length, and its powers become available for use. Once extended, the rod possesses several powers that add to the wielder's acrobatic abilities. The wielder of the rod receives a +10 competence bonus on all Acrobatics checks involving long jumps and high jumps; additionally, the wielder covers double the normal distance for a jump when making an Acrobatics check. The individual holding the rod also gain a +4 dodge bonus to AC when fighting defensively instead of the usual +2 bonus. Also, while using this item, the user of the rod cannot be knocked prone, and takes only half damage from falling.<br><p><b>Base Item:</b> </p><h3><b>Requirements</b></h3><p>Craft Rod, cat's grace, feather fall, jump</p><h3><b>Source: </b></h3>Ultimate Equipment",
      "unidentified": ""
    },
    "tags": [],
    "quantity": 1,
    "weight": {
      "value": 5
    },
    "price": 15000,
    "size": "med",
    "equipped": true,
    "resizing": false,
    "identified": true,
    "hp": {
      "max": 10,
      "value": 10
    },
    "broken": false,
    "hardness": 0,
    "carried": true,
    "unidentified": {
      "price": 0,
      "name": ""
    },
    "cl": 5,
    "aura": {
      "custom": true,
      "school": "abjuration and transmutation"
    },
    "changes": [],
    "changeFlags": {
      "loseDexToAC": false,
      "noEncumbrance": false,
      "mediumArmorFullSpeed": false,
      "heavyArmorFullSpeed": false
    },
    "contextNotes": [],
    "actions": [],
    "uses": {
      "per": null,
      "value": 0,
      "maxFormula": "",
      "autoDeductChargesCost": "1"
    },
    "attackNotes": [],
    "effectNotes": [],
    "links": {
      "children": [],
      "charges": []
    },
    "tag": "rodOfBalance",
    "useCustomTag": false,
    "flags": {
      "boolean": {},
      "dictionary": {}
    },
    "scriptCalls": [],
    "masterwork": false,
    "enh": null,
    "proficient": true,
    "held": "normal",
    "subType": "other",
    "baseTypes": [],
    "equipmentSubtype": "lightArmor",
    "armor": {
      "value": 0,
      "dex": null,
      "acp": 0,
      "enh": 0
    },
    "spellFailure": 0,
    "slot": "other",
    "showInQuickbar": false
  },
  "ownership": {
    "default": 0
  },
  "_stats": {
    "systemId": "pf1",
    "systemVersion": "9.1",
    "coreVersion": "10.291",
    "createdTime": 1665428406832,
    "modifiedTime": 1689798001172,
    "lastModifiedBy": "ppv91YxratjWnkJi"
  },
  "effects": [],
  "folder": null,
  "sort": 0,
  "flags": {},
  "_key": "!items!VGXE13znRAVsTVJx"
}