{
  "_id": "mJfjFHe6jTkgylU8",
  "name": "Rod Of Minor Curses",
  "type": "equipment",
  "img": "systems/pf1/icons/items/weapons/sword-cane.png",
  "system": {
    "description": {
      "value": "<h2></b>Description</b></h2></p><p>This rod functions as a +1 light mace and resembles the distorted femur of some monstrous creature. Up to three times per day when the wielder damages a creature with the rod, as a free action, the wielder can force the target to attempt a DC 14 Will save. On a failure, the creature suffers a minor curse. The wielder selects which of the following curses affects the target: -2 penalty to Strength (target's Strength cannot be reduced below 1); -1 penalty on attack rolls, saves, ability checks, and skill checks; or target has a 20% chance to begin each round with the staggered condition. On a successful critical hit, the wielder can inflict two distinct curses if the target fails its save. Otherwise, a target can be subject to only one curse at a time.  Curses inflicted from the rod of minor curses last for 5 minutes. They can also be removed with any spell that can remove the effects of bestow curse.<br><p><b>Base Item:</b> +1 light mace</p><h3><b>Requirements</b></h3><p>Craft Magic Arms and Armor, Craft Rod, bestow curse</p><h3><b>Source: </b></h3>Magic Tactics Toolbox",
      "unidentified": ""
    },
    "tags": [],
    "quantity": 1,
    "weight": {
      "value": 4
    },
    "price": 20000,
    "size": "med",
    "equipped": true,
    "resizing": false,
    "identified": true,
    "hp": {
      "max": 10,
      "value": 10
    },
    "broken": false,
    "hardness": 0,
    "carried": true,
    "unidentified": {
      "price": 0,
      "name": ""
    },
    "cl": 5,
    "aura": {
      "custom": true,
      "school": "necromancy"
    },
    "changes": [],
    "changeFlags": {
      "loseDexToAC": false,
      "noEncumbrance": false,
      "mediumArmorFullSpeed": false,
      "heavyArmorFullSpeed": false
    },
    "contextNotes": [],
    "actions": [],
    "uses": {
      "per": null,
      "value": 0,
      "maxFormula": "",
      "autoDeductChargesCost": "1"
    },
    "attackNotes": [],
    "effectNotes": [],
    "links": {
      "children": [],
      "charges": []
    },
    "tag": "rodOfMinorCurses",
    "useCustomTag": false,
    "flags": {
      "boolean": {},
      "dictionary": {}
    },
    "scriptCalls": [],
    "masterwork": false,
    "enh": null,
    "proficient": true,
    "held": "normal",
    "subType": "other",
    "baseTypes": [],
    "equipmentSubtype": "lightArmor",
    "armor": {
      "value": 0,
      "dex": null,
      "acp": 0,
      "enh": 0
    },
    "spellFailure": 0,
    "slot": "other",
    "showInQuickbar": false
  },
  "ownership": {
    "default": 0
  },
  "_stats": {
    "systemId": "pf1",
    "systemVersion": "9.1",
    "coreVersion": "10.291",
    "createdTime": 1665428409037,
    "modifiedTime": 1689798013262,
    "lastModifiedBy": "ppv91YxratjWnkJi"
  },
  "effects": [],
  "folder": null,
  "sort": 0,
  "flags": {},
  "_key": "!items!mJfjFHe6jTkgylU8"
}