{
  "_id": "CA5ehYUv55GBSizW",
  "name": "Saddle Of The Sky-River",
  "type": "equipment",
  "img": "icons/svg/item-bag.svg",
  "system": {
    "description": {
      "value": "<h2></b>Description</b></h2></p><p>This nacreous saddle is carved from giant mollusk shells, lashed with braided kelp, and designed to be worn by aquatic mounts. On command, an arcing torrent of water rises up from an existing body of water, allowing the mount to use its swim speed to move through the air. This functions as air walk and can be used a total of 7 minutes per day, usable in 1-minute increments. The arc of water trails behind the mount and rider and can be used by other swimming creatures to move through the air (Swim DC 15). When the effect ends, the suspended water disappears with a negligible amount of water falling on creatures underneath the path of the arc.   The sky-river created by the saddle does not harm creatures, though it does extinguish nonmagical fires in areas it overlaps with them. As a standard action, the rider can expend 2 minutes of the sky-river's duration to produce a hydraulic torrentAPG with a CMB of +9.<br><p><b>Base Item:</b> </p><h3><b>Requirements</b></h3><p>Craft Wondrous Item, air walk, hydraulic torrentAPG, water walk</p><h3><b>Source: </b></h3>Animal Archive",
      "unidentified": ""
    },
    "tags": [],
    "quantity": 1,
    "weight": {
      "value": 15
    },
    "price": 16000,
    "size": "med",
    "equipped": true,
    "resizing": false,
    "identified": true,
    "hp": {
      "max": 10,
      "value": 10
    },
    "broken": false,
    "hardness": 0,
    "carried": true,
    "unidentified": {
      "price": 0,
      "name": ""
    },
    "cl": 7,
    "aura": {
      "custom": true,
      "school": "evocation [water] and transmutation [air water]"
    },
    "changes": [],
    "changeFlags": {
      "loseDexToAC": false,
      "noEncumbrance": false,
      "mediumArmorFullSpeed": false,
      "heavyArmorFullSpeed": false
    },
    "contextNotes": [],
    "actions": [],
    "uses": {
      "per": null,
      "value": 0,
      "maxFormula": "",
      "autoDeductChargesCost": "1"
    },
    "attackNotes": [],
    "effectNotes": [],
    "links": {
      "children": [],
      "charges": []
    },
    "tag": "saddleOfTheSkyriver",
    "useCustomTag": false,
    "flags": {
      "boolean": {},
      "dictionary": {}
    },
    "scriptCalls": [],
    "masterwork": false,
    "enh": null,
    "proficient": true,
    "held": "normal",
    "subType": "wondrous",
    "baseTypes": [],
    "equipmentSubtype": "lightArmor",
    "armor": {
      "value": 0,
      "dex": null,
      "acp": 0,
      "enh": 0
    },
    "spellFailure": 0,
    "slot": "chest",
    "showInQuickbar": false
  },
  "ownership": {
    "default": 0
  },
  "_stats": {
    "systemId": "pf1",
    "systemVersion": "9.1",
    "coreVersion": "10.291",
    "createdTime": 1665428404646,
    "modifiedTime": 1689797989605,
    "lastModifiedBy": "ppv91YxratjWnkJi"
  },
  "effects": [],
  "folder": null,
  "sort": 0,
  "flags": {},
  "_key": "!items!CA5ehYUv55GBSizW"
}