{
  "_id": "fPm2fUKawv2JCtIn",
  "name": "Sanguine Talisman Of Sheel Leroung",
  "type": "equipment",
  "img": "icons/svg/item-bag.svg",
  "system": {
    "description": {
      "value": "<h2></b>Description</b></h2></p><p>This crimson devil talisman once belonged to the diabolist Sheel Leroung, a conjurer who aided Daidian Ruel in investigating the ways of Hell. The wearer of this talisman gains a +3 profane bonus to Armor Class and a telepathic bond with the bearded devil bound within. Once per day, the wearer can attempt an opposed Charisma check against the barbazu's +0 modifier to summon him forth for 8 rounds, as per the spell summon monster. The barbazu bound within this talisman is known as Lodveyn the Wizened. Rather than Weapon Focus (glaive), Lodveyn has Throw Anything- preferring to fling his polearm, then following it into the fray with his vicious claws. He claims to have been a servant of both Leroung and the ice devil Voulgarghas, and remembers much of the early days of the Hellknights' founding.<br><p><b>Base Item:</b> </p><h3><b>Requirements</b></h3><p>Craft Wondrous Item, planar binding, ability to conjure and bind a barbazu</p><h3><b>Source: </b></h3>Hell Unleashed",
      "unidentified": ""
    },
    "tags": [],
    "quantity": 1,
    "weight": {
      "value": 0
    },
    "price": 67500,
    "size": "med",
    "equipped": true,
    "resizing": false,
    "identified": true,
    "hp": {
      "max": 10,
      "value": 10
    },
    "broken": false,
    "hardness": 0,
    "carried": true,
    "unidentified": {
      "price": 0,
      "name": ""
    },
    "cl": 8,
    "aura": {
      "custom": true,
      "school": "conjuration"
    },
    "changes": [],
    "changeFlags": {
      "loseDexToAC": false,
      "noEncumbrance": false,
      "mediumArmorFullSpeed": false,
      "heavyArmorFullSpeed": false
    },
    "contextNotes": [],
    "actions": [],
    "uses": {
      "per": null,
      "value": 0,
      "maxFormula": "",
      "autoDeductChargesCost": "1"
    },
    "attackNotes": [],
    "effectNotes": [],
    "links": {
      "children": [],
      "charges": []
    },
    "tag": "sanguineTalismanOfSheelLeroung",
    "useCustomTag": false,
    "flags": {
      "boolean": {},
      "dictionary": {}
    },
    "scriptCalls": [],
    "masterwork": false,
    "enh": null,
    "proficient": true,
    "held": "normal",
    "subType": "wondrous",
    "baseTypes": [],
    "equipmentSubtype": "lightArmor",
    "armor": {
      "value": 0,
      "dex": null,
      "acp": 0,
      "enh": 0
    },
    "spellFailure": 0,
    "slot": "neck",
    "showInQuickbar": false
  },
  "ownership": {
    "default": 0
  },
  "_stats": {
    "systemId": "pf1",
    "systemVersion": "9.1",
    "coreVersion": "10.291",
    "createdTime": 1665428407987,
    "modifiedTime": 1689798008243,
    "lastModifiedBy": "ppv91YxratjWnkJi"
  },
  "effects": [],
  "folder": null,
  "sort": 0,
  "flags": {},
  "_key": "!items!fPm2fUKawv2JCtIn"
}