{
  "_id": "lAHjrwTDD9Z1qtUk",
  "name": "Scourge Vial",
  "type": "equipment",
  "img": "icons/svg/item-bag.svg",
  "system": {
    "description": {
      "value": "<h2></b>Description</b></h2></p><p>Hurling this crystalline, ember-filled vial at an enemy causes the vessel to erupt in a burst of green smoke and burning ash that coalesces into a fire-blackened skull with burning eyes. Wreathed in oily, acrid smoke and trailing hot embers, the skull corkscrews around its target uttering biting insults and dire curses. The black smoke left in its wake causes watering eyes and wracking coughs.  When a scourge vial is thrown as a ranged touch attack, the skull torments any single struck creature of size Large or smaller. The skull moves with the target, distracting it in combat with its chaotic orbit. Any combatant in melee with the target is considered to be flanking with the skull.  The skull's trailing smoke and embers cause the target (and any creature occupying the same square as the target) to become dazzled. Furthermore, each round, the target must succeed at a DC 14 Fortitude save or become sickened by the smoke. Targets with the scent ability take a -4 penalty on their Fortitude saves. Creatures with the fire subtype are immune to the sickening effect. The skull and smoke dissipate in 5 rounds.  If an attack roll made to throw a scourge vial fails, the vial is treated as a splash weapon to determine where it lands instead. If there is creature of size Large or smaller in the resulting square, make a touch attack against that target. If that attack misses, or there is no valid target in that square, the skull shrieks harmlessly before dissipating.<br><p><b>Base Item:</b> </p><h3><b>Requirements</b></h3><p>Craft Wondrous Item, pyrotechnics</p><h3><b>Source: </b></h3>Daughters Of Fury",
      "unidentified": ""
    },
    "tags": [],
    "quantity": 1,
    "weight": {
      "value": 0
    },
    "price": 1200,
    "size": "med",
    "equipped": true,
    "resizing": false,
    "identified": true,
    "hp": {
      "max": 10,
      "value": 10
    },
    "broken": false,
    "hardness": 0,
    "carried": true,
    "unidentified": {
      "price": 0,
      "name": ""
    },
    "cl": 5,
    "aura": {
      "custom": true,
      "school": "transmutation"
    },
    "changes": [],
    "changeFlags": {
      "loseDexToAC": false,
      "noEncumbrance": false,
      "mediumArmorFullSpeed": false,
      "heavyArmorFullSpeed": false
    },
    "contextNotes": [],
    "actions": [],
    "uses": {
      "per": null,
      "value": 0,
      "maxFormula": "",
      "autoDeductChargesCost": "1"
    },
    "attackNotes": [],
    "effectNotes": [],
    "links": {
      "children": [],
      "charges": []
    },
    "tag": "scourgeVial",
    "useCustomTag": false,
    "flags": {
      "boolean": {},
      "dictionary": {}
    },
    "scriptCalls": [],
    "masterwork": false,
    "enh": null,
    "proficient": true,
    "held": "normal",
    "subType": "wondrous",
    "baseTypes": [],
    "equipmentSubtype": "lightArmor",
    "armor": {
      "value": 0,
      "dex": null,
      "acp": 0,
      "enh": 0
    },
    "spellFailure": 0,
    "slot": "slotless",
    "showInQuickbar": false
  },
  "ownership": {
    "default": 0
  },
  "_stats": {
    "systemId": "pf1",
    "systemVersion": "9.1",
    "coreVersion": "10.291",
    "createdTime": 1665428408624,
    "modifiedTime": 1689798012035,
    "lastModifiedBy": "ppv91YxratjWnkJi"
  },
  "effects": [],
  "folder": null,
  "sort": 0,
  "flags": {},
  "_key": "!items!lAHjrwTDD9Z1qtUk"
}