{
  "_id": "VH5VsIQkmrLJyUXh",
  "name": "Senate Aide Badge",
  "type": "equipment",
  "img": "icons/svg/item-bag.svg",
  "system": {
    "description": {
      "value": "<h2></b>Description</b></h2></p><p>This brooch features the heraldry of a Taldan noble family, marking the wearer as an aide to the associated senator. All senate aide badges are part of a set, attuned to a single master senator badge during their creation. A creature wearing the pinned brooch can receive telepathic communications sent from the wearer of the master senator badge. Once the wearer of the senate aide badge receives a message, she has 1 minute to send a telepathic reply of up to 25 words. Sending a reply requires a full-round action of concentration. The wearer of the master senator badge can send up to 10 telepathic messages per day, targeting either a specific badge or broadcasting to all badge wearers, and knows the approximate direction and distance to all wearers of senate aid badges attuned to the master badge.  Senate aide badges are often further enchanted with emergency effects that mimic the contingency spell, whisking endangered staff to safety or casting protective magic. The exact conditions and effects vary, and their cost is added the badge's construction cost.<br><p><b>Base Item:</b> </p><h3><b>Requirements</b></h3><p>Craft Wondrous Item, sending, status</p><h3><b>Source: </b></h3>AP 127",
      "unidentified": ""
    },
    "tags": [],
    "quantity": 1,
    "weight": {
      "value": 0
    },
    "price": 1500,
    "size": "med",
    "equipped": true,
    "resizing": false,
    "identified": true,
    "hp": {
      "max": 10,
      "value": 10
    },
    "broken": false,
    "hardness": 0,
    "carried": true,
    "unidentified": {
      "price": 0,
      "name": ""
    },
    "cl": 9,
    "aura": {
      "custom": true,
      "school": "divination"
    },
    "changes": [],
    "changeFlags": {
      "loseDexToAC": false,
      "noEncumbrance": false,
      "mediumArmorFullSpeed": false,
      "heavyArmorFullSpeed": false
    },
    "contextNotes": [],
    "actions": [],
    "uses": {
      "per": null,
      "value": 0,
      "maxFormula": "",
      "autoDeductChargesCost": "1"
    },
    "attackNotes": [],
    "effectNotes": [],
    "links": {
      "children": [],
      "charges": []
    },
    "tag": "senateAideBadge",
    "useCustomTag": false,
    "flags": {
      "boolean": {},
      "dictionary": {}
    },
    "scriptCalls": [],
    "masterwork": false,
    "enh": null,
    "proficient": true,
    "held": "normal",
    "subType": "wondrous",
    "baseTypes": [],
    "equipmentSubtype": "lightArmor",
    "armor": {
      "value": 0,
      "dex": null,
      "acp": 0,
      "enh": 0
    },
    "spellFailure": 0,
    "slot": "slotless",
    "showInQuickbar": false
  },
  "ownership": {
    "default": 0
  },
  "_stats": {
    "systemId": "pf1",
    "systemVersion": "9.1",
    "coreVersion": "10.291",
    "createdTime": 1665428406835,
    "modifiedTime": 1689798001189,
    "lastModifiedBy": "ppv91YxratjWnkJi"
  },
  "effects": [],
  "folder": null,
  "sort": 0,
  "flags": {},
  "_key": "!items!VH5VsIQkmrLJyUXh"
}