{
  "_id": "MBCqO6XTDHjgSpSu",
  "name": "Shackles Ensign",
  "type": "equipment",
  "img": "icons/svg/item-bag.svg",
  "system": {
    "description": {
      "value": "<h2></b>Description</b></h2></p><p>This red-and-black naval ensign displays the grinning skull and crossed manacles of the Shackles. While the flag feels as sleek as silk, the material is stronger than the toughest sail canvas. Openly flying a Shackles ensign improves the initial attitude of most hostile or unfriendly pirates by one step, and worsens the starting attitude of those opposed to piracy by one step. The ensign has no effect when not properly mounted on a ship.  Once per day, a Shackles ensign can be hoisted and unfurled on a ship to impose a sinister sense of doom upon an opposing ship's crew. It takes two full-round actions to raise the flag. All non-pirate creatures (defined at the GM's discretion) within 300 feet who are able to see the flag take a -1 penalty on attack rolls, weapon damage rolls, saving throws, and skill checks for 1 minute. This is a visual mind-affecting effect. In addition, all allied creatures aboard the ship flying the Shackles ensign gain a +1 luck bonus on attack rolls, weapon damage rolls, saving throws, and skill checks for 1 minute.<br><p><b>Base Item:</b> </p><h3><b>Requirements</b></h3><p>Craft Wondrous Item, prayer</p><h3><b>Source: </b></h3>AP 57",
      "unidentified": ""
    },
    "tags": [],
    "quantity": 1,
    "weight": {
      "value": 3
    },
    "price": 10800,
    "size": "med",
    "equipped": true,
    "resizing": false,
    "identified": true,
    "hp": {
      "max": 10,
      "value": 10
    },
    "broken": false,
    "hardness": 0,
    "carried": true,
    "unidentified": {
      "price": 0,
      "name": ""
    },
    "cl": 10,
    "aura": {
      "custom": true,
      "school": "enchantment"
    },
    "changes": [],
    "changeFlags": {
      "loseDexToAC": false,
      "noEncumbrance": false,
      "mediumArmorFullSpeed": false,
      "heavyArmorFullSpeed": false
    },
    "contextNotes": [],
    "actions": [],
    "uses": {
      "per": null,
      "value": 0,
      "maxFormula": "",
      "autoDeductChargesCost": "1"
    },
    "attackNotes": [],
    "effectNotes": [],
    "links": {
      "children": [],
      "charges": []
    },
    "tag": "shacklesEnsign",
    "useCustomTag": false,
    "flags": {
      "boolean": {},
      "dictionary": {}
    },
    "scriptCalls": [],
    "masterwork": false,
    "enh": null,
    "proficient": true,
    "held": "normal",
    "subType": "wondrous",
    "baseTypes": [],
    "equipmentSubtype": "lightArmor",
    "armor": {
      "value": 0,
      "dex": null,
      "acp": 0,
      "enh": 0
    },
    "spellFailure": 0,
    "slot": "slotless",
    "showInQuickbar": false
  },
  "ownership": {
    "default": 0
  },
  "_stats": {
    "systemId": "pf1",
    "systemVersion": "9.1",
    "coreVersion": "10.291",
    "createdTime": 1665428406015,
    "modifiedTime": 1689797995596,
    "lastModifiedBy": "ppv91YxratjWnkJi"
  },
  "effects": [],
  "folder": null,
  "sort": 0,
  "flags": {},
  "_key": "!items!MBCqO6XTDHjgSpSu"
}