{
  "_id": "iRi2TWWDkbSHovda",
  "name": "Shadowblood",
  "type": "equipment",
  "img": "icons/svg/item-bag.svg",
  "system": {
    "description": {
      "value": "<h2></b>Description</b></h2></p><p>Shadowblood is among the most notorious of drugs-a fluid infused with a shadow demon's essence. Anyone who drinks this substance must succeed at a DC 20 Fortitude save or take 1d6 points of cold damage and 1d4 points of Wisdom damage, and become nauseated for 1d6 rounds. Thereafter, the target gains 1d10+5 temporary hit points, cold resistance 5, and darkvision 60 feet. These effects persist for 1 hour, during which demons take a -4 penalty on saving throws against the drinker's spells and spell-like abilities of the shadow subschool.   Shadowblood is exceedingly addictive and carries some significant disadvantages. Each time a creature takes a dose of shadowblood, it must succeed at a DC 20 Fortitude save or become addicted-shadowblood addiction is a severe addiction (see page 236 of the Pathfinder RPG GameMastery Guide). A creature under the influence of shadowblood or suffering from shadowblood addiction takes a -4 penalty on all saving throws against possession type effects made by demons, and can never gain the benefits of protection from evil or similar spells against such effects.<br><p><b>Base Item:</b> </p><h3><b>Requirements</b></h3><p>Craft Wondrous Item, desecrate, shadow evocation, creator must be a shadow demon or must have the cooperation of a shadow demon</p><h3><b>Source: </b></h3>AP 74",
      "unidentified": ""
    },
    "tags": [],
    "quantity": 1,
    "weight": {
      "value": 0
    },
    "price": 1500,
    "size": "med",
    "equipped": true,
    "resizing": false,
    "identified": true,
    "hp": {
      "max": 10,
      "value": 10
    },
    "broken": false,
    "hardness": 0,
    "carried": true,
    "unidentified": {
      "price": 0,
      "name": ""
    },
    "cl": 9,
    "aura": {
      "custom": true,
      "school": "evocation [evil]"
    },
    "changes": [],
    "changeFlags": {
      "loseDexToAC": false,
      "noEncumbrance": false,
      "mediumArmorFullSpeed": false,
      "heavyArmorFullSpeed": false
    },
    "contextNotes": [],
    "actions": [],
    "uses": {
      "per": null,
      "value": 0,
      "maxFormula": "",
      "autoDeductChargesCost": "1"
    },
    "attackNotes": [],
    "effectNotes": [],
    "links": {
      "children": [],
      "charges": []
    },
    "tag": "shadowblood",
    "useCustomTag": false,
    "flags": {
      "boolean": {},
      "dictionary": {}
    },
    "scriptCalls": [],
    "masterwork": false,
    "enh": null,
    "proficient": true,
    "held": "normal",
    "subType": "wondrous",
    "baseTypes": [],
    "equipmentSubtype": "lightArmor",
    "armor": {
      "value": 0,
      "dex": null,
      "acp": 0,
      "enh": 0
    },
    "spellFailure": 0,
    "slot": "slotless",
    "showInQuickbar": false
  },
  "ownership": {
    "default": 0
  },
  "_stats": {
    "systemId": "pf1",
    "systemVersion": "9.1",
    "coreVersion": "10.291",
    "createdTime": 1665428408466,
    "modifiedTime": 1689798010430,
    "lastModifiedBy": "ppv91YxratjWnkJi"
  },
  "effects": [],
  "folder": null,
  "sort": 0,
  "flags": {},
  "_key": "!items!iRi2TWWDkbSHovda"
}