{
  "_id": "vPZYvXxt0n3TbF2G",
  "name": "Shell Of Sending",
  "type": "equipment",
  "img": "icons/svg/item-bag.svg",
  "system": {
    "description": {
      "value": "<h2></b>Description</b></h2></p><p>This conch shell measures only a few inches long and shimmers with a delicate pink color. Shells of sending always come in pairs, with each shell attuned to the other. If pairs are mixed up or lost, a shell of sending can be attuned to a new shell of sending in a process that takes 24 hours.  Once per day, anyone holding a shell of sending can whisper up to 25 words into the shell. The sender's words emerge from the second shell, audible to anyone holding the attuned shell, as long as the receiver is on the same plane of existence. If the receiver wishes, she can send a return message of up to 25 words.  Anyone eavesdropping on either sender or receiver must attempt a DC 14 Will saving throw. On a success, an eavesdropper can hear the speakers normally. On a failure, the speakers seem to be relaying gibberish and nonsense words to each other. Creatures who fail this saving throw by 5 or more are deafened for 1d4 minutes.<br><p><b>Base Item:</b> </p><h3><b>Requirements</b></h3><p>Craft Wondrous Item, sending</p><h3><b>Source: </b></h3>AP 124",
      "unidentified": ""
    },
    "tags": [],
    "quantity": 1,
    "weight": {
      "value": 0
    },
    "price": 12200,
    "size": "med",
    "equipped": true,
    "resizing": false,
    "identified": true,
    "hp": {
      "max": 10,
      "value": 10
    },
    "broken": false,
    "hardness": 0,
    "carried": true,
    "unidentified": {
      "price": 0,
      "name": ""
    },
    "cl": 7,
    "aura": {
      "custom": true,
      "school": "evocation"
    },
    "changes": [],
    "changeFlags": {
      "loseDexToAC": false,
      "noEncumbrance": false,
      "mediumArmorFullSpeed": false,
      "heavyArmorFullSpeed": false
    },
    "contextNotes": [],
    "actions": [],
    "uses": {
      "per": null,
      "value": 0,
      "maxFormula": "",
      "autoDeductChargesCost": "1"
    },
    "attackNotes": [],
    "effectNotes": [],
    "links": {
      "children": [],
      "charges": []
    },
    "tag": "shellOfSending",
    "useCustomTag": false,
    "flags": {
      "boolean": {},
      "dictionary": {}
    },
    "scriptCalls": [],
    "masterwork": false,
    "enh": null,
    "proficient": true,
    "held": "normal",
    "subType": "wondrous",
    "baseTypes": [],
    "equipmentSubtype": "lightArmor",
    "armor": {
      "value": 0,
      "dex": null,
      "acp": 0,
      "enh": 0
    },
    "spellFailure": 0,
    "slot": "slotless",
    "showInQuickbar": false
  },
  "ownership": {
    "default": 0
  },
  "_stats": {
    "systemId": "pf1",
    "systemVersion": "9.1",
    "coreVersion": "10.291",
    "createdTime": 1665428410276,
    "modifiedTime": 1689798019912,
    "lastModifiedBy": "ppv91YxratjWnkJi"
  },
  "effects": [],
  "folder": null,
  "sort": 0,
  "flags": {},
  "_key": "!items!vPZYvXxt0n3TbF2G"
}