{
  "_id": "NYhxyQILZXNUfsvY",
  "name": "Shield Of Countless Causes",
  "type": "equipment",
  "img": "icons/svg/item-bag.svg",
  "system": {
    "description": {
      "value": "<h2></b>Description</b></h2></p><p>Dozens of pages of scripture cover the face of this +2 heavy wooden shield, each detailing in word or illustration the tenets of a knightly order. While worn or carried, the shield acts like a phylactery of faithfulness, except that it only functions for actions that would violate the edicts of the wearer's cavalier order. A newly created shield of countless causes has 5 charges. By expending 1 charge and studying the shield's texts for 10 minutes, the wielder can regain the use of his order abilities as if 24 hours had passed. By expending 3 charges and studying the shield's texts for 8 hours, the wielder can change his order. When the last charge is used, the shield remains a +2 heavy wooden shield.<br><p><b>Base Item:</b> +2 heavy wooden shield</p><h3><b>Requirements</b></h3><p>Craft Wondrous Item, atonement</p><h3><b>Source: </b></h3>Faiths & Philosophies",
      "unidentified": ""
    },
    "tags": [],
    "quantity": 1,
    "weight": {
      "value": 10
    },
    "price": 11157,
    "size": "med",
    "equipped": true,
    "resizing": false,
    "identified": true,
    "hp": {
      "max": 10,
      "value": 10
    },
    "broken": false,
    "hardness": 0,
    "carried": true,
    "unidentified": {
      "price": 0,
      "name": ""
    },
    "cl": 5,
    "aura": {
      "custom": true,
      "school": "enchantment"
    },
    "changes": [],
    "changeFlags": {
      "loseDexToAC": false,
      "noEncumbrance": false,
      "mediumArmorFullSpeed": false,
      "heavyArmorFullSpeed": false
    },
    "contextNotes": [],
    "actions": [],
    "uses": {
      "per": null,
      "value": 0,
      "maxFormula": "",
      "autoDeductChargesCost": "1"
    },
    "attackNotes": [],
    "effectNotes": [],
    "links": {
      "children": [],
      "charges": []
    },
    "tag": "shieldOfCountlessCauses",
    "useCustomTag": false,
    "flags": {
      "boolean": {},
      "dictionary": {}
    },
    "scriptCalls": [],
    "masterwork": false,
    "enh": null,
    "proficient": true,
    "held": "normal",
    "subType": "wondrous",
    "baseTypes": [],
    "equipmentSubtype": "lightArmor",
    "armor": {
      "value": 0,
      "dex": null,
      "acp": 0,
      "enh": 0
    },
    "spellFailure": 0,
    "slot": "slotless",
    "showInQuickbar": false
  },
  "ownership": {
    "default": 0
  },
  "_stats": {
    "systemId": "pf1",
    "systemVersion": "9.1",
    "coreVersion": "10.291",
    "createdTime": 1665428406084,
    "modifiedTime": 1689797996086,
    "lastModifiedBy": "ppv91YxratjWnkJi"
  },
  "effects": [],
  "folder": null,
  "sort": 0,
  "flags": {},
  "_key": "!items!NYhxyQILZXNUfsvY"
}