{
  "_id": "n3IKBywH4ayPnDXz",
  "name": "Shifter's Headband +6",
  "type": "equipment",
  "img": "icons/svg/item-bag.svg",
  "system": {
    "description": {
      "value": "<h2></b>Description</b></h2></p><p>This band of reddish fox fur is marked on the front with a distinctive symbol that constantly shifts into a different character. The headband grants the wearer an enhancement bonus to one mental ability score (Intelligence, Wisdom, or Charisma) of +2, +4, or +6. Treat this as a temporary ability bonus for the first 24 hours the headband is worn. This bonus is chosen when the headband is created and cannot be changed. If the headband grants a bonus to Intelligence, it also grants skill ranks as a headband of vast intelligence.   If the wearer is a creature who uses magic to change form, she gains the following additional benefits.   Shifter's headband +2: The wearer treats her caster level as if it were one level higher when casting spells or creating extracts of the polymorph subschool.   Shifter's headband +4: Once per day while under the effect of a polymorph spell or extract, the wearer can assume another form allowed by that effect. This is a standard action.   Shifter's headband +6: Whenever the wearer changes her shape with a polymorph effect, she gains DR 5/silver for 1 minute (this ends if she returns to her natural form).   These additional shapeshifter abilities are cumulative. For example, a creature wearing a shifter's headband +4 gains the extra transformation ability and treats her caster level as 1 higher than normal for polymorph spells and extracts.<br><p><b>Base Item:</b> </p><h3><b>Requirements</b></h3><p>Craft Wondrous Item, polymorph self</p><h3><b>Source: </b></h3>Ultimate Equipment",
      "unidentified": ""
    },
    "tags": [],
    "quantity": 1,
    "weight": {
      "value": 0
    },
    "price": 39000,
    "size": "med",
    "equipped": true,
    "resizing": false,
    "identified": true,
    "hp": {
      "max": 10,
      "value": 10
    },
    "broken": false,
    "hardness": 0,
    "carried": true,
    "unidentified": {
      "price": 0,
      "name": ""
    },
    "cl": 8,
    "aura": {
      "custom": true,
      "school": "transmutation"
    },
    "changes": [],
    "changeFlags": {
      "loseDexToAC": false,
      "noEncumbrance": false,
      "mediumArmorFullSpeed": false,
      "heavyArmorFullSpeed": false
    },
    "contextNotes": [],
    "actions": [],
    "uses": {
      "per": null,
      "value": 0,
      "maxFormula": "",
      "autoDeductChargesCost": "1"
    },
    "attackNotes": [],
    "effectNotes": [],
    "links": {
      "children": [],
      "charges": []
    },
    "tag": "shiftersHeadband6",
    "useCustomTag": false,
    "flags": {
      "boolean": {},
      "dictionary": {}
    },
    "scriptCalls": [],
    "masterwork": false,
    "enh": null,
    "proficient": true,
    "held": "normal",
    "subType": "wondrous",
    "baseTypes": [],
    "equipmentSubtype": "lightArmor",
    "armor": {
      "value": 0,
      "dex": null,
      "acp": 0,
      "enh": 0
    },
    "spellFailure": 0,
    "slot": "headband",
    "showInQuickbar": false
  },
  "ownership": {
    "default": 0
  },
  "_stats": {
    "systemId": "pf1",
    "systemVersion": "9.1",
    "coreVersion": "10.291",
    "createdTime": 1665428409093,
    "modifiedTime": 1689798013843,
    "lastModifiedBy": "ppv91YxratjWnkJi"
  },
  "effects": [],
  "folder": null,
  "sort": 0,
  "flags": {},
  "_key": "!items!n3IKBywH4ayPnDXz"
}