{
  "_id": "7gXPjrgSI1aNrkca",
  "name": "Sihedron Brand (service) +2",
  "type": "equipment",
  "img": "systems/pf1/icons/items/jewelry/ring-red.jpg",
  "system": {
    "description": {
      "value": "<h2></b>Description</b></h2></p><p>This dark image of the Sihedron surrounded by arcane runes seems to move, like water trapped beneath two panes of glass. When gained, the brand melds with the largest existing tattoo on your body (or the one with the highest caster level if you have other magical tattoos), otherwise it moves every 1d4 days to a randomly determined location elsewhere on your body.  A character marked with the lesser version of this arcane tattoo receives a +2 profane bonus on attack and damage rolls against creatures brought to the Material Plane via a conjuration (summoning) effect, and gains a +2 profane bonus to AC against attacks from such creatures. Lesser versions of this mark exist, which grant +1 profane bonuses on attack and damage rolls and to AC against summoned creatures instead.<br><p><b>Base Item:</b> </p><h3><b>Requirements</b></h3><p>Inscribe Magic TattooISM, summon monster I</p><h3><b>Source: </b></h3>PFS S4-20",
      "unidentified": ""
    },
    "tags": [],
    "quantity": 1,
    "weight": {
      "value": 0
    },
    "price": 17500,
    "size": "med",
    "equipped": true,
    "resizing": false,
    "identified": true,
    "hp": {
      "max": 10,
      "value": 10
    },
    "broken": false,
    "hardness": 0,
    "carried": true,
    "unidentified": {
      "price": 0,
      "name": ""
    },
    "cl": 6,
    "aura": {
      "custom": true,
      "school": "conjuration [evil]"
    },
    "changes": [],
    "changeFlags": {
      "loseDexToAC": false,
      "noEncumbrance": false,
      "mediumArmorFullSpeed": false,
      "heavyArmorFullSpeed": false
    },
    "contextNotes": [],
    "actions": [],
    "uses": {
      "per": null,
      "value": 0,
      "maxFormula": "",
      "autoDeductChargesCost": "1"
    },
    "attackNotes": [],
    "effectNotes": [],
    "links": {
      "children": [],
      "charges": []
    },
    "tag": "sihedronBrandService2",
    "useCustomTag": false,
    "flags": {
      "boolean": {},
      "dictionary": {}
    },
    "scriptCalls": [],
    "masterwork": false,
    "enh": null,
    "proficient": true,
    "held": "normal",
    "subType": "other",
    "baseTypes": [],
    "equipmentSubtype": "lightArmor",
    "armor": {
      "value": 0,
      "dex": null,
      "acp": 0,
      "enh": 0
    },
    "spellFailure": 0,
    "slot": "other",
    "showInQuickbar": false
  },
  "ownership": {
    "default": 0
  },
  "_stats": {
    "systemId": "pf1",
    "systemVersion": "9.1",
    "coreVersion": "10.291",
    "createdTime": 1665428404154,
    "modifiedTime": 1689797986575,
    "lastModifiedBy": "ppv91YxratjWnkJi"
  },
  "effects": [],
  "folder": null,
  "sort": 0,
  "flags": {},
  "_key": "!items!7gXPjrgSI1aNrkca"
}