{
  "_id": "QRUlGMf9CuGcnFHG",
  "name": "Snake Charmer's Flute",
  "type": "equipment",
  "img": "icons/svg/item-bag.svg",
  "system": {
    "description": {
      "value": "<h2></b>Description</b></h2></p><p>Two distinct songs are etched on the entwined pipes of this flute. Playing the first creates a soothing, rhythmic melody that lulls snakes and serpents into compliance. This tune grants a +5 competence bonus on Handle Animal and wild empathy checks to influence snakes as well as snakelike animals and magical beasts. If the musician lacks the wild empathy class feature, she can still use this song to influence snakes and snakelike creatures as if she had wild empathy, applying only her Charisma modifier and the flute's +5 bonus to the roll.  The second song of the snake charmer's flute can be performed only once per day as a full-round action. When used, it summons an advanced giant anaconda (Pathfinder RPG Bestiary 2 292, 252). This serpent obeys the musician's mental commands and remains as long as the user continues to spend a move action each round maintaining the tune, up to a maximum of 3 minutes.<br><p><b>Base Item:</b> </p><h3><b>Requirements</b></h3><p>Craft Wondrous Item, dominate monster, summon nature's ally VIII</p><h3><b>Source: </b></h3>AP 120",
      "unidentified": ""
    },
    "tags": [],
    "quantity": 1,
    "weight": {
      "value": 3
    },
    "price": 26000,
    "size": "med",
    "equipped": true,
    "resizing": false,
    "identified": true,
    "hp": {
      "max": 10,
      "value": 10
    },
    "broken": false,
    "hardness": 0,
    "carried": true,
    "unidentified": {
      "price": 0,
      "name": ""
    },
    "cl": 17,
    "aura": {
      "custom": true,
      "school": "conjuration and enchantment"
    },
    "changes": [],
    "changeFlags": {
      "loseDexToAC": false,
      "noEncumbrance": false,
      "mediumArmorFullSpeed": false,
      "heavyArmorFullSpeed": false
    },
    "contextNotes": [],
    "actions": [],
    "uses": {
      "per": null,
      "value": 0,
      "maxFormula": "",
      "autoDeductChargesCost": "1"
    },
    "attackNotes": [],
    "effectNotes": [],
    "links": {
      "children": [],
      "charges": []
    },
    "tag": "snakeCharmersFlute",
    "useCustomTag": false,
    "flags": {
      "boolean": {},
      "dictionary": {}
    },
    "scriptCalls": [],
    "masterwork": false,
    "enh": null,
    "proficient": true,
    "held": "normal",
    "subType": "wondrous",
    "baseTypes": [],
    "equipmentSubtype": "lightArmor",
    "armor": {
      "value": 0,
      "dex": null,
      "acp": 0,
      "enh": 0
    },
    "spellFailure": 0,
    "slot": "slotless",
    "showInQuickbar": false
  },
  "ownership": {
    "default": 0
  },
  "_stats": {
    "systemId": "pf1",
    "systemVersion": "9.1",
    "coreVersion": "10.291",
    "createdTime": 1665428406247,
    "modifiedTime": 1689797998762,
    "lastModifiedBy": "ppv91YxratjWnkJi"
  },
  "effects": [],
  "folder": null,
  "sort": 0,
  "flags": {},
  "_key": "!items!QRUlGMf9CuGcnFHG"
}