{
  "_id": "2LTAvosqwriHMSzg",
  "name": "Sniper's Helmet",
  "type": "equipment",
  "img": "icons/svg/item-bag.svg",
  "system": {
    "description": {
      "value": "<h2></b>Description</b></h2></p><p>A sniper's helmet looks like the simple steel soldier's helmet common to the European trenches of the First World War, with the addition of a steel eye shield. Once per day, the wearer of a sniper's helmet can, as a standard action, denote one creature within her line of sight as her target. The wearer can perceive the target when it is invisible or ethereal as though using the see invisibility spell, and gains a +20 competence bonus on Perception checks to locate the target. The wearer ignores concealment provided by fog or mist, blur, displacement, invisibility, and similar effects affecting the target, but not concealment provided by darkness. These bonuses last for 5 minutes or until the target creature is dead. The sniper's helmet provides no benefits to the wearer's allies, and the wearer gains no benefits against creatures other than her chosen target.   In addition, once per day, the wearer of a sniper's helmet can create a magical sensor up to 600 feet above her that gives her a full 360-degree viewpoint as if she were actually there. The wearer perceives with her normal visual senses, and though the sensor cannot penetrate solid surfaces, it is unaffected by foliage and the like.<br><p><b>Base Item:</b> </p><h3><b>Requirements</b></h3><p>Craft Wondrous Item, eagle eyeAPG, hunter's eyeAPG</p><h3><b>Source: </b></h3>AP 71",
      "unidentified": ""
    },
    "tags": [],
    "quantity": 1,
    "weight": {
      "value": 3
    },
    "price": 9000,
    "size": "med",
    "equipped": true,
    "resizing": false,
    "identified": true,
    "hp": {
      "max": 10,
      "value": 10
    },
    "broken": false,
    "hardness": 0,
    "carried": true,
    "unidentified": {
      "price": 0,
      "name": ""
    },
    "cl": 5,
    "aura": {
      "custom": true,
      "school": "divination"
    },
    "changes": [],
    "changeFlags": {
      "loseDexToAC": false,
      "noEncumbrance": false,
      "mediumArmorFullSpeed": false,
      "heavyArmorFullSpeed": false
    },
    "contextNotes": [],
    "actions": [],
    "uses": {
      "per": null,
      "value": 0,
      "maxFormula": "",
      "autoDeductChargesCost": "1"
    },
    "attackNotes": [],
    "effectNotes": [],
    "links": {
      "children": [],
      "charges": []
    },
    "tag": "snipersHelmet",
    "useCustomTag": false,
    "flags": {
      "boolean": {},
      "dictionary": {}
    },
    "scriptCalls": [],
    "masterwork": false,
    "enh": null,
    "proficient": true,
    "held": "normal",
    "subType": "wondrous",
    "baseTypes": [],
    "equipmentSubtype": "lightArmor",
    "armor": {
      "value": 0,
      "dex": null,
      "acp": 0,
      "enh": 0
    },
    "spellFailure": 0,
    "slot": "head",
    "showInQuickbar": false
  },
  "ownership": {
    "default": 0
  },
  "_stats": {
    "systemId": "pf1",
    "systemVersion": "9.1",
    "coreVersion": "10.291",
    "createdTime": 1665428403501,
    "modifiedTime": 1689797981931,
    "lastModifiedBy": "ppv91YxratjWnkJi"
  },
  "effects": [],
  "folder": null,
  "sort": 0,
  "flags": {},
  "_key": "!items!2LTAvosqwriHMSzg"
}