{
  "_id": "zCzKRihTQ6gsGuNW",
  "name": "Solidsmoke Pipeweed",
  "type": "equipment",
  "img": "icons/svg/item-bag.svg",
  "system": {
    "description": {
      "value": "<h2></b>Description</b></h2></p><p>When smoked in any pipe, this pinch of magical tobacco produces a languid, milky-white smoke that the smoker can transform into useful objects. A halfling who puffs on the pipe as a full-round action can shape the smoke into an object weighing no more than 5 pounds and having a maximum volume of 1 cubic foot. The halfling can, on following rounds, spend additional full-round actions to increase the object's weight by 2 additional pounds and its volume by another cubic foot. The halfling must succeed at an appropriate Craft check to make a complex item. If the halfling stops puffing on her pipe for any reason before she finishes creating the object, the figure in the smoke collapses and her pipe is extinguished. Objects created by solidsmoke pipeweed last for 24 hours before fading away into vapor. Objects created by the pipeweed have the same hardness, hit points, and other qualities as manufactured objects of their type, but look smoky and indistinct. Each pinch of solidsmoke pipeweed is sufficient for 3 full rounds of smoking. A single larger item must be created with a single pinch of solidsmoke pipeweed, so any item created with this pipeweed can't be larger than 9 pounds and 3 cubic feet.  A halfling cannot create an object designed to exactly duplicate or replace another specific object. For instance, while she could create a smoky lock with its own key, she could not puff smoke into an existing keyhole and then create a key that would open that particular lock.  This smoke is caustic and chokes non-halflings. It grants non-halflings no benefits, and each time they spend a standard action to smoke the pipeweed, they are sickened for 1 round.<br><p><b>Base Item:</b> </p><h3><b>Requirements</b></h3><p>Craft Wondrous Item, minor creation, creator must be a halfling</p><h3><b>Source: </b></h3>Advanced Race Guide",
      "unidentified": ""
    },
    "tags": [],
    "quantity": 1,
    "weight": {
      "value": 0
    },
    "price": 1000,
    "size": "med",
    "equipped": true,
    "resizing": false,
    "identified": true,
    "hp": {
      "max": 10,
      "value": 10
    },
    "broken": false,
    "hardness": 0,
    "carried": true,
    "unidentified": {
      "price": 0,
      "name": ""
    },
    "cl": 7,
    "aura": {
      "custom": true,
      "school": "conjuration"
    },
    "changes": [],
    "changeFlags": {
      "loseDexToAC": false,
      "noEncumbrance": false,
      "mediumArmorFullSpeed": false,
      "heavyArmorFullSpeed": false
    },
    "contextNotes": [],
    "actions": [],
    "uses": {
      "per": null,
      "value": 0,
      "maxFormula": "",
      "autoDeductChargesCost": "1"
    },
    "attackNotes": [],
    "effectNotes": [],
    "links": {
      "children": [],
      "charges": []
    },
    "tag": "solidsmokePipeweed",
    "useCustomTag": false,
    "flags": {
      "boolean": {},
      "dictionary": {}
    },
    "scriptCalls": [],
    "masterwork": false,
    "enh": null,
    "proficient": true,
    "held": "normal",
    "subType": "wondrous",
    "baseTypes": [],
    "equipmentSubtype": "lightArmor",
    "armor": {
      "value": 0,
      "dex": null,
      "acp": 0,
      "enh": 0
    },
    "spellFailure": 0,
    "slot": "slotless",
    "showInQuickbar": false
  },
  "ownership": {
    "default": 0
  },
  "_stats": {
    "systemId": "pf1",
    "systemVersion": "9.1",
    "coreVersion": "10.291",
    "createdTime": 1665428410489,
    "modifiedTime": 1689798021767,
    "lastModifiedBy": "ppv91YxratjWnkJi"
  },
  "effects": [],
  "folder": null,
  "sort": 0,
  "flags": {},
  "_key": "!items!zCzKRihTQ6gsGuNW"
}