{
  "_id": "1BeIoAOgldvJuIcw",
  "name": "Spy Eyes",
  "type": "equipment",
  "img": "icons/svg/item-bag.svg",
  "system": {
    "description": {
      "value": "<h2></b>Description</b></h2></p><p>At first glance, spy eyes appear to be cat's-eye marbles. When activated, each comes to life and blinks, transforming into an eyeball. When pressed against an inanimate surface (such as a wall or article of clothing), the eyeball absorbs into it, leaving a magical sensor of the same size on the surface. Anyone holding an eye from a particular cluster of spy eyes can share the view from any other eye in the cluster as if that eye were her own, provided she is within 10 miles of that sensor. To recover a sensor, she can press a spy eye she holds from the same cluster against the one that's in sensor form to make the sensor emerge and return to marble form.  A single bag of spy eyes contains five marbles (meaning that up to four may be deployed at any given time). Spy eyes in sensor form can be detected via the normal means for detecting scrying.<br><p><b>Base Item:</b> </p><h3><b>Requirements</b></h3><p>Craft Wondrous Item, clairaudience/clairvoyance</p><h3><b>Source: </b></h3>AP 63",
      "unidentified": ""
    },
    "tags": [],
    "quantity": 1,
    "weight": {
      "value": 1
    },
    "price": 15000,
    "size": "med",
    "equipped": true,
    "resizing": false,
    "identified": true,
    "hp": {
      "max": 10,
      "value": 10
    },
    "broken": false,
    "hardness": 0,
    "carried": true,
    "unidentified": {
      "price": 0,
      "name": ""
    },
    "cl": 9,
    "aura": {
      "custom": true,
      "school": "divination"
    },
    "changes": [],
    "changeFlags": {
      "loseDexToAC": false,
      "noEncumbrance": false,
      "mediumArmorFullSpeed": false,
      "heavyArmorFullSpeed": false
    },
    "contextNotes": [],
    "actions": [],
    "uses": {
      "per": null,
      "value": 0,
      "maxFormula": "",
      "autoDeductChargesCost": "1"
    },
    "attackNotes": [],
    "effectNotes": [],
    "links": {
      "children": [],
      "charges": []
    },
    "tag": "spyEyes",
    "useCustomTag": false,
    "flags": {
      "boolean": {},
      "dictionary": {}
    },
    "scriptCalls": [],
    "masterwork": false,
    "enh": null,
    "proficient": true,
    "held": "normal",
    "subType": "wondrous",
    "baseTypes": [],
    "equipmentSubtype": "lightArmor",
    "armor": {
      "value": 0,
      "dex": null,
      "acp": 0,
      "enh": 0
    },
    "spellFailure": 0,
    "slot": "slotless",
    "showInQuickbar": false
  },
  "ownership": {
    "default": 0
  },
  "_stats": {
    "systemId": "pf1",
    "systemVersion": "9.1",
    "coreVersion": "10.291",
    "createdTime": 1665428403437,
    "modifiedTime": 1689797981355,
    "lastModifiedBy": "ppv91YxratjWnkJi"
  },
  "effects": [],
  "folder": null,
  "sort": 0,
  "flags": {},
  "_key": "!items!1BeIoAOgldvJuIcw"
}