{
  "_id": "qVnOT6uL9JlTJAEM",
  "name": "Stormcrusher Gauntlets",
  "type": "equipment",
  "img": "icons/svg/item-bag.svg",
  "system": {
    "description": {
      "value": "<h2></b>Description</b></h2></p><p>These speckled metal gauntlets provide a noticeable prickling sensation when donned. Three times per day when the wearer would take electricity damage, she can attempt a Strength check as an immediate action to catch the electricity and crush it into harmless sparks that deal no damage (DC = 10 + 1 per 10 points of damage).  If the wearer possesses mythic tiers (see Pathfinder RPG Mythic Adventures), she can also expend one use of her mythic power to reshape the crushed lightning into a variety of forms: blasts of electric force, blinding showers of sparks, or even lassos. This allows the wearer to perform a bull rush, dirty trick, grapple, reposition, or trip combat maneuver on her next turn against any opponent within range (10 feet per mythic tier she possesses). If the wearer succeeds at this combat maneuver check, her opponent also takes an amount of electricity damage equal to the wearer's combat maneuver check result (up to a maximum of the original electricity effect's damage). Creatures immune to electricity damage are immune to this ability. If the wearer expends the mythic power but doesn't attempt to use the crushed lightning by her next turn, the energy surges out, dealing the original effect's electricity damage to the wearer with no save granted.<br><p><b>Base Item:</b> </p><h3><b>Requirements</b></h3><p>Craft Wondrous Item, Mythic Crafter, lightning bolt, shock shieldUC</p><h3><b>Source: </b></h3>Daughters Of Fury",
      "unidentified": ""
    },
    "tags": [],
    "quantity": 1,
    "weight": {
      "value": 5
    },
    "price": 45000,
    "size": "med",
    "equipped": true,
    "resizing": false,
    "identified": true,
    "hp": {
      "max": 10,
      "value": 10
    },
    "broken": false,
    "hardness": 0,
    "carried": true,
    "unidentified": {
      "price": 0,
      "name": ""
    },
    "cl": 10,
    "aura": {
      "custom": true,
      "school": "abjuration and evocation"
    },
    "changes": [],
    "changeFlags": {
      "loseDexToAC": false,
      "noEncumbrance": false,
      "mediumArmorFullSpeed": false,
      "heavyArmorFullSpeed": false
    },
    "contextNotes": [],
    "actions": [],
    "uses": {
      "per": null,
      "value": 0,
      "maxFormula": "",
      "autoDeductChargesCost": "1"
    },
    "attackNotes": [],
    "effectNotes": [],
    "links": {
      "children": [],
      "charges": []
    },
    "tag": "stormcrusherGauntlets",
    "useCustomTag": false,
    "flags": {
      "boolean": {},
      "dictionary": {}
    },
    "scriptCalls": [],
    "masterwork": false,
    "enh": null,
    "proficient": true,
    "held": "normal",
    "subType": "wondrous",
    "baseTypes": [],
    "equipmentSubtype": "lightArmor",
    "armor": {
      "value": 0,
      "dex": null,
      "acp": 0,
      "enh": 0
    },
    "spellFailure": 0,
    "slot": "hands",
    "showInQuickbar": false
  },
  "ownership": {
    "default": 0
  },
  "_stats": {
    "systemId": "pf1",
    "systemVersion": "9.1",
    "coreVersion": "10.291",
    "createdTime": 1665428409626,
    "modifiedTime": 1689798016833,
    "lastModifiedBy": "ppv91YxratjWnkJi"
  },
  "effects": [],
  "folder": null,
  "sort": 0,
  "flags": {},
  "_key": "!items!qVnOT6uL9JlTJAEM"
}