{
  "_id": "i1wgx1DPBE7swz3Q",
  "name": "Suzerain Scepter",
  "type": "equipment",
  "img": "systems/pf1/icons/items/weapons/sword-cane.png",
  "system": {
    "description": {
      "value": "<h2></b>Description</b></h2></p><p>This ornately bejeweled baton confers the mark of rightful rulership on its bearer. The wielder of this scepter gains a +5 competence bonus on Knowledge (nobility) and Diplomacy checks. Furthermore, once per day, and on command, the wielder can affect up to seven living creatures with good hope, as the spell. If the wielder of a suzerain scepter has the Leadership feat, she may attract double the normal number of followers for her Leadership score; however, if the rod is out of the wielder's possession for more than 1 week these extra followers leave. In addition, a suzerain scepter radiates a continuous bless effect that affects any cohort, follower, animal companion, familiar, special mount, or creature charmed or summoned by the wielder (but not called creatures or those under dominate or other compulsion effects). Whenever the wielder creates an effect that provides a morale bonus to such creatures (not including the scepter's bless effect), that bonus increases by 1.<br><p><b>Base Item:</b> </p><h3><b>Requirements</b></h3><p>Craft Rod, Leadership, bless, good hope, greater command, the creator must have the Leadership feat</p><h3><b>Source: </b></h3>Ultimate Equipment",
      "unidentified": ""
    },
    "tags": [],
    "quantity": 1,
    "weight": {
      "value": 5
    },
    "price": 20000,
    "size": "med",
    "equipped": true,
    "resizing": false,
    "identified": true,
    "hp": {
      "max": 10,
      "value": 10
    },
    "broken": false,
    "hardness": 0,
    "carried": true,
    "unidentified": {
      "price": 0,
      "name": ""
    },
    "cl": 7,
    "aura": {
      "custom": true,
      "school": "enchantment"
    },
    "changes": [],
    "changeFlags": {
      "loseDexToAC": false,
      "noEncumbrance": false,
      "mediumArmorFullSpeed": false,
      "heavyArmorFullSpeed": false
    },
    "contextNotes": [],
    "actions": [],
    "uses": {
      "per": null,
      "value": 0,
      "maxFormula": "",
      "autoDeductChargesCost": "1"
    },
    "attackNotes": [],
    "effectNotes": [],
    "links": {
      "children": [],
      "charges": []
    },
    "tag": "suzerainScepter",
    "useCustomTag": false,
    "flags": {
      "boolean": {},
      "dictionary": {}
    },
    "scriptCalls": [],
    "masterwork": false,
    "enh": null,
    "proficient": true,
    "held": "normal",
    "subType": "other",
    "baseTypes": [],
    "equipmentSubtype": "lightArmor",
    "armor": {
      "value": 0,
      "dex": null,
      "acp": 0,
      "enh": 0
    },
    "spellFailure": 0,
    "slot": "other",
    "showInQuickbar": false
  },
  "ownership": {
    "default": 0
  },
  "_stats": {
    "systemId": "pf1",
    "systemVersion": "9.1",
    "coreVersion": "10.291",
    "createdTime": 1665428408448,
    "modifiedTime": 1689798010197,
    "lastModifiedBy": "ppv91YxratjWnkJi"
  },
  "effects": [],
  "folder": null,
  "sort": 0,
  "flags": {},
  "_key": "!items!i1wgx1DPBE7swz3Q"
}