{
  "_id": "7ongDSfLFJIQima0",
  "name": "Svingli's Eye",
  "type": "equipment",
  "img": "icons/svg/item-bag.svg",
  "system": {
    "description": {
      "value": "<h2></b>Description</b></h2></p><p>Unlike the heavy cast-brass mariner's astrolabes normally used at sea, this astrolabe is of the more common type found on land (Pathfinder RPG Advanced Player's Guide 185), made of flat discs of brass. The famed navigator-astrologer Svingli of Morm, a drowned settlement of old Lirgen, was said to have sacrificed her eye to the instrument to grant her knowledge of things beyond mortal sight, thus giving the astrolabe its name.  In addition to an astrolabe's normal +2 circumstance bonus,  grants a further +2 competence bonus on Knowledge (geography), Profession (sailor), and Survival checks when used to navigate on land or sea. Once per day, the user can make a DC 20 Perception check while using  as a move action to catch a glimpse of how things really are for 1 round, as if with a true seeing spell. While using the astrolabe's true seeing ability, the user can also see through concealment caused by smoke or fog and gains a +10 competence bonus on Perception checks to spot hidden or disguised creatures or objects.<br><p><b>Base Item:</b> </p><h3><b>Requirements</b></h3><p>Craft Wondrous Item, know direction, true seeing</p><h3><b>Source: </b></h3>AP 56",
      "unidentified": ""
    },
    "tags": [],
    "quantity": 1,
    "weight": {
      "value": 6
    },
    "price": 28800,
    "size": "med",
    "equipped": true,
    "resizing": false,
    "identified": true,
    "hp": {
      "max": 10,
      "value": 10
    },
    "broken": false,
    "hardness": 0,
    "carried": true,
    "unidentified": {
      "price": 0,
      "name": ""
    },
    "cl": 10,
    "aura": {
      "custom": true,
      "school": "divination"
    },
    "changes": [],
    "changeFlags": {
      "loseDexToAC": false,
      "noEncumbrance": false,
      "mediumArmorFullSpeed": false,
      "heavyArmorFullSpeed": false
    },
    "contextNotes": [],
    "actions": [],
    "uses": {
      "per": null,
      "value": 0,
      "maxFormula": "",
      "autoDeductChargesCost": "1"
    },
    "attackNotes": [],
    "effectNotes": [],
    "links": {
      "children": [],
      "charges": []
    },
    "tag": "svinglisEye",
    "useCustomTag": false,
    "flags": {
      "boolean": {},
      "dictionary": {}
    },
    "scriptCalls": [],
    "masterwork": false,
    "enh": null,
    "proficient": true,
    "held": "normal",
    "subType": "wondrous",
    "baseTypes": [],
    "equipmentSubtype": "lightArmor",
    "armor": {
      "value": 0,
      "dex": null,
      "acp": 0,
      "enh": 0
    },
    "spellFailure": 0,
    "slot": "slotless",
    "showInQuickbar": false
  },
  "ownership": {
    "default": 0
  },
  "_stats": {
    "systemId": "pf1",
    "systemVersion": "9.1",
    "coreVersion": "10.291",
    "createdTime": 1665428404162,
    "modifiedTime": 1689797986778,
    "lastModifiedBy": "ppv91YxratjWnkJi"
  },
  "effects": [],
  "folder": null,
  "sort": 0,
  "flags": {},
  "_key": "!items!7ongDSfLFJIQima0"
}