{
  "_id": "XAcwpwdcyJQiP3W2",
  "name": "Talisman of the Orc Mother's Fury",
  "type": "equipment",
  "img": "icons/svg/item-bag.svg",
  "system": {
    "description": {
      "value": "<h2></b>Description</b></h2></p><p>This small statuette-carved from the tusk of a dire boar, chunks of twisted metal, or some manner of dark stone-is a simplistic depiction of a pregnant deity, fiend, or orc. Dark stains mark the face of the crude icon, typically smears of a fallen orc's blood. A simple strand of leather affixes the amulet around the neck. The figurine allows the wearer to act normally for a single round after being reduced to less than 0 hit points, as though he had the orc ferocity half-orc racial ability. A wearer with orc blood is instead treated as though he had the Diehard feat. If the wearer is of orc blood and already has the Diehard feat, he may act normally for an additional round after being reduced to below 0 hit points. Whenever the wearer of the talisman is reduced to less than 0 hit points, the amulet weeps tears of blood. Should the wearer be slain, the talisman screams and shatters.<br><p><b>Base Item:</b> </p><h3><b>Requirements</b></h3><p>creator must be female and possess orc blood, Craft Wondrous Item, cure moderate wounds</p><h3><b>Source: </b></h3>AP 27",
      "unidentified": ""
    },
    "tags": [],
    "quantity": 1,
    "weight": {
      "value": 0
    },
    "price": 12000,
    "size": "med",
    "equipped": true,
    "resizing": false,
    "identified": true,
    "hp": {
      "max": 10,
      "value": 10
    },
    "broken": false,
    "hardness": 0,
    "carried": true,
    "unidentified": {
      "price": 0,
      "name": ""
    },
    "cl": 4,
    "aura": {
      "custom": true,
      "school": "conjuration"
    },
    "changes": [],
    "changeFlags": {
      "loseDexToAC": false,
      "noEncumbrance": false,
      "mediumArmorFullSpeed": false,
      "heavyArmorFullSpeed": false
    },
    "contextNotes": [],
    "actions": [],
    "uses": {
      "per": null,
      "value": 0,
      "maxFormula": "",
      "autoDeductChargesCost": "1"
    },
    "attackNotes": [],
    "effectNotes": [],
    "links": {
      "children": [],
      "charges": []
    },
    "tag": "talismanOfTheOrcMothersFury",
    "useCustomTag": false,
    "flags": {
      "boolean": {},
      "dictionary": {}
    },
    "scriptCalls": [],
    "masterwork": false,
    "enh": null,
    "proficient": true,
    "held": "normal",
    "subType": "wondrous",
    "baseTypes": [],
    "equipmentSubtype": "lightArmor",
    "armor": {
      "value": 0,
      "dex": null,
      "acp": 0,
      "enh": 0
    },
    "spellFailure": 0,
    "slot": "neck",
    "showInQuickbar": false
  },
  "ownership": {
    "default": 0
  },
  "_stats": {
    "systemId": "pf1",
    "systemVersion": "9.1",
    "coreVersion": "10.291",
    "createdTime": 1665428407219,
    "modifiedTime": 1689798002765,
    "lastModifiedBy": "ppv91YxratjWnkJi"
  },
  "effects": [],
  "folder": null,
  "sort": 0,
  "flags": {},
  "_key": "!items!XAcwpwdcyJQiP3W2"
}