{
  "_id": "NzC5AEsYRg7Aamyp",
  "name": "Talisman, Lesser Hamsa",
  "type": "equipment",
  "img": "icons/svg/item-bag.svg",
  "system": {
    "description": {
      "value": "<h2></b>Description</b></h2></p><p>Each of these amulets is imbued with magic that allows it to protect its wearer against a very specific danger. A talisman triggers automatically as soon as the listed condition is fulfilled. Although talismans occupy the neck slot, up to three talismans can be worn on one cord or chain. Wearing multiple talismans in this way offers a greater variety of protection, but a wearer can benefit from only one talisman's effect at a time. If another talisman would be triggered while its wearer is under the effect of another talisman, that talisman is not triggered and can still be used later.  A lesser talisman carries only enough magical energy to protect its wearer once, after which it crumbles to dust.  Hamsa Talisman: A stern eye adorns the palm of this hand-shaped clay talisman. When the wearer fails a saving throw against a witch's hex, a spell or spell-like ability with the curseUM descriptor, or a hag's supernatural ability, he can attempt a second saving throw. If he succeeds at the second saving throw, the creature that targeted him must succeed at a saving throw using the same DC or suffer the effect. The talisman has no effect on spells and effects that don't allow a saving throw. Strong abjuration; CL 13th; remove curse, spell turning.<br><p><b>Base Item:</b> </p><h3><b>Requirements</b></h3><p>Craft Wondrous Item,  remove curse, spell turning</p><h3><b>Source: </b></h3>Horror Adventures",
      "unidentified": ""
    },
    "tags": [],
    "quantity": 1,
    "weight": {
      "value": 1
    },
    "price": 3000,
    "size": "med",
    "equipped": true,
    "resizing": false,
    "identified": true,
    "hp": {
      "max": 10,
      "value": 10
    },
    "broken": false,
    "hardness": 0,
    "carried": true,
    "unidentified": {
      "price": 0,
      "name": ""
    },
    "cl": 13,
    "aura": {
      "custom": true,
      "school": "abjuration"
    },
    "changes": [],
    "changeFlags": {
      "loseDexToAC": false,
      "noEncumbrance": false,
      "mediumArmorFullSpeed": false,
      "heavyArmorFullSpeed": false
    },
    "contextNotes": [],
    "actions": [],
    "uses": {
      "per": null,
      "value": 0,
      "maxFormula": "",
      "autoDeductChargesCost": "1"
    },
    "attackNotes": [],
    "effectNotes": [],
    "links": {
      "children": [],
      "charges": []
    },
    "tag": "talismanLesserHamsa",
    "useCustomTag": false,
    "flags": {
      "boolean": {},
      "dictionary": {}
    },
    "scriptCalls": [],
    "masterwork": false,
    "enh": null,
    "proficient": true,
    "held": "normal",
    "subType": "wondrous",
    "baseTypes": [],
    "equipmentSubtype": "lightArmor",
    "armor": {
      "value": 0,
      "dex": null,
      "acp": 0,
      "enh": 0
    },
    "spellFailure": 0,
    "slot": "neck",
    "showInQuickbar": false
  },
  "ownership": {
    "default": 0
  },
  "_stats": {
    "systemId": "pf1",
    "systemVersion": "9.1",
    "coreVersion": "10.291",
    "createdTime": 1665428406114,
    "modifiedTime": 1689797996322,
    "lastModifiedBy": "ppv91YxratjWnkJi"
  },
  "effects": [],
  "folder": null,
  "sort": 0,
  "flags": {},
  "_key": "!items!NzC5AEsYRg7Aamyp"
}