{
  "_id": "3UvLb67163LEeL52",
  "name": "Talons Of Leng",
  "type": "equipment",
  "img": "icons/svg/item-bag.svg",
  "system": {
    "description": {
      "value": "<h2></b>Description</b></h2></p><p>Finely laid gold filigree lines these ornately worked talons. Once donned, the talons of Leng grant the wearer a natural claw attack with each hand that deal 1d4 points of damage for a Medium wearer, or 1d3 points of damage for a Small wearer. These claw attacks have a +3 enhancement bonus on attack and damage rolls. On a critical hit, the target must succeed at a DC 20 Will save or become permanently confused as per the insanity spell. This is a mind-affecting effect. The wearer of the talons of Leng is immune to effects that grant the confused condition. For as long as she wears the talons, however, her Wisdom is reduced by 2, as alien voices constantly whisper through her head. The talons of Leng do not interfere with spellcasting, the use of handheld items, or wielding weapons.<br><p><b>Base Item:</b> </p><h3><b>Requirements</b></h3><p>Craft Magic Arms and Armor, Craft Wondrous Item, greater magic fang, insanity</p><h3><b>Source: </b></h3>Ultimate Equipment",
      "unidentified": ""
    },
    "tags": [],
    "quantity": 1,
    "weight": {
      "value": 1
    },
    "price": 67000,
    "size": "med",
    "equipped": true,
    "resizing": false,
    "identified": true,
    "hp": {
      "max": 10,
      "value": 10
    },
    "broken": false,
    "hardness": 0,
    "carried": true,
    "unidentified": {
      "price": 0,
      "name": ""
    },
    "cl": 15,
    "aura": {
      "custom": true,
      "school": "transmutation"
    },
    "changes": [],
    "changeFlags": {
      "loseDexToAC": false,
      "noEncumbrance": false,
      "mediumArmorFullSpeed": false,
      "heavyArmorFullSpeed": false
    },
    "contextNotes": [],
    "actions": [],
    "uses": {
      "per": null,
      "value": 0,
      "maxFormula": "",
      "autoDeductChargesCost": "1"
    },
    "attackNotes": [],
    "effectNotes": [],
    "links": {
      "children": [],
      "charges": []
    },
    "tag": "talonsOfLeng",
    "useCustomTag": false,
    "flags": {
      "boolean": {},
      "dictionary": {}
    },
    "scriptCalls": [],
    "masterwork": false,
    "enh": null,
    "proficient": true,
    "held": "normal",
    "subType": "wondrous",
    "baseTypes": [],
    "equipmentSubtype": "lightArmor",
    "armor": {
      "value": 0,
      "dex": null,
      "acp": 0,
      "enh": 0
    },
    "spellFailure": 0,
    "slot": "hands",
    "showInQuickbar": false
  },
  "ownership": {
    "default": 0
  },
  "_stats": {
    "systemId": "pf1",
    "systemVersion": "9.1",
    "coreVersion": "10.291",
    "createdTime": 1665428403590,
    "modifiedTime": 1689797982686,
    "lastModifiedBy": "ppv91YxratjWnkJi"
  },
  "effects": [],
  "folder": null,
  "sort": 0,
  "flags": {},
  "_key": "!items!3UvLb67163LEeL52"
}