{
  "_id": "NBQ5Ud5F7HfjwrMe",
  "name": "Terra-Cotta Talisman, Hound",
  "type": "equipment",
  "img": "icons/svg/item-bag.svg",
  "system": {
    "description": {
      "value": "<h2></b>Description</b></h2></p><p>These ceramic statuettes are molded in the likenesses of armored soldiers, horses, or dogs, and are considered symbols of good fortune in battle. Once per day, the possessor of a terra-cotta talisman can reroll a single attack roll as an immediate action, with a +1 luck bonus on the reroll, and keep the most favorable result. A terra-cotta talisman also contains the vestige of a spirit of an ancient warrior or warbeast that can be called upon once per day as a standard action to manifest itself as a spiritual force. The powers of the talismans are as follows:  • Terra-Cotta Horse: phantom steed  • Terra-Cotta Hound: mage's faithful hound  • Terra-Cotta Warrior: spiritual ally<br><p><b>Base Item:</b> </p><h3><b>Requirements</b></h3><p>Craft Wondrous Item, borrow fortune (see page 206 of the Pathfinder RPG Advanced Player's Guide),  mage's faithful hand</p><h3><b>Source: </b></h3>AP 51",
      "unidentified": ""
    },
    "tags": [],
    "quantity": 1,
    "weight": {
      "value": 1
    },
    "price": 22000,
    "size": "med",
    "equipped": true,
    "resizing": false,
    "identified": true,
    "hp": {
      "max": 10,
      "value": 10
    },
    "broken": false,
    "hardness": 0,
    "carried": true,
    "unidentified": {
      "price": 0,
      "name": ""
    },
    "cl": 9,
    "aura": {
      "custom": true,
      "school": "evocation"
    },
    "changes": [],
    "changeFlags": {
      "loseDexToAC": false,
      "noEncumbrance": false,
      "mediumArmorFullSpeed": false,
      "heavyArmorFullSpeed": false
    },
    "contextNotes": [],
    "actions": [],
    "uses": {
      "per": null,
      "value": 0,
      "maxFormula": "",
      "autoDeductChargesCost": "1"
    },
    "attackNotes": [],
    "effectNotes": [],
    "links": {
      "children": [],
      "charges": []
    },
    "tag": "terracottaTalismanHound",
    "useCustomTag": false,
    "flags": {
      "boolean": {},
      "dictionary": {}
    },
    "scriptCalls": [],
    "masterwork": false,
    "enh": null,
    "proficient": true,
    "held": "normal",
    "subType": "wondrous",
    "baseTypes": [],
    "equipmentSubtype": "lightArmor",
    "armor": {
      "value": 0,
      "dex": null,
      "acp": 0,
      "enh": 0
    },
    "spellFailure": 0,
    "slot": "slotless",
    "showInQuickbar": false
  },
  "ownership": {
    "default": 0
  },
  "_stats": {
    "systemId": "pf1",
    "systemVersion": "9.1",
    "coreVersion": "10.291",
    "createdTime": 1665428406064,
    "modifiedTime": 1689797995940,
    "lastModifiedBy": "ppv91YxratjWnkJi"
  },
  "effects": [],
  "folder": null,
  "sort": 0,
  "flags": {},
  "_key": "!items!NBQ5Ud5F7HfjwrMe"
}