{
  "_id": "xSIwlvRQj6vzLFMg",
  "name": "The Dragon Hook Of Eathe",
  "type": "equipment",
  "img": "icons/svg/item-bag.svg",
  "system": {
    "description": {
      "value": "<h2></b>Description</b></h2></p><p>This magical +1 grappling hook has a 50 ft. golden rope attached. It can be used as a weapon (10 ft. reach), dealing 1d6+1 damage if swung on a rope as an attack. It can also be used to trip an opponent if thrown. Should an opponent be tripped, the hooks close tight around the creature hit (like a claw). The hook itself is shaped like a dragon's head with spines forming the hooks. If used for climbing, it aids climbing by pulling the climber up its 50 ft. of rope (+15 to all Climb checks). If used for descent, two quick pulls (perhaps an accident the first time), causes the dragon hook to release its grip and fall, allowing its owner to retrieve it.<br><p><b>Base Item:</b> +1 grappling hook</p><h3><b>Requirements</b></h3><p>Craft Wondrous Item, animate objects, animate rope</p><h3><b>Source: </b></h3>Rappan Athuk",
      "unidentified": ""
    },
    "tags": [],
    "quantity": 1,
    "weight": {
      "value": 5
    },
    "price": 7000,
    "size": "med",
    "equipped": true,
    "resizing": false,
    "identified": true,
    "hp": {
      "max": 10,
      "value": 10
    },
    "broken": false,
    "hardness": 0,
    "carried": true,
    "unidentified": {
      "price": 0,
      "name": ""
    },
    "cl": 6,
    "aura": {
      "custom": true,
      "school": "transmutation"
    },
    "changes": [],
    "changeFlags": {
      "loseDexToAC": false,
      "noEncumbrance": false,
      "mediumArmorFullSpeed": false,
      "heavyArmorFullSpeed": false
    },
    "contextNotes": [],
    "actions": [],
    "uses": {
      "per": null,
      "value": 0,
      "maxFormula": "",
      "autoDeductChargesCost": "1"
    },
    "attackNotes": [],
    "effectNotes": [],
    "links": {
      "children": [],
      "charges": []
    },
    "tag": "theDragonHookOfEathe",
    "useCustomTag": false,
    "flags": {
      "boolean": {},
      "dictionary": {}
    },
    "scriptCalls": [],
    "masterwork": false,
    "enh": null,
    "proficient": true,
    "held": "normal",
    "subType": "wondrous",
    "baseTypes": [],
    "equipmentSubtype": "lightArmor",
    "armor": {
      "value": 0,
      "dex": null,
      "acp": 0,
      "enh": 0
    },
    "spellFailure": 0,
    "slot": "slotless",
    "showInQuickbar": false
  },
  "ownership": {
    "default": 0
  },
  "_stats": {
    "systemId": "pf1",
    "systemVersion": "9.1",
    "coreVersion": "10.291",
    "createdTime": 1665428410391,
    "modifiedTime": 1689798021111,
    "lastModifiedBy": "ppv91YxratjWnkJi"
  },
  "effects": [],
  "folder": null,
  "sort": 0,
  "flags": {},
  "_key": "!items!xSIwlvRQj6vzLFMg"
}