{
  "_id": "Kjps8bwyzlC8XJaE",
  "name": "Threshold Guardian",
  "type": "equipment",
  "img": "icons/svg/item-bag.svg",
  "system": {
    "description": {
      "value": "<h2></b>Description</b></h2></p><p>This wreath weaves garlic, wolfsbane, silver, and mandrake together to create a fetish capable of blocking nearly any type of creature.  Once placed over a doorway or other entrance, a threshold guardian prevents access by a specified type of creature. The user placing the wreath must spend 10 minutes concentrating on one creature type (or subtype in the case of humanoids and outsiders) from the list o f ranger favored enemies. Afterward, any creature of the chosen type or subtype trying to pass through the doorway (or another opening within 10 feet of the wreath) must attempt a DC 19 Will save. If the creature succeeds, it can move in and out without  hindrance, but if it fails, it can't move through the guarded threshold while the threshold guardian remains.  When a user places the threshold guardian, she can choose whether to block the chosen creature type or subtype in one direction or in both directions. A creature that attempts to cross the threshold several times doesn't receive additional saving throws; the results of the first saving throw stand as long as the threshold guardian is undisturbed, with no other limit on duration. Removing or destroying the threshold guardian (hardness 5, 10 hp) removes the effect. Creatures other than the one that placed a threshold guardian can't touch the threshold guardian, even with another held object, unless they succeed at a DC 19 Will save. Creatures can still attack the wreath with ranged attacks, though if placed cleverly, the wreath could have total cover from such attacks. Destroying the doorway on which it hangs causes the threshold guardian to cease functioning immediately.<br><p><b>Base Item:</b> </p><h3><b>Requirements</b></h3><p>Craft Wondrous Item, antilife shell, forbiddance</p><h3><b>Source: </b></h3>Horror Adventures",
      "unidentified": ""
    },
    "tags": [],
    "quantity": 1,
    "weight": {
      "value": 2
    },
    "price": 66000,
    "size": "med",
    "equipped": true,
    "resizing": false,
    "identified": true,
    "hp": {
      "max": 10,
      "value": 10
    },
    "broken": false,
    "hardness": 0,
    "carried": true,
    "unidentified": {
      "price": 0,
      "name": ""
    },
    "cl": 12,
    "aura": {
      "custom": true,
      "school": "abjuration"
    },
    "changes": [],
    "changeFlags": {
      "loseDexToAC": false,
      "noEncumbrance": false,
      "mediumArmorFullSpeed": false,
      "heavyArmorFullSpeed": false
    },
    "contextNotes": [],
    "actions": [],
    "uses": {
      "per": null,
      "value": 0,
      "maxFormula": "",
      "autoDeductChargesCost": "1"
    },
    "attackNotes": [],
    "effectNotes": [],
    "links": {
      "children": [],
      "charges": []
    },
    "tag": "thresholdGuardian",
    "useCustomTag": false,
    "flags": {
      "boolean": {},
      "dictionary": {}
    },
    "scriptCalls": [],
    "masterwork": false,
    "enh": null,
    "proficient": true,
    "held": "normal",
    "subType": "wondrous",
    "baseTypes": [],
    "equipmentSubtype": "lightArmor",
    "armor": {
      "value": 0,
      "dex": null,
      "acp": 0,
      "enh": 0
    },
    "spellFailure": 0,
    "slot": "slotless",
    "showInQuickbar": false
  },
  "ownership": {
    "default": 0
  },
  "_stats": {
    "systemId": "pf1",
    "systemVersion": "9.1",
    "coreVersion": "10.291",
    "createdTime": 1665428405607,
    "modifiedTime": 1689797994058,
    "lastModifiedBy": "ppv91YxratjWnkJi"
  },
  "effects": [],
  "folder": null,
  "sort": 0,
  "flags": {},
  "_key": "!items!Kjps8bwyzlC8XJaE"
}