{
  "_id": "VOqwteENlUdTjiRJ",
  "name": "Throne Of Fetters",
  "type": "equipment",
  "img": "icons/svg/item-bag.svg",
  "system": {
    "description": {
      "value": "<h2></b>Description</b></h2></p><p>This imposing stone throne is ornamented with heavy chains radiating outward from the central seat. A throne of fetters provides a continuous heroism effect to the ruler or anyone related to the ruler by blood or marriage seated on it. Acknowledging a ruler (or a member of the ruler's family) seated upon the throne grants a +2 circumstance bonus on Constitution checks and a +1 morale bonus on Fortitude saving throws for 24 hours. A creature can choose to expend this blessing before the duration expires as an immediate action by crying, My freedom for yours! Doing so causes spectral fetters to appear around the creature's ankles, reducing its base land speed by 20 feet (to a minimum of 5 feet) and granting a freedom of movement effect to the creature seated upon the throne. Both of these effects last for 1 minute.<br><p><b>Base Item:</b> </p><h3><b>Requirements</b></h3><p>Craft Wondrous Item, bear's endurance, freedom of movement, heroism</p><h3><b>Source: </b></h3>Heroes Of The High Court",
      "unidentified": ""
    },
    "tags": [],
    "quantity": 1,
    "weight": {
      "value": 500
    },
    "price": 16000,
    "size": "med",
    "equipped": true,
    "resizing": false,
    "identified": true,
    "hp": {
      "max": 10,
      "value": 10
    },
    "broken": false,
    "hardness": 0,
    "carried": true,
    "unidentified": {
      "price": 0,
      "name": ""
    },
    "cl": 10,
    "aura": {
      "custom": true,
      "school": "conjuration and enchantment"
    },
    "changes": [],
    "changeFlags": {
      "loseDexToAC": false,
      "noEncumbrance": false,
      "mediumArmorFullSpeed": false,
      "heavyArmorFullSpeed": false
    },
    "contextNotes": [],
    "actions": [],
    "uses": {
      "per": null,
      "value": 0,
      "maxFormula": "",
      "autoDeductChargesCost": "1"
    },
    "attackNotes": [],
    "effectNotes": [],
    "links": {
      "children": [],
      "charges": []
    },
    "tag": "throneOfFetters",
    "useCustomTag": false,
    "flags": {
      "boolean": {},
      "dictionary": {}
    },
    "scriptCalls": [],
    "masterwork": false,
    "enh": null,
    "proficient": true,
    "held": "normal",
    "subType": "wondrous",
    "baseTypes": [],
    "equipmentSubtype": "lightArmor",
    "armor": {
      "value": 0,
      "dex": null,
      "acp": 0,
      "enh": 0
    },
    "spellFailure": 0,
    "slot": "slotless",
    "showInQuickbar": false
  },
  "ownership": {
    "default": 0
  },
  "_stats": {
    "systemId": "pf1",
    "systemVersion": "9.1",
    "coreVersion": "10.291",
    "createdTime": 1665428406842,
    "modifiedTime": 1689798001276,
    "lastModifiedBy": "ppv91YxratjWnkJi"
  },
  "effects": [],
  "folder": null,
  "sort": 0,
  "flags": {},
  "_key": "!items!VOqwteENlUdTjiRJ"
}