{
  "_id": "Oenu5Goz6bRqrJRG",
  "name": "Tome Of Dissolution",
  "type": "equipment",
  "img": "icons/svg/item-bag.svg",
  "system": {
    "description": {
      "value": "<h2></b>Description</b></h2></p><p>This shadowy, waterproof tome is 12 inches tall, 8 inches wide, and 1 inch thick. When viewed in dim, normal, or bright light, the tome's 1,000 ebon pages are blank and any new writing immediately fades from sight, as if erase had been cast upon the page. When viewed in darkness, however, each page becomes outlined with pale, silvery light and anything then written in the tome is recorded in similar, silvery light. Writings within the tome are protected as per nondetection. A tome of  dissolution can be used as a formula book or a spellbook; if so, extracts and spells can only be prepared from the tome when viewed in darkness. Necromancy spells, spells of the shadow subschool, and spells with the darkness or shadowUM descriptor take half as many pages when copied into a tome of dissolution as they would in a normal spellbook or formula book.<br><p><b>Base Item:</b> </p><h3><b>Requirements</b></h3><p>Craft Wondrous Item, erase, nondetection, secret page</p><h3><b>Source: </b></h3>Blood Of Shadows",
      "unidentified": ""
    },
    "tags": [],
    "quantity": 1,
    "weight": {
      "value": 1
    },
    "price": 2000,
    "size": "med",
    "equipped": true,
    "resizing": false,
    "identified": true,
    "hp": {
      "max": 10,
      "value": 10
    },
    "broken": false,
    "hardness": 0,
    "carried": true,
    "unidentified": {
      "price": 0,
      "name": ""
    },
    "cl": 5,
    "aura": {
      "custom": true,
      "school": "illusion"
    },
    "changes": [],
    "changeFlags": {
      "loseDexToAC": false,
      "noEncumbrance": false,
      "mediumArmorFullSpeed": false,
      "heavyArmorFullSpeed": false
    },
    "contextNotes": [],
    "actions": [],
    "uses": {
      "per": null,
      "value": 0,
      "maxFormula": "",
      "autoDeductChargesCost": "1"
    },
    "attackNotes": [],
    "effectNotes": [],
    "links": {
      "children": [],
      "charges": []
    },
    "tag": "tomeOfDissolution",
    "useCustomTag": false,
    "flags": {
      "boolean": {},
      "dictionary": {}
    },
    "scriptCalls": [],
    "masterwork": false,
    "enh": null,
    "proficient": true,
    "held": "normal",
    "subType": "wondrous",
    "baseTypes": [],
    "equipmentSubtype": "lightArmor",
    "armor": {
      "value": 0,
      "dex": null,
      "acp": 0,
      "enh": 0
    },
    "spellFailure": 0,
    "slot": "slotless",
    "showInQuickbar": false
  },
  "ownership": {
    "default": 0
  },
  "_stats": {
    "systemId": "pf1",
    "systemVersion": "9.1",
    "coreVersion": "10.291",
    "createdTime": 1665428406150,
    "modifiedTime": 1689797996568,
    "lastModifiedBy": "ppv91YxratjWnkJi"
  },
  "effects": [],
  "folder": null,
  "sort": 0,
  "flags": {},
  "_key": "!items!Oenu5Goz6bRqrJRG"
}