{
  "_id": "2NPounlhG0vYpuwu",
  "name": "Tome Of Origami Animals",
  "type": "equipment",
  "img": "icons/svg/item-bag.svg",
  "system": {
    "description": {
      "value": "<h2></b>Description</b></h2></p><p>This massive, metal-bound tome is filled with thin pages of beaten copper, each of which is indented with arcane sigils indicating precise folding points for the creation of various origami creatures. Once one or more pages are torn out and folded, the copper sheets magically expand to create a pleated origami approximation of the desired creature. Once created, each origami creature is imbued with a semblance of life, just as if animated with animate objects, and obeys the commands of its creator.  The user can fold pages to craft a fantastic variety of Small, Medium, and Large animated constructs. Crafting a Small creature uses up one page, crafting a Medium creature uses two, and crafting a Large creature uses four. Each construct crafted by the book is built with the default number of Construction Points (CP) and hit points for its size, though all origami animations gain the basic metal Construction Point quality for free. Constructs of other metals or stone cannot be built with the book, though additional CP can be otherwise added to the creation at the expense of one page per point. This follows all rules for creating animated objects, and origami animals can never select the same CP ability more than once.  The book contains instructions for making innumerable variations of fantastic creatures, limited only by the user's ingenuity and imagination. For example, the user may fold a Medium gorilla-like animal with two pages, then tear out an additional three pages to construct it with additional attack, grab, and constrict abilities, for a total of five pages.  Crafting an origami animal requires a full-round action. Each one lasts for 1 hour before crumbling into useless copper shards. Tomes of origami animals have 50 pages when created, though most have 2d20+10 intact pages when found.<br><p><b>Base Item:</b> </p><h3><b>Requirements</b></h3><p>Craft Wondrous Item, animate objects</p><h3><b>Source: </b></h3>Occult Adventures",
      "unidentified": ""
    },
    "tags": [],
    "quantity": 1,
    "weight": {
      "value": 15
    },
    "price": 13500,
    "size": "med",
    "equipped": true,
    "resizing": false,
    "identified": true,
    "hp": {
      "max": 10,
      "value": 10
    },
    "broken": false,
    "hardness": 0,
    "carried": true,
    "unidentified": {
      "price": 0,
      "name": ""
    },
    "cl": 12,
    "aura": {
      "custom": true,
      "school": "transmutation"
    },
    "changes": [],
    "changeFlags": {
      "loseDexToAC": false,
      "noEncumbrance": false,
      "mediumArmorFullSpeed": false,
      "heavyArmorFullSpeed": false
    },
    "contextNotes": [],
    "actions": [],
    "uses": {
      "per": null,
      "value": 0,
      "maxFormula": "",
      "autoDeductChargesCost": "1"
    },
    "attackNotes": [],
    "effectNotes": [],
    "links": {
      "children": [],
      "charges": []
    },
    "tag": "tomeOfOrigamiAnimals",
    "useCustomTag": false,
    "flags": {
      "boolean": {},
      "dictionary": {}
    },
    "scriptCalls": [],
    "masterwork": false,
    "enh": null,
    "proficient": true,
    "held": "normal",
    "subType": "wondrous",
    "baseTypes": [],
    "equipmentSubtype": "lightArmor",
    "armor": {
      "value": 0,
      "dex": null,
      "acp": 0,
      "enh": 0
    },
    "spellFailure": 0,
    "slot": "slotless",
    "showInQuickbar": false
  },
  "ownership": {
    "default": 0
  },
  "_stats": {
    "systemId": "pf1",
    "systemVersion": "9.1",
    "coreVersion": "10.291",
    "createdTime": 1665428403506,
    "modifiedTime": 1689797981971,
    "lastModifiedBy": "ppv91YxratjWnkJi"
  },
  "effects": [],
  "folder": null,
  "sort": 0,
  "flags": {},
  "_key": "!items!2NPounlhG0vYpuwu"
}