{
  "_id": "OEee9mef6Oyj5eiI",
  "name": "Trollblood Elixir",
  "type": "equipment",
  "img": "icons/svg/item-bag.svg",
  "system": {
    "description": {
      "value": "<h2></b>Description</b></h2></p><p>This rancid, bubbling tonic is mud-colored and reeks of sweat, gore, and decay. Upon drinking a dose of trollblood elixir, the imbiber gains fast healing 5. This fast healing is even capable of reattaching a severed limb that is pressed against its stump for 1 round, as long as the limb has been severed for no more than 1 hour and is essentially intact. The effects of trollblood elixir last 1 minute; during this time, the imbiber is nauseated. Each round, the imbiber can choose to prematurely end the elixir's effects by succeeding at a DC 10 Fortitude save as a full-round action. Trollblood elixir does not affect objects or nonliving creatures such as constructs and undead.<br><p><b>Base Item:</b> </p><h3><b>Requirements</b></h3><p>Craft Wondrous Item, regenerate</p><h3><b>Source: </b></h3>Giant Hunters Handbook",
      "unidentified": ""
    },
    "tags": [],
    "quantity": 1,
    "weight": {
      "value": 0
    },
    "price": 4550,
    "size": "med",
    "equipped": true,
    "resizing": false,
    "identified": true,
    "hp": {
      "max": 10,
      "value": 10
    },
    "broken": false,
    "hardness": 0,
    "carried": true,
    "unidentified": {
      "price": 0,
      "name": ""
    },
    "cl": 13,
    "aura": {
      "custom": true,
      "school": "conjuration"
    },
    "changes": [],
    "changeFlags": {
      "loseDexToAC": false,
      "noEncumbrance": false,
      "mediumArmorFullSpeed": false,
      "heavyArmorFullSpeed": false
    },
    "contextNotes": [],
    "actions": [],
    "uses": {
      "per": null,
      "value": 0,
      "maxFormula": "",
      "autoDeductChargesCost": "1"
    },
    "attackNotes": [],
    "effectNotes": [],
    "links": {
      "children": [],
      "charges": []
    },
    "tag": "trollbloodElixir",
    "useCustomTag": false,
    "flags": {
      "boolean": {},
      "dictionary": {}
    },
    "scriptCalls": [],
    "masterwork": false,
    "enh": null,
    "proficient": true,
    "held": "normal",
    "subType": "wondrous",
    "baseTypes": [],
    "equipmentSubtype": "lightArmor",
    "armor": {
      "value": 0,
      "dex": null,
      "acp": 0,
      "enh": 0
    },
    "spellFailure": 0,
    "slot": "slotless",
    "showInQuickbar": false
  },
  "ownership": {
    "default": 0
  },
  "_stats": {
    "systemId": "pf1",
    "systemVersion": "9.1",
    "coreVersion": "10.291",
    "createdTime": 1665428406120,
    "modifiedTime": 1689797996377,
    "lastModifiedBy": "ppv91YxratjWnkJi"
  },
  "effects": [],
  "folder": null,
  "sort": 0,
  "flags": {},
  "_key": "!items!OEee9mef6Oyj5eiI"
}