{
  "_id": "j6NfaUJW5w98enWq",
  "name": "Vial Of Efficacious Medicine",
  "type": "equipment",
  "img": "icons/svg/item-bag.svg",
  "system": {
    "description": {
      "value": "<h2></b>Description</b></h2></p><p>This bulbous bottle is crafted of smoked glass and causes any liquid contained within to take on a significantly darker cast and twinkle with motes of beautiful white light. A vial of efficacious medicine can hold a single dose of an alchemical remedy, such as antitoxin or antiplague. Loading a remedy into the vial is a standard action that provokes attacks of opportunity. When an alchemical remedy is imbibed or applied from the vial, any alchemical bonus it grants on saving throws or checks or to AC or CMD increases by 2. Treat this increase as an enhancement bonus. In addition, the user is healed of 1d8+5 points of damage. A vial of efficacious medicine can be used up to three times per day.<br><p><b>Base Item:</b> </p><h3><b>Requirements</b></h3><p>Craft Wondrous Item, cure light wounds, polypurpose panacea (Pathfinder RPG Ultimate Magic 232)</p><h3><b>Source: </b></h3>Alchemy Manual",
      "unidentified": ""
    },
    "tags": [],
    "quantity": 1,
    "weight": {
      "value": 0
    },
    "price": 700,
    "size": "med",
    "equipped": true,
    "resizing": false,
    "identified": true,
    "hp": {
      "max": 10,
      "value": 10
    },
    "broken": false,
    "hardness": 0,
    "carried": true,
    "unidentified": {
      "price": 0,
      "name": ""
    },
    "cl": 5,
    "aura": {
      "custom": true,
      "school": "conjuration"
    },
    "changes": [],
    "changeFlags": {
      "loseDexToAC": false,
      "noEncumbrance": false,
      "mediumArmorFullSpeed": false,
      "heavyArmorFullSpeed": false
    },
    "contextNotes": [],
    "actions": [],
    "uses": {
      "per": null,
      "value": 0,
      "maxFormula": "",
      "autoDeductChargesCost": "1"
    },
    "attackNotes": [],
    "effectNotes": [],
    "links": {
      "children": [],
      "charges": []
    },
    "tag": "vialOfEfficaciousMedicine",
    "useCustomTag": false,
    "flags": {
      "boolean": {},
      "dictionary": {}
    },
    "scriptCalls": [],
    "masterwork": false,
    "enh": null,
    "proficient": true,
    "held": "normal",
    "subType": "wondrous",
    "baseTypes": [],
    "equipmentSubtype": "lightArmor",
    "armor": {
      "value": 0,
      "dex": null,
      "acp": 0,
      "enh": 0
    },
    "spellFailure": 0,
    "slot": "slotless",
    "showInQuickbar": false
  },
  "ownership": {
    "default": 0
  },
  "_stats": {
    "systemId": "pf1",
    "systemVersion": "9.1",
    "coreVersion": "10.291",
    "createdTime": 1665428408506,
    "modifiedTime": 1689798010848,
    "lastModifiedBy": "ppv91YxratjWnkJi"
  },
  "effects": [],
  "folder": null,
  "sort": 0,
  "flags": {},
  "_key": "!items!j6NfaUJW5w98enWq"
}