{
  "_id": "NrJ2LnfUaGuzVGko",
  "name": "Visage Of The Bound",
  "type": "equipment",
  "img": "icons/svg/item-bag.svg",
  "system": {
    "description": {
      "value": "<h2></b>Description</b></h2></p><p>Crafted from gold and lacquer, these elaborate masks resemble various outsiders. Once per day when the wearer casts a summon monster spell, he may choose to house the summoned outsider within the visage of the bound rather than conjuring it onto the Material Plane. For the spell's duration, the wearer can use of any of the bound outsider's spell-like abilities as if they were his own. A visage of the bound has no effect on outsiders already summoned or on summoning spells cast by other creatures. Removing the mask immediately releases a bound outsider.  The wearer cannot use the bound outsider's spell-like abilities to summon other creatures, and a summoner cannot activate a visage of the bound while his eidolon is summoned. Effects that extend the duration of a summon monster spell (such a the Extend Spell metamagic feat or the conjurer's summoner's charm class ability) have no effect on the duration of a spell contained by a visage of the bound. Outsiders who are opposed to one or more axes of the wearer's alignment cannot be housed within a visage of the bound.<br><p><b>Base Item:</b> </p><h3><b>Requirements</b></h3><p>Craft Wondrous Item, imbue with spell ability, summon monster V</p><h3><b>Source: </b></h3>Monster Summoner's Handbook",
      "unidentified": ""
    },
    "tags": [],
    "quantity": 1,
    "weight": {
      "value": 2
    },
    "price": 22900,
    "size": "med",
    "equipped": true,
    "resizing": false,
    "identified": true,
    "hp": {
      "max": 10,
      "value": 10
    },
    "broken": false,
    "hardness": 0,
    "carried": true,
    "unidentified": {
      "price": 0,
      "name": ""
    },
    "cl": 9,
    "aura": {
      "custom": true,
      "school": "conjuration and evocation"
    },
    "changes": [],
    "changeFlags": {
      "loseDexToAC": false,
      "noEncumbrance": false,
      "mediumArmorFullSpeed": false,
      "heavyArmorFullSpeed": false
    },
    "contextNotes": [],
    "actions": [],
    "uses": {
      "per": null,
      "value": 0,
      "maxFormula": "",
      "autoDeductChargesCost": "1"
    },
    "attackNotes": [],
    "effectNotes": [],
    "links": {
      "children": [],
      "charges": []
    },
    "tag": "visageOfTheBound",
    "useCustomTag": false,
    "flags": {
      "boolean": {},
      "dictionary": {}
    },
    "scriptCalls": [],
    "masterwork": false,
    "enh": null,
    "proficient": true,
    "held": "normal",
    "subType": "wondrous",
    "baseTypes": [],
    "equipmentSubtype": "lightArmor",
    "armor": {
      "value": 0,
      "dex": null,
      "acp": 0,
      "enh": 0
    },
    "spellFailure": 0,
    "slot": "head",
    "showInQuickbar": false
  },
  "ownership": {
    "default": 0
  },
  "_stats": {
    "systemId": "pf1",
    "systemVersion": "9.1",
    "coreVersion": "10.291",
    "createdTime": 1665428406111,
    "modifiedTime": 1689797996297,
    "lastModifiedBy": "ppv91YxratjWnkJi"
  },
  "effects": [],
  "folder": null,
  "sort": 0,
  "flags": {},
  "_key": "!items!NrJ2LnfUaGuzVGko"
}