{
  "_id": "GDkkXZvarMGNmxft",
  "name": "Vudran Ashak Helmet",
  "type": "equipment",
  "img": "icons/svg/item-bag.svg",
  "system": {
    "description": {
      "value": "<h2></b>Description</b></h2></p><p>Crafted of overlaid bronze, steel, and chain, each Vudran Ashak helmet is a work of art. These exotic helmets possess three stylized faces, each serene visage staring in a different direction (with the wearer's face concealed behind the central sculpted plate). The helm allows the wearer to see in every direction, granting him immunity to being flanked, as well as granting a +4 enhancement bonus on all vision-based Perception checks. One in every 10 Vudran Ashak helmets is an intelligent magical item, having spontaneously manifested such properties after the deaths of heroically devoted former wearers. Such helms are lawful good, speak Vudran, and have an ego score of 10. These lingering personalities prove noble, knowledgable of Vudra's diverse deities, and actively encourage wearers to defend the holy places of such gods and their devout worshipers. Some might even possess goals from their lives that they wish their new wearer to fulfill. Despite any of the helmet's desires, though, it possesses no way to compel a wearer other than deactivating or reactivating its magical properties at will.<br><p><b>Base Item:</b> </p><h3><b>Requirements</b></h3><p>Craft Wondrous Item, clairvoyance</p><h3><b>Source: </b></h3>AP 27",
      "unidentified": ""
    },
    "tags": [],
    "quantity": 1,
    "weight": {
      "value": 0
    },
    "price": 22000,
    "size": "med",
    "equipped": true,
    "resizing": false,
    "identified": true,
    "hp": {
      "max": 10,
      "value": 10
    },
    "broken": false,
    "hardness": 0,
    "carried": true,
    "unidentified": {
      "price": 0,
      "name": ""
    },
    "cl": 5,
    "aura": {
      "custom": true,
      "school": "divination"
    },
    "changes": [],
    "changeFlags": {
      "loseDexToAC": false,
      "noEncumbrance": false,
      "mediumArmorFullSpeed": false,
      "heavyArmorFullSpeed": false
    },
    "contextNotes": [],
    "actions": [],
    "uses": {
      "per": null,
      "value": 0,
      "maxFormula": "",
      "autoDeductChargesCost": "1"
    },
    "attackNotes": [],
    "effectNotes": [],
    "links": {
      "children": [],
      "charges": []
    },
    "tag": "vudranAshakHelmet",
    "useCustomTag": false,
    "flags": {
      "boolean": {},
      "dictionary": {}
    },
    "scriptCalls": [],
    "masterwork": false,
    "enh": null,
    "proficient": true,
    "held": "normal",
    "subType": "wondrous",
    "baseTypes": [],
    "equipmentSubtype": "lightArmor",
    "armor": {
      "value": 0,
      "dex": null,
      "acp": 0,
      "enh": 0
    },
    "spellFailure": 0,
    "slot": "head",
    "showInQuickbar": false
  },
  "ownership": {
    "default": 0
  },
  "_stats": {
    "systemId": "pf1",
    "systemVersion": "9.1",
    "coreVersion": "10.291",
    "createdTime": 1665428404845,
    "modifiedTime": 1689797991210,
    "lastModifiedBy": "ppv91YxratjWnkJi"
  },
  "effects": [],
  "folder": null,
  "sort": 0,
  "flags": {},
  "_key": "!items!GDkkXZvarMGNmxft"
}