{
  "_id": "gEixzizQPNZ3lIlx",
  "name": "Wary Ring",
  "type": "equipment",
  "img": "systems/pf1/icons/items/jewelry/ring-red.jpg",
  "system": {
    "description": {
      "value": "<h2></b>Description</b></h2></p><p>This relatively plain brass ring of mind shielding can read script in any language. The personality within the ring is distrustful of everyone, and it pesters its wearer with increasingly elaborate conspiracy theories. Because of its unrelenting paranoia, the ring provides its wearer with occasional well-timed guidance and can use timely inspirationAPG up to three times per day on the wearer.<br><p><b>Base Item:</b> </p><h3><b>Requirements</b></h3><p>Forge Ring, nondetection, read magic, timely inspirationAPG</p><h3><b>Source: </b></h3>Magical Marketplace",
      "unidentified": ""
    },
    "tags": [],
    "quantity": 1,
    "weight": {
      "value": 0
    },
    "price": 14600,
    "size": "med",
    "equipped": true,
    "resizing": false,
    "identified": true,
    "hp": {
      "max": 10,
      "value": 10
    },
    "broken": false,
    "hardness": 0,
    "carried": true,
    "unidentified": {
      "price": 0,
      "name": ""
    },
    "cl": 9,
    "aura": {
      "custom": true,
      "school": "lawful neutral"
    },
    "changes": [],
    "changeFlags": {
      "loseDexToAC": false,
      "noEncumbrance": false,
      "mediumArmorFullSpeed": false,
      "heavyArmorFullSpeed": false
    },
    "contextNotes": [],
    "actions": [],
    "uses": {
      "per": null,
      "value": 0,
      "maxFormula": "",
      "autoDeductChargesCost": "1"
    },
    "attackNotes": [],
    "effectNotes": [],
    "links": {
      "children": [],
      "charges": []
    },
    "tag": "waryRing",
    "useCustomTag": false,
    "flags": {
      "boolean": {},
      "dictionary": {}
    },
    "scriptCalls": [],
    "masterwork": false,
    "enh": null,
    "proficient": true,
    "held": "normal",
    "subType": "other",
    "baseTypes": [],
    "equipmentSubtype": "lightArmor",
    "armor": {
      "value": 0,
      "dex": null,
      "acp": 0,
      "enh": 0
    },
    "spellFailure": 0,
    "slot": "other",
    "showInQuickbar": false
  },
  "ownership": {
    "default": 0
  },
  "_stats": {
    "systemId": "pf1",
    "systemVersion": "9.1",
    "coreVersion": "10.291",
    "createdTime": 1665428408345,
    "modifiedTime": 1689798009134,
    "lastModifiedBy": "ppv91YxratjWnkJi"
  },
  "effects": [],
  "folder": null,
  "sort": 0,
  "flags": {},
  "_key": "!items!gEixzizQPNZ3lIlx"
}