{
  "_id": "lA1efUKJcYluEvkL",
  "name": "Waters Of Transfiguration",
  "type": "equipment",
  "img": "icons/svg/item-bag.svg",
  "system": {
    "description": {
      "value": "<h2></b>Description</b></h2></p><p>This small lacquered box made from exotic and colorful woods contains five vials and a single dropper. The vials are labeled glass, iron, paper, stone, and wood, and each contains a magical fluid that permanently transforms solid objects it touches into that material. Administering the fluid requires the included dropper, is a standard action, and provokes an attack of opportunity (similar to drinking a potion, and the attacker can strike at the dropper instead of the bearer). For example, using the vial marked paper on a lock transforms the lock into paper, with all of the various properties of paper (hardness, hit points, flammability, and so on). If the target object has a volume of one cubic foot or less, the transformation occurs instantly. Larger objects slowly transform at a rate of 1 hour per cubic foot of material (maximum 10 cubic feet affected). Each vial contains 5 applications of that particular fluid. Magical and attended objects may resist this transformation with a successful DC 17 Fortitude save.<br><p><b>Base Item:</b> </p><h3><b>Requirements</b></h3><p>Craft Wondrous Item, fabricate</p><h3><b>Source: </b></h3>Ultimate Equipment",
      "unidentified": ""
    },
    "tags": [],
    "quantity": 1,
    "weight": {
      "value": 1
    },
    "price": 12500,
    "size": "med",
    "equipped": true,
    "resizing": false,
    "identified": true,
    "hp": {
      "max": 10,
      "value": 10
    },
    "broken": false,
    "hardness": 0,
    "carried": true,
    "unidentified": {
      "price": 0,
      "name": ""
    },
    "cl": 9,
    "aura": {
      "custom": true,
      "school": "transmutation"
    },
    "changes": [],
    "changeFlags": {
      "loseDexToAC": false,
      "noEncumbrance": false,
      "mediumArmorFullSpeed": false,
      "heavyArmorFullSpeed": false
    },
    "contextNotes": [],
    "actions": [],
    "uses": {
      "per": null,
      "value": 0,
      "maxFormula": "",
      "autoDeductChargesCost": "1"
    },
    "attackNotes": [],
    "effectNotes": [],
    "links": {
      "children": [],
      "charges": []
    },
    "tag": "watersOfTransfiguration",
    "useCustomTag": false,
    "flags": {
      "boolean": {},
      "dictionary": {}
    },
    "scriptCalls": [],
    "masterwork": false,
    "enh": null,
    "proficient": true,
    "held": "normal",
    "subType": "wondrous",
    "baseTypes": [],
    "equipmentSubtype": "lightArmor",
    "armor": {
      "value": 0,
      "dex": null,
      "acp": 0,
      "enh": 0
    },
    "spellFailure": 0,
    "slot": "slotless",
    "showInQuickbar": false
  },
  "ownership": {
    "default": 0
  },
  "_stats": {
    "systemId": "pf1",
    "systemVersion": "9.1",
    "coreVersion": "10.291",
    "createdTime": 1665428408623,
    "modifiedTime": 1689798012027,
    "lastModifiedBy": "ppv91YxratjWnkJi"
  },
  "effects": [],
  "folder": null,
  "sort": 0,
  "flags": {},
  "_key": "!items!lA1efUKJcYluEvkL"
}