{
  "_id": "SyKirMypun1K59Tx",
  "name": "Wayfinder",
  "type": "equipment",
  "img": "icons/svg/item-bag.svg",
  "system": {
    "description": {
      "value": "<h2></b>Description</b></h2></p><p>A small magical device patterned on the design of ancient Azlanti relics, a wayfinder is a compact compass typically made from silver and bearing gold accents. While it serves as a badge of office for agents of the Pathfinder Society, a wayfinder is as much a handy tool as a status symbol. With a command word, the bearer can cause a wayfinder to shine (as per light). A wayfinder also acts as a nonmagical (magnetic) compass, granting a +2 circumstance bonus on Survival checks to avoid becoming lost. All wayfinders feature a small indentation designed to hold a single ioun stone. An ioun stone slotted in this manner grants the bearer its normal benefits as if it was orbiting her head, and resonates its powers with the wayfinder, replacing its ability to shine with a different power-see Wayfinders and Resonance on page 149.<br><p><b>Base Item:</b> </p><h3><b>Requirements</b></h3><p>Craft Wondrous Item, light</p><h3><b>Source: </b></h3>Adventurer's Guide",
      "unidentified": ""
    },
    "tags": [],
    "quantity": 1,
    "weight": {
      "value": 1
    },
    "price": 500,
    "size": "med",
    "equipped": true,
    "resizing": false,
    "identified": true,
    "hp": {
      "max": 10,
      "value": 10
    },
    "broken": false,
    "hardness": 0,
    "carried": true,
    "unidentified": {
      "price": 0,
      "name": ""
    },
    "cl": 5,
    "aura": {
      "custom": true,
      "school": "evocation"
    },
    "changes": [],
    "changeFlags": {
      "loseDexToAC": false,
      "noEncumbrance": false,
      "mediumArmorFullSpeed": false,
      "heavyArmorFullSpeed": false
    },
    "contextNotes": [],
    "actions": [],
    "uses": {
      "per": null,
      "value": 0,
      "maxFormula": "",
      "autoDeductChargesCost": "1"
    },
    "attackNotes": [],
    "effectNotes": [],
    "links": {
      "children": [],
      "charges": []
    },
    "tag": "wayfinder",
    "useCustomTag": false,
    "flags": {
      "boolean": {},
      "dictionary": {}
    },
    "scriptCalls": [],
    "masterwork": false,
    "enh": null,
    "proficient": true,
    "held": "normal",
    "subType": "wondrous",
    "baseTypes": [],
    "equipmentSubtype": "lightArmor",
    "armor": {
      "value": 0,
      "dex": null,
      "acp": 0,
      "enh": 0
    },
    "spellFailure": 0,
    "slot": "slotless",
    "showInQuickbar": false
  },
  "ownership": {
    "default": 0
  },
  "_stats": {
    "systemId": "pf1",
    "systemVersion": "9.1",
    "coreVersion": "10.291",
    "createdTime": 1665428406731,
    "modifiedTime": 1689798000239,
    "lastModifiedBy": "ppv91YxratjWnkJi"
  },
  "effects": [],
  "folder": null,
  "sort": 0,
  "flags": {},
  "_key": "!items!SyKirMypun1K59Tx"
}