{
  "_id": "tTlWHltPvVimkvL0",
  "name": "Zellara's Harrow Deck",
  "type": "equipment",
  "img": "icons/svg/item-bag.svg",
  "system": {
    "description": {
      "value": "<h2></b>Description</b></h2></p><p>Hand-painted images decorate this harrow deck, and the cards frames are gilded in silver so that they sparkle and flash under lighting. Despite the worn condition of the card backs, the images on the faces are so vibrant they seem to move when viewed out of the corner of the eye. The deck handles with surprising ease, almost shuffling itself. A bent, torn, or lost card always seems to mend itself or reappear when no one is looking.  These features are subtle manifestations of the spirit that haunts the cards. In life, Zellara lived by this deck, and in death, she has become the deck. Although this magical harrow deck wasn't created using the standard method for creating magic items, it should nonetheless be treated as an intelligent magic item. Zellara can sense the world around the deck via sight and sound, and she can communicate with anyone who holds the deck via empathy. She can create a major image once per day, often doing so to generate an image of herself manipulating the cards-in this manner, she can carry on conversations with other creatures in Common or Varisian. She can also cast identify for anyone who holds one of the cards of the deck to his forehead (a move action) up to three times per day.  Zellara's harrow deck has a special purpose as well: to defend and protect the city of Korvosa, her home in life and in death. In order to attain this purpose, she can periodically perform powerful harrow readings for those she has chosen as Korvosa's defenders-the PCs. These harrowings grant those who benefit from them a number of Harrow Points that can be used to manipulate fate and chance. See The Harrow on page 416 for more details on this complex power.  Zellara can suppress the deck's powers at will and doesn't hesitate to do so if anyone attempts to sell the deck or otherwise displeases her. At best, a foolish character could possibly sell the cards as a standard harrow deck for about 50 gp-thus, no pricing information for the deck is needed.<br><p><b>Base Item:</b> </p><h3><b>Requirements</b></h3><p>Craft Wondrous Item</p><h3><b>Source: </b></h3>Curse Of The Crimson Throne Chapter Appendix",
      "unidentified": ""
    },
    "tags": [],
    "quantity": 1,
    "weight": {
      "value": 1
    },
    "price": 0,
    "size": "med",
    "equipped": true,
    "resizing": false,
    "identified": true,
    "hp": {
      "max": 10,
      "value": 10
    },
    "broken": false,
    "hardness": 0,
    "carried": true,
    "unidentified": {
      "price": 0,
      "name": ""
    },
    "cl": 10,
    "aura": {
      "custom": true,
      "school": "divination"
    },
    "changes": [],
    "changeFlags": {
      "loseDexToAC": false,
      "noEncumbrance": false,
      "mediumArmorFullSpeed": false,
      "heavyArmorFullSpeed": false
    },
    "contextNotes": [],
    "actions": [],
    "uses": {
      "per": null,
      "value": 0,
      "maxFormula": "",
      "autoDeductChargesCost": "1"
    },
    "attackNotes": [],
    "effectNotes": [],
    "links": {
      "children": [],
      "charges": []
    },
    "tag": "zellarasHarrowDeck",
    "useCustomTag": false,
    "flags": {
      "boolean": {},
      "dictionary": {}
    },
    "scriptCalls": [],
    "masterwork": false,
    "enh": null,
    "proficient": true,
    "held": "normal",
    "subType": "wondrous",
    "baseTypes": [],
    "equipmentSubtype": "lightArmor",
    "armor": {
      "value": 0,
      "dex": null,
      "acp": 0,
      "enh": 0
    },
    "spellFailure": 0,
    "slot": "slotless",
    "showInQuickbar": false
  },
  "ownership": {
    "default": 0
  },
  "_stats": {
    "systemId": "pf1",
    "systemVersion": "9.1",
    "coreVersion": "10.291",
    "createdTime": 1665428409829,
    "modifiedTime": 1689798018449,
    "lastModifiedBy": "ppv91YxratjWnkJi"
  },
  "effects": [],
  "folder": null,
  "sort": 0,
  "flags": {},
  "_key": "!items!tTlWHltPvVimkvL0"
}