{
  "_id": "t5AE36tu29ZYuBfw",
  "name": "Zonzon Doll Of Forgiveness",
  "type": "equipment",
  "img": "icons/svg/item-bag.svg",
  "system": {
    "description": {
      "value": "<h2></b>Description</b></h2></p><p>This rag doll, created in the likeness of a specific creature chosen at the time of crafting, must be loved to activate its powers. This love takes the form of time spent caring for the doll, keeping it on one's person, and preventing any harm from coming to it. In order to use the accumulated power within a Zonzon doll of forgiveness, the owner must give the doll to the creature that it resembles. Depending on how long the doll's owner took care of it, the doll may bestow up to three cumulative effects. Each benefit lasts 24 hours unless otherwise noted. If the doll is gifted after 1 day of care, it grants the owner a +5 sacred bonus on Diplomacy checks against the creature that the doll resembles (hereafter referred to as the target creature). If the doll is gifted after 1 week of care, the owner can use the Diplomacy skill to shift the target creature's attitude closer to helpful by up to three steps (exceeding the normal two-step limitation) and takes no penalty for failing a Diplomacy check by 5 or more. Finally, if the doll is gifted after 1 month of care, the recipient of the Zonzon doll may activate the doll within 24 hours to gain the benefit of an atonement spell. After the doll has been gifted and the duration of the effect expires, a Zonzon doll reverts to a normal rag doll with no magical powers.<br><p><b>Base Item:</b> </p><h3><b>Requirements</b></h3><p>Craft Wondrous Item, atonement, eagle's splendor</p><h3><b>Source: </b></h3>Inner Sea Gods",
      "unidentified": ""
    },
    "tags": [],
    "quantity": 1,
    "weight": {
      "value": 1
    },
    "price": 5000,
    "size": "med",
    "equipped": true,
    "resizing": false,
    "identified": true,
    "hp": {
      "max": 10,
      "value": 10
    },
    "broken": false,
    "hardness": 0,
    "carried": true,
    "unidentified": {
      "price": 0,
      "name": ""
    },
    "cl": 9,
    "aura": {
      "custom": true,
      "school": "abjuration"
    },
    "changes": [],
    "changeFlags": {
      "loseDexToAC": false,
      "noEncumbrance": false,
      "mediumArmorFullSpeed": false,
      "heavyArmorFullSpeed": false
    },
    "contextNotes": [],
    "actions": [],
    "uses": {
      "per": null,
      "value": 0,
      "maxFormula": "",
      "autoDeductChargesCost": "1"
    },
    "attackNotes": [],
    "effectNotes": [],
    "links": {
      "children": [],
      "charges": []
    },
    "tag": "zonzonDollOfForgiveness",
    "useCustomTag": false,
    "flags": {
      "boolean": {},
      "dictionary": {}
    },
    "scriptCalls": [],
    "masterwork": false,
    "enh": null,
    "proficient": true,
    "held": "normal",
    "subType": "wondrous",
    "baseTypes": [],
    "equipmentSubtype": "lightArmor",
    "armor": {
      "value": 0,
      "dex": null,
      "acp": 0,
      "enh": 0
    },
    "spellFailure": 0,
    "slot": "slotless",
    "showInQuickbar": false
  },
  "ownership": {
    "default": 0
  },
  "_stats": {
    "systemId": "pf1",
    "systemVersion": "9.1",
    "coreVersion": "10.291",
    "createdTime": 1665428409790,
    "modifiedTime": 1689798018198,
    "lastModifiedBy": "ppv91YxratjWnkJi"
  },
  "effects": [],
  "folder": null,
  "sort": 0,
  "flags": {},
  "_key": "!items!t5AE36tu29ZYuBfw"
}