{
  "_id": "8FT2t3pn2gGKvuwq",
  "name": "Abyssal Runestone [Artifact]",
  "type": "equipment",
  "img": "systems/pf1/icons/skills/yellow_30.jpg",
  "system": {
    "description": {
      "value": "<h2></b>Description</b></h2></p><p>An Abyssal runestone allows a spellcaster to cast lesser planar binding, planar binding, or greater planar binding, provided the spellcaster has prepared a spell of equal or greater level to expend during the casting; the planar binding spell functions at a caster level equal to the spellcaster's, not to the Abyssal runestone. Spontaneous spellcasters cannot use Abyssal runestones in this way.  If a chaotic evil outsider eats an Abyssal runestone, the runestone is destroyed and the outsider permanently gains the advanced creature template. A creature that already has this template, or is above CR 20 in power, gains no benefit from eating an Abyssal runestone.  Abyssal runestones may have several other uses as components in rituals and powerful magic, particularly in quickening the effects of afflictions associated with the Abyss-for example, the creation of a fast-acting, highly contagious variant of the polymorph plague (see the next adventure, Runeplague) requires the expenditure of an Abyssal runestone.<br><p><b>Base Item:</b> </p><h3><b>Requirements</b></h3><p></p><h3><b>Source: </b></h3>AP 134",
      "unidentified": ""
    },
    "tags": [],
    "quantity": 1,
    "weight": {
      "value": 1
    },
    "price": 0,
    "size": "med",
    "equipped": true,
    "resizing": false,
    "identified": true,
    "hp": {
      "max": 10,
      "value": 10
    },
    "broken": false,
    "hardness": 0,
    "carried": true,
    "unidentified": {
      "price": 0,
      "name": ""
    },
    "cl": 20,
    "aura": {
      "custom": true,
      "school": "conjuration [chaos and evil]"
    },
    "changes": [],
    "changeFlags": {
      "loseDexToAC": false,
      "noEncumbrance": false,
      "mediumArmorFullSpeed": false,
      "heavyArmorFullSpeed": false
    },
    "contextNotes": [],
    "actions": [],
    "uses": {
      "per": null,
      "value": 0,
      "maxFormula": "",
      "autoDeductChargesCost": "1"
    },
    "attackNotes": [],
    "effectNotes": [],
    "links": {
      "children": [],
      "charges": []
    },
    "tag": "abyssalRunestoneArtifact",
    "useCustomTag": false,
    "flags": {
      "boolean": {},
      "dictionary": {}
    },
    "scriptCalls": [],
    "masterwork": false,
    "enh": null,
    "proficient": true,
    "held": "normal",
    "subType": "other",
    "baseTypes": [],
    "equipmentSubtype": "lightArmor",
    "armor": {
      "value": 0,
      "dex": null,
      "acp": 0,
      "enh": 0
    },
    "spellFailure": 0,
    "slot": "other",
    "showInQuickbar": false
  },
  "ownership": {
    "default": 0
  },
  "_stats": {
    "systemId": "pf1",
    "systemVersion": "9.1",
    "coreVersion": "10.291",
    "createdTime": 1665428264666,
    "modifiedTime": 1689794443037,
    "lastModifiedBy": "ppv91YxratjWnkJi"
  },
  "effects": [],
  "folder": null,
  "sort": 0,
  "flags": {},
  "_key": "!items!8FT2t3pn2gGKvuwq"
}