{
  "_id": "UHZqphTbITIk1i3s",
  "name": "Asheia, Sword Of Lust [Artifact]",
  "type": "equipment",
  "img": "systems/pf1/icons/skills/yellow_30.jpg",
  "system": {
    "description": {
      "value": "<h2></b>Description</b></h2></p><p>This beautiful blade is a +5 flaming longsword. While bearing the weapon, the wielder is immune to all enchantment effects. Any creature that casts an enchantment spell upon Asheia's wielder is led to believe its spell or effect worked as normal and that the sword's bearer is under its control, allowing the wielder to deceive his opponent if he so chooses (and doesn't give his enemy a reason to believe its magic failed). Whenever Asheia strikes an opponent, the target must succeed at a DC 20 Will save or fall under the effects of a charm monster spell. Only one creature can be charmed in this way at a time. If another creature becomes  charmed by the sword, the first is freed from this effect. If the sword instead scores a critical hit, the target must succeed at a DC 25 Will save or be affected by a dominate monster spell.<br><p><b>Base Item:</b> +5 flaming longsword</p><h3><b>Requirements</b></h3><p></p><h3><b>Source: </b></h3>Artifacts and Legends",
      "unidentified": ""
    },
    "tags": [],
    "quantity": 1,
    "weight": {
      "value": 6
    },
    "price": 0,
    "size": "med",
    "equipped": true,
    "resizing": false,
    "identified": true,
    "hp": {
      "max": 10,
      "value": 10
    },
    "broken": false,
    "hardness": 0,
    "carried": true,
    "unidentified": {
      "price": 0,
      "name": ""
    },
    "cl": 16,
    "aura": {
      "custom": true,
      "school": "enchantment"
    },
    "changes": [],
    "changeFlags": {
      "loseDexToAC": false,
      "noEncumbrance": false,
      "mediumArmorFullSpeed": false,
      "heavyArmorFullSpeed": false
    },
    "contextNotes": [],
    "actions": [],
    "uses": {
      "per": null,
      "value": 0,
      "maxFormula": "",
      "autoDeductChargesCost": "1"
    },
    "attackNotes": [],
    "effectNotes": [],
    "links": {
      "children": [],
      "charges": []
    },
    "tag": "asheiaSwordOfLustArtifact",
    "useCustomTag": false,
    "flags": {
      "boolean": {},
      "dictionary": {}
    },
    "scriptCalls": [],
    "masterwork": false,
    "enh": null,
    "proficient": true,
    "held": "normal",
    "subType": "other",
    "baseTypes": [],
    "equipmentSubtype": "lightArmor",
    "armor": {
      "value": 0,
      "dex": null,
      "acp": 0,
      "enh": 0
    },
    "spellFailure": 0,
    "slot": "other",
    "showInQuickbar": false
  },
  "ownership": {
    "default": 0
  },
  "_stats": {
    "systemId": "pf1",
    "systemVersion": "9.1",
    "coreVersion": "10.291",
    "createdTime": 1665428264904,
    "modifiedTime": 1689794446806,
    "lastModifiedBy": "ppv91YxratjWnkJi"
  },
  "effects": [],
  "folder": null,
  "sort": 0,
  "flags": {},
  "_key": "!items!UHZqphTbITIk1i3s"
}