{
  "_id": "aw3kSMBtTmLkqvcp",
  "name": "Calabash Of Last Draughts [Artifact]",
  "type": "equipment",
  "img": "systems/pf1/icons/skills/yellow_30.jpg",
  "system": {
    "description": {
      "value": "<h2></b>Description</b></h2></p><p>An elaborately carved stopper caps this black gourd. It was once a decanter of endless water, but the bottle's magic has been warped by the daemon spirit trapped within. The Calabash of Last Draughts can be slung over a creature's chest with its leather strap, and grants a +2 profane bonus to Intelligence when worn. Five times per day, the wearer can unstopper the bottle and splash a creature with the tainted water within as a ranged touch attack with a range of 30 feet. A successful attack deals 1d4 points of Intelligence damage as the waters wipe away a creature's memories and sense of self. A successful DC 18 Will save reduces this Intelligence damage by half. If a target is helpless or willing, the wearer can instead unstopper the calabash and feed the target its tainted waters, either dealing 2d4 points of Intelligence damage or allowing the wearer to change or eliminate the target's memories as per the modify memory spell.  The Calabash of Last Draughts also erodes an outsider's connection to the physical world. If a possessing creature's Intelligence is reduced to 1 or lower in this way, it is immediately exorcised from its host's body.  Upon picking up the Calabash of Last Draughts, a creature must succeed at a DC 18 Will save or immediately drink from the accursed gourd.<br><p><b>Base Item:</b> </p><h3><b>Requirements</b></h3><p></p><h3><b>Source: </b></h3>Feast Of Dust",
      "unidentified": ""
    },
    "tags": [],
    "quantity": 1,
    "weight": {
      "value": 5
    },
    "price": 0,
    "size": "med",
    "equipped": true,
    "resizing": false,
    "identified": true,
    "hp": {
      "max": 10,
      "value": 10
    },
    "broken": false,
    "hardness": 0,
    "carried": true,
    "unidentified": {
      "price": 0,
      "name": ""
    },
    "cl": 18,
    "aura": {
      "custom": true,
      "school": "necromancy and transmutation"
    },
    "changes": [],
    "changeFlags": {
      "loseDexToAC": false,
      "noEncumbrance": false,
      "mediumArmorFullSpeed": false,
      "heavyArmorFullSpeed": false
    },
    "contextNotes": [],
    "actions": [],
    "uses": {
      "per": null,
      "value": 0,
      "maxFormula": "",
      "autoDeductChargesCost": "1"
    },
    "attackNotes": [],
    "effectNotes": [],
    "links": {
      "children": [],
      "charges": []
    },
    "tag": "calabashOfLastDraughtsArtifact",
    "useCustomTag": false,
    "flags": {
      "boolean": {},
      "dictionary": {}
    },
    "scriptCalls": [],
    "masterwork": false,
    "enh": null,
    "proficient": true,
    "held": "normal",
    "subType": "other",
    "baseTypes": [],
    "equipmentSubtype": "lightArmor",
    "armor": {
      "value": 0,
      "dex": null,
      "acp": 0,
      "enh": 0
    },
    "spellFailure": 0,
    "slot": "other",
    "showInQuickbar": false
  },
  "ownership": {
    "default": 0
  },
  "_stats": {
    "systemId": "pf1",
    "systemVersion": "9.1",
    "coreVersion": "10.291",
    "createdTime": 1665428264952,
    "modifiedTime": 1689794447541,
    "lastModifiedBy": "ppv91YxratjWnkJi"
  },
  "effects": [],
  "folder": null,
  "sort": 0,
  "flags": {},
  "_key": "!items!aw3kSMBtTmLkqvcp"
}