{
  "_id": "XC0jsMe22LocXmg7",
  "name": "Crown Of Blindness [Cursed]",
  "type": "equipment",
  "img": "systems/pf1/icons/skills/yellow_30.jpg",
  "system": {
    "description": {
      "value": "<h2></b>Description</b></h2></p><p>This fine silver circlet is often set with a milky moonstone. When a wearer places it on his head, the stone quickly goes dark like the waning moon, and the wearer must make a DC 14 Fortitude saving throw or immediately go blind. The saving throw must be made each round that the crown is worn until the wearer succumbs to the blindness. Removing the circlet requires breaking the curse. In addition to a remove curse spell or similar effect, remove blindness/deafness can be used to end the circlet's curse long enough to remove the item.<br><p><b>Base Item:</b> </p><h3><b>Requirements</b></h3><p></p><h3><b>Source: </b></h3>Ultimate Equipment",
      "unidentified": ""
    },
    "tags": [],
    "quantity": 1,
    "weight": {
      "value": 1
    },
    "price": 0,
    "size": "med",
    "equipped": true,
    "resizing": false,
    "identified": true,
    "hp": {
      "max": 10,
      "value": 10
    },
    "broken": false,
    "hardness": 0,
    "carried": true,
    "unidentified": {
      "price": 0,
      "name": ""
    },
    "cl": 10,
    "aura": {
      "custom": true,
      "school": "illusion"
    },
    "changes": [],
    "changeFlags": {
      "loseDexToAC": false,
      "noEncumbrance": false,
      "mediumArmorFullSpeed": false,
      "heavyArmorFullSpeed": false
    },
    "contextNotes": [],
    "actions": [],
    "uses": {
      "per": null,
      "value": 0,
      "maxFormula": "",
      "autoDeductChargesCost": "1"
    },
    "attackNotes": [],
    "effectNotes": [],
    "links": {
      "children": [],
      "charges": []
    },
    "tag": "crownOfBlindnessCursed",
    "useCustomTag": false,
    "flags": {
      "boolean": {},
      "dictionary": {}
    },
    "scriptCalls": [],
    "masterwork": false,
    "enh": null,
    "proficient": true,
    "held": "normal",
    "subType": "other",
    "baseTypes": [],
    "equipmentSubtype": "lightArmor",
    "armor": {
      "value": 0,
      "dex": null,
      "acp": 0,
      "enh": 0
    },
    "spellFailure": 0,
    "slot": "other",
    "showInQuickbar": false
  },
  "ownership": {
    "default": 0
  },
  "_stats": {
    "systemId": "pf1",
    "systemVersion": "9.1",
    "coreVersion": "10.291",
    "createdTime": 1665428264928,
    "modifiedTime": 1689794447206,
    "lastModifiedBy": "ppv91YxratjWnkJi"
  },
  "effects": [],
  "folder": null,
  "sort": 0,
  "flags": {},
  "_key": "!items!XC0jsMe22LocXmg7"
}