{
  "_id": "jChkpPZzYW6BPZGr",
  "name": "Demon Prince Armor [Artifact]",
  "type": "equipment",
  "img": "systems/pf1/icons/skills/weapon_16.jpg",
  "system": {
    "description": {
      "value": "<h2></b>Description</b></h2></p><p>This armor looks like a more massive and dangerous suit of demon armor. It is a suit of +5 heavy fortification full plate that allows its wearer to make claw attacks that deal 2d10 points of damage, and strike as +3 weapons that are treated as chaotic and evil for the purposes of overcoming damage reduction. Additionally, those struck by the claws must succeed at a DC 20 Fortitude save or be affected as per the spell contagion. The armor's claws are built into the armor so these weapons cannot be disarmed. While wearing the armor, the wearer benefits from the following demonic traits.  • The wearer gains darkvision 60 ft. If it already has darkvision, the range of its darkvision is increased by 60 ft.  • The wearer does not need to breathe or eat.  • The wearer is immune to electricity and poison.  • The wearer gains resistance to acid 10, cold 10 and fire 10.  • The wearer gains telepathy and speaks Abyssal, Celestial, and Draconic.<br><p><b>Base Item:</b> +5 heavy fortification full plate</p><h3><b>Requirements</b></h3><p></p><h3><b>Source: </b></h3>Ultimate Equipment",
      "unidentified": ""
    },
    "tags": [],
    "quantity": 1,
    "weight": {
      "value": 80
    },
    "price": 0,
    "size": "med",
    "equipped": true,
    "resizing": false,
    "identified": true,
    "hp": {
      "max": 10,
      "value": 10
    },
    "broken": false,
    "hardness": 0,
    "carried": true,
    "unidentified": {
      "price": 0,
      "name": ""
    },
    "cl": 22,
    "aura": {
      "custom": true,
      "school": "necromancy"
    },
    "changes": [],
    "changeFlags": {
      "loseDexToAC": false,
      "noEncumbrance": false,
      "mediumArmorFullSpeed": false,
      "heavyArmorFullSpeed": false
    },
    "contextNotes": [],
    "actions": [],
    "uses": {
      "per": null,
      "value": 0,
      "maxFormula": "",
      "autoDeductChargesCost": "1"
    },
    "attackNotes": [],
    "effectNotes": [],
    "links": {
      "children": [],
      "charges": []
    },
    "tag": "demonPrinceArmorArtifact",
    "useCustomTag": false,
    "flags": {
      "boolean": {},
      "dictionary": {}
    },
    "scriptCalls": [],
    "masterwork": false,
    "enh": null,
    "proficient": true,
    "held": "normal",
    "subType": "armor",
    "baseTypes": [],
    "equipmentSubtype": "lightArmor",
    "armor": {
      "value": 0,
      "dex": null,
      "acp": 0,
      "enh": 0
    },
    "spellFailure": 0,
    "slot": "slotless",
    "showInQuickbar": false
  },
  "ownership": {
    "default": 0
  },
  "_stats": {
    "systemId": "pf1",
    "systemVersion": "9.1",
    "coreVersion": "10.291",
    "createdTime": 1665428265113,
    "modifiedTime": 1689794448887,
    "lastModifiedBy": "ppv91YxratjWnkJi"
  },
  "effects": [],
  "folder": null,
  "sort": 0,
  "flags": {},
  "_key": "!items!jChkpPZzYW6BPZGr"
}