{
  "_id": "uk2wEDIPOJ9oAVRA",
  "name": "Deskari's Tooth [Artifact]",
  "type": "equipment",
  "img": "systems/pf1/icons/skills/yellow_22.jpg",
  "system": {
    "description": {
      "value": "<h2></b>Description</b></h2></p><p>A gift to Areelu from Deskari himself, Deskari's Tooth is a +6 anarchic unholy dagger that automatically casts soul bind whenever it is used to slay a foe, provided no soul is currently stored in the blade. A soul of any power can be stored in the blade in this manner, but only one soul at a time. If the dagger's wielder is slain while a soul is contained in Deskari's Tooth, the soul is instantly consumed and the effect or attack that would normally have slain the wielder is instead negated. If Deskari's Tooth is used to perform a coup de grace on a lawful good creature, it can be used to cast lesser planar binding. If the lawful good creature has more than 11 Hit Dice, the dagger can instead be used to cast planar binding, and if the creature has more than 17 Hit Dice, it can instead be used to cast greater planar binding.<br><p><b>Base Item:</b> +6 anarchic unholy dagger</p><h3><b>Requirements</b></h3><p></p><h3><b>Source: </b></h3>AP 78",
      "unidentified": ""
    },
    "tags": [],
    "quantity": 1,
    "weight": {
      "value": 2
    },
    "price": 0,
    "size": "med",
    "equipped": true,
    "resizing": false,
    "identified": true,
    "hp": {
      "max": 10,
      "value": 10
    },
    "broken": false,
    "hardness": 0,
    "carried": true,
    "unidentified": {
      "price": 0,
      "name": ""
    },
    "cl": 20,
    "aura": {
      "custom": true,
      "school": "conjuration and necromancy evil"
    },
    "changes": [],
    "changeFlags": {
      "loseDexToAC": false,
      "noEncumbrance": false,
      "mediumArmorFullSpeed": false,
      "heavyArmorFullSpeed": false
    },
    "contextNotes": [],
    "actions": [],
    "uses": {
      "per": "",
      "value": 0,
      "maxFormula": "",
      "autoDeductChargesCost": "1"
    },
    "attackNotes": [],
    "effectNotes": [],
    "links": {
      "children": [],
      "charges": []
    },
    "tag": "deskarisToothArtifact",
    "useCustomTag": false,
    "flags": {
      "boolean": {},
      "dictionary": {}
    },
    "scriptCalls": [],
    "masterwork": false,
    "enh": null,
    "proficient": true,
    "held": "normal",
    "subType": "wondrous",
    "baseTypes": [],
    "equipmentSubtype": "lightArmor",
    "armor": {
      "value": 0,
      "dex": null,
      "acp": 0,
      "enh": 0
    },
    "spellFailure": 0,
    "slot": "slotless",
    "showInQuickbar": false
  },
  "ownership": {
    "default": 0
  },
  "_stats": {
    "systemId": "pf1",
    "systemVersion": "9.1",
    "coreVersion": "10.291",
    "createdTime": 1665428265217,
    "modifiedTime": 1689794450541,
    "lastModifiedBy": "ppv91YxratjWnkJi"
  },
  "effects": [],
  "folder": null,
  "sort": 0,
  "flags": {},
  "_key": "!items!uk2wEDIPOJ9oAVRA"
}