{
  "_id": "uGL1nNz2SlrjdRx3",
  "name": "Face of Dagon [Artifact]",
  "type": "equipment",
  "img": "systems/pf1/icons/skills/yellow_30.jpg",
  "system": {
    "description": {
      "value": "<h2></b>Description</b></h2></p><p>This peculiar idol, carved from some unknown green stone, depicts a seven-legged octopoid figure with a horribly grinning face. Also known as the Seasage Effigy, the Face of Dagon is a sacred relic of the ulat-kini. The bearer of the idol can breathe water (as the water breathing spell) as long as it is in her possession. In addition, the bearer can cast commune once per week to contact Dagon or one of the Great Old Ones or Outer Gods. Each time the Face of Dagon is used in this way, however, the bearer must make a DC 20 Will save or suffer insanity (as the spell) as her mind is opened to the horrors of beyond.<br><p><b>Base Item:</b> </p><h3><b>Requirements</b></h3><p>Craft Wondrous Item, commune, water breathing</p><h3><b>Source: </b></h3>AP 46",
      "unidentified": ""
    },
    "tags": [],
    "quantity": 1,
    "weight": {
      "value": 3
    },
    "price": 27000,
    "size": "med",
    "equipped": true,
    "resizing": false,
    "identified": true,
    "hp": {
      "max": 10,
      "value": 10
    },
    "broken": false,
    "hardness": 0,
    "carried": true,
    "unidentified": {
      "price": 0,
      "name": ""
    },
    "cl": 13,
    "aura": {
      "custom": true,
      "school": "divination"
    },
    "changes": [],
    "changeFlags": {
      "loseDexToAC": false,
      "noEncumbrance": false,
      "mediumArmorFullSpeed": false,
      "heavyArmorFullSpeed": false
    },
    "contextNotes": [],
    "actions": [],
    "uses": {
      "per": null,
      "value": 0,
      "maxFormula": "",
      "autoDeductChargesCost": "1"
    },
    "attackNotes": [],
    "effectNotes": [],
    "links": {
      "children": [],
      "charges": []
    },
    "tag": "faceOfDagonArtifact",
    "useCustomTag": false,
    "flags": {
      "boolean": {},
      "dictionary": {}
    },
    "scriptCalls": [],
    "masterwork": false,
    "enh": null,
    "proficient": true,
    "held": "normal",
    "subType": "other",
    "baseTypes": [],
    "equipmentSubtype": "lightArmor",
    "armor": {
      "value": 0,
      "dex": null,
      "acp": 0,
      "enh": 0
    },
    "spellFailure": 0,
    "slot": "other",
    "showInQuickbar": false
  },
  "ownership": {
    "default": 0
  },
  "_stats": {
    "systemId": "pf1",
    "systemVersion": "9.1",
    "coreVersion": "10.291",
    "createdTime": 1665428265210,
    "modifiedTime": 1689794450437,
    "lastModifiedBy": "ppv91YxratjWnkJi"
  },
  "effects": [],
  "folder": null,
  "sort": 0,
  "flags": {},
  "_key": "!items!uGL1nNz2SlrjdRx3"
}