{
  "_id": "t703OJEFhDjqGM9u",
  "name": "Fork Of The Forgotten One [Artifact]",
  "type": "equipment",
  "img": "systems/pf1/icons/skills/yellow_30.jpg",
  "system": {
    "description": {
      "value": "<h2></b>Description</b></h2></p><p>This +5 flaming wounding unholy ranseur was once the weapon of a powerful archdevil who they say controlled an entire layer of Hell. When he attempted to defy the Prince of Darkness, he was overthrown and banished into some cold and remote prison at the edge of the multiverse. Still bearing some infernal vestige of the forgotten fiend's power, the fork grants the bearer a +10 bonus on Diplomacy and Intimidate checks and the power to use scorching ray three times per day.  Any nonevil creature who touches the Fork of the Forgotten One is given a choice: become lawful evil immediately, or die. Those who choose death are instantly slain (Fortitude DC 30 negates). Those who choose to become lawful evil change alignment immediately (no saving throw) and are subject to a demand spell (Will DC 25) requiring that they find the Forgotten One and free him from his icy prison-presumably thereafter he will press them into service for his plans of revenge against those who imprisoned him.<br><p><b>Base Item:</b> +5 flaming wounding unholy ranseur</p><h3><b>Requirements</b></h3><p></p><h3><b>Source: </b></h3>Ultimate Equipment",
      "unidentified": ""
    },
    "tags": [],
    "quantity": 1,
    "weight": {
      "value": 12
    },
    "price": 0,
    "size": "med",
    "equipped": true,
    "resizing": false,
    "identified": true,
    "hp": {
      "max": 10,
      "value": 10
    },
    "broken": false,
    "hardness": 0,
    "carried": true,
    "unidentified": {
      "price": 0,
      "name": ""
    },
    "cl": 20,
    "aura": {
      "custom": true,
      "school": "transmutation"
    },
    "changes": [],
    "changeFlags": {
      "loseDexToAC": false,
      "noEncumbrance": false,
      "mediumArmorFullSpeed": false,
      "heavyArmorFullSpeed": false
    },
    "contextNotes": [],
    "actions": [],
    "uses": {
      "per": null,
      "value": 0,
      "maxFormula": "",
      "autoDeductChargesCost": "1"
    },
    "attackNotes": [],
    "effectNotes": [],
    "links": {
      "children": [],
      "charges": []
    },
    "tag": "forkOfTheForgottenOneArtifact",
    "useCustomTag": false,
    "flags": {
      "boolean": {},
      "dictionary": {}
    },
    "scriptCalls": [],
    "masterwork": false,
    "enh": null,
    "proficient": true,
    "held": "normal",
    "subType": "other",
    "baseTypes": [],
    "equipmentSubtype": "lightArmor",
    "armor": {
      "value": 0,
      "dex": null,
      "acp": 0,
      "enh": 0
    },
    "spellFailure": 0,
    "slot": "other",
    "showInQuickbar": false
  },
  "ownership": {
    "default": 0
  },
  "_stats": {
    "systemId": "pf1",
    "systemVersion": "9.1",
    "coreVersion": "10.291",
    "createdTime": 1665428265201,
    "modifiedTime": 1689794450323,
    "lastModifiedBy": "ppv91YxratjWnkJi"
  },
  "effects": [],
  "folder": null,
  "sort": 0,
  "flags": {},
  "_key": "!items!t703OJEFhDjqGM9u"
}