{
  "_id": "Jmf2aKVyv2ls0aG3",
  "name": "Frozen Heart Of Cocytus [Artifact]",
  "type": "equipment",
  "img": "systems/pf1/icons/skills/yellow_30.jpg",
  "system": {
    "description": {
      "value": "<h2></b>Description</b></h2></p><p>At a glance, this object appears to be a hard, dark, roughly egg-shaped rock. Closer inspection reveals it's actually a humanoid heart-frozen hard, solid, and covered in smooth ice. When clenched in a fist, it feels like it throbs, though the organ remains unmoving and unyielding to the eye. It's said to once have been the heart of a gelugon, and before that it was the heart of a human being. Staring at it causes the surface to gloss over with darkened ice and makes the observer's eyes swim. Once the holder knows to study it, the heart functions as a crystal ball with telepathy.   The heart has a more sinister secret ability. With practice, mythic creatures can use the heart to scry more than just individuals, but entire settlements and cities. As the owner does, her mind becomes flooded with information about the region. Initially this knowledge consists of facts about population size, local economy, agriculture, leaders, and popular deities worshiped in the area.   The owner feels a powerful desire to continue watching, and if she does so while taking no other breaks except to eat and sleep, the information continues unabated. Over the course of 1d10 days, the heart reveals much more: the subtle social, religious, and economic influences of the settlement; the strengths and weaknesses of its leaders; and all the many secrets both pedestrian and profane that could be used to manipulate and extort those with power over the location. At this point, the heart begins to communicate to its new owner, suggesting courses of action that would bring her a higher social station, wealth, and power in that area. The heart's advice is almost always sound, but also always driven toward an unfortunate and evil outcome for someone-just not necessarily its owner. If the owner refuses to heed its advice, eventually the heart vanishes, seeking a more pliant puppet to manipulate.   Legends suggest that those who never question the heart's orders or decline its gift of knowledge eventually disappear to whatever cold place from which the heart originated.<br><p><b>Base Item:</b> </p><h3><b>Requirements</b></h3><p></p><h3><b>Source: </b></h3>Mythic Adventures",
      "unidentified": ""
    },
    "tags": [],
    "quantity": 1,
    "weight": {
      "value": 2
    },
    "price": 0,
    "size": "med",
    "equipped": true,
    "resizing": false,
    "identified": true,
    "hp": {
      "max": 10,
      "value": 10
    },
    "broken": false,
    "hardness": 0,
    "carried": true,
    "unidentified": {
      "price": 0,
      "name": ""
    },
    "cl": 15,
    "aura": {
      "custom": true,
      "school": "divination"
    },
    "changes": [],
    "changeFlags": {
      "loseDexToAC": false,
      "noEncumbrance": false,
      "mediumArmorFullSpeed": false,
      "heavyArmorFullSpeed": false
    },
    "contextNotes": [],
    "actions": [],
    "uses": {
      "per": null,
      "value": 0,
      "maxFormula": "",
      "autoDeductChargesCost": "1"
    },
    "attackNotes": [],
    "effectNotes": [],
    "links": {
      "children": [],
      "charges": []
    },
    "tag": "frozenHeartOfCocytusArtifact",
    "useCustomTag": false,
    "flags": {
      "boolean": {},
      "dictionary": {}
    },
    "scriptCalls": [],
    "masterwork": false,
    "enh": null,
    "proficient": true,
    "held": "normal",
    "subType": "other",
    "baseTypes": [],
    "equipmentSubtype": "lightArmor",
    "armor": {
      "value": 0,
      "dex": null,
      "acp": 0,
      "enh": 0
    },
    "spellFailure": 0,
    "slot": "other",
    "showInQuickbar": false
  },
  "ownership": {
    "default": 0
  },
  "_stats": {
    "systemId": "pf1",
    "systemVersion": "9.1",
    "coreVersion": "10.291",
    "createdTime": 1665428264797,
    "modifiedTime": 1689794444016,
    "lastModifiedBy": "ppv91YxratjWnkJi"
  },
  "effects": [],
  "folder": null,
  "sort": 0,
  "flags": {},
  "_key": "!items!Jmf2aKVyv2ls0aG3"
}