{
  "_id": "zIKl5PlGAVj7Wft9",
  "name": "Funerary Crown Of The True King [Artifact]",
  "type": "equipment",
  "img": "systems/pf1/icons/skills/yellow_30.jpg",
  "system": {
    "description": {
      "value": "<h2></b>Description</b></h2></p><p>The curling horns that jut out from the temples of this splendid helm are actually fangs extracted from the jaws of a cairn linnorm. Created by and for the Linnorm Kings of old, the helm reserves its power for wearers who have been targeted by a linnorm's death curse. For a worthy wearer, the funerary crown suppresses any death curse currently affecting the wearer and grants a +4 resistance bonus on saving throws to resist fear effects, poison, and all other curses. The helm also grants a +4 insight bonus on all Charisma-based checks the wearer attempts to influence other linnorm slayers. Once per month as a standard action, the wearer can summon an einherji (Pathfinder RPG Bestiary 4 8 4) f or u p to 10 minutes. This power is otherwise equivalent to a summon monster VII spell.  When placed on the brow of one who has never slain a linnorm, the helm instead subjects the unworthy wearer to the death curse carried by the last true Linnorm King to have worn the helm. This curse cannot be dispelled while the crown is worn, but ends as soon as the helm is removed.<br><p><b>Base Item:</b> </p><h3><b>Requirements</b></h3><p></p><h3><b>Source: </b></h3>Ships Of The Inner Sea",
      "unidentified": ""
    },
    "tags": [],
    "quantity": 1,
    "weight": {
      "value": 4
    },
    "price": 0,
    "size": "med",
    "equipped": true,
    "resizing": false,
    "identified": true,
    "hp": {
      "max": 10,
      "value": 10
    },
    "broken": false,
    "hardness": 0,
    "carried": true,
    "unidentified": {
      "price": 0,
      "name": ""
    },
    "cl": 16,
    "aura": {
      "custom": true,
      "school": "abjuration"
    },
    "changes": [],
    "changeFlags": {
      "loseDexToAC": false,
      "noEncumbrance": false,
      "mediumArmorFullSpeed": false,
      "heavyArmorFullSpeed": false
    },
    "contextNotes": [],
    "actions": [],
    "uses": {
      "per": null,
      "value": 0,
      "maxFormula": "",
      "autoDeductChargesCost": "1"
    },
    "attackNotes": [],
    "effectNotes": [],
    "links": {
      "children": [],
      "charges": []
    },
    "tag": "funeraryCrownOfTheTrueKingArtifact",
    "useCustomTag": false,
    "flags": {
      "boolean": {},
      "dictionary": {}
    },
    "scriptCalls": [],
    "masterwork": false,
    "enh": null,
    "proficient": true,
    "held": "normal",
    "subType": "other",
    "baseTypes": [],
    "equipmentSubtype": "lightArmor",
    "armor": {
      "value": 0,
      "dex": null,
      "acp": 0,
      "enh": 0
    },
    "spellFailure": 0,
    "slot": "other",
    "showInQuickbar": false
  },
  "ownership": {
    "default": 0
  },
  "_stats": {
    "systemId": "pf1",
    "systemVersion": "9.1",
    "coreVersion": "10.291",
    "createdTime": 1665428265260,
    "modifiedTime": 1689794451110,
    "lastModifiedBy": "ppv91YxratjWnkJi"
  },
  "effects": [],
  "folder": null,
  "sort": 0,
  "flags": {},
  "_key": "!items!zIKl5PlGAVj7Wft9"
}