{
  "_id": "DUzOdatE2ynNxWMQ",
  "name": "Gem of Dreams [Artifact]",
  "type": "equipment",
  "img": "systems/pf1/icons/skills/yellow_30.jpg",
  "system": {
    "description": {
      "value": "<h2></b>Description</b></h2></p><p>No record of where Kamaria found this potent artifact exists, although many believe she discovered it while exploring a remote corner of the nightmare realm of Leng. The Gem of Dreams can be used once per month to absorb the dreaming mind of any sleeping creature it is in contact with-this ability must be activated as a full-round action. The sleeping creature can resist this doom by making a DC 20 Will save-with a success, he is afflicted by a nightmare spell (CL 20th) but is otherwise unharmed. If he fails the save, his dreaming mind is stolen, warped, and then siphoned back into his body in the space of an hour. If the victim is awakened before this process completes, his body twists and transforms into a creature known as a dream eater (see above), at which point only wish or miracle (or the destruction of the Gem of Dreams) can restore him to his true form. At the point the transformation occurs, the creature that activated the gem's power ceases to age for a month. By using the gem every month (and creating more and more dream eaters), a person can effectively become immortal in this manner. While this is technically nothing more than a beneficial side effect, it is this power that has generated the majority of the gem's legendary fame.<br><p><b>Base Item:</b> </p><h3><b>Requirements</b></h3><p></p><h3><b>Source: </b></h3>Dungeons Of Golarion",
      "unidentified": ""
    },
    "tags": [],
    "quantity": 1,
    "weight": {
      "value": 2
    },
    "price": 0,
    "size": "med",
    "equipped": true,
    "resizing": false,
    "identified": true,
    "hp": {
      "max": 10,
      "value": 10
    },
    "broken": false,
    "hardness": 0,
    "carried": true,
    "unidentified": {
      "price": 0,
      "name": ""
    },
    "cl": 20,
    "aura": {
      "custom": true,
      "school": "necromancy"
    },
    "changes": [],
    "changeFlags": {
      "loseDexToAC": false,
      "noEncumbrance": false,
      "mediumArmorFullSpeed": false,
      "heavyArmorFullSpeed": false
    },
    "contextNotes": [],
    "actions": [],
    "uses": {
      "per": null,
      "value": 0,
      "maxFormula": "",
      "autoDeductChargesCost": "1"
    },
    "attackNotes": [],
    "effectNotes": [],
    "links": {
      "children": [],
      "charges": []
    },
    "tag": "gemOfDreamsArtifact",
    "useCustomTag": false,
    "flags": {
      "boolean": {},
      "dictionary": {}
    },
    "scriptCalls": [],
    "masterwork": false,
    "enh": null,
    "proficient": true,
    "held": "normal",
    "subType": "other",
    "baseTypes": [],
    "equipmentSubtype": "lightArmor",
    "armor": {
      "value": 0,
      "dex": null,
      "acp": 0,
      "enh": 0
    },
    "spellFailure": 0,
    "slot": "other",
    "showInQuickbar": false
  },
  "ownership": {
    "default": 0
  },
  "_stats": {
    "systemId": "pf1",
    "systemVersion": "9.1",
    "coreVersion": "10.291",
    "createdTime": 1665428264724,
    "modifiedTime": 1689794443518,
    "lastModifiedBy": "ppv91YxratjWnkJi"
  },
  "effects": [],
  "folder": null,
  "sort": 0,
  "flags": {},
  "_key": "!items!DUzOdatE2ynNxWMQ"
}