{
  "_id": "lm4qZwpBDI86vrGi",
  "name": "Gravesoul Armor [Cursed]",
  "type": "equipment",
  "img": "systems/pf1/icons/skills/weapon_16.jpg",
  "system": {
    "description": {
      "value": "<h2></b>Description</b></h2></p><p>This armor behaves in all ways as if it were +1 undead controlling studded leather until its owner actually attempts to use its special property. At that point, the wearer and all living creatures within a 20-foot radius must succeed at a DC 15 Will saving throw to avoid believing that they are actually some sort of undead creature for the next 24 hours. The GM can either roll randomly (1d6; 1-3 zombies, 4-5 ghouls, 6 vampires) or choose which sorts of specific undead the affected creatures believe themselves to be. Creatures affected by the armor behave as normal for the sorts of undead they regard themselves as-zombies mindlessly attack unassociated creatures near them, vampires attempt to bite victims on the neck, and so on-but gain none of the special abilities of that creature. The affected creatures react negatively to effects that harm their type of undead, so vampires avoid garlic, wraiths recoil from sunlight, and so on. The creatures continue to believe they are actually undead and ignore all evidence to the contrary. If attacked, they defend themselves, even if this requires using abilities they have but their type of undead normally lacks; for example, a barbarian who thinks she's a ghoul can still rage. Channel energy and other undead-affecting effects have no effect on creatures affected by gravesoul armor.  This is a mind-affecting, compulsion enchantment. The wearer of the armor can use this power up to three times per day, though it can only work on a particular creature once in any 24-hour period. Regardless of the curse, the armor is still +1 studded leather, and some characters may find it useful despite its (nonexistent) power over undead. Unlike most cursed items, this one is easily discarded without any magical assistance.<br><p><b>Base Item:</b> +1 studded leather</p><h3><b>Requirements</b></h3><p></p><h3><b>Source: </b></h3>Ultimate Equipment",
      "unidentified": ""
    },
    "tags": [],
    "quantity": 1,
    "weight": {
      "value": 20
    },
    "price": 0,
    "size": "med",
    "equipped": true,
    "resizing": false,
    "identified": true,
    "hp": {
      "max": 10,
      "value": 10
    },
    "broken": false,
    "hardness": 0,
    "carried": true,
    "unidentified": {
      "price": 0,
      "name": ""
    },
    "cl": 10,
    "aura": {
      "custom": true,
      "school": "enchantment"
    },
    "changes": [],
    "changeFlags": {
      "loseDexToAC": false,
      "noEncumbrance": false,
      "mediumArmorFullSpeed": false,
      "heavyArmorFullSpeed": false
    },
    "contextNotes": [],
    "actions": [],
    "uses": {
      "per": null,
      "value": 0,
      "maxFormula": "",
      "autoDeductChargesCost": "1"
    },
    "attackNotes": [],
    "effectNotes": [],
    "links": {
      "children": [],
      "charges": []
    },
    "tag": "gravesoulArmorCursed",
    "useCustomTag": false,
    "flags": {
      "boolean": {},
      "dictionary": {}
    },
    "scriptCalls": [],
    "masterwork": false,
    "enh": null,
    "proficient": true,
    "held": "normal",
    "subType": "armor",
    "baseTypes": [],
    "equipmentSubtype": "lightArmor",
    "armor": {
      "value": 0,
      "dex": null,
      "acp": 0,
      "enh": 0
    },
    "spellFailure": 0,
    "slot": "slotless",
    "showInQuickbar": false
  },
  "ownership": {
    "default": 0
  },
  "_stats": {
    "systemId": "pf1",
    "systemVersion": "9.1",
    "coreVersion": "10.291",
    "createdTime": 1665428265138,
    "modifiedTime": 1689794449440,
    "lastModifiedBy": "ppv91YxratjWnkJi"
  },
  "effects": [],
  "folder": null,
  "sort": 0,
  "flags": {},
  "_key": "!items!lm4qZwpBDI86vrGi"
}