{
  "_id": "5CViivu11LekvHq7",
  "name": "Haykali's House of Cards [Artifact]",
  "type": "equipment",
  "img": "systems/pf1/icons/skills/yellow_30.jpg",
  "system": {
    "description": {
      "value": "<h2></b>Description</b></h2></p><p>This item operates as a standard 22-card deck of many things, save that if its wielder takes 5 minutes to build a card house out of its deck (a DC 20 Sleight of Hand check), he and any creatures touching him are instantly transported to a pocket dimension constructed to resemble a massive, fully furnished mansion made out of cards. Within its ever-shifting corridors, the PCs must defeat personifications of the negative cards or be immediately shunted back to the Material Plane and suffer the effects of the card that conquered them. If the PCs successfully reach the heart of the mansion, they find the positive result cards floating there. Each PC may choose one, whereupon he returns to the Material Plane and receives its effects. A creature may enter the House of Cards only once. Designing and mapping the adventure that results from characters entering the House of Cards is left up to the GM; such preparations should take place before introducing this artifact.<br><p><b>Base Item:</b> </p><h3><b>Requirements</b></h3><p></p><h3><b>Source: </b></h3>Classic Treasures",
      "unidentified": ""
    },
    "tags": [],
    "quantity": 1,
    "weight": {
      "value": 0
    },
    "price": 0,
    "size": "med",
    "equipped": true,
    "resizing": false,
    "identified": true,
    "hp": {
      "max": 10,
      "value": 10
    },
    "broken": false,
    "hardness": 0,
    "carried": true,
    "unidentified": {
      "price": 0,
      "name": ""
    },
    "cl": 20,
    "aura": {
      "custom": true,
      "school": "all schools"
    },
    "changes": [],
    "changeFlags": {
      "loseDexToAC": false,
      "noEncumbrance": false,
      "mediumArmorFullSpeed": false,
      "heavyArmorFullSpeed": false
    },
    "contextNotes": [],
    "actions": [],
    "uses": {
      "per": null,
      "value": 0,
      "maxFormula": "",
      "autoDeductChargesCost": "1"
    },
    "attackNotes": [],
    "effectNotes": [],
    "links": {
      "children": [],
      "charges": []
    },
    "tag": "haykalisHouseOfCardsArtifact",
    "useCustomTag": false,
    "flags": {
      "boolean": {},
      "dictionary": {}
    },
    "scriptCalls": [],
    "masterwork": false,
    "enh": null,
    "proficient": true,
    "held": "normal",
    "subType": "other",
    "baseTypes": [],
    "equipmentSubtype": "lightArmor",
    "armor": {
      "value": 0,
      "dex": null,
      "acp": 0,
      "enh": 0
    },
    "spellFailure": 0,
    "slot": "other",
    "showInQuickbar": false
  },
  "ownership": {
    "default": 0
  },
  "_stats": {
    "systemId": "pf1",
    "systemVersion": "9.1",
    "coreVersion": "10.291",
    "createdTime": 1665428264632,
    "modifiedTime": 1689794442797,
    "lastModifiedBy": "ppv91YxratjWnkJi"
  },
  "effects": [],
  "folder": null,
  "sort": 0,
  "flags": {},
  "_key": "!items!5CViivu11LekvHq7"
}