{
  "_id": "XHQVylmsuzKSHhTo",
  "name": "Heart Of The Herald [Artifact]",
  "type": "equipment",
  "img": "systems/pf1/icons/skills/yellow_30.jpg",
  "system": {
    "description": {
      "value": "<h2></b>Description</b></h2></p><p>This still-warm heart drips trickles of golden blood. Torn from the chest of the Herald of Iomedae, the Heart of the Herald has been corrupted with evil. Any lawful or good character who carries the heart gains 2 negative levels. These negative levels remain as long as the heart is carried, even if it's carried in an extradimensional space. These negative levels never result in actual level loss, but they can't be overcome in any way so long as the heart is carried, with one exception: a worshiper of Iomedae can cast atonement on the heart to suppress this effect for 24 hours.   Once per day, by squeezing the heart in the hand as a standard action, the user can cause all good outsiders within 60 feet to take 1 point of Constitution bleed. A successful DC 20 Fortitude save negates this effect. At the start of each round, a target may attempt a DC 20 Fortitude save to end the effect.   As long as it its carried, the Heart of the Herald grants SR 25 against all spells cast by worshipers of Iomedae and a +4 profane bonus on all saving throws against such spells.<br><p><b>Base Item:</b> </p><h3><b>Requirements</b></h3><p></p><h3><b>Source: </b></h3>AP 77",
      "unidentified": ""
    },
    "tags": [],
    "quantity": 1,
    "weight": {
      "value": 2
    },
    "price": 0,
    "size": "med",
    "equipped": true,
    "resizing": false,
    "identified": true,
    "hp": {
      "max": 10,
      "value": 10
    },
    "broken": false,
    "hardness": 0,
    "carried": true,
    "unidentified": {
      "price": 0,
      "name": ""
    },
    "cl": 20,
    "aura": {
      "custom": true,
      "school": "necromancy chaotic evil"
    },
    "changes": [],
    "changeFlags": {
      "loseDexToAC": false,
      "noEncumbrance": false,
      "mediumArmorFullSpeed": false,
      "heavyArmorFullSpeed": false
    },
    "contextNotes": [],
    "actions": [],
    "uses": {
      "per": null,
      "value": 0,
      "maxFormula": "",
      "autoDeductChargesCost": "1"
    },
    "attackNotes": [],
    "effectNotes": [],
    "links": {
      "children": [],
      "charges": []
    },
    "tag": "heartOfTheHeraldArtifact",
    "useCustomTag": false,
    "flags": {
      "boolean": {},
      "dictionary": {}
    },
    "scriptCalls": [],
    "masterwork": false,
    "enh": null,
    "proficient": true,
    "held": "normal",
    "subType": "other",
    "baseTypes": [],
    "equipmentSubtype": "lightArmor",
    "armor": {
      "value": 0,
      "dex": null,
      "acp": 0,
      "enh": 0
    },
    "spellFailure": 0,
    "slot": "other",
    "showInQuickbar": false
  },
  "ownership": {
    "default": 0
  },
  "_stats": {
    "systemId": "pf1",
    "systemVersion": "9.1",
    "coreVersion": "10.291",
    "createdTime": 1665428264931,
    "modifiedTime": 1689794447239,
    "lastModifiedBy": "ppv91YxratjWnkJi"
  },
  "effects": [],
  "folder": null,
  "sort": 0,
  "flags": {},
  "_key": "!items!XHQVylmsuzKSHhTo"
}