{
  "_id": "MqfMaddSkc83VsfZ",
  "name": "Heart's Bane [Artifact]",
  "type": "equipment",
  "img": "systems/pf1/icons/skills/yellow_30.jpg",
  "system": {
    "description": {
      "value": "<h2></b>Description</b></h2></p><p>This sword of twisted black silver has a burst of dark flames adorning the hilt and a pommel shaped like a pair of clawed hands. Its blade continually sheds an aura of shadow equivalent to the darkness spell. Heart's Bane is a mithral bastard's sting (Pathfinder RPG Ultimate Equipment 150); normally a +2 mithral longsword, it becomes a +5 unholy mithral longsword (with all of the other abilities of a bastard's sting) in the hands of an antipaladin. Heart's Bane also functions as a bane weapon against creatures that worship Iomedae.  Heart's Bane grants the following abilities when wielded by an evil creature. The wielder gains a +6 profane bonus to AC and 60 additional hit points. As a swift action up to eight times per day, the wielder can gain a profane bonus equal to the sword's enhancement bonus on a single Charisma-based skill check or Charisma ability check. As a standard action three times per day, the wielder can force a good creature to reflect on its past misdeeds and be overcome by grief, as per terrible remorse (Pathfinder RPG Ultimate Magic 243). Once per day, the wielder can swing Heart's Bane above her head as a standard action to create an incendiary cloud. Half the damage caused by the spell is fire damage and the other half results directly from unholy power and is therefore not subject to being reduced by resistance to fire-based attacks.<br><p><b>Base Item:</b> +2 mithral longsword|+5 unholy mithral longsword</p><h3><b>Requirements</b></h3><p></p><h3><b>Source: </b></h3>AP 108",
      "unidentified": ""
    },
    "tags": [],
    "quantity": 1,
    "weight": {
      "value": 2
    },
    "price": 0,
    "size": "med",
    "equipped": true,
    "resizing": false,
    "identified": true,
    "hp": {
      "max": 10,
      "value": 10
    },
    "broken": false,
    "hardness": 0,
    "carried": true,
    "unidentified": {
      "price": 0,
      "name": ""
    },
    "cl": 20,
    "aura": {
      "custom": true,
      "school": "abjuration and transmutation"
    },
    "changes": [],
    "changeFlags": {
      "loseDexToAC": false,
      "noEncumbrance": false,
      "mediumArmorFullSpeed": false,
      "heavyArmorFullSpeed": false
    },
    "contextNotes": [],
    "actions": [],
    "uses": {
      "per": null,
      "value": 0,
      "maxFormula": "",
      "autoDeductChargesCost": "1"
    },
    "attackNotes": [],
    "effectNotes": [],
    "links": {
      "children": [],
      "charges": []
    },
    "tag": "heartsBaneArtifact",
    "useCustomTag": false,
    "flags": {
      "boolean": {},
      "dictionary": {}
    },
    "scriptCalls": [],
    "masterwork": false,
    "enh": null,
    "proficient": true,
    "held": "normal",
    "subType": "other",
    "baseTypes": [],
    "equipmentSubtype": "lightArmor",
    "armor": {
      "value": 0,
      "dex": null,
      "acp": 0,
      "enh": 0
    },
    "spellFailure": 0,
    "slot": "other",
    "showInQuickbar": false
  },
  "ownership": {
    "default": 0
  },
  "_stats": {
    "systemId": "pf1",
    "systemVersion": "9.1",
    "coreVersion": "10.291",
    "createdTime": 1665428264820,
    "modifiedTime": 1689794444367,
    "lastModifiedBy": "ppv91YxratjWnkJi"
  },
  "effects": [],
  "folder": null,
  "sort": 0,
  "flags": {},
  "_key": "!items!MqfMaddSkc83VsfZ"
}