{
  "_id": "gwlItO06TrRhUTdb",
  "name": "Helicyon [Artifact]",
  "type": "equipment",
  "img": "systems/pf1/icons/skills/yellow_30.jpg",
  "system": {
    "description": {
      "value": "<h2></b>Description</b></h2></p><p>Helicyon is a +5 anchoringUE ghost touch holy quarterstaff. Helicyon can also appear as a walking stick and can assume its true form as a free action. Any time Helicyon deals damage, the creature struck must attempt a DC 25 Will saving throw. If it fails, the target becomes overwrought with remorse for events that took place in the course of its existence, even if it is denied, never had, or lost the capacity to feel emotion, as per overwhelming griefUM. This effect affects only creatures with Intelligence 3 or greater, even if they are normally immune to mind-affecting effects. Once affected or after a successful saving throw, the target becomes immune to this ability for 24 hours. As a standard action, Andoletta can summon Helicyon to her hand from any distance, even across planar boundaries.<br><p><b>Base Item:</b> +5 anchoring ghost touch holy quarterstaff</p><h3><b>Requirements</b></h3><p></p><h3><b>Source: </b></h3>Heaven Unleashed",
      "unidentified": ""
    },
    "tags": [],
    "quantity": 1,
    "weight": {
      "value": 4
    },
    "price": 0,
    "size": "med",
    "equipped": true,
    "resizing": false,
    "identified": true,
    "hp": {
      "max": 10,
      "value": 10
    },
    "broken": false,
    "hardness": 0,
    "carried": true,
    "unidentified": {
      "price": 0,
      "name": ""
    },
    "cl": 28,
    "aura": {
      "custom": true,
      "school": "varied"
    },
    "changes": [],
    "changeFlags": {
      "loseDexToAC": false,
      "noEncumbrance": false,
      "mediumArmorFullSpeed": false,
      "heavyArmorFullSpeed": false
    },
    "contextNotes": [],
    "actions": [],
    "uses": {
      "per": null,
      "value": 0,
      "maxFormula": "",
      "autoDeductChargesCost": "1"
    },
    "attackNotes": [],
    "effectNotes": [],
    "links": {
      "children": [],
      "charges": []
    },
    "tag": "helicyonArtifact",
    "useCustomTag": false,
    "flags": {
      "boolean": {},
      "dictionary": {}
    },
    "scriptCalls": [],
    "masterwork": false,
    "enh": null,
    "proficient": true,
    "held": "normal",
    "subType": "other",
    "baseTypes": [],
    "equipmentSubtype": "lightArmor",
    "armor": {
      "value": 0,
      "dex": null,
      "acp": 0,
      "enh": 0
    },
    "spellFailure": 0,
    "slot": "other",
    "showInQuickbar": false
  },
  "ownership": {
    "default": 0
  },
  "_stats": {
    "systemId": "pf1",
    "systemVersion": "9.1",
    "coreVersion": "10.291",
    "createdTime": 1665428265088,
    "modifiedTime": 1689794448417,
    "lastModifiedBy": "ppv91YxratjWnkJi"
  },
  "effects": [],
  "folder": null,
  "sort": 0,
  "flags": {},
  "_key": "!items!gwlItO06TrRhUTdb"
}