{
  "_id": "UXoAhFno9tGlkcMT",
  "name": "Hellfire Halo [Artifact]",
  "type": "equipment",
  "img": "systems/pf1/icons/skills/yellow_30.jpg",
  "system": {
    "description": {
      "value": "<h2></b>Description</b></h2></p><p>This tarnished ring looks like a fiery halo set ablaze in evil-looking fire. The flames are harmless and shed light as an everburning torch; the wearer can suppress or activate these flames as a swift action. A hellfire halo functions as a headband of mental superiority +2 that grants ranks in Intimidate. If the flames of the halo are burning, the wearer becomes immune to the effects of an archon's aura of menace and ignores the protective aura of any angel he attacks. In addition, up to three times per day as he strikes any creature under the effects of a holy aura, the wearer can attempt to dispel that effect as if casting a quickened dispel magic (CL 16th). The first time each day that the wearer is attacked by a creature using smite good, that smite effect immediately ends and is wasted, and the creature making the attack must succeed at a DC 20 Will save or be staggered for 1d4 rounds.<br><p><b>Base Item:</b> </p><h3><b>Requirements</b></h3><p></p><h3><b>Source: </b></h3>AP 107",
      "unidentified": ""
    },
    "tags": [],
    "quantity": 1,
    "weight": {
      "value": 1
    },
    "price": 0,
    "size": "med",
    "equipped": true,
    "resizing": false,
    "identified": true,
    "hp": {
      "max": 10,
      "value": 10
    },
    "broken": false,
    "hardness": 0,
    "carried": true,
    "unidentified": {
      "price": 0,
      "name": ""
    },
    "cl": 16,
    "aura": {
      "custom": true,
      "school": "abjuration and transmutation"
    },
    "changes": [],
    "changeFlags": {
      "loseDexToAC": false,
      "noEncumbrance": false,
      "mediumArmorFullSpeed": false,
      "heavyArmorFullSpeed": false
    },
    "contextNotes": [],
    "actions": [],
    "uses": {
      "per": null,
      "value": 0,
      "maxFormula": "",
      "autoDeductChargesCost": "1"
    },
    "attackNotes": [],
    "effectNotes": [],
    "links": {
      "children": [],
      "charges": []
    },
    "tag": "hellfireHaloArtifact",
    "useCustomTag": false,
    "flags": {
      "boolean": {},
      "dictionary": {}
    },
    "scriptCalls": [],
    "masterwork": false,
    "enh": null,
    "proficient": true,
    "held": "normal",
    "subType": "other",
    "baseTypes": [],
    "equipmentSubtype": "lightArmor",
    "armor": {
      "value": 0,
      "dex": null,
      "acp": 0,
      "enh": 0
    },
    "spellFailure": 0,
    "slot": "other",
    "showInQuickbar": false
  },
  "ownership": {
    "default": 0
  },
  "_stats": {
    "systemId": "pf1",
    "systemVersion": "9.1",
    "coreVersion": "10.291",
    "createdTime": 1665428264906,
    "modifiedTime": 1689794446827,
    "lastModifiedBy": "ppv91YxratjWnkJi"
  },
  "effects": [],
  "folder": null,
  "sort": 0,
  "flags": {},
  "_key": "!items!UXoAhFno9tGlkcMT"
}