{
  "_id": "poxw0YwTOqJlWcTz",
  "name": "Imago Lens [Artifact]",
  "type": "equipment",
  "img": "systems/pf1/icons/skills/yellow_30.jpg",
  "system": {
    "description": {
      "value": "<h2></b>Description</b></h2></p><p>The imago lens appears as a 3-foot-diameter semitransparent disc of amber gripped in the jaws of a metal demonic frame. This device functions as a crystal ball with telepathy and true seeing-a successful DC 24 Will save allows a creature to resist being scried upon by the imago lens. Once per day, the imago lens may instead be used to create a projected image of the user, as the spell project image. The user may project this image into any location she has observed before, either in person or via scrying. Once the image is projected, the user can sense the world around the image as if she were there, communicate with nearby creatures, and even cast spells. The image cannot move from its current location. Using this effect is not without risk; if the image is dispelled, the user must succeed at a DC 25 Fortitude save or take 4d6 points of Constitution drain as her body reels from the sudden disconnection and her soul is warped and twisted by the lens's powerful magic. The imago lens is a chaotic evil artifact, and each time it is used, a non-chaotic-evil user must also succeed at a DC 25 Will save to resist having her alignment shift one step closer to chaotic evil.<br><p><b>Base Item:</b> </p><h3><b>Requirements</b></h3><p></p><h3><b>Source: </b></h3>AP 76",
      "unidentified": ""
    },
    "tags": [],
    "quantity": 1,
    "weight": {
      "value": 80
    },
    "price": 0,
    "size": "med",
    "equipped": true,
    "resizing": false,
    "identified": true,
    "hp": {
      "max": 10,
      "value": 10
    },
    "broken": false,
    "hardness": 0,
    "carried": true,
    "unidentified": {
      "price": 0,
      "name": ""
    },
    "cl": 25,
    "aura": {
      "custom": true,
      "school": "illusion chaotic evil"
    },
    "changes": [],
    "changeFlags": {
      "loseDexToAC": false,
      "noEncumbrance": false,
      "mediumArmorFullSpeed": false,
      "heavyArmorFullSpeed": false
    },
    "contextNotes": [],
    "actions": [],
    "uses": {
      "per": null,
      "value": 0,
      "maxFormula": "",
      "autoDeductChargesCost": "1"
    },
    "attackNotes": [],
    "effectNotes": [],
    "links": {
      "children": [],
      "charges": []
    },
    "tag": "imagoLensArtifact",
    "useCustomTag": false,
    "flags": {
      "boolean": {},
      "dictionary": {}
    },
    "scriptCalls": [],
    "masterwork": false,
    "enh": null,
    "proficient": true,
    "held": "normal",
    "subType": "other",
    "baseTypes": [],
    "equipmentSubtype": "lightArmor",
    "armor": {
      "value": 0,
      "dex": null,
      "acp": 0,
      "enh": 0
    },
    "spellFailure": 0,
    "slot": "other",
    "showInQuickbar": false
  },
  "ownership": {
    "default": 0
  },
  "_stats": {
    "systemId": "pf1",
    "systemVersion": "9.1",
    "coreVersion": "10.291",
    "createdTime": 1665428265180,
    "modifiedTime": 1689794450041,
    "lastModifiedBy": "ppv91YxratjWnkJi"
  },
  "effects": [],
  "folder": null,
  "sort": 0,
  "flags": {},
  "_key": "!items!poxw0YwTOqJlWcTz"
}