{
  "_id": "Eq16CDtVBRrwNeFG",
  "name": "Maleficus Spike [Artifact]",
  "type": "equipment",
  "img": "systems/pf1/icons/skills/yellow_30.jpg",
  "system": {
    "description": {
      "value": "<h2></b>Description</b></h2></p><p>A maleficus spike is an ancient item forged of cold iron with an adamantine core designed to keep demons at bay. When driven into the wall of a building, a maleficus spike infuses the walls of the structure with a dimensional lock effect and a ward that repels evil outsiders. Any outsider with the evil subtype that tries to enter or damage the warded building must attempt a DC 30 Will save. If it fails, the outsider takes 12d6 points of damage and becomes nauseated for 1 hour. An outsider that remains inside a building warded in this manner must make a new Will save each round to avoid damage and nausea. The effect is lessened against non-outsider evil creatures, but they too are affected-such creatures gain a +4 bonus on their Will saves, take only 4d6 points of damage on a failed save, and are nauseated for only 1 minute.  The stone and doors of a structure warded by a maleficus spike are considered to be magically treated (+20 to Break DCs, double hardness, and double hit points). Additionally, the structure self-repairs damage at the rate of 5 points of damage per round, provided the damage was inflicted while the maleficus spike was functioning; the spike can't repair existing damage when it is installed.  A maleficus spike consumes an enormous amount of magical energy. It contains enough energy to ward a structure for 24 hours, after which it becomes dormant until recharged. Recharging a maleficus spike requires a spellcaster to spend 10 minutes in contact with the spike, after which the spellcaster selects a number of spell slots totaling no fewer than 24 spell levels to expend to infuse the artifact with enough energy to ward the structure for another 24 hours. Prepared spells in these slots are lost for a day, and for spontaneous spellcasters those slots are used for a day. Spell-like abilities cannot be used to fuel a maleficus spike.<br><p><b>Base Item:</b> </p><h3><b>Requirements</b></h3><p></p><h3><b>Source: </b></h3>Artifacts and Legends",
      "unidentified": ""
    },
    "tags": [],
    "quantity": 1,
    "weight": {
      "value": 16
    },
    "price": 0,
    "size": "med",
    "equipped": true,
    "resizing": false,
    "identified": true,
    "hp": {
      "max": 10,
      "value": 10
    },
    "broken": false,
    "hardness": 0,
    "carried": true,
    "unidentified": {
      "price": 0,
      "name": ""
    },
    "cl": 20,
    "aura": {
      "custom": true,
      "school": "abjuration"
    },
    "changes": [],
    "changeFlags": {
      "loseDexToAC": false,
      "noEncumbrance": false,
      "mediumArmorFullSpeed": false,
      "heavyArmorFullSpeed": false
    },
    "contextNotes": [],
    "actions": [],
    "uses": {
      "per": null,
      "value": 0,
      "maxFormula": "",
      "autoDeductChargesCost": "1"
    },
    "attackNotes": [],
    "effectNotes": [],
    "links": {
      "children": [],
      "charges": []
    },
    "tag": "maleficusSpikeArtifact",
    "useCustomTag": false,
    "flags": {
      "boolean": {},
      "dictionary": {}
    },
    "scriptCalls": [],
    "masterwork": false,
    "enh": null,
    "proficient": true,
    "held": "normal",
    "subType": "other",
    "baseTypes": [],
    "equipmentSubtype": "lightArmor",
    "armor": {
      "value": 0,
      "dex": null,
      "acp": 0,
      "enh": 0
    },
    "spellFailure": 0,
    "slot": "other",
    "showInQuickbar": false
  },
  "ownership": {
    "default": 0
  },
  "_stats": {
    "systemId": "pf1",
    "systemVersion": "9.1",
    "coreVersion": "10.291",
    "createdTime": 1665428264740,
    "modifiedTime": 1689794443605,
    "lastModifiedBy": "ppv91YxratjWnkJi"
  },
  "effects": [],
  "folder": null,
  "sort": 0,
  "flags": {},
  "_key": "!items!Eq16CDtVBRrwNeFG"
}