{
  "_id": "v6LUw5SXeNOKfNp2",
  "name": "Mantis Blade [Artifact]",
  "type": "equipment",
  "img": "systems/pf1/icons/skills/yellow_30.jpg",
  "system": {
    "description": {
      "value": "<h2></b>Description</b></h2></p><p>The mantis blade is an intelligent +2 axiomatic sawtooth sabreUE made of red chitin that forms a curved, serrated blade. It grants its wielder the ability to make a sneak attack that deals 1d6 points of damage. This ability functions as the rogue class feature of the same name, and the extra damage stacks with any sneak attack bonuses the wielder already has. When a creature is wounded with the blade, the wielder can activate the blade's bane weapon special ability as a swift action (granting the weapon an additional +2 enhancement bonus and causing it to do an extra 2d6 points of damage, but only against the type of creature struck). The bane ability lasts for 10 minutes and is usable once per day. Sacred to the faith of the mantis god Achaekek, a mantis blade also grants bonuses to a Red Mantis assassin who wields it. A Red Mantis assassin wielding a mantis blade gains a +2 bonus to the DC of her prayer attack and gains an additional use per day of both her red shroud and fading abilities. To date, only one mantis blade is known to exist, after it was recovered from a lost city in the Mwangi Expanse, but ancient texts suggest others remain yet to be recovered.<br><p><b>Base Item:</b> +2 axiomatic sawtooth sabre</p><h3><b>Requirements</b></h3><p></p><h3><b>Source: </b></h3>Adventurer's Guide",
      "unidentified": ""
    },
    "tags": [],
    "quantity": 1,
    "weight": {
      "value": 2
    },
    "price": 0,
    "size": "med",
    "equipped": true,
    "resizing": false,
    "identified": true,
    "hp": {
      "max": 10,
      "value": 10
    },
    "broken": false,
    "hardness": 0,
    "carried": true,
    "unidentified": {
      "price": 0,
      "name": ""
    },
    "cl": 20,
    "aura": {
      "custom": true,
      "school": "evocation"
    },
    "changes": [],
    "changeFlags": {
      "loseDexToAC": false,
      "noEncumbrance": false,
      "mediumArmorFullSpeed": false,
      "heavyArmorFullSpeed": false
    },
    "contextNotes": [],
    "actions": [],
    "uses": {
      "per": null,
      "value": 0,
      "maxFormula": "",
      "autoDeductChargesCost": "1"
    },
    "attackNotes": [],
    "effectNotes": [],
    "links": {
      "children": [],
      "charges": []
    },
    "tag": "mantisBladeArtifact",
    "useCustomTag": false,
    "flags": {
      "boolean": {},
      "dictionary": {}
    },
    "scriptCalls": [],
    "masterwork": false,
    "enh": null,
    "proficient": true,
    "held": "normal",
    "subType": "other",
    "baseTypes": [],
    "equipmentSubtype": "lightArmor",
    "armor": {
      "value": 0,
      "dex": null,
      "acp": 0,
      "enh": 0
    },
    "spellFailure": 0,
    "slot": "other",
    "showInQuickbar": false
  },
  "ownership": {
    "default": 0
  },
  "_stats": {
    "systemId": "pf1",
    "systemVersion": "9.1",
    "coreVersion": "10.291",
    "createdTime": 1665428265220,
    "modifiedTime": 1689794450579,
    "lastModifiedBy": "ppv91YxratjWnkJi"
  },
  "effects": [],
  "folder": null,
  "sort": 0,
  "flags": {},
  "_key": "!items!v6LUw5SXeNOKfNp2"
}