{
  "_id": "OTH5RLDmQKBSya5s",
  "name": "Mirror Of Soul Snaring [Cursed]",
  "type": "equipment",
  "img": "systems/pf1/icons/skills/yellow_30.jpg",
  "system": {
    "description": {
      "value": "<h2></b>Description</b></h2></p><p>This normal mirror is roughly 4 feet long and 3 feet wide. It is similar to a mirror of opposition or mirror of life trapping, but it lacks a command word. A mirror of soul snaring has 15 extradimensional compartments within it. Any creature coming within 30 feet of the device and looking at its own reflection must succeed at a DC 23 Will save or have its soul sucked into one of the compartments. A creature not aware of the cursed nature of the device always sees its own reflection. The probability of a creature seeing its reflection and thus needing to attempt the saving throw drops to 50% if the creature is aware that the mirror is cursed and seeks to avoid looking at it (treat as a gaze attack).  When a creature's soul is trapped, its body remains outside of the mirror. The body becomes possessed by a malignant spirit who behaves in a way entirely opposed to how the trapped creature would. Treat this spirit as the creature, with  a reversed alignment (and potentially other factors reversed, such as being an antipaladin instead of a paladin). In the case of neutral characters, the spirit can be either chaotic evil or lawful good as decided by the GM. The death of the creature's original body does not free its soul from the mirror, though if it is ever set free, it immediately passes on to the afterlife as it no longer has a body to inhabit.  If the mirror's capacity is exceeded, one victim's soul (determined randomly) is set free and immediately reconnects with its duplicate body if available. If the mirror is destroyed (hardness 1, 5 hit points), all victims currently trapped in it are freed. Unless the mirror is destroyed, not even a miracle or wish can restore the trapped creature's spirit to its body.<br><p><b>Base Item:</b> </p><h3><b>Requirements</b></h3><p></p><h3><b>Source: </b></h3>Occult Adventures",
      "unidentified": ""
    },
    "tags": [],
    "quantity": 1,
    "weight": {
      "value": 45
    },
    "price": 0,
    "size": "med",
    "equipped": true,
    "resizing": false,
    "identified": true,
    "hp": {
      "max": 10,
      "value": 10
    },
    "broken": false,
    "hardness": 0,
    "carried": true,
    "unidentified": {
      "price": 0,
      "name": ""
    },
    "cl": 15,
    "aura": {
      "custom": true,
      "school": "necromancy"
    },
    "changes": [],
    "changeFlags": {
      "loseDexToAC": false,
      "noEncumbrance": false,
      "mediumArmorFullSpeed": false,
      "heavyArmorFullSpeed": false
    },
    "contextNotes": [],
    "actions": [],
    "uses": {
      "per": null,
      "value": 0,
      "maxFormula": "",
      "autoDeductChargesCost": "1"
    },
    "attackNotes": [],
    "effectNotes": [],
    "links": {
      "children": [],
      "charges": []
    },
    "tag": "mirrorOfSoulSnaringCursed",
    "useCustomTag": false,
    "flags": {
      "boolean": {},
      "dictionary": {}
    },
    "scriptCalls": [],
    "masterwork": false,
    "enh": null,
    "proficient": true,
    "held": "normal",
    "subType": "other",
    "baseTypes": [],
    "equipmentSubtype": "lightArmor",
    "armor": {
      "value": 0,
      "dex": null,
      "acp": 0,
      "enh": 0
    },
    "spellFailure": 0,
    "slot": "other",
    "showInQuickbar": false
  },
  "ownership": {
    "default": 0
  },
  "_stats": {
    "systemId": "pf1",
    "systemVersion": "9.1",
    "coreVersion": "10.291",
    "createdTime": 1665428264839,
    "modifiedTime": 1689794444609,
    "lastModifiedBy": "ppv91YxratjWnkJi"
  },
  "effects": [],
  "folder": null,
  "sort": 0,
  "flags": {},
  "_key": "!items!OTH5RLDmQKBSya5s"
}