{
  "_id": "xDRu08PxMTD3JiYR",
  "name": "Mirror Of Sorshen [Artifact]",
  "type": "equipment",
  "img": "systems/pf1/icons/skills/yellow_30.jpg",
  "system": {
    "description": {
      "value": "<h2></b>Description</b></h2></p><p>Whenever an intelligent creature looks in this beautiful mirror, the mirror shows an image of a person, creature, or item that the observer finds irresistible-most often one that the observer finds sensually arousing. The specific image shown varies from person to person, even when more than one person looks into the mirror at the same time. The mirror's effect functions as a gaze attack that affects everyone who sees the surface of the mirror, which the bearer can actively direct at a target as a standard action. Unless an observer succeeds at a DC 27 Will save, she is fascinated, staring blankly at the mirror for as long as it remains in view and for 2d4 minutes thereafter, during which she continues to stare in the direction she last saw the mirror. Unlike the normal fascinated condition, the effect created by the mirror is not automatically broken by an obvious threat; instead, a fascinated creature receives a new saving throw for each such threat, with a +6 circumstance bonus. At the GM's discretion, a truly innocent creature or a character who  has renounced all worldly pleasures may be immune to the mirror's fascination effect.  While a creature is fascinated by the Mirror of Sorshen, the artifact's bearer can speak a command word to compel her service for 30 days (as per dominate monster with no saving throw). There is no limit to the number of such thralls a bearer can have. The domination effect ends for a victim after 30 days, but if the victim sees the mirror again at any point before this duration expires, it is automatically extended for an additional 30 days from the moment it caught sight of the mirror anew.<br><p><b>Base Item:</b> </p><h3><b>Requirements</b></h3><p></p><h3><b>Source: </b></h3>AP 137",
      "unidentified": ""
    },
    "tags": [],
    "quantity": 1,
    "weight": {
      "value": 2
    },
    "price": 0,
    "size": "med",
    "equipped": true,
    "resizing": false,
    "identified": true,
    "hp": {
      "max": 10,
      "value": 10
    },
    "broken": false,
    "hardness": 0,
    "carried": true,
    "unidentified": {
      "price": 0,
      "name": ""
    },
    "cl": 25,
    "aura": {
      "custom": true,
      "school": "enchantment"
    },
    "changes": [],
    "changeFlags": {
      "loseDexToAC": false,
      "noEncumbrance": false,
      "mediumArmorFullSpeed": false,
      "heavyArmorFullSpeed": false
    },
    "contextNotes": [],
    "actions": [],
    "uses": {
      "per": null,
      "value": 0,
      "maxFormula": "",
      "autoDeductChargesCost": "1"
    },
    "attackNotes": [],
    "effectNotes": [],
    "links": {
      "children": [],
      "charges": []
    },
    "tag": "mirrorOfSorshenArtifact",
    "useCustomTag": false,
    "flags": {
      "boolean": {},
      "dictionary": {}
    },
    "scriptCalls": [],
    "masterwork": false,
    "enh": null,
    "proficient": true,
    "held": "normal",
    "subType": "other",
    "baseTypes": [],
    "equipmentSubtype": "lightArmor",
    "armor": {
      "value": 0,
      "dex": null,
      "acp": 0,
      "enh": 0
    },
    "spellFailure": 0,
    "slot": "other",
    "showInQuickbar": false
  },
  "ownership": {
    "default": 0
  },
  "_stats": {
    "systemId": "pf1",
    "systemVersion": "9.1",
    "coreVersion": "10.291",
    "createdTime": 1665428265241,
    "modifiedTime": 1689794450946,
    "lastModifiedBy": "ppv91YxratjWnkJi"
  },
  "effects": [],
  "folder": null,
  "sort": 0,
  "flags": {},
  "_key": "!items!xDRu08PxMTD3JiYR"
}