{
  "_id": "CWPT2zXWsALwVINR",
  "name": "Mythic Amulet Of The Abyss [Artifact]",
  "type": "equipment",
  "img": "systems/pf1/icons/skills/yellow_30.jpg",
  "system": {
    "description": {
      "value": "<h2></b>Description</b></h2></p><p>A mythic amulet of the Abyss bears the rune of a single demon lord on its face, indicating the lord to which the amulet is attuned. At its basest, a mythic amulet of the Abyss functions as an unholy symbol to this demon lord as well as a phylactery of faithfulness.  A mythic amulet of the Abyss grants its wearer all three of the demon lord's boons, regardless of the wearer's actual level. It grants all of the first boon's spell-like abilities at will. The amulet found in this adventure is associated with Baphomet, and as such it grants the following boons (see Pathfinder Campaign Setting: Lords of Chaos, Book of the Damned, Vol. 2 for details on other demon lords' boons):  • Beast shape I, misdirection, and summon monster I at will.  • Once per day, the wearer can change shape into a minotaur for 1 hour, gaining a +4 size bonus to Strength and taking a -2 penalty to Charisma. If the wearer is actually a minotaur, she can instead assume a humanoid form at will; this change of form does not alter the wearer's ability scores.  • Extended maze 1/day.  Additionally, the wearer of the amulet gains a +4 enhancement bonus to natural armor, immunity to electricity and poison, and resistance 10 to acid, cold, and fire.  Any lawful or good character who wears this amulet gains 2 negative levels. These negative levels remain as long as the amulet is worn. These negative levels never result in actual level loss, but they can't be overcome in any way as long as the amulet is worn.<br><p><b>Base Item:</b> </p><h3><b>Requirements</b></h3><p></p><h3><b>Source: </b></h3>AP 77",
      "unidentified": ""
    },
    "tags": [],
    "quantity": 1,
    "weight": {
      "value": 0
    },
    "price": 0,
    "size": "med",
    "equipped": true,
    "resizing": false,
    "identified": true,
    "hp": {
      "max": 10,
      "value": 10
    },
    "broken": false,
    "hardness": 0,
    "carried": true,
    "unidentified": {
      "price": 0,
      "name": ""
    },
    "cl": 15,
    "aura": {
      "custom": true,
      "school": "conjuration [chaotic evil]"
    },
    "changes": [],
    "changeFlags": {
      "loseDexToAC": false,
      "noEncumbrance": false,
      "mediumArmorFullSpeed": false,
      "heavyArmorFullSpeed": false
    },
    "contextNotes": [],
    "actions": [],
    "uses": {
      "per": null,
      "value": 0,
      "maxFormula": "",
      "autoDeductChargesCost": "1"
    },
    "attackNotes": [],
    "effectNotes": [],
    "links": {
      "children": [],
      "charges": []
    },
    "tag": "mythicAmuletOfTheAbyssArtifact",
    "useCustomTag": false,
    "flags": {
      "boolean": {},
      "dictionary": {}
    },
    "scriptCalls": [],
    "masterwork": false,
    "enh": null,
    "proficient": true,
    "held": "normal",
    "subType": "other",
    "baseTypes": [],
    "equipmentSubtype": "lightArmor",
    "armor": {
      "value": 0,
      "dex": null,
      "acp": 0,
      "enh": 0
    },
    "spellFailure": 0,
    "slot": "other",
    "showInQuickbar": false
  },
  "ownership": {
    "default": 0
  },
  "_stats": {
    "systemId": "pf1",
    "systemVersion": "9.1",
    "coreVersion": "10.291",
    "createdTime": 1665428264713,
    "modifiedTime": 1689794443396,
    "lastModifiedBy": "ppv91YxratjWnkJi"
  },
  "effects": [],
  "folder": null,
  "sort": 0,
  "flags": {},
  "_key": "!items!CWPT2zXWsALwVINR"
}