{
  "_id": "TQaBuHZGthHQReWY",
  "name": "Portal Network [Artifact]",
  "type": "equipment",
  "img": "systems/pf1/icons/skills/yellow_30.jpg",
  "system": {
    "description": {
      "value": "<h2></b>Description</b></h2></p><p>Runes adorn this massive ring of iron. Each gate of a portal network is bound to at least one other such gate and instantly transports any creature who steps through it to its mate, anywhere on the same plane or any other plane. Portal network gates allow the passage of Large or smaller creatures. Huge creatures are not transported, even if they manage to squeeze through the ring. If the destination gate is obstructed by an immovable object, the network fails to function.  Portal networks with more than two gates distinguish between destinations via focal objects chosen by the gates' creators. Typical focal objects include gems, minor magic items, and carefully drawn sigils. Some gates fail to function at all if entered without a focal object, whereas others transport the subject to a default location. Creatures can share a focal object by touching each other as they pass through the gate. Gates with multiple focal objects have a set priority (established at the creation of the portal network) that determines which focal objects supersede the others.  Portal networks work an unlimited number of times. Once a gate is activated, impenetrable darkness fills the gate's ring until 1 round after the last creature passes through. A creature doesn't reach the other end until it passes fully through the ring, and can't see the other side until it finishes passing through.  If a portal network requires a focal object, only creatures using a focal object or touching someone else who is can pass through a gate, even if the gate is activated. Obstructing a gate (such as by building a wall against the gate's opening) prevents anyone from passing through, but a creature standing in the way does not; a creature occupying the gate is pushed aside once anyone passes through.<br><p><b>Base Item:</b> </p><h3><b>Requirements</b></h3><p></p><h3><b>Source: </b></h3>Occult Adventures",
      "unidentified": ""
    },
    "tags": [],
    "quantity": 1,
    "weight": {
      "value": 64000
    },
    "price": 0,
    "size": "med",
    "equipped": true,
    "resizing": false,
    "identified": true,
    "hp": {
      "max": 10,
      "value": 10
    },
    "broken": false,
    "hardness": 0,
    "carried": true,
    "unidentified": {
      "price": 0,
      "name": ""
    },
    "cl": 20,
    "aura": {
      "custom": true,
      "school": "conjuration"
    },
    "changes": [],
    "changeFlags": {
      "loseDexToAC": false,
      "noEncumbrance": false,
      "mediumArmorFullSpeed": false,
      "heavyArmorFullSpeed": false
    },
    "contextNotes": [],
    "actions": [],
    "uses": {
      "per": null,
      "value": 0,
      "maxFormula": "",
      "autoDeductChargesCost": "1"
    },
    "attackNotes": [],
    "effectNotes": [],
    "links": {
      "children": [],
      "charges": []
    },
    "tag": "portalNetworkArtifact",
    "useCustomTag": false,
    "flags": {
      "boolean": {},
      "dictionary": {}
    },
    "scriptCalls": [],
    "masterwork": false,
    "enh": null,
    "proficient": true,
    "held": "normal",
    "subType": "other",
    "baseTypes": [],
    "equipmentSubtype": "lightArmor",
    "armor": {
      "value": 0,
      "dex": null,
      "acp": 0,
      "enh": 0
    },
    "spellFailure": 0,
    "slot": "other",
    "showInQuickbar": false
  },
  "ownership": {
    "default": 0
  },
  "_stats": {
    "systemId": "pf1",
    "systemVersion": "9.1",
    "coreVersion": "10.291",
    "createdTime": 1665428264896,
    "modifiedTime": 1689794446500,
    "lastModifiedBy": "ppv91YxratjWnkJi"
  },
  "effects": [],
  "folder": null,
  "sort": 0,
  "flags": {},
  "_key": "!items!TQaBuHZGthHQReWY"
}