{
  "_id": "4JSDjmFKS8ADHbjB",
  "name": "Primordial Symbol [Artifact]",
  "type": "equipment",
  "img": "systems/pf1/icons/skills/yellow_30.jpg",
  "system": {
    "description": {
      "value": "<h2></b>Description</b></h2></p><p>Its origin lost in the infinite expanse of time, a primordial symbol is a polished stone bearing a mystic sign that resembles a lopsided, two-barred cross. When held forth and invoked by a bearer who is able to cast psychic spells or has the Psychic Sensitivity feat, a primordial symbol flares with an invisible flash in a 100-foot-radius burst, which has the following effects on those in range.  • Creatures with 40 Hit Dice or fewer with the extraplanar subtype are returned to their home planes as though by the banishment spell, regardless of spell resistance and with no save permitted. This includes extraplanar entities possessing other creatures.  • Any non-extraplanar entities possessing other creatures or extraplanar entities with more than 40 Hit Dice possessing other creatures are driven out of their hosts.  • All eidolons, medium spirits, and phantoms are dismissed.  • All psychic spells in the area are dispelled as though by greater dispel magic, with no caster level check required.  • All abjuration effects and magic circles in the area are similarly dispelled.  • All creatures are blinded for 1 round (Reflex DC 22 negates).  Other creatures and objects within the area are otherwise unharmed. When the symbol is activated, its wielder takes 2d6 points of Intelligence, Wisdom, and Charisma damage, rolled separately for each ability. The primordial symbol then collapses in on itself and vanishes, only to reappear unharmed in a distant land or world.<br><p><b>Base Item:</b> </p><h3><b>Requirements</b></h3><p></p><h3><b>Source: </b></h3>Occult Adventures",
      "unidentified": ""
    },
    "tags": [],
    "quantity": 1,
    "weight": {
      "value": 1
    },
    "price": 0,
    "size": "med",
    "equipped": true,
    "resizing": false,
    "identified": true,
    "hp": {
      "max": 10,
      "value": 10
    },
    "broken": false,
    "hardness": 0,
    "carried": true,
    "unidentified": {
      "price": 0,
      "name": ""
    },
    "cl": 20,
    "aura": {
      "custom": true,
      "school": "abjuration"
    },
    "changes": [],
    "changeFlags": {
      "loseDexToAC": false,
      "noEncumbrance": false,
      "mediumArmorFullSpeed": false,
      "heavyArmorFullSpeed": false
    },
    "contextNotes": [],
    "actions": [],
    "uses": {
      "per": null,
      "value": 0,
      "maxFormula": "",
      "autoDeductChargesCost": "1"
    },
    "attackNotes": [],
    "effectNotes": [],
    "links": {
      "children": [],
      "charges": []
    },
    "tag": "primordialSymbolArtifact",
    "useCustomTag": false,
    "flags": {
      "boolean": {},
      "dictionary": {}
    },
    "scriptCalls": [],
    "masterwork": false,
    "enh": null,
    "proficient": true,
    "held": "normal",
    "subType": "other",
    "baseTypes": [],
    "equipmentSubtype": "lightArmor",
    "armor": {
      "value": 0,
      "dex": null,
      "acp": 0,
      "enh": 0
    },
    "spellFailure": 0,
    "slot": "other",
    "showInQuickbar": false
  },
  "ownership": {
    "default": 0
  },
  "_stats": {
    "systemId": "pf1",
    "systemVersion": "9.1",
    "coreVersion": "10.291",
    "createdTime": 1665428264620,
    "modifiedTime": 1689794442665,
    "lastModifiedBy": "ppv91YxratjWnkJi"
  },
  "effects": [],
  "folder": null,
  "sort": 0,
  "flags": {},
  "_key": "!items!4JSDjmFKS8ADHbjB"
}