{
  "_id": "ufDqpTkayMu6VnvH",
  "name": "Runescarred Dragonship [Artifact]",
  "type": "equipment",
  "img": "systems/pf1/icons/skills/yellow_30.jpg",
  "system": {
    "description": {
      "value": "<h2></b>Description</b></h2></p><p>This decrepit longship seems barely seaworthy. Its boards are splintered and it is branded with a number of angular runes, each said to bind the soul of a sailor to the vessel. Due to its powerful magic, it is seaworthy and very fast (though it doesn't offer its passengers much in the way of comfort). It needs no crew. Creatures that spend a week on the boat (which is usually discovered drifting aimlessly at sea) find that they can control the boat by just speaking the name of a port or a description of a specific destination that can be reached by way of the sea the runescarred dragonship is currently sailing. The runescarred dragonship then sets sail toward that destination. It always takes the safest path, navigationally speaking, to the spoken destination. If there is more than one creature capable of giving the boat commands, the runescarred dragonship gives each order equal weight, changing its course each time a new command is given. A runescarred dragonship can carry 5 tons of cargo or 120 Medium creatures. It moves at a rate of 10 miles per hour.<br><p><b>Base Item:</b> </p><h3><b>Requirements</b></h3><p></p><h3><b>Source: </b></h3>Ultimate Equipment",
      "unidentified": ""
    },
    "tags": [],
    "quantity": 1,
    "weight": {
      "value": 52000
    },
    "price": 0,
    "size": "med",
    "equipped": true,
    "resizing": false,
    "identified": true,
    "hp": {
      "max": 10,
      "value": 10
    },
    "broken": false,
    "hardness": 0,
    "carried": true,
    "unidentified": {
      "price": 0,
      "name": ""
    },
    "cl": 13,
    "aura": {
      "custom": true,
      "school": "divination and necromancy"
    },
    "changes": [],
    "changeFlags": {
      "loseDexToAC": false,
      "noEncumbrance": false,
      "mediumArmorFullSpeed": false,
      "heavyArmorFullSpeed": false
    },
    "contextNotes": [],
    "actions": [],
    "uses": {
      "per": null,
      "value": 0,
      "maxFormula": "",
      "autoDeductChargesCost": "1"
    },
    "attackNotes": [],
    "effectNotes": [],
    "links": {
      "children": [],
      "charges": []
    },
    "tag": "runescarredDragonshipArtifact",
    "useCustomTag": false,
    "flags": {
      "boolean": {},
      "dictionary": {}
    },
    "scriptCalls": [],
    "masterwork": false,
    "enh": null,
    "proficient": true,
    "held": "normal",
    "subType": "other",
    "baseTypes": [],
    "equipmentSubtype": "lightArmor",
    "armor": {
      "value": 0,
      "dex": null,
      "acp": 0,
      "enh": 0
    },
    "spellFailure": 0,
    "slot": "other",
    "showInQuickbar": false
  },
  "ownership": {
    "default": 0
  },
  "_stats": {
    "systemId": "pf1",
    "systemVersion": "9.1",
    "coreVersion": "10.291",
    "createdTime": 1665428265215,
    "modifiedTime": 1689794450521,
    "lastModifiedBy": "ppv91YxratjWnkJi"
  },
  "effects": [],
  "folder": null,
  "sort": 0,
  "flags": {},
  "_key": "!items!ufDqpTkayMu6VnvH"
}