{
  "_id": "cLpr4lYJSwnohMxL",
  "name": "Runewarded Gauntlets [Artifact]",
  "type": "equipment",
  "img": "systems/pf1/icons/skills/yellow_30.jpg",
  "system": {
    "description": {
      "value": "<h2></b>Description</b></h2></p><p>A set of runewarded gauntlets helps to protect the wearer from the influence of intelligent magic items, an effect that immediately becomes apparent to a wearer when the  gauntlets are first put on. While worn, the gauntlets suppress all magical qualities of a single intelligent weapon carried. They have no effect on nonintelligent magic weapons or nonweapon intelligent magic items. Runewarded gauntlets make spellcasting more difficult when worn, imparting a 10% spell failure chance to all spells cast while worn (not just arcane spells). This spell failure chance does not stack with spell failure chances from other worn items.<br><p><b>Base Item:</b> </p><h3><b>Requirements</b></h3><p></p><h3><b>Source: </b></h3>AP 133",
      "unidentified": ""
    },
    "tags": [],
    "quantity": 1,
    "weight": {
      "value": 2
    },
    "price": 0,
    "size": "med",
    "equipped": true,
    "resizing": false,
    "identified": true,
    "hp": {
      "max": 10,
      "value": 10
    },
    "broken": false,
    "hardness": 0,
    "carried": true,
    "unidentified": {
      "price": 0,
      "name": ""
    },
    "cl": 20,
    "aura": {
      "custom": true,
      "school": "abjuration"
    },
    "changes": [],
    "changeFlags": {
      "loseDexToAC": false,
      "noEncumbrance": false,
      "mediumArmorFullSpeed": false,
      "heavyArmorFullSpeed": false
    },
    "contextNotes": [],
    "actions": [],
    "uses": {
      "per": null,
      "value": 0,
      "maxFormula": "",
      "autoDeductChargesCost": "1"
    },
    "attackNotes": [],
    "effectNotes": [],
    "links": {
      "children": [],
      "charges": []
    },
    "tag": "runewardedGauntletsArtifact",
    "useCustomTag": false,
    "flags": {
      "boolean": {},
      "dictionary": {}
    },
    "scriptCalls": [],
    "masterwork": false,
    "enh": null,
    "proficient": true,
    "held": "normal",
    "subType": "other",
    "baseTypes": [],
    "equipmentSubtype": "lightArmor",
    "armor": {
      "value": 0,
      "dex": null,
      "acp": 0,
      "enh": 0
    },
    "spellFailure": 0,
    "slot": "other",
    "showInQuickbar": false
  },
  "ownership": {
    "default": 0
  },
  "_stats": {
    "systemId": "pf1",
    "systemVersion": "9.1",
    "coreVersion": "10.291",
    "createdTime": 1665428264958,
    "modifiedTime": 1689794447760,
    "lastModifiedBy": "ppv91YxratjWnkJi"
  },
  "effects": [],
  "folder": null,
  "sort": 0,
  "flags": {},
  "_key": "!items!cLpr4lYJSwnohMxL"
}