{
  "_id": "S9tckmIqokleFNPT",
  "name": "Shin-Tari, Sword Of Sloth [Artifact]",
  "type": "equipment",
  "img": "systems/pf1/icons/skills/yellow_30.jpg",
  "system": {
    "description": {
      "value": "<h2></b>Description</b></h2></p><p>A scene of imperial decadences depicted in fantastically fine etchings-which seem to change upon each consideration- covers the surface of this +5 short sword. Every time Shin-Tari successfully damages a creature, it gains the bane weapon special ability, with the target's creature type being its designated foe. This additional weapon quality actives after the weapon first strikes an opponent, granting additional damage to subsequent attacks but not the first attack.   The bane weapon special ability persists for the rest of the day, or until the sword strikes a foe of a different creature type. Additionally, whenever Shin-Tari strikes a Large or smaller foe, the target must succeed at a DC 20 Will save or be affected as per the spell dimension door. This effect functions as the spell, but Shin-Tari's wielder determines where his opponent is transported to, and the destination must be within the wielder's line of sight. The wielder cannot teleport an opponent into a space occupied by another creature or a solid object. Only one creature can be affected by this ability each round, and the target can act as normal on its next turn. If the sword scores a critical hit, the target must succeed at a DC 25 Will save or be affected by the spell teleport. The sword's wielder determines the destination, which must be very familiar to him.<br><p><b>Base Item:</b> +5 short sword</p><h3><b>Requirements</b></h3><p></p><h3><b>Source: </b></h3>Artifacts and Legends",
      "unidentified": ""
    },
    "tags": [],
    "quantity": 1,
    "weight": {
      "value": 2
    },
    "price": 0,
    "size": "med",
    "equipped": true,
    "resizing": false,
    "identified": true,
    "hp": {
      "max": 10,
      "value": 10
    },
    "broken": false,
    "hardness": 0,
    "carried": true,
    "unidentified": {
      "price": 0,
      "name": ""
    },
    "cl": 16,
    "aura": {
      "custom": true,
      "school": "conjuration"
    },
    "changes": [],
    "changeFlags": {
      "loseDexToAC": false,
      "noEncumbrance": false,
      "mediumArmorFullSpeed": false,
      "heavyArmorFullSpeed": false
    },
    "contextNotes": [],
    "actions": [],
    "uses": {
      "per": null,
      "value": 0,
      "maxFormula": "",
      "autoDeductChargesCost": "1"
    },
    "attackNotes": [],
    "effectNotes": [],
    "links": {
      "children": [],
      "charges": []
    },
    "tag": "shintariSwordOfSlothArtifact",
    "useCustomTag": false,
    "flags": {
      "boolean": {},
      "dictionary": {}
    },
    "scriptCalls": [],
    "masterwork": false,
    "enh": null,
    "proficient": true,
    "held": "normal",
    "subType": "other",
    "baseTypes": [],
    "equipmentSubtype": "lightArmor",
    "armor": {
      "value": 0,
      "dex": null,
      "acp": 0,
      "enh": 0
    },
    "spellFailure": 0,
    "slot": "other",
    "showInQuickbar": false
  },
  "ownership": {
    "default": 0
  },
  "_stats": {
    "systemId": "pf1",
    "systemVersion": "9.1",
    "coreVersion": "10.291",
    "createdTime": 1665428264886,
    "modifiedTime": 1689794446165,
    "lastModifiedBy": "ppv91YxratjWnkJi"
  },
  "effects": [],
  "folder": null,
  "sort": 0,
  "flags": {},
  "_key": "!items!S9tckmIqokleFNPT"
}