{
  "_id": "YTlZFgIY9oyhxEiC",
  "name": "Staff Of Rightful Rule [Artifact]",
  "type": "equipment",
  "img": "systems/pf1/icons/skills/yellow_30.jpg",
  "system": {
    "description": {
      "value": "<h2></b>Description</b></h2></p><p>This staff is a single piece of mithral carved with lines and small dots and encrusted with blue and violet gemstones at either end. The runes marking it are a mixture of Auran and Infernal terms, intertwined. The staff delivers a shocking grasp (CL 15th) to any creature other than the staff's owner that holds it, and no chaotic creature can become its owner. Asserting ownership requires a successful DC 20 Use Magic Device or Charisma check made while holding the staff. Once a creature becomes the staff's owner, it remains so until another creature asserts ownership.  A staff of rightful rule has 10 charges when it is created. In addition to the normal method of recharging staves, spent charges from a staff of rightful rule can be restored by casting dictum into the staff. Each casting restores 1 charge, but the staff may never hold more than 10 charges at any one time.   The staff allows use of the following spells:  • Feather fall (0 charges; functions even if all charges are expended)  • Shocking grasp (1 charge)  • Chain lightning (2 charges)  • Dispel chaos (3 charges)<br><p><b>Base Item:</b> </p><h3><b>Requirements</b></h3><p></p><h3><b>Source: </b></h3>AP 83",
      "unidentified": ""
    },
    "tags": [],
    "quantity": 1,
    "weight": {
      "value": 5
    },
    "price": 0,
    "size": "med",
    "equipped": true,
    "resizing": false,
    "identified": true,
    "hp": {
      "max": 10,
      "value": 10
    },
    "broken": false,
    "hardness": 0,
    "carried": true,
    "unidentified": {
      "price": 0,
      "name": ""
    },
    "cl": 15,
    "aura": {
      "custom": true,
      "school": "abjuration"
    },
    "changes": [],
    "changeFlags": {
      "loseDexToAC": false,
      "noEncumbrance": false,
      "mediumArmorFullSpeed": false,
      "heavyArmorFullSpeed": false
    },
    "contextNotes": [],
    "actions": [],
    "uses": {
      "per": null,
      "value": 0,
      "maxFormula": "",
      "autoDeductChargesCost": "1"
    },
    "attackNotes": [],
    "effectNotes": [],
    "links": {
      "children": [],
      "charges": []
    },
    "tag": "staffOfRightfulRuleArtifact",
    "useCustomTag": false,
    "flags": {
      "boolean": {},
      "dictionary": {}
    },
    "scriptCalls": [],
    "masterwork": false,
    "enh": null,
    "proficient": true,
    "held": "normal",
    "subType": "other",
    "baseTypes": [],
    "equipmentSubtype": "lightArmor",
    "armor": {
      "value": 0,
      "dex": null,
      "acp": 0,
      "enh": 0
    },
    "spellFailure": 0,
    "slot": "other",
    "showInQuickbar": false
  },
  "ownership": {
    "default": 0
  },
  "_stats": {
    "systemId": "pf1",
    "systemVersion": "9.1",
    "coreVersion": "10.291",
    "createdTime": 1665428264934,
    "modifiedTime": 1689794447272,
    "lastModifiedBy": "ppv91YxratjWnkJi"
  },
  "effects": [],
  "folder": null,
  "sort": 0,
  "flags": {},
  "_key": "!items!YTlZFgIY9oyhxEiC"
}