{
  "_id": "dM9c65c9DHdmyO3r",
  "name": "Staff Of Magical Decline [Cursed]",
  "type": "equipment",
  "img": "systems/pf1/icons/skills/yellow_30.jpg",
  "system": {
    "description": {
      "value": "<h2></b>Description</b></h2></p><p>This staff appears to be an ordinary staff and functions normally as such until it is used in combat. The wielder's effective caster level drops to match that of the staff or the wielder's caster level - 4, whichever is lower. The wielder's spellcasting ability score drops to 10 + staff's highest spell level, unless it is already lower.  The wielder must employ the staff rather than any other melee weapon or spell trigger item. Even if the staff is fully charged, the caster fails to regain spell slots for the day unless she forgoes a spell slot to restore 1 charge to the staff. However, she never again regains a spell slot used to charge the staff until she is freed from the curse. The only way for the wielder to be rid of the staff is by miracle or wish.<br><p><b>Base Item:</b> </p><h3><b>Requirements</b></h3><p></p><h3><b>Source: </b></h3>Horror Adventures",
      "unidentified": ""
    },
    "tags": [],
    "quantity": 1,
    "weight": {
      "value": 5
    },
    "price": 0,
    "size": "med",
    "equipped": true,
    "resizing": false,
    "identified": true,
    "hp": {
      "max": 10,
      "value": 10
    },
    "broken": false,
    "hardness": 0,
    "carried": true,
    "unidentified": {
      "price": 0,
      "name": ""
    },
    "cl": 0,
    "aura": {
      "custom": true,
      "school": "varies"
    },
    "changes": [],
    "changeFlags": {
      "loseDexToAC": false,
      "noEncumbrance": false,
      "mediumArmorFullSpeed": false,
      "heavyArmorFullSpeed": false
    },
    "contextNotes": [],
    "actions": [],
    "uses": {
      "per": null,
      "value": 0,
      "maxFormula": "",
      "autoDeductChargesCost": "1"
    },
    "attackNotes": [],
    "effectNotes": [],
    "links": {
      "children": [],
      "charges": []
    },
    "tag": "staffOfMagicalDeclineCursed",
    "useCustomTag": false,
    "flags": {
      "boolean": {},
      "dictionary": {}
    },
    "scriptCalls": [],
    "masterwork": false,
    "enh": null,
    "proficient": true,
    "held": "normal",
    "subType": "other",
    "baseTypes": [],
    "equipmentSubtype": "lightArmor",
    "armor": {
      "value": 0,
      "dex": null,
      "acp": 0,
      "enh": 0
    },
    "spellFailure": 0,
    "slot": "other",
    "showInQuickbar": false
  },
  "ownership": {
    "default": 0
  },
  "_stats": {
    "systemId": "pf1",
    "systemVersion": "9.1",
    "coreVersion": "10.291",
    "createdTime": 1665428265061,
    "modifiedTime": 1689794447915,
    "lastModifiedBy": "ppv91YxratjWnkJi"
  },
  "effects": [],
  "folder": null,
  "sort": 0,
  "flags": {},
  "_key": "!items!dM9c65c9DHdmyO3r"
}