{
  "_id": "RbcoAqm89ywIHita",
  "name": "The Doom Idol Of Ib [Artifact]",
  "type": "equipment",
  "img": "systems/pf1/icons/skills/yellow_30.jpg",
  "system": {
    "description": {
      "value": "<h2></b>Description</b></h2></p><p>This sea-green statue is 18 inches tall and 12 inches wide, and depicts a muscular iguana with bulging eyes and a beard of tentacles underneath its jaw. The idol always appears wet and constantly drips water.  The bearer of the Doom Idol of Ib is immune to Wisdom damage and confusion effects, although picking up the idol does not restore lost Wisdom or remove an ongoing confusion effect. Once per day, the bearer can use horrid wilting as a spell-like ability, using her own Hit Dice as the caster level of the effect, but the bearer must include herself among the spell's targets.  The once-living, inhuman residents of the ruined city of Ib have a preternatural connection to the Doom Idol of Ib. Ib shades-ghosts of the past inhabitants of Ib-instinctively know the distance and direction to the Doom Idol of Ib, so long as it is on the same plane. The enigmatic creatures relentlessly pursue the idol, attempting to recover it and return it to their ruined city.<br><p><b>Base Item:</b> </p><h3><b>Requirements</b></h3><p></p><h3><b>Source: </b></h3>AP 111",
      "unidentified": ""
    },
    "tags": [],
    "quantity": 1,
    "weight": {
      "value": 80
    },
    "price": 0,
    "size": "med",
    "equipped": true,
    "resizing": false,
    "identified": true,
    "hp": {
      "max": 10,
      "value": 10
    },
    "broken": false,
    "hardness": 0,
    "carried": true,
    "unidentified": {
      "price": 0,
      "name": ""
    },
    "cl": 20,
    "aura": {
      "custom": true,
      "school": "abjuration"
    },
    "changes": [],
    "changeFlags": {
      "loseDexToAC": false,
      "noEncumbrance": false,
      "mediumArmorFullSpeed": false,
      "heavyArmorFullSpeed": false
    },
    "contextNotes": [],
    "actions": [],
    "uses": {
      "per": null,
      "value": 0,
      "maxFormula": "",
      "autoDeductChargesCost": "1"
    },
    "attackNotes": [],
    "effectNotes": [],
    "links": {
      "children": [],
      "charges": []
    },
    "tag": "theDoomIdolOfIbArtifact",
    "useCustomTag": false,
    "flags": {
      "boolean": {},
      "dictionary": {}
    },
    "scriptCalls": [],
    "masterwork": false,
    "enh": null,
    "proficient": true,
    "held": "normal",
    "subType": "other",
    "baseTypes": [],
    "equipmentSubtype": "lightArmor",
    "armor": {
      "value": 0,
      "dex": null,
      "acp": 0,
      "enh": 0
    },
    "spellFailure": 0,
    "slot": "other",
    "showInQuickbar": false
  },
  "ownership": {
    "default": 0
  },
  "_stats": {
    "systemId": "pf1",
    "systemVersion": "9.1",
    "coreVersion": "10.291",
    "createdTime": 1665428264868,
    "modifiedTime": 1689794445065,
    "lastModifiedBy": "ppv91YxratjWnkJi"
  },
  "effects": [],
  "folder": null,
  "sort": 0,
  "flags": {},
  "_key": "!items!RbcoAqm89ywIHita"
}