{
  "_id": "V8CM7RWZkSXN8oxd",
  "name": "Thyr's Gavel [Artifact]",
  "type": "equipment",
  "img": "systems/pf1/icons/skills/yellow_30.jpg",
  "system": {
    "description": {
      "value": "<h2></b>Description</b></h2></p><p>The Lawgiver bestows this unique warhammer upon his greatest champion, typically a high priest or paladin, though warriors have been known to wield the weapon at times as well. The weapon currently sits deep underground, in a makeshift tomb of the last Champion of Thyr, a priest named Bofred. Thyr patiently bides his time, waiting for a new champion to rise up and claim the weapon. Thyr's Gavel is a +6 holy axiomatic cold iron warhammer. If the weapon is willingly picked up by an undead, evil outsider or chaotic outsider, that creature must make a DC 37 Will save or be slain (no additional save). If the creature is successful, a new save must be attempted every hour, and it still suffers from the negative levels imposed by the holy and axiomatic weapon properties. The wielder of Thyr's Gavel can cast daylight at will as a spell-like ability (CL 20th). If the wielder is a follower of Thyr, she may add her Charisma bonus (if any) to her armor class as a sacred bonus and to her saving throws as a luck bonus.<br><p><b>Base Item:</b> +6 holy axiomatic cold iron warhammer</p><h3><b>Requirements</b></h3><p></p><h3><b>Source: </b></h3>Rappan Athuk",
      "unidentified": ""
    },
    "tags": [],
    "quantity": 1,
    "weight": {
      "value": 8
    },
    "price": 0,
    "size": "med",
    "equipped": true,
    "resizing": false,
    "identified": true,
    "hp": {
      "max": 10,
      "value": 10
    },
    "broken": false,
    "hardness": 0,
    "carried": true,
    "unidentified": {
      "price": 0,
      "name": ""
    },
    "cl": 22,
    "aura": {
      "custom": true,
      "school": "transmutation"
    },
    "changes": [],
    "changeFlags": {
      "loseDexToAC": false,
      "noEncumbrance": false,
      "mediumArmorFullSpeed": false,
      "heavyArmorFullSpeed": false
    },
    "contextNotes": [],
    "actions": [],
    "uses": {
      "per": null,
      "value": 0,
      "maxFormula": "",
      "autoDeductChargesCost": "1"
    },
    "attackNotes": [],
    "effectNotes": [],
    "links": {
      "children": [],
      "charges": []
    },
    "tag": "thyrsGavelArtifact",
    "useCustomTag": false,
    "flags": {
      "boolean": {},
      "dictionary": {}
    },
    "scriptCalls": [],
    "masterwork": false,
    "enh": null,
    "proficient": true,
    "held": "normal",
    "subType": "other",
    "baseTypes": [],
    "equipmentSubtype": "lightArmor",
    "armor": {
      "value": 0,
      "dex": null,
      "acp": 0,
      "enh": 0
    },
    "spellFailure": 0,
    "slot": "other",
    "showInQuickbar": false
  },
  "ownership": {
    "default": 0
  },
  "_stats": {
    "systemId": "pf1",
    "systemVersion": "9.1",
    "coreVersion": "10.291",
    "createdTime": 1665428264911,
    "modifiedTime": 1689794446956,
    "lastModifiedBy": "ppv91YxratjWnkJi"
  },
  "effects": [],
  "folder": null,
  "sort": 0,
  "flags": {},
  "_key": "!items!V8CM7RWZkSXN8oxd"
}