{
  "_id": "20JdIQXyl6edSTC3",
  "name": "Unspeakable One's Vestments [Cursed]",
  "type": "equipment",
  "img": "systems/pf1/icons/skills/yellow_30.jpg",
  "system": {
    "description": {
      "value": "<h2></b>Description</b></h2></p><p>This robe functions much as a robe of stars, granting its wearer the luck bonus on saving throws, astral travel, and ability to create shuriken made of magically hardened gold. In addition, the wearer gains a +4 armor bonus to his AC.  The robe's curse activates after 1 month of being worn regularly, or just as a creature whose patron is Hastur or Xhamen-Dor affects the wearer with a spell or special ability. The wearer loses his luck bonus on saving throws against such effects and instead takes a -4 penalty on those saves. While the curse persists, the wearer takes 1d4 points of Wisdom drain every time he uses the robe to access the Astral Plane, and the shuriken created are +5 anarchic shuriken. After another month of continuous use, the wearer permanently becomes chaotic evil and pursues increasingly delusional goals of domination, enrichment, or anarchy. Once donned, this robe can be removed only with a remove curse spell.<br><p><b>Base Item:</b> </p><h3><b>Requirements</b></h3><p></p><h3><b>Source: </b></h3>AP 113",
      "unidentified": ""
    },
    "tags": [],
    "quantity": 1,
    "weight": {
      "value": 1
    },
    "price": 0,
    "size": "med",
    "equipped": true,
    "resizing": false,
    "identified": true,
    "hp": {
      "max": 10,
      "value": 10
    },
    "broken": false,
    "hardness": 0,
    "carried": true,
    "unidentified": {
      "price": 0,
      "name": ""
    },
    "cl": 15,
    "aura": {
      "custom": true,
      "school": "varied"
    },
    "changes": [],
    "changeFlags": {
      "loseDexToAC": false,
      "noEncumbrance": false,
      "mediumArmorFullSpeed": false,
      "heavyArmorFullSpeed": false
    },
    "contextNotes": [],
    "actions": [],
    "uses": {
      "per": null,
      "value": 0,
      "maxFormula": "",
      "autoDeductChargesCost": "1"
    },
    "attackNotes": [],
    "effectNotes": [],
    "links": {
      "children": [],
      "charges": []
    },
    "tag": "unspeakableOnesVestmentsCursed",
    "useCustomTag": false,
    "flags": {
      "boolean": {},
      "dictionary": {}
    },
    "scriptCalls": [],
    "masterwork": false,
    "enh": null,
    "proficient": true,
    "held": "normal",
    "subType": "other",
    "baseTypes": [],
    "equipmentSubtype": "lightArmor",
    "armor": {
      "value": 0,
      "dex": null,
      "acp": 0,
      "enh": 0
    },
    "spellFailure": 0,
    "slot": "other",
    "showInQuickbar": false
  },
  "ownership": {
    "default": 0
  },
  "_stats": {
    "systemId": "pf1",
    "systemVersion": "9.1",
    "coreVersion": "10.291",
    "createdTime": 1665428264598,
    "modifiedTime": 1689794442452,
    "lastModifiedBy": "ppv91YxratjWnkJi"
  },
  "effects": [],
  "folder": null,
  "sort": 0,
  "flags": {},
  "_key": "!items!20JdIQXyl6edSTC3"
}