{
  "_id": "NLsr4uQ5HtdtsNtP",
  "name": "#[CF_tempEntity]",
  "flags": {
    "cf": {
      "id": "temp_50hm39h5lsf",
      "path": "Harrow Deck#/CF_SEP/Interpreting the cards#/CF_SEP/Constitution Cards",
      "color": "#000000",
      "name": "Constitution Cards",
      "children": [
        "vo36gsamigHGWcq9",
        "8a1fLlMcyj7UaZ6M",
        "aM6OH4X8sXWxKrg0",
        "XjJZphgKkHZ2FfW6",
        "8rASbqHJ0xTteh3V",
        "bwG3d5jSx8RaXqyd",
        "BttWxLzsoFwkHPjR",
        "bTCaWx3jqSABay2i",
        "cFm68O2MuCOGN23O"
      ],
      "folderPath": [
        "temp_zjb0mrf51g",
        "temp_vztvndonaq"
      ]
    }
  },
  "content": "",
  "pages": [],
  "_key": "!journal!NLsr4uQ5HtdtsNtP"
}