{
  "_id": "ry0hjqEPI72cVdCX",
  "name": "#[CF_tempEntity]",
  "flags": {
    "cf": {
      "id": "temp_ud3m4l5msdk",
      "path": "Harrow Deck#/CF_SEP/Interpreting the cards#/CF_SEP/Wisdom Cards",
      "color": "#000000",
      "name": "Wisdom Cards",
      "children": [
        "a2xa3mGz9jtI5ApT",
        "e28GE1WF89y24MTI",
        "Z97HLnYYLjwalADL",
        "yrLBsUPxNsLkp9p8",
        "kosATaZXr8WDkjGp",
        "os8eNcaVlcUmvNBZ",
        "Pwk21wJfDqXNjl3L",
        "XqTOFgxfj2xjeln2",
        "mDiFy1V0k5ugUdOO"
      ],
      "folderPath": [
        "temp_zjb0mrf51g",
        "temp_vztvndonaq"
      ]
    }
  },
  "content": "",
  "pages": [],
  "_key": "!journal!ry0hjqEPI72cVdCX"
}