{
  "_id": "Z97HLnYYLjwalADL",
  "name": "The Publican",
  "content": "<p><strong>The Publican</strong> (chaotic good, Wisdom) represents fellowship and camaraderie, and a place of refuge for those in need. Most would find the cyclops inconsequential, but he has insights relevant to the reading or a quest. Misaligned, The Publican represents refuge unfound or false information given at a crucial moment.</p>\n<p> </p>\n<p><img src=\"modules/pf-content/assets/Harrow%20Deck/The%20Publican.webp\" width=\"300\" height=\"494\" /></p>\n<p> </p>",
  "img": "modules/pf-content/assets/Harrow%20Deck/The%20Publican.webp",
  "flags": {
    "cf": {
      "id": "temp_ud3m4l5msdk",
      "path": "Harrow Deck#/CF_SEP/Interpreting the cards#/CF_SEP/Wisdom Cards",
      "color": "#000000"
    },
    "monks-enhanced-journal": {
      "_viewcount": 1
    }
  },
  "pages": [],
  "_key": "!journal!Z97HLnYYLjwalADL"
}