{
  "_id": "dqfVmfPEvVwx6UKi",
  "name": "The Paladin",
  "content": "<p><strong>The Paladin</strong> (lawful good, Strength) symbolizes standing strong in the face of adversity. The Paladin does not back down under any circumstances. This card usually indicates the need to stay the course or do what one knows is right, even if it takes a heavy toll. If the card is misaligned, such a course might be foolhardy.</p>\n<p> </p>\n<p><img src=\"modules/pf-content/assets/Harrow%20Deck/The%20Paladin.webp\" width=\"300\" height=\"494\" /></p>\n<p> </p>",
  "img": "modules/pf-content/assets/Harrow%20Deck/The%20Paladin.webp",
  "flags": {
    "cf": {
      "id": "temp_iradeobaorf",
      "path": "Harrow Deck#/CF_SEP/Interpreting the cards#/CF_SEP/Strength Cards",
      "color": "#000000"
    },
    "monks-enhanced-journal": {
      "_viewcount": 1
    }
  },
  "pages": [],
  "_key": "!journal!dqfVmfPEvVwx6UKi"
}