{
  "_id": "Lo8l5oEOyM021OrF",
  "name": "The Tyrant",
  "content": "<p><strong>The Tyrant</strong> (lawful evil, Charisma) indicates a ruler who is a blight upon those ruled. The dragon might indicate a monarch, overseer, or head of a household. Whoever this person is, he does harm to those over whom he holds sway, whether he realizes it or not. Misaligned, this card might indicate a tyrant revealed or dethroned.</p>\n<p><img src=\"modules/pf-content/assets/Harrow%20Deck/The%20Tyrant.webp\" width=\"300\" height=\"494\" /></p>",
  "img": "modules/pf-content/assets/Harrow%20Deck/The%20Tyrant.webp",
  "flags": {
    "cf": {
      "id": "temp_tu6iutb0f8b",
      "path": "Harrow Deck#/CF_SEP/Interpreting the cards#/CF_SEP/Charisma Cards",
      "color": "#000000"
    },
    "monks-enhanced-journal": {
      "_viewcount": 2
    }
  },
  "pages": [],
  "_key": "!journal!Lo8l5oEOyM021OrF"
}