{
  "_id": "xA2Wsy23fQxlOVLv",
  "name": "The Juggler",
  "content": "<p><strong>The Juggler</strong> (chaotic good, Dexterity) represents fate, the gods, or those who play with the lives and destinies of others. If this titanic Juggler can keep up his rhythm, he will achieve his goals. But in a misaligned placement, he falters, and tragedy and failure are assured for those whose lives he meddled in.</p>\n<p><img src=\"modules/pf-content/assets/Harrow%20Deck/The%20Juggler.webp\" width=\"300\" height=\"494\" /></p>",
  "img": "modules/pf-content/assets/Harrow%20Deck/The%20Juggler.webp",
  "flags": {
    "cf": {
      "id": "temp_yej1i58zbfj",
      "path": "Harrow Deck#/CF_SEP/Interpreting the cards#/CF_SEP/Dexterity Cards",
      "color": "#000000"
    },
    "monks-enhanced-journal": {
      "_viewcount": 1
    }
  },
  "pages": [],
  "_key": "!journal!xA2Wsy23fQxlOVLv"
}