{
  "_id": "z5oLpakJdSx3HtFz",
  "name": "The Liar",
  "content": "<p><strong>The Liar</strong> (chaotic evil, Charisma) is love at its most treacherous. This is not the love that moves mountains - this is the love that rips the heart in two and causes lovers to leap to their deaths. This lamia can mean obsession, unrequited passion, or doomed love. Misaligned, the card can indicate a new relationship beginning, although disguised as something much less beautiful.</p>\n<p><img src=\"modules/pf-content/assets/Harrow%20Deck/The%20Liar.webp\" width=\"300\" height=\"494\" /></p>",
  "img": "modules/pf-content/assets/Harrow%20Deck/The%20Liar.webp",
  "flags": {
    "cf": {
      "id": "temp_tu6iutb0f8b",
      "path": "Harrow Deck#/CF_SEP/Interpreting the cards#/CF_SEP/Charisma Cards",
      "color": "#000000"
    },
    "monks-enhanced-journal": {
      "_viewcount": 3
    }
  },
  "pages": [],
  "_key": "!journal!z5oLpakJdSx3HtFz"
}