{
  "_id": "Sq010zgxSodkXMme",
  "name": "The Unicorn",
  "content": "<p><strong>The Unicorn</strong> (chaotic good, Charisma) is a card that generously offers that which the subject seeks, just as the charger in the picture off ersup its fruit. When misaligned, the card means betrayal, poisoning, or a false friend.</p>\n<p><img src=\"modules/pf-content/assets/Harrow%20Deck/The%20Unicorn.webp\" width=\"300\" height=\"494\" /></p>",
  "img": "modules/pf-content/assets/Harrow%20Deck/The%20Unicorn.webp",
  "flags": {
    "cf": {
      "id": "temp_tu6iutb0f8b",
      "path": "Harrow Deck#/CF_SEP/Interpreting the cards#/CF_SEP/Charisma Cards",
      "color": "#000000"
    },
    "monks-enhanced-journal": {
      "_viewcount": 2
    }
  },
  "pages": [],
  "_key": "!journal!Sq010zgxSodkXMme"
}