{
  "_id": "lf6AE13prIrP6olh",
  "name": "The Bear",
  "content": "<p><strong>The Bear</strong> (neutral, Strength) is pure strength. People often make the mistake of thinking The Bear can be tamed or trained. When someone believes he has The Bear under control, that person eventually learns the error of his ways. Brute force might be required here, but the consequences of its use might be severe.</p>\n<p> </p>\n<p><img src=\"modules/pf-content/assets/Harrow%20Deck/The%20Bear.webp\" width=\"300\" height=\"494\" /></p>\n<p> </p>",
  "img": "modules/pf-content/assets/Harrow%20Deck/The%20Bear.webp",
  "flags": {
    "cf": {
      "id": "temp_iradeobaorf",
      "path": "Harrow Deck#/CF_SEP/Interpreting the cards#/CF_SEP/Strength Cards",
      "color": "#000000"
    },
    "monks-enhanced-journal": {
      "_viewcount": 1
    }
  },
  "pages": [],
  "_key": "!journal!lf6AE13prIrP6olh"
}