{
  "_id": "ldagZx2n0cCCpdjz",
  "name": "The Idiot",
  "content": "<p><strong>The Idiot</strong> (neutral evil, Intelligence) is a card of grave foolishness and greed. It can mean bribery, blackmail, or naivety so grand it can see no evil. The goblins have captured a foolhardy man, representing the knowledge that loss of dignity can precede loss of life. Misaligned, this card might indicate feigning of idiocy to disguise one's gifts.</p>\n<p> </p>\n<p><img src=\"modules/pf-content/assets/Harrow%20Deck/The%20Idiot.webp\" width=\"300\" height=\"494\" /></p>\n<p> </p>",
  "img": "modules/pf-content/assets/Harrow%20Deck/The%20Idiot.webp",
  "flags": {
    "cf": {
      "id": "temp_h8guah5g1xc",
      "path": "Harrow Deck#/CF_SEP/Interpreting the cards#/CF_SEP/Intelligence Cards",
      "color": "#000000"
    },
    "monks-enhanced-journal": {
      "_viewcount": 1
    }
  },
  "pages": [],
  "_key": "!journal!ldagZx2n0cCCpdjz"
}