{
  "_id": "d0ZD8Tb2Ekb67VV6",
  "name": "The Rakshasa",
  "content": "<p><strong>The Rakshasa</strong> (lawful evil, Intelligence) is the card of dominance and mind control. The creature sitting serenely upon the slave's back indicates an exterior force imposing itself upon another being's mind. On occasion, the slavery is literal, but more often it is mental enslavement. Misaligned, this card means that the enslavement can be cast off in the face of new information.</p>\n<p> </p>\n<p><img src=\"modules/pf-content/assets/Harrow%20Deck/The%20Rakshasa.webp\" width=\"300\" height=\"494\" /></p>\n<p> </p>",
  "img": "modules/pf-content/assets/Harrow%20Deck/The%20Rakshasa.webp",
  "flags": {
    "cf": {
      "id": "temp_h8guah5g1xc",
      "path": "Harrow Deck#/CF_SEP/Interpreting the cards#/CF_SEP/Intelligence Cards",
      "color": "#000000"
    },
    "monks-enhanced-journal": {
      "_viewcount": 1
    }
  },
  "pages": [],
  "_key": "!journal!d0ZD8Tb2Ekb67VV6"
}