{
  "_id": "0mCHxfTWOdJfUOfy",
  "name": "Pathfinder Wiki",
  "content": "<div style=\"position: relative; left: 0%; border: 5px ridge #e7dd95; width: 100%; height: 100%;\">\n<div class=\"wiki-content-full\"><iframe style=\"overflow-y: hidden; width: 100%; height: 800px;\" src=\"https://pathfinderwiki.com/wiki/\" frameborder=\"0\"> </iframe></div>\n</div>",
  "img": "icons/sundries/books/book-open-brown.webp",
  "pages": [],
  "_key": "!journal!0mCHxfTWOdJfUOfy"
}