{
  "_id": "jC1Sc8Ep6cF0JOiM",
  "name": "Treasure Values per Encounter",
  "content": "<p>See Placing Treasure</p>\n<table class=\"inner\" style=\"height: 527px; width: 519px;\" border=\"1\">\n<tbody>\n<tr style=\"height: 16px;\">\n<td style=\"width: 174px; height: 16px; text-align: center;\">&nbsp;</td>\n<td style=\"width: 338px; height: 16px; text-align: left;\" colspan=\"3\"><strong>Treasure per Encounter</strong></td>\n</tr>\n<tr style=\"height: 16px;\">\n<td style=\"width: 174px; height: 16px; text-align: center;\"><strong>Average Party Level</strong></td>\n<td style=\"width: 106px; height: 16px; text-align: center;\"><strong>Slow</strong></td>\n<td style=\"width: 111px; height: 16px; text-align: center;\"><strong>Medium</strong></td>\n<td style=\"width: 121px; height: 16px; text-align: center;\"><strong>Fast</strong></td>\n</tr>\n<tr style=\"height: 16px;\">\n<td style=\"width: 174px; height: 16px; text-align: center;\">1</td>\n<td style=\"width: 106px; height: 16px; text-align: center;\">170 gp</td>\n<td style=\"width: 111px; height: 16px; text-align: center;\">260 gp</td>\n<td style=\"width: 121px; height: 16px; text-align: center;\">400 gp</td>\n</tr>\n<tr style=\"height: 16px;\">\n<td style=\"width: 174px; height: 16px; text-align: center;\">2</td>\n<td style=\"width: 106px; height: 16px; text-align: center;\">350 gp</td>\n<td style=\"width: 111px; height: 16px; text-align: center;\">550 gp</td>\n<td style=\"width: 121px; height: 16px; text-align: center;\">800 gp</td>\n</tr>\n<tr style=\"height: 16px;\">\n<td style=\"width: 174px; height: 16px; text-align: center;\">3</td>\n<td style=\"width: 106px; height: 16px; text-align: center;\">550 gp</td>\n<td style=\"width: 111px; height: 16px; text-align: center;\">800 gp</td>\n<td style=\"width: 121px; height: 16px; text-align: center;\">1,200 gp</td>\n</tr>\n<tr style=\"height: 16px;\">\n<td style=\"width: 174px; height: 16px; text-align: center;\">4</td>\n<td style=\"width: 106px; height: 16px; text-align: center;\">750 gp</td>\n<td style=\"width: 111px; height: 16px; text-align: center;\">1,150 gp</td>\n<td style=\"width: 121px; height: 16px; text-align: center;\">1,700 gp</td>\n</tr>\n<tr style=\"height: 16px;\">\n<td style=\"width: 174px; height: 16px; text-align: center;\">5</td>\n<td style=\"width: 106px; height: 16px; text-align: center;\">1,000 gp</td>\n<td style=\"width: 111px; height: 16px; text-align: center;\">1,550 gp</td>\n<td style=\"width: 121px; height: 16px; text-align: center;\">2,300 gp</td>\n</tr>\n<tr style=\"height: 16px;\">\n<td style=\"width: 174px; height: 16px; text-align: center;\">6</td>\n<td style=\"width: 106px; height: 16px; text-align: center;\">1,350 gp</td>\n<td style=\"width: 111px; height: 16px; text-align: center;\">2,000 gp</td>\n<td style=\"width: 121px; height: 16px; text-align: center;\">3,000 gp</td>\n</tr>\n<tr style=\"height: 16px;\">\n<td style=\"width: 174px; height: 16px; text-align: center;\">7</td>\n<td style=\"width: 106px; height: 16px; text-align: center;\">1,750 gp</td>\n<td style=\"width: 111px; height: 16px; text-align: center;\">2,600 gp</td>\n<td style=\"width: 121px; height: 16px; text-align: center;\">3,900 gp</td>\n</tr>\n<tr style=\"height: 16px;\">\n<td style=\"width: 174px; height: 16px; text-align: center;\">8</td>\n<td style=\"width: 106px; height: 16px; text-align: center;\">2,200 gp</td>\n<td style=\"width: 111px; height: 16px; text-align: center;\">3,350 gp</td>\n<td style=\"width: 121px; height: 16px; text-align: center;\">6,000 gp</td>\n</tr>\n<tr style=\"height: 16px;\">\n<td style=\"width: 174px; height: 16px; text-align: center;\">9</td>\n<td style=\"width: 106px; height: 16px; text-align: center;\">2,850 gp</td>\n<td style=\"width: 111px; height: 16px; text-align: center;\">4,250 gp</td>\n<td style=\"width: 121px; height: 16px; text-align: center;\">6,400 gp</td>\n</tr>\n<tr style=\"height: 16px;\">\n<td style=\"width: 174px; height: 16px; text-align: center;\">10</td>\n<td style=\"width: 106px; height: 16px; text-align: center;\">3,650 gp</td>\n<td style=\"width: 111px; height: 16px; text-align: center;\">5,450 gp</td>\n<td style=\"width: 121px; height: 16px; text-align: center;\">8,200 gp</td>\n</tr>\n<tr style=\"height: 16px;\">\n<td style=\"width: 174px; height: 16px; text-align: center;\">11</td>\n<td style=\"width: 106px; height: 16px; text-align: center;\">4,650 gp</td>\n<td style=\"width: 111px; height: 16px; text-align: center;\">7,000 gp</td>\n<td style=\"width: 121px; height: 16px; text-align: center;\">10,500 gp</td>\n</tr>\n<tr style=\"height: 16px;\">\n<td style=\"width: 174px; height: 16px; text-align: center;\">12</td>\n<td style=\"width: 106px; height: 16px; text-align: center;\">6,000 gp</td>\n<td style=\"width: 111px; height: 16px; text-align: center;\">9,000 gp</td>\n<td style=\"width: 121px; height: 16px; text-align: center;\">13,500 gp</td>\n</tr>\n<tr style=\"height: 16px;\">\n<td style=\"width: 174px; height: 16px; text-align: center;\">13</td>\n<td style=\"width: 106px; height: 16px; text-align: center;\">7,750 gp</td>\n<td style=\"width: 111px; height: 16px; text-align: center;\">11,600 gp</td>\n<td style=\"width: 121px; height: 16px; text-align: center;\">17,500 gp</td>\n</tr>\n<tr style=\"height: 16px;\">\n<td style=\"width: 174px; height: 16px; text-align: center;\">14</td>\n<td style=\"width: 106px; height: 16px; text-align: center;\">10,000 gp</td>\n<td style=\"width: 111px; height: 16px; text-align: center;\">15,000 gp</td>\n<td style=\"width: 121px; height: 16px; text-align: center;\">22,000 gp</td>\n</tr>\n<tr style=\"height: 16px;\">\n<td style=\"width: 174px; height: 16px; text-align: center;\">15</td>\n<td style=\"width: 106px; height: 16px; text-align: center;\">13,000 gp</td>\n<td style=\"width: 111px; height: 16px; text-align: center;\">19,500 gp</td>\n<td style=\"width: 121px; height: 16px; text-align: center;\">29,000 gp</td>\n</tr>\n<tr style=\"height: 16px;\">\n<td style=\"width: 174px; height: 16px; text-align: center;\">16</td>\n<td style=\"width: 106px; height: 16px; text-align: center;\">16,500 gp</td>\n<td style=\"width: 111px; height: 16px; text-align: center;\">25,000 gp</td>\n<td style=\"width: 121px; height: 16px; text-align: center;\">38,000 gp</td>\n</tr>\n<tr style=\"height: 16px;\">\n<td style=\"width: 174px; height: 16px; text-align: center;\">17</td>\n<td style=\"width: 106px; height: 16px; text-align: center;\">22,000 gp</td>\n<td style=\"width: 111px; height: 16px; text-align: center;\">32,000 gp</td>\n<td style=\"width: 121px; height: 16px; text-align: center;\">48,000 gp</td>\n</tr>\n<tr style=\"height: 16px;\">\n<td style=\"width: 174px; height: 16px; text-align: center;\">18</td>\n<td style=\"width: 106px; height: 16px; text-align: center;\">28,000 gp</td>\n<td style=\"width: 111px; height: 16px; text-align: center;\">41,000 gp</td>\n<td style=\"width: 121px; height: 16px; text-align: center;\">72,000 gp</td>\n</tr>\n<tr style=\"height: 16px;\">\n<td style=\"width: 174px; height: 16px; text-align: center;\">19</td>\n<td style=\"width: 106px; height: 16px; text-align: center;\">35,000 gp</td>\n<td style=\"width: 111px; height: 16px; text-align: center;\">53,000 gp</td>\n<td style=\"width: 121px; height: 16px; text-align: center;\">79,000 gp</td>\n</tr>\n<tr style=\"height: 16px;\">\n<td style=\"width: 174px; height: 16px; text-align: center;\">20</td>\n<td style=\"width: 106px; height: 16px; text-align: center;\">44,000 gp</td>\n<td style=\"width: 111px; height: 16px; text-align: center;\">67,000 gp</td>\n<td style=\"width: 121px; height: 16px; text-align: center;\">100,000 gp</td>\n</tr>\n</tbody>\n</table>",
  "img": "icons/commodities/currency/coins-plain-stack-gold-yellow.webp",
  "pages": [],
  "_key": "!journal!jC1Sc8Ep6cF0JOiM"
}