{
  "_id": "hLt3knwhDWhqDLqU",
  "name": "Wealth by Level",
  "content": "<p>See Placing Treasure</p>\n<table class=\"inner\" style=\"width: 274px; height: 481px;\" border=\"1\">\n<tbody>\n<tr style=\"height: 16px;\">\n<td style=\"width: 130px; height: 16px; text-align: center;\"><strong>PC Level*</strong></td>\n<td style=\"width: 139px; height: 16px; text-align: center;\"><strong>Wealth</strong></td>\n</tr>\n<tr style=\"height: 16px;\">\n<td style=\"width: 130px; height: 16px; text-align: center;\">2</td>\n<td style=\"width: 139px; height: 16px; text-align: center;\">1,000 gp</td>\n</tr>\n<tr style=\"height: 16px;\">\n<td style=\"width: 130px; height: 16px; text-align: center;\">3</td>\n<td style=\"width: 139px; height: 16px; text-align: center;\">3,000 gp</td>\n</tr>\n<tr style=\"height: 16px;\">\n<td style=\"width: 130px; height: 16px; text-align: center;\">4</td>\n<td style=\"width: 139px; height: 16px; text-align: center;\">6,000 gp</td>\n</tr>\n<tr style=\"height: 16px;\">\n<td style=\"width: 130px; height: 16px; text-align: center;\">5</td>\n<td style=\"width: 139px; height: 16px; text-align: center;\">10,500 gp</td>\n</tr>\n<tr style=\"height: 16px;\">\n<td style=\"width: 130px; height: 16px; text-align: center;\">6</td>\n<td style=\"width: 139px; height: 16px; text-align: center;\">16,000 gp</td>\n</tr>\n<tr style=\"height: 16px;\">\n<td style=\"width: 130px; height: 16px; text-align: center;\">7</td>\n<td style=\"width: 139px; height: 16px; text-align: center;\">23,500 gp</td>\n</tr>\n<tr style=\"height: 16px;\">\n<td style=\"width: 130px; height: 16px; text-align: center;\">8</td>\n<td style=\"width: 139px; height: 16px; text-align: center;\">33,000 gp</td>\n</tr>\n<tr style=\"height: 16px;\">\n<td style=\"width: 130px; height: 16px; text-align: center;\">9</td>\n<td style=\"width: 139px; height: 16px; text-align: center;\">46,000 gp</td>\n</tr>\n<tr style=\"height: 16px;\">\n<td style=\"width: 130px; height: 16px; text-align: center;\">10</td>\n<td style=\"width: 139px; height: 16px; text-align: center;\">62,000 gp</td>\n</tr>\n<tr style=\"height: 16px;\">\n<td style=\"width: 130px; height: 16px; text-align: center;\">11</td>\n<td style=\"width: 139px; height: 16px; text-align: center;\">82,000 gp</td>\n</tr>\n<tr style=\"height: 16px;\">\n<td style=\"width: 130px; height: 16px; text-align: center;\">12</td>\n<td style=\"width: 139px; height: 16px; text-align: center;\">108,000 gp</td>\n</tr>\n<tr style=\"height: 16px;\">\n<td style=\"width: 130px; height: 16px; text-align: center;\">13</td>\n<td style=\"width: 139px; height: 16px; text-align: center;\">140,000 gp</td>\n</tr>\n<tr style=\"height: 16px;\">\n<td style=\"width: 130px; height: 16px; text-align: center;\">14</td>\n<td style=\"width: 139px; height: 16px; text-align: center;\">185,000 gp</td>\n</tr>\n<tr style=\"height: 16px;\">\n<td style=\"width: 130px; height: 16px; text-align: center;\">15</td>\n<td style=\"width: 139px; height: 16px; text-align: center;\">240,000 gp</td>\n</tr>\n<tr style=\"height: 16px;\">\n<td style=\"width: 130px; height: 16px; text-align: center;\">16</td>\n<td style=\"width: 139px; height: 16px; text-align: center;\">315,000 gp</td>\n</tr>\n<tr style=\"height: 16px;\">\n<td style=\"width: 130px; height: 16px; text-align: center;\">17</td>\n<td style=\"width: 139px; height: 16px; text-align: center;\">410,000 gp</td>\n</tr>\n<tr style=\"height: 16px;\">\n<td style=\"width: 130px; height: 16px; text-align: center;\">18</td>\n<td style=\"width: 139px; height: 16px; text-align: center;\">530,000 gp</td>\n</tr>\n<tr style=\"height: 16px;\">\n<td style=\"width: 130px; height: 16px; text-align: center;\">19</td>\n<td style=\"width: 139px; height: 16px; text-align: center;\">685,000 gp</td>\n</tr>\n<tr style=\"height: 16px;\">\n<td style=\"width: 130px; height: 16px; text-align: center;\">20</td>\n<td style=\"width: 139px; height: 16px; text-align: center;\">880,000 gp</td>\n</tr>\n</tbody>\n</table>\n<p>*For 1st-level PCs, see table 6-1 in Chapter 6.</p>",
  "img": "icons/commodities/treasure/crown-gold-satin-gems-red.webp",
  "pages": [],
  "_key": "!journal!hLt3knwhDWhqDLqU"
}