{
  "_id": "yoGRjHSNTbIJE7e3",
  "name": "Acrobatic",
  "type": "feat",
  "img": "systems/pf1/icons/races/vanara.png",
  "system": {
    "description": {
      "value": "<p><strong>Race:</strong> Vanara&nbsp;<br /><strong>Replaced Trait(s):</strong> Nimble&nbsp;</p>\n<hr />\n<p>Vanaras are often extraordinarily agile, capable of dancing around slower-moving humans with playful grace. They gain a +2 racial bonus on Acrobatics and Escape Artist checks. This racial trait replaces nimble.</p>",
      "unidentified": ""
    },
    "tags": [
      "Vanara",
      "PFS"
    ],
    "actions": [],
    "uses": {
      "per": null,
      "value": 0,
      "maxFormula": "",
      "autoDeductChargesCost": "1"
    },
    "attackNotes": [],
    "effectNotes": [],
    "changes": [],
    "changeFlags": {
      "loseDexToAC": false,
      "noEncumbrance": false,
      "mediumArmorFullSpeed": false,
      "heavyArmorFullSpeed": false
    },
    "contextNotes": [],
    "links": {
      "children": [],
      "charges": []
    },
    "tag": "",
    "useCustomTag": false,
    "armorProf": {
      "value": [],
      "custom": ""
    },
    "weaponProf": {
      "value": [],
      "custom": ""
    },
    "languages": {
      "value": [],
      "custom": ""
    },
    "flags": {
      "boolean": {},
      "dictionary": {}
    },
    "scriptCalls": [],
    "subType": "racial",
    "associations": {
      "classes": []
    },
    "showInQuickbar": false,
    "abilityType": "none",
    "crOffset": "",
    "disabled": false,
    "classSkills": {}
  },
  "ownership": {
    "default": 0
  },
  "_stats": {
    "systemId": "pf1",
    "systemVersion": "9.1",
    "coreVersion": "10.291",
    "createdTime": 1665428384914,
    "modifiedTime": 1689797949321,
    "lastModifiedBy": "ppv91YxratjWnkJi"
  },
  "effects": [],
  "folder": null,
  "sort": 0,
  "flags": {},
  "_key": "!items!yoGRjHSNTbIJE7e3"
}