{
  "_id": "u2AvxtrlGvkCzmI4",
  "name": "Advanced Object Reading (Su)",
  "type": "feat",
  "img": "systems/pf1/icons/spells/evil-eye-eerie-1.jpg",
  "flags": {
    "scene-packer": {
      "sourceId": "Item.vOjYPXiXA4TePdot"
    }
  },
  "system": {
    "description": {
      "value": "<p><strong>Race:</strong> Munavri&nbsp;</p>\n<hr />\n<p>A munavri can instantly learn how to use almost any device. Once per day, she can select one weapon, suit of armor, or spell trigger item on which she has cast <em>object reading</em>. For a number of minutes equal to her character level, she is considered proficient with that item or can make use of the spell trigger device as if she were a spellcaster of the appropriate class.</p>",
      "unidentified": ""
    },
    "tags": [
      "Munavri"
    ],
    "actions": [],
    "uses": {
      "per": null,
      "value": 0,
      "maxFormula": "",
      "autoDeductChargesCost": "1"
    },
    "attackNotes": [],
    "effectNotes": [],
    "changes": [],
    "changeFlags": {
      "loseDexToAC": false,
      "noEncumbrance": false,
      "mediumArmorFullSpeed": false,
      "heavyArmorFullSpeed": false
    },
    "contextNotes": [],
    "links": {
      "children": [],
      "charges": []
    },
    "tag": "advancedObjectReadingSu",
    "useCustomTag": false,
    "armorProf": {
      "value": [],
      "custom": ""
    },
    "weaponProf": {
      "value": [],
      "custom": ""
    },
    "languages": {
      "value": [],
      "custom": ""
    },
    "flags": {
      "boolean": {},
      "dictionary": {}
    },
    "scriptCalls": [],
    "subType": "racial",
    "associations": {
      "classes": []
    },
    "showInQuickbar": false,
    "abilityType": "none",
    "crOffset": "",
    "disabled": false,
    "classSkills": {}
  },
  "ownership": {
    "default": 0
  },
  "_stats": {
    "systemId": "pf1",
    "systemVersion": "9.1",
    "coreVersion": "10.291",
    "createdTime": 1665428384808,
    "modifiedTime": 1689797948665,
    "lastModifiedBy": "ppv91YxratjWnkJi"
  },
  "effects": [],
  "folder": null,
  "sort": 0,
  "_key": "!items!u2AvxtrlGvkCzmI4"
}