{
  "_id": "Tb0QQbLa6WuRfUzG",
  "name": "Aquatic Mastery",
  "type": "feat",
  "img": "systems/pf1/icons/races/elf.png",
  "system": {
    "description": {
      "value": "<p><strong>Race:</strong> Elf&nbsp;<br /><strong>Replaced Trait(s):</strong> Weapon Familiarity&nbsp;</p>\n<hr />\n<p>Some aquatic elves are able to wield the power of the sea with great prowess. Elves with this racial trait increase the DC of any spell with the water descriptor they cast by 1.<br /><br /> This replaces weapon familiarity.</p>",
      "unidentified": ""
    },
    "tags": [
      "Elf",
      "PFS"
    ],
    "actions": [],
    "uses": {
      "per": null,
      "value": 0,
      "maxFormula": "",
      "autoDeductChargesCost": "1"
    },
    "attackNotes": [],
    "effectNotes": [],
    "changes": [],
    "changeFlags": {
      "loseDexToAC": false,
      "noEncumbrance": false,
      "mediumArmorFullSpeed": false,
      "heavyArmorFullSpeed": false
    },
    "contextNotes": [],
    "links": {
      "children": [],
      "charges": []
    },
    "tag": "",
    "useCustomTag": false,
    "armorProf": {
      "value": [],
      "custom": ""
    },
    "weaponProf": {
      "value": [],
      "custom": ""
    },
    "languages": {
      "value": [],
      "custom": ""
    },
    "flags": {
      "boolean": {},
      "dictionary": {}
    },
    "scriptCalls": [],
    "subType": "racial",
    "associations": {
      "classes": []
    },
    "showInQuickbar": false,
    "abilityType": "none",
    "crOffset": "",
    "disabled": false,
    "classSkills": {}
  },
  "ownership": {
    "default": 0
  },
  "_stats": {
    "systemId": "pf1",
    "systemVersion": "9.1",
    "coreVersion": "10.291",
    "createdTime": 1665428383780,
    "modifiedTime": 1689797940136,
    "lastModifiedBy": "ppv91YxratjWnkJi"
  },
  "effects": [],
  "folder": null,
  "sort": 0,
  "flags": {},
  "_key": "!items!Tb0QQbLa6WuRfUzG"
}