{
  "_id": "3haIOIRYDeFc1YZH",
  "name": "Archon-Blooded (Lawbringers)",
  "type": "feat",
  "img": "icons/commodities/biological/wing-bird-white.webp",
  "system": {
    "description": {
      "value": "<p><strong>Race:</strong> Aasimar&nbsp;<br /><strong>Replaced Trait(s):</strong> Base Statistics&nbsp;</p>\n<hr />\n<p>Lawbringers are champions of justice and of doling out punishment to the wicked, and often believe chaos is the cause of all mortal suffering. <br /><br /> <b>Ancestry </b>Archon<br /> <b>Typical Alignment</b> LG<br /> <b>Ability Modifiers</b> +2 Con, +2 Wis<br /> <b>Alternate Skill Modifiers</b> Intimidate, Sense Motive<br /> <b>Alternate Spell-Like Ability</b> Lawbringers gain <i>continual flame</i> as a spell-like ability.</p>",
      "unidentified": ""
    },
    "tags": [
      "Aasimar"
    ],
    "actions": [],
    "uses": {
      "per": null,
      "value": 0,
      "maxFormula": "",
      "autoDeductChargesCost": "1"
    },
    "attackNotes": [],
    "effectNotes": [],
    "changes": [],
    "changeFlags": {
      "loseDexToAC": false,
      "noEncumbrance": false,
      "mediumArmorFullSpeed": false,
      "heavyArmorFullSpeed": false
    },
    "contextNotes": [],
    "links": {
      "children": [],
      "charges": []
    },
    "tag": "",
    "useCustomTag": false,
    "armorProf": {
      "value": [],
      "custom": ""
    },
    "weaponProf": {
      "value": [],
      "custom": ""
    },
    "languages": {
      "value": [],
      "custom": ""
    },
    "flags": {
      "boolean": {},
      "dictionary": {}
    },
    "scriptCalls": [],
    "subType": "racial",
    "associations": {
      "classes": []
    },
    "showInQuickbar": false,
    "abilityType": "none",
    "crOffset": "",
    "disabled": false,
    "classSkills": {}
  },
  "ownership": {
    "default": 0
  },
  "_stats": {
    "systemId": "pf1",
    "systemVersion": "9.1",
    "coreVersion": "10.291",
    "createdTime": 1665428382571,
    "modifiedTime": 1689797934610,
    "lastModifiedBy": "ppv91YxratjWnkJi"
  },
  "effects": [],
  "folder": null,
  "sort": 0,
  "flags": {},
  "_key": "!items!3haIOIRYDeFc1YZH"
}