{
  "_id": "HSEQTjNZ9ZPnhZUZ",
  "name": "Beast Talker",
  "type": "feat",
  "img": "systems/pf1/icons/races/creature-types/humanoid.jpg",
  "system": {
    "description": {
      "value": "<p><strong>Race:</strong> Skinwalker&nbsp;<br /><strong>Replaced Trait(s):</strong> Lifebound&nbsp;</p>\n<hr />\n<p>Some skinwalkers' ability to communicate with animals is stronger than their ability to transform. Such skinwalkers can only use their change shape ability once per day for 1 minute per level, but they can use their <i>speak with animals</i> spell-like ability at will. This racial trait alters the change shape and spell-like ability racial traits.</p>",
      "unidentified": ""
    },
    "tags": [
      "Skinwalker",
      "PFS"
    ],
    "actions": [],
    "uses": {
      "per": null,
      "value": 0,
      "maxFormula": "",
      "autoDeductChargesCost": "1"
    },
    "attackNotes": [],
    "effectNotes": [],
    "changes": [],
    "changeFlags": {
      "loseDexToAC": false,
      "noEncumbrance": false,
      "mediumArmorFullSpeed": false,
      "heavyArmorFullSpeed": false
    },
    "contextNotes": [],
    "links": {
      "children": [],
      "charges": []
    },
    "tag": "",
    "useCustomTag": false,
    "armorProf": {
      "value": [],
      "custom": ""
    },
    "weaponProf": {
      "value": [],
      "custom": ""
    },
    "languages": {
      "value": [],
      "custom": ""
    },
    "flags": {
      "boolean": {},
      "dictionary": {}
    },
    "scriptCalls": [],
    "subType": "racial",
    "associations": {
      "classes": []
    },
    "showInQuickbar": false,
    "abilityType": "none",
    "crOffset": "",
    "disabled": false,
    "classSkills": {}
  },
  "ownership": {
    "default": 0
  },
  "_stats": {
    "systemId": "pf1",
    "systemVersion": "9.1",
    "coreVersion": "10.291",
    "createdTime": 1665428383261,
    "modifiedTime": 1689797937431,
    "lastModifiedBy": "ppv91YxratjWnkJi"
  },
  "effects": [],
  "folder": null,
  "sort": 0,
  "flags": {},
  "_key": "!items!HSEQTjNZ9ZPnhZUZ"
}