{
  "_id": "uPfUcu59YuGhaoFX",
  "name": "Behind the Veil",
  "type": "feat",
  "img": "systems/pf1/icons/races/half-elf.png",
  "system": {
    "description": {
      "value": "<p><strong>Race:</strong> Half-Elf&nbsp;<br /><strong>Replaced Trait(s):</strong> Low-Light Vision&nbsp;</p>\n<hr />\n<p>Characters with this trait slyly cover their body language and movements by acting in a shadowed or partitioned areas. These characters gain a +2 bonus on Bluff and Sleight of Hand checks while benefiting from concealment or cover.<br /><br /> Dwarves can take this trait in place of stonecunning. Elves, gnomes, and half-elves can take this trait in place of low-light vision. Half-orcs can take this trait in place of intimidating, also gaining the shadow blending<sup>ARG</sup> fetchling racial trait. Halflings can take this trait in place of weapon familiarity.</p>",
      "unidentified": ""
    },
    "tags": [
      "Half-Elf",
      "PFS"
    ],
    "actions": [],
    "uses": {
      "per": null,
      "value": 0,
      "maxFormula": "",
      "autoDeductChargesCost": "1"
    },
    "attackNotes": [],
    "effectNotes": [],
    "changes": [],
    "changeFlags": {
      "loseDexToAC": false,
      "noEncumbrance": false,
      "mediumArmorFullSpeed": false,
      "heavyArmorFullSpeed": false
    },
    "contextNotes": [],
    "links": {
      "children": [],
      "charges": []
    },
    "tag": "",
    "useCustomTag": false,
    "armorProf": {
      "value": [],
      "custom": ""
    },
    "weaponProf": {
      "value": [],
      "custom": ""
    },
    "languages": {
      "value": [],
      "custom": ""
    },
    "flags": {
      "boolean": {},
      "dictionary": {}
    },
    "scriptCalls": [],
    "subType": "racial",
    "associations": {
      "classes": []
    },
    "showInQuickbar": false,
    "abilityType": "none",
    "crOffset": "",
    "disabled": false,
    "classSkills": {}
  },
  "ownership": {
    "default": 0
  },
  "_stats": {
    "systemId": "pf1",
    "systemVersion": "9.1",
    "coreVersion": "10.291",
    "createdTime": 1665428384814,
    "modifiedTime": 1689797948715,
    "lastModifiedBy": "ppv91YxratjWnkJi"
  },
  "effects": [],
  "folder": null,
  "sort": 0,
  "flags": {},
  "_key": "!items!uPfUcu59YuGhaoFX"
}