{
  "_id": "myff7Z3hssdT7leV",
  "name": "Blank Slate",
  "type": "feat",
  "img": "systems/pf1/icons/skills/light_07.jpg",
  "system": {
    "description": {
      "value": "<p><strong>Race:</strong> Shabti&nbsp;<br /><strong>Replaced Trait(s):</strong> Past Life Knowledge&nbsp;</p>\n<hr />\n<p>Some shabti are bereft of memories of their past lives but can accomplish great improvisations. Shabti with this racial trait can, once per day as a free action, treat any skill as though they had a number of ranks equal to half of their character levels for one skill check (minimum 1 rank).<br /><br /> This racial trait replaces past life knowledge.</p>",
      "unidentified": ""
    },
    "tags": [
      "Shabti",
      "PFS"
    ],
    "actions": [],
    "uses": {
      "per": null,
      "value": 0,
      "maxFormula": "",
      "autoDeductChargesCost": "1"
    },
    "attackNotes": [],
    "effectNotes": [],
    "changes": [],
    "changeFlags": {
      "loseDexToAC": false,
      "noEncumbrance": false,
      "mediumArmorFullSpeed": false,
      "heavyArmorFullSpeed": false
    },
    "contextNotes": [],
    "links": {
      "children": [],
      "charges": []
    },
    "tag": "",
    "useCustomTag": false,
    "armorProf": {
      "value": [],
      "custom": ""
    },
    "weaponProf": {
      "value": [],
      "custom": ""
    },
    "languages": {
      "value": [],
      "custom": ""
    },
    "flags": {
      "boolean": {},
      "dictionary": {}
    },
    "scriptCalls": [],
    "subType": "racial",
    "associations": {
      "classes": []
    },
    "showInQuickbar": false,
    "abilityType": "none",
    "crOffset": "",
    "disabled": false,
    "classSkills": {}
  },
  "ownership": {
    "default": 0
  },
  "_stats": {
    "systemId": "pf1",
    "systemVersion": "9.1",
    "coreVersion": "10.291",
    "createdTime": 1665428384410,
    "modifiedTime": 1689797944667,
    "lastModifiedBy": "ppv91YxratjWnkJi"
  },
  "effects": [],
  "folder": null,
  "sort": 0,
  "flags": {},
  "_key": "!items!myff7Z3hssdT7leV"
}