{
  "_id": "Ol8AbEHSbXnbj9eC",
  "name": "Blasphemous Covenant",
  "type": "feat",
  "img": "systems/pf1/icons/races/drow.png",
  "system": {
    "description": {
      "value": "<p><strong>Race:</strong> Drow&nbsp;<br /><strong>Replaced Trait(s):</strong> Keen Senses, Poison Use&nbsp;</p>\n<hr />\n<p>Since their twisted beginnings, the drow have consorted with demons. Some drow have strong ties with these creatures and may call upon ancient and obscene associations to sway demonic cooperation. Drow with this racial trait gain a +2 bonus on Diplomacy checks made against unbound creatures with the demon subtype. Furthermore, demons conjured with any <i>summon </i>spell gain +2 hit points per Hit Die. Lastly, the cost of bribes or offerings for any <i>planar ally </i>spell cast by these drow to summon a demon is reduced by 20%. This racial trait replaces keen senses and poison use.</p>",
      "unidentified": ""
    },
    "tags": [
      "Drow"
    ],
    "actions": [],
    "uses": {
      "per": null,
      "value": 0,
      "maxFormula": "",
      "autoDeductChargesCost": "1"
    },
    "attackNotes": [],
    "effectNotes": [],
    "changes": [],
    "changeFlags": {
      "loseDexToAC": false,
      "noEncumbrance": false,
      "mediumArmorFullSpeed": false,
      "heavyArmorFullSpeed": false
    },
    "contextNotes": [],
    "links": {
      "children": [],
      "charges": []
    },
    "tag": "",
    "useCustomTag": false,
    "armorProf": {
      "value": [],
      "custom": ""
    },
    "weaponProf": {
      "value": [],
      "custom": ""
    },
    "languages": {
      "value": [],
      "custom": ""
    },
    "flags": {
      "boolean": {},
      "dictionary": {}
    },
    "scriptCalls": [],
    "subType": "racial",
    "associations": {
      "classes": []
    },
    "showInQuickbar": false,
    "abilityType": "none",
    "crOffset": "",
    "disabled": false,
    "classSkills": {}
  },
  "ownership": {
    "default": 0
  },
  "_stats": {
    "systemId": "pf1",
    "systemVersion": "9.1",
    "coreVersion": "10.291",
    "createdTime": 1665428383417,
    "modifiedTime": 1689797938380,
    "lastModifiedBy": "ppv91YxratjWnkJi"
  },
  "effects": [],
  "folder": null,
  "sort": 0,
  "flags": {},
  "_key": "!items!Ol8AbEHSbXnbj9eC"
}