{
  "_id": "sOmwse1zXEEj1Wps",
  "name": "Bleachling Magic",
  "type": "feat",
  "img": "systems/pf1/icons/races/gnome.png",
  "system": {
    "description": {
      "value": "<p><strong>Race:</strong> Gnome&nbsp;<br /><strong>Replaced Trait(s):</strong> Gnome Magic&nbsp;</p>\n<hr />\n<p>Gnomes with this racial trait treat their caster level as 1 higher for the purposes of divination spells they cast. Additionally, if the gnome has a Wisdom or Charisma score of 11 or higher, she also gains the ability to cast <%SPELLS%charm animal%%><i>charm animal</i><%END> as a spell-like ability three times per day. The caster level for this effect is equal to the gnome's level, and the DC for these spells is equal to 10 + the spell's level + the gnome's Charisma modifier.<br /><br /> This replaces gnome magic.</p>",
      "unidentified": ""
    },
    "tags": [
      "Gnome",
      "PFS"
    ],
    "actions": [],
    "uses": {
      "per": null,
      "value": 0,
      "maxFormula": "",
      "autoDeductChargesCost": "1"
    },
    "attackNotes": [],
    "effectNotes": [],
    "changes": [],
    "changeFlags": {
      "loseDexToAC": false,
      "noEncumbrance": false,
      "mediumArmorFullSpeed": false,
      "heavyArmorFullSpeed": false
    },
    "contextNotes": [],
    "links": {
      "children": [],
      "charges": []
    },
    "tag": "",
    "useCustomTag": false,
    "armorProf": {
      "value": [],
      "custom": ""
    },
    "weaponProf": {
      "value": [],
      "custom": ""
    },
    "languages": {
      "value": [],
      "custom": ""
    },
    "flags": {
      "boolean": {},
      "dictionary": {}
    },
    "scriptCalls": [],
    "subType": "racial",
    "associations": {
      "classes": []
    },
    "showInQuickbar": false,
    "abilityType": "none",
    "crOffset": "",
    "disabled": false,
    "classSkills": {}
  },
  "ownership": {
    "default": 0
  },
  "_stats": {
    "systemId": "pf1",
    "systemVersion": "9.1",
    "coreVersion": "10.291",
    "createdTime": 1665428384775,
    "modifiedTime": 1689797947039,
    "lastModifiedBy": "ppv91YxratjWnkJi"
  },
  "effects": [],
  "folder": null,
  "sort": 0,
  "flags": {},
  "_key": "!items!sOmwse1zXEEj1Wps"
}