{
  "_id": "cnMT4bfxktgJnrm1",
  "name": "Blood Courage",
  "type": "feat",
  "img": "systems/pf1/icons/skills/blood_07.jpg",
  "flags": {
    "scene-packer": {
      "sourceId": "Item.9l27hoa6HDqbrqgi"
    }
  },
  "system": {
    "description": {
      "value": "<p><strong>Race:</strong> Kuru&nbsp;</p>\n<hr />\n<p>Once per day when a kuru makes a saving throw against a fear effect, he can roll the saving throw twice and take the better result. He must decide to use this ability before the saving throw is attempted.</p>",
      "unidentified": ""
    },
    "tags": [
      "Kuru"
    ],
    "actions": [],
    "uses": {
      "per": null,
      "value": 0,
      "maxFormula": "",
      "autoDeductChargesCost": "1"
    },
    "attackNotes": [],
    "effectNotes": [],
    "changes": [],
    "changeFlags": {
      "loseDexToAC": false,
      "noEncumbrance": false,
      "mediumArmorFullSpeed": false,
      "heavyArmorFullSpeed": false
    },
    "contextNotes": [],
    "links": {
      "children": [],
      "charges": []
    },
    "tag": "bloodCourage",
    "useCustomTag": false,
    "armorProf": {
      "value": [],
      "custom": ""
    },
    "weaponProf": {
      "value": [],
      "custom": ""
    },
    "languages": {
      "value": [],
      "custom": ""
    },
    "flags": {
      "boolean": {},
      "dictionary": {}
    },
    "scriptCalls": [],
    "subType": "racial",
    "associations": {
      "classes": []
    },
    "showInQuickbar": false,
    "abilityType": "none",
    "crOffset": "",
    "disabled": false,
    "classSkills": {}
  },
  "ownership": {
    "default": 0
  },
  "_stats": {
    "systemId": "pf1",
    "systemVersion": "9.1",
    "coreVersion": "10.291",
    "createdTime": 1665428383960,
    "modifiedTime": 1689797941438,
    "lastModifiedBy": "ppv91YxratjWnkJi"
  },
  "effects": [],
  "folder": null,
  "sort": 0,
  "_key": "!items!cnMT4bfxktgJnrm1"
}