{
  "_id": "Rj3X80eJLvjX0SpQ",
  "name": "Blood-Born (Veil May)",
  "type": "feat",
  "img": "systems/pf1/icons/skills/light_07.jpg",
  "system": {
    "description": {
      "value": "<p><strong>Race:</strong> Changeling&nbsp;<br /><strong>Replaced Trait(s):</strong> Base Statistics&nbsp;</p>\n<hr />\n<p>Gifted with a face for every occasion, veil mays can adjust to any social situation, showing those around them exactly what they want to see. As easily as they read others, they are equally gifted at hiding their true intentions.<br /><br /> <b>Ancestry</b> Blood hag<br /><b>Typical Alignment</b> N<br /><b>Ability Modifiers</b> +2 Wis, +2 Cha, -2 Int<br /><b>Hag Racial Trait</b> The DCs of Sense Motive checks to gain a hunch about a blood-born changeling increase by 5.<br /><b><a href=\"FeatDisplay.aspx?ItemName=Awakened Hag Heritage\">Awakened Hag Heritage</b></a>  You gain a +2 racial bonus on Bluff, Diplomacy, and Sense Motive skill checks as your gifts for reading and manipulating others matures.</p>",
      "unidentified": ""
    },
    "tags": [
      "Changeling",
      "PFS"
    ],
    "actions": [],
    "uses": {
      "per": null,
      "value": 0,
      "maxFormula": "",
      "autoDeductChargesCost": "1"
    },
    "attackNotes": [],
    "effectNotes": [],
    "changes": [],
    "changeFlags": {
      "loseDexToAC": false,
      "noEncumbrance": false,
      "mediumArmorFullSpeed": false,
      "heavyArmorFullSpeed": false
    },
    "contextNotes": [],
    "links": {
      "children": [],
      "charges": []
    },
    "tag": "",
    "useCustomTag": false,
    "armorProf": {
      "value": [],
      "custom": ""
    },
    "weaponProf": {
      "value": [],
      "custom": ""
    },
    "languages": {
      "value": [],
      "custom": ""
    },
    "flags": {
      "boolean": {},
      "dictionary": {}
    },
    "scriptCalls": [],
    "subType": "racial",
    "associations": {
      "classes": []
    },
    "showInQuickbar": false,
    "abilityType": "none",
    "crOffset": "",
    "disabled": false,
    "classSkills": {}
  },
  "ownership": {
    "default": 0
  },
  "_stats": {
    "systemId": "pf1",
    "systemVersion": "9.1",
    "coreVersion": "10.291",
    "createdTime": 1665428383730,
    "modifiedTime": 1689797939844,
    "lastModifiedBy": "ppv91YxratjWnkJi"
  },
  "effects": [],
  "folder": null,
  "sort": 0,
  "flags": {},
  "_key": "!items!Rj3X80eJLvjX0SpQ"
}