{
  "_id": "dhSAd9l3M8b0SGAP",
  "name": "Blunt Head",
  "type": "feat",
  "img": "systems/pf1/icons/skills/blue_06.jpg",
  "system": {
    "description": {
      "value": "<p><strong>Race:</strong> Locathah&nbsp;<br /><strong>Replaced Trait(s):</strong> Fast Swimmer&nbsp;</p>\n<hr />\n<p>Some locathahs develop blunt, flat heads with sharp, needlelike teeth and well-muscled jaws. This head shape reduces their swim speed to 40 feet but provides the locathah with a bite attack. This is a primary natural attack that deals 1d4 points of piercing damage. This racial trait modifies fast swimmer.</p>",
      "unidentified": ""
    },
    "tags": [
      "Locathah",
      "PFS"
    ],
    "actions": [],
    "uses": {
      "per": null,
      "value": 0,
      "maxFormula": "",
      "autoDeductChargesCost": "1"
    },
    "attackNotes": [],
    "effectNotes": [],
    "changes": [],
    "changeFlags": {
      "loseDexToAC": false,
      "noEncumbrance": false,
      "mediumArmorFullSpeed": false,
      "heavyArmorFullSpeed": false
    },
    "contextNotes": [],
    "links": {
      "children": [],
      "charges": []
    },
    "tag": "",
    "useCustomTag": false,
    "armorProf": {
      "value": [],
      "custom": ""
    },
    "weaponProf": {
      "value": [],
      "custom": ""
    },
    "languages": {
      "value": [],
      "custom": ""
    },
    "flags": {
      "boolean": {},
      "dictionary": {}
    },
    "scriptCalls": [],
    "subType": "racial",
    "associations": {
      "classes": []
    },
    "showInQuickbar": false,
    "abilityType": "none",
    "crOffset": "",
    "disabled": false,
    "classSkills": {}
  },
  "ownership": {
    "default": 0
  },
  "_stats": {
    "systemId": "pf1",
    "systemVersion": "9.1",
    "coreVersion": "10.291",
    "createdTime": 1665428384243,
    "modifiedTime": 1689797942930,
    "lastModifiedBy": "ppv91YxratjWnkJi"
  },
  "effects": [],
  "folder": null,
  "sort": 0,
  "flags": {},
  "_key": "!items!dhSAd9l3M8b0SGAP"
}