{
  "_id": "TQUVpXNu7bAbTEAy",
  "name": "Bond to the Land",
  "type": "feat",
  "img": "systems/pf1/icons/races/gnome.png",
  "system": {
    "description": {
      "value": "<p><strong>Race:</strong> Gnome&nbsp;<br /><strong>Replaced Trait(s):</strong> Defensive Training, Hatred&nbsp;</p>\n<hr />\n<p>Some gnomes have strong ties to specific kinds of terrain, as a holdover from their fey origins. These gnomes gain a +2 dodge bonus to AC when in a specific terrain type selected from the ranger list of favored terrains. This choice is made at character creation, and cannot be changed. This racial trait replaces defensive training and hatred.</p>",
      "unidentified": ""
    },
    "tags": [
      "Gnome",
      "PFS"
    ],
    "actions": [],
    "uses": {
      "per": null,
      "value": 0,
      "maxFormula": "",
      "autoDeductChargesCost": "1"
    },
    "attackNotes": [],
    "effectNotes": [],
    "changes": [],
    "changeFlags": {
      "loseDexToAC": false,
      "noEncumbrance": false,
      "mediumArmorFullSpeed": false,
      "heavyArmorFullSpeed": false
    },
    "contextNotes": [],
    "links": {
      "children": [],
      "charges": []
    },
    "tag": "",
    "useCustomTag": false,
    "armorProf": {
      "value": [],
      "custom": ""
    },
    "weaponProf": {
      "value": [],
      "custom": ""
    },
    "languages": {
      "value": [],
      "custom": ""
    },
    "flags": {
      "boolean": {},
      "dictionary": {}
    },
    "scriptCalls": [],
    "subType": "racial",
    "associations": {
      "classes": []
    },
    "showInQuickbar": false,
    "abilityType": "none",
    "crOffset": "",
    "disabled": false,
    "classSkills": {}
  },
  "ownership": {
    "default": 0
  },
  "_stats": {
    "systemId": "pf1",
    "systemVersion": "9.1",
    "coreVersion": "10.291",
    "createdTime": 1665428383775,
    "modifiedTime": 1689797940109,
    "lastModifiedBy": "ppv91YxratjWnkJi"
  },
  "effects": [],
  "folder": null,
  "sort": 0,
  "flags": {},
  "_key": "!items!TQUVpXNu7bAbTEAy"
}