{
  "_id": "zEbb6d9slYHx3k63",
  "name": "Bound to Golarion",
  "type": "feat",
  "img": "systems/pf1/icons/races/fetchling.png",
  "system": {
    "description": {
      "value": "<p><strong>Race:</strong> Fetchling&nbsp;<br /><strong>Replaced Trait(s):</strong> Skilled&nbsp;</p>\n<hr />\n<p>Some Nidalese fetchlings are from families that have fearfully avoided the Shadow Plane, living on Golarion for generations. As a result, these fetchlings are closely tied to the Material Plane. Fetchlings with this racial trait count as outsiders with the native subtype and humanoids with the human subtype for any effect related to race, including feat prerequisites and spells that affect humanoids. They can pass for human without using the Disguise skill. This racial trait replaces the +2 racial bonus on Knowledge (planes) checks from the skilled racial trait, and alters the native outsider racial trait.</p>",
      "unidentified": ""
    },
    "tags": [
      "Fetchling",
      "PFS"
    ],
    "actions": [],
    "uses": {
      "per": null,
      "value": 0,
      "maxFormula": "",
      "autoDeductChargesCost": "1"
    },
    "attackNotes": [],
    "effectNotes": [],
    "changes": [],
    "changeFlags": {
      "loseDexToAC": false,
      "noEncumbrance": false,
      "mediumArmorFullSpeed": false,
      "heavyArmorFullSpeed": false
    },
    "contextNotes": [],
    "links": {
      "children": [],
      "charges": []
    },
    "tag": "",
    "useCustomTag": false,
    "armorProf": {
      "value": [],
      "custom": ""
    },
    "weaponProf": {
      "value": [],
      "custom": ""
    },
    "languages": {
      "value": [],
      "custom": ""
    },
    "flags": {
      "boolean": {},
      "dictionary": {}
    },
    "scriptCalls": [],
    "subType": "racial",
    "associations": {
      "classes": []
    },
    "showInQuickbar": false,
    "abilityType": "none",
    "crOffset": "",
    "disabled": false,
    "classSkills": {}
  },
  "ownership": {
    "default": 0
  },
  "_stats": {
    "systemId": "pf1",
    "systemVersion": "9.1",
    "coreVersion": "10.291",
    "createdTime": 1665428384924,
    "modifiedTime": 1689797949391,
    "lastModifiedBy": "ppv91YxratjWnkJi"
  },
  "effects": [],
  "folder": null,
  "sort": 0,
  "flags": {},
  "_key": "!items!zEbb6d9slYHx3k63"
}