{
  "_id": "Zty4nj3QFPOC0hYX",
  "name": "Breath Weapon",
  "type": "feat",
  "img": "systems/pf1/icons/races/dwarf.png",
  "system": {
    "description": {
      "value": "<p><strong>Race:</strong> Dwarf&nbsp;<br /><strong>Replaced Trait(s):</strong> Greed, Hatred, Stonecunning, Weapon Familiarity&nbsp;</p>\n<hr />\n<p>Dwarves with this racial trait can call upon the spirit of a sacred dragon to channel a fraction of that dragon's power. Upon taking this trait, the dwarf must select cold, electricity, or fire as the breath weapon's damage type and either a 15-foot cone or a 20-foot line as the breath weapon's shape. Once these selections are made, they cannot be changed. Once per day, the dwarf can make a supernatural breath attack in the selected shape, dealing 1d4 points of damage of the chosen damage type, plus 1d4 points of damage of that type for every 2 levels above 1st the dwarf has (to a maximum of 5d4 at 9th level). Targets in the area can attempt a Reflex save (DC = 10 + half the dwarf 's level + the dwarf 's Constitution bonus) for half damage.<br /><br /> This replaces greed, hatred, stonecunning, and weapon familiarity.</p>",
      "unidentified": ""
    },
    "tags": [
      "Dwarf",
      "PFS"
    ],
    "actions": [],
    "uses": {
      "per": null,
      "value": 0,
      "maxFormula": "",
      "autoDeductChargesCost": "1"
    },
    "attackNotes": [],
    "effectNotes": [],
    "changes": [],
    "changeFlags": {
      "loseDexToAC": false,
      "noEncumbrance": false,
      "mediumArmorFullSpeed": false,
      "heavyArmorFullSpeed": false
    },
    "contextNotes": [],
    "links": {
      "children": [],
      "charges": []
    },
    "tag": "",
    "useCustomTag": false,
    "armorProf": {
      "value": [],
      "custom": ""
    },
    "weaponProf": {
      "value": [],
      "custom": ""
    },
    "languages": {
      "value": [],
      "custom": ""
    },
    "flags": {
      "boolean": {},
      "dictionary": {}
    },
    "scriptCalls": [],
    "subType": "racial",
    "associations": {
      "classes": []
    },
    "showInQuickbar": false,
    "abilityType": "none",
    "crOffset": "",
    "disabled": false,
    "classSkills": {}
  },
  "ownership": {
    "default": 0
  },
  "_stats": {
    "systemId": "pf1",
    "systemVersion": "9.1",
    "coreVersion": "10.291",
    "createdTime": 1665428383905,
    "modifiedTime": 1689797940984,
    "lastModifiedBy": "ppv91YxratjWnkJi"
  },
  "effects": [],
  "folder": null,
  "sort": 0,
  "flags": {},
  "_key": "!items!Zty4nj3QFPOC0hYX"
}