{
  "_id": "W9nFsXa8qFiY5VXd",
  "name": "Burrow",
  "type": "feat",
  "img": "systems/pf1/icons/races/creature-types/vermin.png",
  "flags": {
    "scene-packer": {
      "sourceId": "Item.5kBfEoEJhFNuwbTc"
    }
  },
  "system": {
    "description": {
      "value": "<p><strong>Race:</strong> Trox&nbsp;</p>\n<hr />\n<p>Trox have a burrow speed of 20 feet.</p>",
      "unidentified": ""
    },
    "tags": [
      "Trox"
    ],
    "actions": [],
    "uses": {
      "per": null,
      "value": 0,
      "maxFormula": "",
      "autoDeductChargesCost": "1"
    },
    "attackNotes": [],
    "effectNotes": [],
    "changes": [],
    "changeFlags": {
      "loseDexToAC": false,
      "noEncumbrance": false,
      "mediumArmorFullSpeed": false,
      "heavyArmorFullSpeed": false
    },
    "contextNotes": [],
    "links": {
      "children": [],
      "charges": []
    },
    "tag": "burrow",
    "useCustomTag": false,
    "armorProf": {
      "value": [],
      "custom": ""
    },
    "weaponProf": {
      "value": [],
      "custom": ""
    },
    "languages": {
      "value": [],
      "custom": ""
    },
    "flags": {
      "boolean": {},
      "dictionary": {}
    },
    "scriptCalls": [],
    "subType": "racial",
    "associations": {
      "classes": []
    },
    "showInQuickbar": false,
    "abilityType": "none",
    "crOffset": "",
    "disabled": false,
    "classSkills": {}
  },
  "ownership": {
    "default": 0
  },
  "_stats": {
    "systemId": "pf1",
    "systemVersion": "9.1",
    "coreVersion": "10.291",
    "createdTime": 1665428383821,
    "modifiedTime": 1689797940425,
    "lastModifiedBy": "ppv91YxratjWnkJi"
  },
  "effects": [],
  "folder": null,
  "sort": 0,
  "_key": "!items!W9nFsXa8qFiY5VXd"
}