{
  "_id": "UBaGcNVcXL59Bfoq",
  "name": "Cat's Luck",
  "type": "feat",
  "img": "systems/pf1/icons/races/catfolk.png",
  "flags": {
    "scene-packer": {
      "sourceId": "Item.LNHFFT2IbtcdCgi9"
    }
  },
  "system": {
    "description": {
      "value": "<p><strong>Race:</strong> Catfolk&nbsp;</p>\n<hr />\n<p>Once per day when a catfolk attempts a Reflex saving throw, he can roll the saving throw twice and take the better result. He must decide to use this ability before the saving throw is attempted.</p>",
      "unidentified": ""
    },
    "tags": [
      "Catfolk"
    ],
    "actions": [],
    "uses": {
      "per": null,
      "value": 0,
      "maxFormula": "",
      "autoDeductChargesCost": "1"
    },
    "attackNotes": [],
    "effectNotes": [],
    "changes": [],
    "changeFlags": {
      "loseDexToAC": false,
      "noEncumbrance": false,
      "mediumArmorFullSpeed": false,
      "heavyArmorFullSpeed": false
    },
    "contextNotes": [],
    "links": {
      "children": [],
      "charges": []
    },
    "tag": "catsLuck",
    "useCustomTag": false,
    "armorProf": {
      "value": [],
      "custom": ""
    },
    "weaponProf": {
      "value": [],
      "custom": ""
    },
    "languages": {
      "value": [],
      "custom": ""
    },
    "flags": {
      "boolean": {},
      "dictionary": {}
    },
    "scriptCalls": [],
    "subType": "racial",
    "associations": {
      "classes": []
    },
    "showInQuickbar": false,
    "abilityType": "none",
    "crOffset": "",
    "disabled": false,
    "classSkills": {}
  },
  "ownership": {
    "default": 0
  },
  "_stats": {
    "systemId": "pf1",
    "systemVersion": "9.1",
    "coreVersion": "10.291",
    "createdTime": 1665428383790,
    "modifiedTime": 1689797940207,
    "lastModifiedBy": "ppv91YxratjWnkJi"
  },
  "effects": [],
  "folder": null,
  "sort": 0,
  "_key": "!items!UBaGcNVcXL59Bfoq"
}