{
  "_id": "sXLcCq4nFkeFlG5i",
  "name": "Cornered Fury",
  "type": "feat",
  "img": "systems/pf1/icons/races/ratfolk.png",
  "system": {
    "description": {
      "value": "<p><strong>Race:</strong> Ratfolk&nbsp;<br /><strong>Replaced Trait(s):</strong> Swarming&nbsp;</p>\n<hr />\n<p>Ratfolk can fight viciously when cut off from friends and allies. Whenever a ratfolk with this racial trait is reduced to half or fewer of his hit points, and has no conscious ally within 30 feet, he gains a +2 racial bonus on melee attack rolls and to Armor Class. This racial trait replaces swarming.</p>",
      "unidentified": ""
    },
    "tags": [
      "Ratfolk",
      "PFS"
    ],
    "actions": [],
    "uses": {
      "per": null,
      "value": 0,
      "maxFormula": "",
      "autoDeductChargesCost": "1"
    },
    "attackNotes": [],
    "effectNotes": [],
    "changes": [],
    "changeFlags": {
      "loseDexToAC": false,
      "noEncumbrance": false,
      "mediumArmorFullSpeed": false,
      "heavyArmorFullSpeed": false
    },
    "contextNotes": [],
    "links": {
      "children": [],
      "charges": []
    },
    "tag": "",
    "useCustomTag": false,
    "armorProf": {
      "value": [],
      "custom": ""
    },
    "weaponProf": {
      "value": [],
      "custom": ""
    },
    "languages": {
      "value": [],
      "custom": ""
    },
    "flags": {
      "boolean": {},
      "dictionary": {}
    },
    "scriptCalls": [],
    "subType": "racial",
    "associations": {
      "classes": []
    },
    "showInQuickbar": false,
    "abilityType": "none",
    "crOffset": "",
    "disabled": false,
    "classSkills": {}
  },
  "ownership": {
    "default": 0
  },
  "_stats": {
    "systemId": "pf1",
    "systemVersion": "9.1",
    "coreVersion": "10.291",
    "createdTime": 1665428384779,
    "modifiedTime": 1689797948434,
    "lastModifiedBy": "ppv91YxratjWnkJi"
  },
  "effects": [],
  "folder": null,
  "sort": 0,
  "flags": {},
  "_key": "!items!sXLcCq4nFkeFlG5i"
}