{
  "_id": "dXEb2y6woAp0MpCO",
  "name": "Crystalline Dust (Su)",
  "type": "feat",
  "img": "systems/pf1/icons/races/aphorite.png",
  "flags": {
    "scene-packer": {
      "sourceId": "Item.S6KYcYGjNvaK5Wvf"
    }
  },
  "system": {
    "description": {
      "value": "<p><strong>Race:</strong> Aphorite&nbsp;</p>\n<hr />\n<p>An aphorite can manifest a haze of crystalline dust that forms into indistinct runes and glyphs surrounding its body. This effect grants the aphorite a 20% miss chance against melee and ranged attacks. Activating this dust is a move action, but it can be maintained each round as a free action. The effect cannot be disrupted, but it ends immediately if the aphorite is killed, paralyzed, stunned, knocked unconscious, or otherwise prevented from taking a free action to maintain it each round. An aphorite can use this ability a number of rounds per day equal to its Hit Dice, but the rounds do not need to be consecutive.</p>",
      "unidentified": ""
    },
    "tags": [
      "Aphorite"
    ],
    "actions": [],
    "uses": {
      "per": null,
      "value": 0,
      "maxFormula": "",
      "autoDeductChargesCost": "1"
    },
    "attackNotes": [],
    "effectNotes": [],
    "changes": [],
    "changeFlags": {
      "loseDexToAC": false,
      "noEncumbrance": false,
      "mediumArmorFullSpeed": false,
      "heavyArmorFullSpeed": false
    },
    "contextNotes": [],
    "links": {
      "children": [],
      "charges": []
    },
    "tag": "crystallineDustSu",
    "useCustomTag": false,
    "armorProf": {
      "value": [],
      "custom": ""
    },
    "weaponProf": {
      "value": [],
      "custom": ""
    },
    "languages": {
      "value": [],
      "custom": ""
    },
    "flags": {
      "boolean": {},
      "dictionary": {}
    },
    "scriptCalls": [],
    "subType": "racial",
    "associations": {
      "classes": []
    },
    "showInQuickbar": false,
    "abilityType": "none",
    "crOffset": "",
    "disabled": false,
    "classSkills": {}
  },
  "ownership": {
    "default": 0
  },
  "_stats": {
    "systemId": "pf1",
    "systemVersion": "9.1",
    "coreVersion": "10.291",
    "createdTime": 1665428384240,
    "modifiedTime": 1689797942899,
    "lastModifiedBy": "ppv91YxratjWnkJi"
  },
  "effects": [],
  "folder": null,
  "sort": 0,
  "_key": "!items!dXEb2y6woAp0MpCO"
}