{
  "_id": "20tBxcHiLRujQYvC",
  "name": "Crystalline Form",
  "type": "feat",
  "img": "systems/pf1/icons/races/oread.png",
  "system": {
    "description": {
      "value": "<p><strong>Race:</strong> Oread&nbsp;<br /><strong>Replaced Trait(s):</strong> Earth Affinity&nbsp;</p>\n<hr />\n<p>Oreads with this trait gain a +2 racial bonus to AC against rays thanks to their reflective crystalline skin. In addition, once per day, they can deflect a single ray attack targeted at them as if they were using the Deflect Arrows feat. This racial trait replaces earth affinity.</p>",
      "unidentified": ""
    },
    "tags": [
      "Oread",
      "PFS"
    ],
    "actions": [],
    "uses": {
      "per": null,
      "value": 0,
      "maxFormula": "",
      "autoDeductChargesCost": "1"
    },
    "attackNotes": [],
    "effectNotes": [],
    "changes": [],
    "changeFlags": {
      "loseDexToAC": false,
      "noEncumbrance": false,
      "mediumArmorFullSpeed": false,
      "heavyArmorFullSpeed": false
    },
    "contextNotes": [],
    "links": {
      "children": [],
      "charges": []
    },
    "tag": "",
    "useCustomTag": false,
    "armorProf": {
      "value": [],
      "custom": ""
    },
    "weaponProf": {
      "value": [],
      "custom": ""
    },
    "languages": {
      "value": [],
      "custom": ""
    },
    "flags": {
      "boolean": {},
      "dictionary": {}
    },
    "scriptCalls": [],
    "subType": "racial",
    "associations": {
      "classes": []
    },
    "showInQuickbar": false,
    "abilityType": "none",
    "crOffset": "",
    "disabled": false,
    "classSkills": {}
  },
  "ownership": {
    "default": 0
  },
  "_stats": {
    "systemId": "pf1",
    "systemVersion": "9.1",
    "coreVersion": "10.291",
    "createdTime": 1665428382526,
    "modifiedTime": 1689797934359,
    "lastModifiedBy": "ppv91YxratjWnkJi"
  },
  "effects": [],
  "folder": null,
  "sort": 0,
  "flags": {},
  "_key": "!items!20tBxcHiLRujQYvC"
}