{
  "_id": "14Yg8GAjRW3tW486",
  "name": "Curiosity",
  "type": "feat",
  "img": "systems/pf1/icons/races/catfolk.png",
  "system": {
    "description": {
      "value": "<p><strong>Race:</strong> Catfolk&nbsp;<br /><strong>Replaced Trait(s):</strong> Natural Hunter&nbsp;</p>\n<hr />\n<p>Catfolk are naturally inquisitive about the world around them, though some are more curious than others. Such catfolk gain a +4 bonus on Diplomacy checks to gather information, and Knowledge (history) and Knowledge (local) are always class skills for them. If they choose a class that has either of these Knowledge skills as class skills, they gain a +2 racial bonus on those skills instead. This racial trait replaces natural hunter.</p>",
      "unidentified": ""
    },
    "tags": [
      "Catfolk",
      "PFS"
    ],
    "actions": [],
    "uses": {
      "per": null,
      "value": 0,
      "maxFormula": "",
      "autoDeductChargesCost": "1"
    },
    "attackNotes": [],
    "effectNotes": [],
    "changes": [],
    "changeFlags": {
      "loseDexToAC": false,
      "noEncumbrance": false,
      "mediumArmorFullSpeed": false,
      "heavyArmorFullSpeed": false
    },
    "contextNotes": [],
    "links": {
      "children": [],
      "charges": []
    },
    "tag": "",
    "useCustomTag": false,
    "armorProf": {
      "value": [],
      "custom": ""
    },
    "weaponProf": {
      "value": [],
      "custom": ""
    },
    "languages": {
      "value": [],
      "custom": ""
    },
    "flags": {
      "boolean": {},
      "dictionary": {}
    },
    "scriptCalls": [],
    "subType": "racial",
    "associations": {
      "classes": []
    },
    "showInQuickbar": false,
    "abilityType": "none",
    "crOffset": "",
    "disabled": false,
    "classSkills": {}
  },
  "ownership": {
    "default": 0
  },
  "_stats": {
    "systemId": "pf1",
    "systemVersion": "9.1",
    "coreVersion": "10.291",
    "createdTime": 1665428382507,
    "modifiedTime": 1689797934207,
    "lastModifiedBy": "ppv91YxratjWnkJi"
  },
  "effects": [],
  "folder": null,
  "sort": 0,
  "flags": {},
  "_key": "!items!14Yg8GAjRW3tW486"
}