{
  "_id": "siHk5xCzWJ6Cilke",
  "name": "Darkvision",
  "type": "feat",
  "img": "systems/pf1/icons/races/elf.png",
  "system": {
    "description": {
      "value": "<p><strong>Race:</strong> Elf&nbsp;<br /><strong>Replaced Trait(s):</strong> Low-Light Vision&nbsp;</p>\n<hr />\n<p>Though uncommon, some groups of elves are born with darkvision, rather than low-light vision. In many cases this is taken as a sign of a drow in the elf's ancestry, and can lead to persecution within the elf's home community. Elves with this racial trait gain darkvision with a range of 60 feet, but also gain sensitivity to light and are dazzled in areas of bright light or within the radius of a daylight spell. This racial trait replaces low-light vision.</p>",
      "unidentified": ""
    },
    "tags": [
      "Elf"
    ],
    "actions": [],
    "uses": {
      "per": null,
      "value": 0,
      "maxFormula": "",
      "autoDeductChargesCost": "1"
    },
    "attackNotes": [],
    "effectNotes": [],
    "changes": [],
    "changeFlags": {
      "loseDexToAC": false,
      "noEncumbrance": false,
      "mediumArmorFullSpeed": false,
      "heavyArmorFullSpeed": false
    },
    "contextNotes": [],
    "links": {
      "children": [],
      "charges": []
    },
    "tag": "",
    "useCustomTag": false,
    "armorProf": {
      "value": [],
      "custom": ""
    },
    "weaponProf": {
      "value": [],
      "custom": ""
    },
    "languages": {
      "value": [],
      "custom": ""
    },
    "flags": {
      "boolean": {},
      "dictionary": {}
    },
    "scriptCalls": [],
    "subType": "racial",
    "associations": {
      "classes": []
    },
    "showInQuickbar": false,
    "abilityType": "none",
    "crOffset": "",
    "disabled": false,
    "classSkills": {}
  },
  "ownership": {
    "default": 0
  },
  "_stats": {
    "systemId": "pf1",
    "systemVersion": "9.1",
    "coreVersion": "10.291",
    "createdTime": 1665428384784,
    "modifiedTime": 1689797948469,
    "lastModifiedBy": "ppv91YxratjWnkJi"
  },
  "effects": [],
  "folder": null,
  "sort": 0,
  "flags": {},
  "_key": "!items!siHk5xCzWJ6Cilke"
}