{
  "_id": "CE7P9xyXwMPR0YbH",
  "name": "Darkvision",
  "type": "feat",
  "img": "systems/pf1/icons/races/undine.png",
  "system": {
    "description": {
      "value": "<p><strong>Race:</strong> Merfolk&nbsp;<br /><strong>Replaced Trait(s):</strong> Low-Light Vision&nbsp;</p>\n<hr />\n<p>Some merfolk favor the lightless depths over shallower waters. Merfolk with this racial trait gain darkvision with a range of 60 feet and light sensitivity. This racial trait replaces low-light vision.</p>",
      "unidentified": ""
    },
    "tags": [
      "Merfolk",
      "PFS"
    ],
    "actions": [],
    "uses": {
      "per": null,
      "value": 0,
      "maxFormula": "",
      "autoDeductChargesCost": "1"
    },
    "attackNotes": [],
    "effectNotes": [],
    "changes": [],
    "changeFlags": {
      "loseDexToAC": false,
      "noEncumbrance": false,
      "mediumArmorFullSpeed": false,
      "heavyArmorFullSpeed": false
    },
    "contextNotes": [],
    "links": {
      "children": [],
      "charges": []
    },
    "tag": "",
    "useCustomTag": false,
    "armorProf": {
      "value": [],
      "custom": ""
    },
    "weaponProf": {
      "value": [],
      "custom": ""
    },
    "languages": {
      "value": [],
      "custom": ""
    },
    "flags": {
      "boolean": {},
      "dictionary": {}
    },
    "scriptCalls": [],
    "subType": "racial",
    "associations": {
      "classes": []
    },
    "showInQuickbar": false,
    "abilityType": "none",
    "crOffset": "",
    "disabled": false,
    "classSkills": {}
  },
  "ownership": {
    "default": 0
  },
  "_stats": {
    "systemId": "pf1",
    "systemVersion": "9.1",
    "coreVersion": "10.291",
    "createdTime": 1665428382736,
    "modifiedTime": 1689797935532,
    "lastModifiedBy": "ppv91YxratjWnkJi"
  },
  "effects": [],
  "folder": null,
  "sort": 0,
  "flags": {},
  "_key": "!items!CE7P9xyXwMPR0YbH"
}