{
  "_id": "tTnTbwQMUCVklGGl",
  "name": "Darklands Guide",
  "type": "feat",
  "img": "systems/pf1/icons/races/tiefling.png",
  "system": {
    "description": {
      "value": "<p><strong>Race:</strong> Tiefling&nbsp;<br /><strong>Replaced Trait(s):</strong> Spell-Like Ability&nbsp;</p>\n<hr />\n<p>Those who brave the lightless tunnels below Golarion's surface learn to identify the dangerous phenomena that characterize the Darklands. Characters with this trait gain a +2 bonus on initiative checks, and on saves against traps and hazards when underground (from a lifetime of dodging accursed pools, cave-ins, and green slime).<br /><br /> Drow and half-elves can take this trait in place of keen senses. Tieflings can take this trait in place of the darkness spell-like ability.</p>",
      "unidentified": ""
    },
    "tags": [
      "Tiefling",
      "PFS"
    ],
    "actions": [],
    "uses": {
      "per": null,
      "value": 0,
      "maxFormula": "",
      "autoDeductChargesCost": "1"
    },
    "attackNotes": [],
    "effectNotes": [],
    "changes": [],
    "changeFlags": {
      "loseDexToAC": false,
      "noEncumbrance": false,
      "mediumArmorFullSpeed": false,
      "heavyArmorFullSpeed": false
    },
    "contextNotes": [],
    "links": {
      "children": [],
      "charges": []
    },
    "tag": "",
    "useCustomTag": false,
    "armorProf": {
      "value": [],
      "custom": ""
    },
    "weaponProf": {
      "value": [],
      "custom": ""
    },
    "languages": {
      "value": [],
      "custom": ""
    },
    "flags": {
      "boolean": {},
      "dictionary": {}
    },
    "scriptCalls": [],
    "subType": "racial",
    "associations": {
      "classes": []
    },
    "showInQuickbar": false,
    "abilityType": "none",
    "crOffset": "",
    "disabled": false,
    "classSkills": {}
  },
  "ownership": {
    "default": 0
  },
  "_stats": {
    "systemId": "pf1",
    "systemVersion": "9.1",
    "coreVersion": "10.291",
    "createdTime": 1665428384800,
    "modifiedTime": 1689797948607,
    "lastModifiedBy": "ppv91YxratjWnkJi"
  },
  "effects": [],
  "folder": null,
  "sort": 0,
  "flags": {},
  "_key": "!items!tTnTbwQMUCVklGGl"
}