{
  "_id": "FTP7h1bfD3Zkmf2N",
  "name": "Daylight Adaptation",
  "type": "feat",
  "img": "systems/pf1/icons/races/drow.png",
  "system": {
    "description": {
      "value": "<p><strong>Race:</strong> Drow&nbsp;<br /><strong>Replaced Trait(s):</strong> Spell Resistance&nbsp;</p>\n<hr />\n<p>Some drow with a hint of other racial heritages spend significant time on the surface and maintain their darkvision, but no longer have the light blindness trait. This racial trait replaces spell resistance.</p>",
      "unidentified": ""
    },
    "tags": [
      "Drow"
    ],
    "actions": [],
    "uses": {
      "per": null,
      "value": 0,
      "maxFormula": "",
      "autoDeductChargesCost": "1"
    },
    "attackNotes": [],
    "effectNotes": [],
    "changes": [],
    "changeFlags": {
      "loseDexToAC": false,
      "noEncumbrance": false,
      "mediumArmorFullSpeed": false,
      "heavyArmorFullSpeed": false
    },
    "contextNotes": [],
    "links": {
      "children": [],
      "charges": []
    },
    "tag": "",
    "useCustomTag": false,
    "armorProf": {
      "value": [],
      "custom": ""
    },
    "weaponProf": {
      "value": [],
      "custom": ""
    },
    "languages": {
      "value": [],
      "custom": ""
    },
    "flags": {
      "boolean": {},
      "dictionary": {}
    },
    "scriptCalls": [],
    "subType": "racial",
    "associations": {
      "classes": []
    },
    "showInQuickbar": false,
    "abilityType": "none",
    "crOffset": "",
    "disabled": false,
    "classSkills": {}
  },
  "ownership": {
    "default": 0
  },
  "_stats": {
    "systemId": "pf1",
    "systemVersion": "9.1",
    "coreVersion": "10.291",
    "createdTime": 1665428383210,
    "modifiedTime": 1689797937209,
    "lastModifiedBy": "ppv91YxratjWnkJi"
  },
  "effects": [],
  "folder": null,
  "sort": 0,
  "flags": {},
  "_key": "!items!FTP7h1bfD3Zkmf2N"
}