{
  "_id": "ShvaEnYXmYs0vV6h",
  "name": "Desert Dwarves",
  "type": "feat",
  "img": "systems/pf1/icons/races/dwarf.png",
  "system": {
    "description": {
      "value": "<p><strong>Race:</strong> Dwarf&nbsp;<br /><strong>Replaced Trait(s):</strong> Base Statistics&nbsp;</p>\n<hr />\n<p>In southern peaks of the Shattered Range, near Geb and the Screaming Jungle, clans of nomadic dwarves live and travel through ancient tunnels by day, moving to the surface only at night. Though there are no known dwarven cities in this region, the Garundi dwarves claim the extensive tunnels and caverns they move through are the remains of a once=powerful dwarven kingdom, which was struck down by the gods for some long-forgotten offense. These dwarves travel in caravans of 40 or so family units (though the largest caravans can contain more than 300 families) and engage in sporadic clan-based trade or warfare, but they all respect the neutrality of hidden settlements of dwarves who dwell in underground oases within the mountains. Desert dwarves often have the craftsman, mountaineer, and rock stepper alternate racial traits. Most also have the desert delver alternate racial trait described below.</p>",
      "unidentified": ""
    },
    "tags": [
      "Dwarf",
      "PFS"
    ],
    "actions": [],
    "uses": {
      "per": null,
      "value": 0,
      "maxFormula": "",
      "autoDeductChargesCost": "1"
    },
    "attackNotes": [],
    "effectNotes": [],
    "changes": [],
    "changeFlags": {
      "loseDexToAC": false,
      "noEncumbrance": false,
      "mediumArmorFullSpeed": false,
      "heavyArmorFullSpeed": false
    },
    "contextNotes": [],
    "links": {
      "children": [],
      "charges": []
    },
    "tag": "",
    "useCustomTag": false,
    "armorProf": {
      "value": [],
      "custom": ""
    },
    "weaponProf": {
      "value": [],
      "custom": ""
    },
    "languages": {
      "value": [],
      "custom": ""
    },
    "flags": {
      "boolean": {},
      "dictionary": {}
    },
    "scriptCalls": [],
    "subType": "racial",
    "associations": {
      "classes": []
    },
    "showInQuickbar": false,
    "abilityType": "none",
    "crOffset": "",
    "disabled": false,
    "classSkills": {}
  },
  "ownership": {
    "default": 0
  },
  "_stats": {
    "systemId": "pf1",
    "systemVersion": "9.1",
    "coreVersion": "10.291",
    "createdTime": 1665428383756,
    "modifiedTime": 1689797939982,
    "lastModifiedBy": "ppv91YxratjWnkJi"
  },
  "effects": [],
  "folder": null,
  "sort": 0,
  "flags": {},
  "_key": "!items!ShvaEnYXmYs0vV6h"
}