{
  "_id": "zN4wIRd7yB2Uzh5K",
  "name": "Desert Half-Orcs (Sandkin)",
  "type": "feat",
  "img": "systems/pf1/icons/races/half-orc.png",
  "system": {
    "description": {
      "value": "<p><strong>Race:</strong> Half-Orc&nbsp;<br /><strong>Replaced Trait(s):</strong> Base Statistics&nbsp;</p>\n<hr />\n<p>Desert half-orcs are born primarily in northern Garund and Osirion and often hold a level of esteem and self-assurance that is rare for half-orcs. Among desert orc tribes, the ability to tolerate harsh sunlight is a sign of strength, and weathering the sun is a rite of passage. Lacking their ancestors' light sensitivity, half-orcs excel at these contests of endurance and easily earn high positions within their tribes.<br /><br /> Desert half-orcs also fare better than most among human civilizations. The strong presence of Sarenrae's followers has led to a culture of forgiveness and understanding that is rare in other parts of Golarion, making it easier for half-orcs to thrive. Many desert half-orcs believe they are blessed by Sarenrae and become clerics or paladins of her church.</p>",
      "unidentified": ""
    },
    "tags": [
      "Half-Orc",
      "PFS"
    ],
    "actions": [],
    "uses": {
      "per": null,
      "value": 0,
      "maxFormula": "",
      "autoDeductChargesCost": "1"
    },
    "attackNotes": [],
    "effectNotes": [],
    "changes": [],
    "changeFlags": {
      "loseDexToAC": false,
      "noEncumbrance": false,
      "mediumArmorFullSpeed": false,
      "heavyArmorFullSpeed": false
    },
    "contextNotes": [],
    "links": {
      "children": [],
      "charges": []
    },
    "tag": "",
    "useCustomTag": false,
    "armorProf": {
      "value": [],
      "custom": ""
    },
    "weaponProf": {
      "value": [],
      "custom": ""
    },
    "languages": {
      "value": [],
      "custom": ""
    },
    "flags": {
      "boolean": {},
      "dictionary": {}
    },
    "scriptCalls": [],
    "subType": "racial",
    "associations": {
      "classes": []
    },
    "showInQuickbar": false,
    "abilityType": "none",
    "crOffset": "",
    "disabled": false,
    "classSkills": {}
  },
  "ownership": {
    "default": 0
  },
  "_stats": {
    "systemId": "pf1",
    "systemVersion": "9.1",
    "coreVersion": "10.291",
    "createdTime": 1665428384926,
    "modifiedTime": 1689797949404,
    "lastModifiedBy": "ppv91YxratjWnkJi"
  },
  "effects": [],
  "folder": null,
  "sort": 0,
  "flags": {},
  "_key": "!items!zN4wIRd7yB2Uzh5K"
}