{
  "_id": "p95hpIAifEyv3asz",
  "name": "Dimdweller",
  "type": "feat",
  "img": "systems/pf1/icons/races/halfling.png",
  "system": {
    "description": {
      "value": "<p><strong>Race:</strong> Halfling&nbsp;<br /><strong>Replaced Trait(s):</strong> Weapon Familiarity&nbsp;</p>\n<hr />\n<p>Characters with this trait are at home in gloomy conditions. Whenever these characters benefit from concealment or full concealment due to darkness or dim light, they gain a +2 racial bonus on Intimidate, Perception, and Stealth checks.<br /><br /> Dwarves can take this trait in place of the greed and stonecunning traits. Elves, gnomes, halflings, and half-orcs can take this trait in place of weapon familiarity. Half-elves can take this trait in place of adaptability. Humans can take this trait in place of the skilled trait, also gaining darkvision to a range of 60 feet.</p>",
      "unidentified": ""
    },
    "tags": [
      "Halfling"
    ],
    "actions": [],
    "uses": {
      "per": null,
      "value": 0,
      "maxFormula": "",
      "autoDeductChargesCost": "1"
    },
    "attackNotes": [],
    "effectNotes": [],
    "changes": [],
    "changeFlags": {
      "loseDexToAC": false,
      "noEncumbrance": false,
      "mediumArmorFullSpeed": false,
      "heavyArmorFullSpeed": false
    },
    "contextNotes": [],
    "links": {
      "children": [],
      "charges": []
    },
    "tag": "",
    "useCustomTag": false,
    "armorProf": {
      "value": [],
      "custom": ""
    },
    "weaponProf": {
      "value": [],
      "custom": ""
    },
    "languages": {
      "value": [],
      "custom": ""
    },
    "flags": {
      "boolean": {},
      "dictionary": {}
    },
    "scriptCalls": [],
    "subType": "racial",
    "associations": {
      "classes": []
    },
    "showInQuickbar": false,
    "abilityType": "none",
    "crOffset": "",
    "disabled": false,
    "classSkills": {}
  },
  "ownership": {
    "default": 0
  },
  "_stats": {
    "systemId": "pf1",
    "systemVersion": "9.1",
    "coreVersion": "10.291",
    "createdTime": 1665428384455,
    "modifiedTime": 1689797944981,
    "lastModifiedBy": "ppv91YxratjWnkJi"
  },
  "effects": [],
  "folder": null,
  "sort": 0,
  "flags": {},
  "_key": "!items!p95hpIAifEyv3asz"
}