{
  "_id": "sZWXyODKXOjF5bul",
  "name": "Dragon Affinity",
  "type": "feat",
  "img": "systems/pf1/icons/races/kobold.png",
  "system": {
    "description": {
      "value": "<p><strong>Race:</strong> Kobold&nbsp;<br /><strong>Replaced Trait(s):</strong> Armor&nbsp;</p>\n<hr />\n<p>Kobold sorcerers with the draconic bloodline or kobold bloodline (<i>Advanced Race Guide</i> 134) treat their Charisma scores as 2 points higher for all sorcerer spells and class abilities. This racial trait replaces the armor trait.</p>",
      "unidentified": ""
    },
    "tags": [
      "Kobold",
      "PFS"
    ],
    "actions": [],
    "uses": {
      "per": null,
      "value": 0,
      "maxFormula": "",
      "autoDeductChargesCost": "1"
    },
    "attackNotes": [],
    "effectNotes": [],
    "changes": [],
    "changeFlags": {
      "loseDexToAC": false,
      "noEncumbrance": false,
      "mediumArmorFullSpeed": false,
      "heavyArmorFullSpeed": false
    },
    "contextNotes": [],
    "links": {
      "children": [],
      "charges": []
    },
    "tag": "",
    "useCustomTag": false,
    "armorProf": {
      "value": [],
      "custom": ""
    },
    "weaponProf": {
      "value": [],
      "custom": ""
    },
    "languages": {
      "value": [],
      "custom": ""
    },
    "flags": {
      "boolean": {},
      "dictionary": {}
    },
    "scriptCalls": [],
    "subType": "racial",
    "associations": {
      "classes": []
    },
    "showInQuickbar": false,
    "abilityType": "none",
    "crOffset": "",
    "disabled": false,
    "classSkills": {}
  },
  "ownership": {
    "default": 0
  },
  "_stats": {
    "systemId": "pf1",
    "systemVersion": "9.1",
    "coreVersion": "10.291",
    "createdTime": 1665428384779,
    "modifiedTime": 1689797948444,
    "lastModifiedBy": "ppv91YxratjWnkJi"
  },
  "effects": [],
  "folder": null,
  "sort": 0,
  "flags": {},
  "_key": "!items!sZWXyODKXOjF5bul"
}