{
  "_id": "VavtvA1snnAQD7lX",
  "name": "Dragon Slayer",
  "type": "feat",
  "img": "systems/pf1/icons/races/half-orc.png",
  "system": {
    "description": {
      "value": "<p><strong>Race:</strong> Half-Orc&nbsp;<br /><strong>Replaced Trait(s):</strong> Orc Ferocity&nbsp;</p>\n<hr />\n<p>Some half-orcs train to defend their kind against dragons that would take advantage of or enslave them. Half-orcs with this trait gain a +2 dodge bonus to their AC against dragons and a +1 racial bonus on attack rolls against dragons. This trait replaces orc ferocity  </p>",
      "unidentified": ""
    },
    "tags": [
      "Half-Orc",
      "PFS"
    ],
    "actions": [],
    "uses": {
      "per": null,
      "value": 0,
      "maxFormula": "",
      "autoDeductChargesCost": "1"
    },
    "attackNotes": [],
    "effectNotes": [],
    "changes": [],
    "changeFlags": {
      "loseDexToAC": false,
      "noEncumbrance": false,
      "mediumArmorFullSpeed": false,
      "heavyArmorFullSpeed": false
    },
    "contextNotes": [
      {
        "subTarget": "ac",
        "target": "misc",
        "text": "+[[2]] dodge vs dragons"
      },
      {
        "subTarget": "attack",
        "target": "attacks",
        "text": "+[[1]] racial on attacks against dragons"
      }
    ],
    "links": {
      "children": [],
      "charges": []
    },
    "tag": "dragonSlayer",
    "useCustomTag": false,
    "armorProf": {
      "value": [],
      "custom": ""
    },
    "weaponProf": {
      "value": [],
      "custom": ""
    },
    "languages": {
      "value": [],
      "custom": ""
    },
    "flags": {
      "boolean": {},
      "dictionary": {}
    },
    "scriptCalls": [],
    "subType": "racial",
    "associations": {
      "classes": []
    },
    "showInQuickbar": false,
    "abilityType": "none",
    "crOffset": "",
    "disabled": false,
    "classSkills": {}
  },
  "ownership": {
    "default": 0
  },
  "_stats": {
    "systemId": "pf1",
    "systemVersion": "9.1",
    "coreVersion": "10.291",
    "createdTime": 1665428383808,
    "modifiedTime": 1689797940348,
    "lastModifiedBy": "ppv91YxratjWnkJi"
  },
  "effects": [],
  "folder": null,
  "sort": 0,
  "flags": {},
  "_key": "!items!VavtvA1snnAQD7lX"
}