{
  "_id": "LzFbBJDJsOh7wy8t",
  "name": "Dreamthief-Born (Waker May)",
  "type": "feat",
  "img": "systems/pf1/icons/skills/light_07.jpg",
  "system": {
    "description": {
      "value": "<p><strong>Race:</strong> Changeling&nbsp;<br /><strong>Replaced Trait(s):</strong> Base Statistics&nbsp;</p>\n<hr />\n<p>Rare beyond measure, waker mays exist only as the result of horrific rituals and bear stained souls. Cursed from birth, they mature like foul fruit into the deadliest of and most powerful of hags.<br /><br /> <b>Ancestry</b> Dreamthief hag<br /><b>Typical Alignment</b> NE<br /><b>Ability Modifiers</b> +2 Str, +2 Cha, -2 Wis<br /><b>Hag Racial Trait</b> Dreamthief-born changelings gain a +2 racial bonus on saving throws against mind-affecting effects.<br /><b><a href=\"FeatDisplay.aspx?ItemName=Awakened Hag Heritage\">Awakened Hag Heritage</b></a> You no longer need to sleep and cannot become fatigued due to lack of sleep. You can still be affected by other effects that inflict the fatigued condition, and must rest for 8 hours in order to prepare spells or regain uses of class abilities as normal, even if this time is not spent sleeping.</p>",
      "unidentified": ""
    },
    "tags": [
      "Changeling",
      "PFS"
    ],
    "actions": [],
    "uses": {
      "per": null,
      "value": 0,
      "maxFormula": "",
      "autoDeductChargesCost": "1"
    },
    "attackNotes": [],
    "effectNotes": [],
    "changes": [],
    "changeFlags": {
      "loseDexToAC": false,
      "noEncumbrance": false,
      "mediumArmorFullSpeed": false,
      "heavyArmorFullSpeed": false
    },
    "contextNotes": [],
    "links": {
      "children": [],
      "charges": []
    },
    "tag": "",
    "useCustomTag": false,
    "armorProf": {
      "value": [],
      "custom": ""
    },
    "weaponProf": {
      "value": [],
      "custom": ""
    },
    "languages": {
      "value": [],
      "custom": ""
    },
    "flags": {
      "boolean": {},
      "dictionary": {}
    },
    "scriptCalls": [],
    "subType": "racial",
    "associations": {
      "classes": []
    },
    "showInQuickbar": false,
    "abilityType": "none",
    "crOffset": "",
    "disabled": false,
    "classSkills": {}
  },
  "ownership": {
    "default": 0
  },
  "_stats": {
    "systemId": "pf1",
    "systemVersion": "9.1",
    "coreVersion": "10.291",
    "createdTime": 1665428383362,
    "modifiedTime": 1689797938024,
    "lastModifiedBy": "ppv91YxratjWnkJi"
  },
  "effects": [],
  "folder": null,
  "sort": 0,
  "flags": {},
  "_key": "!items!LzFbBJDJsOh7wy8t"
}