{
  "_id": "lNkG5OnOXSt64aEY",
  "name": "Dusksight",
  "type": "feat",
  "img": "systems/pf1/icons/races/half-orc.png",
  "system": {
    "description": {
      "value": "<p><strong>Race:</strong> Half-Orc&nbsp;<br /><strong>Replaced Trait(s):</strong> Weapon Familiarity&nbsp;</p>\n<hr />\n<p>Characters who operate below canopies or fight in dimly lit caves and shadowy planes of existence learn to use their low-light vision to deduce a foe's position from the flickers of shadows around a target. When making ranged attacks, characters with this trait can reroll the miss chance granted by cover to any target in dim light, and take the better of the two rolls. The miss chance for total concealment applies normally.<br /><br /> Dwarves can take this trait in place of hatred and darkvision, also gaining low-light vision. Elves, gnomes, half-elves, and halflings can take this trait in place of keen senses. Half-orcs can take this trait in place of weapon familiarity, also gaining low-light vision.</p>",
      "unidentified": ""
    },
    "tags": [
      "Half-Orc",
      "PFS"
    ],
    "actions": [],
    "uses": {
      "per": null,
      "value": 0,
      "maxFormula": "",
      "autoDeductChargesCost": "1"
    },
    "attackNotes": [],
    "effectNotes": [],
    "changes": [],
    "changeFlags": {
      "loseDexToAC": false,
      "noEncumbrance": false,
      "mediumArmorFullSpeed": false,
      "heavyArmorFullSpeed": false
    },
    "contextNotes": [],
    "links": {
      "children": [],
      "charges": []
    },
    "tag": "",
    "useCustomTag": false,
    "armorProf": {
      "value": [],
      "custom": ""
    },
    "weaponProf": {
      "value": [],
      "custom": ""
    },
    "languages": {
      "value": [],
      "custom": ""
    },
    "flags": {
      "boolean": {},
      "dictionary": {}
    },
    "scriptCalls": [],
    "subType": "racial",
    "associations": {
      "classes": []
    },
    "showInQuickbar": false,
    "abilityType": "none",
    "crOffset": "",
    "disabled": false,
    "classSkills": {}
  },
  "ownership": {
    "default": 0
  },
  "_stats": {
    "systemId": "pf1",
    "systemVersion": "9.1",
    "coreVersion": "10.291",
    "createdTime": 1665428384384,
    "modifiedTime": 1689797944471,
    "lastModifiedBy": "ppv91YxratjWnkJi"
  },
  "effects": [],
  "folder": null,
  "sort": 0,
  "flags": {},
  "_key": "!items!lNkG5OnOXSt64aEY"
}