{
  "_id": "SWGQSYy6SVgjeVyj",
  "name": "Efreeti Magic",
  "type": "feat",
  "img": "systems/pf1/icons/races/ifrit.png",
  "system": {
    "description": {
      "value": "<p><strong>Race:</strong> Ifrit&nbsp;<br /><strong>Replaced Trait(s):</strong> Spell-Like Ability&nbsp;</p>\n<hr />\n<p>Some ifrits inherit an efreeti ancestor's ability to magically change a creature's size. They can cast either <i>enlarge person </i>or <i>reduce person </i>(the ifrit chooses when using this ability) once per day as a spell-like ability (caster level equals the ifrit's level). The ifrit can use this ability to affect other ifrits as though they were humanoid creatures. This racial trait replaces the spell-like ability racial trait.</p>",
      "unidentified": ""
    },
    "tags": [
      "Ifrit",
      "PFS"
    ],
    "actions": [],
    "uses": {
      "per": null,
      "value": 0,
      "maxFormula": "",
      "autoDeductChargesCost": "1"
    },
    "attackNotes": [],
    "effectNotes": [],
    "changes": [],
    "changeFlags": {
      "loseDexToAC": false,
      "noEncumbrance": false,
      "mediumArmorFullSpeed": false,
      "heavyArmorFullSpeed": false
    },
    "contextNotes": [],
    "links": {
      "children": [],
      "charges": []
    },
    "tag": "",
    "useCustomTag": false,
    "armorProf": {
      "value": [],
      "custom": ""
    },
    "weaponProf": {
      "value": [],
      "custom": ""
    },
    "languages": {
      "value": [],
      "custom": ""
    },
    "flags": {
      "boolean": {},
      "dictionary": {}
    },
    "scriptCalls": [],
    "subType": "racial",
    "associations": {
      "classes": []
    },
    "showInQuickbar": false,
    "abilityType": "none",
    "crOffset": "",
    "disabled": false,
    "classSkills": {}
  },
  "ownership": {
    "default": 0
  },
  "_stats": {
    "systemId": "pf1",
    "systemVersion": "9.1",
    "coreVersion": "10.291",
    "createdTime": 1665428383753,
    "modifiedTime": 1689797939965,
    "lastModifiedBy": "ppv91YxratjWnkJi"
  },
  "effects": [],
  "folder": null,
  "sort": 0,
  "flags": {},
  "_key": "!items!SWGQSYy6SVgjeVyj"
}