{
  "_id": "oTQL4P3IdoJQAkOB",
  "name": "Elven Immunities (Half-Elf)",
  "type": "feat",
  "img": "systems/pf1/icons/races/half-elf.png",
  "flags": {
    "scene-packer": {
      "sourceId": "Item.QFK88z7zeRrhJYio"
    }
  },
  "system": {
    "description": {
      "value": "<p><strong>Race:</strong> Half-Elf&nbsp;</p>\n<hr />\n<p>Half-elves are immune to magic sleep effects and get a +2 racial bonus on saving throws against enchantment spells and effects.</p>",
      "unidentified": ""
    },
    "tags": [
      "Half-Elf"
    ],
    "actions": [],
    "uses": {
      "per": null,
      "value": 0,
      "maxFormula": "",
      "autoDeductChargesCost": "1"
    },
    "attackNotes": [],
    "effectNotes": [],
    "changes": [],
    "changeFlags": {
      "loseDexToAC": false,
      "noEncumbrance": false,
      "mediumArmorFullSpeed": false,
      "heavyArmorFullSpeed": false
    },
    "contextNotes": [],
    "links": {
      "children": [],
      "charges": []
    },
    "tag": "elvenImmunitiesHalfelf",
    "useCustomTag": false,
    "armorProf": {
      "value": [],
      "custom": ""
    },
    "weaponProf": {
      "value": [],
      "custom": ""
    },
    "languages": {
      "value": [],
      "custom": ""
    },
    "flags": {
      "boolean": {},
      "dictionary": {}
    },
    "scriptCalls": [],
    "subType": "racial",
    "associations": {
      "classes": []
    },
    "showInQuickbar": false,
    "abilityType": "none",
    "crOffset": "",
    "disabled": false,
    "classSkills": {}
  },
  "ownership": {
    "default": 0
  },
  "_stats": {
    "systemId": "pf1",
    "systemVersion": "9.1",
    "coreVersion": "10.291",
    "createdTime": 1665428384439,
    "modifiedTime": 1689797944870,
    "lastModifiedBy": "ppv91YxratjWnkJi"
  },
  "effects": [],
  "folder": null,
  "sort": 0,
  "_key": "!items!oTQL4P3IdoJQAkOB"
}