{
  "_id": "zIJl9Bg6OCExA4YA",
  "name": "Engineer",
  "type": "feat",
  "img": "systems/pf1/icons/races/hobgoblin.png",
  "system": {
    "description": {
      "value": "<p><strong>Race:</strong> Hobgoblin&nbsp;<br /><strong>Replaced Trait(s):</strong> Sneaky&nbsp;</p>\n<hr />\n<p>Hobgoblin engineers tinker endlessly with fire, explosives, and the engines of war. Hobgoblins with this racial trait gain a +2 racial bonus on Craft (alchemy) and Knowledge (engineering) checks. This racial trait replaces sneaky.</p>",
      "unidentified": ""
    },
    "tags": [
      "Hobgoblin"
    ],
    "actions": [],
    "uses": {
      "per": null,
      "value": 0,
      "maxFormula": "",
      "autoDeductChargesCost": "1"
    },
    "attackNotes": [],
    "effectNotes": [],
    "changes": [],
    "changeFlags": {
      "loseDexToAC": false,
      "noEncumbrance": false,
      "mediumArmorFullSpeed": false,
      "heavyArmorFullSpeed": false
    },
    "contextNotes": [],
    "links": {
      "children": [],
      "charges": []
    },
    "tag": "",
    "useCustomTag": false,
    "armorProf": {
      "value": [],
      "custom": ""
    },
    "weaponProf": {
      "value": [],
      "custom": ""
    },
    "languages": {
      "value": [],
      "custom": ""
    },
    "flags": {
      "boolean": {},
      "dictionary": {}
    },
    "scriptCalls": [],
    "subType": "racial",
    "associations": {
      "classes": []
    },
    "showInQuickbar": false,
    "abilityType": "none",
    "crOffset": "",
    "disabled": false,
    "classSkills": {}
  },
  "ownership": {
    "default": 0
  },
  "_stats": {
    "systemId": "pf1",
    "systemVersion": "9.1",
    "coreVersion": "10.291",
    "createdTime": 1665428384925,
    "modifiedTime": 1689797949399,
    "lastModifiedBy": "ppv91YxratjWnkJi"
  },
  "effects": [],
  "folder": null,
  "sort": 0,
  "flags": {},
  "_key": "!items!zIJl9Bg6OCExA4YA"
}