{
  "_id": "Is0b85FOWlGlamTK",
  "name": "Exalted Resistance",
  "type": "feat",
  "img": "icons/commodities/biological/wing-bird-white.webp",
  "system": {
    "description": {
      "value": "<p><strong>Race:</strong> Aasimar&nbsp;<br /><strong>Replaced Trait(s):</strong> Celestial Resistance&nbsp;</p>\n<hr />\n<p>An aasimar with this racial trait gains spell resistance equal to 5 + her level against spells and spell-like abilities with the evil descriptor, as well as any spells and spell-like abilities cast by evil outsiders. This racial trait replaces celestial resistance.</p>",
      "unidentified": ""
    },
    "tags": [
      "Aasimar",
      "PFS"
    ],
    "actions": [],
    "uses": {
      "per": null,
      "value": 0,
      "maxFormula": "",
      "autoDeductChargesCost": "1"
    },
    "attackNotes": [],
    "effectNotes": [],
    "changes": [],
    "changeFlags": {
      "loseDexToAC": false,
      "noEncumbrance": false,
      "mediumArmorFullSpeed": false,
      "heavyArmorFullSpeed": false
    },
    "contextNotes": [],
    "links": {
      "children": [],
      "charges": []
    },
    "tag": "",
    "useCustomTag": false,
    "armorProf": {
      "value": [],
      "custom": ""
    },
    "weaponProf": {
      "value": [],
      "custom": ""
    },
    "languages": {
      "value": [],
      "custom": ""
    },
    "flags": {
      "boolean": {},
      "dictionary": {}
    },
    "scriptCalls": [],
    "subType": "racial",
    "associations": {
      "classes": []
    },
    "showInQuickbar": false,
    "abilityType": "none",
    "crOffset": "",
    "disabled": false,
    "classSkills": {}
  },
  "ownership": {
    "default": 0
  },
  "_stats": {
    "systemId": "pf1",
    "systemVersion": "9.1",
    "coreVersion": "10.291",
    "createdTime": 1665428383306,
    "modifiedTime": 1689797937672,
    "lastModifiedBy": "ppv91YxratjWnkJi"
  },
  "effects": [],
  "folder": null,
  "sort": 0,
  "flags": {},
  "_key": "!items!Is0b85FOWlGlamTK"
}