{
  "_id": "srbAWQmRwYHPbC57",
  "name": "Facsimile",
  "type": "feat",
  "img": "systems/pf1/icons/skills/light_07.jpg",
  "system": {
    "description": {
      "value": "<p><strong>Race:</strong> Shabti&nbsp;<br /><strong>Replaced Trait(s):</strong> Immune to Undeath, Native Subtype&nbsp;</p>\n<hr />\n<p>A few shabti are made with such skill they are nearly perfect copies of a mortal. Shabti with this racial trait appear to be human, save perhaps for minor features like unusual skin color. They count as humanoid (human) as well as outsider (native) for all purposes (such as humanoid-affecting spells like <em>charm person</em>).<br /><br />This racial trait replaces immune to undeath and alters the native subtype.</p>",
      "unidentified": ""
    },
    "tags": [
      "Shabti",
      "PFS"
    ],
    "actions": [],
    "uses": {
      "per": null,
      "value": 0,
      "maxFormula": "",
      "autoDeductChargesCost": "1"
    },
    "attackNotes": [],
    "effectNotes": [],
    "changes": [],
    "changeFlags": {
      "loseDexToAC": false,
      "noEncumbrance": false,
      "mediumArmorFullSpeed": false,
      "heavyArmorFullSpeed": false
    },
    "contextNotes": [],
    "links": {
      "children": [],
      "charges": []
    },
    "tag": "",
    "useCustomTag": false,
    "armorProf": {
      "value": [],
      "custom": ""
    },
    "weaponProf": {
      "value": [],
      "custom": ""
    },
    "languages": {
      "value": [],
      "custom": ""
    },
    "flags": {
      "boolean": {},
      "dictionary": {}
    },
    "scriptCalls": [],
    "subType": "racial",
    "associations": {
      "classes": []
    },
    "showInQuickbar": false,
    "abilityType": "none",
    "crOffset": "",
    "disabled": false,
    "classSkills": {}
  },
  "ownership": {
    "default": 0
  },
  "_stats": {
    "systemId": "pf1",
    "systemVersion": "9.1",
    "coreVersion": "10.291",
    "createdTime": 1665428384787,
    "modifiedTime": 1689797948494,
    "lastModifiedBy": "ppv91YxratjWnkJi"
  },
  "effects": [],
  "folder": null,
  "sort": 0,
  "flags": {},
  "_key": "!items!srbAWQmRwYHPbC57"
}