{
  "_id": "xhSNgXRtupTp2rWh",
  "name": "Fey Thoughts",
  "type": "feat",
  "img": "systems/pf1/icons/races/halfling.png",
  "system": {
    "description": {
      "value": "<p><strong>Race:</strong> Halfling&nbsp;<br /><strong>Replaced Trait(s):</strong> Fearless&nbsp;</p>\n<hr />\n<p>The character sees the world more like a native of the First World. Select two of the following skills: Acrobatics, Bluff, Climb, Diplomacy, Disguise, Escape Artist, Fly, Knowledge (nature), Perception, Perform, Sense Motive, Sleight of Hand, Stealth, Swim, or Use Magic Device. The selected skills are always class skills for the character.<br /><br /> A dwarf can take this trait in place of hatred. An elf, gnome, or half-orc can take this trait in place of racial weapon familiarity. A half-elf can take this trait in place of multitalented. A half ling can take it in place of fearless. In the case of humans, this trait replaces the skilled trait (and the human also gains fey magic and low-light vision, as detailed in Fey Magic, above).</p>",
      "unidentified": ""
    },
    "tags": [
      "Halfling"
    ],
    "actions": [],
    "uses": {
      "per": null,
      "value": 0,
      "maxFormula": "",
      "autoDeductChargesCost": "1"
    },
    "attackNotes": [],
    "effectNotes": [],
    "changes": [],
    "changeFlags": {
      "loseDexToAC": false,
      "noEncumbrance": false,
      "mediumArmorFullSpeed": false,
      "heavyArmorFullSpeed": false
    },
    "contextNotes": [],
    "links": {
      "children": [],
      "charges": []
    },
    "tag": "",
    "useCustomTag": false,
    "armorProf": {
      "value": [],
      "custom": ""
    },
    "weaponProf": {
      "value": [],
      "custom": ""
    },
    "languages": {
      "value": [],
      "custom": ""
    },
    "flags": {
      "boolean": {},
      "dictionary": {}
    },
    "scriptCalls": [],
    "subType": "racial",
    "associations": {
      "classes": []
    },
    "showInQuickbar": false,
    "abilityType": "none",
    "crOffset": "",
    "disabled": false,
    "classSkills": {}
  },
  "ownership": {
    "default": 0
  },
  "_stats": {
    "systemId": "pf1",
    "systemVersion": "9.1",
    "coreVersion": "10.291",
    "createdTime": 1665428384888,
    "modifiedTime": 1689797949164,
    "lastModifiedBy": "ppv91YxratjWnkJi"
  },
  "effects": [],
  "folder": null,
  "sort": 0,
  "flags": {},
  "_key": "!items!xhSNgXRtupTp2rWh"
}