{
  "_id": "YKpeR15lHx8u2iZc",
  "name": "Fire Affinity",
  "type": "feat",
  "img": "systems/pf1/icons/races/ifrit.png",
  "flags": {
    "scene-packer": {
      "sourceId": "Item.ZFeUylNDsRgr9sWD"
    }
  },
  "system": {
    "description": {
      "value": "<p><strong>Race:</strong> Ifrit&nbsp;</p>\n<hr />\n<p>Ifrit sorcerers with the elemental (fire) bloodline treat their Charisma scores as 2 points higher for the purposes of all sorcerer spells and class abilities. Ifrit spellcasters with the Fire domain use their domain powers and spells at +1 caster level.</p>",
      "unidentified": ""
    },
    "tags": [
      "Ifrit"
    ],
    "actions": [],
    "uses": {
      "per": null,
      "value": 0,
      "maxFormula": "",
      "autoDeductChargesCost": "1"
    },
    "attackNotes": [],
    "effectNotes": [],
    "changes": [],
    "changeFlags": {
      "loseDexToAC": false,
      "noEncumbrance": false,
      "mediumArmorFullSpeed": false,
      "heavyArmorFullSpeed": false
    },
    "contextNotes": [],
    "links": {
      "children": [],
      "charges": []
    },
    "tag": "fireAffinity",
    "useCustomTag": false,
    "armorProf": {
      "value": [],
      "custom": ""
    },
    "weaponProf": {
      "value": [],
      "custom": ""
    },
    "languages": {
      "value": [],
      "custom": ""
    },
    "flags": {
      "boolean": {},
      "dictionary": {}
    },
    "scriptCalls": [],
    "subType": "racial",
    "associations": {
      "classes": []
    },
    "showInQuickbar": false,
    "abilityType": "none",
    "crOffset": "",
    "disabled": false,
    "classSkills": {}
  },
  "ownership": {
    "default": 0
  },
  "_stats": {
    "systemId": "pf1",
    "systemVersion": "9.1",
    "coreVersion": "10.291",
    "createdTime": 1665428383871,
    "modifiedTime": 1689797940762,
    "lastModifiedBy": "ppv91YxratjWnkJi"
  },
  "effects": [],
  "folder": null,
  "sort": 0,
  "_key": "!items!YKpeR15lHx8u2iZc"
}