{
  "_id": "VMdfkHxhfKgt1aOq",
  "name": "Fire Insight",
  "type": "feat",
  "img": "systems/pf1/icons/races/ifrit.png",
  "system": {
    "description": {
      "value": "<p><strong>Race:</strong> Ifrit&nbsp;<br /><strong>Replaced Trait(s):</strong> Fire Affinity&nbsp;</p>\n<hr />\n<p>Ifrit spellcasters sometimes find that their elemental heritage makes creatures of fire more willing to serve them. <i>Summon monster </i>and <i>summon nature's ally </i>spells that the ifrit casts last 2 rounds longer than normal when used to summon creatures with the fire subtype. This racial trait replaces fire affinity.</p>",
      "unidentified": ""
    },
    "tags": [
      "Ifrit",
      "PFS"
    ],
    "actions": [],
    "uses": {
      "per": null,
      "value": 0,
      "maxFormula": "",
      "autoDeductChargesCost": "1"
    },
    "attackNotes": [],
    "effectNotes": [],
    "changes": [],
    "changeFlags": {
      "loseDexToAC": false,
      "noEncumbrance": false,
      "mediumArmorFullSpeed": false,
      "heavyArmorFullSpeed": false
    },
    "contextNotes": [],
    "links": {
      "children": [],
      "charges": []
    },
    "tag": "",
    "useCustomTag": false,
    "armorProf": {
      "value": [],
      "custom": ""
    },
    "weaponProf": {
      "value": [],
      "custom": ""
    },
    "languages": {
      "value": [],
      "custom": ""
    },
    "flags": {
      "boolean": {},
      "dictionary": {}
    },
    "scriptCalls": [],
    "subType": "racial",
    "associations": {
      "classes": []
    },
    "showInQuickbar": false,
    "abilityType": "none",
    "crOffset": "",
    "disabled": false,
    "classSkills": {}
  },
  "ownership": {
    "default": 0
  },
  "_stats": {
    "systemId": "pf1",
    "systemVersion": "9.1",
    "coreVersion": "10.291",
    "createdTime": 1665428383807,
    "modifiedTime": 1689797940331,
    "lastModifiedBy": "ppv91YxratjWnkJi"
  },
  "effects": [],
  "folder": null,
  "sort": 0,
  "flags": {},
  "_key": "!items!VMdfkHxhfKgt1aOq"
}