{
  "_id": "PtZLDuOW5e0OoVsx",
  "name": "Gear Gnomes",
  "type": "feat",
  "img": "systems/pf1/icons/races/gnome.png",
  "system": {
    "description": {
      "value": "<p><strong>Race:</strong> Gnome&nbsp;<br /><strong>Replaced Trait(s):</strong> Base Statistics&nbsp;</p>\n<hr />\n<p>Sometimes rather than a single gnome becoming obsessed with a project, whole families of gnomes undertake a project so massive it requires generations of artisans to complete. Such projects often involve complex clockwork devices (or entire clockwork buildings), and those born into families dedicated to lifetimes of work on them are known as gear gnomes. Gear gnomes have the academician and master tinker alternate racial traits.</p>",
      "unidentified": ""
    },
    "tags": [
      "Gnome",
      "PFS"
    ],
    "actions": [],
    "uses": {
      "per": null,
      "value": 0,
      "maxFormula": "",
      "autoDeductChargesCost": "1"
    },
    "attackNotes": [],
    "effectNotes": [],
    "changes": [],
    "changeFlags": {
      "loseDexToAC": false,
      "noEncumbrance": false,
      "mediumArmorFullSpeed": false,
      "heavyArmorFullSpeed": false
    },
    "contextNotes": [],
    "links": {
      "children": [],
      "charges": []
    },
    "tag": "",
    "useCustomTag": false,
    "armorProf": {
      "value": [],
      "custom": ""
    },
    "weaponProf": {
      "value": [],
      "custom": ""
    },
    "languages": {
      "value": [],
      "custom": ""
    },
    "flags": {
      "boolean": {},
      "dictionary": {}
    },
    "scriptCalls": [],
    "subType": "racial",
    "associations": {
      "classes": []
    },
    "showInQuickbar": false,
    "abilityType": "none",
    "crOffset": "",
    "disabled": false,
    "classSkills": {}
  },
  "ownership": {
    "default": 0
  },
  "_stats": {
    "systemId": "pf1",
    "systemVersion": "9.1",
    "coreVersion": "10.291",
    "createdTime": 1665428383446,
    "modifiedTime": 1689797938569,
    "lastModifiedBy": "ppv91YxratjWnkJi"
  },
  "effects": [],
  "folder": null,
  "sort": 0,
  "flags": {},
  "_key": "!items!PtZLDuOW5e0OoVsx"
}