{
  "_id": "Ub2a4rsQxKyk7Tpy",
  "name": "Giant Hunter (Kneecapper Training)",
  "type": "feat",
  "img": "systems/pf1/icons/races/dwarf.png",
  "system": {
    "description": {
      "value": "<p><strong>Race:</strong> Dwarf&nbsp;<br /><strong>Replaced Trait(s):</strong> Hatred&nbsp;</p>\n<hr />\n<p>Kneecapper dwarves gain a +1 bonus on attack rolls against humanoids with the giant subtype. Furthermore, they gain a +2 bonus on Survival checks to find and follow tracks made by humanoids with the giant subtype. This racial trait replaces the hatred racial trait.</p>",
      "unidentified": ""
    },
    "tags": [
      "Dwarf",
      "PFS"
    ],
    "actions": [],
    "uses": {
      "per": null,
      "value": 0,
      "maxFormula": "",
      "autoDeductChargesCost": "1"
    },
    "attackNotes": [],
    "effectNotes": [],
    "changes": [],
    "changeFlags": {
      "loseDexToAC": false,
      "noEncumbrance": false,
      "mediumArmorFullSpeed": false,
      "heavyArmorFullSpeed": false
    },
    "contextNotes": [],
    "links": {
      "children": [],
      "charges": []
    },
    "tag": "",
    "useCustomTag": false,
    "armorProf": {
      "value": [],
      "custom": ""
    },
    "weaponProf": {
      "value": [],
      "custom": ""
    },
    "languages": {
      "value": [],
      "custom": ""
    },
    "flags": {
      "boolean": {},
      "dictionary": {}
    },
    "scriptCalls": [],
    "subType": "racial",
    "associations": {
      "classes": []
    },
    "showInQuickbar": false,
    "abilityType": "none",
    "crOffset": "",
    "disabled": false,
    "classSkills": {}
  },
  "ownership": {
    "default": 0
  },
  "_stats": {
    "systemId": "pf1",
    "systemVersion": "9.1",
    "coreVersion": "10.291",
    "createdTime": 1665428383795,
    "modifiedTime": 1689797940247,
    "lastModifiedBy": "ppv91YxratjWnkJi"
  },
  "effects": [],
  "folder": null,
  "sort": 0,
  "flags": {},
  "_key": "!items!Ub2a4rsQxKyk7Tpy"
}