{
  "_id": "2NXp8S2ZZ2Lh5LS3",
  "name": "Halo",
  "type": "feat",
  "img": "icons/commodities/biological/wing-bird-white.webp",
  "system": {
    "description": {
      "value": "<p><strong>Race:</strong> Aasimar&nbsp;<br /><strong>Replaced Trait(s):</strong> Darkvision&nbsp;</p>\n<hr />\n<p>Some aasimars possess the ability to manifest halos. An aasimar with this racial trait can create <i>light </i>centered on her head at will as a spell-like ability. When using her halo, she gains a +2 circumstance bonus on Intimidate checks against evil creatures and on saving throws against becoming blinded or dazzled. This racial trait replaces the darkvision racial trait.</p>",
      "unidentified": ""
    },
    "tags": [
      "Aasimar",
      "PFS"
    ],
    "actions": [],
    "uses": {
      "per": null,
      "value": 0,
      "maxFormula": "",
      "autoDeductChargesCost": "1"
    },
    "attackNotes": [],
    "effectNotes": [],
    "changes": [],
    "changeFlags": {
      "loseDexToAC": false,
      "noEncumbrance": false,
      "mediumArmorFullSpeed": false,
      "heavyArmorFullSpeed": false
    },
    "contextNotes": [],
    "links": {
      "children": [],
      "charges": []
    },
    "tag": "",
    "useCustomTag": false,
    "armorProf": {
      "value": [],
      "custom": ""
    },
    "weaponProf": {
      "value": [],
      "custom": ""
    },
    "languages": {
      "value": [],
      "custom": ""
    },
    "flags": {
      "boolean": {},
      "dictionary": {}
    },
    "scriptCalls": [],
    "subType": "racial",
    "associations": {
      "classes": []
    },
    "showInQuickbar": false,
    "abilityType": "none",
    "crOffset": "",
    "disabled": false,
    "classSkills": {}
  },
  "ownership": {
    "default": 0
  },
  "_stats": {
    "systemId": "pf1",
    "systemVersion": "9.1",
    "coreVersion": "10.291",
    "createdTime": 1665428382535,
    "modifiedTime": 1689797934415,
    "lastModifiedBy": "ppv91YxratjWnkJi"
  },
  "effects": [],
  "folder": null,
  "sort": 0,
  "flags": {},
  "_key": "!items!2NXp8S2ZZ2Lh5LS3"
}