{
  "_id": "DsH7y38wfWDPCINE",
  "name": "Heart of the Sun",
  "type": "feat",
  "img": "systems/pf1/icons/races/human.jpg",
  "system": {
    "description": {
      "value": "<p><strong>Race:</strong> Human&nbsp;<br /><strong>Replaced Trait(s):</strong> Skilled&nbsp;</p>\n<hr />\n<p>Humans born in tropical climates treat hot climates as one category less severe. They also gain a +2 racial bonus on Fortitude saving throws against the effects of a hot climate, as well as against the poison and distraction ability of swarms and vermin. This racial trait replaces skilled.</p>",
      "unidentified": ""
    },
    "tags": [
      "Human",
      "PFS"
    ],
    "actions": [],
    "uses": {
      "per": null,
      "value": 0,
      "maxFormula": "",
      "autoDeductChargesCost": "1"
    },
    "attackNotes": [],
    "effectNotes": [],
    "changes": [],
    "changeFlags": {
      "loseDexToAC": false,
      "noEncumbrance": false,
      "mediumArmorFullSpeed": false,
      "heavyArmorFullSpeed": false
    },
    "contextNotes": [],
    "links": {
      "children": [],
      "charges": []
    },
    "tag": "",
    "useCustomTag": false,
    "armorProf": {
      "value": [],
      "custom": ""
    },
    "weaponProf": {
      "value": [],
      "custom": ""
    },
    "languages": {
      "value": [],
      "custom": ""
    },
    "flags": {
      "boolean": {},
      "dictionary": {}
    },
    "scriptCalls": [],
    "subType": "racial",
    "associations": {
      "classes": []
    },
    "showInQuickbar": false,
    "abilityType": "none",
    "crOffset": "",
    "disabled": false,
    "classSkills": {}
  },
  "ownership": {
    "default": 0
  },
  "_stats": {
    "systemId": "pf1",
    "systemVersion": "9.1",
    "coreVersion": "10.291",
    "createdTime": 1665428382770,
    "modifiedTime": 1689797935716,
    "lastModifiedBy": "ppv91YxratjWnkJi"
  },
  "effects": [],
  "folder": null,
  "sort": 0,
  "flags": {},
  "_key": "!items!DsH7y38wfWDPCINE"
}