{
  "_id": "NC1bwUXvNsP7XkKe",
  "name": "Heart of the Slums",
  "type": "feat",
  "img": "systems/pf1/icons/races/human.jpg",
  "system": {
    "description": {
      "value": "<p><strong>Race:</strong> Human&nbsp;<br /><strong>Replaced Trait(s):</strong> Skilled&nbsp;</p>\n<hr />\n<p>Humans who eke out a life in a city's teeming slums must be quick and clever. They gain a +2 racial bonus on Sleight of Hand and Stealth checks, and a +4 racial bonus on Survival checks in urban and underground settings. In addition, they may roll twice when saving against disease, taking the better roll. This racial trait replaces skilled.</p>",
      "unidentified": ""
    },
    "tags": [
      "Human",
      "PFS"
    ],
    "actions": [],
    "uses": {
      "per": null,
      "value": 0,
      "maxFormula": "",
      "autoDeductChargesCost": "1"
    },
    "attackNotes": [],
    "effectNotes": [],
    "changes": [],
    "changeFlags": {
      "loseDexToAC": false,
      "noEncumbrance": false,
      "mediumArmorFullSpeed": false,
      "heavyArmorFullSpeed": false
    },
    "contextNotes": [],
    "links": {
      "children": [],
      "charges": []
    },
    "tag": "",
    "useCustomTag": false,
    "armorProf": {
      "value": [],
      "custom": ""
    },
    "weaponProf": {
      "value": [],
      "custom": ""
    },
    "languages": {
      "value": [],
      "custom": ""
    },
    "flags": {
      "boolean": {},
      "dictionary": {}
    },
    "scriptCalls": [],
    "subType": "racial",
    "associations": {
      "classes": []
    },
    "showInQuickbar": false,
    "abilityType": "none",
    "crOffset": "",
    "disabled": false,
    "classSkills": {}
  },
  "ownership": {
    "default": 0
  },
  "_stats": {
    "systemId": "pf1",
    "systemVersion": "9.1",
    "coreVersion": "10.291",
    "createdTime": 1665428383386,
    "modifiedTime": 1689797938178,
    "lastModifiedBy": "ppv91YxratjWnkJi"
  },
  "effects": [],
  "folder": null,
  "sort": 0,
  "flags": {},
  "_key": "!items!NC1bwUXvNsP7XkKe"
}