{
  "_id": "iEAy4KMqEtQnvLHZ",
  "name": "Heroic",
  "type": "feat",
  "img": "systems/pf1/icons/races/human.jpg",
  "system": {
    "description": {
      "value": "<p><strong>Race:</strong> Human&nbsp;<br /><strong>Replaced Trait(s):</strong> Bonus Feat&nbsp;</p>\n<hr />\n<p>Some humans are born heroes. In campaigns that use the optional hero point system, each time these humans gain a level, they gain 2 hero points instead of 1. If they take the Blood of Heroes feat, they gain 3 hero points each level instead of 2. This racial trait replaces the bonus feat trait.</p>",
      "unidentified": ""
    },
    "tags": [
      "Human"
    ],
    "actions": [],
    "uses": {
      "per": null,
      "value": 0,
      "maxFormula": "",
      "autoDeductChargesCost": "1"
    },
    "attackNotes": [],
    "effectNotes": [],
    "changes": [],
    "changeFlags": {
      "loseDexToAC": false,
      "noEncumbrance": false,
      "mediumArmorFullSpeed": false,
      "heavyArmorFullSpeed": false
    },
    "contextNotes": [],
    "links": {
      "children": [],
      "charges": []
    },
    "tag": "",
    "useCustomTag": false,
    "armorProf": {
      "value": [],
      "custom": ""
    },
    "weaponProf": {
      "value": [],
      "custom": ""
    },
    "languages": {
      "value": [],
      "custom": ""
    },
    "flags": {
      "boolean": {},
      "dictionary": {}
    },
    "scriptCalls": [],
    "subType": "racial",
    "associations": {
      "classes": []
    },
    "showInQuickbar": false,
    "abilityType": "none",
    "crOffset": "",
    "disabled": false,
    "classSkills": {}
  },
  "ownership": {
    "default": 0
  },
  "_stats": {
    "systemId": "pf1",
    "systemVersion": "9.1",
    "coreVersion": "10.291",
    "createdTime": 1665428384335,
    "modifiedTime": 1689797943840,
    "lastModifiedBy": "ppv91YxratjWnkJi"
  },
  "effects": [],
  "folder": null,
  "sort": 0,
  "flags": {},
  "_key": "!items!iEAy4KMqEtQnvLHZ"
}