{
  "_id": "DxVHodTFIi9AwMvr",
  "name": "In the Shadows",
  "type": "feat",
  "img": "systems/pf1/icons/races/gnoll.png",
  "system": {
    "description": {
      "value": "<p><strong>Race:</strong> Wayang&nbsp;<br /><strong>Replaced Trait(s):</strong> Lurker&nbsp;</p>\n<hr />\n<p>Many wayangs perform a variety of unusual roles and tasks in wayang society. They gain a +2 racial bonus on their choice of two of the following skills: Appraise, Bluff, Craft, Profession, and Sleight of Hand. This racial trait replaces lurker.</p>",
      "unidentified": ""
    },
    "tags": [
      "Wayang",
      "PFS"
    ],
    "actions": [],
    "uses": {
      "per": null,
      "value": 0,
      "maxFormula": "",
      "autoDeductChargesCost": "1"
    },
    "attackNotes": [],
    "effectNotes": [],
    "changes": [],
    "changeFlags": {
      "loseDexToAC": false,
      "noEncumbrance": false,
      "mediumArmorFullSpeed": false,
      "heavyArmorFullSpeed": false
    },
    "contextNotes": [],
    "links": {
      "children": [],
      "charges": []
    },
    "tag": "",
    "useCustomTag": false,
    "armorProf": {
      "value": [],
      "custom": ""
    },
    "weaponProf": {
      "value": [],
      "custom": ""
    },
    "languages": {
      "value": [],
      "custom": ""
    },
    "flags": {
      "boolean": {},
      "dictionary": {}
    },
    "scriptCalls": [],
    "subType": "racial",
    "associations": {
      "classes": []
    },
    "showInQuickbar": false,
    "abilityType": "none",
    "crOffset": "",
    "disabled": false,
    "classSkills": {}
  },
  "ownership": {
    "default": 0
  },
  "_stats": {
    "systemId": "pf1",
    "systemVersion": "9.1",
    "coreVersion": "10.291",
    "createdTime": 1665428382773,
    "modifiedTime": 1689797935737,
    "lastModifiedBy": "ppv91YxratjWnkJi"
  },
  "effects": [],
  "folder": null,
  "sort": 0,
  "flags": {},
  "_key": "!items!DxVHodTFIi9AwMvr"
}