{
  "_id": "DuDqaejBaS9O9bSn",
  "name": "Institutional Memory",
  "type": "feat",
  "img": "systems/pf1/icons/races/human.jpg",
  "system": {
    "description": {
      "value": "<p><strong>Race:</strong> Human&nbsp;<br /><strong>Replaced Trait(s):</strong> Skilled&nbsp;</p>\n<hr />\n<p>Humans rely on their institutions to remember the distant past and to preserve their own memories for the distant future. They gain a +4 racial bonus on Knowledge checks to answer questions about any organizations, guilds, or religions to which they belong, and they can attempt such skill checks untrained. This racial trait replaces skilled.</p>",
      "unidentified": ""
    },
    "tags": [
      "Human",
      "PFS"
    ],
    "actions": [],
    "uses": {
      "per": null,
      "value": 0,
      "maxFormula": "",
      "autoDeductChargesCost": "1"
    },
    "attackNotes": [],
    "effectNotes": [],
    "changes": [],
    "changeFlags": {
      "loseDexToAC": false,
      "noEncumbrance": false,
      "mediumArmorFullSpeed": false,
      "heavyArmorFullSpeed": false
    },
    "contextNotes": [],
    "links": {
      "children": [],
      "charges": []
    },
    "tag": "",
    "useCustomTag": false,
    "armorProf": {
      "value": [],
      "custom": ""
    },
    "weaponProf": {
      "value": [],
      "custom": ""
    },
    "languages": {
      "value": [],
      "custom": ""
    },
    "flags": {
      "boolean": {},
      "dictionary": {}
    },
    "scriptCalls": [],
    "subType": "racial",
    "associations": {
      "classes": []
    },
    "showInQuickbar": false,
    "abilityType": "none",
    "crOffset": "",
    "disabled": false,
    "classSkills": {}
  },
  "ownership": {
    "default": 0
  },
  "_stats": {
    "systemId": "pf1",
    "systemVersion": "9.1",
    "coreVersion": "10.291",
    "createdTime": 1665428382771,
    "modifiedTime": 1689797935722,
    "lastModifiedBy": "ppv91YxratjWnkJi"
  },
  "effects": [],
  "folder": null,
  "sort": 0,
  "flags": {},
  "_key": "!items!DuDqaejBaS9O9bSn"
}