{
  "_id": "zBc9X6IUT3JrNFS8",
  "name": "Jet (1 RP) (Grindylow)",
  "type": "feat",
  "img": "systems/pf1/icons/skills/ice_14.jpg",
  "flags": {
    "scene-packer": {
      "sourceId": "Item.nF5MsGB2BoIHcZa5"
    }
  },
  "system": {
    "description": {
      "value": "<p><strong>Race:</strong> Grindylow&nbsp;</p>\n<hr />\n<p>Grindylows can swim 200 feet backward as a full-round action. A grindylow must move in a straight line when jetting and does not provoke attacks of opportunity when using this ability.</p>",
      "unidentified": ""
    },
    "tags": [
      "Grindylow"
    ],
    "actions": [],
    "uses": {
      "per": null,
      "value": 0,
      "maxFormula": "",
      "autoDeductChargesCost": "1"
    },
    "attackNotes": [],
    "effectNotes": [],
    "changes": [],
    "changeFlags": {
      "loseDexToAC": false,
      "noEncumbrance": false,
      "mediumArmorFullSpeed": false,
      "heavyArmorFullSpeed": false
    },
    "contextNotes": [],
    "links": {
      "children": [],
      "charges": []
    },
    "tag": "jet1RpGrindylow",
    "useCustomTag": false,
    "armorProf": {
      "value": [],
      "custom": ""
    },
    "weaponProf": {
      "value": [],
      "custom": ""
    },
    "languages": {
      "value": [],
      "custom": ""
    },
    "flags": {
      "boolean": {},
      "dictionary": {}
    },
    "scriptCalls": [],
    "subType": "racial",
    "associations": {
      "classes": []
    },
    "showInQuickbar": false,
    "abilityType": "none",
    "crOffset": "",
    "disabled": false,
    "classSkills": {}
  },
  "ownership": {
    "default": 0
  },
  "_stats": {
    "systemId": "pf1",
    "systemVersion": "9.1",
    "coreVersion": "10.291",
    "createdTime": 1665428384923,
    "modifiedTime": 1689797949379,
    "lastModifiedBy": "ppv91YxratjWnkJi"
  },
  "effects": [],
  "folder": null,
  "sort": 0,
  "_key": "!items!zBc9X6IUT3JrNFS8"
}