{
  "_id": "MtFsqvoTAnmxR7Du",
  "name": "Jininese Weapon Mastery",
  "type": "feat",
  "img": "systems/pf1/icons/races/elf.png",
  "system": {
    "description": {
      "value": "<p><strong>Race:</strong> Elf&nbsp;<br /><strong>Replaced Trait(s):</strong> Weapon Familiarity&nbsp;</p>\n<hr />\n<p>The elves of Jinin are proficient with many of the weapons of the Dragon Empires. Elves with this racial trait are proficient with fighting fans and tonfa, and they treat katanas, kusarigamas, and wakizashis as martial weapons.<br /><br /> This replaces weapon familiarity.</p>",
      "unidentified": ""
    },
    "tags": [
      "Elf",
      "PFS"
    ],
    "actions": [],
    "uses": {
      "per": null,
      "value": 0,
      "maxFormula": "",
      "autoDeductChargesCost": "1"
    },
    "attackNotes": [],
    "effectNotes": [],
    "changes": [],
    "changeFlags": {
      "loseDexToAC": false,
      "noEncumbrance": false,
      "mediumArmorFullSpeed": false,
      "heavyArmorFullSpeed": false
    },
    "contextNotes": [],
    "links": {
      "children": [],
      "charges": []
    },
    "tag": "",
    "useCustomTag": false,
    "armorProf": {
      "value": [],
      "custom": ""
    },
    "weaponProf": {
      "value": [],
      "custom": ""
    },
    "languages": {
      "value": [],
      "custom": ""
    },
    "flags": {
      "boolean": {},
      "dictionary": {}
    },
    "scriptCalls": [],
    "subType": "racial",
    "associations": {
      "classes": []
    },
    "showInQuickbar": false,
    "abilityType": "none",
    "crOffset": "",
    "disabled": false,
    "classSkills": {}
  },
  "ownership": {
    "default": 0
  },
  "_stats": {
    "systemId": "pf1",
    "systemVersion": "9.1",
    "coreVersion": "10.291",
    "createdTime": 1665428383380,
    "modifiedTime": 1689797938138,
    "lastModifiedBy": "ppv91YxratjWnkJi"
  },
  "effects": [],
  "folder": null,
  "sort": 0,
  "flags": {},
  "_key": "!items!MtFsqvoTAnmxR7Du"
}