{
  "_id": "YQqgLh49YxGpID1c",
  "name": "Keen Kitsune",
  "type": "feat",
  "img": "systems/pf1/icons/feats/stealthy.jpg",
  "system": {
    "description": {
      "value": "<p><strong>Race:</strong> Kitsune&nbsp;<br /><strong>Replaced Trait(s):</strong> Ability Score Modifiers&nbsp;</p>\n<hr />\n<p>Although amiable, kitsune are notoriously clever and cunning, often far more than they seem. Such characters gain a +2 bonus to Dexterity and Intelligence instead of Dexterity and Charisma. This racial trait alters the kitsune's ability score modifiers.</p>",
      "unidentified": ""
    },
    "tags": [
      "Kitsune",
      "PFS"
    ],
    "actions": [],
    "uses": {
      "per": null,
      "value": 0,
      "maxFormula": "",
      "autoDeductChargesCost": "1"
    },
    "attackNotes": [],
    "effectNotes": [],
    "changes": [],
    "changeFlags": {
      "loseDexToAC": false,
      "noEncumbrance": false,
      "mediumArmorFullSpeed": false,
      "heavyArmorFullSpeed": false
    },
    "contextNotes": [],
    "links": {
      "children": [],
      "charges": []
    },
    "tag": "",
    "useCustomTag": false,
    "armorProf": {
      "value": [],
      "custom": ""
    },
    "weaponProf": {
      "value": [],
      "custom": ""
    },
    "languages": {
      "value": [],
      "custom": ""
    },
    "flags": {
      "boolean": {},
      "dictionary": {}
    },
    "scriptCalls": [],
    "subType": "racial",
    "associations": {
      "classes": []
    },
    "showInQuickbar": false,
    "abilityType": "none",
    "crOffset": "",
    "disabled": false,
    "classSkills": {}
  },
  "ownership": {
    "default": 0
  },
  "_stats": {
    "systemId": "pf1",
    "systemVersion": "9.1",
    "coreVersion": "10.291",
    "createdTime": 1665428383874,
    "modifiedTime": 1689797940779,
    "lastModifiedBy": "ppv91YxratjWnkJi"
  },
  "effects": [],
  "folder": null,
  "sort": 0,
  "flags": {},
  "_key": "!items!YQqgLh49YxGpID1c"
}