{
  "_id": "XWa9YUpaCR5IIqUp",
  "name": "Keeper of Secrets",
  "type": "feat",
  "img": "systems/pf1/icons/races/elf.png",
  "system": {
    "description": {
      "value": "<p><strong>Race:</strong> Elf&nbsp;<br /><strong>Replaced Trait(s):</strong> Elven Magic&nbsp;</p>\n<hr />\n<p>Some elves seek to protect younger races from dangerous lore. The save DCs of enchantment spells they cast against humanoids increase by 1 and they receive a +2 racial bonus on Bluff and Linguistics checks to omit or cover up facts. This racial trait replaces elven magic.</p>",
      "unidentified": ""
    },
    "tags": [
      "Elf",
      "PFS"
    ],
    "actions": [],
    "uses": {
      "per": null,
      "value": 0,
      "maxFormula": "",
      "autoDeductChargesCost": "1"
    },
    "attackNotes": [],
    "effectNotes": [],
    "changes": [],
    "changeFlags": {
      "loseDexToAC": false,
      "noEncumbrance": false,
      "mediumArmorFullSpeed": false,
      "heavyArmorFullSpeed": false
    },
    "contextNotes": [],
    "links": {
      "children": [],
      "charges": []
    },
    "tag": "",
    "useCustomTag": false,
    "armorProf": {
      "value": [],
      "custom": ""
    },
    "weaponProf": {
      "value": [],
      "custom": ""
    },
    "languages": {
      "value": [],
      "custom": ""
    },
    "flags": {
      "boolean": {},
      "dictionary": {}
    },
    "scriptCalls": [],
    "subType": "racial",
    "associations": {
      "classes": []
    },
    "showInQuickbar": false,
    "abilityType": "none",
    "crOffset": "",
    "disabled": false,
    "classSkills": {}
  },
  "ownership": {
    "default": 0
  },
  "_stats": {
    "systemId": "pf1",
    "systemVersion": "9.1",
    "coreVersion": "10.291",
    "createdTime": 1665428383857,
    "modifiedTime": 1689797940661,
    "lastModifiedBy": "ppv91YxratjWnkJi"
  },
  "effects": [],
  "folder": null,
  "sort": 0,
  "flags": {},
  "_key": "!items!XWa9YUpaCR5IIqUp"
}