{
  "_id": "2zhilqoeGrOO3yeI",
  "name": "Lab Rat",
  "type": "feat",
  "img": "systems/pf1/icons/races/ratfolk.png",
  "system": {
    "description": {
      "value": "<p><strong>Race:</strong> Ratfolk&nbsp;<br /><strong>Replaced Trait(s):</strong> Tinker&nbsp;</p>\n<hr />\n<p>For every ingenious ratfolk inventor, there is another who must inevitably test the invention. Those who survive enough experiments sometimes develop strange metabolic quirks that grant them heightened resilience and, on occasion, fortunate side effects when consuming alchemical or magical draughts. As a result, they gain a +1 racial bonus on saving throws against poison, alchemical weapons, and harmful effects from drinking potions or elixirs. In addition, once per day such a ratfolk can either increase the caster level of a potion he consumes by 1 or double the duration of an alchemical remedy he consumes or applies to himself (to a maximum of 4 hours). This racial trait replaces tinker.</p>",
      "unidentified": ""
    },
    "tags": [
      "Ratfolk",
      "PFS"
    ],
    "actions": [],
    "uses": {
      "per": null,
      "value": 0,
      "maxFormula": "",
      "autoDeductChargesCost": "1"
    },
    "attackNotes": [],
    "effectNotes": [],
    "changes": [],
    "changeFlags": {
      "loseDexToAC": false,
      "noEncumbrance": false,
      "mediumArmorFullSpeed": false,
      "heavyArmorFullSpeed": false
    },
    "contextNotes": [],
    "links": {
      "children": [],
      "charges": []
    },
    "tag": "",
    "useCustomTag": false,
    "armorProf": {
      "value": [],
      "custom": ""
    },
    "weaponProf": {
      "value": [],
      "custom": ""
    },
    "languages": {
      "value": [],
      "custom": ""
    },
    "flags": {
      "boolean": {},
      "dictionary": {}
    },
    "scriptCalls": [],
    "subType": "racial",
    "associations": {
      "classes": []
    },
    "showInQuickbar": false,
    "abilityType": "none",
    "crOffset": "",
    "disabled": false,
    "classSkills": {}
  },
  "ownership": {
    "default": 0
  },
  "_stats": {
    "systemId": "pf1",
    "systemVersion": "9.1",
    "coreVersion": "10.291",
    "createdTime": 1665428382554,
    "modifiedTime": 1689797934517,
    "lastModifiedBy": "ppv91YxratjWnkJi"
  },
  "effects": [],
  "folder": null,
  "sort": 0,
  "flags": {},
  "_key": "!items!2zhilqoeGrOO3yeI"
}