{
  "_id": "fpNtaVGE6wGeLGyH",
  "name": "Languages (Reptoid)",
  "type": "feat",
  "img": "systems/pf1/icons/feats/gorgons-fist.jpg",
  "flags": {
    "scene-packer": {
      "sourceId": "Item.oGsiSx9Cg185nBjt"
    }
  },
  "system": {
    "description": {
      "value": "<p><strong>Race:</strong> Reptoid&nbsp;</p>\n<hr />\n<p>All reptoids begin play speaking Common and Reptoid. Reptoids with high Intelligence scores can choose any languages they want (except for secret languages, such as Druidic).</p>",
      "unidentified": ""
    },
    "tags": [
      "Reptoid"
    ],
    "actions": [],
    "uses": {
      "per": null,
      "value": 0,
      "maxFormula": "",
      "autoDeductChargesCost": "1"
    },
    "attackNotes": [],
    "effectNotes": [],
    "changes": [],
    "changeFlags": {
      "loseDexToAC": false,
      "noEncumbrance": false,
      "mediumArmorFullSpeed": false,
      "heavyArmorFullSpeed": false
    },
    "contextNotes": [],
    "links": {
      "children": [],
      "charges": []
    },
    "tag": "languagesReptoid",
    "useCustomTag": false,
    "armorProf": {
      "value": [],
      "custom": ""
    },
    "weaponProf": {
      "value": [],
      "custom": ""
    },
    "languages": {
      "value": [],
      "custom": ""
    },
    "flags": {
      "boolean": {},
      "dictionary": {}
    },
    "scriptCalls": [],
    "subType": "racial",
    "associations": {
      "classes": []
    },
    "showInQuickbar": false,
    "abilityType": "none",
    "crOffset": "",
    "disabled": false,
    "classSkills": {}
  },
  "ownership": {
    "default": 0
  },
  "_stats": {
    "systemId": "pf1",
    "systemVersion": "9.1",
    "coreVersion": "10.291",
    "createdTime": 1665428384284,
    "modifiedTime": 1689797943481,
    "lastModifiedBy": "ppv91YxratjWnkJi"
  },
  "effects": [],
  "folder": null,
  "sort": 0,
  "_key": "!items!fpNtaVGE6wGeLGyH"
}