{
  "_id": "5FoiVQ9OY4UMIE1I",
  "name": "Languages (Android)",
  "type": "feat",
  "img": "systems/pf1/icons/races/android.png",
  "flags": {
    "scene-packer": {
      "sourceId": "Item.DyVY1DwSJh0POh9g"
    }
  },
  "system": {
    "description": {
      "value": "<p><strong>Race:</strong> Android&nbsp;</p>\n<hr />\n<p>Androids begin play speaking Common. Androids with high Intelligence can choose any language as a bonus language (except secret languages, such as Druidic).</p>",
      "unidentified": ""
    },
    "tags": [
      "Android"
    ],
    "actions": [],
    "uses": {
      "per": null,
      "value": 0,
      "maxFormula": "",
      "autoDeductChargesCost": "1"
    },
    "attackNotes": [],
    "effectNotes": [],
    "changes": [],
    "changeFlags": {
      "loseDexToAC": false,
      "noEncumbrance": false,
      "mediumArmorFullSpeed": false,
      "heavyArmorFullSpeed": false
    },
    "contextNotes": [],
    "links": {
      "children": [],
      "charges": []
    },
    "tag": "languagesAndroid",
    "useCustomTag": false,
    "armorProf": {
      "value": [],
      "custom": ""
    },
    "weaponProf": {
      "value": [],
      "custom": ""
    },
    "languages": {
      "value": [],
      "custom": ""
    },
    "flags": {
      "boolean": {},
      "dictionary": {}
    },
    "scriptCalls": [],
    "subType": "racial",
    "associations": {
      "classes": []
    },
    "showInQuickbar": false,
    "abilityType": "none",
    "crOffset": "",
    "disabled": false,
    "classSkills": {}
  },
  "ownership": {
    "default": 0
  },
  "_stats": {
    "systemId": "pf1",
    "systemVersion": "9.1",
    "coreVersion": "10.291",
    "createdTime": 1665428382604,
    "modifiedTime": 1689797934813,
    "lastModifiedBy": "ppv91YxratjWnkJi"
  },
  "effects": [],
  "folder": null,
  "sort": 0,
  "_key": "!items!5FoiVQ9OY4UMIE1I"
}