{
  "_id": "B3cuHM7Ab4p8kLmH",
  "name": "Languages (Undine)",
  "type": "feat",
  "img": "systems/pf1/icons/races/undine.png",
  "flags": {
    "scene-packer": {
      "sourceId": "Item.9Euw8TrXp7SrHJFG"
    }
  },
  "system": {
    "description": {
      "value": "<p><strong>Race:</strong> Undine&nbsp;</p>\n<hr />\n<p>Undines begin play speaking Common and Aquan. Undines with high Intelligence scores can choose from the following languages: Auran, Dwarven, Elven, Gnome, Halfling, Ignan, and Terran.</p>",
      "unidentified": ""
    },
    "tags": [
      "Undine"
    ],
    "actions": [],
    "uses": {
      "per": null,
      "value": 0,
      "maxFormula": "",
      "autoDeductChargesCost": "1"
    },
    "attackNotes": [],
    "effectNotes": [],
    "changes": [],
    "changeFlags": {
      "loseDexToAC": false,
      "noEncumbrance": false,
      "mediumArmorFullSpeed": false,
      "heavyArmorFullSpeed": false
    },
    "contextNotes": [],
    "links": {
      "children": [],
      "charges": []
    },
    "tag": "languagesUndine",
    "useCustomTag": false,
    "armorProf": {
      "value": [],
      "custom": ""
    },
    "weaponProf": {
      "value": [],
      "custom": ""
    },
    "languages": {
      "value": [],
      "custom": ""
    },
    "flags": {
      "boolean": {},
      "dictionary": {}
    },
    "scriptCalls": [],
    "subType": "racial",
    "associations": {
      "classes": []
    },
    "showInQuickbar": false,
    "abilityType": "none",
    "crOffset": "",
    "disabled": false,
    "classSkills": {}
  },
  "ownership": {
    "default": 0
  },
  "_stats": {
    "systemId": "pf1",
    "systemVersion": "9.1",
    "coreVersion": "10.291",
    "createdTime": 1665428382708,
    "modifiedTime": 1689797935379,
    "lastModifiedBy": "ppv91YxratjWnkJi"
  },
  "effects": [],
  "folder": null,
  "sort": 0,
  "_key": "!items!B3cuHM7Ab4p8kLmH"
}