{
  "_id": "Vg06NWO6pnA0wAut",
  "name": "Languages (Adaro)",
  "type": "feat",
  "img": "systems/pf1/icons/races/creature-types/abberation.png",
  "flags": {
    "scene-packer": {
      "sourceId": "Item.peYoLyCAms5r30iq"
    }
  },
  "system": {
    "description": {
      "value": "<p><strong>Race:</strong> Adaro&nbsp;</p>\n<hr />\n<p>Adaros begin play speaking Aquan and Common. Adaros with high Intelligence scores can choose from the following: Abyssal, Aklo, Draconic, Giant, Infernal, and Undercommon.</p>",
      "unidentified": ""
    },
    "tags": [
      "Adaro"
    ],
    "actions": [],
    "uses": {
      "per": null,
      "value": 0,
      "maxFormula": "",
      "autoDeductChargesCost": "1"
    },
    "attackNotes": [],
    "effectNotes": [],
    "changes": [],
    "changeFlags": {
      "loseDexToAC": false,
      "noEncumbrance": false,
      "mediumArmorFullSpeed": false,
      "heavyArmorFullSpeed": false
    },
    "contextNotes": [],
    "links": {
      "children": [],
      "charges": []
    },
    "tag": "languagesAdaro",
    "useCustomTag": false,
    "armorProf": {
      "value": [],
      "custom": ""
    },
    "weaponProf": {
      "value": [],
      "custom": ""
    },
    "languages": {
      "value": [],
      "custom": ""
    },
    "flags": {
      "boolean": {},
      "dictionary": {}
    },
    "scriptCalls": [],
    "subType": "racial",
    "associations": {
      "classes": []
    },
    "showInQuickbar": false,
    "abilityType": "none",
    "crOffset": "",
    "disabled": false,
    "classSkills": {}
  },
  "ownership": {
    "default": 0
  },
  "_stats": {
    "systemId": "pf1",
    "systemVersion": "9.1",
    "coreVersion": "10.291",
    "createdTime": 1665428383812,
    "modifiedTime": 1689797940365,
    "lastModifiedBy": "ppv91YxratjWnkJi"
  },
  "effects": [],
  "folder": null,
  "sort": 0,
  "_key": "!items!Vg06NWO6pnA0wAut"
}