{
  "_id": "fc7iZPElgVhpy8L5",
  "name": "Languages (Nagaji)",
  "type": "feat",
  "img": "systems/pf1/icons/races/vishkanya.png",
  "flags": {
    "scene-packer": {
      "sourceId": "Item.MVfdJEqMpfw14Idi"
    }
  },
  "system": {
    "description": {
      "value": "<p><strong>Race:</strong> Nagaji&nbsp;</p>\n<hr />\n<p>Nagaji begin play speaking Common and Nagaji. Nagaji with high Intelligence scores can choose from the following languages: any human tongue, Abyssal, Aklo, Celestial, Draconic, Giant, Infernal, and Sylvan.</p>",
      "unidentified": ""
    },
    "tags": [
      "Nagaji"
    ],
    "actions": [],
    "uses": {
      "per": null,
      "value": 0,
      "maxFormula": "",
      "autoDeductChargesCost": "1"
    },
    "attackNotes": [],
    "effectNotes": [],
    "changes": [],
    "changeFlags": {
      "loseDexToAC": false,
      "noEncumbrance": false,
      "mediumArmorFullSpeed": false,
      "heavyArmorFullSpeed": false
    },
    "contextNotes": [],
    "links": {
      "children": [],
      "charges": []
    },
    "tag": "languagesNagaji",
    "useCustomTag": false,
    "armorProf": {
      "value": [],
      "custom": ""
    },
    "weaponProf": {
      "value": [],
      "custom": ""
    },
    "languages": {
      "value": [],
      "custom": ""
    },
    "flags": {
      "boolean": {},
      "dictionary": {}
    },
    "scriptCalls": [],
    "subType": "racial",
    "associations": {
      "classes": []
    },
    "showInQuickbar": false,
    "abilityType": "none",
    "crOffset": "",
    "disabled": false,
    "classSkills": {}
  },
  "ownership": {
    "default": 0
  },
  "_stats": {
    "systemId": "pf1",
    "systemVersion": "9.1",
    "coreVersion": "10.291",
    "createdTime": 1665428384281,
    "modifiedTime": 1689797943467,
    "lastModifiedBy": "ppv91YxratjWnkJi"
  },
  "effects": [],
  "folder": null,
  "sort": 0,
  "_key": "!items!fc7iZPElgVhpy8L5"
}