{
  "_id": "YGtcHB3bvToAoHdx",
  "name": "Languages (Astomoi)",
  "type": "feat",
  "img": "systems/pf1/icons/races/fetchling.png",
  "flags": {
    "scene-packer": {
      "sourceId": "Item.51fgud6jtrrZrnzG"
    }
  },
  "system": {
    "description": {
      "value": "<p><strong>Race:</strong> Astomoi&nbsp;</p>\n<hr />\n<p>Astomoi begin play knowing Common, but as they have no mouths, they cannot speak. They have telepathy with a range of 100 feet. Astomoi with high Intelligence scores can choose any of the following languages: Abyssal, Aklo, Celestial, Elven, Gnome, Infernal, and Sylvan.</p>",
      "unidentified": ""
    },
    "tags": [
      "Astomoi"
    ],
    "actions": [],
    "uses": {
      "per": null,
      "value": 0,
      "maxFormula": "",
      "autoDeductChargesCost": "1"
    },
    "attackNotes": [],
    "effectNotes": [],
    "changes": [],
    "changeFlags": {
      "loseDexToAC": false,
      "noEncumbrance": false,
      "mediumArmorFullSpeed": false,
      "heavyArmorFullSpeed": false
    },
    "contextNotes": [],
    "links": {
      "children": [],
      "charges": []
    },
    "tag": "languagesAstomoi",
    "useCustomTag": false,
    "armorProf": {
      "value": [],
      "custom": ""
    },
    "weaponProf": {
      "value": [],
      "custom": ""
    },
    "languages": {
      "value": [],
      "custom": ""
    },
    "flags": {
      "boolean": {},
      "dictionary": {}
    },
    "scriptCalls": [],
    "subType": "racial",
    "associations": {
      "classes": []
    },
    "showInQuickbar": false,
    "abilityType": "none",
    "crOffset": "",
    "disabled": false,
    "classSkills": {}
  },
  "ownership": {
    "default": 0
  },
  "_stats": {
    "systemId": "pf1",
    "systemVersion": "9.1",
    "coreVersion": "10.291",
    "createdTime": 1665428383868,
    "modifiedTime": 1689797940744,
    "lastModifiedBy": "ppv91YxratjWnkJi"
  },
  "effects": [],
  "folder": null,
  "sort": 0,
  "_key": "!items!YGtcHB3bvToAoHdx"
}