{
  "_id": "WeWIm2pWosb2oHQU",
  "name": "Languages (Ghoran)",
  "type": "feat",
  "img": "systems/pf1/icons/races/creature-types/plant.png",
  "flags": {
    "scene-packer": {
      "sourceId": "Item.eCJS9BoD8xCtycxF"
    }
  },
  "system": {
    "description": {
      "value": "<p><strong>Race:</strong> Ghoran&nbsp;</p>\n<hr />\n<p>Ghorans begin play speaking Common and Sylvan. Ghorans with high Intelligence scores can choose any languages they want (except secret languages such as Druidic).</p>",
      "unidentified": ""
    },
    "tags": [
      "Ghoran"
    ],
    "actions": [],
    "uses": {
      "per": null,
      "value": 0,
      "maxFormula": "",
      "autoDeductChargesCost": "1"
    },
    "attackNotes": [],
    "effectNotes": [],
    "changes": [],
    "changeFlags": {
      "loseDexToAC": false,
      "noEncumbrance": false,
      "mediumArmorFullSpeed": false,
      "heavyArmorFullSpeed": false
    },
    "contextNotes": [],
    "links": {
      "children": [],
      "charges": []
    },
    "tag": "languagesGhoran",
    "useCustomTag": false,
    "armorProf": {
      "value": [],
      "custom": ""
    },
    "weaponProf": {
      "value": [],
      "custom": ""
    },
    "languages": {
      "value": [],
      "custom": ""
    },
    "flags": {
      "boolean": {},
      "dictionary": {}
    },
    "scriptCalls": [],
    "subType": "racial",
    "associations": {
      "classes": []
    },
    "showInQuickbar": false,
    "abilityType": "none",
    "crOffset": "",
    "disabled": false,
    "classSkills": {}
  },
  "ownership": {
    "default": 0
  },
  "_stats": {
    "systemId": "pf1",
    "systemVersion": "9.1",
    "coreVersion": "10.291",
    "createdTime": 1665428383833,
    "modifiedTime": 1689797940495,
    "lastModifiedBy": "ppv91YxratjWnkJi"
  },
  "effects": [],
  "folder": null,
  "sort": 0,
  "_key": "!items!WeWIm2pWosb2oHQU"
}