{
  "_id": "wzkh7fq09UxSxjnZ",
  "name": "Languages (Syrinx)",
  "type": "feat",
  "img": "systems/pf1/icons/skills/red_26.jpg",
  "flags": {
    "scene-packer": {
      "sourceId": "Item.0X95JArxoTEzMGPD"
    }
  },
  "system": {
    "description": {
      "value": "<p><strong>Race:</strong> Syrinx&nbsp;</p>\n<hr />\n<p>Syrinxes begin play speaking Syrinx. Syrinxes with high Intelligence scores can choose from the following: Auran, Azlant, Celestial, Strix, and Infernal.</p>",
      "unidentified": ""
    },
    "tags": [
      "Syrinx"
    ],
    "actions": [],
    "uses": {
      "per": null,
      "value": 0,
      "maxFormula": "",
      "autoDeductChargesCost": "1"
    },
    "attackNotes": [],
    "effectNotes": [],
    "changes": [],
    "changeFlags": {
      "loseDexToAC": false,
      "noEncumbrance": false,
      "mediumArmorFullSpeed": false,
      "heavyArmorFullSpeed": false
    },
    "contextNotes": [],
    "links": {
      "children": [],
      "charges": []
    },
    "tag": "languagesSyrinx",
    "useCustomTag": false,
    "armorProf": {
      "value": [],
      "custom": ""
    },
    "weaponProf": {
      "value": [],
      "custom": ""
    },
    "languages": {
      "value": [],
      "custom": ""
    },
    "flags": {
      "boolean": {},
      "dictionary": {}
    },
    "scriptCalls": [],
    "subType": "racial",
    "associations": {
      "classes": []
    },
    "showInQuickbar": false,
    "abilityType": "none",
    "crOffset": "",
    "disabled": false,
    "classSkills": {}
  },
  "ownership": {
    "default": 0
  },
  "_stats": {
    "systemId": "pf1",
    "systemVersion": "9.1",
    "coreVersion": "10.291",
    "createdTime": 1665428384875,
    "modifiedTime": 1689797949080,
    "lastModifiedBy": "ppv91YxratjWnkJi"
  },
  "effects": [],
  "folder": null,
  "sort": 0,
  "_key": "!items!wzkh7fq09UxSxjnZ"
}