{
  "_id": "e6oHfv1pVnQf20f5",
  "name": "Languages (Yaddithian)",
  "type": "feat",
  "img": "systems/pf1/icons/races/creature-types/abberation.png",
  "flags": {
    "scene-packer": {
      "sourceId": "Item.zsV9zLMOF4WMyPfL"
    }
  },
  "system": {
    "description": {
      "value": "<p><strong>Race:</strong> Yaddithian&nbsp;</p>\n<hr />\n<p>Yaddithians begin play speaking Yaddithian. Those with high Intelligence scores can choose any language as a bonus language.</p>",
      "unidentified": ""
    },
    "tags": [
      "Yaddithian"
    ],
    "actions": [],
    "uses": {
      "per": null,
      "value": 0,
      "maxFormula": "",
      "autoDeductChargesCost": "1"
    },
    "attackNotes": [],
    "effectNotes": [],
    "changes": [],
    "changeFlags": {
      "loseDexToAC": false,
      "noEncumbrance": false,
      "mediumArmorFullSpeed": false,
      "heavyArmorFullSpeed": false
    },
    "contextNotes": [],
    "links": {
      "children": [],
      "charges": []
    },
    "tag": "languagesYaddithian",
    "useCustomTag": false,
    "armorProf": {
      "value": [],
      "custom": ""
    },
    "weaponProf": {
      "value": [],
      "custom": ""
    },
    "languages": {
      "value": [],
      "custom": ""
    },
    "flags": {
      "boolean": {},
      "dictionary": {}
    },
    "scriptCalls": [],
    "subType": "racial",
    "associations": {
      "classes": []
    },
    "showInQuickbar": false,
    "abilityType": "none",
    "crOffset": "",
    "disabled": false,
    "classSkills": {}
  },
  "ownership": {
    "default": 0
  },
  "_stats": {
    "systemId": "pf1",
    "systemVersion": "9.1",
    "coreVersion": "10.291",
    "createdTime": 1665428384250,
    "modifiedTime": 1689797943046,
    "lastModifiedBy": "ppv91YxratjWnkJi"
  },
  "effects": [],
  "folder": null,
  "sort": 0,
  "_key": "!items!e6oHfv1pVnQf20f5"
}