{
  "_id": "99pNNIwi4JrK0nDc",
  "name": "Languages (Gathlain)",
  "type": "feat",
  "img": "systems/pf1/icons/spells/vines-acid-1.jpg",
  "flags": {
    "scene-packer": {
      "sourceId": "Item.fhenm5lID7sWHdZ6"
    }
  },
  "system": {
    "description": {
      "value": "<p><strong>Race:</strong> Gathlain&nbsp;</p>\n<hr />\n<p>Gathlains speak Common and Sylvan. A gathlain with a high Intelligence score can choose from the following languages: Draconic, Elven, Goblin, Halfling, and Orc.</p>",
      "unidentified": ""
    },
    "tags": [
      "Gathlain"
    ],
    "actions": [],
    "uses": {
      "per": null,
      "value": 0,
      "maxFormula": "",
      "autoDeductChargesCost": "1"
    },
    "attackNotes": [],
    "effectNotes": [],
    "changes": [],
    "changeFlags": {
      "loseDexToAC": false,
      "noEncumbrance": false,
      "mediumArmorFullSpeed": false,
      "heavyArmorFullSpeed": false
    },
    "contextNotes": [],
    "links": {
      "children": [],
      "charges": []
    },
    "tag": "languagesGathlain",
    "useCustomTag": false,
    "armorProf": {
      "value": [],
      "custom": ""
    },
    "weaponProf": {
      "value": [],
      "custom": ""
    },
    "languages": {
      "value": [],
      "custom": ""
    },
    "flags": {
      "boolean": {},
      "dictionary": {}
    },
    "scriptCalls": [],
    "subType": "racial",
    "associations": {
      "classes": []
    },
    "showInQuickbar": false,
    "abilityType": "none",
    "crOffset": "",
    "disabled": false,
    "classSkills": {}
  },
  "ownership": {
    "default": 0
  },
  "_stats": {
    "systemId": "pf1",
    "systemVersion": "9.1",
    "coreVersion": "10.291",
    "createdTime": 1665428382677,
    "modifiedTime": 1689797935216,
    "lastModifiedBy": "ppv91YxratjWnkJi"
  },
  "effects": [],
  "folder": null,
  "sort": 0,
  "_key": "!items!99pNNIwi4JrK0nDc"
}