{
  "_id": "P1EvUId4dIEa4CCY",
  "name": "Languages (Suli)",
  "type": "feat",
  "img": "systems/pf1/icons/races/creature-types/elemental.png",
  "flags": {
    "scene-packer": {
      "sourceId": "Item.RmxVHr41GCV6QQX5"
    }
  },
  "system": {
    "description": {
      "value": "<p><strong>Race:</strong> Suli&nbsp;</p>\n<hr />\n<p>Sulis begin play speaking Common and one elemental language (Aquan, Auran, Ignan, or Terran). Sulis with high Intelligence scores can choose from the following languages: Aquan, Auran, Draconic, Ignan, and Terran.</p>",
      "unidentified": ""
    },
    "tags": [
      "Suli"
    ],
    "actions": [],
    "uses": {
      "per": null,
      "value": 0,
      "maxFormula": "",
      "autoDeductChargesCost": "1"
    },
    "attackNotes": [],
    "effectNotes": [],
    "changes": [],
    "changeFlags": {
      "loseDexToAC": false,
      "noEncumbrance": false,
      "mediumArmorFullSpeed": false,
      "heavyArmorFullSpeed": false
    },
    "contextNotes": [],
    "links": {
      "children": [],
      "charges": []
    },
    "tag": "languagesSuli",
    "useCustomTag": false,
    "armorProf": {
      "value": [],
      "custom": ""
    },
    "weaponProf": {
      "value": [],
      "custom": ""
    },
    "languages": {
      "value": [],
      "custom": ""
    },
    "flags": {
      "boolean": {},
      "dictionary": {}
    },
    "scriptCalls": [],
    "subType": "racial",
    "associations": {
      "classes": []
    },
    "showInQuickbar": false,
    "abilityType": "none",
    "crOffset": "",
    "disabled": false,
    "classSkills": {}
  },
  "ownership": {
    "default": 0
  },
  "_stats": {
    "systemId": "pf1",
    "systemVersion": "9.1",
    "coreVersion": "10.291",
    "createdTime": 1665428383425,
    "modifiedTime": 1689797938443,
    "lastModifiedBy": "ppv91YxratjWnkJi"
  },
  "effects": [],
  "folder": null,
  "sort": 0,
  "_key": "!items!P1EvUId4dIEa4CCY"
}