{
  "_id": "OskWDhOKD8ogUXFd",
  "name": "Languages (Orang-Pendak)",
  "type": "feat",
  "img": "systems/pf1/icons/skills/blue_26.jpg",
  "flags": {
    "scene-packer": {
      "sourceId": "Item.8olJ75yKveF9MKI9"
    }
  },
  "system": {
    "description": {
      "value": "<p><strong>Race:</strong> Orang-Pendak&nbsp;</p>\n<hr />\n<p>Orang-pendaks begin play speaking Sasquatch. Orang-pendaks who have high Intelligence scores can choose from the following: Aklo, Common, Draconic, Goblin, Grippli, Sylvan, Vanaran, and Vishkanya.</p>",
      "unidentified": ""
    },
    "tags": [
      "Orang-Pendak"
    ],
    "actions": [],
    "uses": {
      "per": null,
      "value": 0,
      "maxFormula": "",
      "autoDeductChargesCost": "1"
    },
    "attackNotes": [],
    "effectNotes": [],
    "changes": [],
    "changeFlags": {
      "loseDexToAC": false,
      "noEncumbrance": false,
      "mediumArmorFullSpeed": false,
      "heavyArmorFullSpeed": false
    },
    "contextNotes": [],
    "links": {
      "children": [],
      "charges": []
    },
    "tag": "languagesOrangpendak",
    "useCustomTag": false,
    "armorProf": {
      "value": [],
      "custom": ""
    },
    "weaponProf": {
      "value": [],
      "custom": ""
    },
    "languages": {
      "value": [],
      "custom": ""
    },
    "flags": {
      "boolean": {},
      "dictionary": {}
    },
    "scriptCalls": [],
    "subType": "racial",
    "associations": {
      "classes": []
    },
    "showInQuickbar": false,
    "abilityType": "none",
    "crOffset": "",
    "disabled": false,
    "classSkills": {}
  },
  "ownership": {
    "default": 0
  },
  "_stats": {
    "systemId": "pf1",
    "systemVersion": "9.1",
    "coreVersion": "10.291",
    "createdTime": 1665428383419,
    "modifiedTime": 1689797938405,
    "lastModifiedBy": "ppv91YxratjWnkJi"
  },
  "effects": [],
  "folder": null,
  "sort": 0,
  "_key": "!items!OskWDhOKD8ogUXFd"
}