{
  "_id": "chkZrH30moyKCPNU",
  "name": "Languages (Hobgoblin)",
  "type": "feat",
  "img": "systems/pf1/icons/races/hobgoblin.png",
  "flags": {
    "scene-packer": {
      "sourceId": "Item.0Wn4mkZrVB08nFh3"
    }
  },
  "system": {
    "description": {
      "value": "<p><strong>Race:</strong> Hobgoblin&nbsp;</p>\n<hr />\n<p>Hobgoblins begin play speaking Common and Goblin. Hobgoblins with high Intelligence scores can choose from the following languages: Draconic, Dwarven, Infernal, Giant, and Orc.</p>",
      "unidentified": ""
    },
    "tags": [
      "Hobgoblin"
    ],
    "actions": [],
    "uses": {
      "per": null,
      "value": 0,
      "maxFormula": "",
      "autoDeductChargesCost": "1"
    },
    "attackNotes": [],
    "effectNotes": [],
    "changes": [],
    "changeFlags": {
      "loseDexToAC": false,
      "noEncumbrance": false,
      "mediumArmorFullSpeed": false,
      "heavyArmorFullSpeed": false
    },
    "contextNotes": [],
    "links": {
      "children": [],
      "charges": []
    },
    "tag": "languagesHobgoblin",
    "useCustomTag": false,
    "armorProf": {
      "value": [],
      "custom": ""
    },
    "weaponProf": {
      "value": [],
      "custom": ""
    },
    "languages": {
      "value": [],
      "custom": ""
    },
    "flags": {
      "boolean": {},
      "dictionary": {}
    },
    "scriptCalls": [],
    "subType": "racial",
    "associations": {
      "classes": []
    },
    "showInQuickbar": false,
    "abilityType": "none",
    "crOffset": "",
    "disabled": false,
    "classSkills": {}
  },
  "ownership": {
    "default": 0
  },
  "_stats": {
    "systemId": "pf1",
    "systemVersion": "9.1",
    "coreVersion": "10.291",
    "createdTime": 1665428383959,
    "modifiedTime": 1689797941428,
    "lastModifiedBy": "ppv91YxratjWnkJi"
  },
  "effects": [],
  "folder": null,
  "sort": 0,
  "_key": "!items!chkZrH30moyKCPNU"
}