{
  "_id": "eNIYJNbM6UL7OdyE",
  "name": "Languages (Human)",
  "type": "feat",
  "img": "systems/pf1/icons/races/human.jpg",
  "flags": {
    "scene-packer": {
      "sourceId": "Item.EmnjyPxdWP32r43m"
    }
  },
  "system": {
    "description": {
      "value": "<p><strong>Race:</strong> Human&nbsp;</p>\n<hr />\n<p>Humans begin play speaking Common and their ethnic language. Humans whose ethnic language is Common (or Taldane, in the case of Chelaxians or Taldans) do not receive an additional ethnic language. Humans with high Intelligence scores can choose any languages they want (except secret languages, such as Druidic).</p>",
      "unidentified": ""
    },
    "tags": [
      "Human"
    ],
    "actions": [],
    "uses": {
      "per": null,
      "value": 0,
      "maxFormula": "",
      "autoDeductChargesCost": "1"
    },
    "attackNotes": [],
    "effectNotes": [],
    "changes": [],
    "changeFlags": {
      "loseDexToAC": false,
      "noEncumbrance": false,
      "mediumArmorFullSpeed": false,
      "heavyArmorFullSpeed": false
    },
    "contextNotes": [],
    "links": {
      "children": [],
      "charges": []
    },
    "tag": "languagesHuman",
    "useCustomTag": false,
    "armorProf": {
      "value": [],
      "custom": ""
    },
    "weaponProf": {
      "value": [],
      "custom": ""
    },
    "languages": {
      "value": [],
      "custom": ""
    },
    "flags": {
      "boolean": {},
      "dictionary": {}
    },
    "scriptCalls": [],
    "subType": "racial",
    "associations": {
      "classes": []
    },
    "showInQuickbar": false,
    "abilityType": "none",
    "crOffset": "",
    "disabled": false,
    "classSkills": {}
  },
  "ownership": {
    "default": 0
  },
  "_stats": {
    "systemId": "pf1",
    "systemVersion": "9.1",
    "coreVersion": "10.291",
    "createdTime": 1665428384257,
    "modifiedTime": 1689797943131,
    "lastModifiedBy": "ppv91YxratjWnkJi"
  },
  "effects": [],
  "folder": null,
  "sort": 0,
  "_key": "!items!eNIYJNbM6UL7OdyE"
}