{
  "_id": "WiWFGkrXvw6qHwTc",
  "name": "Languages (Duergar)",
  "type": "feat",
  "img": "systems/pf1/icons/races/android.png",
  "flags": {
    "scene-packer": {
      "sourceId": "Item.uTsivBiPK8Q63CNT"
    }
  },
  "system": {
    "description": {
      "value": "<p><strong>Race:</strong> Duergar&nbsp;</p>\n<hr />\n<p>Duergar begin play speaking Common, Dwarven, and Undercommon. Duergar with high Intelligence scores can choose from the following languages: Aklo, Draconic, Giant, Goblin, Orc, and Terran.</p>",
      "unidentified": ""
    },
    "tags": [
      "Duergar"
    ],
    "actions": [],
    "uses": {
      "per": null,
      "value": 0,
      "maxFormula": "",
      "autoDeductChargesCost": "1"
    },
    "attackNotes": [],
    "effectNotes": [],
    "changes": [],
    "changeFlags": {
      "loseDexToAC": false,
      "noEncumbrance": false,
      "mediumArmorFullSpeed": false,
      "heavyArmorFullSpeed": false
    },
    "contextNotes": [],
    "links": {
      "children": [],
      "charges": []
    },
    "tag": "languagesDuergar",
    "useCustomTag": false,
    "armorProf": {
      "value": [],
      "custom": ""
    },
    "weaponProf": {
      "value": [],
      "custom": ""
    },
    "languages": {
      "value": [],
      "custom": ""
    },
    "flags": {
      "boolean": {},
      "dictionary": {}
    },
    "scriptCalls": [],
    "subType": "racial",
    "associations": {
      "classes": []
    },
    "showInQuickbar": false,
    "abilityType": "none",
    "crOffset": "",
    "disabled": false,
    "classSkills": {}
  },
  "ownership": {
    "default": 0
  },
  "_stats": {
    "systemId": "pf1",
    "systemVersion": "9.1",
    "coreVersion": "10.291",
    "createdTime": 1665428383837,
    "modifiedTime": 1689797940525,
    "lastModifiedBy": "ppv91YxratjWnkJi"
  },
  "effects": [],
  "folder": null,
  "sort": 0,
  "_key": "!items!WiWFGkrXvw6qHwTc"
}