{
  "_id": "rBKJCVwy3X2VjFdU",
  "name": "Languages (Dwarf)",
  "type": "feat",
  "img": "systems/pf1/icons/races/dwarf.png",
  "flags": {
    "scene-packer": {
      "sourceId": "Item.ugu6H92wHOXmKcaR"
    }
  },
  "system": {
    "description": {
      "value": "<p><strong>Race:</strong> Dwarf&nbsp;</p>\n<hr />\n<p>Dwarves begin play speaking Common and Dwarven. Dwarves with high Intelligence scores can choose from the following languages: Giant, Gnome, Goblin, Orc, Terran, and Undercommon.</p>",
      "unidentified": ""
    },
    "tags": [
      "Dwarf"
    ],
    "actions": [],
    "uses": {
      "per": null,
      "value": 0,
      "maxFormula": "",
      "autoDeductChargesCost": "1"
    },
    "attackNotes": [],
    "effectNotes": [],
    "changes": [],
    "changeFlags": {
      "loseDexToAC": false,
      "noEncumbrance": false,
      "mediumArmorFullSpeed": false,
      "heavyArmorFullSpeed": false
    },
    "contextNotes": [],
    "links": {
      "children": [],
      "charges": []
    },
    "tag": "languagesDwarf",
    "useCustomTag": false,
    "armorProf": {
      "value": [],
      "custom": ""
    },
    "weaponProf": {
      "value": [],
      "custom": ""
    },
    "languages": {
      "value": [],
      "custom": ""
    },
    "flags": {
      "boolean": {},
      "dictionary": {}
    },
    "scriptCalls": [],
    "subType": "racial",
    "associations": {
      "classes": []
    },
    "showInQuickbar": false,
    "abilityType": "none",
    "crOffset": "",
    "disabled": false,
    "classSkills": {}
  },
  "ownership": {
    "default": 0
  },
  "_stats": {
    "systemId": "pf1",
    "systemVersion": "9.1",
    "coreVersion": "10.291",
    "createdTime": 1665428384752,
    "modifiedTime": 1689797946858,
    "lastModifiedBy": "ppv91YxratjWnkJi"
  },
  "effects": [],
  "folder": null,
  "sort": 0,
  "_key": "!items!rBKJCVwy3X2VjFdU"
}