{
  "_id": "8faRAII4NRHmr6IC",
  "name": "Languages (Naiad)",
  "type": "feat",
  "img": "systems/pf1/icons/races/undine.png",
  "flags": {
    "scene-packer": {
      "sourceId": "Item.gFFYeAiTAEkC4Gen"
    }
  },
  "system": {
    "description": {
      "value": "<p><strong>Race:</strong> Naiad&nbsp;</p>\n<hr />\n<p>Naiads begin play speaking Common and Sylvan. Naiads that have high Intelligence scores are able to choose from any of the following bonus languages: Aklo, Aquan, Dwarven, Elven, Giant, Gnome, Goblin, Halfling, Sylvan, and any regional human tongue.</p>",
      "unidentified": ""
    },
    "tags": [
      "Naiad"
    ],
    "actions": [],
    "uses": {
      "per": null,
      "value": 0,
      "maxFormula": "",
      "autoDeductChargesCost": "1"
    },
    "attackNotes": [],
    "effectNotes": [],
    "changes": [],
    "changeFlags": {
      "loseDexToAC": false,
      "noEncumbrance": false,
      "mediumArmorFullSpeed": false,
      "heavyArmorFullSpeed": false
    },
    "contextNotes": [],
    "links": {
      "children": [],
      "charges": []
    },
    "tag": "languagesNaiad",
    "useCustomTag": false,
    "armorProf": {
      "value": [],
      "custom": ""
    },
    "weaponProf": {
      "value": [],
      "custom": ""
    },
    "languages": {
      "value": [],
      "custom": ""
    },
    "flags": {
      "boolean": {},
      "dictionary": {}
    },
    "scriptCalls": [],
    "subType": "racial",
    "associations": {
      "classes": []
    },
    "showInQuickbar": false,
    "abilityType": "none",
    "crOffset": "",
    "disabled": false,
    "classSkills": {}
  },
  "ownership": {
    "default": 0
  },
  "_stats": {
    "systemId": "pf1",
    "systemVersion": "9.1",
    "coreVersion": "10.291",
    "createdTime": 1665428382659,
    "modifiedTime": 1689797935133,
    "lastModifiedBy": "ppv91YxratjWnkJi"
  },
  "effects": [],
  "folder": null,
  "sort": 0,
  "_key": "!items!8faRAII4NRHmr6IC"
}