{
  "_id": "iB5aNUyJPWjxx3tx",
  "name": "Languages (Half-Orc)",
  "type": "feat",
  "img": "systems/pf1/icons/races/half-orc.png",
  "flags": {
    "scene-packer": {
      "sourceId": "Item.VoCLOQD67zCfK5TJ"
    }
  },
  "system": {
    "description": {
      "value": "<p><strong>Race:</strong> Half-Orc&nbsp;</p>\n<hr />\n<p>Half-orcs begin play speaking Common and Orc. Half-orcs with high Intelligence scores can choose from the following languages: Abyssal, Draconic, Giant, Gnoll, and Goblin.</p>",
      "unidentified": ""
    },
    "tags": [
      "Half-Orc"
    ],
    "actions": [],
    "uses": {
      "per": null,
      "value": 0,
      "maxFormula": "",
      "autoDeductChargesCost": "1"
    },
    "attackNotes": [],
    "effectNotes": [],
    "changes": [],
    "changeFlags": {
      "loseDexToAC": false,
      "noEncumbrance": false,
      "mediumArmorFullSpeed": false,
      "heavyArmorFullSpeed": false
    },
    "contextNotes": [],
    "links": {
      "children": [],
      "charges": []
    },
    "tag": "languagesHalforc",
    "useCustomTag": false,
    "armorProf": {
      "value": [],
      "custom": ""
    },
    "weaponProf": {
      "value": [],
      "custom": ""
    },
    "languages": {
      "value": [],
      "custom": ""
    },
    "flags": {
      "boolean": {},
      "dictionary": {}
    },
    "scriptCalls": [],
    "subType": "racial",
    "associations": {
      "classes": []
    },
    "showInQuickbar": false,
    "abilityType": "none",
    "crOffset": "",
    "disabled": false,
    "classSkills": {}
  },
  "ownership": {
    "default": 0
  },
  "_stats": {
    "systemId": "pf1",
    "systemVersion": "9.1",
    "coreVersion": "10.291",
    "createdTime": 1665428384332,
    "modifiedTime": 1689797943820,
    "lastModifiedBy": "ppv91YxratjWnkJi"
  },
  "effects": [],
  "folder": null,
  "sort": 0,
  "_key": "!items!iB5aNUyJPWjxx3tx"
}