{
  "_id": "ZJVdNI7JLIsgnQYz",
  "name": "Lashunta Magic",
  "type": "feat",
  "img": "systems/pf1/icons/spells/air-burst-magenta-1.jpg",
  "flags": {
    "scene-packer": {
      "sourceId": "Item.rtE1TW3YcLSfjarQ"
    }
  },
  "system": {
    "description": {
      "value": "<p><strong>Race:</strong> Lashunta&nbsp;</p>\n<hr />\n<p>A lashunta possessing an Intelligence score of 11 or higher gains the following spell-like abilities: at will-<em>daze</em>, <em>mage hand</em>; 1/day-<em>detect thoughts</em>. The caster level for these effects is equal to the lashunta's character level.</p>",
      "unidentified": ""
    },
    "tags": [
      "Lashunta"
    ],
    "actions": [],
    "uses": {
      "per": null,
      "value": 0,
      "maxFormula": "",
      "autoDeductChargesCost": "1"
    },
    "attackNotes": [],
    "effectNotes": [],
    "changes": [],
    "changeFlags": {
      "loseDexToAC": false,
      "noEncumbrance": false,
      "mediumArmorFullSpeed": false,
      "heavyArmorFullSpeed": false
    },
    "contextNotes": [],
    "links": {
      "children": [],
      "charges": []
    },
    "tag": "lashuntaMagic",
    "useCustomTag": false,
    "armorProf": {
      "value": [],
      "custom": ""
    },
    "weaponProf": {
      "value": [],
      "custom": ""
    },
    "languages": {
      "value": [],
      "custom": ""
    },
    "flags": {
      "boolean": {},
      "dictionary": {}
    },
    "scriptCalls": [],
    "subType": "racial",
    "associations": {
      "classes": []
    },
    "showInQuickbar": false,
    "abilityType": "none",
    "crOffset": "",
    "disabled": false,
    "classSkills": {}
  },
  "ownership": {
    "default": 0
  },
  "_stats": {
    "systemId": "pf1",
    "systemVersion": "9.1",
    "coreVersion": "10.291",
    "createdTime": 1665428383893,
    "modifiedTime": 1689797940907,
    "lastModifiedBy": "ppv91YxratjWnkJi"
  },
  "effects": [],
  "folder": null,
  "sort": 0,
  "_key": "!items!ZJVdNI7JLIsgnQYz"
}