{
  "_id": "u06YS9FvVU8JEH36",
  "name": "Low-Light Vision (Skinwalker)",
  "type": "feat",
  "img": "systems/pf1/icons/skills/blue_35.jpg",
  "flags": {
    "scene-packer": {
      "sourceId": "Item.Lnbzm5zXg45k6nTG"
    }
  },
  "system": {
    "description": {
      "value": "<p><strong>Race:</strong> Skinwalker&nbsp;</p>\n<hr />\n<p>Skinwalkers can see twice as far as humans can in dim light.</p>",
      "unidentified": ""
    },
    "tags": [
      "Skinwalker"
    ],
    "actions": [],
    "uses": {
      "per": null,
      "value": 0,
      "maxFormula": "",
      "autoDeductChargesCost": "1"
    },
    "attackNotes": [],
    "effectNotes": [],
    "changes": [],
    "changeFlags": {
      "loseDexToAC": false,
      "noEncumbrance": false,
      "mediumArmorFullSpeed": false,
      "heavyArmorFullSpeed": false
    },
    "contextNotes": [],
    "links": {
      "children": [],
      "charges": []
    },
    "tag": "lowlightVisionSkinwalker",
    "useCustomTag": false,
    "armorProf": {
      "value": [],
      "custom": ""
    },
    "weaponProf": {
      "value": [],
      "custom": ""
    },
    "languages": {
      "value": [],
      "custom": ""
    },
    "flags": {
      "boolean": {},
      "dictionary": {}
    },
    "scriptCalls": [],
    "subType": "racial",
    "associations": {
      "classes": []
    },
    "showInQuickbar": false,
    "abilityType": "none",
    "crOffset": "",
    "disabled": false,
    "classSkills": {}
  },
  "ownership": {
    "default": 0
  },
  "_stats": {
    "systemId": "pf1",
    "systemVersion": "9.1",
    "coreVersion": "10.291",
    "createdTime": 1665428384807,
    "modifiedTime": 1689797948656,
    "lastModifiedBy": "ppv91YxratjWnkJi"
  },
  "effects": [],
  "folder": null,
  "sort": 0,
  "_key": "!items!u06YS9FvVU8JEH36"
}