{
  "_id": "ooSNhKL1gAttc99g",
  "name": "Low-Light Vision (Monkey Goblin)",
  "type": "feat",
  "img": "systems/pf1/icons/skills/affliction_24.jpg",
  "flags": {
    "scene-packer": {
      "sourceId": "Item.l1DqTRMQ228dtUcu"
    }
  },
  "system": {
    "description": {
      "value": "<p><strong>Race:</strong> Monkey Goblin&nbsp;</p>\n<hr />\n<p>Monkey goblins can see twice as far as humans in conditions of dim light.</p>",
      "unidentified": ""
    },
    "tags": [
      "Monkey Goblin"
    ],
    "actions": [],
    "uses": {
      "per": null,
      "value": 0,
      "maxFormula": "",
      "autoDeductChargesCost": "1"
    },
    "attackNotes": [],
    "effectNotes": [],
    "changes": [],
    "changeFlags": {
      "loseDexToAC": false,
      "noEncumbrance": false,
      "mediumArmorFullSpeed": false,
      "heavyArmorFullSpeed": false
    },
    "contextNotes": [],
    "links": {
      "children": [],
      "charges": []
    },
    "tag": "lowlightVisionMonkeyGoblin",
    "useCustomTag": false,
    "armorProf": {
      "value": [],
      "custom": ""
    },
    "weaponProf": {
      "value": [],
      "custom": ""
    },
    "languages": {
      "value": [],
      "custom": ""
    },
    "flags": {
      "boolean": {},
      "dictionary": {}
    },
    "scriptCalls": [],
    "subType": "racial",
    "associations": {
      "classes": []
    },
    "showInQuickbar": false,
    "abilityType": "none",
    "crOffset": "",
    "disabled": false,
    "classSkills": {}
  },
  "ownership": {
    "default": 0
  },
  "_stats": {
    "systemId": "pf1",
    "systemVersion": "9.1",
    "coreVersion": "10.291",
    "createdTime": 1665428384445,
    "modifiedTime": 1689797944915,
    "lastModifiedBy": "ppv91YxratjWnkJi"
  },
  "effects": [],
  "folder": null,
  "sort": 0,
  "_key": "!items!ooSNhKL1gAttc99g"
}