{
  "_id": "QHrUf44V832k8pMm",
  "name": "Manipulative",
  "type": "feat",
  "img": "systems/pf1/icons/races/dhampir.png",
  "flags": {
    "scene-packer": {
      "sourceId": "Item.7qBvnX88Uqvtv05E"
    }
  },
  "system": {
    "description": {
      "value": "<p><strong>Race:</strong> Dhampir&nbsp;</p>\n<hr />\n<p>Dhampirs gain a +2 racial bonus on Bluff and Perception checks. Dhampirs of specific heritages (see below) gain a +2 bonus on different skill checks as indicated.</p>",
      "unidentified": ""
    },
    "tags": [
      "Dhampir"
    ],
    "actions": [],
    "uses": {
      "per": null,
      "value": 0,
      "maxFormula": "",
      "autoDeductChargesCost": "1"
    },
    "attackNotes": [],
    "effectNotes": [],
    "changes": [],
    "changeFlags": {
      "loseDexToAC": false,
      "noEncumbrance": false,
      "mediumArmorFullSpeed": false,
      "heavyArmorFullSpeed": false
    },
    "contextNotes": [],
    "links": {
      "children": [],
      "charges": []
    },
    "tag": "manipulative",
    "useCustomTag": false,
    "armorProf": {
      "value": [],
      "custom": ""
    },
    "weaponProf": {
      "value": [],
      "custom": ""
    },
    "languages": {
      "value": [],
      "custom": ""
    },
    "flags": {
      "boolean": {},
      "dictionary": {}
    },
    "scriptCalls": [],
    "subType": "racial",
    "associations": {
      "classes": []
    },
    "showInQuickbar": false,
    "abilityType": "none",
    "crOffset": "",
    "disabled": false,
    "classSkills": {}
  },
  "ownership": {
    "default": 0
  },
  "_stats": {
    "systemId": "pf1",
    "systemVersion": "9.1",
    "coreVersion": "10.291",
    "createdTime": 1665428383453,
    "modifiedTime": 1689797938611,
    "lastModifiedBy": "ppv91YxratjWnkJi"
  },
  "effects": [],
  "folder": null,
  "sort": 0,
  "_key": "!items!QHrUf44V832k8pMm"
}