{
  "_id": "qquaaM62KEX4ulIi",
  "name": "Maw or Claw",
  "type": "feat",
  "img": "systems/pf1/icons/races/tiefling.png",
  "system": {
    "description": {
      "value": "<p><strong>Race:</strong> Tiefling&nbsp;<br /><strong>Replaced Trait(s):</strong> Spell-Like Ability&nbsp;</p>\n<hr />\n<p>Some tieflings take on the more bestial aspects of their fiendish ancestors. These tieflings exhibit either powerful, toothy maws or dangerous claws. The tiefling can choose a bite attack that deals 1d6 points of damage or two claws that each deal 1d4 points of damage. These attacks are primary natural attacks. This racial trait replaces the spell-like ability racial trait.</p>",
      "unidentified": ""
    },
    "tags": [
      "Tiefling",
      "PFS"
    ],
    "actions": [],
    "uses": {
      "per": null,
      "value": 0,
      "maxFormula": "",
      "autoDeductChargesCost": "1"
    },
    "attackNotes": [],
    "effectNotes": [],
    "changes": [],
    "changeFlags": {
      "loseDexToAC": false,
      "noEncumbrance": false,
      "mediumArmorFullSpeed": false,
      "heavyArmorFullSpeed": false
    },
    "contextNotes": [],
    "links": {
      "children": [],
      "charges": []
    },
    "tag": "",
    "useCustomTag": false,
    "armorProf": {
      "value": [],
      "custom": ""
    },
    "weaponProf": {
      "value": [],
      "custom": ""
    },
    "languages": {
      "value": [],
      "custom": ""
    },
    "flags": {
      "boolean": {},
      "dictionary": {}
    },
    "scriptCalls": [],
    "subType": "racial",
    "associations": {
      "classes": []
    },
    "showInQuickbar": false,
    "abilityType": "none",
    "crOffset": "",
    "disabled": false,
    "classSkills": {}
  },
  "ownership": {
    "default": 0
  },
  "_stats": {
    "systemId": "pf1",
    "systemVersion": "9.1",
    "coreVersion": "10.291",
    "createdTime": 1665428384744,
    "modifiedTime": 1689797946804,
    "lastModifiedBy": "ppv91YxratjWnkJi"
  },
  "effects": [],
  "folder": null,
  "sort": 0,
  "flags": {},
  "_key": "!items!qquaaM62KEX4ulIi"
}