{
  "_id": "uDlZlUlvcf9EE1ys",
  "name": "Monstrous Sympathy",
  "type": "feat",
  "img": "systems/pf1/icons/races/half-orc.png",
  "system": {
    "description": {
      "value": "<p><strong>Race:</strong> Half-Orc&nbsp;<br /><strong>Replaced Trait(s):</strong> Intimidating, Orc Ferocity&nbsp;</p>\n<hr />\n<p>Some half-orcs know how monsters think. They receive a +2 racial bonus on Bluff, Diplomacy, and Sense Motive checks against evil creatures. This racial trait replaces intimidating and orc ferocity.</p>",
      "unidentified": ""
    },
    "tags": [
      "Half-Orc",
      "PFS"
    ],
    "actions": [],
    "uses": {
      "per": null,
      "value": 0,
      "maxFormula": "",
      "autoDeductChargesCost": "1"
    },
    "attackNotes": [],
    "effectNotes": [],
    "changes": [],
    "changeFlags": {
      "loseDexToAC": false,
      "noEncumbrance": false,
      "mediumArmorFullSpeed": false,
      "heavyArmorFullSpeed": false
    },
    "contextNotes": [],
    "links": {
      "children": [],
      "charges": []
    },
    "tag": "",
    "useCustomTag": false,
    "armorProf": {
      "value": [],
      "custom": ""
    },
    "weaponProf": {
      "value": [],
      "custom": ""
    },
    "languages": {
      "value": [],
      "custom": ""
    },
    "flags": {
      "boolean": {},
      "dictionary": {}
    },
    "scriptCalls": [],
    "subType": "racial",
    "associations": {
      "classes": []
    },
    "showInQuickbar": false,
    "abilityType": "none",
    "crOffset": "",
    "disabled": false,
    "classSkills": {}
  },
  "ownership": {
    "default": 0
  },
  "_stats": {
    "systemId": "pf1",
    "systemVersion": "9.1",
    "coreVersion": "10.291",
    "createdTime": 1665428384812,
    "modifiedTime": 1689797948689,
    "lastModifiedBy": "ppv91YxratjWnkJi"
  },
  "effects": [],
  "folder": null,
  "sort": 0,
  "flags": {},
  "_key": "!items!uDlZlUlvcf9EE1ys"
}