{
  "_id": "E0JttnfFJ8Zz2pN9",
  "name": "Monstrous Humanoid (Sahuagin)",
  "type": "feat",
  "img": "systems/pf1/icons/races/creature-types/construct.png",
  "flags": {
    "scene-packer": {
      "sourceId": "Item.hmMHa5iibe7lpbGd"
    }
  },
  "system": {
    "description": {
      "value": "<p><strong>Race:</strong> Sahuagin&nbsp;</p>\n<hr />\n<p>Sahuagin are monstrous humanoids with the aquatic subtype.</p>",
      "unidentified": ""
    },
    "tags": [
      "Sahuagin"
    ],
    "actions": [],
    "uses": {
      "per": null,
      "value": 0,
      "maxFormula": "",
      "autoDeductChargesCost": "1"
    },
    "attackNotes": [],
    "effectNotes": [],
    "changes": [],
    "changeFlags": {
      "loseDexToAC": false,
      "noEncumbrance": false,
      "mediumArmorFullSpeed": false,
      "heavyArmorFullSpeed": false
    },
    "contextNotes": [],
    "links": {
      "children": [],
      "charges": []
    },
    "tag": "monstrousHumanoidSahuagin",
    "useCustomTag": false,
    "armorProf": {
      "value": [],
      "custom": ""
    },
    "weaponProf": {
      "value": [],
      "custom": ""
    },
    "languages": {
      "value": [],
      "custom": ""
    },
    "flags": {
      "boolean": {},
      "dictionary": {}
    },
    "scriptCalls": [],
    "subType": "racial",
    "associations": {
      "classes": []
    },
    "showInQuickbar": false,
    "abilityType": "none",
    "crOffset": "",
    "disabled": false,
    "classSkills": {}
  },
  "ownership": {
    "default": 0
  },
  "_stats": {
    "systemId": "pf1",
    "systemVersion": "9.1",
    "coreVersion": "10.291",
    "createdTime": 1665428382777,
    "modifiedTime": 1689797935754,
    "lastModifiedBy": "ppv91YxratjWnkJi"
  },
  "effects": [],
  "folder": null,
  "sort": 0,
  "_key": "!items!E0JttnfFJ8Zz2pN9"
}