{
  "_id": "I0yTReZxAfE5biVp",
  "name": "Mountain Half-Orcs (Cragkin)",
  "type": "feat",
  "img": "systems/pf1/icons/races/half-orc.png",
  "system": {
    "description": {
      "value": "<p><strong>Race:</strong> Half-Orc&nbsp;<br /><strong>Replaced Trait(s):</strong> Base Statistics&nbsp;</p>\n<hr />\n<p>Cragkin are widespread across Golarion, found across all the mountain ranges of western Avistan. Thanks to their thin frames and quick wits, mountain-born half-orcs excel at climbing and acrobatic stunts. Anything less than a vertical cliff face is traversable, and often even that isn't enough to stop them. To mountain half-orcs, obstacles are merely a foothold on their path to the top.<br /><br /> Mountain orcs respect bravery, and cragkin have turned fearlessness and reckless abandon into a badge of honor. By using the terrain to their advantage against less surefooted enemies, they can attack from strange angles and gain advantages with just a few quick steps. They often take near-suicidal leaps to strike enemies from above, or trick enemies into falling to their deaths by leading them down impossible paths. Despite their great skill, accidents are common in this treacherous environment, and no one is surprised if one halforc returns after a raid and his companions do not.<br /><br /> Many mountain half-orcs find a place among Shoanti and Ulfen settlements, where valor in battle is highly prized. As long as they are willing to respect the traditions of their adopted clans, they usually integrate well into these societies and contribute much to the community.</p>",
      "unidentified": ""
    },
    "tags": [
      "Half-Orc",
      "PFS"
    ],
    "actions": [],
    "uses": {
      "per": null,
      "value": 0,
      "maxFormula": "",
      "autoDeductChargesCost": "1"
    },
    "attackNotes": [],
    "effectNotes": [],
    "changes": [],
    "changeFlags": {
      "loseDexToAC": false,
      "noEncumbrance": false,
      "mediumArmorFullSpeed": false,
      "heavyArmorFullSpeed": false
    },
    "contextNotes": [],
    "links": {
      "children": [],
      "charges": []
    },
    "tag": "",
    "useCustomTag": false,
    "armorProf": {
      "value": [],
      "custom": ""
    },
    "weaponProf": {
      "value": [],
      "custom": ""
    },
    "languages": {
      "value": [],
      "custom": ""
    },
    "flags": {
      "boolean": {},
      "dictionary": {}
    },
    "scriptCalls": [],
    "subType": "racial",
    "associations": {
      "classes": []
    },
    "showInQuickbar": false,
    "abilityType": "none",
    "crOffset": "",
    "disabled": false,
    "classSkills": {}
  },
  "ownership": {
    "default": 0
  },
  "_stats": {
    "systemId": "pf1",
    "systemVersion": "9.1",
    "coreVersion": "10.291",
    "createdTime": 1665428383284,
    "modifiedTime": 1689797937525,
    "lastModifiedBy": "ppv91YxratjWnkJi"
  },
  "effects": [],
  "folder": null,
  "sort": 0,
  "flags": {},
  "_key": "!items!I0yTReZxAfE5biVp"
}