{
  "_id": "ZgLH2eQ5rU5fIacW",
  "name": "Multidisciplined",
  "type": "feat",
  "img": "systems/pf1/icons/races/half-elf.png",
  "system": {
    "description": {
      "value": "<p><strong>Race:</strong> Half-Elf&nbsp;<br /><strong>Replaced Trait(s):</strong> Multitalented&nbsp;</p>\n<hr />\n<p>Born to two races, half-elves have a knack for combining different magical traditions. If a halfelf with this racial trait has spellcasting abilities from at least two different classes, the effects of spells she casts from all her classes are calculated as though her caster level were 1 level higher, to a maximum of her character level. This racial trait replaces multitalented.</p>",
      "unidentified": ""
    },
    "tags": [
      "Half-Elf",
      "PFS"
    ],
    "actions": [],
    "uses": {
      "per": null,
      "value": 0,
      "maxFormula": "",
      "autoDeductChargesCost": "1"
    },
    "attackNotes": [],
    "effectNotes": [],
    "changes": [],
    "changeFlags": {
      "loseDexToAC": false,
      "noEncumbrance": false,
      "mediumArmorFullSpeed": false,
      "heavyArmorFullSpeed": false
    },
    "contextNotes": [],
    "links": {
      "children": [],
      "charges": []
    },
    "tag": "",
    "useCustomTag": false,
    "armorProf": {
      "value": [],
      "custom": ""
    },
    "weaponProf": {
      "value": [],
      "custom": ""
    },
    "languages": {
      "value": [],
      "custom": ""
    },
    "flags": {
      "boolean": {},
      "dictionary": {}
    },
    "scriptCalls": [],
    "subType": "racial",
    "associations": {
      "classes": []
    },
    "showInQuickbar": false,
    "abilityType": "none",
    "crOffset": "",
    "disabled": false,
    "classSkills": {}
  },
  "ownership": {
    "default": 0
  },
  "_stats": {
    "systemId": "pf1",
    "systemVersion": "9.1",
    "coreVersion": "10.291",
    "createdTime": 1665428383903,
    "modifiedTime": 1689797940966,
    "lastModifiedBy": "ppv91YxratjWnkJi"
  },
  "effects": [],
  "folder": null,
  "sort": 0,
  "flags": {},
  "_key": "!items!ZgLH2eQ5rU5fIacW"
}