{
  "_id": "wvUNwfSSzmWElgiM",
  "name": "Nanite Surge (Ex)",
  "type": "feat",
  "img": "systems/pf1/icons/races/android.png",
  "flags": {
    "scene-packer": {
      "sourceId": "Item.ALksuc1zma9oC9yt"
    }
  },
  "system": {
    "description": {
      "value": "<p><strong>Race:</strong> Android&nbsp;</p>\n<hr />\n<p>An android's body is infused with nanites. Once per day as an immediate action, an android can cause her nanites to surge, granting her a bonus equal to 3 + the android's character level on any one d20 roll; this ability must be activated before the roll is made. When an android uses this power, her circuitry-tattoos glow with light equivalent to that of a torch for 1 round.</p>",
      "unidentified": ""
    },
    "tags": [
      "Android"
    ],
    "actions": [],
    "uses": {
      "per": null,
      "value": 0,
      "maxFormula": "",
      "autoDeductChargesCost": "1"
    },
    "attackNotes": [],
    "effectNotes": [],
    "changes": [],
    "changeFlags": {
      "loseDexToAC": false,
      "noEncumbrance": false,
      "mediumArmorFullSpeed": false,
      "heavyArmorFullSpeed": false
    },
    "contextNotes": [],
    "links": {
      "children": [],
      "charges": []
    },
    "tag": "naniteSurgeEx",
    "useCustomTag": false,
    "armorProf": {
      "value": [],
      "custom": ""
    },
    "weaponProf": {
      "value": [],
      "custom": ""
    },
    "languages": {
      "value": [],
      "custom": ""
    },
    "flags": {
      "boolean": {},
      "dictionary": {}
    },
    "scriptCalls": [],
    "subType": "racial",
    "associations": {
      "classes": []
    },
    "showInQuickbar": false,
    "abilityType": "none",
    "crOffset": "",
    "disabled": false,
    "classSkills": {}
  },
  "ownership": {
    "default": 0
  },
  "_stats": {
    "systemId": "pf1",
    "systemVersion": "9.1",
    "coreVersion": "10.291",
    "createdTime": 1665428384873,
    "modifiedTime": 1689797949073,
    "lastModifiedBy": "ppv91YxratjWnkJi"
  },
  "effects": [],
  "folder": null,
  "sort": 0,
  "_key": "!items!wvUNwfSSzmWElgiM"
}