{
  "_id": "GgPKX9hJt82hYYxg",
  "name": "Natural Armor (Locathah)",
  "type": "feat",
  "img": "systems/pf1/icons/skills/blue_06.jpg",
  "flags": {
    "scene-packer": {
      "sourceId": "Item.CyrSEOSeSMY8qPHW"
    }
  },
  "system": {
    "description": {
      "value": "<p><strong>Race:</strong> Locathah&nbsp;</p>\n<hr />\n<p>Locathahs have thick scales that provide a +2 natural armor bonus.</p>",
      "unidentified": ""
    },
    "tags": [
      "Locathah"
    ],
    "actions": [],
    "uses": {
      "per": null,
      "value": 0,
      "maxFormula": "",
      "autoDeductChargesCost": "1"
    },
    "attackNotes": [],
    "effectNotes": [],
    "changes": [],
    "changeFlags": {
      "loseDexToAC": false,
      "noEncumbrance": false,
      "mediumArmorFullSpeed": false,
      "heavyArmorFullSpeed": false
    },
    "contextNotes": [],
    "links": {
      "children": [],
      "charges": []
    },
    "tag": "naturalArmorLocathah",
    "useCustomTag": false,
    "armorProf": {
      "value": [],
      "custom": ""
    },
    "weaponProf": {
      "value": [],
      "custom": ""
    },
    "languages": {
      "value": [],
      "custom": ""
    },
    "flags": {
      "boolean": {},
      "dictionary": {}
    },
    "scriptCalls": [],
    "subType": "racial",
    "associations": {
      "classes": []
    },
    "showInQuickbar": false,
    "abilityType": "none",
    "crOffset": "",
    "disabled": false,
    "classSkills": {}
  },
  "ownership": {
    "default": 0
  },
  "_stats": {
    "systemId": "pf1",
    "systemVersion": "9.1",
    "coreVersion": "10.291",
    "createdTime": 1665428383235,
    "modifiedTime": 1689797937328,
    "lastModifiedBy": "ppv91YxratjWnkJi"
  },
  "effects": [],
  "folder": null,
  "sort": 0,
  "_key": "!items!GgPKX9hJt82hYYxg"
}