{
  "_id": "eXhsF4CcvaCrLqLj",
  "name": "Natural Hunter",
  "type": "feat",
  "img": "systems/pf1/icons/races/catfolk.png",
  "flags": {
    "scene-packer": {
      "sourceId": "Item.gP68isIXmgSNZsYx"
    }
  },
  "system": {
    "description": {
      "value": "<p><strong>Race:</strong> Catfolk&nbsp;</p>\n<hr />\n<p>Catfolk receive a +2 racial bonus on Perception, Stealth, and Survival checks.</p>",
      "unidentified": ""
    },
    "tags": [
      "Catfolk"
    ],
    "actions": [],
    "uses": {
      "per": null,
      "value": 0,
      "maxFormula": "",
      "autoDeductChargesCost": "1"
    },
    "attackNotes": [],
    "effectNotes": [],
    "changes": [],
    "changeFlags": {
      "loseDexToAC": false,
      "noEncumbrance": false,
      "mediumArmorFullSpeed": false,
      "heavyArmorFullSpeed": false
    },
    "contextNotes": [],
    "links": {
      "children": [],
      "charges": []
    },
    "tag": "naturalHunter",
    "useCustomTag": false,
    "armorProf": {
      "value": [],
      "custom": ""
    },
    "weaponProf": {
      "value": [],
      "custom": ""
    },
    "languages": {
      "value": [],
      "custom": ""
    },
    "flags": {
      "boolean": {},
      "dictionary": {}
    },
    "scriptCalls": [],
    "subType": "racial",
    "associations": {
      "classes": []
    },
    "showInQuickbar": false,
    "abilityType": "none",
    "crOffset": "",
    "disabled": false,
    "classSkills": {}
  },
  "ownership": {
    "default": 0
  },
  "_stats": {
    "systemId": "pf1",
    "systemVersion": "9.1",
    "coreVersion": "10.291",
    "createdTime": 1665428384259,
    "modifiedTime": 1689797943172,
    "lastModifiedBy": "ppv91YxratjWnkJi"
  },
  "effects": [],
  "folder": null,
  "sort": 0,
  "_key": "!items!eXhsF4CcvaCrLqLj"
}