{
  "_id": "C3Q7w4YJ7ALgd1am",
  "name": "Nature Affinity",
  "type": "feat",
  "img": "systems/pf1/icons/races/gnome.png",
  "system": {
    "description": {
      "value": "<p><strong>Race:</strong> Gnome&nbsp;<br /><strong>Replaced Trait(s):</strong> Keen Senses&nbsp;</p>\n<hr />\n<p>Gnomes with this racial trait gain a +2 racial bonus on Fortitude saves against diseases and poisons inflicted by fey, plants, and forest-related hazards. This replaces keen senses.</p>",
      "unidentified": ""
    },
    "tags": [
      "Gnome",
      "PFS"
    ],
    "actions": [],
    "uses": {
      "per": null,
      "value": 0,
      "maxFormula": "",
      "autoDeductChargesCost": "1"
    },
    "attackNotes": [],
    "effectNotes": [],
    "changes": [],
    "changeFlags": {
      "loseDexToAC": false,
      "noEncumbrance": false,
      "mediumArmorFullSpeed": false,
      "heavyArmorFullSpeed": false
    },
    "contextNotes": [],
    "links": {
      "children": [],
      "charges": []
    },
    "tag": "",
    "useCustomTag": false,
    "armorProf": {
      "value": [],
      "custom": ""
    },
    "weaponProf": {
      "value": [],
      "custom": ""
    },
    "languages": {
      "value": [],
      "custom": ""
    },
    "flags": {
      "boolean": {},
      "dictionary": {}
    },
    "scriptCalls": [],
    "subType": "racial",
    "associations": {
      "classes": []
    },
    "showInQuickbar": false,
    "abilityType": "none",
    "crOffset": "",
    "disabled": false,
    "classSkills": {}
  },
  "ownership": {
    "default": 0
  },
  "_stats": {
    "systemId": "pf1",
    "systemVersion": "9.1",
    "coreVersion": "10.291",
    "createdTime": 1665428382734,
    "modifiedTime": 1689797935511,
    "lastModifiedBy": "ppv91YxratjWnkJi"
  },
  "effects": [],
  "folder": null,
  "sort": 0,
  "flags": {},
  "_key": "!items!C3Q7w4YJ7ALgd1am"
}