{
  "_id": "SSksShaDho0IcKCO",
  "name": "Natural Weapons (Kitsune)",
  "type": "feat",
  "img": "systems/pf1/icons/feats/stealthy.jpg",
  "flags": {
    "scene-packer": {
      "sourceId": "Item.tDANk1xRDFsB2qPZ"
    }
  },
  "system": {
    "description": {
      "value": "<p><strong>Race:</strong> Kitsune&nbsp;</p>\n<hr />\n<p>In her natural form, a kitsune has a bite attack that deals 1d4 points of damage.</p>",
      "unidentified": ""
    },
    "tags": [
      "Kitsune"
    ],
    "actions": [],
    "uses": {
      "per": null,
      "value": 0,
      "maxFormula": "",
      "autoDeductChargesCost": "1"
    },
    "attackNotes": [],
    "effectNotes": [],
    "changes": [],
    "changeFlags": {
      "loseDexToAC": false,
      "noEncumbrance": false,
      "mediumArmorFullSpeed": false,
      "heavyArmorFullSpeed": false
    },
    "contextNotes": [],
    "links": {
      "children": [],
      "charges": []
    },
    "tag": "naturalWeaponsKitsune",
    "useCustomTag": false,
    "armorProf": {
      "value": [],
      "custom": ""
    },
    "weaponProf": {
      "value": [],
      "custom": ""
    },
    "languages": {
      "value": [],
      "custom": ""
    },
    "flags": {
      "boolean": {},
      "dictionary": {}
    },
    "scriptCalls": [],
    "subType": "racial",
    "associations": {
      "classes": []
    },
    "showInQuickbar": false,
    "abilityType": "none",
    "crOffset": "",
    "disabled": false,
    "classSkills": {}
  },
  "ownership": {
    "default": 0
  },
  "_stats": {
    "systemId": "pf1",
    "systemVersion": "9.1",
    "coreVersion": "10.291",
    "createdTime": 1665428383751,
    "modifiedTime": 1689797939957,
    "lastModifiedBy": "ppv91YxratjWnkJi"
  },
  "effects": [],
  "folder": null,
  "sort": 0,
  "_key": "!items!SSksShaDho0IcKCO"
}