{
  "_id": "xZm1SIpjHpL6UTgs",
  "name": "Nidalese Recluse",
  "type": "feat",
  "img": "systems/pf1/icons/races/fetchling.png",
  "system": {
    "description": {
      "value": "<p><strong>Race:</strong> Fetchling&nbsp;<br /><strong>Replaced Trait(s):</strong> Spell-Like Abilities&nbsp;</p>\n<hr />\n<p>Some fetchlings learn how to deflect unwanted attention. Fetchlings with this racial trait can use <i>sanctuary</i> once per day as a spell-like ability. When such a fetchling reaches 9th level in any combination of classes, he gains <i>nondetection</i> (self only) as a spell-like ability usable once per day, and at 13th level, he gains <i>veil</i> (self only) usable once per day. A fetchling's caster level is equal to his total Hit Dice. This racial trait modifies the fetchling's spell-like abilities racial trait.</p>",
      "unidentified": ""
    },
    "tags": [
      "Fetchling",
      "PFS"
    ],
    "actions": [],
    "uses": {
      "per": null,
      "value": 0,
      "maxFormula": "",
      "autoDeductChargesCost": "1"
    },
    "attackNotes": [],
    "effectNotes": [],
    "changes": [],
    "changeFlags": {
      "loseDexToAC": false,
      "noEncumbrance": false,
      "mediumArmorFullSpeed": false,
      "heavyArmorFullSpeed": false
    },
    "contextNotes": [],
    "links": {
      "children": [],
      "charges": []
    },
    "tag": "",
    "useCustomTag": false,
    "armorProf": {
      "value": [],
      "custom": ""
    },
    "weaponProf": {
      "value": [],
      "custom": ""
    },
    "languages": {
      "value": [],
      "custom": ""
    },
    "flags": {
      "boolean": {},
      "dictionary": {}
    },
    "scriptCalls": [],
    "subType": "racial",
    "associations": {
      "classes": []
    },
    "showInQuickbar": false,
    "abilityType": "none",
    "crOffset": "",
    "disabled": false,
    "classSkills": {}
  },
  "ownership": {
    "default": 0
  },
  "_stats": {
    "systemId": "pf1",
    "systemVersion": "9.1",
    "coreVersion": "10.291",
    "createdTime": 1665428384886,
    "modifiedTime": 1689797949151,
    "lastModifiedBy": "ppv91YxratjWnkJi"
  },
  "effects": [],
  "folder": null,
  "sort": 0,
  "flags": {},
  "_key": "!items!xZm1SIpjHpL6UTgs"
}