{
  "_id": "LcZE7cPw87DMzJYl",
  "name": "Obsessive",
  "type": "feat",
  "img": "systems/pf1/icons/races/gnome.png",
  "flags": {
    "scene-packer": {
      "sourceId": "Item.alXALuQOQGgKD8s5"
    }
  },
  "system": {
    "description": {
      "value": "<p><strong>Race:</strong> Gnome&nbsp;</p>\n<hr />\n<p>Gnomes receive a +2 racial bonus on a Craft or Profession skill of their choice.</p>",
      "unidentified": ""
    },
    "tags": [
      "Gnome"
    ],
    "actions": [],
    "uses": {
      "per": null,
      "value": 0,
      "maxFormula": "",
      "autoDeductChargesCost": "1"
    },
    "attackNotes": [],
    "effectNotes": [],
    "changes": [],
    "changeFlags": {
      "loseDexToAC": false,
      "noEncumbrance": false,
      "mediumArmorFullSpeed": false,
      "heavyArmorFullSpeed": false
    },
    "contextNotes": [],
    "links": {
      "children": [],
      "charges": []
    },
    "tag": "obsessive",
    "useCustomTag": false,
    "armorProf": {
      "value": [],
      "custom": ""
    },
    "weaponProf": {
      "value": [],
      "custom": ""
    },
    "languages": {
      "value": [],
      "custom": ""
    },
    "flags": {
      "boolean": {},
      "dictionary": {}
    },
    "scriptCalls": [],
    "subType": "racial",
    "associations": {
      "classes": []
    },
    "showInQuickbar": false,
    "abilityType": "none",
    "crOffset": "",
    "disabled": false,
    "classSkills": {}
  },
  "ownership": {
    "default": 0
  },
  "_stats": {
    "systemId": "pf1",
    "systemVersion": "9.1",
    "coreVersion": "10.291",
    "createdTime": 1665428383355,
    "modifiedTime": 1689797937986,
    "lastModifiedBy": "ppv91YxratjWnkJi"
  },
  "effects": [],
  "folder": null,
  "sort": 0,
  "_key": "!items!LcZE7cPw87DMzJYl"
}