{
  "_id": "2Sfr16Du1PcB739m",
  "name": "Ooze Breath",
  "type": "feat",
  "img": "systems/pf1/icons/races/undine.png",
  "system": {
    "description": {
      "value": "<p><strong>Race:</strong> Undine&nbsp;<br /><strong>Replaced Trait(s):</strong> Spell-Like Ability&nbsp;</p>\n<hr />\n<p>Some undines' outsider heritage can be traced to ooze mephits. These undines have a breath weapon that is a 5-foot cone of slime usable once per day. The slime deals 1d4 points of acid damage per two character levels (maximum 5d4) and sickens creatures in the area for 3 rounds. A successful Reflex saving throw (DC 10 + 1/2 the undine's level + the undine's Constitution modifier) halves the damage and negates the sickened effect. This racial trait replaces the spell-like ability racial trait.</p>",
      "unidentified": ""
    },
    "tags": [
      "Undine",
      "PFS"
    ],
    "actions": [],
    "uses": {
      "per": null,
      "value": 0,
      "maxFormula": "",
      "autoDeductChargesCost": "1"
    },
    "attackNotes": [],
    "effectNotes": [],
    "changes": [],
    "changeFlags": {
      "loseDexToAC": false,
      "noEncumbrance": false,
      "mediumArmorFullSpeed": false,
      "heavyArmorFullSpeed": false
    },
    "contextNotes": [],
    "links": {
      "children": [],
      "charges": []
    },
    "tag": "",
    "useCustomTag": false,
    "armorProf": {
      "value": [],
      "custom": ""
    },
    "weaponProf": {
      "value": [],
      "custom": ""
    },
    "languages": {
      "value": [],
      "custom": ""
    },
    "flags": {
      "boolean": {},
      "dictionary": {}
    },
    "scriptCalls": [],
    "subType": "racial",
    "associations": {
      "classes": []
    },
    "showInQuickbar": false,
    "abilityType": "none",
    "crOffset": "",
    "disabled": false,
    "classSkills": {}
  },
  "ownership": {
    "default": 0
  },
  "_stats": {
    "systemId": "pf1",
    "systemVersion": "9.1",
    "coreVersion": "10.291",
    "createdTime": 1665428382539,
    "modifiedTime": 1689797934433,
    "lastModifiedBy": "ppv91YxratjWnkJi"
  },
  "effects": [],
  "folder": null,
  "sort": 0,
  "flags": {},
  "_key": "!items!2Sfr16Du1PcB739m"
}