{
  "_id": "r6uTXEULWdyDTxD4",
  "name": "Outsear Merfolk",
  "type": "feat",
  "img": "systems/pf1/icons/races/undine.png",
  "system": {
    "description": {
      "value": "<p><strong>Race:</strong> Merfolk&nbsp;<br /><strong>Replaced Trait(s):</strong> Base Statistics&nbsp;</p>\n<hr />\n<p>The settlement of Outsea is a bizarre environment: a saltwater oasis for merfolk and sahuagin in the freshwater River Kingdoms. Centuries ago, a sahuagin nation from the Inner Sea mobilized a city-sized saltwater bolus for an overland assault on a merfolk state located near modern-day Korvosa. The merfolk learned of this ambitious plan and sent an elite group of soldiers in saltwater tanks to intercept the ocean-bubble. The two sides clashed in Lake Encarthan and eventually worked their way up into what is now the River Kingdoms. In this battle, many of the wizards maintaining the sahuagin's briny mobile fortress perished, and the two sides ended up stranded hundreds of miles from any ocean. Begrudgingly putting aside their grievances, the merfolk and sahuagin worked together to prevent their mutual extinction, holding back the fresh water with spells and building the settlement of Outsea to serve as a permanent home. Now Outsea is a thriving city, home to all kinds of peoples. Centuries of coexistence have worn down the merfolk and sahuagin's hatred for each other, and now they live and work together in peace. Outsear merfolk can take the unexpected ally alternate racial trait described below.</p>",
      "unidentified": ""
    },
    "tags": [
      "Merfolk",
      "PFS"
    ],
    "actions": [],
    "uses": {
      "per": null,
      "value": 0,
      "maxFormula": "",
      "autoDeductChargesCost": "1"
    },
    "attackNotes": [],
    "effectNotes": [],
    "changes": [],
    "changeFlags": {
      "loseDexToAC": false,
      "noEncumbrance": false,
      "mediumArmorFullSpeed": false,
      "heavyArmorFullSpeed": false
    },
    "contextNotes": [],
    "links": {
      "children": [],
      "charges": []
    },
    "tag": "",
    "useCustomTag": false,
    "armorProf": {
      "value": [],
      "custom": ""
    },
    "weaponProf": {
      "value": [],
      "custom": ""
    },
    "languages": {
      "value": [],
      "custom": ""
    },
    "flags": {
      "boolean": {},
      "dictionary": {}
    },
    "scriptCalls": [],
    "subType": "racial",
    "associations": {
      "classes": []
    },
    "showInQuickbar": false,
    "abilityType": "none",
    "crOffset": "",
    "disabled": false,
    "classSkills": {}
  },
  "ownership": {
    "default": 0
  },
  "_stats": {
    "systemId": "pf1",
    "systemVersion": "9.1",
    "coreVersion": "10.291",
    "createdTime": 1665428384751,
    "modifiedTime": 1689797946853,
    "lastModifiedBy": "ppv91YxratjWnkJi"
  },
  "effects": [],
  "folder": null,
  "sort": 0,
  "flags": {},
  "_key": "!items!r6uTXEULWdyDTxD4"
}