{
  "_id": "XOISvyFa8ZziUEak",
  "name": "Psychic Defense",
  "type": "feat",
  "img": "systems/pf1/icons/races/human.jpg",
  "system": {
    "description": {
      "value": "<p><strong>Race:</strong> Human&nbsp;<br /><strong>Replaced Trait(s):</strong> Bonus Feat&nbsp;</p>\n<hr />\n<p>Humans from cultures steeped in the occult sometimes train their minds to resist outside influence. They gain a +2 racial bonus on saving throws against psychic spells and spell-like abilities, including those that originate from the psychic magic ability (<i>Pathfinder RPG Bestiary 5 297</i>). This racial trait replaces the bonus feat trait.</p>",
      "unidentified": ""
    },
    "tags": [
      "Human",
      "PFS"
    ],
    "actions": [],
    "uses": {
      "per": null,
      "value": 0,
      "maxFormula": "",
      "autoDeductChargesCost": "1"
    },
    "attackNotes": [],
    "effectNotes": [],
    "changes": [],
    "changeFlags": {
      "loseDexToAC": false,
      "noEncumbrance": false,
      "mediumArmorFullSpeed": false,
      "heavyArmorFullSpeed": false
    },
    "contextNotes": [],
    "links": {
      "children": [],
      "charges": []
    },
    "tag": "",
    "useCustomTag": false,
    "armorProf": {
      "value": [],
      "custom": ""
    },
    "weaponProf": {
      "value": [],
      "custom": ""
    },
    "languages": {
      "value": [],
      "custom": ""
    },
    "flags": {
      "boolean": {},
      "dictionary": {}
    },
    "scriptCalls": [],
    "subType": "racial",
    "associations": {
      "classes": []
    },
    "showInQuickbar": false,
    "abilityType": "none",
    "crOffset": "",
    "disabled": false,
    "classSkills": {}
  },
  "ownership": {
    "default": 0
  },
  "_stats": {
    "systemId": "pf1",
    "systemVersion": "9.1",
    "coreVersion": "10.291",
    "createdTime": 1665428383851,
    "modifiedTime": 1689797940616,
    "lastModifiedBy": "ppv91YxratjWnkJi"
  },
  "effects": [],
  "folder": null,
  "sort": 0,
  "flags": {},
  "_key": "!items!XOISvyFa8ZziUEak"
}