{
  "_id": "yfJ0rhcQv12UHtau",
  "name": "Reckless Climber",
  "type": "feat",
  "img": "systems/pf1/icons/races/orc.png",
  "system": {
    "description": {
      "value": "<p><strong>Race:</strong> Orc&nbsp;<br /><strong>Replaced Trait(s):</strong> Ferocity&nbsp;</p>\n<hr />\n<p>Mountain-dwelling orcs thrive on taking insane risks to defeat foes and show up rivals. They gain a +4 racial bonus on Climb checks without rope and on Acrobatics checks to maintain balance. This racial trait replaces ferocity.</p>",
      "unidentified": ""
    },
    "tags": [
      "Orc",
      "PFS"
    ],
    "actions": [],
    "uses": {
      "per": null,
      "value": 0,
      "maxFormula": "",
      "autoDeductChargesCost": "1"
    },
    "attackNotes": [],
    "effectNotes": [],
    "changes": [],
    "changeFlags": {
      "loseDexToAC": false,
      "noEncumbrance": false,
      "mediumArmorFullSpeed": false,
      "heavyArmorFullSpeed": false
    },
    "contextNotes": [],
    "links": {
      "children": [],
      "charges": []
    },
    "tag": "",
    "useCustomTag": false,
    "armorProf": {
      "value": [],
      "custom": ""
    },
    "weaponProf": {
      "value": [],
      "custom": ""
    },
    "languages": {
      "value": [],
      "custom": ""
    },
    "flags": {
      "boolean": {},
      "dictionary": {}
    },
    "scriptCalls": [],
    "subType": "racial",
    "associations": {
      "classes": []
    },
    "showInQuickbar": false,
    "abilityType": "none",
    "crOffset": "",
    "disabled": false,
    "classSkills": {}
  },
  "ownership": {
    "default": 0
  },
  "_stats": {
    "systemId": "pf1",
    "systemVersion": "9.1",
    "coreVersion": "10.291",
    "createdTime": 1665428384913,
    "modifiedTime": 1689797949316,
    "lastModifiedBy": "ppv91YxratjWnkJi"
  },
  "effects": [],
  "folder": null,
  "sort": 0,
  "flags": {},
  "_key": "!items!yfJ0rhcQv12UHtau"
}