{
  "_id": "vlu8WjWM57RiFfSN",
  "name": "Samsaran",
  "type": "feat",
  "img": "systems/pf1/icons/feats/blinding-critical.jpg",
  "flags": {
    "scene-packer": {
      "sourceId": "Item.mmU8n0ioADO67mP1"
    }
  },
  "system": {
    "description": {
      "value": "<p><strong>Race:</strong> Samsaran&nbsp;</p>\n<hr />\n<p>Samsarans are humanoids with the samsaran subtype.</p>",
      "unidentified": ""
    },
    "tags": [
      "Samsaran"
    ],
    "actions": [],
    "uses": {
      "per": null,
      "value": 0,
      "maxFormula": "",
      "autoDeductChargesCost": "1"
    },
    "attackNotes": [],
    "effectNotes": [],
    "changes": [],
    "changeFlags": {
      "loseDexToAC": false,
      "noEncumbrance": false,
      "mediumArmorFullSpeed": false,
      "heavyArmorFullSpeed": false
    },
    "contextNotes": [],
    "links": {
      "children": [],
      "charges": []
    },
    "tag": "samsaran",
    "useCustomTag": false,
    "armorProf": {
      "value": [],
      "custom": ""
    },
    "weaponProf": {
      "value": [],
      "custom": ""
    },
    "languages": {
      "value": [],
      "custom": ""
    },
    "flags": {
      "boolean": {},
      "dictionary": {}
    },
    "scriptCalls": [],
    "subType": "racial",
    "associations": {
      "classes": []
    },
    "showInQuickbar": false,
    "abilityType": "none",
    "crOffset": "",
    "disabled": false,
    "classSkills": {}
  },
  "ownership": {
    "default": 0
  },
  "_stats": {
    "systemId": "pf1",
    "systemVersion": "9.1",
    "coreVersion": "10.291",
    "createdTime": 1665428384847,
    "modifiedTime": 1689797948924,
    "lastModifiedBy": "ppv91YxratjWnkJi"
  },
  "effects": [],
  "folder": null,
  "sort": 0,
  "_key": "!items!vlu8WjWM57RiFfSN"
}