{
  "_id": "aLTD5kME13aY9UWk",
  "name": "Scion of Shadows",
  "type": "feat",
  "img": "systems/pf1/icons/races/gnoll.png",
  "system": {
    "description": {
      "value": "<p><strong>Race:</strong> Wayang&nbsp;<br /><strong>Replaced Trait(s):</strong> Light and Dark, Shadow Resistance&nbsp;</p>\n<hr />\n<p>Some wayangs retain an uncommonly powerful connection to the Plane of Shadow. A wayang with this racial trait counts as an outsider (native) and a humanoid (wayang) for any effect related to race, including feat prerequisites and spells that affect humanoids. In addition, attacks made against such a wayang in dim light have a 50% miss chance instead of the normal 20% miss chance. This ability doesn't grant total concealment; it only increases the miss chance. This racial trait replaces light and dark and shadow resistance.</p>",
      "unidentified": ""
    },
    "tags": [
      "Wayang",
      "PFS"
    ],
    "actions": [],
    "uses": {
      "per": null,
      "value": 0,
      "maxFormula": "",
      "autoDeductChargesCost": "1"
    },
    "attackNotes": [],
    "effectNotes": [],
    "changes": [],
    "changeFlags": {
      "loseDexToAC": false,
      "noEncumbrance": false,
      "mediumArmorFullSpeed": false,
      "heavyArmorFullSpeed": false
    },
    "contextNotes": [],
    "links": {
      "children": [],
      "charges": []
    },
    "tag": "",
    "useCustomTag": false,
    "armorProf": {
      "value": [],
      "custom": ""
    },
    "weaponProf": {
      "value": [],
      "custom": ""
    },
    "languages": {
      "value": [],
      "custom": ""
    },
    "flags": {
      "boolean": {},
      "dictionary": {}
    },
    "scriptCalls": [],
    "subType": "racial",
    "associations": {
      "classes": []
    },
    "showInQuickbar": false,
    "abilityType": "none",
    "crOffset": "",
    "disabled": false,
    "classSkills": {}
  },
  "ownership": {
    "default": 0
  },
  "_stats": {
    "systemId": "pf1",
    "systemVersion": "9.1",
    "coreVersion": "10.291",
    "createdTime": 1665428383915,
    "modifiedTime": 1689797941053,
    "lastModifiedBy": "ppv91YxratjWnkJi"
  },
  "effects": [],
  "folder": null,
  "sort": 0,
  "flags": {},
  "_key": "!items!aLTD5kME13aY9UWk"
}