{
  "_id": "kNLt3RoRdXIdVbDa",
  "name": "Seasoned Spirit",
  "type": "feat",
  "img": "systems/pf1/icons/races/creature-types/plant.png",
  "system": {
    "description": {
      "value": "<p><strong>Race:</strong> Vine Leshy&nbsp;<br /><strong>Replaced Trait(s):</strong> Climber, Plantspeech, Unassuming Foliage&nbsp;</p>\n<hr />\n<p>Long-lived vine leshys are less flexible, but they have established stronger bonds with the natural world. These leshys can spend an hour in concentration to cast <%SPELLS%speak with plants%%><i>speak with plants</i><%END> as a spell-like ability with a caster level equal to their character level.<br /><br /> This alters plantspeech and replaces climber and unassuming foliage.</p>",
      "unidentified": ""
    },
    "tags": [
      "Vine Leshy",
      "PFS"
    ],
    "actions": [],
    "uses": {
      "per": null,
      "value": 0,
      "maxFormula": "",
      "autoDeductChargesCost": "1"
    },
    "attackNotes": [],
    "effectNotes": [],
    "changes": [],
    "changeFlags": {
      "loseDexToAC": false,
      "noEncumbrance": false,
      "mediumArmorFullSpeed": false,
      "heavyArmorFullSpeed": false
    },
    "contextNotes": [],
    "links": {
      "children": [],
      "charges": []
    },
    "tag": "",
    "useCustomTag": false,
    "armorProf": {
      "value": [],
      "custom": ""
    },
    "weaponProf": {
      "value": [],
      "custom": ""
    },
    "languages": {
      "value": [],
      "custom": ""
    },
    "flags": {
      "boolean": {},
      "dictionary": {}
    },
    "scriptCalls": [],
    "subType": "racial",
    "associations": {
      "classes": []
    },
    "showInQuickbar": false,
    "abilityType": "none",
    "crOffset": "",
    "disabled": false,
    "classSkills": {}
  },
  "ownership": {
    "default": 0
  },
  "_stats": {
    "systemId": "pf1",
    "systemVersion": "9.1",
    "coreVersion": "10.291",
    "createdTime": 1665428384368,
    "modifiedTime": 1689797944276,
    "lastModifiedBy": "ppv91YxratjWnkJi"
  },
  "effects": [],
  "folder": null,
  "sort": 0,
  "flags": {},
  "_key": "!items!kNLt3RoRdXIdVbDa"
}