{
  "_id": "J65XMmSdfKBUu43b",
  "name": "Seasinger",
  "type": "feat",
  "img": "systems/pf1/icons/races/undine.png",
  "system": {
    "description": {
      "value": "<p><strong>Race:</strong> Merfolk&nbsp;<br /><strong>Replaced Trait(s):</strong> Low-Light Vision&nbsp;</p>\n<hr />\n<p>The beautiful voices of the merfolk are legendary. A seasinger gains a +2 racial bonus on Perform (sing) checks and a +1 racial bonus to the save DC of language-dependent spells. This racial trait replaces low-light vision.</p>",
      "unidentified": ""
    },
    "tags": [
      "Merfolk",
      "PFS"
    ],
    "actions": [],
    "uses": {
      "per": null,
      "value": 0,
      "maxFormula": "",
      "autoDeductChargesCost": "1"
    },
    "attackNotes": [],
    "effectNotes": [],
    "changes": [],
    "changeFlags": {
      "loseDexToAC": false,
      "noEncumbrance": false,
      "mediumArmorFullSpeed": false,
      "heavyArmorFullSpeed": false
    },
    "contextNotes": [],
    "links": {
      "children": [],
      "charges": []
    },
    "tag": "",
    "useCustomTag": false,
    "armorProf": {
      "value": [],
      "custom": ""
    },
    "weaponProf": {
      "value": [],
      "custom": ""
    },
    "languages": {
      "value": [],
      "custom": ""
    },
    "flags": {
      "boolean": {},
      "dictionary": {}
    },
    "scriptCalls": [],
    "subType": "racial",
    "associations": {
      "classes": []
    },
    "showInQuickbar": false,
    "abilityType": "none",
    "crOffset": "",
    "disabled": false,
    "classSkills": {}
  },
  "ownership": {
    "default": 0
  },
  "_stats": {
    "systemId": "pf1",
    "systemVersion": "9.1",
    "coreVersion": "10.291",
    "createdTime": 1665428383312,
    "modifiedTime": 1689797937724,
    "lastModifiedBy": "ppv91YxratjWnkJi"
  },
  "effects": [],
  "folder": null,
  "sort": 0,
  "flags": {},
  "_key": "!items!J65XMmSdfKBUu43b"
}