{
  "_id": "CPsAbeWBokaEiZly",
  "name": "Secret Strider",
  "type": "feat",
  "img": "systems/pf1/icons/races/kobold.png",
  "system": {
    "description": {
      "value": "<p><strong>Race:</strong> Kobold&nbsp;<br /><strong>Replaced Trait(s):</strong> Crafty&nbsp;</p>\n<hr />\n<p>You have the ability to traverse the  wilderness without a trace. Twice per day, you can move  through natural surroundings without leaving a trail for  1 minute, increasing the DC of any attempts to track you  by 10. This racial trait replaces crafty.</p>",
      "unidentified": ""
    },
    "tags": [
      "Kobold"
    ],
    "actions": [],
    "uses": {
      "per": null,
      "value": 0,
      "maxFormula": "",
      "autoDeductChargesCost": "1"
    },
    "attackNotes": [],
    "effectNotes": [],
    "changes": [],
    "changeFlags": {
      "loseDexToAC": false,
      "noEncumbrance": false,
      "mediumArmorFullSpeed": false,
      "heavyArmorFullSpeed": false
    },
    "contextNotes": [],
    "links": {
      "children": [],
      "charges": []
    },
    "tag": "",
    "useCustomTag": false,
    "armorProf": {
      "value": [],
      "custom": ""
    },
    "weaponProf": {
      "value": [],
      "custom": ""
    },
    "languages": {
      "value": [],
      "custom": ""
    },
    "flags": {
      "boolean": {},
      "dictionary": {}
    },
    "scriptCalls": [],
    "subType": "racial",
    "associations": {
      "classes": []
    },
    "showInQuickbar": false,
    "abilityType": "none",
    "crOffset": "",
    "disabled": false,
    "classSkills": {}
  },
  "ownership": {
    "default": 0
  },
  "_stats": {
    "systemId": "pf1",
    "systemVersion": "9.1",
    "coreVersion": "10.291",
    "createdTime": 1665428382743,
    "modifiedTime": 1689797935568,
    "lastModifiedBy": "ppv91YxratjWnkJi"
  },
  "effects": [],
  "folder": null,
  "sort": 0,
  "flags": {},
  "_key": "!items!CPsAbeWBokaEiZly"
}