{
  "_id": "23HcNMKrQH3EnOQS",
  "name": "Seducer",
  "type": "feat",
  "img": "systems/pf1/icons/races/drow.png",
  "system": {
    "description": {
      "value": "<p><strong>Race:</strong> Drow&nbsp;<br /><strong>Replaced Trait(s):</strong> Drow Immunities&nbsp;</p>\n<hr />\n<p>Certain drow possess an innate understanding of the darkest desires that lurk in every heart. Drow with this racial trait add +1 to the saving throw DCs for spells and spell-like abilities of the enchantment school. In addition, drow with a Wisdom score of 15 or higher may use <i>charm person </i>once per day as a spell-like ability (caster level equal to the drow's character level). This racial trait replaces drow immunities.</p>",
      "unidentified": ""
    },
    "tags": [
      "Drow"
    ],
    "actions": [],
    "uses": {
      "per": null,
      "value": 0,
      "maxFormula": "",
      "autoDeductChargesCost": "1"
    },
    "attackNotes": [],
    "effectNotes": [],
    "changes": [],
    "changeFlags": {
      "loseDexToAC": false,
      "noEncumbrance": false,
      "mediumArmorFullSpeed": false,
      "heavyArmorFullSpeed": false
    },
    "contextNotes": [],
    "links": {
      "children": [],
      "charges": []
    },
    "tag": "",
    "useCustomTag": false,
    "armorProf": {
      "value": [],
      "custom": ""
    },
    "weaponProf": {
      "value": [],
      "custom": ""
    },
    "languages": {
      "value": [],
      "custom": ""
    },
    "flags": {
      "boolean": {},
      "dictionary": {}
    },
    "scriptCalls": [],
    "subType": "racial",
    "associations": {
      "classes": []
    },
    "showInQuickbar": false,
    "abilityType": "none",
    "crOffset": "",
    "disabled": false,
    "classSkills": {}
  },
  "ownership": {
    "default": 0
  },
  "_stats": {
    "systemId": "pf1",
    "systemVersion": "9.1",
    "coreVersion": "10.291",
    "createdTime": 1665428382527,
    "modifiedTime": 1689797934367,
    "lastModifiedBy": "ppv91YxratjWnkJi"
  },
  "effects": [],
  "folder": null,
  "sort": 0,
  "flags": {},
  "_key": "!items!23HcNMKrQH3EnOQS"
}