{
  "_id": "H8rQtfSQ6Ws9EicL",
  "name": "Sexual Dimorphism",
  "type": "feat",
  "img": "systems/pf1/icons/spells/air-burst-magenta-1.jpg",
  "flags": {
    "scene-packer": {
      "sourceId": "Item.JuMMfFJd8p5tj47X"
    }
  },
  "system": {
    "description": {
      "value": "<p><strong>Race:</strong> Lashunta&nbsp;</p>\n<hr />\n<p>Male and female lashunta have very different body and personality types, more so than most humanoid species. Male lashunta are muscular (+2 Strength) and often brash and unobservant (-2 Wisdom). Female lashunta, though beautiful and commanding (+2 Charisma), lack the males' rugged builds (-2 Constitution).</p>",
      "unidentified": ""
    },
    "tags": [
      "Lashunta"
    ],
    "actions": [],
    "uses": {
      "per": null,
      "value": 0,
      "maxFormula": "",
      "autoDeductChargesCost": "1"
    },
    "attackNotes": [],
    "effectNotes": [],
    "changes": [],
    "changeFlags": {
      "loseDexToAC": false,
      "noEncumbrance": false,
      "mediumArmorFullSpeed": false,
      "heavyArmorFullSpeed": false
    },
    "contextNotes": [],
    "links": {
      "children": [],
      "charges": []
    },
    "tag": "sexualDimorphism",
    "useCustomTag": false,
    "armorProf": {
      "value": [],
      "custom": ""
    },
    "weaponProf": {
      "value": [],
      "custom": ""
    },
    "languages": {
      "value": [],
      "custom": ""
    },
    "flags": {
      "boolean": {},
      "dictionary": {}
    },
    "scriptCalls": [],
    "subType": "racial",
    "associations": {
      "classes": []
    },
    "showInQuickbar": false,
    "abilityType": "none",
    "crOffset": "",
    "disabled": false,
    "classSkills": {}
  },
  "ownership": {
    "default": 0
  },
  "_stats": {
    "systemId": "pf1",
    "systemVersion": "9.1",
    "coreVersion": "10.291",
    "createdTime": 1665428383252,
    "modifiedTime": 1689797937396,
    "lastModifiedBy": "ppv91YxratjWnkJi"
  },
  "effects": [],
  "folder": null,
  "sort": 0,
  "_key": "!items!H8rQtfSQ6Ws9EicL"
}