{
  "_id": "NQsZRny6Ed9oGDDP",
  "name": "Shadow Inheritor (Su)",
  "type": "feat",
  "img": "systems/pf1/icons/races/gnoll.png",
  "system": {
    "description": {
      "value": "<p><strong>Race:</strong> Wayang&nbsp;<br /><strong>Replaced Trait(s):</strong> Shadow Magic&nbsp;</p>\n<hr />\n<p>Wayangs with exceptional ties to their shadowy heritage have great skill at manipulating shadows. A wayang with this trait treats his caster level as being 1 higher for all level-based calculations of illusion spells he casts with the darkness or shadow<sup>UM</sup> descriptor, powers of the Darkness domain, bloodline powers of the shadow<sup>APG</sup> bloodline, and revelations of the oracle's shadow mystery (see page 12). This trait doesn't give wayangs early access to level-based powers; it affects their effective level only for powers they could already use without this trait. This racial trait replaces shadow magic.</p>",
      "unidentified": ""
    },
    "tags": [
      "Wayang",
      "PFS"
    ],
    "actions": [],
    "uses": {
      "per": null,
      "value": 0,
      "maxFormula": "",
      "autoDeductChargesCost": "1"
    },
    "attackNotes": [],
    "effectNotes": [],
    "changes": [],
    "changeFlags": {
      "loseDexToAC": false,
      "noEncumbrance": false,
      "mediumArmorFullSpeed": false,
      "heavyArmorFullSpeed": false
    },
    "contextNotes": [],
    "links": {
      "children": [],
      "charges": []
    },
    "tag": "",
    "useCustomTag": false,
    "armorProf": {
      "value": [],
      "custom": ""
    },
    "weaponProf": {
      "value": [],
      "custom": ""
    },
    "languages": {
      "value": [],
      "custom": ""
    },
    "flags": {
      "boolean": {},
      "dictionary": {}
    },
    "scriptCalls": [],
    "subType": "racial",
    "associations": {
      "classes": []
    },
    "showInQuickbar": false,
    "abilityType": "none",
    "crOffset": "",
    "disabled": false,
    "classSkills": {}
  },
  "ownership": {
    "default": 0
  },
  "_stats": {
    "systemId": "pf1",
    "systemVersion": "9.1",
    "coreVersion": "10.291",
    "createdTime": 1665428383390,
    "modifiedTime": 1689797938207,
    "lastModifiedBy": "ppv91YxratjWnkJi"
  },
  "effects": [],
  "folder": null,
  "sort": 0,
  "flags": {},
  "_key": "!items!NQsZRny6Ed9oGDDP"
}