{
  "_id": "A25WUoiogbprnnzS",
  "name": "Shadowhunter",
  "type": "feat",
  "img": "systems/pf1/icons/races/elf.png",
  "system": {
    "description": {
      "value": "<p><strong>Race:</strong> Elf&nbsp;<br /><strong>Replaced Trait(s):</strong> Weapon Familiarity&nbsp;</p>\n<hr />\n<p>Those who understand the connection between shadows and the Negative Energy Plane know how to fight the spirits of darkness. Characters with this trait deal 50% weapon damage to incorporeal creatures when using nonmagical weapons (including natural and unarmed attacks), as if using magic weapons. They also gain a +2 bonus on saving throws to remove negative levels, and recover physical ability damage from attacks by undead creatures at a rate of 2 points per ability score per day (rather than the normal 1 point per ability score per day).<br /><br /> Dwarves, elves, gnomes, half-orcs, and halflings can take this trait in place of weapon familiarity. Half-elves can take this trait in place of elven immunities. Humans can take this trait in place of their bonus feat, also gaining Iron Will as a bonus feat.</p>",
      "unidentified": ""
    },
    "tags": [
      "Elf"
    ],
    "actions": [],
    "uses": {
      "per": null,
      "value": 0,
      "maxFormula": "",
      "autoDeductChargesCost": "1"
    },
    "attackNotes": [],
    "effectNotes": [],
    "changes": [],
    "changeFlags": {
      "loseDexToAC": false,
      "noEncumbrance": false,
      "mediumArmorFullSpeed": false,
      "heavyArmorFullSpeed": false
    },
    "contextNotes": [],
    "links": {
      "children": [],
      "charges": []
    },
    "tag": "",
    "useCustomTag": false,
    "armorProf": {
      "value": [],
      "custom": ""
    },
    "weaponProf": {
      "value": [],
      "custom": ""
    },
    "languages": {
      "value": [],
      "custom": ""
    },
    "flags": {
      "boolean": {},
      "dictionary": {}
    },
    "scriptCalls": [],
    "subType": "racial",
    "associations": {
      "classes": []
    },
    "showInQuickbar": false,
    "abilityType": "none",
    "crOffset": "",
    "disabled": false,
    "classSkills": {}
  },
  "ownership": {
    "default": 0
  },
  "_stats": {
    "systemId": "pf1",
    "systemVersion": "9.1",
    "coreVersion": "10.291",
    "createdTime": 1665428382688,
    "modifiedTime": 1689797935277,
    "lastModifiedBy": "ppv91YxratjWnkJi"
  },
  "effects": [],
  "folder": null,
  "sort": 0,
  "flags": {},
  "_key": "!items!A25WUoiogbprnnzS"
}