{
  "_id": "8SYQX3mBlIw2yMrU",
  "name": "Shards of the Past",
  "type": "feat",
  "img": "systems/pf1/icons/feats/blinding-critical.jpg",
  "flags": {
    "scene-packer": {
      "sourceId": "Item.cKh674dQlE4TIBkz"
    }
  },
  "system": {
    "description": {
      "value": "<p><strong>Race:</strong> Samsaran&nbsp;</p>\n<hr />\n<p>A samsaran's past lives grant her bonuses on two skills. The samsaran chooses two skills-she gains a +2 racial bonus on both, and they are always class skills for her. Once made, this choice can't be altered.</p>",
      "unidentified": ""
    },
    "tags": [
      "Samsaran"
    ],
    "actions": [],
    "uses": {
      "per": null,
      "value": 0,
      "maxFormula": "",
      "autoDeductChargesCost": "1"
    },
    "attackNotes": [],
    "effectNotes": [],
    "changes": [],
    "changeFlags": {
      "loseDexToAC": false,
      "noEncumbrance": false,
      "mediumArmorFullSpeed": false,
      "heavyArmorFullSpeed": false
    },
    "contextNotes": [],
    "links": {
      "children": [],
      "charges": []
    },
    "tag": "shardsOfThePast",
    "useCustomTag": false,
    "armorProf": {
      "value": [],
      "custom": ""
    },
    "weaponProf": {
      "value": [],
      "custom": ""
    },
    "languages": {
      "value": [],
      "custom": ""
    },
    "flags": {
      "boolean": {},
      "dictionary": {}
    },
    "scriptCalls": [],
    "subType": "racial",
    "associations": {
      "classes": []
    },
    "showInQuickbar": false,
    "abilityType": "none",
    "crOffset": "",
    "disabled": false,
    "classSkills": {}
  },
  "ownership": {
    "default": 0
  },
  "_stats": {
    "systemId": "pf1",
    "systemVersion": "9.1",
    "coreVersion": "10.291",
    "createdTime": 1665428382658,
    "modifiedTime": 1689797935127,
    "lastModifiedBy": "ppv91YxratjWnkJi"
  },
  "effects": [],
  "folder": null,
  "sort": 0,
  "_key": "!items!8SYQX3mBlIw2yMrU"
}