{
  "_id": "3PzAYj5qRX4uJs3O",
  "name": "Share Knowledge",
  "type": "feat",
  "img": "systems/pf1/icons/races/aphorite.png",
  "system": {
    "description": {
      "value": "<p><strong>Race:</strong> Aphorite&nbsp;<br /><strong>Replaced Trait(s):</strong> Aphorite Resistances&nbsp;</p>\n<hr />\n<p>Certain aphorites have a sliver of their creators' ability to combine their collective intellect and solve problems they could not solve on their own. When an aphorite with this racial trait successfully uses the aid another action to aid a character on a Knowledge check the aphorite is trained in, the character receives a +4 bonus instead of the normal +2 bonus. As a result of this increased openness, aphorites with this racial trait don't receive a +2 bonus on saves against mind-affecting effects. This racial trait modifies aphorite resistances.</p>",
      "unidentified": ""
    },
    "tags": [
      "Aphorite",
      "PFS"
    ],
    "actions": [],
    "uses": {
      "per": null,
      "value": 0,
      "maxFormula": "",
      "autoDeductChargesCost": "1"
    },
    "attackNotes": [],
    "effectNotes": [],
    "changes": [],
    "changeFlags": {
      "loseDexToAC": false,
      "noEncumbrance": false,
      "mediumArmorFullSpeed": false,
      "heavyArmorFullSpeed": false
    },
    "contextNotes": [],
    "links": {
      "children": [],
      "charges": []
    },
    "tag": "",
    "useCustomTag": false,
    "armorProf": {
      "value": [],
      "custom": ""
    },
    "weaponProf": {
      "value": [],
      "custom": ""
    },
    "languages": {
      "value": [],
      "custom": ""
    },
    "flags": {
      "boolean": {},
      "dictionary": {}
    },
    "scriptCalls": [],
    "subType": "racial",
    "associations": {
      "classes": []
    },
    "showInQuickbar": false,
    "abilityType": "none",
    "crOffset": "",
    "disabled": false,
    "classSkills": {}
  },
  "ownership": {
    "default": 0
  },
  "_stats": {
    "systemId": "pf1",
    "systemVersion": "9.1",
    "coreVersion": "10.291",
    "createdTime": 1665428382563,
    "modifiedTime": 1689797934567,
    "lastModifiedBy": "ppv91YxratjWnkJi"
  },
  "effects": [],
  "folder": null,
  "sort": 0,
  "flags": {},
  "_key": "!items!3PzAYj5qRX4uJs3O"
}