{
  "_id": "SiZwOvv9Vz2OluRK",
  "name": "Skilled (Aasimar)",
  "type": "feat",
  "img": "icons/commodities/biological/wing-bird-white.webp",
  "flags": {
    "scene-packer": {
      "sourceId": "Item.886rtSTX5Rd4gqSn"
    }
  },
  "system": {
    "description": {
      "value": "<p><strong>Race:</strong> Aasimar&nbsp;</p>\n<hr />\n<p>Aasimars have a +2 racial bonus on Diplomacy and Perception checks. Aasimars of specific bloodlines (see below) gain a +2 bonus on different skill checks as indicated.</p>",
      "unidentified": ""
    },
    "tags": [
      "Aasimar"
    ],
    "actions": [],
    "uses": {
      "per": null,
      "value": 0,
      "maxFormula": "",
      "autoDeductChargesCost": "1"
    },
    "attackNotes": [],
    "effectNotes": [],
    "changes": [],
    "changeFlags": {
      "loseDexToAC": false,
      "noEncumbrance": false,
      "mediumArmorFullSpeed": false,
      "heavyArmorFullSpeed": false
    },
    "contextNotes": [],
    "links": {
      "children": [],
      "charges": []
    },
    "tag": "skilledAasimar",
    "useCustomTag": false,
    "armorProf": {
      "value": [],
      "custom": ""
    },
    "weaponProf": {
      "value": [],
      "custom": ""
    },
    "languages": {
      "value": [],
      "custom": ""
    },
    "flags": {
      "boolean": {},
      "dictionary": {}
    },
    "scriptCalls": [],
    "subType": "racial",
    "associations": {
      "classes": []
    },
    "showInQuickbar": false,
    "abilityType": "none",
    "crOffset": "",
    "disabled": false,
    "classSkills": {}
  },
  "ownership": {
    "default": 0
  },
  "_stats": {
    "systemId": "pf1",
    "systemVersion": "9.1",
    "coreVersion": "10.291",
    "createdTime": 1665428383757,
    "modifiedTime": 1689797939988,
    "lastModifiedBy": "ppv91YxratjWnkJi"
  },
  "effects": [],
  "folder": null,
  "sort": 0,
  "_key": "!items!SiZwOvv9Vz2OluRK"
}