{
  "_id": "3XixtpyBV5vwGgKd",
  "name": "Sociable",
  "type": "feat",
  "img": "systems/pf1/icons/races/half-elf.png",
  "system": {
    "description": {
      "value": "<p><strong>Race:</strong> Half-Elf&nbsp;<br /><strong>Replaced Trait(s):</strong> Adaptability&nbsp;</p>\n<hr />\n<p>Half-elves are skilled at charming others and recovering from faux pas. If half-elves with this racial trait attempt to change a creature's attitude with a Diplomacy check and fail by 5 or more, they can try to influence the creature a second time even if 24 hours have not passed. This racial trait replaces the adaptability racial trait.</p>",
      "unidentified": ""
    },
    "tags": [
      "Half-Elf",
      "PFS"
    ],
    "actions": [],
    "uses": {
      "per": null,
      "value": 0,
      "maxFormula": "",
      "autoDeductChargesCost": "1"
    },
    "attackNotes": [],
    "effectNotes": [],
    "changes": [],
    "changeFlags": {
      "loseDexToAC": false,
      "noEncumbrance": false,
      "mediumArmorFullSpeed": false,
      "heavyArmorFullSpeed": false
    },
    "contextNotes": [],
    "links": {
      "children": [],
      "charges": []
    },
    "tag": "",
    "useCustomTag": false,
    "armorProf": {
      "value": [],
      "custom": ""
    },
    "weaponProf": {
      "value": [],
      "custom": ""
    },
    "languages": {
      "value": [],
      "custom": ""
    },
    "flags": {
      "boolean": {},
      "dictionary": {}
    },
    "scriptCalls": [],
    "subType": "racial",
    "associations": {
      "classes": []
    },
    "showInQuickbar": false,
    "abilityType": "none",
    "crOffset": "",
    "disabled": false,
    "classSkills": {}
  },
  "ownership": {
    "default": 0
  },
  "_stats": {
    "systemId": "pf1",
    "systemVersion": "9.1",
    "coreVersion": "10.291",
    "createdTime": 1665428382566,
    "modifiedTime": 1689797934583,
    "lastModifiedBy": "ppv91YxratjWnkJi"
  },
  "effects": [],
  "folder": null,
  "sort": 0,
  "flags": {},
  "_key": "!items!3XixtpyBV5vwGgKd"
}