{
  "_id": "stlt6dR5tNALAMbS",
  "name": "Spell-Like Ability (Triton)",
  "type": "feat",
  "img": "systems/pf1/icons/items/weapons/trident.PNG",
  "flags": {
    "scene-packer": {
      "sourceId": "Item.KQsRHnrNbAiwdBDE"
    }
  },
  "system": {
    "description": {
      "value": "<p><strong>Race:</strong> Triton&nbsp;</p>\n<hr />\n<p>Tritons can cast <em>summon nature's ally II</em> once per day to summon either a Small water elemental or 1d3 dolphins only.</p>",
      "unidentified": ""
    },
    "tags": [
      "Triton"
    ],
    "actions": [],
    "uses": {
      "per": null,
      "value": 0,
      "maxFormula": "",
      "autoDeductChargesCost": "1"
    },
    "attackNotes": [],
    "effectNotes": [],
    "changes": [],
    "changeFlags": {
      "loseDexToAC": false,
      "noEncumbrance": false,
      "mediumArmorFullSpeed": false,
      "heavyArmorFullSpeed": false
    },
    "contextNotes": [],
    "links": {
      "children": [],
      "charges": []
    },
    "tag": "spelllikeAbilityTriton",
    "useCustomTag": false,
    "armorProf": {
      "value": [],
      "custom": ""
    },
    "weaponProf": {
      "value": [],
      "custom": ""
    },
    "languages": {
      "value": [],
      "custom": ""
    },
    "flags": {
      "boolean": {},
      "dictionary": {}
    },
    "scriptCalls": [],
    "subType": "racial",
    "associations": {
      "classes": []
    },
    "showInQuickbar": false,
    "abilityType": "none",
    "crOffset": "",
    "disabled": false,
    "classSkills": {}
  },
  "ownership": {
    "default": 0
  },
  "_stats": {
    "systemId": "pf1",
    "systemVersion": "9.1",
    "coreVersion": "10.291",
    "createdTime": 1665428384789,
    "modifiedTime": 1689797948523,
    "lastModifiedBy": "ppv91YxratjWnkJi"
  },
  "effects": [],
  "folder": null,
  "sort": 0,
  "_key": "!items!stlt6dR5tNALAMbS"
}