{
  "_id": "hV2bbHMgni1OCXAg",
  "name": "Spell-Like Ability (Undine)",
  "type": "feat",
  "img": "systems/pf1/icons/races/undine.png",
  "flags": {
    "scene-packer": {
      "sourceId": "Item.0Ir39rmjkWpe4qkB"
    }
  },
  "system": {
    "description": {
      "value": "<p><strong>Race:</strong> Undine&nbsp;</p>\n<hr />\n<p>Undines can cast <em>hydraulic push</em> once per day as a spell-like ability (with a caster level equal to the undine's character level).</p>",
      "unidentified": ""
    },
    "tags": [
      "Undine"
    ],
    "actions": [],
    "uses": {
      "per": null,
      "value": 0,
      "maxFormula": "",
      "autoDeductChargesCost": "1"
    },
    "attackNotes": [],
    "effectNotes": [],
    "changes": [],
    "changeFlags": {
      "loseDexToAC": false,
      "noEncumbrance": false,
      "mediumArmorFullSpeed": false,
      "heavyArmorFullSpeed": false
    },
    "contextNotes": [],
    "links": {
      "children": [],
      "charges": []
    },
    "tag": "spelllikeAbilityUndine",
    "useCustomTag": false,
    "armorProf": {
      "value": [],
      "custom": ""
    },
    "weaponProf": {
      "value": [],
      "custom": ""
    },
    "languages": {
      "value": [],
      "custom": ""
    },
    "flags": {
      "boolean": {},
      "dictionary": {}
    },
    "scriptCalls": [],
    "subType": "racial",
    "associations": {
      "classes": []
    },
    "showInQuickbar": false,
    "abilityType": "none",
    "crOffset": "",
    "disabled": false,
    "classSkills": {}
  },
  "ownership": {
    "default": 0
  },
  "_stats": {
    "systemId": "pf1",
    "systemVersion": "9.1",
    "coreVersion": "10.291",
    "createdTime": 1665428384318,
    "modifiedTime": 1689797943721,
    "lastModifiedBy": "ppv91YxratjWnkJi"
  },
  "effects": [],
  "folder": null,
  "sort": 0,
  "_key": "!items!hV2bbHMgni1OCXAg"
}