{
  "_id": "OhtzsoHplJO2iqs7",
  "name": "Spiresworn Elves",
  "type": "feat",
  "img": "systems/pf1/icons/races/elf.png",
  "system": {
    "description": {
      "value": "<p><strong>Race:</strong> Elf&nbsp;<br /><strong>Replaced Trait(s):</strong> Base Statistics&nbsp;</p>\n<hr />\n<p>The Mordant Spire's elves, with their eerie masks and off-putting mannerisms, are a mystery to most Avistani. These elves have sworn to prevent exploration of Azlant in order to preserve and isolate the remnants of the Azlanti culture and protect Golarion from another Earthfall. The reclusive Spiresworn use enchantment and water magic to dissuade explorers; they resort to violent or deadly means only with utmost reluctance. In recent years, some younger Spiresworn have begun to question their isolationist traditions. While their commitment to protecting Azlant remains firm, a growing segment of Spiresworn believe that there is much to gain from interaction with the wider world. These elves sometimes leave the Spire to seek knowledge and experience.<br /><br /> Spiresworn frequently have the keeper of secrets alternate racial trait, as well as the crossbow training, natural swimmer, and tongue of the sea alternate racial traits; some also have the moonkissed alternate racial trait described below.</p>",
      "unidentified": ""
    },
    "tags": [
      "Elf",
      "PFS"
    ],
    "actions": [],
    "uses": {
      "per": null,
      "value": 0,
      "maxFormula": "",
      "autoDeductChargesCost": "1"
    },
    "attackNotes": [],
    "effectNotes": [],
    "changes": [],
    "changeFlags": {
      "loseDexToAC": false,
      "noEncumbrance": false,
      "mediumArmorFullSpeed": false,
      "heavyArmorFullSpeed": false
    },
    "contextNotes": [],
    "links": {
      "children": [],
      "charges": []
    },
    "tag": "",
    "useCustomTag": false,
    "armorProf": {
      "value": [],
      "custom": ""
    },
    "weaponProf": {
      "value": [],
      "custom": ""
    },
    "languages": {
      "value": [],
      "custom": ""
    },
    "flags": {
      "boolean": {},
      "dictionary": {}
    },
    "scriptCalls": [],
    "subType": "racial",
    "associations": {
      "classes": []
    },
    "showInQuickbar": false,
    "abilityType": "none",
    "crOffset": "",
    "disabled": false,
    "classSkills": {}
  },
  "ownership": {
    "default": 0
  },
  "_stats": {
    "systemId": "pf1",
    "systemVersion": "9.1",
    "coreVersion": "10.291",
    "createdTime": 1665428383416,
    "modifiedTime": 1689797938374,
    "lastModifiedBy": "ppv91YxratjWnkJi"
  },
  "effects": [],
  "folder": null,
  "sort": 0,
  "flags": {},
  "_key": "!items!OhtzsoHplJO2iqs7"
}