{
  "_id": "ZDYzHXisxHABCWza",
  "name": "Stoic Defender",
  "type": "feat",
  "img": "systems/pf1/icons/races/vishkanya.png",
  "system": {
    "description": {
      "value": "<p><strong>Race:</strong> Sahuagin&nbsp;<br /><strong>Replaced Trait(s):</strong> Blood Frenzy&nbsp;</p>\n<hr />\n<p>Outsear sahuagin have learned to control their aggression, standing as reliable guards of the city they are proud to call home. Once per day when a sahuagin with this racial trait takes damage, he can focus on remaining steadfast for the good of Outsea. For 1 minute, the sahuagin gains a +2 racial bonus to AC and a +2 racial bonus on Will saves.<br /><br /> This replaces blood frenzy.</p>",
      "unidentified": ""
    },
    "tags": [
      "Sahuagin"
    ],
    "actions": [],
    "uses": {
      "per": null,
      "value": 0,
      "maxFormula": "",
      "autoDeductChargesCost": "1"
    },
    "attackNotes": [],
    "effectNotes": [],
    "changes": [],
    "changeFlags": {
      "loseDexToAC": false,
      "noEncumbrance": false,
      "mediumArmorFullSpeed": false,
      "heavyArmorFullSpeed": false
    },
    "contextNotes": [],
    "links": {
      "children": [],
      "charges": []
    },
    "tag": "",
    "useCustomTag": false,
    "armorProf": {
      "value": [],
      "custom": ""
    },
    "weaponProf": {
      "value": [],
      "custom": ""
    },
    "languages": {
      "value": [],
      "custom": ""
    },
    "flags": {
      "boolean": {},
      "dictionary": {}
    },
    "scriptCalls": [],
    "subType": "racial",
    "associations": {
      "classes": []
    },
    "showInQuickbar": false,
    "abilityType": "none",
    "crOffset": "",
    "disabled": false,
    "classSkills": {}
  },
  "ownership": {
    "default": 0
  },
  "_stats": {
    "systemId": "pf1",
    "systemVersion": "9.1",
    "coreVersion": "10.291",
    "createdTime": 1665428383890,
    "modifiedTime": 1689797940890,
    "lastModifiedBy": "ppv91YxratjWnkJi"
  },
  "effects": [],
  "folder": null,
  "sort": 0,
  "flags": {},
  "_key": "!items!ZDYzHXisxHABCWza"
}