{
  "_id": "WvOUUxWA9WOyYUGc",
  "name": "Stone in the Blood",
  "type": "feat",
  "img": "systems/pf1/icons/races/oread.png",
  "system": {
    "description": {
      "value": "<p><strong>Race:</strong> Oread&nbsp;<br /><strong>Replaced Trait(s):</strong> Earth Affinity&nbsp;</p>\n<hr />\n<p>Oreads with this racial trait mimic the healing abilities of the mephits, gaining fast healing 2 for 1 round anytime they are subject to acid damage (the acid damage does not need to overcome the oread's resistances or immunities to activate this ability). The oread can heal up to 2 hit points per level per day with this ability, after which it ceases to function. This racial trait replaces earth affinity.</p>",
      "unidentified": ""
    },
    "tags": [
      "Oread",
      "PFS"
    ],
    "actions": [],
    "uses": {
      "per": null,
      "value": 0,
      "maxFormula": "",
      "autoDeductChargesCost": "1"
    },
    "attackNotes": [],
    "effectNotes": [],
    "changes": [],
    "changeFlags": {
      "loseDexToAC": false,
      "noEncumbrance": false,
      "mediumArmorFullSpeed": false,
      "heavyArmorFullSpeed": false
    },
    "contextNotes": [],
    "links": {
      "children": [],
      "charges": []
    },
    "tag": "",
    "useCustomTag": false,
    "armorProf": {
      "value": [],
      "custom": ""
    },
    "weaponProf": {
      "value": [],
      "custom": ""
    },
    "languages": {
      "value": [],
      "custom": ""
    },
    "flags": {
      "boolean": {},
      "dictionary": {}
    },
    "scriptCalls": [],
    "subType": "racial",
    "associations": {
      "classes": []
    },
    "showInQuickbar": false,
    "abilityType": "none",
    "crOffset": "",
    "disabled": false,
    "classSkills": {}
  },
  "ownership": {
    "default": 0
  },
  "_stats": {
    "systemId": "pf1",
    "systemVersion": "9.1",
    "coreVersion": "10.291",
    "createdTime": 1665428383840,
    "modifiedTime": 1689797940547,
    "lastModifiedBy": "ppv91YxratjWnkJi"
  },
  "effects": [],
  "folder": null,
  "sort": 0,
  "flags": {},
  "_key": "!items!WvOUUxWA9WOyYUGc"
}