{
  "_id": "H0DVYfdF81BZBzGL",
  "name": "Surreptitious",
  "type": "feat",
  "img": "systems/pf1/icons/races/halfling.png",
  "system": {
    "description": {
      "value": "<p><strong>Race:</strong> Halfling&nbsp;<br /><strong>Replaced Trait(s):</strong> Sure-Footed&nbsp;</p>\n<hr />\n<p>Halflings skilled in eavesdropping on suspicious visitors are highly prized in human courts. These halflings are skilled at maintaining innocuous disguises and vanishing before being confronted. Halflings with this trait gain a +2 racial bonus on Disguise and Stealth checks. This racial trait replaces sure-footed.</p>",
      "unidentified": ""
    },
    "tags": [
      "Halfling",
      "PFS"
    ],
    "actions": [],
    "uses": {
      "per": null,
      "value": 0,
      "maxFormula": "",
      "autoDeductChargesCost": "1"
    },
    "attackNotes": [],
    "effectNotes": [],
    "changes": [],
    "changeFlags": {
      "loseDexToAC": false,
      "noEncumbrance": false,
      "mediumArmorFullSpeed": false,
      "heavyArmorFullSpeed": false
    },
    "contextNotes": [],
    "links": {
      "children": [],
      "charges": []
    },
    "tag": "",
    "useCustomTag": false,
    "armorProf": {
      "value": [],
      "custom": ""
    },
    "weaponProf": {
      "value": [],
      "custom": ""
    },
    "languages": {
      "value": [],
      "custom": ""
    },
    "flags": {
      "boolean": {},
      "dictionary": {}
    },
    "scriptCalls": [],
    "subType": "racial",
    "associations": {
      "classes": []
    },
    "showInQuickbar": false,
    "abilityType": "none",
    "crOffset": "",
    "disabled": false,
    "classSkills": {}
  },
  "ownership": {
    "default": 0
  },
  "_stats": {
    "systemId": "pf1",
    "systemVersion": "9.1",
    "coreVersion": "10.291",
    "createdTime": 1665428383244,
    "modifiedTime": 1689797937370,
    "lastModifiedBy": "ppv91YxratjWnkJi"
  },
  "effects": [],
  "folder": null,
  "sort": 0,
  "flags": {},
  "_key": "!items!H0DVYfdF81BZBzGL"
}