{
  "_id": "L6hDTTsdEWKBj4gE",
  "name": "Suspicious",
  "type": "feat",
  "img": "systems/pf1/icons/races/creature-types/outsider.png",
  "flags": {
    "scene-packer": {
      "sourceId": "Item.8LGtaEHoW8pcq5Z7"
    }
  },
  "system": {
    "description": {
      "value": "<p><strong>Race:</strong> Strix&nbsp;</p>\n<hr />\n<p>Strix receive a +2 racial bonus on saving throws against illusion spells or effects.</p>",
      "unidentified": ""
    },
    "tags": [
      "Strix"
    ],
    "actions": [],
    "uses": {
      "per": null,
      "value": 0,
      "maxFormula": "",
      "autoDeductChargesCost": "1"
    },
    "attackNotes": [],
    "effectNotes": [],
    "changes": [],
    "changeFlags": {
      "loseDexToAC": false,
      "noEncumbrance": false,
      "mediumArmorFullSpeed": false,
      "heavyArmorFullSpeed": false
    },
    "contextNotes": [],
    "links": {
      "children": [],
      "charges": []
    },
    "tag": "suspicious",
    "useCustomTag": false,
    "armorProf": {
      "value": [],
      "custom": ""
    },
    "weaponProf": {
      "value": [],
      "custom": ""
    },
    "languages": {
      "value": [],
      "custom": ""
    },
    "flags": {
      "boolean": {},
      "dictionary": {}
    },
    "scriptCalls": [],
    "subType": "racial",
    "associations": {
      "classes": []
    },
    "showInQuickbar": false,
    "abilityType": "none",
    "crOffset": "",
    "disabled": false,
    "classSkills": {}
  },
  "ownership": {
    "default": 0
  },
  "_stats": {
    "systemId": "pf1",
    "systemVersion": "9.1",
    "coreVersion": "10.291",
    "createdTime": 1665428383345,
    "modifiedTime": 1689797937924,
    "lastModifiedBy": "ppv91YxratjWnkJi"
  },
  "effects": [],
  "folder": null,
  "sort": 0,
  "_key": "!items!L6hDTTsdEWKBj4gE"
}