{
  "_id": "DlGjetJ3goyzTtno",
  "name": "Swamp Leshy",
  "type": "feat",
  "img": "systems/pf1/icons/races/creature-types/plant.png",
  "system": {
    "description": {
      "value": "<p><strong>Race:</strong> Vine Leshy&nbsp;<br /><strong>Replaced Trait(s):</strong> Climber; Unassuming Foliage&nbsp;</p>\n<hr />\n<p>Some vine leshys are made from plants that naturally grow in swamps. These leshys gain a +2 racial bonus on Swim checks and a +4 racial bonus on Stealth checks in swamps.<br /><br /> This replaces climber and alters unassuming foliage.</p>",
      "unidentified": ""
    },
    "tags": [
      "Vine Leshy",
      "PFS"
    ],
    "actions": [],
    "uses": {
      "per": null,
      "value": 0,
      "maxFormula": "",
      "autoDeductChargesCost": "1"
    },
    "attackNotes": [],
    "effectNotes": [],
    "changes": [],
    "changeFlags": {
      "loseDexToAC": false,
      "noEncumbrance": false,
      "mediumArmorFullSpeed": false,
      "heavyArmorFullSpeed": false
    },
    "contextNotes": [],
    "links": {
      "children": [],
      "charges": []
    },
    "tag": "",
    "useCustomTag": false,
    "armorProf": {
      "value": [],
      "custom": ""
    },
    "weaponProf": {
      "value": [],
      "custom": ""
    },
    "languages": {
      "value": [],
      "custom": ""
    },
    "flags": {
      "boolean": {},
      "dictionary": {}
    },
    "scriptCalls": [],
    "subType": "racial",
    "associations": {
      "classes": []
    },
    "showInQuickbar": false,
    "abilityType": "none",
    "crOffset": "",
    "disabled": false,
    "classSkills": {}
  },
  "ownership": {
    "default": 0
  },
  "_stats": {
    "systemId": "pf1",
    "systemVersion": "9.1",
    "coreVersion": "10.291",
    "createdTime": 1665428382768,
    "modifiedTime": 1689797935702,
    "lastModifiedBy": "ppv91YxratjWnkJi"
  },
  "effects": [],
  "folder": null,
  "sort": 0,
  "flags": {},
  "_key": "!items!DlGjetJ3goyzTtno"
}