{
  "_id": "fyRBxVBVyy1gQgfV",
  "name": "Swarming",
  "type": "feat",
  "img": "systems/pf1/icons/races/ratfolk.png",
  "flags": {
    "scene-packer": {
      "sourceId": "Item.kDMwjADXKmEb2HZd"
    }
  },
  "system": {
    "description": {
      "value": "<p><strong>Race:</strong> Ratfolk&nbsp;</p>\n<hr />\n<p>Ratfolk are used to living and fighting communally, and are adept at swarming foes for their own gain and their foes' detriment. Up to two ratfolk can share the same square at the same time. If two ratfolk in the same square attack the same foe, they are considered to be flanking that foe as if they were in two opposite squares.</p>",
      "unidentified": ""
    },
    "tags": [
      "Ratfolk"
    ],
    "actions": [],
    "uses": {
      "per": null,
      "value": 0,
      "maxFormula": "",
      "autoDeductChargesCost": "1"
    },
    "attackNotes": [],
    "effectNotes": [],
    "changes": [],
    "changeFlags": {
      "loseDexToAC": false,
      "noEncumbrance": false,
      "mediumArmorFullSpeed": false,
      "heavyArmorFullSpeed": false
    },
    "contextNotes": [],
    "links": {
      "children": [],
      "charges": []
    },
    "tag": "swarming",
    "useCustomTag": false,
    "armorProf": {
      "value": [],
      "custom": ""
    },
    "weaponProf": {
      "value": [],
      "custom": ""
    },
    "languages": {
      "value": [],
      "custom": ""
    },
    "flags": {
      "boolean": {},
      "dictionary": {}
    },
    "scriptCalls": [],
    "subType": "racial",
    "associations": {
      "classes": []
    },
    "showInQuickbar": false,
    "abilityType": "none",
    "crOffset": "",
    "disabled": false,
    "classSkills": {}
  },
  "ownership": {
    "default": 0
  },
  "_stats": {
    "systemId": "pf1",
    "systemVersion": "9.1",
    "coreVersion": "10.291",
    "createdTime": 1665428384286,
    "modifiedTime": 1689797943505,
    "lastModifiedBy": "ppv91YxratjWnkJi"
  },
  "effects": [],
  "folder": null,
  "sort": 0,
  "_key": "!items!fyRBxVBVyy1gQgfV"
}