{
  "_id": "CRk79ejVlfpyi1nB",
  "name": "Swim Speed (Cecaelia)",
  "type": "feat",
  "img": "systems/pf1/icons/races/creature-types/ooze.jpg",
  "flags": {
    "scene-packer": {
      "sourceId": "Item.McCGvLq3bBngLwo2"
    }
  },
  "system": {
    "description": {
      "value": "<p><strong>Race:</strong> Cecaelia&nbsp;</p>\n<hr />\n<p>Cecaelias have a swim speed of 40 feet.</p>",
      "unidentified": ""
    },
    "tags": [
      "Cecaelia"
    ],
    "actions": [],
    "uses": {
      "per": null,
      "value": 0,
      "maxFormula": "",
      "autoDeductChargesCost": "1"
    },
    "attackNotes": [],
    "effectNotes": [],
    "changes": [],
    "changeFlags": {
      "loseDexToAC": false,
      "noEncumbrance": false,
      "mediumArmorFullSpeed": false,
      "heavyArmorFullSpeed": false
    },
    "contextNotes": [],
    "links": {
      "children": [],
      "charges": []
    },
    "tag": "swimSpeedCecaelia",
    "useCustomTag": false,
    "armorProf": {
      "value": [],
      "custom": ""
    },
    "weaponProf": {
      "value": [],
      "custom": ""
    },
    "languages": {
      "value": [],
      "custom": ""
    },
    "flags": {
      "boolean": {},
      "dictionary": {}
    },
    "scriptCalls": [],
    "subType": "racial",
    "associations": {
      "classes": []
    },
    "showInQuickbar": false,
    "abilityType": "none",
    "crOffset": "",
    "disabled": false,
    "classSkills": {}
  },
  "ownership": {
    "default": 0
  },
  "_stats": {
    "systemId": "pf1",
    "systemVersion": "9.1",
    "coreVersion": "10.291",
    "createdTime": 1665428382743,
    "modifiedTime": 1689797935574,
    "lastModifiedBy": "ppv91YxratjWnkJi"
  },
  "effects": [],
  "folder": null,
  "sort": 0,
  "_key": "!items!CRk79ejVlfpyi1nB"
}