{
  "_id": "wO5orY8SDCJfX2vm",
  "name": "Tear Apart",
  "type": "feat",
  "img": "systems/pf1/icons/skills/blue_26.jpg",
  "flags": {
    "scene-packer": {
      "sourceId": "Item.CrEZFYL5GyELvVTQ"
    }
  },
  "system": {
    "description": {
      "value": "<p><strong>Race:</strong> Orang-Pendak&nbsp;</p>\n<hr />\n<p>Orang-pendaks have powerful upper bodies and gain a +2 racial bonus on Strength checks to break or burst an object. This bonus also applies on combat maneuver checks to sunder with their unarmed attacks.</p>",
      "unidentified": ""
    },
    "tags": [
      "Orang-Pendak"
    ],
    "actions": [],
    "uses": {
      "per": null,
      "value": 0,
      "maxFormula": "",
      "autoDeductChargesCost": "1"
    },
    "attackNotes": [],
    "effectNotes": [],
    "changes": [],
    "changeFlags": {
      "loseDexToAC": false,
      "noEncumbrance": false,
      "mediumArmorFullSpeed": false,
      "heavyArmorFullSpeed": false
    },
    "contextNotes": [],
    "links": {
      "children": [],
      "charges": []
    },
    "tag": "tearApart",
    "useCustomTag": false,
    "armorProf": {
      "value": [],
      "custom": ""
    },
    "weaponProf": {
      "value": [],
      "custom": ""
    },
    "languages": {
      "value": [],
      "custom": ""
    },
    "flags": {
      "boolean": {},
      "dictionary": {}
    },
    "scriptCalls": [],
    "subType": "racial",
    "associations": {
      "classes": []
    },
    "showInQuickbar": false,
    "abilityType": "none",
    "crOffset": "",
    "disabled": false,
    "classSkills": {}
  },
  "ownership": {
    "default": 0
  },
  "_stats": {
    "systemId": "pf1",
    "systemVersion": "9.1",
    "coreVersion": "10.291",
    "createdTime": 1665428384860,
    "modifiedTime": 1689797948993,
    "lastModifiedBy": "ppv91YxratjWnkJi"
  },
  "effects": [],
  "folder": null,
  "sort": 0,
  "_key": "!items!wO5orY8SDCJfX2vm"
}