{
  "_id": "uPsATrKLQzHg2cae",
  "name": "Tentacle Sense (1 RP)",
  "type": "feat",
  "img": "systems/pf1/icons/races/creature-types/ooze.jpg",
  "flags": {
    "scene-packer": {
      "sourceId": "Item.cyRbwOYNEkuRFoEK"
    }
  },
  "system": {
    "description": {
      "value": "<p><strong>Race:</strong> Cecaelia&nbsp;</p>\n<hr />\n<p>While swimming and not grappled or grappling, a cecaelia can spread her tentacles wide to form a sensory net around herself as a swift action. This grants blindsight to a range of 10 feet and lasts as long as the cecaelia concentrates or until the cecaelia attacks with a tentacle or moves.</p>",
      "unidentified": ""
    },
    "tags": [
      "Cecaelia"
    ],
    "actions": [],
    "uses": {
      "per": null,
      "value": 0,
      "maxFormula": "",
      "autoDeductChargesCost": "1"
    },
    "attackNotes": [],
    "effectNotes": [],
    "changes": [],
    "changeFlags": {
      "loseDexToAC": false,
      "noEncumbrance": false,
      "mediumArmorFullSpeed": false,
      "heavyArmorFullSpeed": false
    },
    "contextNotes": [],
    "links": {
      "children": [],
      "charges": []
    },
    "tag": "tentacleSense1Rp",
    "useCustomTag": false,
    "armorProf": {
      "value": [],
      "custom": ""
    },
    "weaponProf": {
      "value": [],
      "custom": ""
    },
    "languages": {
      "value": [],
      "custom": ""
    },
    "flags": {
      "boolean": {},
      "dictionary": {}
    },
    "scriptCalls": [],
    "subType": "racial",
    "associations": {
      "classes": []
    },
    "showInQuickbar": false,
    "abilityType": "none",
    "crOffset": "",
    "disabled": false,
    "classSkills": {}
  },
  "ownership": {
    "default": 0
  },
  "_stats": {
    "systemId": "pf1",
    "systemVersion": "9.1",
    "coreVersion": "10.291",
    "createdTime": 1665428384815,
    "modifiedTime": 1689797948722,
    "lastModifiedBy": "ppv91YxratjWnkJi"
  },
  "effects": [],
  "folder": null,
  "sort": 0,
  "_key": "!items!uPsATrKLQzHg2cae"
}