{
  "_id": "lBS1mSrNfigoro8L",
  "name": "Thinblood Resistance",
  "type": "feat",
  "img": "systems/pf1/icons/races/half-elf.png",
  "system": {
    "description": {
      "value": "<p><strong>Race:</strong> Half-Elf&nbsp;<br /><strong>Replaced Trait(s):</strong> Elven Immunities&nbsp;</p>\n<hr />\n<p>(Darkborn Only) Darkborn are accustomed to torture at the hands of their drow forebears, and gain a +2 racial bonus on Fortitude saves against poison and disease, including magical diseases. Darkborn also gain the poison use ability and never risk accidentally poisoning themselves. This racial trait replaces the elven immunities racial trait.</p>",
      "unidentified": ""
    },
    "tags": [
      "Half-Elf"
    ],
    "actions": [],
    "uses": {
      "per": null,
      "value": 0,
      "maxFormula": "",
      "autoDeductChargesCost": "1"
    },
    "attackNotes": [],
    "effectNotes": [],
    "changes": [],
    "changeFlags": {
      "loseDexToAC": false,
      "noEncumbrance": false,
      "mediumArmorFullSpeed": false,
      "heavyArmorFullSpeed": false
    },
    "contextNotes": [],
    "links": {
      "children": [],
      "charges": []
    },
    "tag": "",
    "useCustomTag": false,
    "armorProf": {
      "value": [],
      "custom": ""
    },
    "weaponProf": {
      "value": [],
      "custom": ""
    },
    "languages": {
      "value": [],
      "custom": ""
    },
    "flags": {
      "boolean": {},
      "dictionary": {}
    },
    "scriptCalls": [],
    "subType": "racial",
    "associations": {
      "classes": []
    },
    "showInQuickbar": false,
    "abilityType": "none",
    "crOffset": "",
    "disabled": false,
    "classSkills": {}
  },
  "ownership": {
    "default": 0
  },
  "_stats": {
    "systemId": "pf1",
    "systemVersion": "9.1",
    "coreVersion": "10.291",
    "createdTime": 1665428384383,
    "modifiedTime": 1689797944465,
    "lastModifiedBy": "ppv91YxratjWnkJi"
  },
  "effects": [],
  "folder": null,
  "sort": 0,
  "flags": {},
  "_key": "!items!lBS1mSrNfigoro8L"
}