{
  "_id": "qJGhs3rHo8bT01FW",
  "name": "Tightfisted",
  "type": "feat",
  "img": "systems/pf1/icons/races/dwarf.png",
  "system": {
    "description": {
      "value": "<p><strong>Race:</strong> Dwarf&nbsp;<br /><strong>Replaced Trait(s):</strong> Stability, Stonecunning&nbsp;</p>\n<hr />\n<p>Dwarves with this racial trait gain a +4 racial bonus to their CMD against disarm and steal<sup>APG</sup> combat maneuvers and a +2 racial bonus on Perception checks to notice Sleight of Hand attempts. If a dwarf with this trait notices a Sleight of Hand attempt to steal from him and the dwarf is not flat-footed or has Combat Reflexes, the attempt triggers an attack of opportunity from that dwarf. This racial trait replaces stability and stonecunning.</p>",
      "unidentified": ""
    },
    "tags": [
      "Dwarf",
      "PFS"
    ],
    "actions": [],
    "uses": {
      "per": null,
      "value": 0,
      "maxFormula": "",
      "autoDeductChargesCost": "1"
    },
    "attackNotes": [],
    "effectNotes": [],
    "changes": [],
    "changeFlags": {
      "loseDexToAC": false,
      "noEncumbrance": false,
      "mediumArmorFullSpeed": false,
      "heavyArmorFullSpeed": false
    },
    "contextNotes": [],
    "links": {
      "children": [],
      "charges": []
    },
    "tag": "",
    "useCustomTag": false,
    "armorProf": {
      "value": [],
      "custom": ""
    },
    "weaponProf": {
      "value": [],
      "custom": ""
    },
    "languages": {
      "value": [],
      "custom": ""
    },
    "flags": {
      "boolean": {},
      "dictionary": {}
    },
    "scriptCalls": [],
    "subType": "racial",
    "associations": {
      "classes": []
    },
    "showInQuickbar": false,
    "abilityType": "none",
    "crOffset": "",
    "disabled": false,
    "classSkills": {}
  },
  "ownership": {
    "default": 0
  },
  "_stats": {
    "systemId": "pf1",
    "systemVersion": "9.1",
    "coreVersion": "10.291",
    "createdTime": 1665428384738,
    "modifiedTime": 1689797946743,
    "lastModifiedBy": "ppv91YxratjWnkJi"
  },
  "effects": [],
  "folder": null,
  "sort": 0,
  "flags": {},
  "_key": "!items!qJGhs3rHo8bT01FW"
}