{
  "_id": "4sqgRGhlx1KPagLI",
  "name": "Tongue of the Sea",
  "type": "feat",
  "img": "systems/pf1/icons/races/elf.png",
  "system": {
    "description": {
      "value": "<p><strong>Race:</strong> Elf&nbsp;<br /><strong>Replaced Trait(s):</strong> Languages&nbsp;</p>\n<hr />\n<p>Mordant Spire elves speak the ancient languages of their ancestors, enemies, and other creatures native to the Steaming Sea. Elves with this racial trait begin play speaking Azlanti and Elven. Elves with high Intelligence scores can choose from the following languages: Aboleth, Abyssal, Aklo, Aquan, Common, and Undercommon. This racial trait replaces an elf 's normal languages.</p>",
      "unidentified": ""
    },
    "tags": [
      "Elf"
    ],
    "actions": [],
    "uses": {
      "per": null,
      "value": 0,
      "maxFormula": "",
      "autoDeductChargesCost": "1"
    },
    "attackNotes": [],
    "effectNotes": [],
    "changes": [],
    "changeFlags": {
      "loseDexToAC": false,
      "noEncumbrance": false,
      "mediumArmorFullSpeed": false,
      "heavyArmorFullSpeed": false
    },
    "contextNotes": [],
    "links": {
      "children": [],
      "charges": []
    },
    "tag": "",
    "useCustomTag": false,
    "armorProf": {
      "value": [],
      "custom": ""
    },
    "weaponProf": {
      "value": [],
      "custom": ""
    },
    "languages": {
      "value": [],
      "custom": ""
    },
    "flags": {
      "boolean": {},
      "dictionary": {}
    },
    "scriptCalls": [],
    "subType": "racial",
    "associations": {
      "classes": []
    },
    "showInQuickbar": false,
    "abilityType": "none",
    "crOffset": "",
    "disabled": false,
    "classSkills": {}
  },
  "ownership": {
    "default": 0
  },
  "_stats": {
    "systemId": "pf1",
    "systemVersion": "9.1",
    "coreVersion": "10.291",
    "createdTime": 1665428382597,
    "modifiedTime": 1689797934773,
    "lastModifiedBy": "ppv91YxratjWnkJi"
  },
  "effects": [],
  "folder": null,
  "sort": 0,
  "flags": {},
  "_key": "!items!4sqgRGhlx1KPagLI"
}