{
  "_id": "WF6xe4rsv4mnhPIz",
  "name": "Tree Dialect",
  "type": "feat",
  "img": "systems/pf1/icons/spells/vines-acid-1.jpg",
  "system": {
    "description": {
      "value": "<p><strong>Race:</strong> Gathlain&nbsp;<br /><strong>Replaced Trait(s):</strong> Spell-Like Abilities&nbsp;</p>\n<hr />\n<p>A rare few gathlains are born with the knowledge of an ancient way of speech that allows them to communicate with trees. Once per day, they can cast <i>speak with plants</i> (trees only) as a spell-like ability with a caster level equal to the gathlain's character level.<br /><br /> This replaces spell-like abilities.</p>",
      "unidentified": ""
    },
    "tags": [
      "Gathlain",
      "PFS"
    ],
    "actions": [],
    "uses": {
      "per": null,
      "value": 0,
      "maxFormula": "",
      "autoDeductChargesCost": "1"
    },
    "attackNotes": [],
    "effectNotes": [],
    "changes": [],
    "changeFlags": {
      "loseDexToAC": false,
      "noEncumbrance": false,
      "mediumArmorFullSpeed": false,
      "heavyArmorFullSpeed": false
    },
    "contextNotes": [],
    "links": {
      "children": [],
      "charges": []
    },
    "tag": "",
    "useCustomTag": false,
    "armorProf": {
      "value": [],
      "custom": ""
    },
    "weaponProf": {
      "value": [],
      "custom": ""
    },
    "languages": {
      "value": [],
      "custom": ""
    },
    "flags": {
      "boolean": {},
      "dictionary": {}
    },
    "scriptCalls": [],
    "subType": "racial",
    "associations": {
      "classes": []
    },
    "showInQuickbar": false,
    "abilityType": "none",
    "crOffset": "",
    "disabled": false,
    "classSkills": {}
  },
  "ownership": {
    "default": 0
  },
  "_stats": {
    "systemId": "pf1",
    "systemVersion": "9.1",
    "coreVersion": "10.291",
    "createdTime": 1665428383824,
    "modifiedTime": 1689797940447,
    "lastModifiedBy": "ppv91YxratjWnkJi"
  },
  "effects": [],
  "folder": null,
  "sort": 0,
  "flags": {},
  "_key": "!items!WF6xe4rsv4mnhPIz"
}