{
  "_id": "Hi2xxPj8RqlQ5NYn",
  "name": "Tripping Tentacles",
  "type": "feat",
  "img": "systems/pf1/icons/races/creature-types/ooze.jpg",
  "system": {
    "description": {
      "value": "<p><strong>Race:</strong> Cecaelia&nbsp;<br /><strong>Replaced Trait(s):</strong> Tentacle Sense&nbsp;</p>\n<hr />\n<p>Cecaelias born with rubbery, resilient tentacles can't use them to detect movement in the water but can use them to attack other creatures more easily. Cecaelias with this racial trait receive a +4 racial bonus on combat maneuver checks to trip an opponent. This racial trait replaces tentacle sense.</p>",
      "unidentified": ""
    },
    "tags": [
      "Cecaelia",
      "PFS"
    ],
    "actions": [],
    "uses": {
      "per": null,
      "value": 0,
      "maxFormula": "",
      "autoDeductChargesCost": "1"
    },
    "attackNotes": [],
    "effectNotes": [],
    "changes": [],
    "changeFlags": {
      "loseDexToAC": false,
      "noEncumbrance": false,
      "mediumArmorFullSpeed": false,
      "heavyArmorFullSpeed": false
    },
    "contextNotes": [],
    "links": {
      "children": [],
      "charges": []
    },
    "tag": "",
    "useCustomTag": false,
    "armorProf": {
      "value": [],
      "custom": ""
    },
    "weaponProf": {
      "value": [],
      "custom": ""
    },
    "languages": {
      "value": [],
      "custom": ""
    },
    "flags": {
      "boolean": {},
      "dictionary": {}
    },
    "scriptCalls": [],
    "subType": "racial",
    "associations": {
      "classes": []
    },
    "showInQuickbar": false,
    "abilityType": "none",
    "crOffset": "",
    "disabled": false,
    "classSkills": {}
  },
  "ownership": {
    "default": 0
  },
  "_stats": {
    "systemId": "pf1",
    "systemVersion": "9.1",
    "coreVersion": "10.291",
    "createdTime": 1665428383270,
    "modifiedTime": 1689797937475,
    "lastModifiedBy": "ppv91YxratjWnkJi"
  },
  "effects": [],
  "folder": null,
  "sort": 0,
  "flags": {},
  "_key": "!items!Hi2xxPj8RqlQ5NYn"
}