{
  "_id": "deYG2mmqNjWZ4rR5",
  "name": "Umbral Escort",
  "type": "feat",
  "img": "systems/pf1/icons/races/fetchling.png",
  "system": {
    "description": {
      "value": "<p><strong>Race:</strong> Fetchling&nbsp;<br /><strong>Replaced Trait(s):</strong> Low-Light Vision, Spell-Like Abilities&nbsp;</p>\n<hr />\n<p>Some fetchlings descend from talented planar travelers who dwelled in the dark places between worlds and could conduct others across the planes. A fetchling with this racial trait loses the <i>disguise self</i> spell-like ability, but his <i>shadow walk</i> and <i>plane shift</i> spell-like abilities need not affect himself only. This racial trait replaces the low-light vision racial trait and modifies the spell-like abilities racial trait.</p>",
      "unidentified": ""
    },
    "tags": [
      "Fetchling",
      "PFS"
    ],
    "actions": [],
    "uses": {
      "per": null,
      "value": 0,
      "maxFormula": "",
      "autoDeductChargesCost": "1"
    },
    "attackNotes": [],
    "effectNotes": [],
    "changes": [],
    "changeFlags": {
      "loseDexToAC": false,
      "noEncumbrance": false,
      "mediumArmorFullSpeed": false,
      "heavyArmorFullSpeed": false
    },
    "contextNotes": [],
    "links": {
      "children": [],
      "charges": []
    },
    "tag": "",
    "useCustomTag": false,
    "armorProf": {
      "value": [],
      "custom": ""
    },
    "weaponProf": {
      "value": [],
      "custom": ""
    },
    "languages": {
      "value": [],
      "custom": ""
    },
    "flags": {
      "boolean": {},
      "dictionary": {}
    },
    "scriptCalls": [],
    "subType": "racial",
    "associations": {
      "classes": []
    },
    "showInQuickbar": false,
    "abilityType": "none",
    "crOffset": "",
    "disabled": false,
    "classSkills": {}
  },
  "ownership": {
    "default": 0
  },
  "_stats": {
    "systemId": "pf1",
    "systemVersion": "9.1",
    "coreVersion": "10.291",
    "createdTime": 1665428384240,
    "modifiedTime": 1689797942907,
    "lastModifiedBy": "ppv91YxratjWnkJi"
  },
  "effects": [],
  "folder": null,
  "sort": 0,
  "flags": {},
  "_key": "!items!deYG2mmqNjWZ4rR5"
}