{
  "_id": "iSHRZjOWa5TnYKXe",
  "name": "Underfoot",
  "type": "feat",
  "img": "systems/pf1/icons/races/halfling.png",
  "system": {
    "description": {
      "value": "<p><strong>Race:</strong> Halfling&nbsp;<br /><strong>Replaced Trait(s):</strong> Halfling Luck&nbsp;</p>\n<hr />\n<p>Halflings must train hard to effectively fight bigger opponents. Halflings with this racial trait gain a +1 dodge bonus to AC against foes larger than themselves and a +1 bonus on Reflex saving throws to avoid trample attacks. This racial trait replaces the halfling luck racial trait.</p>",
      "unidentified": ""
    },
    "tags": [
      "Halfling",
      "PFS"
    ],
    "actions": [],
    "uses": {
      "per": null,
      "value": 0,
      "maxFormula": "",
      "autoDeductChargesCost": "1"
    },
    "attackNotes": [],
    "effectNotes": [],
    "changes": [],
    "changeFlags": {
      "loseDexToAC": false,
      "noEncumbrance": false,
      "mediumArmorFullSpeed": false,
      "heavyArmorFullSpeed": false
    },
    "contextNotes": [],
    "links": {
      "children": [],
      "charges": []
    },
    "tag": "",
    "useCustomTag": false,
    "armorProf": {
      "value": [],
      "custom": ""
    },
    "weaponProf": {
      "value": [],
      "custom": ""
    },
    "languages": {
      "value": [],
      "custom": ""
    },
    "flags": {
      "boolean": {},
      "dictionary": {}
    },
    "scriptCalls": [],
    "subType": "racial",
    "associations": {
      "classes": []
    },
    "showInQuickbar": false,
    "abilityType": "none",
    "crOffset": "",
    "disabled": false,
    "classSkills": {}
  },
  "ownership": {
    "default": 0
  },
  "_stats": {
    "systemId": "pf1",
    "systemVersion": "9.1",
    "coreVersion": "10.291",
    "createdTime": 1665428384339,
    "modifiedTime": 1689797943875,
    "lastModifiedBy": "ppv91YxratjWnkJi"
  },
  "effects": [],
  "folder": null,
  "sort": 0,
  "flags": {},
  "_key": "!items!iSHRZjOWa5TnYKXe"
}