{
  "_id": "r0tRSOk1uJLAT7b7",
  "name": "Unstoppable",
  "type": "feat",
  "img": "systems/pf1/icons/races/dwarf.png",
  "system": {
    "description": {
      "value": "<p><strong>Race:</strong> Dwarf&nbsp;<br /><strong>Replaced Trait(s):</strong> Hardy&nbsp;</p>\n<hr />\n<p>Some dwarves train from a young age to outlast orcs on the battlefield. They gain Toughness as a bonus feat and a +1 racial bonus on Fortitude saves. This racial trait replaces hardy.</p>",
      "unidentified": ""
    },
    "tags": [
      "Dwarf",
      "PFS"
    ],
    "actions": [],
    "uses": {
      "per": null,
      "value": 0,
      "maxFormula": "",
      "autoDeductChargesCost": "1"
    },
    "attackNotes": [],
    "effectNotes": [],
    "changes": [],
    "changeFlags": {
      "loseDexToAC": false,
      "noEncumbrance": false,
      "mediumArmorFullSpeed": false,
      "heavyArmorFullSpeed": false
    },
    "contextNotes": [],
    "links": {
      "children": [],
      "charges": []
    },
    "tag": "",
    "useCustomTag": false,
    "armorProf": {
      "value": [],
      "custom": ""
    },
    "weaponProf": {
      "value": [],
      "custom": ""
    },
    "languages": {
      "value": [],
      "custom": ""
    },
    "flags": {
      "boolean": {},
      "dictionary": {}
    },
    "scriptCalls": [],
    "subType": "racial",
    "associations": {
      "classes": []
    },
    "showInQuickbar": false,
    "abilityType": "none",
    "crOffset": "",
    "disabled": false,
    "classSkills": {}
  },
  "ownership": {
    "default": 0
  },
  "_stats": {
    "systemId": "pf1",
    "systemVersion": "9.1",
    "coreVersion": "10.291",
    "createdTime": 1665428384747,
    "modifiedTime": 1689797946837,
    "lastModifiedBy": "ppv91YxratjWnkJi"
  },
  "effects": [],
  "folder": null,
  "sort": 0,
  "flags": {},
  "_key": "!items!r0tRSOk1uJLAT7b7"
}