{
  "_id": "bsDeGqpk9ZF84qoS",
  "name": "Vestigal Wings",
  "type": "feat",
  "img": "systems/pf1/icons/races/creature-types/dragon.png",
  "system": {
    "description": {
      "value": "<p><strong>Race:</strong> Wyvaran&nbsp;<br /><strong>Replaced Trait(s):</strong> Flight&nbsp;</p>\n<hr />\n<p>When resources are particularly scarce, some young wyvarans develop smaller-than-average wings incapable of flight. However, these wings are perfectly suited for other acrobatic maneuvers. These wyvarans gain a +2 racial bonus on Acrobatics and Climb checks, and one of these is a class skill for them. In addition, they can ignore the first 20 feet of falling damage when they make a successful Acrobatics check. This racial trait replaces flight.  </p>",
      "unidentified": ""
    },
    "tags": [
      "Wyvaran"
    ],
    "actions": [],
    "uses": {
      "per": null,
      "value": 0,
      "maxFormula": "",
      "autoDeductChargesCost": "1"
    },
    "attackNotes": [],
    "effectNotes": [],
    "changes": [],
    "changeFlags": {
      "loseDexToAC": false,
      "noEncumbrance": false,
      "mediumArmorFullSpeed": false,
      "heavyArmorFullSpeed": false
    },
    "contextNotes": [],
    "links": {
      "children": [],
      "charges": []
    },
    "tag": "",
    "useCustomTag": false,
    "armorProf": {
      "value": [],
      "custom": ""
    },
    "weaponProf": {
      "value": [],
      "custom": ""
    },
    "languages": {
      "value": [],
      "custom": ""
    },
    "flags": {
      "boolean": {},
      "dictionary": {}
    },
    "scriptCalls": [],
    "subType": "racial",
    "associations": {
      "classes": []
    },
    "showInQuickbar": false,
    "abilityType": "none",
    "crOffset": "",
    "disabled": false,
    "classSkills": {}
  },
  "ownership": {
    "default": 0
  },
  "_stats": {
    "systemId": "pf1",
    "systemVersion": "9.1",
    "coreVersion": "10.291",
    "createdTime": 1665428383942,
    "modifiedTime": 1689797941305,
    "lastModifiedBy": "ppv91YxratjWnkJi"
  },
  "effects": [],
  "folder": null,
  "sort": 0,
  "flags": {},
  "_key": "!items!bsDeGqpk9ZF84qoS"
}