{
  "_id": "f9g94BzVWjntaNQg",
  "name": "Warden of Nature",
  "type": "feat",
  "img": "systems/pf1/icons/races/gnome.png",
  "system": {
    "description": {
      "value": "<p><strong>Race:</strong> Gnome&nbsp;<br /><strong>Replaced Trait(s):</strong> Defensive Training, Hatred&nbsp;</p>\n<hr />\n<p>Gnomes must often protect their homes against unnatural or pestilential infestations. Gnomes with this racial trait get a +2 dodge bonus to AC against aberrations, oozes, and vermin, and a +1 bonus on attack rolls against them because of their special training. This racial trait replaces the defensive training and hatred racial traits.</p>",
      "unidentified": ""
    },
    "tags": [
      "Gnome",
      "PFS"
    ],
    "actions": [],
    "uses": {
      "per": null,
      "value": 0,
      "maxFormula": "",
      "autoDeductChargesCost": "1"
    },
    "attackNotes": [],
    "effectNotes": [],
    "changes": [],
    "changeFlags": {
      "loseDexToAC": false,
      "noEncumbrance": false,
      "mediumArmorFullSpeed": false,
      "heavyArmorFullSpeed": false
    },
    "contextNotes": [],
    "links": {
      "children": [],
      "charges": []
    },
    "tag": "",
    "useCustomTag": false,
    "armorProf": {
      "value": [],
      "custom": ""
    },
    "weaponProf": {
      "value": [],
      "custom": ""
    },
    "languages": {
      "value": [],
      "custom": ""
    },
    "flags": {
      "boolean": {},
      "dictionary": {}
    },
    "scriptCalls": [],
    "subType": "racial",
    "associations": {
      "classes": []
    },
    "showInQuickbar": false,
    "abilityType": "none",
    "crOffset": "",
    "disabled": false,
    "classSkills": {}
  },
  "ownership": {
    "default": 0
  },
  "_stats": {
    "systemId": "pf1",
    "systemVersion": "9.1",
    "coreVersion": "10.291",
    "createdTime": 1665428384274,
    "modifiedTime": 1689797943402,
    "lastModifiedBy": "ppv91YxratjWnkJi"
  },
  "effects": [],
  "folder": null,
  "sort": 0,
  "flags": {},
  "_key": "!items!f9g94BzVWjntaNQg"
}