{
  "_id": "vXfdoGjzMenvozlp",
  "name": "Whitecape",
  "type": "feat",
  "img": "systems/pf1/icons/races/vanara.png",
  "system": {
    "description": {
      "value": "<p><strong>Race:</strong> Vanara&nbsp;<br /><strong>Replaced Trait(s):</strong> Prehensile Tail&nbsp;</p>\n<hr />\n<p>The rare whitecape vanara clans have more in common with savanna-dwelling baboons than the jungle-dwelling monkeys that most vanaras resemble. Their stooping build grants them a +4 racial bonus to CMD when resisting a bull rush or trip. These vanaras usually have a thick mane of hair on the head and shoulders (called a \"cape\") and shorter tails. This racial trait replaces prehensile tail.</p>",
      "unidentified": ""
    },
    "tags": [
      "Vanara"
    ],
    "actions": [],
    "uses": {
      "per": null,
      "value": 0,
      "maxFormula": "",
      "autoDeductChargesCost": "1"
    },
    "attackNotes": [],
    "effectNotes": [],
    "changes": [],
    "changeFlags": {
      "loseDexToAC": false,
      "noEncumbrance": false,
      "mediumArmorFullSpeed": false,
      "heavyArmorFullSpeed": false
    },
    "contextNotes": [],
    "links": {
      "children": [],
      "charges": []
    },
    "tag": "",
    "useCustomTag": false,
    "armorProf": {
      "value": [],
      "custom": ""
    },
    "weaponProf": {
      "value": [],
      "custom": ""
    },
    "languages": {
      "value": [],
      "custom": ""
    },
    "flags": {
      "boolean": {},
      "dictionary": {}
    },
    "scriptCalls": [],
    "subType": "racial",
    "associations": {
      "classes": []
    },
    "showInQuickbar": false,
    "abilityType": "none",
    "crOffset": "",
    "disabled": false,
    "classSkills": {}
  },
  "ownership": {
    "default": 0
  },
  "_stats": {
    "systemId": "pf1",
    "systemVersion": "9.1",
    "coreVersion": "10.291",
    "createdTime": 1665428384844,
    "modifiedTime": 1689797948904,
    "lastModifiedBy": "ppv91YxratjWnkJi"
  },
  "effects": [],
  "folder": null,
  "sort": 0,
  "flags": {},
  "_key": "!items!vXfdoGjzMenvozlp"
}