{
  "_id": "FOZo7WYLv1nrMiUm",
  "name": "Wildfire Heart",
  "type": "feat",
  "img": "systems/pf1/icons/races/ifrit.png",
  "system": {
    "description": {
      "value": "<p><strong>Race:</strong> Ifrit&nbsp;<br /><strong>Replaced Trait(s):</strong> Energy Resistance&nbsp;</p>\n<hr />\n<p>Ifrits with this trait are as swift and dangerous as a blazing wildfire. They gain a +4 racial bonus on initiative checks. This racial trait replaces energy resistance.</p>",
      "unidentified": ""
    },
    "tags": [
      "Ifrit",
      "PFS"
    ],
    "actions": [],
    "uses": {
      "per": null,
      "value": 0,
      "maxFormula": "",
      "autoDeductChargesCost": "1"
    },
    "attackNotes": [],
    "effectNotes": [],
    "changes": [],
    "changeFlags": {
      "loseDexToAC": false,
      "noEncumbrance": false,
      "mediumArmorFullSpeed": false,
      "heavyArmorFullSpeed": false
    },
    "contextNotes": [],
    "links": {
      "children": [],
      "charges": []
    },
    "tag": "",
    "useCustomTag": false,
    "armorProf": {
      "value": [],
      "custom": ""
    },
    "weaponProf": {
      "value": [],
      "custom": ""
    },
    "languages": {
      "value": [],
      "custom": ""
    },
    "flags": {
      "boolean": {},
      "dictionary": {}
    },
    "scriptCalls": [],
    "subType": "racial",
    "associations": {
      "classes": []
    },
    "showInQuickbar": false,
    "abilityType": "none",
    "crOffset": "",
    "disabled": false,
    "classSkills": {}
  },
  "ownership": {
    "default": 0
  },
  "_stats": {
    "systemId": "pf1",
    "systemVersion": "9.1",
    "coreVersion": "10.291",
    "createdTime": 1665428383209,
    "modifiedTime": 1689797937204,
    "lastModifiedBy": "ppv91YxratjWnkJi"
  },
  "effects": [],
  "folder": null,
  "sort": 0,
  "flags": {},
  "_key": "!items!FOZo7WYLv1nrMiUm"
}